15:37:16    0 Step	 time(s)	 time(ns)	 delta(ms)
15:37:16    0 1	 1492616236	 315547812	 936.
15:37:16    1 2	 1492616236	 480532466	 164985.
15:37:16    2 3	 1492616236	 613283840	 132752.
15:37:16    3 4	 1492616236	 778585938	 165302.
15:37:16    4 5	 1492616236	 939867849	 161282.
15:37:17    5 6	 1492616237	 101007312	 161139.
15:37:17    6 7	 1492616237	 237724170	 136717.
15:37:17    7 8	 1492616237	 398947412	 161223.
15:37:17    8 9	 1492616237	 560552574	 161605.
15:37:17    9 10	 1492616237	 726155751	 165604.
15:37:17   10 11	 1492616237	 887811451	 161655.
15:37:18   11 12	 1492616238	 25102268	 137291.
15:37:18   12 13	 1492616238	 186891824	 161790.
15:37:18   13 14	 1492616238	 348002557	 161110.
15:37:18   14 15	 1492616238	 514262410	 166260.
15:37:18   15 16	 1492616238	 675538467	 161276.
15:37:18   16 17	 1492616238	 812695883	 137158.
15:37:18   17 18	 1492616238	 974249820	 161554.
15:37:19   18 19	 1492616239	 139855078	 165605.
15:37:19   19 20	 1492616239	 301468247	 161613.
15:37:19   20 21	 1492616239	 438471974	 137004.
15:37:19   21 22	 1492616239	 599777239	 161305.
15:37:19   22 23	 1492616239	 764891061	 165114.
15:37:19   23 24	 1492616239	 897709084	 132818.
15:37:20   24 25	 1492616240	 59368702	 161659.
15:37:20   25 26	 1492616240	 224940050	 165572.
15:37:20   26 27	 1492616240	 386534797	 161595.
15:37:20   27 28	 1492616240	 552400213	 165865.
15:37:20   28 29	 1492616240	 685251663	 132851.
15:37:20   29 30	 1492616240	 846707812	 161457.
15:37:21   30 31	 1492616241	 12816800	 166109.
15:37:21   31 32	 1492616241	 174563825	 161747.
15:37:21   32 33	 1492616241	 340237070	 165673.
15:37:21   33 34	 1492616241	 473033925	 132797.
15:37:21   34 35	 1492616241	 639367481	 166333.
15:37:21   35 36	 1492616241	 796967553	 157600.
15:37:21   36 37	 1492616241	 958565758	 161599.
15:37:22   37 38	 1492616242	 124419484	 165853.
15:37:22   38 39	 1492616242	 257466712	 133048.
15:37:22   39 40	 1492616242	 423142682	 165675.
15:37:22   40 41	 1492616242	 585541303	 162399.
15:37:22   41 42	 1492616242	 751271872	 165731.
15:37:22   42 43	 1492616242	 913253140	 161981.
15:37:23   43 44	 1492616243	 79176914	 165924.
15:37:23   44 45	 1492616243	 211623498	 132446.
15:37:23   45 46	 1492616243	 373273195	 161650.
15:37:23   46 47	 1492616243	 538433977	 165161.
15:37:23   47 48	 1492616243	 671510695	 133076.
15:37:23   48 49	 1492616243	 836745269	 165235.
15:37:23   49 50	 1492616243	 998357309	 161612.
15:37:24   50 51	 1492616244	 163827889	 165471.
15:37:24   51 52	 1492616244	 297098867	 133271.
15:37:24   52 53	 1492616244	 463166926	 166068.
15:37:24   53 54	 1492616244	 624764958	 161598.
15:37:24   54 55	 1492616244	 786745108	 161980.
15:37:24   55 56	 1492616244	 952093627	 165348.
15:37:25   56 57	 1492616245	 85255378	 133162.
15:37:25   57 58	 1492616245	 251289220	 166034.
15:37:25   58 59	 1492616245	 412682296	 161393.
15:37:25   59 60	 1492616245	 579379421	 166697.
15:37:25   60 61	 1492616245	 741139814	 161761.
15:37:25   61 62	 1492616245	 874155060	 133015.
15:37:26   62 63	 1492616246	 40384687	 166229.
15:37:26   63 64	 1492616246	 206066728	 165682.
15:37:26   64 65	 1492616246	 367934407	 161868.
15:37:26   65 66	 1492616246	 533424364	 165490.
15:37:26   66 67	 1492616246	 666619793	 133196.
15:37:26   67 68	 1492616246	 832650941	 166031.
15:37:26   68 69	 1492616246	 994295519	 161644.
15:37:27   69 70	 1492616247	 161033561	 166738.
15:37:27   70 71	 1492616247	 318507981	 157475.
15:37:27   71 72	 1492616247	 451287813	 132780.
15:37:27   72 73	 1492616247	 616899051	 165611.
15:37:27   73 74	 1492616247	 778257461	 161358.
15:37:27   74 75	 1492616247	 915257189	 137000.
15:37:28   75 76	 1492616248	 76943103	 161686.
15:37:28   76 77	 1492616248	 242727293	 165784.
15:37:28   77 78	 1492616248	 404477226	 161750.
15:37:28   78 79	 1492616248	 570758729	 166282.
15:37:28   79 80	 1492616248	 703536075	 132777.
15:37:28   80 81	 1492616248	 869395427	 165859.
15:37:29   81 82	 1492616249	 30556893	 161162.
15:37:29   82 83	 1492616249	 167534013	 136977.
15:37:29   83 84	 1492616249	 329220725	 161687.
15:37:29   84 85	 1492616249	 490671372	 161450.
15:37:29   85 86	 1492616249	 657108120	 166437.
15:37:29   86 87	 1492616249	 823191727	 166084.
15:37:29   87 88	 1492616249	 956080138	 132888.
15:37:30   88 89	 1492616250	 121651895	 165572.
15:37:30   89 90	 1492616250	 283239106	 161587.
15:37:30   90 91	 1492616250	 448980490	 165741.
15:37:30   91 92	 1492616250	 582190039	 133210.
15:37:30   92 93	 1492616250	 743410525	 161220.
15:37:30   93 94	 1492616250	 909197071	 165787.
15:37:31   94 95	 1492616251	 41937509	 132740.
15:37:31   95 96	 1492616251	 203477368	 161540.
15:37:31   96 97	 1492616251	 369263489	 165786.
15:37:31   97 98	 1492616251	 530912996	 161650.
15:37:31   98 99	 1492616251	 696663293	 165750.
15:37:31   99 100	 1492616251	 858282359	 161619.
15:37:32  100 101	 1492616252	 19975701	 161694.
15:37:32  101 102	 1492616252	 185508305	 165532.
15:37:32  102 103	 1492616252	 347523888	 162016.
15:37:32  103 104	 1492616252	 480319923	 132796.
15:37:32  104 105	 1492616252	 646037307	 165717.
15:37:32  105 106	 1492616252	 807856842	 161820.
15:37:32  106 107	 1492616252	 969689119	 161832.
15:37:33  107 108	 1492616253	 135220016	 165531.
15:37:33  108 109	 1492616253	 296967969	 161748.
15:37:33  109 110	 1492616253	 458630821	 161663.
15:37:33  110 111	 1492616253	 624409721	 165779.
15:37:33  111 112	 1492616253	 757124813	 132715.
15:37:33  112 113	 1492616253	 918548432	 161423.
15:37:34  113 114	 1492616254	 84160635	 165612.
15:37:34  114 115	 1492616254	 245585162	 161425.
15:37:34  115 116	 1492616254	 407091698	 161506.
15:37:34  116 117	 1492616254	 572574114	 165483.
15:37:34  117 118	 1492616254	 734198019	 161624.
15:37:34  118 119	 1492616254	 867112168	 132914.
15:37:35  119 120	 1492616255	 32644589	 165532.
15:37:35  120 121	 1492616255	 194117522	 161473.
15:37:35  121 122	 1492616255	 355475293	 161358.
15:37:35  122 123	 1492616255	 521147971	 165673.
15:37:35  123 124	 1492616255	 682504914	 161357.
15:37:35  124 125	 1492616255	 815368634	 132863.
15:37:35  125 126	 1492616255	 976553563	 161185.
15:37:36  126 127	 1492616256	 141851074	 165298.
15:37:36  127 128	 1492616256	 303284954	 161434.
15:37:36  128 129	 1492616256	 468566515	 165281.
15:37:36  129 130	 1492616256	 601285606	 132719.
15:37:36  130 131	 1492616256	 762729377	 161444.
15:37:36  131 132	 1492616256	 928047058	 165318.
15:37:37  132 133	 1492616257	 89315401	 161268.
15:37:37  133 134	 1492616257	 221973820	 132659.
15:37:37  134 135	 1492616257	 387406058	 165432.
15:37:37  135 136	 1492616257	 548975213	 161569.
15:37:37  136 137	 1492616257	 714366314	 165391.
15:37:37  137 138	 1492616257	 847187592	 132821.
15:37:38  138 139	 1492616258	 13069958	 165883.
15:37:38  139 140	 1492616258	 174723391	 161653.
15:37:38  140 141	 1492616258	 336348906	 161626.
15:37:38  141 142	 1492616258	 501976372	 165627.
15:37:38  142 143	 1492616258	 634716800	 132741.
15:37:38  143 144	 1492616258	 796240135	 161523.
15:37:38  144 145	 1492616258	 961466600	 165226.
15:37:39  145 146	 1492616259	 122641274	 161175.
15:37:39  146 147	 1492616259	 259597657	 136956.
15:37:39  147 148	 1492616259	 421040519	 161443.
15:37:39  148 149	 1492616259	 586961551	 165921.
15:37:39  149 150	 1492616259	 748231292	 161270.
15:37:39  150 151	 1492616259	 880990723	 132759.
15:37:40  151 152	 1492616260	 46832484	 165842.
15:37:40  152 153	 1492616260	 208520233	 161688.
15:37:40  153 154	 1492616260	 374219440	 165699.
15:37:40  154 155	 1492616260	 535762724	 161544.
15:37:40  155 156	 1492616260	 672846282	 137083.
15:37:40  156 157	 1492616260	 834199402	 161353.
15:37:40  157 158	 1492616260	 995499761	 161301.
15:37:41  158 159	 1492616261	 161045277	 165545.
15:37:41  159 160	 1492616261	 322835531	 161790.
15:37:41  160 161	 1492616261	 484362506	 161527.
15:37:41  161 162	 1492616261	 617346466	 132984.
15:37:41  162 163	 1492616261	 783133065	 165787.
15:37:41  163 164	 1492616261	 944608457	 161475.
15:37:42  164 165	 1492616262	 105971580	 161363.
15:37:42  165 166	 1492616262	 271568129	 165597.
15:37:42  166 167	 1492616262	 433370096	 161802.
15:37:42  167 168	 1492616262	 570388279	 137018.
15:37:42  168 169	 1492616262	 732129384	 161741.
15:37:42  169 170	 1492616262	 893694986	 161566.
15:37:43  170 171	 1492616263	 58959736	 165265.
15:37:43  171 172	 1492616263	 191823283	 132863.
15:37:43  172 173	 1492616263	 357740298	 165917.
15:37:43  173 174	 1492616263	 519533087	 161793.
15:37:43  174 175	 1492616263	 681253852	 161721.
15:37:43  175 176	 1492616263	 846871730	 165618.
15:37:44  176 177	 1492616264	 4891824	 158020.
15:37:44  177 178	 1492616264	 137289590	 132397.
15:37:44  178 179	 1492616264	 302638455	 165349.
15:37:44  179 180	 1492616264	 463677145	 161039.
15:37:44  180 181	 1492616264	 600722433	 137045.
15:37:44  181 182	 1492616264	 762590952	 161869.
15:37:44  182 183	 1492616264	 928531247	 165940.
15:37:45  183 184	 1492616265	 90485697	 161955.
15:37:45  184 185	 1492616265	 252144703	 161659.
15:37:45  185 186	 1492616265	 388993302	 136848.
15:37:45  186 187	 1492616265	 551066130	 162073.
15:37:45  187 188	 1492616265	 717037622	 165971.
15:37:45  188 189	 1492616265	 878974735	 161938.
15:37:46  189 190	 1492616266	 44802352	 165827.
15:37:46  190 191	 1492616266	 206664879	 161863.
15:37:46  191 192	 1492616266	 343444253	 136779.
15:37:46  192 193	 1492616266	 505076630	 161632.
15:37:46  193 194	 1492616266	 666806463	 161730.
15:37:46  194 195	 1492616266	 832288615	 165483.
15:37:46  195 196	 1492616266	 964857028	 132568.
15:37:47  196 197	 1492616267	 130791104	 165934.
15:37:47  197 198	 1492616267	 292574132	 161783.
15:37:47  198 199	 1492616267	 458298805	 165725.
15:37:47  199 200	 1492616267	 590878656	 132579.
15:37:47  200 201	 1492616267	 752530497	 161652.
15:37:47  201 202	 1492616267	 918045376	 165515.
15:37:48  202 203	 1492616268	 80072379	 162027.
15:37:48  203 204	 1492616268	 245923892	 165852.
15:37:48  204 205	 1492616268	 378859772	 132936.
15:37:48  205 206	 1492616268	 540774709	 161914.
15:37:48  206 207	 1492616268	 706527195	 165753.
15:37:48  207 208	 1492616268	 869013961	 162487.
15:37:49  208 209	 1492616269	 30446874	 161433.
15:37:49  209 210	 1492616269	 167911247	 137464.
15:37:49  210 211	 1492616269	 329903739	 161993.
15:37:49  211 212	 1492616269	 495709697	 165806.
15:37:49  212 213	 1492616269	 657658684	 161948.
15:37:49  213 214	 1492616269	 823971566	 166313.
15:37:49  214 215	 1492616269	 986060276	 162089.
15:37:50  215 216	 1492616270	 152203139	 166143.
15:37:50  216 217	 1492616270	 285572690	 133369.
15:37:50  217 218	 1492616270	 452023451	 166451.
15:37:50  218 219	 1492616270	 614004850	 161982.
15:37:50  219 220	 1492616270	 780103451	 166098.
15:37:50  220 221	 1492616270	 938573518	 158470.
15:37:51  221 222	 1492616271	 100146528	 161573.
15:37:51  222 223	 1492616271	 261772580	 161626.
15:37:51  223 224	 1492616271	 398749962	 136978.
15:37:51  224 225	 1492616271	 560457003	 161707.
15:37:51  225 226	 1492616271	 726181010	 165724.
15:37:51  226 227	 1492616271	 888046966	 161866.
15:37:52  227 228	 1492616272	 24945825	 136899.
15:37:52  228 229	 1492616272	 186280229	 161334.
15:37:52  229 230	 1492616272	 351882556	 165603.
15:37:52  230 231	 1492616272	 484533703	 132650.
15:37:52  231 232	 1492616272	 645798480	 161265.
15:37:52  232 233	 1492616272	 811424459	 165626.
15:37:52  233 234	 1492616272	 943948574	 132524.
15:37:53  234 235	 1492616273	 109309326	 165361.
15:37:53  235 236	 1492616273	 270938264	 161629.
15:37:53  236 237	 1492616273	 436817150	 165879.
15:37:53  237 238	 1492616273	 569404318	 132587.
15:37:53  238 239	 1492616273	 734659815	 165256.
15:37:53  239 240	 1492616273	 896108272	 161448.
15:37:54  240 241	 1492616274	 29147811	 133040.
15:37:54  241 242	 1492616274	 194861438	 165713.
15:37:54  242 243	 1492616274	 356415136	 161554.
15:37:54  243 244	 1492616274	 522118320	 165703.
15:37:54  244 245	 1492616274	 655014250	 132896.
15:37:54  245 246	 1492616274	 821200385	 166186.
15:37:54  246 247	 1492616274	 983336497	 162136.
15:37:55  247 248	 1492616275	 145055260	 161719.
15:37:55  248 249	 1492616275	 277992621	 132937.
15:37:55  249 250	 1492616275	 439422337	 161430.
15:37:55  250 251	 1492616275	 605233301	 165811.
15:37:55  251 252	 1492616275	 771674402	 166441.
15:37:55  252 253	 1492616275	 904477406	 132803.
15:37:56  253 254	 1492616276	 70567027	 166090.
15:37:56  254 255	 1492616276	 232732969	 162166.
15:37:56  255 256	 1492616276	 394885649	 162152.
15:37:56  256 257	 1492616276	 560446255	 165561.
15:37:56  257 258	 1492616276	 693422559	 132976.
15:37:56  258 259	 1492616276	 859052983	 165631.
15:37:57  259 260	 1492616277	 20694940	 161642.
15:37:57  260 261	 1492616277	 186606477	 165911.
15:37:57  261 262	 1492616277	 348711394	 162105.
15:37:57  262 263	 1492616277	 481632754	 132922.
15:37:57  263 264	 1492616277	 647226599	 165593.
15:37:57  264 265	 1492616277	 808787252	 161561.
15:37:57  265 266	 1492616277	 973992034	 165205.
15:37:58  266 267	 1492616278	 106997872	 133006.
15:37:58  267 268	 1492616278	 272131803	 165134.
15:37:58  268 269	 1492616278	 433875171	 161743.
15:37:58  269 270	 1492616278	 570646739	 136772.
15:37:58  270 271	 1492616278	 732462018	 161815.
15:37:58  271 272	 1492616278	 893948658	 161486.
15:37:59  272 273	 1492616279	 59446336	 165498.
15:37:59  273 274	 1492616279	 192446027	 133000.
15:37:59  274 275	 1492616279	 358288142	 165842.
15:37:59  275 276	 1492616279	 519844926	 161557.
15:37:59  276 277	 1492616279	 656525512	 136680.
15:37:59  277 278	 1492616279	 818087275	 161562.
15:37:59  278 279	 1492616279	 984067570	 165980.
15:38:00  279 280	 1492616280	 145650496	 161583.
15:38:00  280 281	 1492616280	 278555836	 132906.
15:38:00  281 282	 1492616280	 443828368	 165272.
15:38:00  282 283	 1492616280	 605448900	 161621.
15:38:00  283 284	 1492616280	 771269733	 165820.
15:38:00  284 285	 1492616280	 904059187	 132790.
15:38:01  285 286	 1492616281	 69750707	 165691.
15:38:01  286 287	 1492616281	 231639492	 161889.
15:38:01  287 288	 1492616281	 397465537	 165826.
15:38:01  288 289	 1492616281	 559070661	 161605.
15:38:01  289 290	 1492616281	 720843009	 161773.
15:38:01  290 291	 1492616281	 857994815	 137152.
15:38:02  291 292	 1492616282	 20058734	 162064.
15:38:02  292 293	 1492616282	 181839725	 161781.
15:38:02  293 294	 1492616282	 347142624	 165302.
15:38:02  294 295	 1492616282	 508810394	 161668.
15:38:02  295 296	 1492616282	 674462369	 165652.
15:38:02  296 297	 1492616282	 807382283	 132920.
15:38:02  297 298	 1492616282	 968638483	 161256.
15:38:03  298 299	 1492616283	 134105080	 165467.
15:38:03  299 300	 1492616283	 295767089	 161662.
15:38:03  300 301	 1492616283	 457577730	 161811.
15:38:03  301 302	 1492616283	 618949659	 161371.
15:38:03  302 303	 1492616283	 755926186	 136977.
15:38:03  303 304	 1492616283	 917284590	 161358.
15:38:04  304 305	 1492616284	 78681061	 161397.
15:38:04  305 306	 1492616284	 244352138	 165671.
15:38:04  306 307	 1492616284	 406029985	 161678.
15:38:04  307 308	 1492616284	 567494573	 161464.
15:38:04  308 309	 1492616284	 704282952	 136789.
15:38:04  309 310	 1492616284	 865514355	 161231.
15:38:05  310 311	 1492616285	 30790086	 165276.
15:38:05  311 312	 1492616285	 192131412	 161341.
15:38:05  312 313	 1492616285	 324972600	 132841.
15:38:05  313 314	 1492616285	 490633303	 165661.
15:38:05  314 315	 1492616285	 652210242	 161577.
15:38:05  315 316	 1492616285	 817708666	 165498.
15:38:05  316 317	 1492616285	 979149471	 161441.
15:38:06  317 318	 1492616286	 141453228	 162304.
15:38:06  318 319	 1492616286	 298956313	 157503.
15:38:06  319 320	 1492616286	 435770937	 136815.
15:38:06  320 321	 1492616286	 597135508	 161364.
15:38:06  321 322	 1492616286	 796614244	 199479.
15:38:06  322 323	 1492616286	 958225453	 161611.
15:38:07  323 324	 1492616287	 120956452	 162731.
15:38:07  324 325	 1492616287	 282771000	 161815.
15:38:07  325 326	 1492616287	 450180330	 167409.
15:38:07  326 327	 1492616287	 612264206	 162084.
15:38:07  327 328	 1492616287	 778130503	 165866.
15:38:07  328 329	 1492616287	 911187125	 133057.
15:38:08  329 330	 1492616288	 76928735	 165742.
15:38:08  330 331	 1492616288	 238874990	 161946.
15:38:08  331 332	 1492616288	 400495358	 161620.
15:38:08  332 333	 1492616288	 537334447	 136839.
15:38:08  333 334	 1492616288	 699027970	 161694.
15:38:08  334 335	 1492616288	 864707426	 165679.
15:38:09  335 336	 1492616289	 26394305	 161687.
15:38:09  336 337	 1492616289	 163428591	 137034.
15:38:09  337 338	 1492616289	 355030520	 191602.
15:38:09  338 339	 1492616289	 488071344	 133041.
15:38:09  339 340	 1492616289	 655396990	 167326.
15:38:09  340 341	 1492616289	 816944580	 161547.
15:38:09  341 342	 1492616289	 982288207	 165344.
15:38:10  342 343	 1492616290	 143582478	 161294.
15:38:10  343 344	 1492616290	 304810804	 161229.
15:38:10  344 345	 1492616290	 437725374	 132914.
15:38:10  345 346	 1492616290	 602885260	 165160.
15:38:10  346 347	 1492616290	 764331359	 161446.
15:38:10  347 348	 1492616290	 925892015	 161561.
15:38:11  348 349	 1492616291	 91498426	 165606.
15:38:11  349 350	 1492616291	 252849204	 161351.
15:38:11  350 351	 1492616291	 385672580	 132823.
15:38:11  351 352	 1492616291	 551080929	 165409.
15:38:11  352 353	 1492616291	 712419622	 161338.
15:38:11  353 354	 1492616291	 873782874	 161364.
15:38:12  354 355	 1492616292	 39168095	 165385.
15:38:12  355 356	 1492616292	 200755290	 161587.
15:38:12  356 357	 1492616292	 333357672	 132602.
15:38:12  357 358	 1492616292	 498660267	 165303.
15:38:12  358 359	 1492616292	 660111900	 161452.
15:38:12  359 360	 1492616292	 821489245	 161377.
15:38:12  360 361	 1492616292	 986747290	 165258.
15:38:13  361 362	 1492616293	 119306433	 132559.
15:38:13  362 363	 1492616293	 280610571	 161304.
15:38:13  363 364	 1492616293	 446729602	 166119.
15:38:13  364 365	 1492616293	 608603768	 161875.
15:38:13  365 366	 1492616293	 745267846	 136664.
15:38:13  366 367	 1492616293	 906849777	 161582.
15:38:14  367 368	 1492616294	 72781547	 165931.
15:38:14  368 369	 1492616294	 205621242	 132840.
15:38:14  369 370	 1492616294	 371382101	 165761.
15:38:14  370 371	 1492616294	 532385015	 161003.
15:38:14  371 372	 1492616294	 698166436	 165781.
15:38:14  372 373	 1492616294	 831140656	 132974.
15:38:14  373 374	 1492616294	 992499941	 161360.
15:38:15  374 375	 1492616295	 158324621	 165825.
15:38:15  375 376	 1492616295	 291190042	 132865.
15:38:15  376 377	 1492616295	 456789644	 165599.
15:38:15  377 378	 1492616295	 622212595	 165423.
15:38:15  378 379	 1492616295	 783863726	 161652.
15:38:15  379 380	 1492616295	 916887599	 133023.
15:38:16  380 381	 1492616296	 83007302	 166120.
15:38:16  381 382	 1492616296	 244602011	 161595.
15:38:16  382 383	 1492616296	 410382589	 165780.
15:38:16  383 384	 1492616296	 543373557	 132991.
15:38:16  384 385	 1492616296	 709294282	 165921.
15:38:16  385 386	 1492616296	 870451521	 161157.
15:38:17  386 387	 1492616297	 31729216	 161278.
15:38:17  387 388	 1492616297	 168603095	 136874.
15:38:17  388 389	 1492616297	 330922275	 162319.
15:38:17  389 390	 1492616297	 496475594	 165553.
15:38:17  390 391	 1492616297	 658250728	 161775.
15:38:17  391 392	 1492616297	 795124115	 136874.
15:38:17  392 393	 1492616297	 956607437	 161483.
15:38:18  393 394	 1492616298	 118689160	 162082.
15:38:18  394 395	 1492616298	 285016941	 166328.
15:38:18  395 396	 1492616298	 446507352	 161490.
15:38:18  396 397	 1492616298	 583550055	 137043.
15:38:18  397 398	 1492616298	 745359396	 161809.
15:38:18  398 399	 1492616298	 911387603	 166028.
15:38:19  399 400	 1492616299	 72900862	 161514.
15:38:19  400 401	 1492616299	 238643271	 165742.
15:38:19  401 402	 1492616299	 372000292	 133357.
15:38:19  402 403	 1492616299	 533704523	 161705.
15:38:19  403 404	 1492616299	 699562581	 165858.
15:38:19  404 405	 1492616299	 865291292	 165728.
15:38:19  405 406	 1492616299	 998174906	 132884.
15:38:20  406 407	 1492616300	 159510329	 161335.
15:38:20  407 408	 1492616300	 325183382	 165673.
15:38:20  408 409	 1492616300	 486718393	 161535.
15:38:20  409 410	 1492616300	 623970530	 137252.
15:38:20  410 411	 1492616300	 785727353	 161757.
15:38:20  411 412	 1492616300	 951459230	 165732.
15:38:21  412 413	 1492616301	 112944627	 161485.
15:38:21  413 414	 1492616301	 250045622	 137101.
15:38:21  414 415	 1492616301	 411504491	 161459.
15:38:21  415 416	 1492616301	 573382030	 161878.
15:38:21  416 417	 1492616301	 739349233	 165967.
15:38:21  417 418	 1492616301	 872077456	 132728.
15:38:22  418 419	 1492616302	 37292590	 165215.
15:38:22  419 420	 1492616302	 199007368	 161715.
15:38:22  420 421	 1492616302	 364329137	 165322.
15:38:22  421 422	 1492616302	 496927905	 132599.
15:38:22  422 423	 1492616302	 662642997	 165715.
15:38:22  423 424	 1492616302	 825686596	 163043.
15:38:22  424 425	 1492616302	 983069861	 157384.
15:38:23  425 426	 1492616303	 144696656	 161626.
15:38:23  426 427	 1492616303	 281778811	 137083.
15:38:23  427 428	 1492616303	 443331681	 161552.
15:38:23  428 429	 1492616303	 605104395	 161773.
15:38:23  429 430	 1492616303	 741834533	 136730.
15:38:23  430 431	 1492616303	 903255467	 161421.
15:38:24  431 432	 1492616304	 69185699	 165930.
15:38:24  432 433	 1492616304	 230832586	 161647.
15:38:24  433 434	 1492616304	 367656358	 136824.
15:38:24  434 435	 1492616304	 529210773	 161554.
15:38:24  435 436	 1492616304	 695055635	 165845.
15:38:24  436 437	 1492616304	 856265834	 161211.
15:38:24  437 438	 1492616304	 992938136	 136672.
15:38:25  438 439	 1492616305	 153835833	 160898.
15:38:25  439 440	 1492616305	 315404244	 161568.
15:38:25  440 441	 1492616305	 452084859	 136681.
15:38:25  441 442	 1492616305	 613690566	 161605.
15:38:25  442 443	 1492616305	 779717126	 166027.
15:38:25  443 444	 1492616305	 941220777	 161504.
15:38:26  444 445	 1492616306	 78456779	 137235.
15:38:26  445 446	 1492616306	 240288023	 161832.
15:38:26  446 447	 1492616306	 406209869	 165922.
15:38:26  447 448	 1492616306	 568569027	 162359.
15:38:26  448 449	 1492616306	 733961950	 165393.
15:38:26  449 450	 1492616306	 866739112	 132777.
15:38:27  450 451	 1492616307	 28739875	 162001.
15:38:27  451 452	 1492616307	 228431620	 199691.
15:38:27  452 453	 1492616307	 390288462	 161857.
15:38:27  453 454	 1492616307	 558490556	 168202.
15:38:27  454 455	 1492616307	 719939135	 161449.
15:38:27  455 456	 1492616307	 885594372	 165655.
15:38:28  456 457	 1492616308	 47087985	 161494.
15:38:28  457 458	 1492616308	 183894474	 136806.
15:38:28  458 459	 1492616308	 345680884	 161787.
15:38:28  459 460	 1492616308	 511752751	 166072.
15:38:28  460 461	 1492616308	 673667777	 161915.
15:38:28  461 462	 1492616308	 806526369	 132858.
15:38:28  462 463	 1492616308	 971919346	 165393.
15:38:29  463 464	 1492616309	 137772171	 165853.
15:38:29  464 465	 1492616309	 298908391	 161136.
15:38:29  465 466	 1492616309	 431259920	 132352.
15:38:29  466 467	 1492616309	 596359067	 165099.
15:38:29  467 468	 1492616309	 757204391	 160845.
15:38:29  468 469	 1492616309	 918696861	 161493.
15:38:30  469 470	 1492616310	 55794443	 137097.
15:38:30  470 471	 1492616310	 217189807	 161396.
15:38:30  471 472	 1492616310	 384895943	 167706.
15:38:30  472 473	 1492616310	 546644741	 161749.
15:38:30  473 474	 1492616310	 707709736	 161065.
15:38:30  474 475	 1492616310	 844445761	 136736.
15:38:31  475 476	 1492616311	 5924977	 161479.
15:38:31  476 477	 1492616311	 171392916	 165468.
15:38:31  477 478	 1492616311	 332832940	 161440.
15:38:31  478 479	 1492616311	 465534980	 132702.
15:38:31  479 480	 1492616311	 631192304	 165657.
15:38:31  480 481	 1492616311	 792225102	 161033.
15:38:31  481 482	 1492616311	 929239250	 137014.
15:38:32  482 483	 1492616312	 90722787	 161483.
15:38:32  483 484	 1492616312	 256311629	 165589.
15:38:32  484 485	 1492616312	 418009918	 161699.
15:38:32  485 486	 1492616312	 551354526	 133344.
15:38:32  486 487	 1492616312	 717046180	 165692.
15:38:32  487 488	 1492616312	 882870205	 165824.
15:38:33  488 489	 1492616313	 44608338	 161738.
15:38:33  489 490	 1492616313	 177260656	 132652.
15:38:33  490 491	 1492616313	 342972678	 165712.
15:38:33  491 492	 1492616313	 504441544	 161469.
15:38:33  492 493	 1492616313	 670063296	 165622.
15:38:33  493 494	 1492616313	 803173330	 133110.
15:38:33  494 495	 1492616313	 965593442	 162420.
15:38:34  495 496	 1492616314	 127610405	 162017.
15:38:34  496 497	 1492616314	 292979613	 165369.
15:38:34  497 498	 1492616314	 454626083	 161647.
15:38:34  498 499	 1492616314	 620430779	 165805.
15:38:34  499 500	 1492616314	 753271711	 132840.
15:38:34  500 501	 1492616314	 918895871	 165625.
15:38:35  501 502	 1492616315	 80398133	 161502.
15:38:35  502 503	 1492616315	 217290638	 136892.
15:38:35  503 504	 1492616315	 379090529	 161800.
15:38:35  504 505	 1492616315	 540443651	 161353.
15:38:35  505 506	 1492616315	 706289389	 165846.
15:38:35  506 507	 1492616315	 868041328	 161752.
15:38:36  507 508	 1492616316	 33774383	 165733.
15:38:36  508 509	 1492616316	 195631207	 161857.
15:38:36  509 510	 1492616316	 357321681	 161691.
15:38:36  510 511	 1492616316	 494360596	 137038.
15:38:36  511 512	 1492616316	 655941092	 161581.
15:38:36  512 513	 1492616316	 817475814	 161535.
15:38:36  513 514	 1492616316	 983185475	 165709.
15:38:37  514 515	 1492616317	 144754043	 161569.
15:38:37  515 516	 1492616317	 306368879	 161615.
15:38:37  516 517	 1492616317	 472178009	 165809.
15:38:37  517 518	 1492616317	 605006106	 132828.
15:38:37  518 519	 1492616317	 766635490	 161629.
15:38:37  519 520	 1492616317	 932099786	 165465.
15:38:38  520 521	 1492616318	 93428238	 161328.
15:38:38  521 522	 1492616318	 258989127	 165561.
15:38:38  522 523	 1492616318	 420197304	 161208.
15:38:38  523 524	 1492616318	 553182425	 132985.
15:38:38  524 525	 1492616318	 718645988	 165464.
15:38:38  525 526	 1492616318	 880254616	 161608.
15:38:39  526 527	 1492616319	 41638770	 161385.
15:38:39  527 528	 1492616319	 206872397	 165233.
15:38:39  528 529	 1492616319	 368373965	 161502.
15:38:39  529 530	 1492616319	 501190112	 132816.
15:38:39  530 531	 1492616319	 666705906	 165516.
15:38:39  531 532	 1492616319	 828033207	 161327.
15:38:39  532 533	 1492616319	 989514948	 161482.
15:38:40  533 534	 1492616320	 155170861	 165656.
15:38:40  534 535	 1492616320	 287889982	 132719.
15:38:40  535 536	 1492616320	 453302164	 165412.
15:38:40  536 537	 1492616320	 614671708	 161370.
15:38:40  537 538	 1492616320	 776044335	 161372.
15:38:40  538 539	 1492616320	 941788876	 165745.
15:38:41  539 540	 1492616321	 103605900	 161817.
15:38:41  540 541	 1492616321	 240716472	 137110.
15:38:41  541 542	 1492616321	 402398569	 161682.
15:38:41  542 543	 1492616321	 564306849	 161909.
15:38:41  543 544	 1492616321	 730242966	 165936.
15:38:41  544 545	 1492616321	 892644429	 162401.
15:38:42  545 546	 1492616322	 58380287	 165736.
15:38:42  546 547	 1492616322	 220076484	 161696.
15:38:42  547 548	 1492616322	 381751981	 161676.
15:38:42  548 549	 1492616322	 518449885	 136698.
15:38:42  549 550	 1492616322	 679584839	 161135.
15:38:42  550 551	 1492616322	 840914466	 161329.
15:38:43  551 552	 1492616323	 6357026	 165443.
15:38:43  552 553	 1492616323	 167412465	 161055.
15:38:43  553 554	 1492616323	 300267492	 132855.
15:38:43  554 555	 1492616323	 465669272	 165402.
15:38:43  555 556	 1492616323	 626898174	 161229.
15:38:43  556 557	 1492616323	 787912622	 161014.
15:38:43  557 558	 1492616323	 924805977	 136894.
15:38:44  558 559	 1492616324	 86209069	 161403.
15:38:44  559 560	 1492616324	 247554807	 161346.
15:38:44  560 561	 1492616324	 413477415	 165922.
15:38:44  561 562	 1492616324	 575114783	 161638.
15:38:44  562 563	 1492616324	 740697639	 165582.
15:38:44  563 564	 1492616324	 873762548	 133065.
15:38:45  564 565	 1492616325	 35504925	 161743.
15:38:45  565 566	 1492616325	 201797589	 166292.
15:38:45  566 567	 1492616325	 359200097	 157403.
15:38:45  567 568	 1492616325	 520484435	 161284.
15:38:45  568 569	 1492616325	 657326327	 136842.
15:38:45  569 570	 1492616325	 819022324	 161696.
15:38:45  570 571	 1492616325	 980166221	 161144.
15:38:46  571 572	 1492616326	 145645227	 165479.
15:38:46  572 573	 1492616326	 278639795	 132995.
15:38:46  573 574	 1492616326	 440321544	 161681.
15:38:46  574 575	 1492616326	 605817068	 165496.
15:38:46  575 576	 1492616326	 767015229	 161198.
15:38:46  576 577	 1492616326	 928479978	 161465.
15:38:47  577 578	 1492616327	 93865986	 165386.
15:38:47  578 579	 1492616327	 226602155	 132736.
15:38:47  579 580	 1492616327	 391985417	 165383.
15:38:47  580 581	 1492616327	 553301549	 161316.
15:38:47  581 582	 1492616327	 714596468	 161295.
15:38:47  582 583	 1492616327	 851580889	 136985.
15:38:48  583 584	 1492616328	 13188820	 161608.
15:38:48  584 585	 1492616328	 178730721	 165541.
15:38:48  585 586	 1492616328	 340240778	 161511.
15:38:48  586 587	 1492616328	 477415919	 137175.
15:38:48  587 588	 1492616328	 639349471	 161933.
15:38:48  588 589	 1492616328	 805110670	 165761.
15:38:48  589 590	 1492616328	 966727946	 161618.
15:38:49  590 591	 1492616329	 132592819	 165865.
15:38:49  591 592	 1492616329	 265827938	 133235.
15:38:49  592 593	 1492616329	 431690708	 165862.
15:38:49  593 594	 1492616329	 593632730	 161943.
15:38:49  594 595	 1492616329	 758972631	 165339.
15:38:49  595 596	 1492616329	 920271107	 161299.
15:38:50  596 597	 1492616330	 52954491	 132683.
15:38:50  597 598	 1492616330	 217941127	 164987.
15:38:50  598 599	 1492616330	 379136916	 161196.
15:38:50  599 600	 1492616330	 540384385	 161247.
15:38:50  600 601	 1492616330	 677109988	 136726.
15:38:50  601 602	 1492616330	 838277913	 161168.
15:38:50  602 603	 1492616330	 999372041	 161094.
15:38:51  603 604	 1492616331	 164534023	 165162.
15:38:51  604 605	 1492616331	 297019730	 132486.
15:38:51  605 606	 1492616331	 462318239	 165298.
15:38:51  606 607	 1492616331	 623446285	 161128.
15:38:51  607 608	 1492616331	 788568432	 165122.
15:38:51  608 609	 1492616331	 920824218	 132256.
15:38:52  609 610	 1492616332	 81953837	 161130.
15:38:52  610 611	 1492616332	 246792388	 164838.
15:38:52  611 612	 1492616332	 408216521	 161425.
15:38:52  612 613	 1492616332	 540957718	 132740.
15:38:52  613 614	 1492616332	 706223124	 165266.
15:38:52  614 615	 1492616332	 867644059	 161421.
15:38:53  615 616	 1492616333	 33447627	 165803.
15:38:53  616 617	 1492616333	 166352126	 132905.
15:38:53  617 618	 1492616333	 327861308	 161509.
15:38:53  618 619	 1492616333	 493582667	 165721.
15:38:53  619 620	 1492616333	 655177415	 161595.
15:38:53  620 621	 1492616333	 816802913	 161626.
15:38:53  621 622	 1492616333	 984114913	 167312.
15:38:54  622 623	 1492616334	 146197395	 162082.
15:38:54  623 624	 1492616334	 312077597	 165880.
15:38:54  624 625	 1492616334	 473884195	 161807.
15:38:54  625 626	 1492616334	 635528093	 161644.
15:38:54  626 627	 1492616334	 801512523	 165984.
15:38:54  627 628	 1492616334	 934705283	 133193.
15:38:55  628 629	 1492616335	 100530768	 165826.
15:38:55  629 630	 1492616335	 262335740	 161805.
15:38:55  630 631	 1492616335	 428187570	 165851.
15:38:55  631 632	 1492616335	 561088047	 132901.
15:38:55  632 633	 1492616335	 726925521	 165837.
15:38:55  633 634	 1492616335	 888740714	 161815.
15:38:56  634 635	 1492616336	 54714171	 165974.
15:38:56  635 636	 1492616336	 216604616	 161890.
15:38:56  636 637	 1492616336	 378986432	 162382.
15:38:56  637 638	 1492616336	 515913891	 136928.
15:38:56  638 639	 1492616336	 677708825	 161795.
15:38:56  639 640	 1492616336	 843453174	 165744.
15:38:57  640 641	 1492616337	 5091324	 161638.
15:38:57  641 642	 1492616337	 142540859	 137450.
15:38:57  642 643	 1492616337	 304054181	 161513.
15:38:57  643 644	 1492616337	 465818320	 161764.
15:38:57  644 645	 1492616337	 631341422	 165523.
15:38:57  645 646	 1492616337	 763745016	 132404.
15:38:57  646 647	 1492616337	 925231314	 161486.
15:38:58  647 648	 1492616338	 90828230	 165597.
15:38:58  648 649	 1492616338	 251892579	 161064.
15:38:58  649 650	 1492616338	 413417955	 161526.
15:38:58  650 651	 1492616338	 578919459	 165501.
15:38:58  651 652	 1492616338	 711845848	 132927.
15:38:58  652 653	 1492616338	 873079090	 161233.
15:38:59  653 654	 1492616339	 38402645	 165323.
15:38:59  654 655	 1492616339	 199730181	 161328.
15:38:59  655 656	 1492616339	 398019530	 198289.
15:38:59  656 657	 1492616339	 559460839	 161442.
15:38:59  657 658	 1492616339	 692438837	 132978.
15:38:59  658 659	 1492616339	 853836943	 161398.
15:39:00  659 660	 1492616340	 20715703	 166878.
15:39:00  660 661	 1492616340	 182431443	 161716.
15:39:00  661 662	 1492616340	 378471295	 196040.
15:39:00  662 663	 1492616340	 511273781	 132803.
15:39:00  663 664	 1492616340	 672978742	 161705.
15:39:00  664 665	 1492616340	 837879663	 164900.
15:39:00  665 666	 1492616340	 998848150	 160969.
15:39:01  666 667	 1492616341	 131383273	 132535.
15:39:01  667 668	 1492616341	 326971446	 195588.
15:39:01  668 669	 1492616341	 488530272	 161559.
15:39:01  669 670	 1492616341	 650800154	 162270.
15:39:01  670 671	 1492616341	 817291342	 166491.
15:39:01  671 672	 1492616341	 980210505	 162919.
15:39:02  672 673	 1492616342	 137783053	 157573.
15:39:02  673 674	 1492616342	 270567547	 132784.
15:39:02  674 675	 1492616342	 435674856	 165108.
15:39:02  675 676	 1492616342	 596946802	 161272.
15:39:02  676 677	 1492616342	 762518935	 165572.
15:39:02  677 678	 1492616342	 925499403	 162980.
15:39:03  678 679	 1492616343	 87266655	 161767.
15:39:03  679 680	 1492616343	 252519007	 165253.
15:39:03  680 681	 1492616343	 384939278	 132420.
15:39:03  681 682	 1492616343	 546532829	 161594.
15:39:03  682 683	 1492616343	 711880344	 165347.
15:39:03  683 684	 1492616343	 873454764	 161575.
15:39:04  684 685	 1492616344	 34822181	 161367.
15:39:04  685 686	 1492616344	 171681776	 136860.
15:39:04  686 687	 1492616344	 333227772	 161546.
15:39:04  687 688	 1492616344	 494716238	 161488.
15:39:04  688 689	 1492616344	 660204483	 165488.
15:39:04  689 690	 1492616344	 821584680	 161380.
15:39:04  690 691	 1492616344	 958455818	 136872.
15:39:05  691 692	 1492616345	 119557958	 161102.
15:39:05  692 693	 1492616345	 281172177	 161614.
15:39:05  693 694	 1492616345	 442462935	 161291.
15:39:05  694 695	 1492616345	 607888284	 165425.
15:39:05  695 696	 1492616345	 740803806	 132916.
15:39:05  696 697	 1492616345	 906173681	 165369.
15:39:06  697 698	 1492616346	 67469994	 161297.
15:39:06  698 699	 1492616346	 228642347	 161172.
15:39:06  699 700	 1492616346	 365287816	 136646.
15:39:06  700 701	 1492616346	 526573093	 161285.
15:39:06  701 702	 1492616346	 687817927	 161245.
15:39:06  702 703	 1492616346	 824303156	 136485.
15:39:06  703 704	 1492616346	 985661735	 161359.
15:39:07  704 705	 1492616347	 150882025	 165220.
15:39:07  705 706	 1492616347	 312599611	 161717.
15:39:07  706 707	 1492616347	 449774418	 137175.
15:39:07  707 708	 1492616347	 611132092	 161358.
15:39:07  708 709	 1492616347	 777242119	 166110.
15:39:07  709 710	 1492616347	 938985648	 161743.
15:39:08  710 711	 1492616348	 100793941	 161809.
15:39:08  711 712	 1492616348	 266521260	 165727.
15:39:08  712 713	 1492616348	 428199172	 161678.
15:39:08  713 714	 1492616348	 589805403	 161606.
15:39:08  714 715	 1492616348	 726740776	 136935.
15:39:08  715 716	 1492616348	 888372298	 161632.
15:39:09  716 717	 1492616349	 50088088	 161716.
15:39:09  717 718	 1492616349	 215687623	 165599.
15:39:09  718 719	 1492616349	 377478383	 161791.
15:39:09  719 720	 1492616349	 539149656	 161671.
15:39:09  720 721	 1492616349	 704801896	 165653.
15:39:09  721 722	 1492616349	 866436291	 161634.
15:39:09  722 723	 1492616349	 999441430	 133005.
15:39:10  723 724	 1492616350	 165206741	 165766.
15:39:10  724 725	 1492616350	 326574886	 161368.
15:39:10  725 726	 1492616350	 488188056	 161613.
15:39:10  726 727	 1492616350	 653829443	 165641.
15:39:10  727 728	 1492616350	 815057003	 161228.
15:39:10  728 729	 1492616350	 976930942	 161874.
15:39:11  729 730	 1492616351	 114146770	 137216.
15:39:11  730 731	 1492616351	 275981748	 161835.
15:39:11  731 732	 1492616351	 441511863	 165530.
15:39:11  732 733	 1492616351	 602873711	 161361.
15:39:11  733 734	 1492616351	 764658376	 161785.
15:39:11  734 735	 1492616351	 930430182	 165772.
15:39:12  735 736	 1492616352	 92422060	 161992.
15:39:12  736 737	 1492616352	 229821909	 137400.
15:39:12  737 738	 1492616352	 391320377	 161498.
15:39:12  738 739	 1492616352	 553051478	 161731.
15:39:12  739 740	 1492616352	 718679198	 165628.
15:39:12  740 741	 1492616352	 851492114	 132813.
15:39:13  741 742	 1492616353	 13303510	 161811.
15:39:13  742 743	 1492616353	 178677710	 165374.
15:39:13  743 744	 1492616353	 340382660	 161705.
15:39:13  744 745	 1492616353	 505987119	 165605.
15:39:13  745 746	 1492616353	 638762491	 132775.
15:39:13  746 747	 1492616353	 800368164	 161606.
15:39:13  747 748	 1492616353	 966063899	 165696.
15:39:14  748 749	 1492616354	 127623263	 161559.
15:39:14  749 750	 1492616354	 264647435	 137024.
15:39:14  750 751	 1492616354	 426498395	 161851.
15:39:14  751 752	 1492616354	 591693211	 165195.
15:39:14  752 753	 1492616354	 753645681	 161952.
15:39:14  753 754	 1492616354	 890561078	 136916.
15:39:15  754 755	 1492616355	 51989490	 161428.
15:39:15  755 756	 1492616355	 217779326	 165790.
15:39:15  756 757	 1492616355	 379459629	 161680.
15:39:15  757 758	 1492616355	 512344089	 132885.
15:39:15  758 759	 1492616355	 677915636	 165571.
15:39:15  759 760	 1492616355	 839066302	 161151.
15:39:15  760 761	 1492616355	 976146694	 137080.
15:39:16  761 762	 1492616356	 137606356	 161460.
15:39:16  762 763	 1492616356	 302743775	 165138.
15:39:16  763 764	 1492616356	 435638596	 132894.
15:39:16  764 765	 1492616356	 601110314	 165472.
15:39:16  765 766	 1492616356	 762566104	 161456.
15:39:16  766 767	 1492616356	 895193059	 132627.
15:39:17  767 768	 1492616357	 61117050	 165924.
15:39:17  768 769	 1492616357	 222494236	 161377.
15:39:17  769 770	 1492616357	 388122679	 165628.
15:39:17  770 771	 1492616357	 520822553	 132700.
15:39:17  771 772	 1492616357	 686841635	 166019.
15:39:17  772 773	 1492616357	 848096842	 161256.
15:39:18  773 774	 1492616358	 13855451	 165758.
15:39:18  774 775	 1492616358	 146620624	 132765.
15:39:18  775 776	 1492616358	 308234319	 161614.
15:39:18  776 777	 1492616358	 473767007	 165533.
15:39:18  777 778	 1492616358	 635761267	 161994.
15:39:18  778 779	 1492616358	 801674672	 165913.
15:39:18  779 780	 1492616358	 934926365	 133252.
15:39:19  780 781	 1492616359	 100821558	 165895.
15:39:19  781 782	 1492616359	 262464530	 161643.
15:39:19  782 783	 1492616359	 428072085	 165608.
15:39:19  783 784	 1492616359	 589826952	 161755.
15:39:19  784 785	 1492616359	 722770583	 132944.
15:39:19  785 786	 1492616359	 888406391	 165635.
15:39:20  786 787	 1492616360	 49934530	 161528.
15:39:20  787 788	 1492616360	 211107415	 161173.
15:39:20  788 789	 1492616360	 376203518	 165096.
15:39:20  789 790	 1492616360	 508802976	 132600.
15:39:20  790 791	 1492616360	 669989303	 161186.
15:39:20  791 792	 1492616360	 835405164	 165416.
15:39:20  792 793	 1492616360	 996790207	 161385.
15:39:21  793 794	 1492616361	 129359725	 132570.
15:39:21  794 795	 1492616361	 294965530	 165605.
15:39:21  795 796	 1492616361	 456546763	 161582.
15:39:21  796 797	 1492616361	 622055297	 165508.
15:39:21  797 798	 1492616361	 755070219	 133015.
15:39:21  798 799	 1492616361	 920493850	 165424.
15:39:22  799 800	 1492616362	 82151302	 161657.
15:39:22  800 801	 1492616362	 248244464	 166093.
15:39:22  801 802	 1492616362	 410429932	 162186.
15:39:22  802 803	 1492616362	 572541726	 162112.
15:39:22  803 804	 1492616362	 709925423	 137383.
15:39:22  804 805	 1492616362	 872089941	 162165.
15:39:23  805 806	 1492616363	 37814151	 165724.
15:39:23  806 807	 1492616363	 199608661	 161795.
15:39:23  807 808	 1492616363	 361564314	 161955.
15:39:23  808 809	 1492616363	 527451481	 165887.
15:39:23  809 810	 1492616363	 689182207	 161731.
15:39:23  810 811	 1492616363	 855233349	 166051.
15:39:23  811 812	 1492616363	 988616141	 133383.
15:39:24  812 813	 1492616364	 154853354	 166237.
15:39:24  813 814	 1492616364	 316865242	 162012.
15:39:24  814 815	 1492616364	 482798613	 165933.
15:39:24  815 816	 1492616364	 644907633	 162109.
15:39:24  816 817	 1492616364	 807006915	 162100.
15:39:24  817 818	 1492616364	 973348478	 166341.
15:39:25  818 819	 1492616365	 135406787	 162059.
15:39:25  819 820	 1492616365	 301881357	 166474.
15:39:25  820 821	 1492616365	 463700354	 161819.
15:39:25  821 822	 1492616365	 629943061	 166243.
15:39:25  822 823	 1492616365	 763089421	 133146.
15:39:25  823 824	 1492616365	 925086624	 161997.
15:39:26  824 825	 1492616366	 90740889	 165655.
15:39:26  825 826	 1492616366	 252451511	 161710.
15:39:26  826 827	 1492616366	 413758581	 161308.
15:39:26  827 828	 1492616366	 579122437	 165363.
15:39:26  828 829	 1492616366	 711671051	 132549.
15:39:26  829 830	 1492616366	 877342188	 165671.
15:39:27  830 831	 1492616367	 38795078	 161453.
15:39:27  831 832	 1492616367	 200374900	 161580.
15:39:27  832 833	 1492616367	 361831160	 161456.
15:39:27  833 834	 1492616367	 527302971	 165472.
15:39:27  834 835	 1492616367	 660069959	 132767.
15:39:27  835 836	 1492616367	 825550799	 165481.
15:39:27  836 837	 1492616367	 987031980	 161481.
15:39:28  837 838	 1492616368	 152629737	 165598.
15:39:28  838 839	 1492616368	 314006837	 161377.
15:39:28  839 840	 1492616368	 475528433	 161521.
15:39:28  840 841	 1492616368	 608644246	 133116.
15:39:28  841 842	 1492616368	 774245246	 165601.
15:39:28  842 843	 1492616368	 936011047	 161766.
15:39:29  843 844	 1492616369	 101846010	 165835.
15:39:29  844 845	 1492616369	 263631033	 161785.
15:39:29  845 846	 1492616369	 425102742	 161472.
15:39:29  846 847	 1492616369	 590492629	 165389.
15:39:29  847 848	 1492616369	 752200142	 161708.
15:39:29  848 849	 1492616369	 913836741	 161637.
15:39:30  849 850	 1492616370	 46983534	 133146.
15:39:30  850 851	 1492616370	 212973769	 165991.
15:39:30  851 852	 1492616370	 374601494	 161627.
15:39:30  852 853	 1492616370	 536335190	 161734.
15:39:30  853 854	 1492616370	 702138946	 165804.
15:39:30  854 855	 1492616370	 863764245	 161625.
15:39:31  855 856	 1492616371	 25435611	 161671.
15:39:31  856 857	 1492616371	 190881420	 165446.
15:39:31  857 858	 1492616371	 323755505	 132874.
15:39:31  858 859	 1492616371	 489256367	 165501.
15:39:31  859 860	 1492616371	 650973422	 161717.
15:39:31  860 861	 1492616371	 816801008	 165828.
15:39:31  861 862	 1492616371	 978747575	 161946.
15:39:32  862 863	 1492616372	 140410562	 161663.
15:39:32  863 864	 1492616372	 301842798	 161433.
15:39:32  864 865	 1492616372	 438880421	 137037.
15:39:32  865 866	 1492616372	 600498986	 161619.
15:39:32  866 867	 1492616372	 766303651	 165804.
15:39:32  867 868	 1492616372	 927857260	 161554.
15:39:33  868 869	 1492616373	 89616190	 161759.
15:39:33  869 870	 1492616373	 255442581	 165826.
15:39:33  870 871	 1492616373	 417151849	 161710.
15:39:33  871 872	 1492616373	 583023955	 165872.
15:39:33  872 873	 1492616373	 715856723	 132833.
15:39:33  873 874	 1492616373	 877533305	 161676.
15:39:34  874 875	 1492616374	 43425850	 165893.
15:39:34  875 876	 1492616374	 205319352	 161893.
15:39:34  876 877	 1492616374	 370986320	 165667.
15:39:34  877 878	 1492616374	 532887396	 161901.
15:39:34  878 879	 1492616374	 694930942	 162044.
15:39:34  879 880	 1492616374	 860634437	 165703.
15:39:35  880 881	 1492616375	 22253798	 161620.
15:39:35  881 882	 1492616375	 187849099	 165595.
15:39:35  882 883	 1492616375	 320892007	 133043.
15:39:35  883 884	 1492616375	 482497062	 161605.
15:39:35  884 885	 1492616375	 648210015	 165713.
15:39:35  885 886	 1492616375	 809690470	 161480.
15:39:35  886 887	 1492616375	 971221871	 161532.
15:39:36  887 888	 1492616376	 136971010	 165749.
15:39:36  888 889	 1492616376	 298573038	 161602.
15:39:36  889 890	 1492616376	 460269803	 161697.
15:39:36  890 891	 1492616376	 597340577	 137070.
15:39:36  891 892	 1492616376	 758917598	 161577.
15:39:36  892 893	 1492616376	 920641704	 161725.
15:39:37  893 894	 1492616377	 86291515	 165649.
15:39:37  894 895	 1492616377	 248185911	 161895.
15:39:37  895 896	 1492616377	 410104402	 161918.
15:39:37  896 897	 1492616377	 575834967	 165731.
15:39:37  897 898	 1492616377	 737362371	 161527.
15:39:37  898 899	 1492616377	 870429317	 133067.
15:39:38  899 900	 1492616378	 36073477	 165644.
15:39:38  900 901	 1492616378	 197804865	 161732.
15:39:38  901 902	 1492616378	 363827512	 166022.
15:39:38  902 903	 1492616378	 525361681	 161534.
15:39:38  903 904	 1492616378	 686941834	 161581.
15:39:38  904 905	 1492616378	 848915221	 161973.
15:39:39  905 906	 1492616379	 14833126	 165918.
15:39:39  906 907	 1492616379	 148017928	 133185.
15:39:39  907 908	 1492616379	 309915708	 161898.
15:39:39  908 909	 1492616379	 475943978	 166028.
15:39:39  909 910	 1492616379	 637740085	 161796.
15:39:39  910 911	 1492616379	 803398588	 165658.
15:39:39  911 912	 1492616379	 965050342	 161652.
15:39:40  912 913	 1492616380	 126718033	 161668.
15:39:40  913 914	 1492616380	 263960698	 137242.
15:39:40  914 915	 1492616380	 425601279	 161641.
15:39:40  915 916	 1492616380	 587225310	 161624.
15:39:40  916 917	 1492616380	 753012777	 165788.
15:39:40  917 918	 1492616380	 914809359	 161796.
15:39:41  918 919	 1492616381	 80512820	 165704.
15:39:41  919 920	 1492616381	 242338767	 161826.
15:39:41  920 921	 1492616381	 404051332	 161712.
15:39:41  921 922	 1492616381	 569512073	 165624.
15:39:41  922 923	 1492616381	 702823407	 133148.
15:39:41  923 924	 1492616381	 868567597	 165744.
15:39:42  924 925	 1492616382	 30348905	 161782.
15:39:42  925 926	 1492616382	 191990673	 161641.
15:39:42  926 927	 1492616382	 357816340	 165826.
15:39:42  927 928	 1492616382	 519512773	 161697.
15:39:42  928 929	 1492616382	 681281853	 161769.
15:39:42  929 930	 1492616382	 847233898	 165952.
15:39:43  930 931	 1492616383	 9008339	 161774.
15:39:43  931 932	 1492616383	 174962428	 165954.
15:39:43  932 933	 1492616383	 336665445	 161703.
15:39:43  933 934	 1492616383	 469744001	 133079.
15:39:43  934 935	 1492616383	 635683758	 165940.
15:39:43  935 936	 1492616383	 797320229	 161636.
15:39:43  936 937	 1492616383	 959029478	 161709.
15:39:44  937 938	 1492616384	 124883685	 165855.
15:39:44  938 939	 1492616384	 286627277	 161743.
15:39:44  939 940	 1492616384	 448007987	 161381.
15:39:44  940 941	 1492616384	 613532793	 165525.
15:39:44  941 942	 1492616384	 746248273	 132715.
15:39:44  942 943	 1492616384	 907674417	 161426.
15:39:45  943 944	 1492616385	 73243397	 165569.
15:39:45  944 945	 1492616385	 234610257	 161367.
15:39:45  945 946	 1492616385	 400124331	 165514.
15:39:45  946 947	 1492616385	 561529670	 161405.
15:39:45  947 948	 1492616385	 694417565	 132888.
15:39:45  948 949	 1492616385	 855993087	 161576.
15:39:46  949 950	 1492616386	 21524908	 165532.
15:39:46  950 951	 1492616386	 183221098	 161696.
15:39:46  951 952	 1492616386	 348774682	 165553.
15:39:46  952 953	 1492616386	 510329977	 161556.
15:39:46  953 954	 1492616386	 643235904	 132906.
15:39:46  954 955	 1492616386	 829911258	 186675.
15:39:46  955 956	 1492616386	 967068934	 137158.
15:39:47  956 957	 1492616387	 128592725	 161524.
15:39:47  957 958	 1492616387	 290348401	 161755.
15:39:47  958 959	 1492616387	 455867251	 165519.
15:39:47  959 960	 1492616387	 617420928	 161554.
15:39:47  960 961	 1492616387	 783025426	 165604.
15:39:47  961 962	 1492616387	 915608347	 132583.
15:39:48  962 963	 1492616388	 77412900	 161805.
15:39:48  963 964	 1492616388	 243063890	 165651.
15:39:48  964 965	 1492616388	 404473244	 161409.
15:39:48  965 966	 1492616388	 565957445	 161484.
15:39:48  966 967	 1492616388	 702972518	 137015.
15:39:48  967 968	 1492616388	 864433421	 161461.
15:39:49  968 969	 1492616389	 30239354	 165806.
15:39:49  969 970	 1492616389	 191753613	 161514.
15:39:49  970 971	 1492616389	 353267682	 161515.
15:39:49  971 972	 1492616389	 518974063	 165706.
15:39:49  972 973	 1492616389	 651997008	 133023.
15:39:49  973 974	 1492616389	 817537621	 165540.
15:39:49  974 975	 1492616389	 979631952	 162095.
15:39:50  975 976	 1492616390	 145417061	 165785.
15:39:50  976 977	 1492616390	 306922530	 161505.
15:39:50  977 978	 1492616390	 439740149	 132818.
15:39:50  978 979	 1492616390	 605444577	 165704.
15:39:50  979 980	 1492616390	 766944771	 161501.
15:39:50  980 981	 1492616390	 933048226	 166103.
15:39:51  981 982	 1492616391	 94692826	 161645.
15:39:51  982 983	 1492616391	 231286554	 136593.
15:39:51  983 984	 1492616391	 392734079	 161448.
15:39:51  984 985	 1492616391	 554367434	 161633.
15:39:51  985 986	 1492616391	 719617701	 165250.
15:39:51  986 987	 1492616391	 852227982	 132611.
15:39:52  987 988	 1492616392	 14605303	 162377.
15:39:52  988 989	 1492616392	 176469084	 161864.
15:39:52  989 990	 1492616392	 342424392	 165955.
15:39:52  990 991	 1492616392	 503813121	 161389.
15:39:52  991 992	 1492616392	 665471651	 161658.
15:39:52  992 993	 1492616392	 831101351	 165630.
15:39:52  993 994	 1492616392	 964346352	 133245.
15:39:53  994 995	 1492616393	 130079358	 165733.
15:39:53  995 996	 1492616393	 291418644	 161339.
15:39:53  996 997	 1492616393	 452587987	 161170.
15:39:53  997 998	 1492616393	 618091476	 165503.
15:39:53  998 999	 1492616393	 751059631	 132968.
15:39:53  999 1000	 1492616393	 912472468	 161413.
15:39:54 1000 1001	 1492616394	 78252864	 165781.
15:39:54 1001 1002	 1492616394	 239646145	 161393.
15:39:54 1002 1003	 1492616394	 401313408	 161667.
15:39:54 1003 1004	 1492616394	 537952967	 136640.
15:39:54 1004 1005	 1492616394	 699319490	 161366.
15:39:54 1005 1006	 1492616394	 864903550	 165584.
15:39:55 1006 1007	 1492616395	 26421418	 161518.
15:39:55 1007 1008	 1492616395	 159321859	 132901.
15:39:55 1008 1009	 1492616395	 324827275	 165505.
15:39:55 1009 1010	 1492616395	 486338250	 161511.
15:39:55 1010 1011	 1492616395	 651405465	 165067.
15:39:55 1011 1012	 1492616395	 784319910	 132915.
15:39:55 1012 1013	 1492616395	 945314380	 161006.
15:39:56 1013 1014	 1492616396	 110360076	 165034.
15:39:56 1014 1015	 1492616396	 271649899	 161290.
15:39:56 1015 1016	 1492616396	 404290025	 132640.
15:39:56 1016 1017	 1492616396	 565757782	 161468.
15:39:56 1017 1018	 1492616396	 731243836	 165486.
15:39:56 1018 1019	 1492616396	 892808901	 161565.
15:39:57 1019 1020	 1492616397	 58771204	 165962.
15:39:57 1020 1021	 1492616397	 220285846	 161515.
15:39:57 1021 1022	 1492616397	 381952340	 161666.
15:39:57 1022 1023	 1492616397	 518863795	 136912.
15:39:57 1023 1024	 1492616397	 680454425	 161590.
15:39:57 1024 1025	 1492616397	 841833654	 161379.
15:39:58 1025 1026	 1492616398	 7882619	 166049.
15:39:58 1026 1027	 1492616398	 169558383	 161676.
15:39:58 1027 1028	 1492616398	 335188761	 165631.
15:39:58 1028 1029	 1492616398	 468133635	 132944.
15:39:58 1029 1030	 1492616398	 629907969	 161775.
15:39:58 1030 1031	 1492616398	 795527222	 165623.
15:39:58 1031 1032	 1492616398	 957245246	 161714.
15:39:59 1032 1033	 1492616399	 123017165	 165772.
15:39:59 1033 1034	 1492616399	 284902526	 161885.
15:39:59 1034 1035	 1492616399	 450745328	 165843.
15:39:59 1035 1036	 1492616399	 584051583	 133306.
15:39:59 1036 1037	 1492616399	 745750069	 161699.
15:39:59 1037 1038	 1492616399	 910856685	 165106.
15:40:00 1038 1039	 1492616400	 72425419	 161569.
15:40:00 1039 1040	 1492616400	 238085418	 165660.
15:40:00 1040 1041	 1492616400	 370838154	 132753.
15:40:00 1041 1042	 1492616400	 532284973	 161447.
15:40:00 1042 1043	 1492616400	 697842480	 165557.
15:40:00 1043 1044	 1492616400	 859728485	 161886.
15:40:01 1044 1045	 1492616401	 21038638	 161310.
15:40:01 1045 1046	 1492616401	 186607945	 165570.
15:40:01 1046 1047	 1492616401	 319309187	 132701.
15:40:01 1047 1048	 1492616401	 480726157	 161417.
15:40:01 1048 1049	 1492616401	 646393113	 165667.
15:40:01 1049 1050	 1492616401	 807961535	 161568.
15:40:01 1050 1051	 1492616401	 970004704	 162043.
15:40:02 1051 1052	 1492616402	 135389106	 165385.
15:40:02 1052 1053	 1492616402	 268101781	 132713.
15:40:02 1053 1054	 1492616402	 429323436	 161221.
15:40:02 1054 1055	 1492616402	 594604126	 165281.
15:40:02 1055 1056	 1492616402	 755828337	 161224.
15:40:02 1056 1057	 1492616402	 917467030	 161639.
15:40:03 1057 1058	 1492616403	 54307296	 136840.
15:40:03 1058 1059	 1492616403	 215732363	 161425.
15:40:03 1059 1060	 1492616403	 381359882	 165628.
15:40:03 1060 1061	 1492616403	 543005990	 161646.
15:40:03 1061 1062	 1492616403	 704716380	 161710.
15:40:03 1062 1063	 1492616403	 866277215	 161561.
15:40:04 1063 1064	 1492616404	 31992917	 165716.
15:40:04 1064 1065	 1492616404	 164989892	 132997.
15:40:04 1065 1066	 1492616404	 326599306	 161609.
15:40:04 1066 1067	 1492616404	 492118678	 165519.
15:40:04 1067 1068	 1492616404	 653743363	 161625.
15:40:04 1068 1069	 1492616404	 819496012	 165753.
15:40:04 1069 1070	 1492616404	 981126703	 161630.
15:40:05 1070 1071	 1492616405	 142908778	 161783.
15:40:05 1071 1072	 1492616405	 308717003	 165808.
15:40:05 1072 1073	 1492616405	 470570219	 161853.
15:40:05 1073 1074	 1492616405	 603592373	 133022.
15:40:05 1074 1075	 1492616405	 769726230	 166134.
15:40:05 1075 1076	 1492616405	 931365600	 161639.
15:40:06 1076 1077	 1492616406	 92950269	 161585.
15:40:06 1077 1078	 1492616406	 258900174	 165950.
15:40:06 1078 1079	 1492616406	 420583946	 161684.
15:40:06 1079 1080	 1492616406	 582251746	 161668.
15:40:06 1080 1081	 1492616406	 744086788	 161835.
15:40:06 1081 1082	 1492616406	 909856001	 165769.
15:40:07 1082 1083	 1492616407	 71644939	 161789.
15:40:07 1083 1084	 1492616407	 204656450	 133011.
15:40:07 1084 1085	 1492616407	 370376253	 165720.
15:40:07 1085 1086	 1492616407	 532170337	 161794.
15:40:07 1086 1087	 1492616407	 697942999	 165773.
15:40:07 1087 1088	 1492616407	 859604728	 161662.
15:40:08 1088 1089	 1492616408	 21227358	 161622.
15:40:08 1089 1090	 1492616408	 186973366	 165746.
15:40:08 1090 1091	 1492616408	 348966004	 161993.
15:40:08 1091 1092	 1492616408	 515059625	 166093.
15:40:08 1092 1093	 1492616408	 647925197	 132866.
15:40:08 1093 1094	 1492616408	 809419843	 161495.
15:40:08 1094 1095	 1492616408	 970659460	 161239.
15:40:09 1095 1096	 1492616409	 136223534	 165564.
15:40:09 1096 1097	 1492616409	 297691318	 161468.
15:40:09 1097 1098	 1492616409	 463414157	 165723.
15:40:09 1098 1099	 1492616409	 625021374	 161607.
15:40:09 1099 1100	 1492616409	 757823984	 132803.
15:40:09 1100 1101	 1492616409	 919294998	 161471.
15:40:10 1101 1102	 1492616410	 84864404	 165569.
15:40:10 1102 1103	 1492616410	 246370934	 161507.
15:40:10 1103 1104	 1492616410	 412040274	 165669.
15:40:10 1104 1105	 1492616410	 573605341	 161565.
15:40:10 1105 1106	 1492616410	 735500991	 161896.
15:40:10 1106 1107	 1492616410	 872401156	 136900.
15:40:11 1107 1108	 1492616411	 33985456	 161584.
15:40:11 1108 1109	 1492616411	 195435667	 161450.
15:40:11 1109 1110	 1492616411	 361294495	 165859.
15:40:11 1110 1111	 1492616411	 522921764	 161628.
15:40:11 1111 1112	 1492616411	 684433314	 161511.
15:40:11 1112 1113	 1492616411	 850150198	 165717.
15:40:11 1113 1114	 1492616411	 983393235	 133243.
15:40:12 1114 1115	 1492616412	 145176924	 161784.
15:40:12 1115 1116	 1492616412	 310988293	 165811.
15:40:12 1116 1117	 1492616412	 472589456	 161601.
15:40:12 1117 1118	 1492616412	 634183650	 161594.
15:40:12 1118 1119	 1492616412	 799881673	 165698.
15:40:12 1119 1120	 1492616412	 961737904	 161857.
15:40:13 1120 1121	 1492616413	 123335467	 161597.
15:40:13 1121 1122	 1492616413	 289017769	 165683.
15:40:13 1122 1123	 1492616413	 422018721	 133001.
15:40:13 1123 1124	 1492616413	 583761965	 161743.
15:40:13 1124 1125	 1492616413	 749609600	 165847.
15:40:13 1125 1126	 1492616413	 911929417	 162320.
15:40:14 1126 1127	 1492616414	 69631292	 157702.
15:40:14 1127 1128	 1492616414	 231198549	 161567.
15:40:14 1128 1129	 1492616414	 396972725	 165775.
15:40:14 1129 1130	 1492616414	 558894382	 161921.
15:40:14 1130 1131	 1492616414	 720598201	 161704.
15:40:14 1131 1132	 1492616414	 886575765	 165978.
15:40:15 1132 1133	 1492616415	 48367195	 161791.
15:40:15 1133 1134	 1492616415	 210352767	 161986.
15:40:15 1134 1135	 1492616415	 376215674	 165863.
15:40:15 1135 1136	 1492616415	 509132629	 132916.
15:40:15 1136 1137	 1492616415	 670866720	 161735.
15:40:15 1137 1138	 1492616415	 836521202	 165654.
15:40:15 1138 1139	 1492616415	 998338806	 161818.
15:40:16 1139 1140	 1492616416	 160413177	 162074.
15:40:16 1140 1141	 1492616416	 326125291	 165712.
15:40:16 1141 1142	 1492616416	 487989017	 161864.
15:40:16 1142 1143	 1492616416	 649583519	 161594.
15:40:16 1143 1144	 1492616416	 815392056	 165809.
15:40:16 1144 1145	 1492616416	 977249208	 161857.
15:40:17 1145 1146	 1492616417	 114312984	 137064.
15:40:17 1146 1147	 1492616417	 276217212	 161904.
15:40:17 1147 1148	 1492616417	 442241220	 166024.
15:40:17 1148 1149	 1492616417	 603897551	 161656.
15:40:17 1149 1150	 1492616417	 765743192	 161846.
15:40:17 1150 1151	 1492616417	 931404313	 165661.
15:40:18 1151 1152	 1492616418	 93092991	 161689.
15:40:18 1152 1153	 1492616418	 254761671	 161668.
15:40:18 1153 1154	 1492616418	 420693570	 165932.
15:40:18 1154 1155	 1492616418	 582478986	 161786.
15:40:18 1155 1156	 1492616418	 744127698	 161648.
15:40:18 1156 1157	 1492616418	 881067810	 136941.
15:40:19 1157 1158	 1492616419	 42669907	 161602.
15:40:19 1158 1159	 1492616419	 208334306	 165664.
15:40:19 1159 1160	 1492616419	 370026549	 161692.
15:40:19 1160 1161	 1492616419	 531619378	 161593.
15:40:19 1161 1162	 1492616419	 693291442	 161672.
15:40:19 1162 1163	 1492616419	 858934083	 165643.
15:40:19 1163 1164	 1492616419	 991741977	 132808.
15:40:20 1164 1165	 1492616420	 153578201	 161836.
15:40:20 1165 1166	 1492616420	 319559348	 165981.
15:40:20 1166 1167	 1492616420	 481385164	 161826.
15:40:20 1167 1168	 1492616420	 643134070	 161749.
15:40:20 1168 1169	 1492616420	 808828067	 165694.
15:40:20 1169 1170	 1492616420	 970686206	 161858.
15:40:21 1170 1171	 1492616421	 132262143	 161576.
15:40:21 1171 1172	 1492616421	 297810149	 165548.
15:40:21 1172 1173	 1492616421	 459774111	 161964.
15:40:21 1173 1174	 1492616421	 625421826	 165648.
15:40:21 1174 1175	 1492616421	 758245444	 132823.
15:40:21 1175 1176	 1492616421	 919665061	 161420.
15:40:22 1176 1177	 1492616422	 85422303	 165757.
15:40:22 1177 1178	 1492616422	 246655652	 161233.
15:40:22 1178 1179	 1492616422	 408021798	 161367.
15:40:22 1179 1180	 1492616422	 544940133	 136918.
15:40:22 1180 1181	 1492616422	 706666836	 161727.
15:40:22 1181 1182	 1492616422	 872742790	 166076.
15:40:23 1182 1183	 1492616423	 34153568	 161410.
15:40:23 1183 1184	 1492616423	 195758601	 161605.
15:40:23 1184 1185	 1492616423	 361231198	 165473.
15:40:23 1185 1186	 1492616423	 494035335	 132804.
15:40:23 1186 1187	 1492616423	 654766522	 160731.
15:40:23 1187 1188	 1492616423	 819702401	 164936.
15:40:23 1188 1189	 1492616423	 980593103	 160891.
15:40:24 1189 1190	 1492616424	 113195826	 132603.
15:40:24 1190 1191	 1492616424	 278066193	 164870.
15:40:24 1191 1192	 1492616424	 439108517	 161042.
15:40:24 1192 1193	 1492616424	 571718724	 132611.
15:40:24 1193 1194	 1492616424	 736672526	 164953.
15:40:24 1194 1195	 1492616424	 897585011	 160913.
15:40:25 1195 1196	 1492616425	 58672994	 161088.
15:40:25 1196 1197	 1492616425	 195822424	 137149.
15:40:25 1197 1198	 1492616425	 352710940	 156889.
15:40:25 1198 1199	 1492616425	 513743128	 161032.
15:40:25 1199 1200	 1492616425	 678805701	 165063.
15:40:25 1200 1201	 1492616425	 811456353	 132650.
15:40:25 1201 1202	 1492616425	 972621641	 161165.
15:40:26 1202 1203	 1492616426	 137768802	 165148.
15:40:26 1203 1204	 1492616426	 298944482	 161175.
15:40:26 1204 1205	 1492616426	 431651627	 132707.
15:40:26 1205 1206	 1492616426	 596909083	 165258.
15:40:26 1206 1207	 1492616426	 758117178	 161208.
15:40:26 1207 1208	 1492616426	 919513000	 161396.
15:40:27 1208 1209	 1492616427	 85534687	 166021.
15:40:27 1209 1210	 1492616427	 218597105	 133063.
15:40:27 1210 1211	 1492616427	 380061923	 161465.
15:40:27 1211 1212	 1492616427	 545458951	 165397.
15:40:27 1212 1213	 1492616427	 706982151	 161523.
15:40:27 1213 1214	 1492616427	 872415800	 165434.
15:40:28 1214 1215	 1492616428	 5280111	 132864.
15:40:28 1215 1216	 1492616428	 166782944	 161503.
15:40:28 1216 1217	 1492616428	 331819319	 165036.
15:40:28 1217 1218	 1492616428	 492818204	 160999.
15:40:28 1218 1219	 1492616428	 630022451	 137204.
15:40:28 1219 1220	 1492616428	 791521416	 161499.
15:40:28 1220 1221	 1492616428	 957188479	 165667.
15:40:29 1221 1222	 1492616429	 118524034	 161336.
15:40:29 1222 1223	 1492616429	 280262614	 161738.
15:40:29 1223 1224	 1492616429	 417364232	 137102.
15:40:29 1224 1225	 1492616429	 578715760	 161352.
15:40:29 1225 1226	 1492616429	 739999266	 161283.
15:40:29 1226 1227	 1492616429	 905613263	 165614.
15:40:30 1227 1228	 1492616430	 38792079	 133179.
15:40:30 1228 1229	 1492616430	 204371675	 165579.
15:40:30 1229 1230	 1492616430	 366049686	 161678.
15:40:30 1230 1231	 1492616430	 531946629	 165897.
15:40:30 1231 1232	 1492616430	 693515037	 161569.
15:40:30 1232 1233	 1492616430	 826714836	 133200.
15:40:30 1233 1234	 1492616430	 992237143	 165522.
15:40:31 1234 1235	 1492616431	 153655083	 161418.
15:40:31 1235 1236	 1492616431	 319086450	 165431.
15:40:31 1236 1237	 1492616431	 451511621	 132425.
15:40:31 1237 1238	 1492616431	 612798569	 161287.
15:40:31 1238 1239	 1492616431	 778243845	 165446.
15:40:31 1239 1240	 1492616431	 910959762	 132716.
15:40:32 1240 1241	 1492616432	 76468201	 165508.
15:40:32 1241 1242	 1492616432	 238199780	 161732.
15:40:32 1242 1243	 1492616432	 404439102	 166239.
15:40:32 1243 1244	 1492616432	 566387742	 161949.
15:40:32 1244 1245	 1492616432	 698723721	 132336.
15:40:32 1245 1246	 1492616432	 864662858	 165939.
15:40:33 1246 1247	 1492616433	 26442488	 161779.
15:40:33 1247 1248	 1492616433	 191996395	 165554.
15:40:33 1248 1249	 1492616433	 324695391	 132699.
15:40:33 1249 1250	 1492616433	 489852307	 165157.
15:40:33 1250 1251	 1492616433	 651242854	 161391.
15:40:33 1251 1252	 1492616433	 783739776	 132497.
15:40:33 1252 1253	 1492616433	 949123591	 165383.
15:40:34 1253 1254	 1492616434	 110606531	 161483.
15:40:34 1254 1255	 1492616434	 276805379	 166199.
15:40:34 1255 1256	 1492616434	 438378666	 161573.
15:40:34 1256 1257	 1492616434	 575595026	 137217.
15:40:34 1257 1258	 1492616434	 737373752	 161779.
15:40:34 1258 1259	 1492616434	 903384471	 166010.
15:40:35 1259 1260	 1492616435	 65028096	 161644.
15:40:35 1260 1261	 1492616435	 201562981	 136535.
15:40:35 1261 1262	 1492616435	 363241567	 161678.
15:40:35 1262 1263	 1492616435	 529081508	 165840.
15:40:35 1263 1264	 1492616435	 690607171	 161526.
15:40:35 1264 1265	 1492616435	 856097137	 165490.
15:40:35 1265 1266	 1492616435	 988431687	 132334.
15:40:36 1266 1267	 1492616436	 154048862	 165618.
15:40:36 1267 1268	 1492616436	 315613858	 161565.
15:40:36 1268 1269	 1492616436	 452173014	 136559.
15:40:36 1269 1270	 1492616436	 613577981	 161405.
15:40:36 1270 1271	 1492616436	 778793018	 165215.
15:40:36 1271 1272	 1492616436	 911688537	 132895.
15:40:37 1272 1273	 1492616437	 77668781	 165981.
15:40:37 1273 1274	 1492616437	 239133320	 161464.
15:40:37 1274 1275	 1492616437	 375673107	 136540.
15:40:37 1275 1276	 1492616437	 536607696	 160934.
15:40:37 1276 1277	 1492616437	 698548599	 161941.
15:40:37 1277 1278	 1492616437	 864176605	 165628.
15:40:37 1278 1279	 1492616437	 997152543	 132976.
15:40:38 1279 1280	 1492616438	 162583821	 165432.
15:40:38 1280 1281	 1492616438	 323853563	 161269.
15:40:38 1281 1282	 1492616438	 460401846	 136549.
15:40:38 1282 1283	 1492616438	 621872779	 161471.
15:40:38 1283 1284	 1492616438	 787482557	 165609.
15:40:38 1284 1285	 1492616438	 920499532	 133017.
15:40:39 1285 1286	 1492616439	 86275953	 165777.
15:40:39 1286 1287	 1492616439	 248175267	 161899.
15:40:39 1287 1288	 1492616439	 409826953	 161652.
15:40:39 1288 1289	 1492616439	 546936295	 137109.
15:40:39 1289 1290	 1492616439	 708688865	 161753.
15:40:39 1290 1291	 1492616439	 874315410	 165626.
15:40:40 1291 1292	 1492616440	 35590197	 161275.
15:40:40 1292 1293	 1492616440	 201208287	 165618.
15:40:40 1293 1294	 1492616440	 334329609	 133121.
15:40:40 1294 1295	 1492616440	 499715782	 165387.
15:40:40 1295 1296	 1492616440	 661354263	 161638.
15:40:40 1296 1297	 1492616440	 823439942	 162086.
15:40:40 1297 1298	 1492616440	 960460330	 137020.
15:40:41 1298 1299	 1492616441	 122322208	 161862.
15:40:41 1299 1300	 1492616441	 284312731	 161990.
15:40:41 1300 1301	 1492616441	 450271561	 165959.
15:40:41 1301 1302	 1492616441	 612195934	 161925.
15:40:41 1302 1303	 1492616441	 778899953	 166704.
15:40:41 1303 1304	 1492616441	 932556108	 153656.
15:40:42 1304 1305	 1492616442	 98346732	 165791.
15:40:42 1305 1306	 1492616442	 260202520	 161855.
15:40:42 1306 1307	 1492616442	 425856368	 165654.
15:40:42 1307 1308	 1492616442	 587737074	 161881.
15:40:42 1308 1309	 1492616442	 749649962	 161913.
15:40:42 1309 1310	 1492616442	 915520362	 165870.
15:40:43 1310 1311	 1492616443	 77475528	 161955.
15:40:43 1311 1312	 1492616443	 243192512	 165717.
15:40:43 1312 1313	 1492616443	 404888551	 161696.
15:40:43 1313 1314	 1492616443	 538147992	 133260.
15:40:43 1314 1315	 1492616443	 704274392	 166126.
15:40:43 1315 1316	 1492616443	 865989034	 161715.
15:40:44 1316 1317	 1492616444	 27736982	 161748.
15:40:44 1317 1318	 1492616444	 193465902	 165729.
15:40:44 1318 1319	 1492616444	 354894654	 161428.
15:40:44 1319 1320	 1492616444	 516685108	 161791.
15:40:44 1320 1321	 1492616444	 682275788	 165591.
15:40:44 1321 1322	 1492616444	 843921039	 161645.
15:40:45 1322 1323	 1492616445	 9799391	 165878.
15:40:45 1323 1324	 1492616445	 143284332	 133485.
15:40:45 1324 1325	 1492616445	 305083525	 161799.
15:40:45 1325 1326	 1492616445	 470350448	 165267.
15:40:45 1326 1327	 1492616445	 631396708	 161046.
15:40:45 1327 1328	 1492616445	 792830630	 161434.
15:40:45 1328 1329	 1492616445	 929819768	 136990.
15:40:46 1329 1330	 1492616446	 91358901	 161539.
15:40:46 1330 1331	 1492616446	 252515181	 161156.
15:40:46 1331 1332	 1492616446	 418001831	 165487.
15:40:46 1332 1333	 1492616446	 579495352	 161493.
15:40:46 1333 1334	 1492616446	 716112619	 136617.
15:40:46 1334 1335	 1492616446	 877613705	 161501.
15:40:47 1335 1336	 1492616447	 39154788	 161542.
15:40:47 1336 1337	 1492616447	 204705781	 165551.
15:40:47 1337 1338	 1492616447	 366204805	 161499.
15:40:47 1338 1339	 1492616447	 527413676	 161208.
15:40:47 1339 1340	 1492616447	 660299336	 132886.
15:40:47 1340 1341	 1492616447	 825622485	 165323.
15:40:47 1341 1342	 1492616447	 986902843	 161281.
15:40:48 1342 1343	 1492616448	 152604006	 165701.
15:40:48 1343 1344	 1492616448	 285470308	 132866.
15:40:48 1344 1345	 1492616448	 447048887	 161579.
15:40:48 1345 1346	 1492616448	 612759287	 165710.
15:40:48 1346 1347	 1492616448	 774273613	 161514.
15:40:48 1347 1348	 1492616448	 911564113	 137291.
15:40:49 1348 1349	 1492616449	 73809646	 162245.
15:40:49 1349 1350	 1492616449	 239646619	 165837.
15:40:49 1350 1351	 1492616449	 402030046	 162384.
15:40:49 1351 1352	 1492616449	 567904579	 165875.
15:40:49 1352 1353	 1492616449	 730095701	 162190.
15:40:49 1353 1354	 1492616449	 867442072	 137347.
15:40:50 1354 1355	 1492616450	 29292157	 161850.
15:40:50 1355 1356	 1492616450	 195221825	 165930.
15:40:50 1356 1357	 1492616450	 357080529	 161858.
15:40:50 1357 1358	 1492616450	 523149629	 166069.
15:40:50 1358 1359	 1492616450	 656040836	 132892.
15:40:50 1359 1360	 1492616450	 817606651	 161565.
15:40:50 1360 1361	 1492616450	 983365131	 165759.
15:40:51 1361 1362	 1492616451	 145289147	 161924.
15:40:51 1362 1363	 1492616451	 311304717	 166016.
15:40:51 1363 1364	 1492616451	 444511670	 133206.
15:40:51 1364 1365	 1492616451	 610238086	 165727.
15:40:51 1365 1366	 1492616451	 772164907	 161927.
15:40:51 1366 1367	 1492616451	 937938372	 165773.
15:40:52 1367 1368	 1492616452	 70553069	 132615.
15:40:52 1368 1369	 1492616452	 229128955	 158576.
15:40:52 1369 1370	 1492616452	 394605520	 165476.
15:40:52 1370 1371	 1492616452	 556971175	 162366.
15:40:52 1371 1372	 1492616452	 722603813	 165633.
15:40:52 1372 1373	 1492616452	 855574999	 132971.
15:40:53 1373 1374	 1492616453	 22543137	 166968.
15:40:53 1374 1375	 1492616453	 180005608	 157462.
15:40:53 1375 1376	 1492616453	 341596425	 161591.
15:40:53 1376 1377	 1492616453	 507240974	 165645.
15:40:53 1377 1378	 1492616453	 640348152	 133107.
15:40:53 1378 1379	 1492616453	 805817741	 165470.
15:40:53 1379 1380	 1492616453	 967141445	 161323.
15:40:54 1380 1381	 1492616454	 104069666	 136928.
15:40:54 1381 1382	 1492616454	 261863507	 157794.
15:40:54 1382 1383	 1492616454	 427742987	 165880.
15:40:54 1383 1384	 1492616454	 590003845	 162261.
15:40:54 1384 1385	 1492616454	 755463059	 165459.
15:40:54 1385 1386	 1492616454	 888464520	 133001.
15:40:55 1386 1387	 1492616455	 54073744	 165609.
15:40:55 1387 1388	 1492616455	 215434717	 161362.
15:40:55 1388 1389	 1492616455	 352726683	 137292.
15:40:55 1389 1390	 1492616455	 514572587	 161845.
15:40:55 1390 1391	 1492616455	 676407180	 161835.
15:40:55 1391 1392	 1492616455	 842238641	 165831.
15:40:56 1392 1393	 1492616456	 4076678	 161839.
15:40:56 1393 1394	 1492616456	 170610540	 166533.
15:40:56 1394 1395	 1492616456	 303676981	 133067.
15:40:56 1395 1396	 1492616456	 469142853	 165466.
15:40:56 1396 1397	 1492616456	 630670189	 161527.
15:40:56 1397 1398	 1492616456	 797071455	 166401.
15:40:56 1398 1399	 1492616456	 930022959	 132952.
15:40:57 1399 1400	 1492616457	 91621934	 161599.
15:40:57 1400 1401	 1492616457	 257227152	 165605.
15:40:57 1401 1402	 1492616457	 419089021	 161862.
15:40:57 1402 1403	 1492616457	 585069170	 165980.
15:40:57 1403 1404	 1492616457	 722254722	 137186.
15:40:57 1404 1405	 1492616457	 883780323	 161525.
15:40:58 1405 1406	 1492616458	 49228602	 165448.
15:40:58 1406 1407	 1492616458	 210948828	 161721.
15:40:58 1407 1408	 1492616458	 343763052	 132814.
15:40:58 1408 1409	 1492616458	 509171202	 165408.
15:40:58 1409 1410	 1492616458	 670712745	 161542.
15:40:58 1410 1411	 1492616458	 807423965	 136711.
15:40:58 1411 1412	 1492616458	 969256538	 161832.
15:40:59 1412 1413	 1492616459	 130680281	 161424.
15:40:59 1413 1414	 1492616459	 296240830	 165561.
15:40:59 1414 1415	 1492616459	 429021613	 132780.
15:40:59 1415 1416	 1492616459	 595062959	 166042.
15:40:59 1416 1417	 1492616459	 756813138	 161750.
15:40:59 1417 1418	 1492616459	 922283651	 165470.
15:41:00 1418 1419	 1492616460	 55199305	 132916.
15:41:00 1419 1420	 1492616460	 216904674	 161705.
15:41:00 1420 1421	 1492616460	 382028977	 165125.
15:41:00 1421 1422	 1492616460	 543744113	 161715.
15:41:00 1422 1423	 1492616460	 705419448	 161675.
15:41:00 1423 1424	 1492616460	 871346069	 165927.
15:41:01 1424 1425	 1492616461	 32929728	 161584.
15:41:01 1425 1426	 1492616461	 165782109	 132852.
15:41:01 1426 1427	 1492616461	 330968167	 165186.
15:41:01 1427 1428	 1492616461	 492145005	 161177.
15:41:01 1428 1429	 1492616461	 657706319	 165561.
15:41:01 1429 1430	 1492616461	 819152652	 161446.
15:41:01 1430 1431	 1492616461	 952082603	 132930.
15:41:02 1431 1432	 1492616462	 117647866	 165566.
15:41:02 1432 1433	 1492616462	 278920478	 161272.
15:41:02 1433 1434	 1492616462	 444267873	 165348.
15:41:02 1434 1435	 1492616462	 605856268	 161588.
15:41:02 1435 1436	 1492616462	 738620793	 132765.
15:41:02 1436 1437	 1492616462	 904193953	 165573.
15:41:03 1437 1438	 1492616463	 65473556	 161279.
15:41:03 1438 1439	 1492616463	 226864638	 161391.
15:41:03 1439 1440	 1492616463	 392193470	 165329.
15:41:03 1440 1441	 1492616463	 524914998	 132722.
15:41:03 1441 1442	 1492616463	 686398720	 161484.
15:41:03 1442 1443	 1492616463	 851646866	 165248.
15:41:04 1443 1444	 1492616464	 13059599	 161412.
15:41:04 1444 1445	 1492616464	 180842725	 167784.
15:41:04 1445 1446	 1492616464	 326126667	 145283.
15:41:04 1446 1447	 1492616464	 487667931	 161542.
15:41:04 1447 1448	 1492616464	 649284304	 161616.
15:41:04 1448 1449	 1492616464	 814936986	 165653.
15:41:04 1449 1450	 1492616464	 947989481	 133052.
15:41:05 1450 1451	 1492616465	 113730335	 165741.
15:41:05 1451 1452	 1492616465	 275362383	 161632.
15:41:05 1452 1453	 1492616465	 441202579	 165840.
15:41:05 1453 1454	 1492616465	 602883783	 161682.
15:41:05 1454 1455	 1492616465	 764312555	 161428.
15:41:05 1455 1456	 1492616465	 929773101	 165461.
15:41:06 1456 1457	 1492616466	 62623053	 132850.
15:41:06 1457 1458	 1492616466	 223869125	 161246.
15:41:06 1458 1459	 1492616466	 389373153	 165504.
15:41:06 1459 1460	 1492616466	 550691201	 161318.
15:41:06 1460 1461	 1492616466	 716193040	 165502.
15:41:06 1461 1462	 1492616466	 848850215	 132657.
15:41:07 1462 1463	 1492616467	 10588331	 161738.
15:41:07 1463 1464	 1492616467	 176586061	 165998.
15:41:07 1464 1465	 1492616467	 338019873	 161434.
15:41:07 1465 1466	 1492616467	 499260180	 161240.
15:41:07 1466 1467	 1492616467	 636098916	 136839.
15:41:07 1467 1468	 1492616467	 797406958	 161308.
15:41:07 1468 1469	 1492616467	 958795668	 161388.
15:41:08 1469 1470	 1492616468	 124167111	 165372.
15:41:08 1470 1471	 1492616468	 286052934	 161886.
15:41:08 1471 1472	 1492616468	 423292359	 137239.
15:41:08 1472 1473	 1492616468	 584877039	 161585.
15:41:08 1473 1474	 1492616468	 750429129	 165552.
15:41:08 1474 1475	 1492616468	 911859241	 161430.
15:41:09 1475 1476	 1492616469	 48644067	 136785.
15:41:09 1476 1477	 1492616469	 210403064	 161759.
15:41:09 1477 1478	 1492616469	 376390675	 165987.
15:41:09 1478 1479	 1492616469	 538388692	 161998.
15:41:09 1479 1480	 1492616469	 671518261	 133130.
15:41:09 1480 1481	 1492616469	 836958937	 165441.
15:41:09 1481 1482	 1492616469	 998761685	 161802.
15:41:10 1482 1483	 1492616470	 164573236	 165812.
15:41:10 1483 1484	 1492616470	 297180344	 132607.
15:41:10 1484 1485	 1492616470	 463076655	 165896.
15:41:10 1485 1486	 1492616470	 624695108	 161619.
15:41:10 1486 1487	 1492616470	 789866953	 165172.
15:41:10 1487 1488	 1492616470	 922936472	 133069.
15:41:11 1488 1489	 1492616471	 84734272	 161798.
15:41:11 1489 1490	 1492616471	 250516352	 165782.
15:41:11 1490 1491	 1492616471	 412113543	 161597.
15:41:11 1491 1492	 1492616471	 549181780	 137068.
15:41:11 1492 1493	 1492616471	 710607784	 161427.
15:41:11 1493 1494	 1492616471	 876047015	 165439.
15:41:12 1494 1495	 1492616472	 37455065	 161408.
15:41:12 1495 1496	 1492616472	 174519158	 137064.
15:41:12 1496 1497	 1492616472	 336129650	 161610.
15:41:12 1497 1498	 1492616472	 501577084	 165448.
15:41:12 1498 1499	 1492616472	 662922867	 161346.
15:41:12 1499 1500	 1492616472	 800050434	 137127.
15:41:12 1500 1501	 1492616472	 961507201	 161457.
15:41:13 1501 1502	 1492616473	 127489443	 165982.
15:41:13 1502 1503	 1492616473	 289007775	 161519.
15:41:13 1503 1504	 1492616473	 421941427	 132933.
15:41:13 1504 1505	 1492616473	 587566857	 165626.
15:41:13 1505 1506	 1492616473	 748968998	 161402.
15:41:13 1506 1507	 1492616473	 914464013	 165495.
15:41:14 1507 1508	 1492616474	 47541352	 133077.
15:41:14 1508 1509	 1492616474	 213103855	 165563.
15:41:14 1509 1510	 1492616474	 374235733	 161132.
15:41:14 1510 1511	 1492616474	 506951165	 132715.
15:41:14 1511 1512	 1492616474	 672342628	 165391.
15:41:14 1512 1513	 1492616474	 833891251	 161549.
15:41:14 1513 1514	 1492616474	 999880791	 165990.
15:41:15 1514 1515	 1492616475	 132572043	 132691.
15:41:15 1515 1516	 1492616475	 298338447	 165766.
15:41:15 1516 1517	 1492616475	 460079529	 161741.
15:41:15 1517 1518	 1492616475	 625653895	 165575.
15:41:15 1518 1519	 1492616475	 758406054	 132752.
15:41:15 1519 1520	 1492616475	 924363861	 165958.
15:41:16 1520 1521	 1492616476	 86226585	 161862.
15:41:16 1521 1522	 1492616476	 252150792	 165925.
15:41:16 1522 1523	 1492616476	 413781316	 161630.
15:41:16 1523 1524	 1492616476	 546650112	 132869.
15:41:16 1524 1525	 1492616476	 713398037	 166748.
15:41:16 1525 1526	 1492616476	 874553603	 161155.
15:41:17 1526 1527	 1492616477	 40084137	 165531.
15:41:17 1527 1528	 1492616477	 201813598	 161729.
15:41:17 1528 1529	 1492616477	 339079285	 137266.
15:41:17 1529 1530	 1492616477	 500160727	 161082.
15:41:17 1530 1531	 1492616477	 666111414	 165950.
15:41:17 1531 1532	 1492616477	 798920842	 132810.
15:41:17 1532 1533	 1492616477	 964467059	 165546.
15:41:18 1533 1534	 1492616478	 126241372	 161774.
15:41:18 1534 1535	 1492616478	 287982754	 161742.
15:41:18 1535 1536	 1492616478	 453790486	 165807.
15:41:18 1536 1537	 1492616478	 586563999	 132774.
15:41:18 1537 1538	 1492616478	 752460283	 165896.
15:41:18 1538 1539	 1492616478	 913752303	 161292.
15:41:19 1539 1540	 1492616479	 79367406	 165615.
15:41:19 1540 1541	 1492616479	 213051101	 133684.
15:41:19 1541 1542	 1492616479	 374758995	 161708.
15:41:19 1542 1543	 1492616479	 540468645	 165709.
15:41:19 1543 1544	 1492616479	 706389518	 165921.
15:41:19 1544 1545	 1492616479	 868226847	 161838.
15:41:19 1545 1546	 1492616480	 411528	 132184.
15:41:20 1546 1547	 1492616480	 166245691	 165834.
15:41:20 1547 1548	 1492616480	 327810818	 161566.
15:41:20 1548 1549	 1492616480	 464946772	 137136.
15:41:20 1549 1550	 1492616480	 626615802	 161669.
15:41:20 1550 1551	 1492616480	 785328620	 158712.
15:41:20 1551 1552	 1492616480	 946817867	 161490.
15:41:21 1552 1553	 1492616481	 112740574	 165922.
15:41:21 1553 1554	 1492616481	 274105929	 161366.
15:41:21 1554 1555	 1492616481	 410902380	 136796.
15:41:21 1555 1556	 1492616481	 572477536	 161575.
15:41:21 1556 1557	 1492616481	 738051091	 165574.
15:41:21 1557 1558	 1492616481	 870790383	 132739.
15:41:22 1558 1559	 1492616482	 36242404	 165452.
15:41:22 1559 1560	 1492616482	 197635707	 161393.
15:41:22 1560 1561	 1492616482	 330086913	 132452.
15:41:22 1561 1562	 1492616482	 495455487	 165368.
15:41:22 1562 1563	 1492616482	 656933468	 161478.
15:41:22 1563 1564	 1492616482	 793881234	 136948.
15:41:22 1564 1565	 1492616482	 955137798	 161257.
15:41:23 1565 1566	 1492616483	 120665529	 165527.
15:41:23 1566 1567	 1492616483	 253351576	 132686.
15:41:23 1567 1568	 1492616483	 414677541	 161326.
15:41:23 1568 1569	 1492616483	 580184932	 165508.
15:41:23 1569 1570	 1492616483	 741408599	 161223.
15:41:23 1570 1571	 1492616483	 877990545	 136582.
15:41:24 1571 1572	 1492616484	 39287583	 161297.
15:41:24 1572 1573	 1492616484	 171908212	 132621.
15:41:24 1573 1574	 1492616484	 337460200	 165552.
15:41:24 1574 1575	 1492616484	 498875073	 161415.
15:41:24 1575 1576	 1492616484	 664662383	 165787.
15:41:24 1576 1577	 1492616484	 797511765	 132849.
15:41:24 1577 1578	 1492616484	 962968009	 165457.
15:41:25 1578 1579	 1492616485	 124777009	 161809.
15:41:25 1579 1580	 1492616485	 290610684	 165833.
15:41:25 1580 1581	 1492616485	 423479321	 132869.
15:41:25 1581 1582	 1492616485	 585270911	 161792.
15:41:25 1582 1583	 1492616485	 750980157	 165709.
15:41:25 1583 1584	 1492616485	 913013299	 162033.
15:41:26 1584 1585	 1492616486	 78866015	 165853.
15:41:26 1585 1586	 1492616486	 212228342	 133362.
15:41:26 1586 1587	 1492616486	 374061940	 161834.
15:41:26 1587 1588	 1492616486	 535438601	 161376.
15:41:26 1588 1589	 1492616486	 700891591	 165453.
15:41:26 1589 1590	 1492616486	 833745007	 132854.
15:41:26 1590 1591	 1492616486	 999424427	 165679.
15:41:27 1591 1592	 1492616487	 161395443	 161971.
15:41:27 1592 1593	 1492616487	 327204571	 165809.
15:41:27 1593 1594	 1492616487	 459952998	 132749.
15:41:27 1594 1595	 1492616487	 625516557	 165563.
15:41:27 1595 1596	 1492616487	 787369281	 161853.
15:41:27 1596 1597	 1492616487	 953195227	 165826.
15:41:28 1597 1598	 1492616488	 86388048	 133193.
15:41:28 1598 1599	 1492616488	 247880144	 161492.
15:41:28 1599 1600	 1492616488	 413383613	 165503.
15:41:28 1600 1601	 1492616488	 574846240	 161463.
15:41:28 1601 1602	 1492616488	 711870775	 137025.
15:41:28 1602 1603	 1492616488	 873723360	 161852.
15:41:29 1603 1604	 1492616489	 35486057	 161763.
15:41:29 1604 1605	 1492616489	 201260626	 165774.
15:41:29 1605 1606	 1492616489	 363058050	 161798.
15:41:29 1606 1607	 1492616489	 524823878	 161766.
15:41:29 1607 1608	 1492616489	 690219984	 165396.
15:41:29 1608 1609	 1492616489	 851595028	 161375.
15:41:30 1609 1610	 1492616490	 13308209	 161713.
15:41:30 1610 1611	 1492616490	 179195126	 165887.
15:41:30 1611 1612	 1492616490	 312212102	 133017.
15:41:30 1612 1613	 1492616490	 473899217	 161687.
15:41:30 1613 1614	 1492616490	 639705404	 165806.
15:41:30 1614 1615	 1492616490	 801632587	 161928.
15:41:30 1615 1616	 1492616490	 967594822	 165962.
15:41:31 1616 1617	 1492616491	 128796472	 161201.
15:41:31 1617 1618	 1492616491	 266131500	 137335.
15:41:31 1618 1619	 1492616491	 427459911	 161329.
15:41:31 1619 1620	 1492616491	 588713143	 161253.
15:41:31 1620 1621	 1492616491	 725105663	 136392.
15:41:31 1621 1622	 1492616491	 886966939	 161862.
15:41:32 1622 1623	 1492616492	 44691731	 157725.
15:41:32 1623 1624	 1492616492	 210531120	 165839.
15:41:32 1624 1625	 1492616492	 343582129	 133051.
15:41:32 1625 1626	 1492616492	 509500932	 165919.
15:41:32 1626 1627	 1492616492	 671029944	 161529.
15:41:32 1627 1628	 1492616492	 807785809	 136756.
15:41:32 1628 1629	 1492616492	 969729811	 161944.
15:41:33 1629 1630	 1492616493	 135905329	 166175.
15:41:33 1630 1631	 1492616493	 297530057	 161625.
15:41:33 1631 1632	 1492616493	 462829566	 165299.
15:41:33 1632 1633	 1492616493	 595656281	 132827.
15:41:33 1633 1634	 1492616493	 756970133	 161314.
15:41:33 1634 1635	 1492616493	 921865434	 164895.
15:41:34 1635 1636	 1492616494	 54578767	 132714.
15:41:34 1636 1637	 1492616494	 220146817	 165568.
15:41:34 1637 1638	 1492616494	 381856989	 161710.
15:41:34 1638 1639	 1492616494	 543456158	 161599.
15:41:34 1639 1640	 1492616494	 709100401	 165644.
15:41:34 1640 1641	 1492616494	 842051633	 132951.
15:41:34 1641 1642	 1492616495	 3484386	 161433.
15:41:35 1642 1643	 1492616495	 169397364	 165913.
15:41:35 1643 1644	 1492616495	 331070053	 161673.
15:41:35 1644 1645	 1492616495	 496928577	 165858.
15:41:35 1645 1646	 1492616495	 658783657	 161856.
15:41:35 1646 1647	 1492616495	 795709181	 136925.
15:41:35 1647 1648	 1492616495	 957253034	 161544.
15:41:36 1648 1649	 1492616496	 123167988	 165915.
15:41:36 1649 1650	 1492616496	 284823080	 161655.
15:41:36 1650 1651	 1492616496	 417605161	 132782.
15:41:36 1651 1652	 1492616496	 582958689	 165353.
15:41:36 1652 1653	 1492616496	 744508865	 161551.
15:41:36 1653 1654	 1492616496	 880996590	 136487.
15:41:37 1654 1655	 1492616497	 42736291	 161740.
15:41:37 1655 1656	 1492616497	 208711043	 165975.
15:41:37 1656 1657	 1492616497	 370066787	 161356.
15:41:37 1657 1658	 1492616497	 502620707	 132553.
15:41:37 1658 1659	 1492616497	 668362328	 165742.
15:41:37 1659 1660	 1492616497	 830375775	 162014.
15:41:37 1660 1661	 1492616497	 995827397	 165451.
15:41:38 1661 1662	 1492616498	 157129408	 161302.
15:41:38 1662 1663	 1492616498	 290286280	 133157.
15:41:38 1663 1664	 1492616498	 456023559	 165737.
15:41:38 1664 1665	 1492616498	 617524534	 161501.
15:41:38 1665 1666	 1492616498	 783206344	 165682.
15:41:38 1666 1667	 1492616498	 916058213	 132852.
15:41:39 1667 1668	 1492616499	 77511166	 161453.
15:41:39 1668 1669	 1492616499	 242931013	 165420.
15:41:39 1669 1670	 1492616499	 404327394	 161396.
15:41:39 1670 1671	 1492616499	 565660642	 161333.
15:41:39 1671 1672	 1492616499	 702470184	 136810.
15:41:39 1672 1673	 1492616499	 863546308	 161076.
15:41:40 1673 1674	 1492616500	 25207434	 161661.
15:41:40 1674 1675	 1492616500	 162142145	 136935.
15:41:40 1675 1676	 1492616500	 323354529	 161212.
15:41:40 1676 1677	 1492616500	 488960553	 165606.
15:41:40 1677 1678	 1492616500	 650469570	 161509.
15:41:40 1678 1679	 1492616500	 787473639	 137004.
15:41:40 1679 1680	 1492616500	 948991344	 161518.
15:41:41 1680 1681	 1492616501	 110300999	 161310.
15:41:41 1681 1682	 1492616501	 275880294	 165579.
15:41:41 1682 1683	 1492616501	 437287323	 161407.
15:41:41 1683 1684	 1492616501	 573981544	 136694.
15:41:41 1684 1685	 1492616501	 735107341	 161126.
15:41:41 1685 1686	 1492616501	 896314518	 161207.
15:41:42 1686 1687	 1492616502	 61839178	 165525.
15:41:42 1687 1688	 1492616502	 195051556	 133212.
15:41:42 1688 1689	 1492616502	 356505663	 161454.
15:41:42 1689 1690	 1492616502	 521828631	 165323.
15:41:42 1690 1691	 1492616502	 683123328	 161295.
15:41:42 1691 1692	 1492616502	 848434408	 165311.
15:41:43 1692 1693	 1492616503	 6402416	 157968.
15:41:43 1693 1694	 1492616503	 143173348	 136771.
15:41:43 1694 1695	 1492616503	 304424888	 161252.
15:41:43 1695 1696	 1492616503	 465729877	 161305.
15:41:43 1696 1697	 1492616503	 631063028	 165333.
15:41:43 1697 1698	 1492616503	 763947770	 132885.
15:41:43 1698 1699	 1492616503	 929374993	 165427.
15:41:44 1699 1700	 1492616504	 91161380	 161786.
15:41:44 1700 1701	 1492616504	 252483895	 161323.
15:41:44 1701 1702	 1492616504	 389268264	 136784.
15:41:44 1702 1703	 1492616504	 550699463	 161431.
15:41:44 1703 1704	 1492616504	 711896059	 161197.
15:41:44 1704 1705	 1492616504	 877163094	 165267.
15:41:45 1705 1706	 1492616505	 10039945	 132877.
15:41:45 1706 1707	 1492616505	 175754635	 165714.
15:41:45 1707 1708	 1492616505	 337659367	 161905.
15:41:45 1708 1709	 1492616505	 503058337	 165399.
15:41:45 1709 1710	 1492616505	 635692736	 132635.
15:41:45 1710 1711	 1492616505	 797044673	 161351.
15:41:45 1711 1712	 1492616505	 962492717	 165448.
15:41:46 1712 1713	 1492616506	 124383947	 161892.
15:41:46 1713 1714	 1492616506	 286032925	 161649.
15:41:46 1714 1715	 1492616506	 423252502	 137219.
15:41:46 1715 1716	 1492616506	 581267598	 158015.
15:41:46 1716 1717	 1492616506	 746926008	 165659.
15:41:46 1717 1718	 1492616506	 908189168	 161263.
15:41:47 1718 1719	 1492616507	 73605319	 165416.
15:41:47 1719 1720	 1492616507	 235258468	 161653.
15:41:47 1720 1721	 1492616507	 368218302	 132960.
15:41:47 1721 1722	 1492616507	 533613617	 165395.
15:41:47 1722 1723	 1492616507	 695117983	 161505.
15:41:47 1723 1724	 1492616507	 856648811	 161531.
15:41:48 1724 1725	 1492616508	 21916961	 165268.
15:41:48 1725 1726	 1492616508	 154538954	 132622.
15:41:48 1726 1727	 1492616508	 316334474	 161796.
15:41:48 1727 1728	 1492616508	 481784134	 165449.
15:41:48 1728 1729	 1492616508	 647578296	 165794.
15:41:48 1729 1730	 1492616508	 809297366	 161719.
15:41:48 1730 1731	 1492616508	 942300733	 133004.
15:41:49 1731 1732	 1492616509	 107938687	 165637.
15:41:49 1732 1733	 1492616509	 270115932	 162178.
15:41:49 1733 1734	 1492616509	 436214359	 166098.
15:41:49 1734 1735	 1492616509	 597952248	 161738.
15:41:49 1735 1736	 1492616509	 735049279	 137097.
15:41:49 1736 1737	 1492616509	 896765801	 161717.
15:41:50 1737 1738	 1492616510	 58839879	 162074.
15:41:50 1738 1739	 1492616510	 224930514	 166090.
15:41:50 1739 1740	 1492616510	 386711520	 161781.
15:41:50 1740 1741	 1492616510	 552471346	 165760.
15:41:50 1741 1742	 1492616510	 685601064	 133130.
15:41:50 1742 1743	 1492616510	 851302364	 165701.
15:41:51 1743 1744	 1492616511	 13027347	 161725.
15:41:51 1744 1745	 1492616511	 178834872	 165808.
15:41:51 1745 1746	 1492616511	 340942611	 162107.
15:41:51 1746 1747	 1492616511	 474046362	 133104.
15:41:51 1747 1748	 1492616511	 639557633	 165511.
15:41:51 1748 1749	 1492616511	 800804629	 161247.
15:41:51 1749 1750	 1492616511	 962340861	 161537.
15:41:52 1750 1751	 1492616512	 127666151	 165325.
15:41:52 1751 1752	 1492616512	 260467634	 132801.
15:41:52 1752 1753	 1492616512	 421532511	 161065.
15:41:52 1753 1754	 1492616512	 587050383	 165518.
15:41:52 1754 1755	 1492616512	 748450303	 161400.
15:41:52 1755 1756	 1492616512	 914367229	 165917.
15:41:53 1756 1757	 1492616513	 47642282	 133275.
15:41:53 1757 1758	 1492616513	 209348120	 161706.
15:41:53 1758 1759	 1492616513	 374852094	 165504.
15:41:53 1759 1760	 1492616513	 536291497	 161439.
15:41:53 1760 1761	 1492616513	 673414815	 137124.
15:41:53 1761 1762	 1492616513	 834944545	 161529.
15:41:53 1762 1763	 1492616514	 619702	 165675.
15:41:54 1763 1764	 1492616514	 162797664	 162178.
15:41:54 1764 1765	 1492616514	 320458497	 157661.
15:41:54 1765 1766	 1492616514	 453372207	 132914.
15:41:54 1766 1767	 1492616514	 619398954	 166027.
15:41:54 1767 1768	 1492616514	 781291030	 161892.
15:41:54 1768 1769	 1492616514	 947128436	 165837.
15:41:55 1769 1770	 1492616515	 109182977	 162055.
15:41:55 1770 1771	 1492616515	 275008153	 165825.
15:41:55 1771 1772	 1492616515	 436507553	 161499.
15:41:55 1772 1773	 1492616515	 573567662	 137060.
15:41:55 1773 1774	 1492616515	 734904734	 161338.
15:41:55 1774 1775	 1492616515	 896006235	 161101.
15:41:56 1775 1776	 1492616516	 61693165	 165687.
15:41:56 1776 1777	 1492616516	 223357406	 161664.
15:41:56 1777 1778	 1492616516	 356577488	 133220.
15:41:56 1778 1779	 1492616516	 522018974	 165442.
15:41:56 1779 1780	 1492616516	 683719912	 161701.
15:41:56 1780 1781	 1492616516	 849556486	 165836.
15:41:57 1781 1782	 1492616517	 11663398	 162107.
15:41:57 1782 1783	 1492616517	 173266640	 161603.
15:41:57 1783 1784	 1492616517	 310478516	 137212.
15:41:57 1784 1785	 1492616517	 472536554	 162058.
15:41:57 1785 1786	 1492616517	 634459354	 161923.
15:41:57 1786 1787	 1492616517	 800480372	 166021.
15:41:57 1787 1788	 1492616517	 962507064	 162027.
15:41:58 1788 1789	 1492616518	 128609084	 166102.
15:41:58 1789 1790	 1492616518	 291001406	 162392.
15:41:58 1790 1791	 1492616518	 456744189	 165743.
15:41:58 1791 1792	 1492616518	 589512049	 132768.
15:41:58 1792 1793	 1492616518	 751161473	 161649.
15:41:58 1793 1794	 1492616518	 917017665	 165856.
15:41:59 1794 1795	 1492616519	 78715601	 161698.
15:41:59 1795 1796	 1492616519	 240879878	 162165.
15:41:59 1796 1797	 1492616519	 406623335	 165743.
15:41:59 1797 1798	 1492616519	 539843040	 133220.
15:41:59 1798 1799	 1492616519	 705543401	 165700.
15:41:59 1799 1800	 1492616519	 866838953	 161296.
15:42:00 1800 1801	 1492616520	 28396118	 161557.
15:42:00 1801 1802	 1492616520	 194221751	 165826.
15:42:00 1802 1803	 1492616520	 352321119	 158099.
15:42:00 1803 1804	 1492616520	 518558289	 166237.
15:42:00 1804 1805	 1492616520	 651934348	 133376.
15:42:00 1805 1806	 1492616520	 817946129	 166012.
15:42:00 1806 1807	 1492616520	 979908545	 161962.
15:42:01 1807 1808	 1492616521	 141566198	 161658.
15:42:01 1808 1809	 1492616521	 307458400	 165892.
15:42:01 1809 1810	 1492616521	 469085176	 161627.
15:42:01 1810 1811	 1492616521	 630737746	 161653.
15:42:01 1811 1812	 1492616521	 796568121	 165830.
15:42:01 1812 1813	 1492616521	 958490070	 161922.
15:42:02 1813 1814	 1492616522	 120065305	 161575.
15:42:02 1814 1815	 1492616522	 257135930	 137071.
15:42:02 1815 1816	 1492616522	 418432680	 161296.
15:42:02 1816 1817	 1492616522	 580086468	 161654.
15:42:02 1817 1818	 1492616522	 745486493	 165400.
15:42:02 1818 1819	 1492616522	 906971718	 161486.
15:42:03 1819 1820	 1492616523	 68467006	 161495.
15:42:03 1820 1821	 1492616523	 205519540	 137052.
15:42:03 1821 1822	 1492616523	 366748884	 161230.
15:42:03 1822 1823	 1492616523	 527681983	 160933.
15:42:03 1823 1824	 1492616523	 693236240	 165554.
15:42:03 1824 1825	 1492616523	 854543678	 161307.
15:42:03 1825 1826	 1492616523	 987255178	 132712.
15:42:04 1826 1827	 1492616524	 152959844	 165705.
15:42:04 1827 1828	 1492616524	 314347811	 161388.
15:42:04 1828 1829	 1492616524	 475858462	 161510.
15:42:04 1829 1830	 1492616524	 641593777	 165736.
15:42:04 1830 1831	 1492616524	 803205600	 161611.
15:42:04 1831 1832	 1492616524	 968923668	 165718.
15:42:05 1832 1833	 1492616525	 102001360	 133078.
15:42:05 1833 1834	 1492616525	 263911065	 161910.
15:42:05 1834 1835	 1492616525	 425723992	 161813.
15:42:05 1835 1836	 1492616525	 591376912	 165653.
15:42:05 1836 1837	 1492616525	 752900323	 161523.
15:42:05 1837 1838	 1492616525	 914345202	 161445.
15:42:06 1838 1839	 1492616526	 79762743	 165418.
15:42:06 1839 1840	 1492616526	 212714535	 132951.
15:42:06 1840 1841	 1492616526	 374507430	 161793.
15:42:06 1841 1842	 1492616526	 539957664	 165450.
15:42:06 1842 1843	 1492616526	 701325511	 161368.
15:42:06 1843 1844	 1492616526	 867223519	 165898.
15:42:07 1844 1845	 1492616527	 25396185	 158173.
15:42:07 1845 1846	 1492616527	 191166121	 165770.
15:42:07 1846 1847	 1492616527	 352612712	 161446.
15:42:07 1847 1848	 1492616527	 485606417	 132994.
15:42:07 1848 1849	 1492616527	 651476671	 165870.
15:42:07 1849 1850	 1492616527	 813093577	 161617.
15:42:07 1850 1851	 1492616527	 975009396	 161916.
15:42:08 1851 1852	 1492616528	 140808679	 165799.
15:42:08 1852 1853	 1492616528	 302677852	 161870.
15:42:08 1853 1854	 1492616528	 464327867	 161650.
15:42:08 1854 1855	 1492616528	 630177232	 165849.
15:42:08 1855 1856	 1492616528	 791777242	 161600.
15:42:08 1856 1857	 1492616528	 957759781	 165983.
15:42:09 1857 1858	 1492616529	 90727180	 132967.
15:42:09 1858 1859	 1492616529	 252075135	 161348.
15:42:09 1859 1860	 1492616529	 418061751	 165987.
15:42:09 1860 1861	 1492616529	 579419798	 161358.
15:42:09 1861 1862	 1492616529	 741105593	 161685.
15:42:09 1862 1863	 1492616529	 877757179	 136652.
15:42:10 1863 1864	 1492616530	 39255933	 161499.
15:42:10 1864 1865	 1492616530	 204923323	 165667.
15:42:10 1865 1866	 1492616530	 366437469	 161514.
15:42:10 1866 1867	 1492616530	 528009070	 161572.
15:42:10 1867 1868	 1492616530	 693534927	 165526.
15:42:10 1868 1869	 1492616530	 826521845	 132987.
15:42:10 1869 1870	 1492616530	 988897866	 162376.
15:42:11 1870 1871	 1492616531	 146164656	 157266.
15:42:11 1871 1872	 1492616531	 312042126	 165878.
15:42:11 1872 1873	 1492616531	 473700730	 161659.
15:42:11 1873 1874	 1492616531	 639343770	 165643.
15:42:11 1874 1875	 1492616531	 772424045	 133080.
15:42:11 1875 1876	 1492616531	 938387876	 165964.
15:42:12 1876 1877	 1492616532	 100368943	 161981.
15:42:12 1877 1878	 1492616532	 266141901	 165773.
15:42:12 1878 1879	 1492616532	 427978557	 161836.
15:42:12 1879 1880	 1492616532	 593904590	 165926.
15:42:12 1880 1881	 1492616532	 727015185	 133111.
15:42:12 1881 1882	 1492616532	 888837174	 161822.
15:42:13 1882 1883	 1492616533	 54435470	 165598.
15:42:13 1883 1884	 1492616533	 215775491	 161340.
15:42:13 1884 1885	 1492616533	 377073933	 161299.
15:42:13 1885 1886	 1492616533	 542276224	 165202.
15:42:13 1886 1887	 1492616533	 674936806	 132661.
15:42:13 1887 1888	 1492616533	 840515588	 165578.
15:42:14 1888 1889	 1492616534	 1677062	 161162.
15:42:14 1889 1890	 1492616534	 134810620	 133133.
15:42:14 1890 1891	 1492616534	 300532735	 165723.
15:42:14 1891 1892	 1492616534	 461972801	 161440.
15:42:14 1892 1893	 1492616534	 627634162	 165661.
15:42:14 1893 1894	 1492616534	 760452631	 132818.
15:42:14 1894 1895	 1492616534	 925787243	 165335.
15:42:15 1895 1896	 1492616535	 87142120	 161355.
15:42:15 1896 1897	 1492616535	 252847698	 165705.
15:42:15 1897 1898	 1492616535	 385744552	 132897.
15:42:15 1898 1899	 1492616535	 547537053	 161793.
15:42:15 1899 1900	 1492616535	 713085473	 165548.
15:42:15 1900 1901	 1492616535	 874693881	 161609.
15:42:16 1901 1902	 1492616536	 36498249	 161804.
15:42:16 1902 1903	 1492616536	 201990063	 165492.
15:42:16 1903 1904	 1492616536	 335181864	 133192.
