18:53:55    0 Step	 time(s)	 time(ns)	 delta(ms)
18:53:55    0 1	 1492541635	 754855462	 910.
18:53:55    1 2	 1492541635	 917413920	 162559.
18:53:56    2 3	 1492541636	 79035653	 161621.
18:53:56    3 4	 1492541636	 245085165	 166050.
18:53:56    4 5	 1492541636	 406911037	 161826.
18:53:56    5 6	 1492541636	 572799466	 165888.
18:53:56    6 7	 1492541636	 706201663	 133402.
18:53:56    7 8	 1492541636	 872033877	 165833.
18:53:57    8 9	 1492541637	 33982996	 161949.
18:53:57    9 10	 1492541637	 199559664	 165576.
18:53:57   10 11	 1492541637	 332903387	 133344.
18:53:57   11 12	 1492541637	 498653699	 165750.
18:53:57   12 13	 1492541637	 660607847	 161955.
18:53:57   13 14	 1492541637	 826323564	 165715.
18:53:57   14 15	 1492541637	 988361556	 162038.
18:53:58   15 16	 1492541638	 125775312	 137414.
18:53:58   16 17	 1492541638	 287524179	 161749.
18:53:58   17 18	 1492541638	 453406815	 165883.
18:53:58   18 19	 1492541638	 615294647	 161887.
18:53:58   19 20	 1492541638	 781509528	 166215.
18:53:58   20 21	 1492541638	 914871214	 133362.
18:53:59   21 22	 1492541639	 76193310	 161322.
18:53:59   22 23	 1492541639	 241876470	 165683.
18:53:59   23 24	 1492541639	 403219452	 161343.
18:53:59   24 25	 1492541639	 540386017	 137167.
18:53:59   25 26	 1492541639	 701950646	 161564.
18:53:59   26 27	 1492541639	 867645794	 165695.
18:54:00   27 28	 1492541640	 29229952	 161585.
18:54:00   28 29	 1492541640	 165973946	 136744.
18:54:00   29 30	 1492541640	 327729408	 161755.
18:54:00   30 31	 1492541640	 489457908	 161729.
18:54:00   31 32	 1492541640	 655118429	 165660.
18:54:00   32 33	 1492541640	 816850703	 161732.
18:54:00   33 34	 1492541640	 978330021	 161480.
18:54:01   34 35	 1492541641	 144804346	 166474.
18:54:01   35 36	 1492541641	 298568795	 153764.
18:54:01   36 37	 1492541641	 464160165	 165592.
18:54:01   37 38	 1492541641	 625772834	 161613.
18:54:01   38 39	 1492541641	 763111641	 137338.
18:54:01   39 40	 1492541641	 925239319	 162128.
18:54:02   40 41	 1492541642	 87091969	 161853.
18:54:02   41 42	 1492541642	 252878180	 165786.
18:54:02   42 43	 1492541642	 414322167	 161444.
18:54:02   43 44	 1492541642	 579991381	 165669.
18:54:02   44 45	 1492541642	 741487536	 161496.
18:54:02   45 46	 1492541642	 874258327	 132771.
18:54:03   46 47	 1492541643	 40031375	 165773.
18:54:03   47 48	 1492541643	 201702431	 161671.
18:54:03   48 49	 1492541643	 367265582	 165563.
18:54:03   49 50	 1492541643	 528825528	 161560.
18:54:03   50 51	 1492541643	 689888039	 161063.
18:54:03   51 52	 1492541643	 826697148	 136809.
18:54:03   52 53	 1492541643	 988044765	 161347.
18:54:04   53 54	 1492541644	 149302292	 161258.
18:54:04   54 55	 1492541644	 314517912	 165216.
18:54:04   55 56	 1492541644	 475826117	 161308.
18:54:04   56 57	 1492541644	 608477426	 132651.
18:54:04   57 58	 1492541644	 773802634	 165325.
18:54:04   58 59	 1492541644	 934864537	 161062.
18:54:05   59 60	 1492541645	 96339835	 161476.
18:54:05   60 61	 1492541645	 233419268	 137079.
18:54:05   61 62	 1492541645	 394598653	 161179.
18:54:05   62 63	 1492541645	 555927518	 161329.
18:54:05   63 64	 1492541645	 721408609	 165481.
18:54:05   64 65	 1492541645	 854146290	 132738.
18:54:06   65 66	 1492541646	 15361959	 161216.
18:54:06   66 67	 1492541646	 181192131	 165830.
18:54:06   67 68	 1492541646	 342776900	 161585.
18:54:06   68 69	 1492541646	 508546334	 165769.
18:54:06   69 70	 1492541646	 641219459	 132673.
18:54:06   70 71	 1492541646	 802703658	 161484.
18:54:06   71 72	 1492541646	 968453855	 165751.
18:54:07   72 73	 1492541647	 130374071	 161920.
18:54:07   73 74	 1492541647	 296562813	 166189.
18:54:07   74 75	 1492541647	 429763105	 133200.
18:54:07   75 76	 1492541647	 591437276	 161674.
18:54:07   76 77	 1492541647	 757237086	 165800.
18:54:07   77 78	 1492541647	 922960616	 165724.
18:54:08   78 79	 1492541648	 55679101	 132718.
18:54:08   79 80	 1492541648	 220997872	 165319.
18:54:08   80 81	 1492541648	 382480245	 161482.
18:54:08   81 82	 1492541648	 548708688	 166228.
18:54:08   82 83	 1492541648	 681959565	 133251.
18:54:08   83 84	 1492541648	 843569045	 161610.
18:54:09   84 85	 1492541649	 9927575	 166358.
18:54:09   85 86	 1492541649	 171544522	 161617.
18:54:09   86 87	 1492541649	 337222043	 165678.
18:54:09   87 88	 1492541649	 470409410	 133187.
18:54:09   88 89	 1492541649	 631916982	 161508.
18:54:09   89 90	 1492541649	 797817922	 165901.
18:54:09   90 91	 1492541649	 960154094	 162336.
18:54:10   91 92	 1492541650	 126060866	 165907.
18:54:10   92 93	 1492541650	 288110653	 162049.
18:54:10   93 94	 1492541650	 454396873	 166287.
18:54:10   94 95	 1492541650	 587458625	 133061.
18:54:10   95 96	 1492541650	 753626254	 166168.
18:54:10   96 97	 1492541650	 915648000	 162022.
18:54:11   97 98	 1492541651	 81442560	 165794.
18:54:11   98 99	 1492541651	 242947420	 161505.
18:54:11   99 100	 1492541651	 404766533	 161819.
18:54:11  100 101	 1492541651	 542028274	 137262.
18:54:11  101 102	 1492541651	 703811567	 161783.
18:54:11  102 103	 1492541651	 870170708	 166359.
18:54:12  103 104	 1492541652	 31542025	 161372.
18:54:12  104 105	 1492541652	 196979590	 165438.
18:54:12  105 106	 1492541652	 330043899	 133064.
18:54:12  106 107	 1492541652	 491173887	 161130.
18:54:12  107 108	 1492541652	 656608226	 165434.
18:54:12  108 109	 1492541652	 788895146	 132287.
18:54:12  109 110	 1492541652	 954156967	 165262.
18:54:13  110 111	 1492541653	 86623561	 132466.
18:54:13  111 112	 1492541653	 251932558	 165309.
18:54:13  112 113	 1492541653	 413432136	 161500.
18:54:13  113 114	 1492541653	 545636444	 132204.
18:54:13  114 115	 1492541653	 711366657	 165730.
18:54:13  115 116	 1492541653	 873395392	 162029.
18:54:14  116 117	 1492541654	 38678758	 165283.
18:54:14  117 118	 1492541654	 200503888	 161826.
18:54:14  118 119	 1492541654	 337205594	 136701.
18:54:14  119 120	 1492541654	 498591139	 161386.
18:54:14  120 121	 1492541654	 664320761	 165729.
18:54:14  121 122	 1492541654	 797672966	 133353.
18:54:14  122 123	 1492541654	 958967337	 161294.
18:54:15  123 124	 1492541655	 124623168	 165656.
18:54:15  124 125	 1492541655	 286048644	 161425.
18:54:15  125 126	 1492541655	 423481622	 137433.
18:54:15  126 127	 1492541655	 585173280	 161692.
18:54:15  127 128	 1492541655	 750892247	 165719.
18:54:15  128 129	 1492541655	 911974301	 161082.
18:54:16  129 130	 1492541656	 49253159	 137279.
18:54:16  130 131	 1492541656	 210690274	 161437.
18:54:16  131 132	 1492541656	 376047818	 165358.
18:54:16  132 133	 1492541656	 538017865	 161970.
18:54:16  133 134	 1492541656	 670780738	 132762.
18:54:16  134 135	 1492541656	 836432255	 165652.
18:54:17  135 136	 1492541657	 2189197	 165757.
18:54:17  136 137	 1492541657	 163959643	 161770.
18:54:17  137 138	 1492541657	 297177327	 133218.
18:54:17  138 139	 1492541657	 463045491	 165868.
18:54:17  139 140	 1492541657	 624791110	 161746.
18:54:17  140 141	 1492541657	 791330091	 166539.
18:54:17  141 142	 1492541657	 949162433	 157832.
18:54:18  142 143	 1492541658	 81976986	 132815.
18:54:18  143 144	 1492541658	 247541018	 165564.
18:54:18  144 145	 1492541658	 408993843	 161453.
18:54:18  145 146	 1492541658	 574888646	 165894.
18:54:18  146 147	 1492541658	 707983514	 133095.
18:54:18  147 148	 1492541658	 873503047	 165520.
18:54:19  148 149	 1492541659	 34855850	 161353.
18:54:19  149 150	 1492541659	 200564395	 165708.
18:54:19  150 151	 1492541659	 333064210	 132500.
18:54:19  151 152	 1492541659	 494562445	 161498.
18:54:19  152 153	 1492541659	 660545885	 165984.
18:54:19  153 154	 1492541659	 793214624	 132668.
18:54:19  154 155	 1492541659	 959047966	 165834.
18:54:20  155 156	 1492541660	 120633705	 161585.
18:54:20  156 157	 1492541660	 286154622	 165521.
18:54:20  157 158	 1492541660	 418826409	 132672.
18:54:20  158 159	 1492541660	 580283746	 161457.
18:54:20  159 160	 1492541660	 745856277	 165573.
18:54:20  160 161	 1492541660	 878303799	 132447.
18:54:21  161 162	 1492541661	 43740784	 165437.
18:54:21  162 163	 1492541661	 204925620	 161185.
18:54:21  163 164	 1492541661	 341859909	 136935.
18:54:21  164 165	 1492541661	 503632007	 161772.
18:54:21  165 166	 1492541661	 669330055	 165698.
18:54:21  166 167	 1492541661	 801788276	 132458.
18:54:21  167 168	 1492541661	 967857089	 166069.
18:54:22  168 169	 1492541662	 129524108	 161667.
18:54:22  169 170	 1492541662	 295261772	 165737.
18:54:22  170 171	 1492541662	 427699842	 132439.
18:54:22  171 172	 1492541662	 588640535	 160940.
18:54:22  172 173	 1492541662	 753344812	 164705.
18:54:22  173 174	 1492541662	 885834224	 132489.
18:54:23  174 175	 1492541663	 46550459	 160716.
18:54:23  175 176	 1492541663	 211318014	 164768.
18:54:23  176 177	 1492541663	 347125354	 135807.
18:54:23  177 178	 1492541663	 512251855	 165127.
18:54:23  178 179	 1492541663	 644699892	 132448.
18:54:23  179 180	 1492541663	 809657711	 164957.
18:54:23  180 181	 1492541663	 970911275	 161254.
18:54:24  181 182	 1492541664	 107950379	 137039.
18:54:24  182 183	 1492541664	 269695327	 161745.
18:54:24  183 184	 1492541664	 435208542	 165513.
18:54:24  184 185	 1492541664	 568152780	 132944.
18:54:24  185 186	 1492541664	 729747483	 161595.
18:54:24  186 187	 1492541664	 895357709	 165610.
18:54:25  187 188	 1492541665	 61299223	 165942.
18:54:25  188 189	 1492541665	 194410078	 133111.
18:54:25  189 190	 1492541665	 360188793	 165779.
18:54:25  190 191	 1492541665	 521824376	 161635.
18:54:25  191 192	 1492541665	 683606551	 161782.
18:54:25  192 193	 1492541665	 849584894	 165979.
18:54:25  193 194	 1492541665	 982849039	 133264.
18:54:26  194 195	 1492541666	 148508111	 165659.
18:54:26  195 196	 1492541666	 310167663	 161659.
18:54:26  196 197	 1492541666	 447048333	 136881.
18:54:26  197 198	 1492541666	 608693062	 161645.
18:54:26  198 199	 1492541666	 770263658	 161571.
18:54:26  199 200	 1492541666	 935728472	 165464.
18:54:27  200 201	 1492541667	 68785367	 133057.
18:54:27  201 202	 1492541667	 234414126	 165629.
18:54:27  202 203	 1492541667	 395926890	 161513.
18:54:27  203 204	 1492541667	 561711399	 165784.
18:54:27  204 205	 1492541667	 694754936	 133044.
18:54:27  205 206	 1492541667	 860588797	 165834.
18:54:28  206 207	 1492541668	 22296942	 161708.
18:54:28  207 208	 1492541668	 188031610	 165734.
18:54:28  208 209	 1492541668	 321082466	 133051.
18:54:28  209 210	 1492541668	 482527088	 161445.
18:54:28  210 211	 1492541668	 648349659	 165822.
18:54:28  211 212	 1492541668	 810774156	 162425.
18:54:28  212 213	 1492541668	 972635276	 161861.
18:54:29  213 214	 1492541669	 105661455	 133026.
18:54:29  214 215	 1492541669	 267534205	 161873.
18:54:29  215 216	 1492541669	 433308610	 165774.
18:54:29  216 217	 1492541669	 595378687	 162070.
18:54:29  217 218	 1492541669	 732617045	 137239.
18:54:29  218 219	 1492541669	 894036866	 161420.
18:54:30  219 220	 1492541670	 59933941	 165897.
18:54:30  220 221	 1492541670	 221598111	 161664.
18:54:30  221 222	 1492541670	 383009175	 161411.
18:54:30  222 223	 1492541670	 520206875	 137198.
18:54:30  223 224	 1492541670	 681767513	 161560.
18:54:30  224 225	 1492541670	 847220670	 165453.
18:54:30  225 226	 1492541670	 980164238	 132944.
18:54:31  226 227	 1492541671	 145570841	 165407.
18:54:31  227 228	 1492541671	 307302792	 161732.
18:54:31  228 229	 1492541671	 472989241	 165686.
18:54:31  229 230	 1492541671	 606080045	 133091.
18:54:31  230 231	 1492541671	 771580031	 165500.
18:54:31  231 232	 1492541671	 932900472	 161320.
18:54:32  232 233	 1492541672	 70156330	 137256.
18:54:32  233 234	 1492541672	 231514006	 161358.
18:54:32  234 235	 1492541672	 397733621	 166219.
18:54:32  235 236	 1492541672	 559453170	 161720.
18:54:32  236 237	 1492541672	 696430434	 136977.
18:54:32  237 238	 1492541672	 857727341	 161297.
18:54:33  238 239	 1492541673	 19366489	 161639.
18:54:33  239 240	 1492541673	 185427261	 166061.
18:54:33  240 241	 1492541673	 318362391	 132935.
18:54:33  241 242	 1492541673	 483859303	 165497.
18:54:33  242 243	 1492541673	 645656661	 161797.
18:54:33  243 244	 1492541673	 811049426	 165393.
18:54:33  244 245	 1492541673	 943658121	 132609.
18:54:34  245 246	 1492541674	 108993248	 165335.
18:54:34  246 247	 1492541674	 270829093	 161836.
18:54:34  247 248	 1492541674	 403769631	 132940.
18:54:34  248 249	 1492541674	 569401708	 165632.
18:54:34  249 250	 1492541674	 730571844	 161171.
18:54:34  250 251	 1492541674	 867473047	 136901.
18:54:35  251 252	 1492541675	 28776266	 161303.
18:54:35  252 253	 1492541675	 190377092	 161601.
18:54:35  253 254	 1492541675	 355752368	 165375.
18:54:35  254 255	 1492541675	 488700349	 132948.
18:54:35  255 256	 1492541675	 654337624	 165638.
18:54:35  256 257	 1492541675	 815790302	 161452.
18:54:35  257 258	 1492541675	 952743878	 136954.
18:54:36  258 259	 1492541676	 114283335	 161539.
18:54:36  259 260	 1492541676	 280145432	 165862.
18:54:36  260 261	 1492541676	 441310832	 161166.
18:54:36  261 262	 1492541676	 578144542	 136833.
18:54:36  262 263	 1492541676	 739424926	 161281.
18:54:36  263 264	 1492541676	 904859712	 165434.
18:54:37  264 265	 1492541677	 37796424	 132937.
18:54:37  265 266	 1492541677	 202902778	 165106.
18:54:37  266 267	 1492541677	 364639796	 161738.
18:54:37  267 268	 1492541677	 530830053	 166190.
18:54:37  268 269	 1492541677	 663542615	 132712.
18:54:37  269 270	 1492541677	 824899732	 161357.
18:54:37  270 271	 1492541677	 990408636	 165509.
18:54:38  271 272	 1492541678	 122982802	 132574.
18:54:38  272 273	 1492541678	 288396275	 165414.
18:54:38  273 274	 1492541678	 449666241	 161270.
18:54:38  274 275	 1492541678	 582512869	 132847.
18:54:38  275 276	 1492541678	 748112044	 165599.
18:54:38  276 277	 1492541678	 913751145	 165639.
18:54:39  277 278	 1492541679	 75266781	 161515.
18:54:39  278 279	 1492541679	 208002251	 132736.
18:54:39  279 280	 1492541679	 373360877	 165359.
18:54:39  280 281	 1492541679	 535063605	 161702.
18:54:39  281 282	 1492541679	 701101113	 166038.
18:54:39  282 283	 1492541679	 863217944	 162117.
18:54:39  283 284	 1492541679	 996614362	 133396.
18:54:40  284 285	 1492541680	 162719388	 166105.
18:54:40  285 286	 1492541680	 328705574	 165987.
18:54:40  286 287	 1492541680	 490658125	 161952.
18:54:40  287 288	 1492541680	 656674789	 166016.
18:54:40  288 289	 1492541680	 818598600	 161924.
18:54:40  289 290	 1492541680	 955770329	 137172.
18:54:41  290 291	 1492541681	 117851408	 162081.
18:54:41  291 292	 1492541681	 283874424	 166023.
18:54:41  292 293	 1492541681	 445319651	 161445.
18:54:41  293 294	 1492541681	 611234377	 165915.
18:54:41  294 295	 1492541681	 744511519	 133277.
18:54:41  295 296	 1492541681	 909665729	 165154.
18:54:42  296 297	 1492541682	 71250108	 161585.
18:54:42  297 298	 1492541682	 204130145	 132880.
18:54:42  298 299	 1492541682	 369775613	 165645.
18:54:42  299 300	 1492541682	 531311378	 161536.
18:54:42  300 301	 1492541682	 667959589	 136648.
18:54:42  301 302	 1492541682	 829298297	 161339.
18:54:42  302 303	 1492541682	 994998565	 165700.
18:54:43  303 304	 1492541683	 127904090	 132906.
18:54:43  304 305	 1492541683	 289449974	 161546.
18:54:43  305 306	 1492541683	 455311354	 165861.
18:54:43  306 307	 1492541683	 587760076	 132449.
18:54:43  307 308	 1492541683	 753291094	 165531.
18:54:43  308 309	 1492541683	 918699008	 165408.
18:54:44  309 310	 1492541684	 80136248	 161437.
18:54:44  310 311	 1492541684	 213100622	 132964.
18:54:44  311 312	 1492541684	 378409872	 165310.
18:54:44  312 313	 1492541684	 539923698	 161513.
18:54:44  313 314	 1492541684	 676790686	 136867.
18:54:44  314 315	 1492541684	 838454596	 161664.
18:54:45  315 316	 1492541685	 3965537	 165511.
18:54:45  316 317	 1492541685	 136833789	 132868.
18:54:45  317 318	 1492541685	 302299250	 165466.
18:54:45  318 319	 1492541685	 463783628	 161484.
18:54:45  319 320	 1492541685	 596799729	 133016.
18:54:45  320 321	 1492541685	 762268165	 165469.
18:54:45  321 322	 1492541685	 924328717	 162060.
18:54:46  322 323	 1492541686	 90441419	 166113.
18:54:46  323 324	 1492541686	 252472750	 162031.
18:54:46  324 325	 1492541686	 389622927	 137151.
18:54:46  325 326	 1492541686	 551288829	 161666.
18:54:46  326 327	 1492541686	 717011210	 165722.
18:54:46  327 328	 1492541686	 878613251	 161602.
18:54:47  328 329	 1492541687	 44777955	 166165.
18:54:47  329 330	 1492541687	 206507391	 161729.
18:54:47  330 331	 1492541687	 343858309	 137351.
18:54:47  331 332	 1492541687	 506036661	 162178.
18:54:47  332 333	 1492541687	 672305260	 166269.
18:54:47  333 334	 1492541687	 834289648	 161984.
18:54:47  334 335	 1492541687	 996635518	 162346.
18:54:48  335 336	 1492541688	 162915327	 166280.
18:54:48  336 337	 1492541688	 324964122	 162049.
18:54:48  337 338	 1492541688	 458110866	 133147.
18:54:48  338 339	 1492541688	 624263537	 166152.
18:54:48  339 340	 1492541688	 790412621	 166149.
18:54:48  340 341	 1492541688	 952132054	 161720.
18:54:49  341 342	 1492541689	 117966785	 165835.
18:54:49  342 343	 1492541689	 251365848	 133399.
18:54:49  343 344	 1492541689	 413061680	 161695.
18:54:49  344 345	 1492541689	 578441520	 165380.
18:54:49  345 346	 1492541689	 739961961	 161521.
18:54:49  346 347	 1492541689	 877010855	 137049.
18:54:50  347 348	 1492541690	 38955163	 161944.
18:54:50  348 349	 1492541690	 200659584	 161704.
18:54:50  349 350	 1492541690	 366495207	 165836.
18:54:50  350 351	 1492541690	 528187524	 161692.
18:54:50  351 352	 1492541690	 693706618	 165519.
18:54:50  352 353	 1492541690	 826992605	 133286.
18:54:50  353 354	 1492541690	 993772122	 166780.
18:54:51  354 355	 1492541691	 151303956	 157532.
18:54:51  355 356	 1492541691	 313157296	 161853.
18:54:51  356 357	 1492541691	 479014192	 165857.
18:54:51  357 358	 1492541691	 640532305	 161518.
18:54:51  358 359	 1492541691	 773456875	 132925.
18:54:51  359 360	 1492541691	 939048423	 165591.
18:54:52  360 361	 1492541692	 100791803	 161744.
18:54:52  361 362	 1492541692	 266285121	 165493.
18:54:52  362 363	 1492541692	 427765452	 161480.
18:54:52  363 364	 1492541692	 560522109	 132757.
18:54:52  364 365	 1492541692	 725957861	 165436.
18:54:52  365 366	 1492541692	 887370132	 161412.
18:54:53  366 367	 1492541693	 52986272	 165616.
18:54:53  367 368	 1492541693	 186101343	 133115.
18:54:53  368 369	 1492541693	 348107539	 162006.
18:54:53  369 370	 1492541693	 514086716	 165979.
18:54:53  370 371	 1492541693	 675641119	 161555.
18:54:53  371 372	 1492541693	 841912598	 166271.
18:54:54  372 373	 1492541694	 8057968	 166146.
18:54:54  373 374	 1492541694	 141194468	 133136.
18:54:54  374 375	 1492541694	 302817157	 161623.
18:54:54  375 376	 1492541694	 468236260	 165419.
18:54:54  376 377	 1492541694	 629719859	 161484.
18:54:54  377 378	 1492541694	 795685915	 165966.
18:54:54  378 379	 1492541694	 929035459	 133349.
18:54:55  379 380	 1492541695	 90651036	 161616.
18:54:55  380 381	 1492541695	 256525838	 165875.
18:54:55  381 382	 1492541695	 418772742	 162246.
18:54:55  382 383	 1492541695	 580623676	 161851.
18:54:55  383 384	 1492541695	 746684617	 166061.
18:54:55  384 385	 1492541695	 908979618	 162295.
18:54:56  385 386	 1492541696	 41872930	 132894.
18:54:56  386 387	 1492541696	 203593232	 161720.
18:54:56  387 388	 1492541696	 369081839	 165489.
18:54:56  388 389	 1492541696	 530235963	 161154.
18:54:56  389 390	 1492541696	 691697191	 161461.
18:54:56  390 391	 1492541696	 856980958	 165284.
18:54:56  391 392	 1492541696	 989759097	 132778.
18:54:57  392 393	 1492541697	 151098031	 161339.
18:54:57  393 394	 1492541697	 316707715	 165609.
18:54:57  394 395	 1492541697	 478310647	 161603.
18:54:57  395 396	 1492541697	 639655660	 161345.
18:54:57  396 397	 1492541697	 805590101	 165935.
18:54:57  397 398	 1492541697	 938013614	 132423.
18:54:58  398 399	 1492541698	 99022984	 161010.
18:54:58  399 400	 1492541698	 264346220	 165323.
18:54:58  400 401	 1492541698	 425527771	 161181.
18:54:58  401 402	 1492541698	 562259964	 136733.
18:54:58  402 403	 1492541698	 723455835	 161196.
18:54:58  403 404	 1492541698	 885235723	 161780.
18:54:59  404 405	 1492541699	 46677848	 161442.
18:54:59  405 406	 1492541699	 212043026	 165376.
18:54:59  406 407	 1492541699	 344678258	 132624.
18:54:59  407 408	 1492541699	 505730579	 161052.
18:54:59  408 409	 1492541699	 670878613	 165148.
18:54:59  409 410	 1492541699	 831971414	 161093.
18:54:59  410 411	 1492541699	 964721881	 132751.
18:55:00  411 412	 1492541700	 130543715	 165821.
18:55:00  412 413	 1492541700	 292048753	 161505.
18:55:00  413 414	 1492541700	 457694883	 165647.
18:55:00  414 415	 1492541700	 619464349	 161769.
18:55:00  415 416	 1492541700	 784798339	 165334.
18:55:00  416 417	 1492541700	 917621508	 132823.
18:55:01  417 418	 1492541701	 79777202	 162156.
18:55:01  418 419	 1492541701	 245614980	 165838.
18:55:01  419 420	 1492541701	 407368952	 161754.
18:55:01  420 421	 1492541701	 573072439	 165703.
18:55:01  421 422	 1492541701	 734662307	 161590.
18:55:01  422 423	 1492541701	 868018128	 133356.
18:55:02  423 424	 1492541702	 58924929	 190907.
18:55:02  424 425	 1492541702	 191841631	 132916.
18:55:02  425 426	 1492541702	 357630692	 165789.
18:55:02  426 427	 1492541702	 519057612	 161427.
18:55:02  427 428	 1492541702	 680636600	 161579.
18:55:02  428 429	 1492541702	 846074870	 165439.
18:55:02  429 430	 1492541702	 978773046	 132698.
18:55:03  430 431	 1492541703	 140324712	 161551.
18:55:03  431 432	 1492541703	 305895751	 165571.
18:55:03  432 433	 1492541703	 467493052	 161598.
18:55:03  433 434	 1492541703	 629388576	 161895.
18:55:03  434 435	 1492541703	 795264638	 165876.
18:55:03  435 436	 1492541703	 956951622	 161687.
18:55:04  436 437	 1492541704	 118699368	 161748.
18:55:04  437 438	 1492541704	 284516861	 165818.
18:55:04  438 439	 1492541704	 417751884	 133235.
18:55:04  439 440	 1492541704	 583422893	 165671.
18:55:04  440 441	 1492541704	 745164655	 161741.
18:55:04  441 442	 1492541704	 907016084	 161852.
18:55:05  442 443	 1492541705	 72923178	 165907.
18:55:05  443 444	 1492541705	 234759724	 161836.
18:55:05  444 445	 1492541705	 396653648	 161894.
18:55:05  445 446	 1492541705	 562478449	 165825.
18:55:05  446 447	 1492541705	 724421757	 161943.
18:55:05  447 448	 1492541705	 890243367	 165822.
18:55:06  448 449	 1492541706	 23209236	 132966.
18:55:06  449 450	 1492541706	 185154316	 161945.
18:55:06  450 451	 1492541706	 351058972	 165905.
18:55:06  451 452	 1492541706	 512969100	 161910.
18:55:06  452 453	 1492541706	 678900942	 165932.
18:55:06  453 454	 1492541706	 840593620	 161692.
18:55:06  454 455	 1492541707	 1983613	 161390.
18:55:07  455 456	 1492541707	 134776068	 132793.
18:55:07  456 457	 1492541707	 300330110	 165554.
18:55:07  457 458	 1492541707	 461994713	 161664.
18:55:07  458 459	 1492541707	 628109770	 166115.
18:55:07  459 460	 1492541707	 790364189	 162255.
18:55:07  460 461	 1492541707	 952507707	 162143.
18:55:08  461 462	 1492541708	 89411754	 136904.
18:55:08  462 463	 1492541708	 251018079	 161607.
18:55:08  463 464	 1492541708	 417159954	 166142.
18:55:08  464 465	 1492541708	 578789235	 161629.
18:55:08  465 466	 1492541708	 744527470	 165738.
18:55:08  466 467	 1492541708	 877504565	 132977.
18:55:09  467 468	 1492541709	 38700353	 161196.
18:55:09  468 469	 1492541709	 204157232	 165457.
18:55:09  469 470	 1492541709	 365465868	 161309.
18:55:09  470 471	 1492541709	 530897080	 165431.
18:55:09  471 472	 1492541709	 692324557	 161427.
18:55:09  472 473	 1492541709	 825215054	 132891.
18:55:09  473 474	 1492541709	 990766596	 165551.
18:55:10  474 475	 1492541710	 152526136	 161760.
18:55:10  475 476	 1492541710	 314214131	 161688.
18:55:10  476 477	 1492541710	 475769665	 161555.
18:55:10  477 478	 1492541710	 641459627	 165690.
18:55:10  478 479	 1492541710	 803048287	 161589.
18:55:10  479 480	 1492541710	 968738812	 165691.
18:55:11  480 481	 1492541711	 102130063	 133391.
18:55:11  481 482	 1492541711	 263760682	 161630.
18:55:11  482 483	 1492541711	 429507137	 165747.
18:55:11  483 484	 1492541711	 591174814	 161668.
18:55:11  484 485	 1492541711	 752742850	 161568.
18:55:11  485 486	 1492541711	 918630547	 165887.
18:55:12  486 487	 1492541712	 51432572	 132802.
18:55:12  487 488	 1492541712	 217314049	 165882.
18:55:12  488 489	 1492541712	 379036479	 161722.
18:55:12  489 490	 1492541712	 540677867	 161642.
18:55:12  490 491	 1492541712	 706519511	 165841.
18:55:12  491 492	 1492541712	 839273576	 132754.
18:55:12  492 493	 1492541713	 333875	 161061.
18:55:13  493 494	 1492541713	 165577099	 165243.
18:55:13  494 495	 1492541713	 323771536	 158194.
18:55:13  495 496	 1492541713	 485327187	 161556.
18:55:13  496 497	 1492541713	 617992487	 132665.
18:55:13  497 498	 1492541713	 783332864	 165341.
18:55:13  498 499	 1492541713	 944551692	 161218.
18:55:14  499 500	 1492541714	 106138011	 161587.
18:55:14  500 501	 1492541714	 271809956	 165672.
18:55:14  501 502	 1492541714	 405026182	 133216.
18:55:14  502 503	 1492541714	 570659320	 165633.
18:55:14  503 504	 1492541714	 732925320	 162266.
18:55:14  504 505	 1492541714	 894403752	 161478.
18:55:15  505 506	 1492541715	 59661176	 165258.
18:55:15  506 507	 1492541715	 192751129	 133090.
18:55:15  507 508	 1492541715	 354551397	 161800.
18:55:15  508 509	 1492541715	 520545577	 165994.
18:55:15  509 510	 1492541715	 682310124	 161765.
18:55:15  510 511	 1492541715	 848260355	 165950.
18:55:15  511 512	 1492541715	 981364110	 133104.
18:55:16  512 513	 1492541716	 142780229	 161416.
18:55:16  513 514	 1492541716	 308322257	 165542.
18:55:16  514 515	 1492541716	 469955744	 161633.
18:55:16  515 516	 1492541716	 607010255	 137055.
18:55:16  516 517	 1492541716	 768738424	 161728.
18:55:16  517 518	 1492541716	 930741845	 162004.
18:55:17  518 519	 1492541717	 96401308	 165659.
18:55:17  519 520	 1492541717	 258336770	 161935.
18:55:17  520 521	 1492541717	 391539667	 133203.
18:55:17  521 522	 1492541717	 557717953	 166179.
18:55:17  522 523	 1492541717	 719783044	 162065.
18:55:17  523 524	 1492541717	 885996212	 166213.
18:55:18  524 525	 1492541718	 48060754	 162064.
18:55:18  525 526	 1492541718	 209923728	 161863.
18:55:18  526 527	 1492541718	 375562964	 165640.
18:55:18  527 528	 1492541718	 508654790	 133091.
18:55:18  528 529	 1492541718	 674471216	 165817.
18:55:18  529 530	 1492541718	 836744598	 162273.
18:55:18  530 531	 1492541718	 998635732	 161891.
18:55:19  531 532	 1492541719	 164155362	 165520.
18:55:19  532 533	 1492541719	 296781503	 132626.
18:55:19  533 534	 1492541719	 462379375	 165598.
18:55:19  534 535	 1492541719	 624146222	 161767.
18:55:19  535 536	 1492541719	 757223472	 133077.
18:55:19  536 537	 1492541719	 922945726	 165722.
18:55:20  537 538	 1492541720	 84354320	 161409.
18:55:20  538 539	 1492541720	 250146038	 165792.
18:55:20  539 540	 1492541720	 412157737	 162011.
18:55:20  540 541	 1492541720	 549219765	 137062.
18:55:20  541 542	 1492541720	 710984340	 161765.
18:55:20  542 543	 1492541720	 876278755	 165294.
18:55:21  543 544	 1492541721	 37937975	 161660.
18:55:21  544 545	 1492541721	 171066279	 133128.
18:55:21  545 546	 1492541721	 336646423	 165580.
18:55:21  546 547	 1492541721	 498640899	 161995.
18:55:21  547 548	 1492541721	 664305729	 165664.
18:55:21  548 549	 1492541721	 797592525	 133287.
18:55:21  549 550	 1492541721	 963302674	 165710.
18:55:22  550 551	 1492541722	 125840015	 162538.
18:55:22  551 552	 1492541722	 291693726	 165853.
18:55:22  552 553	 1492541722	 453501392	 161808.
18:55:22  553 554	 1492541722	 590125493	 136624.
18:55:22  554 555	 1492541722	 751832323	 161707.
18:55:22  555 556	 1492541722	 917270575	 165438.
18:55:23  556 557	 1492541723	 50140809	 132871.
18:55:23  557 558	 1492541723	 216037423	 165896.
18:55:23  558 559	 1492541723	 377596723	 161559.
18:55:23  559 560	 1492541723	 543386985	 165791.
18:55:23  560 561	 1492541723	 705183411	 161796.
18:55:23  561 562	 1492541723	 838228426	 133045.
18:55:23  562 563	 1492541724	 3721238	 165493.
18:55:24  563 564	 1492541724	 164868478	 161147.
18:55:24  564 565	 1492541724	 302100440	 137232.
18:55:24  565 566	 1492541724	 463934727	 161834.
18:55:24  566 567	 1492541724	 629564759	 165630.
18:55:24  567 568	 1492541724	 791691510	 162127.
18:55:24  568 569	 1492541724	 928495583	 136804.
18:55:25  569 570	 1492541725	 90691044	 162196.
18:55:25  570 571	 1492541725	 256723391	 166032.
18:55:25  571 572	 1492541725	 418475690	 161752.
18:55:25  572 573	 1492541725	 584430959	 165956.
18:55:25  573 574	 1492541725	 717309372	 132878.
18:55:25  574 575	 1492541725	 879278183	 161969.
18:55:26  575 576	 1492541726	 45059464	 165781.
18:55:26  576 577	 1492541726	 206787061	 161728.
18:55:26  577 578	 1492541726	 372564540	 165777.
18:55:26  578 579	 1492541726	 505272786	 132708.
18:55:26  579 580	 1492541726	 671173088	 165901.
18:55:26  580 581	 1492541726	 833042561	 161869.
18:55:26  581 582	 1492541726	 998859769	 165817.
18:55:27  582 583	 1492541727	 131704532	 132845.
18:55:27  583 584	 1492541727	 293562283	 161858.
18:55:27  584 585	 1492541727	 458744749	 165182.
18:55:27  585 586	 1492541727	 591603298	 132859.
18:55:27  586 587	 1492541727	 757394216	 165791.
18:55:27  587 588	 1492541727	 918762941	 161369.
18:55:28  588 589	 1492541728	 55417798	 136655.
18:55:28  589 590	 1492541728	 216774643	 161356.
18:55:28  590 591	 1492541728	 378143374	 161369.
18:55:28  591 592	 1492541728	 544160583	 166017.
18:55:28  592 593	 1492541728	 677145728	 132985.
18:55:28  593 594	 1492541728	 842768808	 165624.
18:55:29  594 595	 1492541729	 4731212	 161962.
18:55:29  595 596	 1492541729	 170326108	 165595.
18:55:29  596 597	 1492541729	 303265375	 132939.
18:55:29  597 598	 1492541729	 464969946	 161705.
18:55:29  598 599	 1492541729	 630741457	 165771.
18:55:29  599 600	 1492541729	 792312018	 161571.
18:55:29  600 601	 1492541729	 929695532	 137383.
18:55:30  601 602	 1492541730	 87434474	 157739.
18:55:30  602 603	 1492541730	 248688231	 161254.
18:55:30  603 604	 1492541730	 413990623	 165302.
18:55:30  604 605	 1492541730	 575126616	 161136.
18:55:30  605 606	 1492541730	 707641056	 132515.
18:55:30  606 607	 1492541730	 872777202	 165136.
18:55:31  607 608	 1492541731	 33754343	 160977.
18:55:31  608 609	 1492541731	 195096078	 161342.
18:55:31  609 610	 1492541731	 331590205	 136494.
18:55:31  610 611	 1492541731	 493166262	 161576.
18:55:31  611 612	 1492541731	 654555513	 161389.
18:55:31  612 613	 1492541731	 819743239	 165188.
18:55:31  613 614	 1492541731	 952491769	 132748.
18:55:32  614 615	 1492541732	 113377576	 160886.
18:55:32  615 616	 1492541732	 278463547	 165086.
18:55:32  616 617	 1492541732	 439832503	 161369.
18:55:32  617 618	 1492541732	 605428432	 165596.
18:55:32  618 619	 1492541732	 738479342	 133051.
18:55:32  619 620	 1492541732	 899771022	 161292.
18:55:33  620 621	 1492541733	 65332465	 165561.
18:55:33  621 622	 1492541733	 198203180	 132871.
18:55:33  622 623	 1492541733	 363937997	 165735.
18:55:33  623 624	 1492541733	 525911727	 161973.
18:55:33  624 625	 1492541733	 691473139	 165562.
18:55:33  625 626	 1492541733	 824664924	 133192.
18:55:33  626 627	 1492541733	 990043055	 165378.
18:55:34  627 628	 1492541734	 151547437	 161504.
18:55:34  628 629	 1492541734	 317549308	 166002.
18:55:34  629 630	 1492541734	 450275313	 132726.
18:55:34  630 631	 1492541734	 615931610	 165656.
18:55:34  631 632	 1492541734	 777175129	 161244.
18:55:34  632 633	 1492541734	 914050484	 136875.
18:55:35  633 634	 1492541735	 75388687	 161338.
18:55:35  634 635	 1492541735	 237195354	 161807.
18:55:35  635 636	 1492541735	 374039035	 136844.
18:55:35  636 637	 1492541735	 535557271	 161518.
18:55:35  637 638	 1492541735	 700868099	 165311.
18:55:35  638 639	 1492541735	 833844615	 132976.
18:55:35  639 640	 1492541735	 999598407	 165754.
18:55:36  640 641	 1492541736	 160890114	 161292.
18:55:36  641 642	 1492541736	 326327294	 165437.
18:55:36  642 643	 1492541736	 459159002	 132832.
18:55:36  643 644	 1492541736	 624688143	 165529.
18:55:36  644 645	 1492541736	 785766241	 161078.
18:55:36  645 646	 1492541736	 922146136	 136380.
18:55:37  646 647	 1492541737	 83546076	 161400.
18:55:37  647 648	 1492541737	 245042750	 161497.
18:55:37  648 649	 1492541737	 381770346	 136727.
18:55:37  649 650	 1492541737	 543276177	 161506.
18:55:37  650 651	 1492541737	 708955642	 165679.
18:55:37  651 652	 1492541737	 841815911	 132861.
18:55:38  652 653	 1492541738	 7180890	 165365.
18:55:38  653 654	 1492541738	 168314657	 161133.
18:55:38  654 655	 1492541738	 305232000	 136918.
18:55:38  655 656	 1492541738	 466686929	 161455.
18:55:38  656 657	 1492541738	 632096721	 165409.
18:55:38  657 658	 1492541738	 793603402	 161507.
18:55:38  658 659	 1492541738	 930182537	 136579.
18:55:39  659 660	 1492541739	 91752365	 161570.
18:55:39  660 661	 1492541739	 253565881	 161814.
18:55:39  661 662	 1492541739	 390101895	 136536.
18:55:39  662 663	 1492541739	 551697287	 161595.
18:55:39  663 664	 1492541739	 717528484	 165831.
18:55:39  664 665	 1492541739	 850135619	 132607.
18:55:40  665 666	 1492541740	 16066370	 165931.
18:55:40  666 667	 1492541740	 177883511	 161817.
18:55:40  667 668	 1492541740	 344510828	 166628.
18:55:40  668 669	 1492541740	 506458958	 161948.
18:55:40  669 670	 1492541740	 672120414	 165661.
18:55:40  670 671	 1492541740	 805139442	 133019.
18:55:40  671 672	 1492541740	 971855822	 166717.
18:55:41  672 673	 1492541741	 129838515	 157982.
18:55:41  673 674	 1492541741	 295448805	 165611.
18:55:41  674 675	 1492541741	 457471489	 162022.
18:55:41  675 676	 1492541741	 594076822	 136606.
18:55:41  676 677	 1492541741	 755972231	 161895.
18:55:41  677 678	 1492541741	 920867524	 164895.
18:55:42  678 679	 1492541742	 53593328	 132726.
18:55:42  679 680	 1492541742	 219133783	 165540.
18:55:42  680 681	 1492541742	 380671436	 161538.
18:55:42  681 682	 1492541742	 517436936	 136766.
18:55:42  682 683	 1492541742	 678573921	 161137.
18:55:42  683 684	 1492541742	 844546175	 165972.
18:55:42  684 685	 1492541742	 977298248	 132752.
18:55:43  685 686	 1492541743	 138678268	 161380.
18:55:43  686 687	 1492541743	 304082237	 165404.
18:55:43  687 688	 1492541743	 469793740	 165711.
18:55:43  688 689	 1492541743	 602280426	 132487.
18:55:43  689 690	 1492541743	 763926044	 161646.
18:55:43  690 691	 1492541743	 929439591	 165513.
18:55:44  691 692	 1492541744	 62691694	 133252.
18:55:44  692 693	 1492541744	 220623474	 157932.
18:55:44  693 694	 1492541744	 386453628	 165830.
18:55:44  694 695	 1492541744	 518776242	 132323.
18:55:44  695 696	 1492541744	 680511615	 161735.
18:55:44  696 697	 1492541744	 845694405	 165183.
18:55:45  697 698	 1492541745	 10935441	 165241.
18:55:45  698 699	 1492541745	 143983910	 133049.
18:55:45  699 700	 1492541745	 305550010	 161566.
18:55:45  700 701	 1492541745	 471286418	 165736.
18:55:45  701 702	 1492541745	 632914605	 161628.
18:55:45  702 703	 1492541745	 769792006	 136878.
18:55:45  703 704	 1492541745	 930997835	 161206.
18:55:46  704 705	 1492541746	 96806635	 165808.
18:55:46  705 706	 1492541746	 258782697	 161976.
18:55:46  706 707	 1492541746	 391790207	 133008.
18:55:46  707 708	 1492541746	 557757124	 165967.
18:55:46  708 709	 1492541746	 719784085	 162027.
18:55:46  709 710	 1492541746	 881312795	 161529.
18:55:47  710 711	 1492541747	 46880865	 165568.
18:55:47  711 712	 1492541747	 180233083	 133352.
18:55:47  712 713	 1492541747	 345964893	 165732.
18:55:47  713 714	 1492541747	 508235458	 162270.
18:55:47  714 715	 1492541747	 674575965	 166341.
18:55:47  715 716	 1492541747	 836505464	 161929.
18:55:47  716 717	 1492541747	 998266777	 161761.
18:55:48  717 718	 1492541748	 135613038	 137347.
18:55:48  718 719	 1492541748	 297500682	 161887.
18:55:48  719 720	 1492541748	 463487356	 165987.
18:55:48  720 721	 1492541748	 625386156	 161899.
18:55:48  721 722	 1492541748	 791634315	 166248.
18:55:48  722 723	 1492541748	 954123476	 162489.
18:55:49  723 724	 1492541749	 87420103	 133297.
18:55:49  724 725	 1492541749	 252896174	 165476.
18:55:49  725 726	 1492541749	 414112729	 161216.
18:55:49  726 727	 1492541749	 579771740	 165659.
18:55:49  727 728	 1492541749	 712284179	 132513.
18:55:49  728 729	 1492541749	 878208987	 165925.
18:55:50  729 730	 1492541750	 39821492	 161612.
18:55:50  730 731	 1492541750	 172840294	 133019.
18:55:50  731 732	 1492541750	 338514400	 165674.
18:55:50  732 733	 1492541750	 500182280	 161668.
18:55:50  733 734	 1492541750	 666118307	 165936.
18:55:50  734 735	 1492541750	 824386868	 158269.
18:55:50  735 736	 1492541750	 990143526	 165756.
18:55:51  736 737	 1492541751	 123010411	 132867.
18:55:51  737 738	 1492541751	 288534166	 165524.
18:55:51  738 739	 1492541751	 450615397	 162081.
18:55:51  739 740	 1492541751	 583339982	 132725.
18:55:51  740 741	 1492541751	 748333794	 164993.
18:55:51  741 742	 1492541751	 906785018	 158452.
18:55:52  742 743	 1492541752	 72743816	 165959.
18:55:52  743 744	 1492541752	 205650560	 132906.
18:55:52  744 745	 1492541752	 371346671	 165696.
18:55:52  745 746	 1492541752	 533602599	 162256.
18:55:52  746 747	 1492541752	 732279360	 198677.
18:55:52  747 748	 1492541752	 894022329	 161743.
18:55:53  748 749	 1492541753	 26856582	 132834.
18:55:53  749 750	 1492541753	 192659059	 165803.
18:55:53  750 751	 1492541753	 384318296	 191671.
18:55:53  751 752	 1492541753	 551956189	 167626.
18:55:53  752 753	 1492541753	 713404806	 161449.
18:55:53  753 754	 1492541753	 846289668	 132884.
18:55:54  754 755	 1492541754	 12261079	 165972.
18:55:54  755 756	 1492541754	 173488385	 161227.
18:55:54  756 757	 1492541754	 310488659	 137000.
18:55:54  757 758	 1492541754	 472032145	 161544.
18:55:54  758 759	 1492541754	 640083838	 168051.
18:55:54  759 760	 1492541754	 802048550	 161965.
18:55:54  760 761	 1492541754	 967576561	 165528.
18:55:55  761 762	 1492541755	 129687646	 162111.
18:55:55  762 763	 1492541755	 295726338	 166039.
18:55:55  763 764	 1492541755	 457809628	 162083.
18:55:55  764 765	 1492541755	 594993037	 137184.
18:55:55  765 766	 1492541755	 756856892	 161864.
18:55:55  766 767	 1492541755	 922259416	 165402.
18:55:56  767 768	 1492541756	 84316257	 162057.
18:55:56  768 769	 1492541756	 221183711	 136868.
18:55:56  769 770	 1492541756	 382685524	 161501.
18:55:56  770 771	 1492541756	 548316996	 165632.
18:55:56  771 772	 1492541756	 680945851	 132629.
18:55:56  772 773	 1492541756	 847560669	 166614.
18:55:57  773 774	 1492541757	 5001807	 157442.
18:55:57  774 775	 1492541757	 166779633	 161777.
18:55:57  775 776	 1492541757	 328562841	 161784.
18:55:57  776 777	 1492541757	 461527976	 132965.
18:55:57  777 778	 1492541757	 627499321	 165971.
18:55:57  778 779	 1492541757	 788925824	 161427.
18:55:57  779 780	 1492541757	 954512345	 165586.
18:55:58  780 781	 1492541758	 87481793	 132970.
18:55:58  781 782	 1492541758	 253402988	 165921.
18:55:58  782 783	 1492541758	 414859941	 161457.
18:55:58  783 784	 1492541758	 547487541	 132627.
18:55:58  784 785	 1492541758	 713187357	 165700.
18:55:58  785 786	 1492541758	 874801568	 161614.
18:55:59  786 787	 1492541759	 11359799	 136559.
18:55:59  787 788	 1492541759	 172895970	 161536.
18:55:59  788 789	 1492541759	 334003199	 161107.
18:55:59  789 790	 1492541759	 499444587	 165441.
18:55:59  790 791	 1492541759	 632730110	 133286.
18:55:59  791 792	 1492541759	 798645644	 165915.
18:55:59  792 793	 1492541759	 960677354	 162032.
18:56:00  793 794	 1492541760	 126761741	 166084.
18:56:00  794 795	 1492541760	 288801365	 162040.
18:56:00  795 796	 1492541760	 450634700	 161833.
18:56:00  796 797	 1492541760	 618130885	 167497.
18:56:00  797 798	 1492541760	 779883899	 161753.
18:56:00  798 799	 1492541760	 916926761	 137042.
18:56:01  799 800	 1492541761	 78027583	 161101.
18:56:01  800 801	 1492541761	 243938383	 165911.
18:56:01  801 802	 1492541761	 405638453	 161700.
18:56:01  802 803	 1492541761	 567265584	 161627.
18:56:01  803 804	 1492541761	 728784075	 161519.
18:56:01  804 805	 1492541761	 894563657	 165779.
18:56:02  805 806	 1492541762	 56229207	 161666.
18:56:02  806 807	 1492541762	 189100054	 132871.
18:56:02  807 808	 1492541762	 354441208	 165341.
18:56:02  808 809	 1492541762	 515708139	 161267.
18:56:02  809 810	 1492541762	 681278348	 165570.
18:56:02  810 811	 1492541762	 842734709	 161456.
18:56:02  811 812	 1492541762	 975453164	 132719.
18:56:03  812 813	 1492541763	 141023179	 165570.
18:56:03  813 814	 1492541763	 302688888	 161666.
18:56:03  814 815	 1492541763	 464267189	 161578.
18:56:03  815 816	 1492541763	 629885027	 165618.
18:56:03  816 817	 1492541763	 791408317	 161523.
18:56:03  817 818	 1492541763	 924403468	 132995.
18:56:04  818 819	 1492541764	 90219709	 165816.
18:56:04  819 820	 1492541764	 251406405	 161187.
18:56:04  820 821	 1492541764	 412628440	 161222.
18:56:04  821 822	 1492541764	 577889697	 165262.
18:56:04  822 823	 1492541764	 710533534	 132643.
18:56:04  823 824	 1492541764	 871654198	 161121.
18:56:05  824 825	 1492541765	 36654986	 165001.
18:56:05  825 826	 1492541765	 197985562	 161330.
18:56:05  826 827	 1492541765	 330945324	 132960.
18:56:05  827 828	 1492541765	 496102264	 165157.
18:56:05  828 829	 1492541765	 657536167	 161434.
18:56:05  829 830	 1492541765	 818907558	 161371.
18:56:05  830 831	 1492541765	 984702202	 165795.
18:56:06  831 832	 1492541766	 117704068	 133002.
18:56:06  832 833	 1492541766	 279265349	 161561.
18:56:06  833 834	 1492541766	 444813450	 165548.
18:56:06  834 835	 1492541766	 606467046	 161654.
18:56:06  835 836	 1492541766	 768147636	 161680.
18:56:06  836 837	 1492541766	 933713692	 165566.
18:56:07  837 838	 1492541767	 95247379	 161534.
18:56:07  838 839	 1492541767	 256968490	 161721.
18:56:07  839 840	 1492541767	 422755520	 165787.
18:56:07  840 841	 1492541767	 555756010	 133001.
18:56:07  841 842	 1492541767	 717395858	 161640.
18:56:07  842 843	 1492541767	 879791547	 162395.
18:56:08  843 844	 1492541768	 41538891	 161748.
18:56:08  844 845	 1492541768	 203229439	 161690.
18:56:08  845 846	 1492541768	 364847494	 161618.
18:56:08  846 847	 1492541768	 530602878	 165756.
18:56:08  847 848	 1492541768	 692170195	 161567.
18:56:08  848 849	 1492541768	 853821222	 161651.
18:56:09  849 850	 1492541769	 19410954	 165590.
18:56:09  850 851	 1492541769	 152165724	 132754.
18:56:09  851 852	 1492541769	 313682481	 161517.
18:56:09  852 853	 1492541769	 479164215	 165482.
18:56:09  853 854	 1492541769	 640397927	 161234.
18:56:09  854 855	 1492541769	 801511545	 161113.
18:56:09  855 856	 1492541769	 938045627	 136534.
18:56:10  856 857	 1492541770	 99521202	 161476.
18:56:10  857 858	 1492541770	 265565795	 166044.
18:56:10  858 859	 1492541770	 427424354	 161859.
18:56:10  859 860	 1492541770	 560742952	 133319.
18:56:10  860 861	 1492541770	 726913163	 166170.
18:56:10  861 862	 1492541770	 888290970	 161378.
18:56:11  862 863	 1492541771	 54486236	 166195.
18:56:11  863 864	 1492541771	 216810504	 162324.
18:56:11  864 865	 1492541771	 383137001	 166327.
18:56:11  865 866	 1492541771	 545473658	 162336.
18:56:11  866 867	 1492541771	 711684820	 166212.
18:56:11  867 868	 1492541771	 844976681	 133291.
18:56:12  868 869	 1492541772	 7339859	 162364.
18:56:12  869 870	 1492541772	 173603027	 166263.
18:56:12  870 871	 1492541772	 335418439	 161815.
18:56:12  871 872	 1492541772	 500811839	 165394.
18:56:12  872 873	 1492541772	 662472487	 161660.
18:56:12  873 874	 1492541772	 823750235	 161278.
18:56:12  874 875	 1492541772	 956786889	 133037.
18:56:13  875 876	 1492541773	 122194839	 165408.
18:56:13  876 877	 1492541773	 283923494	 161728.
18:56:13  877 878	 1492541773	 449490948	 165568.
18:56:13  878 879	 1492541773	 610998542	 161507.
18:56:13  879 880	 1492541773	 772583490	 161585.
18:56:13  880 881	 1492541773	 909545338	 136962.
18:56:14  881 882	 1492541774	 70946546	 161401.
18:56:14  882 883	 1492541774	 232455817	 161510.
18:56:14  883 884	 1492541774	 394060593	 161604.
18:56:14  884 885	 1492541774	 559448985	 165389.
18:56:14  885 886	 1492541774	 691946963	 132498.
18:56:14  886 887	 1492541774	 857406242	 165459.
18:56:15  887 888	 1492541775	 19025647	 161619.
18:56:15  888 889	 1492541775	 180415632	 161390.
18:56:15  889 890	 1492541775	 345708518	 165293.
18:56:15  890 891	 1492541775	 507017186	 161309.
18:56:15  891 892	 1492541775	 639545694	 132528.
18:56:15  892 893	 1492541775	 800822595	 161277.
18:56:15  893 894	 1492541775	 966282702	 165460.
18:56:16  894 895	 1492541776	 127565068	 161283.
18:56:16  895 896	 1492541776	 264502347	 136937.
18:56:16  896 897	 1492541776	 425972801	 161470.
18:56:16  897 898	 1492541776	 591653116	 165681.
18:56:16  898 899	 1492541776	 753091729	 161438.
18:56:16  899 900	 1492541776	 890129056	 137038.
18:56:17  900 901	 1492541777	 51077214	 160948.
18:56:17  901 902	 1492541777	 212138616	 161061.
18:56:17  902 903	 1492541777	 349006031	 136868.
18:56:17  903 904	 1492541777	 510919001	 161913.
18:56:17  904 905	 1492541777	 677107982	 166189.
18:56:17  905 906	 1492541777	 838712695	 161604.
18:56:18  906 907	 1492541778	 4636787	 165925.
18:56:18  907 908	 1492541778	 166347458	 161710.
18:56:18  908 909	 1492541778	 299662706	 133315.
18:56:18  909 910	 1492541778	 465424842	 165763.
18:56:18  910 911	 1492541778	 627138471	 161713.
18:56:18  911 912	 1492541778	 793080201	 165942.
18:56:18  912 913	 1492541778	 954401852	 161322.
18:56:19  913 914	 1492541779	 121097523	 166695.
18:56:19  914 915	 1492541779	 278851372	 157754.
18:56:19  915 916	 1492541779	 411438847	 132588.
18:56:19  916 917	 1492541779	 577302110	 165863.
18:56:19  917 918	 1492541779	 738541689	 161240.
18:56:19  918 919	 1492541779	 899934896	 161393.
18:56:20  919 920	 1492541780	 36942359	 137007.
18:56:20  920 921	 1492541780	 198200193	 161258.
18:56:20  921 922	 1492541780	 363549928	 165350.
18:56:20  922 923	 1492541780	 524985097	 161435.
18:56:20  923 924	 1492541780	 657659471	 132674.
18:56:20  924 925	 1492541780	 822933714	 165274.
18:56:20  925 926	 1492541780	 984230423	 161297.
18:56:21  926 927	 1492541781	 149942677	 165712.
18:56:21  927 928	 1492541781	 282863418	 132921.
18:56:21  928 929	 1492541781	 444575388	 161712.
18:56:21  929 930	 1492541781	 610453483	 165878.
18:56:21  930 931	 1492541781	 772292894	 161840.
18:56:21  931 932	 1492541781	 937803853	 165511.
18:56:22  932 933	 1492541782	 100001452	 162197.
18:56:22  933 934	 1492541782	 232455976	 132455.
18:56:22  934 935	 1492541782	 393633209	 161177.
18:56:22  935 936	 1492541782	 559112883	 165480.
18:56:22  936 937	 1492541782	 720704968	 161592.
18:56:22  937 938	 1492541782	 858004138	 137299.
18:56:23  938 939	 1492541783	 19115276	 161111.
18:56:23  939 940	 1492541783	 184350809	 165236.
18:56:23  940 941	 1492541783	 316831959	 132481.
18:56:23  941 942	 1492541783	 482678977	 165847.
18:56:23  942 943	 1492541783	 644580975	 161902.
18:56:23  943 944	 1492541783	 806288361	 161707.
18:56:23  944 945	 1492541783	 943108238	 136820.
18:56:24  945 946	 1492541784	 104268927	 161161.
18:56:24  946 947	 1492541784	 269838548	 165569.
18:56:24  947 948	 1492541784	 402840152	 133002.
18:56:24  948 949	 1492541784	 568504410	 165664.
18:56:24  949 950	 1492541784	 729839281	 161335.
18:56:24  950 951	 1492541784	 895362719	 165523.
18:56:25  951 952	 1492541785	 28001236	 132639.
18:56:25  952 953	 1492541785	 189601941	 161601.
18:56:25  953 954	 1492541785	 355480829	 165879.
18:56:25  954 955	 1492541785	 517412360	 161931.
18:56:25  955 956	 1492541785	 679512380	 162100.
18:56:25  956 957	 1492541785	 816571711	 137059.
18:56:25  957 958	 1492541785	 978165604	 161594.
18:56:26  958 959	 1492541786	 143864471	 165699.
18:56:26  959 960	 1492541786	 305814062	 161950.
18:56:26  960 961	 1492541786	 442743734	 136929.
18:56:26  961 962	 1492541786	 604479400	 161736.
18:56:26  962 963	 1492541786	 770188324	 165709.
18:56:26  963 964	 1492541786	 931322856	 161135.
18:56:27  964 965	 1492541787	 64128070	 132805.
18:56:27  965 966	 1492541787	 229700297	 165572.
18:56:27  966 967	 1492541787	 391149940	 161450.
18:56:27  967 968	 1492541787	 523917405	 132767.
18:56:27  968 969	 1492541787	 689455021	 165538.
18:56:27  969 970	 1492541787	 850930715	 161475.
18:56:28  970 971	 1492541788	 12499519	 161569.
18:56:28  971 972	 1492541788	 177983205	 165484.
18:56:28  972 973	 1492541788	 339895021	 161912.
18:56:28  973 974	 1492541788	 505618368	 165723.
18:56:28  974 975	 1492541788	 667357168	 161739.
18:56:28  975 976	 1492541788	 800384038	 133027.
18:56:28  976 977	 1492541788	 966412663	 166028.
18:56:29  977 978	 1492541789	 128205412	 161793.
18:56:29  978 979	 1492541789	 289987911	 161783.
18:56:29  979 980	 1492541789	 455628215	 165640.
18:56:29  980 981	 1492541789	 588527357	 132899.
18:56:29  981 982	 1492541789	 753947189	 165420.
18:56:29  982 983	 1492541789	 915550860	 161604.
18:56:30  983 984	 1492541790	 76818573	 161267.
18:56:30  984 985	 1492541790	 238406967	 161589.
18:56:30  985 986	 1492541790	 370908873	 132502.
18:56:30  986 987	 1492541790	 532217245	 161308.
18:56:30  987 988	 1492541790	 697336645	 165119.
18:56:30  988 989	 1492541790	 858710900	 161375.
18:56:30  989 990	 1492541790	 991258026	 132547.
18:56:31  990 991	 1492541791	 156386750	 165128.
18:56:31  991 992	 1492541791	 317760215	 161374.
18:56:31  992 993	 1492541791	 478794184	 161034.
18:56:31  993 994	 1492541791	 615453042	 136659.
18:56:31  994 995	 1492541791	 776553705	 161100.
18:56:31  995 996	 1492541791	 941848953	 165296.
18:56:32  996 997	 1492541792	 74513085	 132664.
18:56:32  997 998	 1492541792	 240067471	 165554.
18:56:32  998 999	 1492541792	 401510505	 161443.
18:56:32  999 1000	 1492541792	 567114841	 165605.
18:56:32 1000 1001	 1492541792	 700054800	 132940.
18:56:32 1001 1002	 1492541792	 865996735	 165941.
18:56:33 1002 1003	 1492541793	 28066966	 162071.
18:56:33 1003 1004	 1492541793	 194182218	 166115.
18:56:33 1004 1005	 1492541793	 356141370	 161959.
18:56:33 1005 1006	 1492541793	 522272776	 166131.
18:56:33 1006 1007	 1492541793	 655297440	 133025.
18:56:33 1007 1008	 1492541793	 817031928	 161735.
18:56:33 1008 1009	 1492541793	 978845924	 161814.
18:56:34 1009 1010	 1492541794	 144670666	 165824.
18:56:34 1010 1011	 1492541794	 305954115	 161284.
18:56:34 1011 1012	 1492541794	 442668355	 136714.
18:56:34 1012 1013	 1492541794	 603951636	 161283.
18:56:34 1013 1014	 1492541794	 769636131	 165685.
18:56:34 1014 1015	 1492541794	 930795876	 161160.
18:56:35 1015 1016	 1492541795	 63580846	 132785.
18:56:35 1016 1017	 1492541795	 229589567	 166008.
18:56:35 1017 1018	 1492541795	 391493905	 161905.
18:56:35 1018 1019	 1492541795	 553339477	 161845.
18:56:35 1019 1020	 1492541795	 719699504	 166360.
18:56:35 1020 1021	 1492541795	 848147266	 128448.
18:56:36 1021 1022	 1492541796	 13600840	 165454.
18:56:36 1022 1023	 1492541796	 174699310	 161098.
18:56:36 1023 1024	 1492541796	 311661424	 136962.
18:56:36 1024 1025	 1492541796	 472930621	 161269.
18:56:36 1025 1026	 1492541796	 638234804	 165305.
18:56:36 1026 1027	 1492541796	 770786256	 132551.
18:56:36 1027 1028	 1492541796	 932490075	 161704.
18:56:37 1028 1029	 1492541797	 97938312	 165448.
18:56:37 1029 1030	 1492541797	 230641988	 132704.
18:56:37 1030 1031	 1492541797	 395720644	 165078.
18:56:37 1031 1032	 1492541797	 557125258	 161405.
18:56:37 1032 1033	 1492541797	 693597188	 136472.
18:56:37 1033 1034	 1492541797	 854878911	 161282.
18:56:38 1034 1035	 1492541798	 15882675	 161003.
18:56:38 1035 1036	 1492541798	 152400572	 136518.
18:56:38 1036 1037	 1492541798	 313712058	 161312.
18:56:38 1037 1038	 1492541798	 479271024	 165559.
18:56:38 1038 1039	 1492541798	 612009261	 132738.
18:56:38 1039 1040	 1492541798	 773479149	 161470.
18:56:38 1040 1041	 1492541798	 939178805	 165700.
18:56:39 1041 1042	 1492541799	 71878775	 132699.
18:56:39 1042 1043	 1492541799	 237778363	 165900.
18:56:39 1043 1044	 1492541799	 399067240	 161289.
18:56:39 1044 1045	 1492541799	 564887657	 165820.
18:56:39 1045 1046	 1492541799	 697619713	 132732.
18:56:39 1046 1047	 1492541799	 862519532	 164900.
18:56:40 1047 1048	 1492541800	 23639194	 161120.
18:56:40 1048 1049	 1492541800	 184875520	 161236.
18:56:40 1049 1050	 1492541800	 317487970	 132613.
18:56:40 1050 1051	 1492541800	 483225669	 165737.
18:56:40 1051 1052	 1492541800	 645225780	 162000.
18:56:40 1052 1053	 1492541800	 811095418	 165870.
18:56:40 1053 1054	 1492541800	 943791498	 132696.
18:56:41 1054 1055	 1492541801	 109355291	 165564.
18:56:41 1055 1056	 1492541801	 271240438	 161885.
18:56:41 1056 1057	 1492541801	 437165963	 165926.
18:56:41 1057 1058	 1492541801	 598988391	 161822.
18:56:41 1058 1059	 1492541801	 735897794	 136909.
18:56:41 1059 1060	 1492541801	 897470489	 161573.
18:56:42 1060 1061	 1492541802	 63143232	 165673.
18:56:42 1061 1062	 1492541802	 195981069	 132838.
18:56:42 1062 1063	 1492541802	 357348689	 161367.
18:56:42 1063 1064	 1492541802	 522808478	 165460.
18:56:42 1064 1065	 1492541802	 684522060	 161714.
18:56:42 1065 1066	 1492541802	 820864053	 136342.
18:56:42 1066 1067	 1492541802	 982236200	 161372.
18:56:43 1067 1068	 1492541803	 118691062	 136455.
18:56:43 1068 1069	 1492541803	 279839224	 161148.
18:56:43 1069 1070	 1492541803	 445282688	 165443.
18:56:43 1070 1071	 1492541803	 606792890	 161511.
18:56:43 1071 1072	 1492541803	 743310024	 136529.
18:56:43 1072 1073	 1492541803	 904874065	 161552.
18:56:44 1073 1074	 1492541804	 70751929	 165878.
18:56:44 1074 1075	 1492541804	 204092545	 133340.
18:56:44 1075 1076	 1492541804	 365416249	 161324.
18:56:44 1076 1077	 1492541804	 531503429	 166087.
18:56:44 1077 1078	 1492541804	 692349298	 160846.
18:56:44 1078 1079	 1492541804	 829677254	 137328.
18:56:44 1079 1080	 1492541804	 991381597	 161704.
18:56:45 1080 1081	 1492541805	 157104882	 165724.
18:56:45 1081 1082	 1492541805	 318894515	 161789.
18:56:45 1082 1083	 1492541805	 456058393	 137164.
18:56:45 1083 1084	 1492541805	 617973023	 161915.
18:56:45 1084 1085	 1492541805	 784069197	 166096.
18:56:45 1085 1086	 1492541805	 945448699	 161379.
18:56:46 1086 1087	 1492541806	 111320670	 165872.
18:56:46 1087 1088	 1492541806	 244499500	 133179.
18:56:46 1088 1089	 1492541806	 410127274	 165628.
18:56:46 1089 1090	 1492541806	 571701004	 161574.
18:56:46 1090 1091	 1492541806	 737107229	 165406.
18:56:46 1091 1092	 1492541806	 874062553	 136955.
18:56:47 1092 1093	 1492541807	 39934510	 165872.
18:56:47 1093 1094	 1492541807	 201764764	 161830.
18:56:47 1094 1095	 1492541807	 367108001	 165344.
18:56:47 1095 1096	 1492541807	 499958177	 132850.
18:56:47 1096 1097	 1492541807	 661850554	 161892.
18:56:47 1097 1098	 1492541807	 827563843	 165714.
18:56:47 1098 1099	 1492541807	 989320666	 161756.
18:56:48 1099 1100	 1492541808	 126776719	 137456.
18:56:48 1100 1101	 1492541808	 288582664	 161806.
18:56:48 1101 1102	 1492541808	 450644247	 162062.
18:56:48 1102 1103	 1492541808	 616848363	 166204.
18:56:48 1103 1104	 1492541808	 782535224	 165687.
18:56:48 1104 1105	 1492541808	 944497160	 161962.
18:56:49 1105 1106	 1492541809	 81582853	 137086.
18:56:49 1106 1107	 1492541809	 243587482	 162004.
18:56:49 1107 1108	 1492541809	 409690377	 166103.
18:56:49 1108 1109	 1492541809	 571443670	 161753.
18:56:49 1109 1110	 1492541809	 736852253	 165409.
18:56:49 1110 1111	 1492541809	 869409920	 132558.
18:56:50 1111 1112	 1492541810	 31090585	 161680.
18:56:50 1112 1113	 1492541810	 196730894	 165641.
18:56:50 1113 1114	 1492541810	 358431684	 161700.
18:56:50 1114 1115	 1492541810	 491186615	 132755.
18:56:50 1115 1116	 1492541810	 656873531	 165687.
18:56:50 1116 1117	 1492541810	 817983918	 161111.
18:56:50 1117 1118	 1492541810	 983471314	 165487.
18:56:51 1118 1119	 1492541811	 144605384	 161134.
18:56:51 1119 1120	 1492541811	 277471222	 132866.
18:56:51 1120 1121	 1492541811	 438674642	 161203.
18:56:51 1121 1122	 1492541811	 604240754	 165566.
18:56:51 1122 1123	 1492541811	 765586782	 161347.
18:56:51 1123 1124	 1492541811	 898347048	 132760.
18:56:52 1124 1125	 1492541812	 64036729	 165689.
18:56:52 1125 1126	 1492541812	 225568316	 161532.
18:56:52 1126 1127	 1492541812	 391198320	 165630.
18:56:52 1127 1128	 1492541812	 552733500	 161535.
18:56:52 1128 1129	 1492541812	 685481187	 132748.
18:56:52 1129 1130	 1492541812	 850829845	 165349.
18:56:53 1130 1131	 1492541813	 12258925	 161429.
18:56:53 1131 1132	 1492541813	 178114710	 165855.
18:56:53 1132 1133	 1492541813	 310542055	 132428.
18:56:53 1133 1134	 1492541813	 476322936	 165781.
18:56:53 1134 1135	 1492541813	 637807290	 161484.
18:56:53 1135 1136	 1492541813	 774592050	 136785.
18:56:53 1136 1137	 1492541813	 935894477	 161302.
18:56:54 1137 1138	 1492541814	 97762285	 161868.
18:56:54 1138 1139	 1492541814	 263745247	 165983.
18:56:54 1139 1140	 1492541814	 396586609	 132841.
18:56:54 1140 1141	 1492541814	 562081395	 165495.
18:56:54 1141 1142	 1492541814	 723652078	 161571.
18:56:54 1142 1143	 1492541814	 860543302	 136891.
18:56:55 1143 1144	 1492541815	 21896892	 161354.
18:56:55 1144 1145	 1492541815	 187554750	 165657.
18:56:55 1145 1146	 1492541815	 349272705	 161718.
18:56:55 1146 1147	 1492541815	 486684575	 137412.
18:56:55 1147 1148	 1492541815	 648234053	 161550.
18:56:55 1148 1149	 1492541815	 813897764	 165663.
18:56:55 1149 1150	 1492541815	 975639778	 161742.
18:56:56 1150 1151	 1492541816	 112732857	 137094.
18:56:56 1151 1152	 1492541816	 274141842	 161409.
18:56:56 1152 1153	 1492541816	 439862826	 165721.
18:56:56 1153 1154	 1492541816	 572620921	 132758.
18:56:56 1154 1155	 1492541816	 738640450	 166019.
18:56:56 1155 1156	 1492541816	 900122396	 161482.
18:56:57 1156 1157	 1492541817	 61744862	 161623.
18:56:57 1157 1158	 1492541817	 227572184	 165827.
18:56:57 1158 1159	 1492541817	 389103186	 161531.
18:56:57 1159 1160	 1492541817	 550859683	 161756.
18:56:57 1160 1161	 1492541817	 712655354	 161796.
18:56:57 1161 1162	 1492541817	 879241121	 166586.
18:56:58 1162 1163	 1492541818	 36781738	 157540.
18:56:58 1163 1164	 1492541818	 198484756	 161703.
18:56:58 1164 1165	 1492541818	 331405320	 132921.
18:56:58 1165 1166	 1492541818	 496763385	 165358.
18:56:58 1166 1167	 1492541818	 658152339	 161389.
18:56:58 1167 1168	 1492541818	 824182005	 166030.
18:56:58 1168 1169	 1492541818	 985717834	 161536.
18:56:59 1169 1170	 1492541819	 118671168	 132953.
18:56:59 1170 1171	 1492541819	 284555511	 165884.
18:56:59 1171 1172	 1492541819	 445863997	 161309.
18:56:59 1172 1173	 1492541819	 611557889	 165694.
18:56:59 1173 1174	 1492541819	 772943863	 161386.
18:56:59 1174 1175	 1492541819	 909836147	 136892.
18:57:00 1175 1176	 1492541820	 71565107	 161729.
18:57:00 1176 1177	 1492541820	 237170591	 165605.
18:57:00 1177 1178	 1492541820	 369627461	 132457.
18:57:00 1178 1179	 1492541820	 531243293	 161616.
18:57:00 1179 1180	 1492541820	 696715943	 165473.
18:57:00 1180 1181	 1492541820	 857935449	 161219.
18:57:00 1181 1182	 1492541820	 995087611	 137152.
18:57:01 1182 1183	 1492541821	 156511609	 161424.
18:57:01 1183 1184	 1492541821	 318294109	 161783.
18:57:01 1184 1185	 1492541821	 483905758	 165611.
18:57:01 1185 1186	 1492541821	 645638863	 161734.
18:57:01 1186 1187	 1492541821	 778394511	 132755.
18:57:01 1187 1188	 1492541821	 944057092	 165663.
18:57:02 1188 1189	 1492541822	 105557426	 161500.
18:57:02 1189 1190	 1492541822	 270655145	 165098.
18:57:02 1190 1191	 1492541822	 431648181	 160993.
18:57:02 1191 1192	 1492541822	 564424671	 132776.
18:57:02 1192 1193	 1492541822	 729493018	 165069.
18:57:02 1193 1194	 1492541822	 890955153	 161462.
18:57:03 1194 1195	 1492541823	 52481810	 161527.
18:57:03 1195 1196	 1492541823	 189308366	 136826.
18:57:03 1196 1197	 1492541823	 350836252	 161528.
18:57:03 1197 1198	 1492541823	 512327412	 161491.
18:57:03 1198 1199	 1492541823	 678008227	 165681.
18:57:03 1199 1200	 1492541823	 839415793	 161407.
18:57:03 1200 1201	 1492541824	 993334	 161578.
18:57:04 1201 1202	 1492541824	 166704696	 165711.
18:57:04 1202 1203	 1492541824	 299895493	 133191.
18:57:04 1203 1204	 1492541824	 461600043	 161705.
18:57:04 1204 1205	 1492541824	 627258577	 165658.
18:57:04 1205 1206	 1492541824	 788913222	 161655.
18:57:04 1206 1207	 1492541824	 950418752	 161505.
18:57:05 1207 1208	 1492541825	 116095447	 165677.
18:57:05 1208 1209	 1492541825	 249302327	 133207.
18:57:05 1209 1210	 1492541825	 410938756	 161636.
18:57:05 1210 1211	 1492541825	 576587961	 165650.
18:57:05 1211 1212	 1492541825	 738060436	 161472.
18:57:05 1212 1213	 1492541825	 899502540	 161442.
18:57:06 1213 1214	 1492541826	 65295781	 165793.
18:57:06 1214 1215	 1492541826	 198116280	 132821.
18:57:06 1215 1216	 1492541826	 363904028	 165788.
18:57:06 1216 1217	 1492541826	 525523310	 161619.
18:57:06 1217 1218	 1492541826	 687550862	 162028.
18:57:06 1218 1219	 1492541826	 852706105	 165155.
18:57:06 1219 1220	 1492541826	 985799884	 133094.
18:57:07 1220 1221	 1492541827	 147261722	 161461.
18:57:07 1221 1222	 1492541827	 312956296	 165695.
18:57:07 1222 1223	 1492541827	 478972853	 166017.
18:57:07 1223 1224	 1492541827	 611995096	 133022.
18:57:07 1224 1225	 1492541827	 773255570	 161260.
18:57:07 1225 1226	 1492541827	 938685518	 165430.
18:57:08 1226 1227	 1492541828	 100485259	 161800.
18:57:08 1227 1228	 1492541828	 237295651	 136810.
18:57:08 1228 1229	 1492541828	 398651133	 161356.
18:57:08 1229 1230	 1492541828	 550170487	 151519.
18:57:08 1230 1231	 1492541828	 711413993	 161244.
18:57:08 1231 1232	 1492541828	 877407881	 165994.
18:57:09 1232 1233	 1492541829	 10398065	 132990.
18:57:09 1233 1234	 1492541829	 172249123	 161851.
18:57:09 1234 1235	 1492541829	 337798023	 165549.
18:57:09 1235 1236	 1492541829	 499239889	 161442.
18:57:09 1236 1237	 1492541829	 636180171	 136940.
18:57:09 1237 1238	 1492541829	 797587028	 161407.
18:57:09 1238 1239	 1492541829	 962551588	 164964.
18:57:10 1239 1240	 1492541830	 95260144	 132709.
18:57:10 1240 1241	 1492541830	 261088376	 165828.
18:57:10 1241 1242	 1492541830	 422817466	 161729.
18:57:10 1242 1243	 1492541830	 588618556	 165801.
18:57:10 1243 1244	 1492541830	 721410510	 132792.
18:57:10 1244 1245	 1492541830	 886802261	 165392.
18:57:11 1245 1246	 1492541831	 48777597	 161975.
18:57:11 1246 1247	 1492541831	 185770047	 136993.
18:57:11 1247 1248	 1492541831	 346992677	 161222.
18:57:11 1248 1249	 1492541831	 512842998	 165851.
18:57:11 1249 1250	 1492541831	 674447749	 161604.
18:57:11 1250 1251	 1492541831	 810917751	 136470.
18:57:11 1251 1252	 1492541831	 972445181	 161528.
18:57:12 1252 1253	 1492541832	 133398187	 160953.
18:57:12 1253 1254	 1492541832	 269751763	 136353.
18:57:12 1254 1255	 1492541832	 431296395	 161545.
18:57:12 1255 1256	 1492541832	 597114805	 165819.
18:57:12 1256 1257	 1492541832	 758301439	 161186.
18:57:12 1257 1258	 1492541832	 895193567	 136892.
18:57:13 1258 1259	 1492541833	 56700005	 161507.
18:57:13 1259 1260	 1492541833	 218499941	 161800.
18:57:13 1260 1261	 1492541833	 355404437	 136904.
18:57:13 1261 1262	 1492541833	 517307776	 161904.
18:57:13 1262 1263	 1492541833	 674703799	 157396.
18:57:13 1263 1264	 1492541833	 839877497	 165173.
18:57:14 1264 1265	 1492541834	 1171143	 161294.
18:57:14 1265 1266	 1492541834	 133775590	 132604.
18:57:14 1266 1267	 1492541834	 298861574	 165086.
18:57:14 1267 1268	 1492541834	 460112750	 161251.
18:57:14 1268 1269	 1492541834	 625779656	 165667.
18:57:14 1269 1270	 1492541834	 787028632	 161249.
18:57:14 1270 1271	 1492541834	 919792889	 132765.
18:57:15 1271 1272	 1492541835	 85313503	 165520.
18:57:15 1272 1273	 1492541835	 246877704	 161564.
18:57:15 1273 1274	 1492541835	 408223961	 161347.
18:57:15 1274 1275	 1492541835	 573402223	 165178.
18:57:15 1275 1276	 1492541835	 706168877	 132767.
18:57:15 1276 1277	 1492541835	 867423766	 161254.
18:57:16 1277 1278	 1492541836	 32976890	 165554.
18:57:16 1278 1279	 1492541836	 194470677	 161493.
18:57:16 1279 1280	 1492541836	 355876142	 161406.
18:57:16 1280 1281	 1492541836	 492756588	 136880.
18:57:16 1281 1282	 1492541836	 654237555	 161481.
18:57:16 1282 1283	 1492541836	 815444636	 161207.
18:57:16 1283 1284	 1492541836	 981375082	 165931.
18:57:17 1284 1285	 1492541837	 117905320	 136530.
18:57:17 1285 1286	 1492541837	 279140830	 161235.
18:57:17 1286 1287	 1492541837	 440631008	 161491.
18:57:17 1287 1288	 1492541837	 577293427	 136662.
18:57:17 1288 1289	 1492541837	 738504216	 161211.
18:57:17 1289 1290	 1492541837	 899714560	 161210.
18:57:18 1290 1291	 1492541838	 65038131	 165324.
18:57:18 1291 1292	 1492541838	 226435159	 161397.
18:57:18 1292 1293	 1492541838	 363428421	 136993.
18:57:18 1293 1294	 1492541838	 524803996	 161376.
18:57:18 1294 1295	 1492541838	 686003479	 161199.
18:57:18 1295 1296	 1492541838	 851319026	 165316.
18:57:18 1296 1297	 1492541838	 984508593	 133189.
18:57:19 1297 1298	 1492541839	 146748498	 162240.
18:57:19 1298 1299	 1492541839	 304809033	 158061.
18:57:19 1299 1300	 1492541839	 470223843	 165415.
18:57:19 1300 1301	 1492541839	 636125756	 165902.
18:57:19 1301 1302	 1492541839	 768807398	 132681.
18:57:19 1302 1303	 1492541839	 930071678	 161264.
18:57:20 1303 1304	 1492541840	 95614909	 165544.
18:57:20 1304 1305	 1492541840	 228366127	 132751.
18:57:20 1305 1306	 1492541840	 393891583	 165525.
18:57:20 1306 1307	 1492541840	 555706233	 161815.
18:57:20 1307 1308	 1492541840	 721586034	 165880.
18:57:20 1308 1309	 1492541840	 854094067	 132508.
18:57:21 1309 1310	 1492541841	 16027762	 161933.
18:57:21 1310 1311	 1492541841	 182028958	 166002.
18:57:21 1311 1312	 1492541841	 347614740	 165585.
18:57:21 1312 1313	 1492541841	 480211114	 132597.
18:57:21 1313 1314	 1492541841	 641631940	 161421.
18:57:21 1314 1315	 1492541841	 807301632	 165669.
18:57:21 1315 1316	 1492541841	 939933648	 132632.
18:57:22 1316 1317	 1492541842	 105819475	 165886.
18:57:22 1317 1318	 1492541842	 267597437	 161778.
18:57:22 1318 1319	 1492541842	 433332818	 165736.
18:57:22 1319 1320	 1492541842	 566379271	 133046.
18:57:22 1320 1321	 1492541842	 728051786	 161673.
18:57:22 1321 1322	 1492541842	 893460904	 165409.
18:57:23 1322 1323	 1492541843	 55183195	 161722.
18:57:23 1323 1324	 1492541843	 192426701	 137243.
18:57:23 1324 1325	 1492541843	 353839878	 161414.
18:57:23 1325 1326	 1492541843	 519493445	 165653.
18:57:23 1326 1327	 1492541843	 681336142	 161843.
18:57:23 1327 1328	 1492541843	 818267413	 136931.
18:57:23 1328 1329	 1492541843	 979669993	 161403.
18:57:24 1329 1330	 1492541844	 145313630	 165643.
18:57:24 1330 1331	 1492541844	 278642467	 133329.
18:57:24 1331 1332	 1492541844	 444092490	 165450.
18:57:24 1332 1333	 1492541844	 606090697	 161998.
18:57:24 1333 1334	 1492541844	 771991373	 165901.
18:57:24 1334 1335	 1492541844	 904824338	 132833.
18:57:25 1335 1336	 1492541845	 66548599	 161724.
18:57:25 1336 1337	 1492541845	 232383312	 165835.
18:57:25 1337 1338	 1492541845	 394052822	 161670.
18:57:25 1338 1339	 1492541845	 531331308	 137278.
18:57:25 1339 1340	 1492541845	 693322192	 161991.
18:57:25 1340 1341	 1492541845	 858768859	 165447.
18:57:26 1341 1342	 1492541846	 20338983	 161570.
18:57:26 1342 1343	 1492541846	 157451067	 137112.
18:57:26 1343 1344	 1492541846	 319221000	 161770.
18:57:26 1344 1345	 1492541846	 485028211	 165807.
18:57:26 1345 1346	 1492541846	 646912947	 161885.
18:57:26 1346 1347	 1492541846	 784079225	 137166.
18:57:26 1347 1348	 1492541846	 945931893	 161853.
18:57:27 1348 1349	 1492541847	 107284025	 161352.
18:57:27 1349 1350	 1492541847	 272701796	 165418.
18:57:27 1350 1351	 1492541847	 405307639	 132605.
18:57:27 1351 1352	 1492541847	 570840566	 165533.
18:57:27 1352 1353	 1492541847	 703439140	 132599.
18:57:27 1353 1354	 1492541847	 869249773	 165810.
18:57:28 1354 1355	 1492541848	 30915613	 161666.
18:57:28 1355 1356	 1492541848	 196960779	 166045.
18:57:28 1356 1357	 1492541848	 359328989	 162369.
18:57:28 1357 1358	 1492541848	 496632824	 137304.
18:57:28 1358 1359	 1492541848	 658715407	 162082.
18:57:28 1359 1360	 1492541848	 824792782	 166077.
18:57:28 1360 1361	 1492541848	 986947121	 162155.
18:57:29 1361 1362	 1492541849	 153251098	 166304.
18:57:29 1362 1363	 1492541849	 315194196	 161943.
18:57:29 1363 1364	 1492541849	 481199558	 166005.
18:57:29 1364 1365	 1492541849	 643283937	 162085.
18:57:29 1365 1366	 1492541849	 776362025	 133078.
18:57:29 1366 1367	 1492541849	 942345126	 165983.
18:57:30 1367 1368	 1492541850	 104511189	 162166.
18:57:30 1368 1369	 1492541850	 271139362	 166628.
18:57:30 1369 1370	 1492541850	 432809327	 161670.
18:57:30 1370 1371	 1492541850	 598594976	 165786.
18:57:30 1371 1372	 1492541850	 731031528	 132436.
18:57:30 1372 1373	 1492541850	 892192720	 161161.
18:57:31 1373 1374	 1492541851	 57813893	 165622.
18:57:31 1374 1375	 1492541851	 219362029	 161548.
18:57:31 1375 1376	 1492541851	 380348025	 160986.
18:57:31 1376 1377	 1492541851	 517198494	 136850.
18:57:31 1377 1378	 1492541851	 678767363	 161569.
18:57:31 1378 1379	 1492541851	 844033930	 165267.
18:57:32 1379 1380	 1492541852	 5422891	 161389.
18:57:32 1380 1381	 1492541852	 166760857	 161338.
18:57:32 1381 1382	 1492541852	 299413183	 132652.
18:57:32 1382 1383	 1492541852	 464708072	 165295.
18:57:32 1383 1384	 1492541852	 626199480	 161491.
18:57:32 1384 1385	 1492541852	 791352028	 165153.
18:57:32 1385 1386	 1492541852	 953201011	 161849.
18:57:33 1386 1387	 1492541853	 85973844	 132773.
18:57:33 1387 1388	 1492541853	 251446489	 165472.
18:57:33 1388 1389	 1492541853	 412751780	 161306.
18:57:33 1389 1390	 1492541853	 578480560	 165728.
18:57:33 1390 1391	 1492541853	 740386785	 161906.
18:57:33 1391 1392	 1492541853	 906028085	 165642.
18:57:34 1392 1393	 1492541854	 67897459	 161869.
18:57:34 1393 1394	 1492541854	 201176018	 133279.
18:57:34 1394 1395	 1492541854	 367258722	 166083.
18:57:34 1395 1396	 1492541854	 529035840	 161777.
18:57:34 1396 1397	 1492541854	 694529154	 165493.
18:57:34 1397 1398	 1492541854	 855776640	 161247.
18:57:34 1398 1399	 1492541854	 992563924	 136788.
18:57:35 1399 1400	 1492541855	 154384894	 161821.
18:57:35 1400 1401	 1492541855	 319671772	 165286.
18:57:35 1401 1402	 1492541855	 480968516	 161297.
18:57:35 1402 1403	 1492541855	 642414214	 161446.
18:57:35 1403 1404	 1492541855	 805046041	 162632.
18:57:35 1404 1405	 1492541855	 941945228	 136899.
18:57:36 1405 1406	 1492541856	 103425332	 161480.
18:57:36 1406 1407	 1492541856	 265028371	 161603.
18:57:36 1407 1408	 1492541856	 430378207	 165350.
18:57:36 1408 1409	 1492541856	 567190788	 136812.
18:57:36 1409 1410	 1492541856	 728895396	 161705.
18:57:36 1410 1411	 1492541856	 894439580	 165544.
18:57:37 1411 1412	 1492541857	 27000504	 132561.
18:57:37 1412 1413	 1492541857	 192912671	 165912.
18:57:37 1413 1414	 1492541857	 354344250	 161432.
18:57:37 1414 1415	 1492541857	 519864990	 165521.
18:57:37 1415 1416	 1492541857	 652884920	 133020.
18:57:37 1416 1417	 1492541857	 814460144	 161575.
18:57:37 1417 1418	 1492541857	 980123897	 165664.
18:57:38 1418 1419	 1492541858	 141574719	 161450.
18:57:38 1419 1420	 1492541858	 274608669	 133034.
18:57:38 1420 1421	 1492541858	 440004296	 165396.
18:57:38 1421 1422	 1492541858	 601466291	 161462.
18:57:38 1422 1423	 1492541858	 766849771	 165383.
18:57:38 1423 1424	 1492541858	 899772326	 132923.
18:57:39 1424 1425	 1492541859	 61039215	 161267.
18:57:39 1425 1426	 1492541859	 226900495	 165861.
18:57:39 1426 1427	 1492541859	 388255288	 161355.
18:57:39 1427 1428	 1492541859	 521182876	 132928.
18:57:39 1428 1429	 1492541859	 686872446	 165689.
18:57:39 1429 1430	 1492541859	 848341166	 161469.
18:57:40 1430 1431	 1492541860	 13994196	 165653.
18:57:40 1431 1432	 1492541860	 171845829	 157852.
18:57:40 1432 1433	 1492541860	 304889761	 133043.
18:57:40 1433 1434	 1492541860	 470845890	 165957.
18:57:40 1434 1435	 1492541860	 632533053	 161687.
18:57:40 1435 1436	 1492541860	 769377579	 136844.
18:57:40 1436 1437	 1492541860	 930936251	 161559.
18:57:41 1437 1438	 1492541861	 97023941	 166088.
18:57:41 1438 1439	 1492541861	 258900568	 161876.
18:57:41 1439 1440	 1492541861	 420459487	 161559.
18:57:41 1440 1441	 1492541861	 585902975	 165444.
18:57:41 1441 1442	 1492541861	 718891388	 132988.
18:57:41 1442 1443	 1492541861	 880162962	 161272.
18:57:42 1443 1444	 1492541862	 45787778	 165624.
18:57:42 1444 1445	 1492541862	 207278204	 161491.
18:57:42 1445 1446	 1492541862	 373101207	 165823.
18:57:42 1446 1447	 1492541862	 505935876	 132835.
18:57:42 1447 1448	 1492541862	 671349560	 165413.
18:57:42 1448 1449	 1492541862	 832806145	 161457.
18:57:42 1449 1450	 1492541862	 965463560	 132657.
18:57:43 1450 1451	 1492541863	 131840334	 166377.
18:57:43 1451 1452	 1492541863	 293432071	 161592.
18:57:43 1452 1453	 1492541863	 458879230	 165447.
18:57:43 1453 1454	 1492541863	 591429721	 132550.
18:57:43 1454 1455	 1492541863	 757039144	 165610.
18:57:43 1455 1456	 1492541863	 918030209	 160991.
18:57:44 1456 1457	 1492541864	 51125050	 133095.
18:57:44 1457 1458	 1492541864	 217172849	 166048.
18:57:44 1458 1459	 1492541864	 378751594	 161578.
18:57:44 1459 1460	 1492541864	 540151900	 161401.
18:57:44 1460 1461	 1492541864	 705812863	 165661.
18:57:44 1461 1462	 1492541864	 867292057	 161479.
18:57:45 1462 1463	 1492541865	 33011783	 165720.
18:57:45 1463 1464	 1492541865	 194487456	 161475.
18:57:45 1464 1465	 1492541865	 327637683	 133150.
18:57:45 1465 1466	 1492541865	 493570579	 165933.
18:57:45 1466 1467	 1492541865	 655390276	 161820.
18:57:45 1467 1468	 1492541865	 817095842	 161706.
18:57:45 1468 1469	 1492541865	 982912920	 165817.
18:57:46 1469 1470	 1492541866	 145103059	 162190.
18:57:46 1470 1471	 1492541866	 311492292	 166389.
18:57:46 1471 1472	 1492541866	 473504320	 162012.
18:57:46 1472 1473	 1492541866	 635212286	 161708.
18:57:46 1473 1474	 1492541866	 772307656	 137095.
18:57:46 1474 1475	 1492541866	 959068833	 186762.
18:57:47 1475 1476	 1492541867	 92338888	 133270.
18:57:47 1476 1477	 1492541867	 257725038	 165386.
18:57:47 1477 1478	 1492541867	 419156202	 161431.
18:57:47 1478 1479	 1492541867	 580635493	 161479.
18:57:47 1479 1480	 1492541867	 746348701	 165713.
18:57:47 1480 1481	 1492541867	 907989608	 161641.
18:57:48 1481 1482	 1492541868	 73714829	 165725.
18:57:48 1482 1483	 1492541868	 206822000	 133108.
18:57:48 1483 1484	 1492541868	 368490005	 161668.
18:57:48 1484 1485	 1492541868	 530205238	 161715.
18:57:48 1485 1486	 1492541868	 696010922	 165806.
18:57:48 1486 1487	 1492541868	 857989296	 161978.
18:57:49 1487 1488	 1492541869	 23450947	 165462.
18:57:49 1488 1489	 1492541869	 184881261	 161430.
18:57:49 1489 1490	 1492541869	 317715521	 132834.
18:57:49 1490 1491	 1492541869	 483244882	 165530.
18:57:49 1491 1492	 1492541869	 644648565	 161403.
18:57:49 1492 1493	 1492541869	 805941236	 161293.
18:57:49 1493 1494	 1492541869	 970980590	 165039.
18:57:50 1494 1495	 1492541870	 104166471	 133186.
18:57:50 1495 1496	 1492541870	 265132699	 160966.
18:57:50 1496 1497	 1492541870	 430465313	 165333.
18:57:50 1497 1498	 1492541870	 591888700	 161423.
18:57:50 1498 1499	 1492541870	 728512050	 136624.
18:57:50 1499 1500	 1492541870	 889684336	 161172.
18:57:51 1500 1501	 1492541871	 51366561	 161682.
18:57:51 1501 1502	 1492541871	 216516661	 165150.
18:57:51 1502 1503	 1492541871	 349130869	 132615.
18:57:51 1503 1504	 1492541871	 510307217	 161176.
18:57:51 1504 1505	 1492541871	 675940890	 165634.
18:57:51 1505 1506	 1492541871	 836522036	 160581.
18:57:51 1506 1507	 1492541871	 969096308	 132574.
18:57:52 1507 1508	 1492541872	 134152922	 165057.
18:57:52 1508 1509	 1492541872	 295327997	 161175.
18:57:52 1509 1510	 1492541872	 456681692	 161353.
18:57:52 1510 1511	 1492541872	 589394683	 132713.
18:57:52 1511 1512	 1492541872	 754697077	 165303.
18:57:52 1512 1513	 1492541872	 916124184	 161427.
18:57:53 1513 1514	 1492541873	 81139519	 165015.
18:57:53 1514 1515	 1492541873	 242822290	 161683.
18:57:53 1515 1516	 1492541873	 375977297	 133155.
18:57:53 1516 1517	 1492541873	 537199967	 161223.
18:57:53 1517 1518	 1492541873	 702817359	 165617.
18:57:53 1518 1519	 1492541873	 864146341	 161329.
18:57:54 1519 1520	 1492541874	 29455492	 165309.
18:57:54 1520 1521	 1492541874	 162660777	 133205.
18:57:54 1521 1522	 1492541874	 323915585	 161255.
18:57:54 1522 1523	 1492541874	 484788534	 160873.
18:57:54 1523 1524	 1492541874	 650619736	 165831.
18:57:54 1524 1525	 1492541874	 783252560	 132633.
18:57:54 1525 1526	 1492541874	 944876753	 161624.
18:57:55 1526 1527	 1492541875	 110181767	 165305.
18:57:55 1527 1528	 1492541875	 271236887	 161056.
18:57:55 1528 1529	 1492541875	 437042126	 165805.
18:57:55 1529 1530	 1492541875	 569519969	 132478.
18:57:55 1530 1531	 1492541875	 730775618	 161255.
18:57:55 1531 1532	 1492541875	 896939973	 166165.
18:57:56 1532 1533	 1492541876	 58117179	 161177.
18:57:56 1533 1534	 1492541876	 219832401	 161715.
18:57:56 1534 1535	 1492541876	 356610367	 136778.
18:57:56 1535 1536	 1492541876	 517844849	 161235.
18:57:56 1536 1537	 1492541876	 683395257	 165550.
18:57:56 1537 1538	 1492541876	 845011249	 161616.
18:57:56 1538 1539	 1492541876	 977617234	 132606.
18:57:57 1539 1540	 1492541877	 143400696	 165783.
18:57:57 1540 1541	 1492541877	 304259334	 160859.
18:57:57 1541 1542	 1492541877	 465285215	 161026.
18:57:57 1542 1543	 1492541877	 631224190	 165939.
18:57:57 1543 1544	 1492541877	 763859966	 132636.
18:57:57 1544 1545	 1492541877	 925026120	 161166.
18:57:58 1545 1546	 1492541878	 90892580	 165866.
18:57:58 1546 1547	 1492541878	 247974994	 157083.
18:57:58 1547 1548	 1492541878	 380728005	 132753.
18:57:58 1548 1549	 1492541878	 546030137	 165302.
18:57:58 1549 1550	 1492541878	 707245478	 161215.
18:57:58 1550 1551	 1492541878	 868891065	 161646.
18:57:58 1551 1552	 1492541879	 1636239	 132745.
18:57:59 1552 1553	 1492541879	 166777743	 165141.
18:57:59 1553 1554	 1492541879	 328387124	 161610.
18:57:59 1554 1555	 1492541879	 489340665	 160953.
18:57:59 1555 1556	 1492541879	 654673222	 165333.
18:57:59 1556 1557	 1492541879	 787338413	 132665.
18:57:59 1557 1558	 1492541879	 952291570	 164953.
18:58:00 1558 1559	 1492541880	 113766904	 161476.
18:58:00 1559 1560	 1492541880	 246340718	 132573.
18:58:00 1560 1561	 1492541880	 411909406	 165569.
18:58:00 1561 1562	 1492541880	 573021896	 161113.
18:58:00 1562 1563	 1492541880	 734247880	 161226.
18:58:00 1563 1564	 1492541880	 895242084	 160994.
18:58:01 1564 1565	 1492541881	 31901837	 136660.
18:58:01 1565 1566	 1492541881	 193270975	 161369.
18:58:01 1566 1567	 1492541881	 354729979	 161459.
18:58:01 1567 1568	 1492541881	 520193830	 165464.
18:58:01 1568 1569	 1492541881	 681814804	 161621.
18:58:01 1569 1570	 1492541881	 847503408	 165688.
18:58:01 1570 1571	 1492541881	 980634130	 133131.
18:58:02 1571 1572	 1492541882	 141972681	 161338.
18:58:02 1572 1573	 1492541882	 303159705	 161187.
18:58:02 1573 1574	 1492541882	 468218278	 165059.
18:58:02 1574 1575	 1492541882	 600869491	 132651.
18:58:02 1575 1576	 1492541882	 762064493	 161195.
18:58:02 1576 1577	 1492541882	 927435992	 165372.
18:58:03 1577 1578	 1492541883	 88892263	 161456.
18:58:03 1578 1579	 1492541883	 250561103	 161669.
18:58:03 1579 1580	 1492541883	 416370057	 165809.
18:58:03 1580 1581	 1492541883	 549029391	 132659.
18:58:03 1581 1582	 1492541883	 710478718	 161449.
18:58:03 1582 1583	 1492541883	 872000776	 161522.
18:58:04 1583 1584	 1492541884	 37817167	 165817.
18:58:04 1584 1585	 1492541884	 199304480	 161487.
18:58:04 1585 1586	 1492541884	 360636393	 161332.
18:58:04 1586 1587	 1492541884	 526378606	 165742.
18:58:04 1587 1588	 1492541884	 659499662	 133121.
18:58:04 1588 1589	 1492541884	 821352306	 161853.
18:58:04 1589 1590	 1492541884	 983121754	 161769.
18:58:05 1590 1591	 1492541885	 148988409	 165867.
18:58:05 1591 1592	 1492541885	 310738579	 161750.
18:58:05 1592 1593	 1492541885	 472375282	 161637.
18:58:05 1593 1594	 1492541885	 638297012	 165922.
18:58:05 1594 1595	 1492541885	 800030681	 161733.
18:58:05 1595 1596	 1492541885	 961768176	 161738.
18:58:06 1596 1597	 1492541886	 127642097	 165874.
18:58:06 1597 1598	 1492541886	 260567770	 132925.
18:58:06 1598 1599	 1492541886	 422213522	 161646.
18:58:06 1599 1600	 1492541886	 588031780	 165818.
18:58:06 1600 1601	 1492541886	 749815992	 161785.
18:58:06 1601 1602	 1492541886	 911066288	 161250.
18:58:07 1602 1603	 1492541887	 76751938	 165686.
18:58:07 1603 1604	 1492541887	 238579284	 161827.
18:58:07 1604 1605	 1492541887	 400285920	 161707.
18:58:07 1605 1606	 1492541887	 536956756	 136670.
18:58:07 1606 1607	 1492541887	 698480437	 161524.
18:58:07 1607 1608	 1492541887	 859780115	 161300.
18:58:08 1608 1609	 1492541888	 24830688	 165050.
18:58:08 1609 1610	 1492541888	 157337219	 132507.
18:58:08 1610 1611	 1492541888	 318970885	 161634.
18:58:08 1611 1612	 1492541888	 484275163	 165304.
18:58:08 1612 1613	 1492541888	 645594351	 161319.
18:58:08 1613 1614	 1492541888	 806723934	 161130.
18:58:08 1614 1615	 1492541888	 939484608	 132760.
18:58:09 1615 1616	 1492541889	 105523299	 166039.
18:58:09 1616 1617	 1492541889	 262851987	 157329.
18:58:09 1617 1618	 1492541889	 424270375	 161418.
18:58:09 1618 1619	 1492541889	 589452220	 165182.
18:58:09 1619 1620	 1492541889	 750845889	 161394.
18:58:09 1620 1621	 1492541889	 883432150	 132586.
18:58:10 1621 1622	 1492541890	 48689828	 165258.
18:58:10 1622 1623	 1492541890	 210156021	 161466.
18:58:10 1623 1624	 1492541890	 371525858	 161373.
18:58:10 1624 1625	 1492541890	 537265192	 165736.
18:58:10 1625 1626	 1492541890	 670120817	 132856.
18:58:10 1626 1627	 1492541890	 831696449	 161575.
18:58:10 1627 1628	 1492541890	 997321665	 165625.
18:58:11 1628 1629	 1492541891	 159282389	 161961.
18:58:11 1629 1630	 1492541891	 320709877	 161428.
18:58:11 1630 1631	 1492541891	 486301849	 165592.
18:58:11 1631 1632	 1492541891	 647999460	 161697.
18:58:11 1632 1633	 1492541891	 785361459	 137362.
18:58:11 1633 1634	 1492541891	 943108485	 157747.
18:58:12 1634 1635	 1492541892	 108884043	 165776.
18:58:12 1635 1636	 1492541892	 270105765	 161221.
18:58:12 1636 1637	 1492541892	 431804801	 161700.
18:58:12 1637 1638	 1492541892	 597882456	 166077.
18:58:12 1638 1639	 1492541892	 759274646	 161392.
18:58:12 1639 1640	 1492541892	 925001101	 165727.
18:58:13 1640 1641	 1492541893	 57599671	 132598.
18:58:13 1641 1642	 1492541893	 218891482	 161292.
18:58:13 1642 1643	 1492541893	 384124091	 165233.
18:58:13 1643 1644	 1492541893	 545063928	 160940.
18:58:13 1644 1645	 1492541893	 677778566	 132714.
18:58:13 1645 1646	 1492541893	 843437849	 165660.
18:58:14 1646 1647	 1492541894	 4676148	 161238.
18:58:14 1647 1648	 1492541894	 166441570	 161765.
18:58:14 1648 1649	 1492541894	 331660264	 165219.
18:58:14 1649 1650	 1492541894	 464430112	 132770.
18:58:14 1650 1651	 1492541894	 629971157	 165541.
18:58:14 1651 1652	 1492541894	 791306113	 161335.
18:58:14 1652 1653	 1492541894	 952849026	 161543.
18:58:15 1653 1654	 1492541895	 114272680	 161423.
18:58:15 1654 1655	 1492541895	 250844836	 136573.
18:58:15 1655 1656	 1492541895	 412160405	 161315.
18:58:15 1656 1657	 1492541895	 573302886	 161143.
18:58:15 1657 1658	 1492541895	 738385148	 165082.
18:58:15 1658 1659	 1492541895	 871472098	 133087.
18:58:16 1659 1660	 1492541896	 32511277	 161039.
18:58:16 1660 1661	 1492541896	 197810934	 165300.
18:58:16 1661 1662	 1492541896	 359429750	 161618.
18:58:16 1662 1663	 1492541896	 495913128	 136484.
18:58:16 1663 1664	 1492541896	 656917882	 161005.
18:58:16 1664 1665	 1492541896	 818518985	 161601.
18:58:16 1665 1666	 1492541896	 984352774	 165833.
18:58:17 1666 1667	 1492541897	 117081664	 132729.
18:58:17 1667 1668	 1492541897	 282877825	 165797.
18:58:17 1668 1669	 1492541897	 444025389	 161147.
18:58:17 1669 1670	 1492541897	 605822644	 161797.
18:58:17 1670 1671	 1492541897	 742828643	 137006.
18:58:17 1671 1672	 1492541897	 900916658	 158088.
18:58:18 1672 1673	 1492541898	 66920997	 166005.
18:58:18 1673 1674	 1492541898	 228666464	 161745.
18:58:18 1674 1675	 1492541898	 394739018	 166073.
18:58:18 1675 1676	 1492541898	 528161281	 133422.
18:58:18 1676 1677	 1492541898	 689968552	 161807.
18:58:18 1677 1678	 1492541898	 855380711	 165412.
18:58:19 1678 1679	 1492541899	 17092819	 161713.
18:58:19 1679 1680	 1492541899	 154138025	 137045.
18:58:19 1680 1681	 1492541899	 316123814	 161986.
18:58:19 1681 1682	 1492541899	 482132379	 166008.
18:58:19 1682 1683	 1492541899	 643999557	 161867.
18:58:19 1683 1684	 1492541899	 776468401	 132469.
18:58:19 1684 1685	 1492541899	 942265664	 165797.
18:58:20 1685 1686	 1492541900	 107970288	 165705.
18:58:20 1686 1687	 1492541900	 269561120	 161591.
18:58:20 1687 1688	 1492541900	 402699740	 133138.
18:58:20 1688 1689	 1492541900	 568465260	 165766.
18:58:20 1689 1690	 1492541900	 730072476	 161607.
18:58:20 1690 1691	 1492541900	 892329027	 162257.
18:58:21 1691 1692	 1492541901	 58281586	 165952.
18:58:21 1692 1693	 1492541901	 191486026	 133205.
18:58:21 1693 1694	 1492541901	 356912802	 165427.
18:58:21 1694 1695	 1492541901	 518503468	 161590.
18:58:21 1695 1696	 1492541901	 655042572	 136539.
18:58:21 1696 1697	 1492541901	 816467136	 161425.
18:58:21 1697 1698	 1492541901	 978090707	 161623.
18:58:22 1698 1699	 1492541902	 143792853	 165703.
18:58:22 1699 1700	 1492541902	 276764439	 132971.
18:58:22 1700 1701	 1492541902	 442409162	 165645.
18:58:22 1701 1702	 1492541902	 603787927	 161379.
18:58:22 1702 1703	 1492541902	 769350805	 165563.
18:58:22 1703 1704	 1492541902	 902282898	 132932.
18:58:23 1704 1705	 1492541903	 68005589	 165722.
18:58:23 1705 1706	 1492541903	 229473895	 161469.
18:58:23 1706 1707	 1492541903	 391352658	 161878.
18:58:23 1707 1708	 1492541903	 557842094	 166490.
18:58:23 1708 1709	 1492541903	 690759111	 132917.
18:58:23 1709 1710	 1492541903	 856421676	 165662.
18:58:24 1710 1711	 1492541904	 18134617	 161713.
18:58:24 1711 1712	 1492541904	 154808349	 136674.
18:58:24 1712 1713	 1492541904	 315546760	 160738.
18:58:24 1713 1714	 1492541904	 476446644	 160900.
18:58:24 1714 1715	 1492541904	 608693000	 132247.
18:58:24 1715 1716	 1492541904	 773947188	 165254.
18:58:24 1716 1717	 1492541904	 934959090	 161012.
18:58:25 1717 1718	 1492541905	 96007535	 161048.
18:58:25 1718 1719	 1492541905	 232480300	 136473.
18:58:25 1719 1720	 1492541905	 393548478	 161068.
18:58:25 1720 1721	 1492541905	 554633415	 161085.
18:58:25 1721 1722	 1492541905	 719997842	 165365.
18:58:25 1722 1723	 1492541905	 881549889	 161552.
18:58:26 1723 1724	 1492541906	 14336742	 132786.
18:58:26 1724 1725	 1492541906	 175768452	 161432.
18:58:26 1725 1726	 1492541906	 341116903	 165349.
18:58:26 1726 1727	 1492541906	 502433345	 161316.
18:58:26 1727 1728	 1492541906	 635019766	 132586.
18:58:26 1728 1729	 1492541906	 800299867	 165281.
18:58:26 1729 1730	 1492541906	 961672236	 161372.
18:58:27 1730 1731	 1492541907	 127202670	 165530.
18:58:27 1731 1732	 1492541907	 288385695	 161183.
18:58:27 1732 1733	 1492541907	 420807708	 132422.
18:58:27 1733 1734	 1492541907	 585615496	 164808.
18:58:27 1734 1735	 1492541907	 746708786	 161093.
18:58:27 1735 1736	 1492541907	 907755706	 161047.
18:58:28 1736 1737	 1492541908	 44773163	 137018.
18:58:28 1737 1738	 1492541908	 206341339	 161568.
18:58:28 1738 1739	 1492541908	 371875119	 165534.
18:58:28 1739 1740	 1492541908	 505150751	 133275.
18:58:28 1740 1741	 1492541908	 671408020	 166258.
18:58:28 1741 1742	 1492541908	 832722989	 161315.
18:58:28 1742 1743	 1492541908	 998440104	 165717.
18:58:29 1743 1744	 1492541909	 131208092	 132768.
18:58:29 1744 1745	 1492541909	 293033014	 161825.
18:58:29 1745 1746	 1492541909	 458874140	 165841.
18:58:29 1746 1747	 1492541909	 620184827	 161311.
18:58:29 1747 1748	 1492541909	 757123046	 136938.
18:58:29 1748 1749	 1492541909	 918396802	 161274.
18:58:30 1749 1750	 1492541910	 83983761	 165586.
18:58:30 1750 1751	 1492541910	 217353901	 133371.
18:58:30 1751 1752	 1492541910	 378954363	 161600.
18:58:30 1752 1753	 1492541910	 544436267	 165482.
18:58:30 1753 1754	 1492541910	 706036355	 161600.
18:58:30 1754 1755	 1492541910	 842677738	 136641.
18:58:31 1755 1756	 1492541911	 3955608	 161278.
18:58:31 1756 1757	 1492541911	 169931577	 165976.
18:58:31 1757 1758	 1492541911	 302894315	 132963.
18:58:31 1758 1759	 1492541911	 464307943	 161414.
18:58:31 1759 1760	 1492541911	 630263705	 165955.
18:58:31 1760 1761	 1492541911	 791766217	 161503.
18:58:31 1761 1762	 1492541911	 928409260	 136643.
18:58:32 1762 1763	 1492541912	 90299472	 161890.
18:58:32 1763 1764	 1492541912	 255979906	 165681.
18:58:32 1764 1765	 1492541912	 417590210	 161610.
18:58:32 1765 1766	 1492541912	 550364002	 132774.
18:58:32 1766 1767	 1492541912	 715833392	 165469.
18:58:32 1767 1768	 1492541912	 877411733	 161578.
18:58:33 1768 1769	 1492541913	 14182551	 136771.
18:58:33 1769 1770	 1492541913	 175500617	 161319.
18:58:33 1770 1771	 1492541913	 340968880	 165468.
18:58:33 1771 1772	 1492541913	 473805345	 132836.
18:58:33 1772 1773	 1492541913	 635158542	 161353.
18:58:33 1773 1774	 1492541913	 800754204	 165596.
18:58:33 1774 1775	 1492541913	 933513312	 132759.
18:58:34 1775 1776	 1492541914	 99478131	 165965.
18:58:34 1776 1777	 1492541914	 261693920	 162216.
18:58:34 1777 1778	 1492541914	 427512098	 165818.
18:58:34 1778 1779	 1492541914	 589423268	 161911.
18:58:34 1779 1780	 1492541914	 755603049	 166180.
18:58:34 1780 1781	 1492541914	 888140716	 132537.
18:58:35 1781 1782	 1492541915	 53754199	 165614.
18:58:35 1782 1783	 1492541915	 215205670	 161451.
18:58:35 1783 1784	 1492541915	 352406190	 137201.
18:58:35 1784 1785	 1492541915	 514208828	 161803.
18:58:35 1785 1786	 1492541915	 679105260	 164896.
18:58:35 1786 1787	 1492541915	 812001044	 132896.
18:58:35 1787 1788	 1492541915	 978045611	 166044.
18:58:36 1788 1789	 1492541916	 139555471	 161510.
18:58:36 1789 1790	 1492541916	 305087113	 165532.
18:58:36 1790 1791	 1492541916	 437575985	 132489.
18:58:36 1791 1792	 1492541916	 595546664	 157970.
18:58:36 1792 1793	 1492541916	 750741641	 155195.
18:58:36 1793 1794	 1492541916	 912348324	 161607.
18:58:37 1794 1795	 1492541917	 78017105	 165669.
18:58:37 1795 1796	 1492541917	 210955346	 132938.
18:58:37 1796 1797	 1492541917	 376225602	 165271.
18:58:37 1797 1798	 1492541917	 538279645	 162053.
18:58:37 1798 1799	 1492541917	 703731088	 165452.
18:58:37 1799 1800	 1492541917	 836784297	 133053.
18:58:37 1800 1801	 1492541918	 2187475	 165403.
18:58:38 1801 1802	 1492541918	 163340263	 161153.
18:58:38 1802 1803	 1492541918	 296602724	 133262.
18:58:38 1803 1804	 1492541918	 462070874	 165469.
18:58:38 1804 1805	 1492541918	 623717256	 161646.
18:58:38 1805 1806	 1492541918	 789503664	 165787.
18:58:38 1806 1807	 1492541918	 922048647	 132544.
18:58:39 1807 1808	 1492541919	 87478533	 165430.
18:58:39 1808 1809	 1492541919	 248805110	 161327.
18:58:39 1809 1810	 1492541919	 385732308	 136927.
18:58:39 1810 1811	 1492541919	 547276826	 161545.
18:58:39 1811 1812	 1492541919	 713501294	 166224.
18:58:39 1812 1813	 1492541919	 875347004	 161846.
18:58:40 1813 1814	 1492541920	 8527067	 133180.
18:58:40 1814 1815	 1492541920	 170442361	 161915.
18:58:40 1815 1816	 1492541920	 336087192	 165645.
18:58:40 1816 1817	 1492541920	 501970015	 165883.
18:58:40 1817 1818	 1492541920	 663713116	 161743.
18:58:40 1818 1819	 1492541920	 796564129	 132851.
18:58:40 1819 1820	 1492541920	 962280232	 165716.
18:58:41 1820 1821	 1492541921	 124332581	 162052.
18:58:41 1821 1822	 1492541921	 289758229	 165426.
18:58:41 1822 1823	 1492541921	 422717675	 132959.
18:58:41 1823 1824	 1492541921	 588393650	 165676.
18:58:41 1824 1825	 1492541921	 750144475	 161751.
18:58:41 1825 1826	 1492541921	 911885458	 161741.
18:58:42 1826 1827	 1492541922	 77721527	 165836.
18:58:42 1827 1828	 1492541922	 239540697	 161819.
18:58:42 1828 1829	 1492541922	 401141751	 161601.
18:58:42 1829 1830	 1492541922	 566805826	 165665.
18:58:42 1830 1831	 1492541922	 728643188	 161837.
18:58:42 1831 1832	 1492541922	 890208196	 161565.
18:58:43 1832 1833	 1492541923	 27044694	 136836.
18:58:43 1833 1834	 1492541923	 188953181	 161909.
18:58:43 1834 1835	 1492541923	 350677903	 161725.
18:58:43 1835 1836	 1492541923	 516502507	 165824.
18:58:43 1836 1837	 1492541923	 678415202	 161913.
18:58:43 1837 1838	 1492541923	 839575451	 161160.
18:58:43 1838 1839	 1492541923	 976530181	 136955.
18:58:44 1839 1840	 1492541924	 138423086	 161893.
18:58:44 1840 1841	 1492541924	 304341588	 165918.
18:58:44 1841 1842	 1492541924	 465813531	 161472.
18:58:44 1842 1843	 1492541924	 631682653	 165869.
18:58:44 1843 1844	 1492541924	 764425677	 132744.
18:58:44 1844 1845	 1492541924	 925889131	 161463.
18:58:45 1845 1846	 1492541925	 91546198	 165657.
18:58:45 1846 1847	 1492541925	 257544334	 165998.
18:58:45 1847 1848	 1492541925	 389942819	 132399.
18:58:45 1848 1849	 1492541925	 551493607	 161550.
18:58:45 1849 1850	 1492541925	 717388818	 165896.
18:58:45 1850 1851	 1492541925	 850215370	 132826.
18:58:46 1851 1852	 1492541926	 15841586	 165626.
18:58:46 1852 1853	 1492541926	 177381763	 161541.
18:58:46 1853 1854	 1492541926	 343456617	 166074.
18:58:46 1854 1855	 1492541926	 476324941	 132869.
18:58:46 1855 1856	 1492541926	 637563069	 161238.
18:58:46 1856 1857	 1492541926	 802845715	 165282.
18:58:46 1857 1858	 1492541926	 935429837	 132585.
18:58:47 1858 1859	 1492541927	 96911185	 161481.
18:58:47 1859 1860	 1492541927	 262586884	 165676.
18:58:47 1860 1861	 1492541927	 424480454	 161893.
18:58:47 1861 1862	 1492541927	 590322015	 165842.
18:58:47 1862 1863	 1492541927	 752347888	 162026.
18:58:47 1863 1864	 1492541927	 890076820	 137729.
18:58:48 1864 1865	 1492541928	 47994885	 157918.
18:58:48 1865 1866	 1492541928	 209716509	 161721.
18:58:48 1866 1867	 1492541928	 375463242	 165747.
18:58:48 1867 1868	 1492541928	 537348484	 161885.
18:58:48 1868 1869	 1492541928	 703463514	 166115.
18:58:48 1869 1870	 1492541928	 836527049	 133064.
18:58:48 1870 1871	 1492541928	 998403143	 161876.
18:58:49 1871 1872	 1492541929	 163903610	 165500.
18:58:49 1872 1873	 1492541929	 325623785	 161720.
18:58:49 1873 1874	 1492541929	 491653970	 166031.
18:58:49 1874 1875	 1492541929	 653666693	 162012.
18:58:49 1875 1876	 1492541929	 790321452	 136655.
18:58:49 1876 1877	 1492541929	 951882581	 161561.
18:58:50 1877 1878	 1492541930	 113677266	 161795.
18:58:50 1878 1879	 1492541930	 279256633	 165579.
18:58:50 1879 1880	 1492541930	 440810373	 161554.
18:58:50 1880 1881	 1492541930	 573548923	 132739.
18:58:50 1881 1882	 1492541930	 739146188	 165597.
18:58:50 1882 1883	 1492541930	 900677786	 161532.
18:58:51 1883 1884	 1492541931	 66149725	 165471.
18:58:51 1884 1885	 1492541931	 199118650	 132969.
18:58:51 1885 1886	 1492541931	 364389772	 165271.
18:58:51 1886 1887	 1492541931	 526006248	 161617.
18:58:51 1887 1888	 1492541931	 687908320	 161902.
18:58:51 1888 1889	 1492541931	 854031844	 166124.
18:58:51 1889 1890	 1492541931	 987079536	 133047.
18:58:52 1890 1891	 1492541932	 152875968	 165797.
18:58:52 1891 1892	 1492541932	 314619419	 161743.
18:58:52 1892 1893	 1492541932	 480461299	 165842.
18:58:52 1893 1894	 1492541932	 642015677	 161554.
18:58:52 1894 1895	 1492541932	 775143022	 133128.
18:58:52 1895 1896	 1492541932	 940793565	 165650.
18:58:53 1896 1897	 1492541933	 102509190	 161716.
18:58:53 1897 1898	 1492541933	 260763398	 158254.
18:58:53 1898 1899	 1492541933	 426443228	 165680.
18:58:53 1899 1900	 1492541933	 559042433	 132599.
18:58:53 1900 1901	 1492541933	 720507924	 161466.
18:58:53 1901 1902	 1492541933	 886095938	 165588.
18:58:54 1902 1903	 1492541934	 47328950	 161233.
18:58:54 1903 1904	 1492541934	 213157629	 165828.
18:58:54 1904 1905	 1492541934	 345796412	 132639.
18:58:54 1905 1906	 1492541934	 511303655	 165507.
18:58:54 1906 1907	 1492541934	 672792428	 161489.
18:58:54 1907 1908	 1492541934	 834644199	 161852.
18:58:54 1908 1909	 1492541934	 971728440	 137084.
18:58:55 1909 1910	 1492541935	 134065235	 162337.
18:58:55 1910 1911	 1492541935	 299844871	 165780.
18:58:55 1911 1912	 1492541935	 461858587	 162013.
18:58:55 1912 1913	 1492541935	 627711030	 165853.
18:58:55 1913 1914	 1492541935	 760607873	 132897.
