10:45:39    0 Step	 time(s)	 time(ns)	 delta(ms)
10:45:39    0 1	 1492339539	 844363774	 938.
10:45:40    1 2	 1492339540	 10203082	 165840.
10:45:40    2 3	 1492339540	 173673394	 163470.
10:45:40    3 4	 1492339540	 339603165	 165930.
10:45:40    4 5	 1492339540	 501519598	 161916.
10:45:40    5 6	 1492339540	 667642507	 166123.
10:45:40    6 7	 1492339540	 800929698	 133287.
10:45:40    7 8	 1492339540	 966568048	 165639.
10:45:41    8 9	 1492339541	 128230019	 161662.
10:45:41    9 10	 1492339541	 293933901	 165704.
10:45:41   10 11	 1492339541	 426676785	 132742.
10:45:41   11 12	 1492339541	 588191986	 161516.
10:45:41   12 13	 1492339541	 753672932	 165481.
10:45:41   13 14	 1492339541	 886644721	 132971.
10:45:42   14 15	 1492339542	 52382020	 165738.
10:45:42   15 16	 1492339542	 213602831	 161221.
10:45:42   16 17	 1492339542	 379149899	 165547.
10:45:42   17 18	 1492339542	 511849525	 132699.
10:45:42   18 19	 1492339542	 674824865	 162976.
10:45:42   19 20	 1492339542	 840501111	 165676.
10:45:42   20 21	 1492339543	 2170864	 161670.
10:45:43   21 22	 1492339543	 167548840	 165378.
10:45:43   22 23	 1492339543	 300473731	 132924.
10:45:43   23 24	 1492339543	 466350836	 165878.
10:45:43   24 25	 1492339543	 627970208	 161619.
10:45:43   25 26	 1492339543	 764687914	 136718.
10:45:43   26 27	 1492339543	 925952912	 161265.
10:45:44   27 28	 1492339544	 91776243	 165823.
10:45:44   28 29	 1492339544	 224497604	 132721.
10:45:44   29 30	 1492339544	 389891494	 165394.
10:45:44   30 31	 1492339544	 551269898	 161379.
10:45:44   31 32	 1492339544	 688078099	 136808.
10:45:44   32 33	 1492339544	 849324979	 161247.
10:45:45   33 34	 1492339545	 10410527	 161085.
10:45:45   34 35	 1492339545	 176250920	 165841.
10:45:45   35 36	 1492339545	 329380978	 153130.
10:45:45   36 37	 1492339545	 466807189	 137426.
10:45:45   37 38	 1492339545	 628494678	 161687.
10:45:45   38 39	 1492339545	 794259595	 165765.
10:45:45   39 40	 1492339545	 955908609	 161649.
10:45:46   40 41	 1492339546	 92990307	 137082.
10:45:46   41 42	 1492339546	 254824831	 161834.
10:45:46   42 43	 1492339546	 420484594	 165660.
10:45:46   43 44	 1492339546	 582187585	 161703.
10:45:46   44 45	 1492339546	 748347466	 166160.
10:45:46   45 46	 1492339546	 881465137	 133118.
10:45:47   46 47	 1492339547	 47088589	 165623.
10:45:47   47 48	 1492339547	 209070957	 161983.
10:45:47   48 49	 1492339547	 375046356	 165975.
10:45:47   49 50	 1492339547	 508065424	 133019.
10:45:47   50 51	 1492339547	 673930852	 165866.
10:45:47   51 52	 1492339547	 835793606	 161862.
10:45:48   52 53	 1492339548	 1830641	 166037.
10:45:48   53 54	 1492339548	 163714687	 161884.
10:45:48   54 55	 1492339548	 297044454	 133330.
10:45:48   55 56	 1492339548	 463099126	 166055.
10:45:48   56 57	 1492339548	 625207621	 162108.
10:45:48   57 58	 1492339548	 790537963	 165331.
10:45:48   58 59	 1492339548	 952592379	 162054.
10:45:49   59 60	 1492339549	 89843273	 137251.
10:45:49   60 61	 1492339549	 251713470	 161870.
10:45:49   61 62	 1492339549	 417329449	 165616.
10:45:49   62 63	 1492339549	 579568675	 162239.
10:45:49   63 64	 1492339549	 745434183	 165866.
10:45:49   64 65	 1492339549	 878353639	 132919.
10:45:50   65 66	 1492339550	 43825513	 165472.
10:45:50   66 67	 1492339550	 205196838	 161372.
10:45:50   67 68	 1492339550	 342445940	 137249.
10:45:50   68 69	 1492339550	 504204199	 161758.
10:45:50   69 70	 1492339550	 669875304	 165671.
10:45:50   70 71	 1492339550	 831628043	 161753.
10:45:50   71 72	 1492339550	 964503473	 132875.
10:45:51   72 73	 1492339551	 129807650	 165304.
10:45:51   73 74	 1492339551	 291108304	 161301.
10:45:51   74 75	 1492339551	 427351382	 136243.
10:45:51   75 76	 1492339551	 588848878	 161498.
10:45:51   76 77	 1492339551	 754320036	 165471.
10:45:51   77 78	 1492339551	 887338026	 133018.
10:45:52   78 79	 1492339552	 52729944	 165392.
10:45:52   79 80	 1492339552	 214288121	 161558.
10:45:52   80 81	 1492339552	 376130435	 161842.
10:45:52   81 82	 1492339552	 512418390	 136288.
10:45:52   82 83	 1492339552	 673869548	 161451.
10:45:52   83 84	 1492339552	 839460166	 165591.
10:45:52   84 85	 1492339552	 972426535	 132966.
10:45:53   85 86	 1492339553	 137740882	 165315.
10:45:53   86 87	 1492339553	 299440599	 161699.
10:45:53   87 88	 1492339553	 432301011	 132861.
10:45:53   88 89	 1492339553	 597930792	 165629.
10:45:53   89 90	 1492339553	 759671560	 161741.
10:45:53   90 91	 1492339553	 924967568	 165296.
10:45:54   91 92	 1492339554	 58182965	 133216.
10:45:54   92 93	 1492339554	 223583676	 165400.
10:45:54   93 94	 1492339554	 384803412	 161220.
10:45:54   94 95	 1492339554	 521677671	 136874.
10:45:54   95 96	 1492339554	 683296494	 161619.
10:45:54   96 97	 1492339554	 849035356	 165739.
10:45:54   97 98	 1492339554	 981579495	 132544.
10:45:55   98 99	 1492339555	 147822295	 166243.
10:45:55   99 100	 1492339555	 309639902	 161818.
10:45:55  100 101	 1492339555	 475859455	 166219.
10:45:55  101 102	 1492339555	 637621135	 161762.
10:45:55  102 103	 1492339555	 803455800	 165835.
10:45:55  103 104	 1492339555	 936368415	 132912.
10:45:56  104 105	 1492339556	 101789507	 165421.
10:45:56  105 106	 1492339556	 263405167	 161616.
10:45:56  106 107	 1492339556	 400063261	 136658.
10:45:56  107 108	 1492339556	 561383734	 161320.
10:45:56  108 109	 1492339556	 693708672	 132325.
10:45:56  109 110	 1492339556	 858928346	 165220.
10:45:57  110 111	 1492339557	 20267862	 161340.
10:45:57  111 112	 1492339557	 157471446	 137203.
10:45:57  112 113	 1492339557	 318712903	 161242.
10:45:57  113 114	 1492339557	 484091865	 165379.
10:45:57  114 115	 1492339557	 616699499	 132607.
10:45:57  115 116	 1492339557	 782044137	 165345.
10:45:57  116 117	 1492339557	 943331815	 161288.
10:45:58  117 118	 1492339558	 80294468	 136962.
10:45:58  118 119	 1492339558	 242263002	 161969.
10:45:58  119 120	 1492339558	 407664745	 165401.
10:45:58  120 121	 1492339558	 568796967	 161133.
10:45:58  121 122	 1492339558	 705705534	 136908.
10:45:58  122 123	 1492339558	 867324465	 161619.
10:45:59  123 124	 1492339559	 33158398	 165834.
10:45:59  124 125	 1492339559	 194824315	 161666.
10:45:59  125 126	 1492339559	 327420935	 132597.
10:45:59  126 127	 1492339559	 493069895	 165649.
10:45:59  127 128	 1492339559	 659095338	 166025.
10:45:59  128 129	 1492339559	 821026748	 161931.
10:45:59  129 130	 1492339559	 957865606	 136839.
10:46:00  130 131	 1492339560	 120141791	 162276.
10:46:00  131 132	 1492339560	 282130255	 161989.
10:46:00  132 133	 1492339560	 447850505	 165720.
10:46:00  133 134	 1492339560	 613483502	 165633.
10:46:00  134 135	 1492339560	 746580380	 133097.
10:46:00  135 136	 1492339560	 912015959	 165436.
10:46:01  136 137	 1492339561	 73545960	 161530.
10:46:01  137 138	 1492339561	 235278060	 161732.
10:46:01  138 139	 1492339561	 372370595	 137092.
10:46:01  139 140	 1492339561	 534052096	 161682.
10:46:01  140 141	 1492339561	 700120357	 166068.
10:46:01  141 142	 1492339561	 857576321	 157456.
10:46:02  142 143	 1492339562	 19096866	 161521.
10:46:02  143 144	 1492339562	 180415039	 161318.
10:46:02  144 145	 1492339562	 345736039	 165321.
10:46:02  145 146	 1492339562	 478589342	 132853.
10:46:02  146 147	 1492339562	 639942872	 161354.
10:46:02  147 148	 1492339562	 805658567	 165715.
10:46:02  148 149	 1492339562	 967173952	 161516.
10:46:03  149 150	 1492339563	 133175957	 166002.
10:46:03  150 151	 1492339563	 294847386	 161671.
10:46:03  151 152	 1492339563	 431659560	 136812.
10:46:03  152 153	 1492339563	 593348109	 161689.
10:46:03  153 154	 1492339563	 754515153	 161167.
10:46:03  154 155	 1492339563	 920039100	 165524.
10:46:04  155 156	 1492339564	 81362662	 161323.
10:46:04  156 157	 1492339564	 213878867	 132517.
10:46:04  157 158	 1492339564	 379220870	 165342.
10:46:04  158 159	 1492339564	 540355605	 161134.
10:46:04  159 160	 1492339564	 701785743	 161430.
10:46:04  160 161	 1492339564	 838601442	 136816.
10:46:04  161 162	 1492339564	 999717199	 161116.
10:46:05  162 163	 1492339565	 165234276	 165517.
10:46:05  163 164	 1492339565	 326806748	 161572.
10:46:05  164 165	 1492339565	 459718476	 132912.
10:46:05  165 166	 1492339565	 625088880	 165371.
10:46:05  166 167	 1492339565	 786285787	 161196.
10:46:05  167 168	 1492339565	 947465502	 161180.
10:46:06  168 169	 1492339566	 84488108	 137023.
10:46:06  169 170	 1492339566	 246058819	 161571.
10:46:06  170 171	 1492339566	 412126922	 166068.
10:46:06  171 172	 1492339566	 573475807	 161349.
10:46:06  172 173	 1492339566	 706237360	 132761.
10:46:06  173 174	 1492339566	 871573988	 165337.
10:46:07  174 175	 1492339567	 32851951	 161278.
10:46:07  175 176	 1492339567	 169394428	 136542.
10:46:07  176 177	 1492339567	 330654994	 161261.
10:46:07  177 178	 1492339567	 492091761	 161436.
10:46:07  178 179	 1492339567	 628824082	 136733.
10:46:07  179 180	 1492339567	 789813999	 160990.
10:46:07  180 181	 1492339567	 926586239	 136772.
10:46:08  181 182	 1492339568	 88203659	 161617.
10:46:08  182 183	 1492339568	 249595593	 161392.
10:46:08  183 184	 1492339568	 414941498	 165346.
10:46:08  184 185	 1492339568	 547786875	 132846.
10:46:08  185 186	 1492339568	 713269099	 165482.
10:46:08  186 187	 1492339568	 874913237	 161644.
10:46:09  187 188	 1492339569	 12121809	 137208.
10:46:09  188 189	 1492339569	 173827597	 161706.
10:46:09  189 190	 1492339569	 339579350	 165752.
10:46:09  190 191	 1492339569	 500866879	 161288.
10:46:09  191 192	 1492339569	 634017181	 133150.
10:46:09  192 193	 1492339569	 795725798	 161708.
10:46:09  193 194	 1492339569	 962240070	 166515.
10:46:10  194 195	 1492339570	 124463114	 162223.
10:46:10  195 196	 1492339570	 290357289	 165894.
10:46:10  196 197	 1492339570	 452297941	 161941.
10:46:10  197 198	 1492339570	 614267896	 161970.
10:46:10  198 199	 1492339570	 780469654	 166201.
10:46:10  199 200	 1492339570	 913593421	 133124.
10:46:11  200 201	 1492339571	 79776742	 166183.
10:46:11  201 202	 1492339571	 241478082	 161702.
10:46:11  202 203	 1492339571	 407397613	 165919.
10:46:11  203 204	 1492339571	 569240239	 161843.
10:46:11  204 205	 1492339571	 706277489	 137037.
10:46:11  205 206	 1492339571	 867959197	 161682.
10:46:12  206 207	 1492339572	 33470852	 165512.
10:46:12  207 208	 1492339572	 195171391	 161700.
10:46:12  208 209	 1492339572	 356975150	 161804.
10:46:12  209 210	 1492339572	 522940060	 165965.
10:46:12  210 211	 1492339572	 684560276	 161620.
10:46:12  211 212	 1492339572	 847059561	 162499.
10:46:13  212 213	 1492339573	 4683385	 157624.
10:46:13  213 214	 1492339573	 170425612	 165742.
10:46:13  214 215	 1492339573	 303711428	 133286.
10:46:13  215 216	 1492339573	 465456942	 161746.
10:46:13  216 217	 1492339573	 631385481	 165928.
10:46:13  217 218	 1492339573	 793182724	 161797.
10:46:13  218 219	 1492339573	 959084245	 165902.
10:46:14  219 220	 1492339574	 120623382	 161539.
10:46:14  220 221	 1492339574	 282183004	 161560.
10:46:14  221 222	 1492339574	 447665607	 165482.
10:46:14  222 223	 1492339574	 580545800	 132880.
10:46:14  223 224	 1492339574	 745987150	 165442.
10:46:14  224 225	 1492339574	 907066624	 161079.
10:46:15  225 226	 1492339575	 40077046	 133011.
10:46:15  226 227	 1492339575	 205790962	 165714.
10:46:15  227 228	 1492339575	 367706949	 161916.
10:46:15  228 229	 1492339575	 533412246	 165705.
10:46:15  229 230	 1492339575	 666109397	 132697.
10:46:15  230 231	 1492339575	 831601454	 165492.
10:46:15  231 232	 1492339575	 992781820	 161181.
10:46:16  232 233	 1492339576	 129594516	 136812.
10:46:16  233 234	 1492339576	 290877022	 161283.
10:46:16  234 235	 1492339576	 456709379	 165832.
10:46:16  235 236	 1492339576	 618298230	 161589.
10:46:16  236 237	 1492339576	 755372273	 137074.
10:46:16  237 238	 1492339576	 916953922	 161582.
10:46:17  238 239	 1492339577	 78786557	 161832.
10:46:17  239 240	 1492339577	 244656229	 165870.
10:46:17  240 241	 1492339577	 377394791	 132738.
10:46:17  241 242	 1492339577	 543476801	 166083.
10:46:17  242 243	 1492339577	 705231917	 161755.
10:46:17  243 244	 1492339577	 871371943	 166140.
10:46:18  244 245	 1492339578	 33152254	 161780.
10:46:18  245 246	 1492339578	 170255696	 137103.
10:46:18  246 247	 1492339578	 331884315	 161629.
10:46:18  247 248	 1492339578	 493483520	 161599.
10:46:18  248 249	 1492339578	 630268103	 136785.
10:46:18  249 250	 1492339578	 791317753	 161049.
10:46:18  250 251	 1492339578	 957366488	 166049.
10:46:19  251 252	 1492339579	 119242034	 161876.
10:46:19  252 253	 1492339579	 256059766	 136817.
10:46:19  253 254	 1492339579	 421682824	 165623.
10:46:19  254 255	 1492339579	 583515292	 161833.
10:46:19  255 256	 1492339579	 749399526	 165884.
10:46:19  256 257	 1492339579	 882317861	 132919.
10:46:20  257 258	 1492339580	 48177827	 165860.
10:46:20  258 259	 1492339580	 209980810	 161803.
10:46:20  259 260	 1492339580	 375946858	 165966.
10:46:20  260 261	 1492339580	 538045770	 162098.
10:46:20  261 262	 1492339580	 675122091	 137077.
10:46:20  262 263	 1492339580	 836923086	 161801.
10:46:21  263 264	 1492339581	 2495878	 165573.
10:46:21  264 265	 1492339581	 164018560	 161522.
10:46:21  265 266	 1492339581	 296942202	 132924.
10:46:21  266 267	 1492339581	 462436137	 165494.
10:46:21  267 268	 1492339581	 623924602	 161488.
10:46:21  268 269	 1492339581	 789447603	 165523.
10:46:21  269 270	 1492339581	 951101518	 161654.
10:46:22  270 271	 1492339582	 84118766	 133017.
10:46:22  271 272	 1492339582	 249869030	 165751.
10:46:22  272 273	 1492339582	 411407840	 161539.
10:46:22  273 274	 1492339582	 572971236	 161563.
10:46:22  274 275	 1492339582	 709832458	 136861.
10:46:22  275 276	 1492339582	 871313100	 161481.
10:46:23  276 277	 1492339583	 33253059	 161940.
10:46:23  277 278	 1492339583	 199088368	 165835.
10:46:23  278 279	 1492339583	 360591798	 161504.
10:46:23  279 280	 1492339583	 493616100	 133024.
10:46:23  280 281	 1492339583	 659086318	 165470.
10:46:23  281 282	 1492339583	 820482453	 161396.
10:46:23  282 283	 1492339583	 986567841	 166086.
10:46:24  283 284	 1492339584	 143549503	 156981.
10:46:24  284 285	 1492339584	 275961855	 132413.
10:46:24  285 286	 1492339584	 437311938	 161350.
10:46:24  286 287	 1492339584	 602839364	 165527.
10:46:24  287 288	 1492339584	 764214331	 161375.
10:46:24  288 289	 1492339584	 925632307	 161418.
10:46:25  289 290	 1492339585	 91435208	 165803.
10:46:25  290 291	 1492339585	 224284328	 132849.
10:46:25  291 292	 1492339585	 385550449	 161266.
10:46:25  292 293	 1492339585	 551619075	 166069.
10:46:25  293 294	 1492339585	 713464009	 161845.
10:46:25  294 295	 1492339585	 879295779	 165832.
10:46:26  295 296	 1492339586	 40891656	 161595.
10:46:26  296 297	 1492339586	 177899928	 137009.
10:46:26  297 298	 1492339586	 339170881	 161271.
10:46:26  298 299	 1492339586	 500864683	 161693.
10:46:26  299 300	 1492339586	 637742847	 136879.
10:46:26  300 301	 1492339586	 799361605	 161618.
10:46:26  301 302	 1492339586	 964761813	 165401.
10:46:27  302 303	 1492339587	 126325541	 161563.
10:46:27  303 304	 1492339587	 287547120	 161222.
10:46:27  304 305	 1492339587	 424681147	 137134.
10:46:27  305 306	 1492339587	 586385908	 161705.
10:46:27  306 307	 1492339587	 752001005	 165615.
10:46:27  307 308	 1492339587	 913673269	 161672.
10:46:28  308 309	 1492339588	 46147566	 132474.
10:46:28  309 310	 1492339588	 211881009	 165734.
10:46:28  310 311	 1492339588	 373266879	 161386.
10:46:28  311 312	 1492339588	 538611163	 165344.
10:46:28  312 313	 1492339588	 699834731	 161224.
10:46:28  313 314	 1492339588	 832685237	 132850.
10:46:28  314 315	 1492339588	 998454626	 165769.
10:46:29  315 316	 1492339589	 159760937	 161307.
10:46:29  316 317	 1492339589	 325569235	 165808.
10:46:29  317 318	 1492339589	 458531092	 132962.
10:46:29  318 319	 1492339589	 620048708	 161517.
10:46:29  319 320	 1492339589	 785434634	 165386.
10:46:29  320 321	 1492339589	 918006817	 132573.
10:46:30  321 322	 1492339590	 83884586	 165877.
10:46:30  322 323	 1492339590	 245485863	 161602.
10:46:30  323 324	 1492339590	 411118733	 165632.
10:46:30  324 325	 1492339590	 544021310	 132903.
10:46:30  325 326	 1492339590	 709159014	 165138.
10:46:30  326 327	 1492339590	 870389775	 161230.
10:46:31  327 328	 1492339591	 7369032	 136980.
10:46:31  328 329	 1492339591	 168683653	 161314.
10:46:31  329 330	 1492339591	 334218875	 165536.
10:46:31  330 331	 1492339591	 466841134	 132622.
10:46:31  331 332	 1492339591	 628279337	 161438.
10:46:31  332 333	 1492339591	 793445124	 165166.
10:46:31  333 334	 1492339591	 926182045	 132737.
10:46:32  334 335	 1492339592	 91584211	 165402.
10:46:32  335 336	 1492339592	 253504933	 161921.
10:46:32  336 337	 1492339592	 419448459	 165943.
10:46:32  337 338	 1492339592	 552734412	 133286.
10:46:32  338 339	 1492339592	 718659840	 165926.
10:46:32  339 340	 1492339592	 884395591	 165735.
10:46:33  340 341	 1492339593	 46068646	 161673.
10:46:33  341 342	 1492339593	 182826808	 136759.
10:46:33  342 343	 1492339593	 344619445	 161792.
10:46:33  343 344	 1492339593	 510456481	 165837.
10:46:33  344 345	 1492339593	 672803199	 162347.
10:46:33  345 346	 1492339593	 809600396	 136797.
10:46:33  346 347	 1492339593	 971452399	 161852.
10:46:34  347 348	 1492339594	 137842654	 166390.
10:46:34  348 349	 1492339594	 299993799	 162151.
10:46:34  349 350	 1492339594	 466100869	 166108.
10:46:34  350 351	 1492339594	 628252397	 162151.
10:46:34  351 352	 1492339594	 794467267	 166215.
10:46:34  352 353	 1492339594	 957034264	 162567.
10:46:35  353 354	 1492339595	 120178992	 163145.
10:46:35  354 355	 1492339595	 282514186	 162335.
10:46:35  355 356	 1492339595	 444873750	 162359.
10:46:35  356 357	 1492339595	 611311516	 166438.
10:46:35  357 358	 1492339595	 744562812	 133251.
10:46:35  358 359	 1492339595	 910847385	 166285.
10:46:36  359 360	 1492339596	 72386548	 161539.
10:46:36  360 361	 1492339596	 237954007	 165568.
10:46:36  361 362	 1492339596	 370465987	 132512.
10:46:36  362 363	 1492339596	 532168152	 161702.
10:46:36  363 364	 1492339596	 697773195	 165605.
10:46:36  364 365	 1492339596	 859686917	 161914.
10:46:36  365 366	 1492339596	 996750317	 137063.
10:46:37  366 367	 1492339597	 158249690	 161499.
10:46:37  367 368	 1492339597	 323448752	 165199.
10:46:37  368 369	 1492339597	 456208207	 132760.
10:46:37  369 370	 1492339597	 621540887	 165333.
10:46:37  370 371	 1492339597	 782921683	 161380.
10:46:37  371 372	 1492339597	 915480299	 132559.
10:46:38  372 373	 1492339598	 80865114	 165385.
10:46:38  373 374	 1492339598	 246409606	 165544.
10:46:38  374 375	 1492339598	 378853820	 132445.
10:46:38  375 376	 1492339598	 540348114	 161494.
10:46:38  376 377	 1492339598	 705754144	 165406.
10:46:38  377 378	 1492339598	 838581006	 132827.
10:46:39  378 379	 1492339599	 4699127	 166118.
10:46:39  379 380	 1492339599	 166386408	 161687.
10:46:39  380 381	 1492339599	 332196218	 165810.
10:46:39  381 382	 1492339599	 494093768	 161897.
10:46:39  382 383	 1492339599	 627187806	 133095.
10:46:39  383 384	 1492339599	 793386597	 166198.
10:46:39  384 385	 1492339599	 955341059	 161955.
10:46:40  385 386	 1492339600	 121251640	 165910.
10:46:40  386 387	 1492339600	 283526320	 162275.
10:46:40  387 388	 1492339600	 449626625	 166100.
10:46:40  388 389	 1492339600	 611468266	 161842.
10:46:40  389 390	 1492339600	 748512951	 137045.
10:46:40  390 391	 1492339600	 910253547	 161740.
10:46:41  391 392	 1492339601	 76067682	 165814.
10:46:41  392 393	 1492339601	 237889942	 161823.
10:46:41  393 394	 1492339601	 399422118	 161532.
10:46:41  394 395	 1492339601	 536163375	 136741.
10:46:41  395 396	 1492339601	 697587372	 161424.
10:46:41  396 397	 1492339601	 858785423	 161198.
10:46:42  397 398	 1492339602	 24403884	 165619.
10:46:42  398 399	 1492339602	 157067761	 132663.
10:46:42  399 400	 1492339602	 318425801	 161359.
10:46:42  400 401	 1492339602	 484319626	 165893.
10:46:42  401 402	 1492339602	 645562959	 161244.
10:46:42  402 403	 1492339602	 782147742	 136584.
10:46:42  403 404	 1492339602	 943766356	 161619.
10:46:43  404 405	 1492339603	 109747779	 165981.
10:46:43  405 406	 1492339603	 271234711	 161487.
10:46:43  406 407	 1492339603	 408377861	 137144.
10:46:43  407 408	 1492339603	 570572782	 162194.
10:46:43  408 409	 1492339603	 736316335	 165744.
10:46:43  409 410	 1492339603	 897526599	 161210.
10:46:44  410 411	 1492339604	 58854563	 161328.
10:46:44  411 412	 1492339604	 191284185	 132430.
10:46:44  412 413	 1492339604	 356585518	 165301.
10:46:44  413 414	 1492339604	 517755890	 161171.
10:46:44  414 415	 1492339604	 683280926	 165525.
10:46:44  415 416	 1492339604	 844928390	 161647.
10:46:45  416 417	 1492339605	 10879686	 165951.
10:46:45  417 418	 1492339605	 143916449	 133037.
10:46:45  418 419	 1492339605	 305365024	 161449.
10:46:45  419 420	 1492339605	 471256003	 165891.
10:46:45  420 421	 1492339605	 632720101	 161464.
10:46:45  421 422	 1492339605	 765946663	 133226.
10:46:45  422 423	 1492339605	 931240068	 165294.
10:46:46  423 424	 1492339606	 96935651	 165695.
10:46:46  424 425	 1492339606	 255478723	 158543.
10:46:46  425 426	 1492339606	 387899136	 132421.
10:46:46  426 427	 1492339606	 553923689	 166024.
10:46:46  427 428	 1492339606	 714918544	 160995.
10:46:46  428 429	 1492339606	 851627341	 136709.
10:46:47  429 430	 1492339607	 13191289	 161564.
10:46:47  430 431	 1492339607	 178777054	 165586.
10:46:47  431 432	 1492339607	 340130537	 161353.
10:46:47  432 433	 1492339607	 477407655	 137277.
10:46:47  433 434	 1492339607	 639285125	 161878.
10:46:47  434 435	 1492339607	 804971780	 165686.
10:46:47  435 436	 1492339607	 966693364	 161722.
10:46:48  436 437	 1492339608	 132801955	 166109.
10:46:48  437 438	 1492339608	 265504576	 132702.
10:46:48  438 439	 1492339608	 430922802	 165418.
10:46:48  439 440	 1492339608	 592715904	 161794.
10:46:48  440 441	 1492339608	 758365654	 165649.
10:46:48  441 442	 1492339608	 891258729	 132893.
10:46:49  442 443	 1492339609	 52514211	 161256.
10:46:49  443 444	 1492339609	 217720577	 165206.
10:46:49  444 445	 1492339609	 350411285	 132691.
10:46:49  445 446	 1492339609	 516414891	 166004.
10:46:49  446 447	 1492339609	 678076154	 161661.
10:46:49  447 448	 1492339609	 843457254	 165381.
10:46:49  448 449	 1492339609	 975963785	 132506.
10:46:50  449 450	 1492339610	 137409799	 161446.
10:46:50  450 451	 1492339610	 302772311	 165363.
10:46:50  451 452	 1492339610	 435435401	 132663.
10:46:50  452 453	 1492339610	 597179929	 161745.
10:46:50  453 454	 1492339610	 762385842	 165206.
10:46:50  454 455	 1492339610	 924195985	 161810.
10:46:51  455 456	 1492339611	 90023290	 165827.
10:46:51  456 457	 1492339611	 222989178	 132966.
10:46:51  457 458	 1492339611	 388704112	 165715.
10:46:51  458 459	 1492339611	 550661036	 161957.
10:46:51  459 460	 1492339611	 712337852	 161677.
10:46:51  460 461	 1492339611	 878169674	 165831.
10:46:52  461 462	 1492339612	 39379638	 161210.
10:46:52  462 463	 1492339612	 200916485	 161537.
10:46:52  463 464	 1492339612	 337854440	 136938.
10:46:52  464 465	 1492339612	 498902076	 161048.
10:46:52  465 466	 1492339612	 664341409	 165439.
10:46:52  466 467	 1492339612	 796863925	 132523.
10:46:52  467 468	 1492339612	 958210759	 161346.
10:46:53  468 469	 1492339613	 123894192	 165684.
10:46:53  469 470	 1492339613	 285717911	 161824.
10:46:53  470 471	 1492339613	 422700330	 136982.
10:46:53  471 472	 1492339613	 584695812	 161996.
10:46:53  472 473	 1492339613	 750665499	 165969.
10:46:53  473 474	 1492339613	 912685493	 162020.
10:46:54  474 475	 1492339614	 45426647	 132742.
10:46:54  475 476	 1492339614	 210500440	 165073.
10:46:54  476 477	 1492339614	 371575644	 161075.
10:46:54  477 478	 1492339614	 532511803	 160937.
10:46:54  478 479	 1492339614	 664974041	 132462.
10:46:54  479 480	 1492339614	 830491694	 165517.
10:46:54  480 481	 1492339614	 992446200	 161955.
10:46:55  481 482	 1492339615	 158589603	 166143.
10:46:55  482 483	 1492339615	 320402670	 161813.
10:46:55  483 484	 1492339615	 453329749	 132927.
10:46:55  484 485	 1492339615	 619257595	 165928.
10:46:55  485 486	 1492339615	 780855294	 161598.
10:46:55  486 487	 1492339615	 946805287	 165950.
10:46:56  487 488	 1492339616	 108653773	 161849.
10:46:56  488 489	 1492339616	 246004800	 137350.
10:46:56  489 490	 1492339616	 407705947	 161702.
10:46:56  490 491	 1492339616	 569680052	 161974.
10:46:56  491 492	 1492339616	 735666424	 165986.
10:46:56  492 493	 1492339616	 898031777	 162365.
10:46:57  493 494	 1492339617	 35324079	 137293.
10:46:57  494 495	 1492339617	 197553684	 162229.
10:46:57  495 496	 1492339617	 359368582	 161815.
10:46:57  496 497	 1492339617	 525034504	 165666.
10:46:57  497 498	 1492339617	 686608288	 161574.
10:46:57  498 499	 1492339617	 823430664	 136822.
10:46:57  499 500	 1492339617	 985114115	 161684.
10:46:58  500 501	 1492339618	 150783733	 165669.
10:46:58  501 502	 1492339618	 312579438	 161796.
10:46:58  502 503	 1492339618	 445457733	 132878.
10:46:58  503 504	 1492339618	 611094589	 165637.
10:46:58  504 505	 1492339618	 772815816	 161722.
10:46:58  505 506	 1492339618	 938331954	 165516.
10:46:59  506 507	 1492339619	 71221295	 132889.
10:46:59  507 508	 1492339619	 237180341	 165959.
10:46:59  508 509	 1492339619	 398873093	 161693.
10:46:59  509 510	 1492339619	 560962172	 162089.
10:46:59  510 511	 1492339619	 726638467	 165676.
10:46:59  511 512	 1492339619	 888590336	 161952.
10:47:00  512 513	 1492339620	 25313730	 136723.
10:47:00  513 514	 1492339620	 186899133	 161586.
10:47:00  514 515	 1492339620	 348578904	 161680.
10:47:00  515 516	 1492339620	 514581660	 166002.
10:47:00  516 517	 1492339620	 676322247	 161741.
10:47:00  517 518	 1492339620	 838053939	 161732.
10:47:01  518 519	 1492339621	 3751355	 165697.
10:47:01  519 520	 1492339621	 164929065	 161178.
10:47:01  520 521	 1492339621	 297785426	 132856.
10:47:01  521 522	 1492339621	 463309251	 165524.
10:47:01  522 523	 1492339621	 624997039	 161688.
10:47:01  523 524	 1492339621	 790381976	 165385.
10:47:01  524 525	 1492339621	 952285809	 161904.
10:47:02  525 526	 1492339622	 113859262	 161573.
10:47:02  526 527	 1492339622	 250668991	 136810.
10:47:02  527 528	 1492339622	 412214294	 161545.
10:47:02  528 529	 1492339622	 573934379	 161720.
10:47:02  529 530	 1492339622	 739312015	 165378.
10:47:02  530 531	 1492339622	 900674728	 161362.
10:47:03  531 532	 1492339623	 62271301	 161597.
10:47:03  532 533	 1492339623	 199275875	 137005.
10:47:03  533 534	 1492339623	 360849339	 161573.
10:47:03  534 535	 1492339623	 522410977	 161562.
10:47:03  535 536	 1492339623	 688050074	 165639.
10:47:03  536 537	 1492339623	 849537839	 161488.
10:47:04  537 538	 1492339624	 15040886	 165503.
10:47:04  538 539	 1492339624	 147887168	 132846.
10:47:04  539 540	 1492339624	 309269799	 161382.
10:47:04  540 541	 1492339624	 474857046	 165588.
10:47:04  541 542	 1492339624	 636276825	 161420.
10:47:04  542 543	 1492339624	 798039765	 161762.
10:47:04  543 544	 1492339624	 935095930	 137057.
10:47:05  544 545	 1492339625	 97176085	 162080.
10:47:05  545 546	 1492339625	 263072117	 165896.
10:47:05  546 547	 1492339625	 424892543	 161820.
10:47:05  547 548	 1492339625	 586615738	 161723.
10:47:05  548 549	 1492339625	 752451264	 165836.
10:47:05  549 550	 1492339625	 914276968	 161826.
10:47:06  550 551	 1492339626	 76077344	 161800.
10:47:06  551 552	 1492339626	 242012215	 165935.
10:47:06  552 553	 1492339626	 403783876	 161772.
10:47:06  553 554	 1492339626	 569936554	 166152.
10:47:06  554 555	 1492339626	 731703290	 161767.
10:47:06  555 556	 1492339626	 897588815	 165886.
10:47:07  556 557	 1492339627	 30788249	 133199.
10:47:07  557 558	 1492339627	 192789442	 162001.
10:47:07  558 559	 1492339627	 354454459	 161665.
10:47:07  559 560	 1492339627	 520135421	 165681.
10:47:07  560 561	 1492339627	 681720741	 161585.
10:47:07  561 562	 1492339627	 846479383	 164759.
10:47:07  562 563	 1492339627	 979271329	 132792.
10:47:08  563 564	 1492339628	 140914345	 161643.
10:47:08  564 565	 1492339628	 306914757	 166000.
10:47:08  565 566	 1492339628	 468604340	 161690.
10:47:08  566 567	 1492339628	 634508490	 165904.
10:47:08  567 568	 1492339628	 767864191	 133356.
10:47:08  568 569	 1492339628	 933466847	 165603.
10:47:09  569 570	 1492339629	 95454687	 161987.
10:47:09  570 571	 1492339629	 261107141	 165653.
10:47:09  571 572	 1492339629	 394008397	 132901.
10:47:09  572 573	 1492339629	 559991103	 165983.
10:47:09  573 574	 1492339629	 721607470	 161616.
10:47:09  574 575	 1492339629	 887875313	 166268.
10:47:10  575 576	 1492339630	 50116150	 162241.
10:47:10  576 577	 1492339630	 216142663	 166026.
10:47:10  577 578	 1492339630	 378300648	 162158.
10:47:10  578 579	 1492339630	 511299983	 133000.
10:47:10  579 580	 1492339630	 677545267	 166245.
10:47:10  580 581	 1492339630	 839346606	 161801.
10:47:11  581 582	 1492339631	 5082808	 165737.
10:47:11  582 583	 1492339631	 166789755	 161706.
10:47:11  583 584	 1492339631	 303532724	 136743.
10:47:11  584 585	 1492339631	 464731202	 161199.
10:47:11  585 586	 1492339631	 630288674	 165557.
10:47:11  586 587	 1492339631	 792058790	 161770.
10:47:11  587 588	 1492339631	 924995342	 132937.
10:47:12  588 589	 1492339632	 90631501	 165636.
10:47:12  589 590	 1492339632	 252359445	 161728.
10:47:12  590 591	 1492339632	 417863222	 165504.
10:47:12  591 592	 1492339632	 550934638	 133071.
10:47:12  592 593	 1492339632	 716284515	 165350.
10:47:12  593 594	 1492339632	 877795127	 161511.
10:47:13  594 595	 1492339633	 10349570	 132554.
10:47:13  595 596	 1492339633	 175998954	 165650.
10:47:13  596 597	 1492339633	 337495915	 161497.
10:47:13  597 598	 1492339633	 503317815	 165822.
10:47:13  598 599	 1492339633	 664906993	 161589.
10:47:13  599 600	 1492339633	 801429767	 136522.
10:47:13  600 601	 1492339633	 963025405	 161596.
10:47:14  601 602	 1492339634	 120989506	 157964.
10:47:14  602 603	 1492339634	 257827780	 136838.
10:47:14  603 604	 1492339634	 419272215	 161445.
10:47:14  604 605	 1492339634	 585130772	 165858.
10:47:14  605 606	 1492339634	 746676314	 161546.
10:47:14  606 607	 1492339634	 879770317	 133094.
10:47:15  607 608	 1492339635	 45709893	 165940.
10:47:15  608 609	 1492339635	 207524179	 161814.
10:47:15  609 610	 1492339635	 373303494	 165779.
10:47:15  610 611	 1492339635	 534486720	 161183.
10:47:15  611 612	 1492339635	 671646085	 137160.
10:47:15  612 613	 1492339635	 833690962	 162045.
10:47:15  613 614	 1492339635	 995749983	 162059.
10:47:16  614 615	 1492339636	 161269638	 165519.
10:47:16  615 616	 1492339636	 294295299	 133026.
10:47:16  616 617	 1492339636	 460078509	 165783.
10:47:16  617 618	 1492339636	 621771487	 161693.
10:47:16  618 619	 1492339636	 783866269	 162095.
10:47:16  619 620	 1492339636	 949806249	 165940.
10:47:17  620 621	 1492339637	 82870042	 133064.
10:47:17  621 622	 1492339637	 248445327	 165575.
10:47:17  622 623	 1492339637	 410192445	 161747.
10:47:17  623 624	 1492339637	 576021310	 165829.
10:47:17  624 625	 1492339637	 709185087	 133164.
10:47:17  625 626	 1492339637	 870671017	 161486.
10:47:18  626 627	 1492339638	 36321947	 165651.
10:47:18  627 628	 1492339638	 198367948	 162046.
10:47:18  628 629	 1492339638	 364365945	 165998.
10:47:18  629 630	 1492339638	 497509669	 133143.
10:47:18  630 631	 1492339638	 659508770	 161999.
10:47:18  631 632	 1492339638	 825688970	 166181.
10:47:18  632 633	 1492339638	 987663575	 161974.
10:47:19  633 634	 1492339639	 153364610	 165701.
10:47:19  634 635	 1492339639	 315611840	 162248.
10:47:19  635 636	 1492339639	 452820449	 137208.
10:47:19  636 637	 1492339639	 614801172	 161981.
10:47:19  637 638	 1492339639	 780753096	 165952.
10:47:19  638 639	 1492339639	 942780678	 162027.
10:47:20  639 640	 1492339640	 108641510	 165861.
10:47:20  640 641	 1492339640	 241739584	 133098.
10:47:20  641 642	 1492339640	 407589099	 165850.
10:47:20  642 643	 1492339640	 569535238	 161946.
10:47:20  643 644	 1492339640	 735002726	 165467.
10:47:20  644 645	 1492339640	 868212128	 133210.
10:47:21  645 646	 1492339641	 29834083	 161622.
10:47:21  646 647	 1492339641	 195383317	 165549.
10:47:21  647 648	 1492339641	 328067070	 132684.
10:47:21  648 649	 1492339641	 493519748	 165452.
10:47:21  649 650	 1492339641	 655137047	 161618.
10:47:21  650 651	 1492339641	 816894373	 161757.
10:47:21  651 652	 1492339641	 982814664	 165920.
10:47:22  652 653	 1492339642	 115533231	 132719.
10:47:22  653 654	 1492339642	 281820508	 166287.
10:47:22  654 655	 1492339642	 443694698	 161874.
10:47:22  655 656	 1492339642	 609571529	 165877.
10:47:22  656 657	 1492339642	 742648084	 133077.
10:47:22  657 658	 1492339642	 907953206	 165305.
10:47:23  658 659	 1492339643	 69533464	 161580.
10:47:23  659 660	 1492339643	 235216026	 165683.
10:47:23  660 661	 1492339643	 367923864	 132708.
10:47:23  661 662	 1492339643	 533668812	 165744.
10:47:23  662 663	 1492339643	 695224155	 161556.
10:47:23  663 664	 1492339643	 831974660	 136750.
10:47:23  664 665	 1492339643	 994102359	 162128.
10:47:24  665 666	 1492339644	 159544005	 165442.
10:47:24  666 667	 1492339644	 320956465	 161412.
10:47:24  667 668	 1492339644	 453318768	 132362.
10:47:24  668 669	 1492339644	 619248111	 165930.
10:47:24  669 670	 1492339644	 781139545	 161891.
10:47:24  670 671	 1492339644	 946883201	 165744.
10:47:25  671 672	 1492339645	 105006398	 158123.
10:47:25  672 673	 1492339645	 242161823	 137156.
10:47:25  673 674	 1492339645	 403940313	 161778.
10:47:25  674 675	 1492339645	 570039937	 166100.
10:47:25  675 676	 1492339645	 732123804	 162083.
10:47:25  676 677	 1492339645	 869186003	 137063.
10:47:26  677 678	 1492339646	 31081551	 161895.
10:47:26  678 679	 1492339646	 196814239	 165733.
10:47:26  679 680	 1492339646	 358473986	 161660.
10:47:26  680 681	 1492339646	 520238765	 161764.
10:47:26  681 682	 1492339646	 657433881	 137196.
10:47:26  682 683	 1492339646	 819002928	 161569.
10:47:26  683 684	 1492339646	 980165851	 161163.
10:47:27  684 685	 1492339647	 145680806	 165515.
10:47:27  685 686	 1492339647	 307043436	 161362.
10:47:27  686 687	 1492339647	 443911557	 136868.
10:47:27  687 688	 1492339647	 605671393	 161760.
10:47:27  688 689	 1492339647	 767380194	 161709.
10:47:27  689 690	 1492339647	 932966836	 165587.
10:47:28  690 691	 1492339648	 94427484	 161460.
10:47:28  691 692	 1492339648	 231472159	 137045.
10:47:28  692 693	 1492339648	 393251371	 161779.
10:47:28  693 694	 1492339648	 559157467	 165906.
10:47:28  694 695	 1492339648	 720528754	 161371.
10:47:28  695 696	 1492339648	 857300535	 136772.
10:47:29  696 697	 1492339649	 18763116	 161463.
10:47:29  697 698	 1492339649	 180133937	 161371.
10:47:29  698 699	 1492339649	 316854861	 136721.
10:47:29  699 700	 1492339649	 477896478	 161041.
10:47:29  700 701	 1492339649	 638885901	 160990.
10:47:29  701 702	 1492339649	 803870189	 164984.
10:47:29  702 703	 1492339649	 936670537	 132800.
10:47:30  703 704	 1492339650	 101605752	 164935.
10:47:30  704 705	 1492339650	 262661582	 161056.
10:47:30  705 706	 1492339650	 423847292	 161186.
10:47:30  706 707	 1492339650	 556347372	 132500.
10:47:30  707 708	 1492339650	 722073562	 165726.
10:47:30  708 709	 1492339650	 883364583	 161291.
10:47:31  709 710	 1492339651	 48739730	 165375.
10:47:31  710 711	 1492339651	 210001236	 161262.
10:47:31  711 712	 1492339651	 342156760	 132155.
10:47:31  712 713	 1492339651	 507236439	 165080.
10:47:31  713 714	 1492339651	 668455518	 161219.
10:47:31  714 715	 1492339651	 829741413	 161286.
10:47:31  715 716	 1492339651	 966886911	 137146.
10:47:32  716 717	 1492339652	 128660325	 161773.
10:47:32  717 718	 1492339652	 294483328	 165823.
10:47:32  718 719	 1492339652	 456364917	 161882.
10:47:32  719 720	 1492339652	 593784209	 137419.
10:47:32  720 721	 1492339652	 755727153	 161943.
10:47:32  721 722	 1492339652	 921247645	 165520.
10:47:33  722 723	 1492339653	 82979161	 161732.
10:47:33  723 724	 1492339653	 219691547	 136712.
10:47:33  724 725	 1492339653	 381575147	 161884.
10:47:33  725 726	 1492339653	 543322618	 161747.
10:47:33  726 727	 1492339653	 709223393	 165901.
10:47:33  727 728	 1492339653	 871022001	 161799.
10:47:34  728 729	 1492339654	 8027195	 137005.
10:47:34  729 730	 1492339654	 169471350	 161444.
10:47:34  730 731	 1492339654	 334965123	 165494.
10:47:34  731 732	 1492339654	 496550034	 161585.
10:47:34  732 733	 1492339654	 658102959	 161553.
10:47:34  733 734	 1492339654	 823816626	 165713.
10:47:34  734 735	 1492339654	 956733827	 132918.
10:47:35  735 736	 1492339655	 118339434	 161605.
10:47:35  736 737	 1492339655	 284150420	 165811.
10:47:35  737 738	 1492339655	 445743102	 161593.
10:47:35  738 739	 1492339655	 606952784	 161209.
10:47:35  739 740	 1492339655	 772397339	 165445.
10:47:35  740 741	 1492339655	 933835279	 161438.
10:47:36  741 742	 1492339656	 91751443	 157916.
10:47:36  742 743	 1492339656	 228884293	 137133.
10:47:36  743 744	 1492339656	 390355952	 161472.
10:47:36  744 745	 1492339656	 551675179	 161319.
10:47:36  745 746	 1492339656	 717046981	 165372.
10:47:36  746 747	 1492339656	 878379531	 161332.
10:47:37  747 748	 1492339657	 11149762	 132770.
10:47:37  748 749	 1492339657	 176746574	 165597.
10:47:37  749 750	 1492339657	 338573594	 161827.
10:47:37  750 751	 1492339657	 500534265	 161961.
10:47:37  751 752	 1492339657	 666647436	 166113.
10:47:37  752 753	 1492339657	 827987830	 161341.
10:47:37  753 754	 1492339657	 965115441	 137127.
10:47:38  754 755	 1492339658	 126961110	 161846.
10:47:38  755 756	 1492339658	 288834205	 161873.
10:47:38  756 757	 1492339658	 454662651	 165828.
10:47:38  757 758	 1492339658	 616400995	 161739.
10:47:38  758 759	 1492339658	 753567815	 137167.
10:47:38  759 760	 1492339658	 914921133	 161353.
10:47:39  760 761	 1492339659	 80623570	 165702.
10:47:39  761 762	 1492339659	 242465501	 161842.
10:47:39  762 763	 1492339659	 379391327	 136926.
10:47:39  763 764	 1492339659	 540675015	 161284.
10:47:39  764 765	 1492339659	 702294668	 161619.
10:47:39  765 766	 1492339659	 868073370	 165779.
10:47:39  766 767	 1492339660	 1182277	 133109.
10:47:40  767 768	 1492339660	 167121262	 165939.
10:47:40  768 769	 1492339660	 328828642	 161707.
10:47:40  769 770	 1492339660	 490490385	 161662.
10:47:40  770 771	 1492339660	 656232723	 165742.
10:47:40  771 772	 1492339660	 817671599	 161439.
10:47:40  772 773	 1492339660	 979456218	 161785.
10:47:41  773 774	 1492339661	 112449625	 132993.
10:47:41  774 775	 1492339661	 278216356	 165767.
10:47:41  775 776	 1492339661	 439439458	 161223.
10:47:41  776 777	 1492339661	 601154105	 161715.
10:47:41  777 778	 1492339661	 767016496	 165862.
10:47:41  778 779	 1492339661	 900105110	 133089.
10:47:42  779 780	 1492339662	 65808093	 165703.
10:47:42  780 781	 1492339662	 227310853	 161503.
10:47:42  781 782	 1492339662	 388938884	 161628.
10:47:42  782 783	 1492339662	 554173592	 165234.
10:47:42  783 784	 1492339662	 687052467	 132879.
10:47:42  784 785	 1492339662	 852584848	 165533.
10:47:43  785 786	 1492339663	 13780172	 161195.
10:47:43  786 787	 1492339663	 179111266	 165331.
10:47:43  787 788	 1492339663	 340788841	 161678.
10:47:43  788 789	 1492339663	 473767367	 132978.
10:47:43  789 790	 1492339663	 639506007	 165739.
10:47:43  790 791	 1492339663	 805531520	 166025.
10:47:43  791 792	 1492339663	 967667525	 162136.
10:47:44  792 793	 1492339664	 133589612	 165922.
10:47:44  793 794	 1492339664	 266357621	 132768.
10:47:44  794 795	 1492339664	 431777523	 165420.
10:47:44  795 796	 1492339664	 592969454	 161192.
10:47:44  796 797	 1492339664	 730054070	 137085.
10:47:44  797 798	 1492339664	 891487167	 161433.
10:47:45  798 799	 1492339665	 57394194	 165907.
10:47:45  799 800	 1492339665	 218891905	 161498.
10:47:45  800 801	 1492339665	 355725982	 136834.
10:47:45  801 802	 1492339665	 517407692	 161681.
10:47:45  802 803	 1492339665	 682788127	 165381.
10:47:45  803 804	 1492339665	 844294238	 161506.
10:47:45  804 805	 1492339665	 981026024	 136732.
10:47:46  805 806	 1492339666	 142712777	 161687.
10:47:46  806 807	 1492339666	 307873392	 165160.
10:47:46  807 808	 1492339666	 469574781	 161701.
10:47:46  808 809	 1492339666	 631323126	 161749.
10:47:46  809 810	 1492339666	 768336158	 137013.
10:47:46  810 811	 1492339666	 930179074	 161843.
10:47:47  811 812	 1492339667	 91599313	 161420.
10:47:47  812 813	 1492339667	 256956357	 165357.
10:47:47  813 814	 1492339667	 418236244	 161280.
10:47:47  814 815	 1492339667	 551238440	 133002.
10:47:47  815 816	 1492339667	 716786677	 165548.
10:47:47  816 817	 1492339667	 878455748	 161669.
10:47:48  817 818	 1492339668	 40148570	 161693.
10:47:48  818 819	 1492339668	 205792463	 165644.
10:47:48  819 820	 1492339668	 367194759	 161402.
10:47:48  820 821	 1492339668	 500501857	 133308.
10:47:48  821 822	 1492339668	 666401660	 165899.
10:47:48  822 823	 1492339668	 828118570	 161717.
10:47:48  823 824	 1492339668	 993925062	 165807.
10:47:49  824 825	 1492339669	 155743183	 161818.
10:47:49  825 826	 1492339669	 317503509	 161760.
10:47:49  826 827	 1492339669	 483094626	 165591.
10:47:49  827 828	 1492339669	 644754853	 161661.
10:47:49  828 829	 1492339669	 806527392	 161772.
10:47:49  829 830	 1492339669	 943587559	 137060.
10:47:50  830 831	 1492339670	 105283979	 161697.
10:47:50  831 832	 1492339670	 271009368	 165725.
10:47:50  832 833	 1492339670	 432761814	 161753.
10:47:50  833 834	 1492339670	 598576857	 165815.
10:47:50  834 835	 1492339670	 731319597	 132742.
10:47:50  835 836	 1492339670	 897271160	 165952.
10:47:51  836 837	 1492339671	 59073701	 161802.
10:47:51  837 838	 1492339671	 220258296	 161185.
10:47:51  838 839	 1492339671	 357197050	 136939.
10:47:51  839 840	 1492339671	 518443711	 161246.
10:47:51  840 841	 1492339671	 683873790	 165430.
10:47:51  841 842	 1492339671	 816507158	 132634.
10:47:51  842 843	 1492339671	 982306914	 165800.
10:47:52  843 844	 1492339672	 139882428	 157575.
10:47:52  844 845	 1492339672	 272815779	 132933.
10:47:52  845 846	 1492339672	 438488551	 165673.
10:47:52  846 847	 1492339672	 599933683	 161445.
10:47:52  847 848	 1492339672	 765193494	 165260.
10:47:52  848 849	 1492339672	 897745630	 132552.
10:47:53  849 850	 1492339673	 63118552	 165373.
10:47:53  850 851	 1492339673	 224668064	 161550.
10:47:53  851 852	 1492339673	 357513727	 132845.
10:47:53  852 853	 1492339673	 522799870	 165287.
10:47:53  853 854	 1492339673	 684588521	 161788.
10:47:53  854 855	 1492339673	 817520535	 132932.
10:47:53  855 856	 1492339673	 983079805	 165560.
10:47:54  856 857	 1492339674	 144565866	 161486.
10:47:54  857 858	 1492339674	 281375120	 136809.
10:47:54  858 859	 1492339674	 443220808	 161845.
10:47:54  859 860	 1492339674	 608985607	 165765.
10:47:54  860 861	 1492339674	 770777146	 161792.
10:47:54  861 862	 1492339674	 907504065	 136727.
10:47:55  862 863	 1492339675	 69087728	 161583.
10:47:55  863 864	 1492339675	 235254299	 166167.
10:47:55  864 865	 1492339675	 397227615	 161973.
10:47:55  865 866	 1492339675	 559193690	 161969.
10:47:55  866 867	 1492339675	 696190282	 136994.
10:47:55  867 868	 1492339675	 857801125	 161611.
10:47:56  868 869	 1492339676	 23617752	 165816.
10:47:56  869 870	 1492339676	 185462670	 161845.
10:47:56  870 871	 1492339676	 322607891	 137146.
10:47:56  871 872	 1492339676	 484434743	 161826.
10:47:56  872 873	 1492339676	 650668487	 166234.
10:47:56  873 874	 1492339676	 812374389	 161706.
10:47:56  874 875	 1492339676	 978202965	 165829.
10:47:57  875 876	 1492339677	 115537599	 137334.
10:47:57  876 877	 1492339677	 277899663	 162362.
10:47:57  877 878	 1492339677	 444049958	 166151.
10:47:57  878 879	 1492339677	 605844463	 161794.
10:47:57  879 880	 1492339677	 771410621	 165566.
10:47:57  880 881	 1492339677	 904439396	 133029.
10:47:58  881 882	 1492339678	 70213504	 165774.
10:47:58  882 883	 1492339678	 231708732	 161495.
10:47:58  883 884	 1492339678	 393460427	 161752.
10:47:58  884 885	 1492339678	 530486543	 137026.
10:47:58  885 886	 1492339678	 692083569	 161597.
10:47:58  886 887	 1492339678	 857451548	 165368.
10:47:59  887 888	 1492339679	 19145753	 161694.
10:47:59  888 889	 1492339679	 156363234	 137218.
10:47:59  889 890	 1492339679	 317904742	 161541.
10:47:59  890 891	 1492339679	 483496663	 165592.
10:47:59  891 892	 1492339679	 645212434	 161716.
10:47:59  892 893	 1492339679	 781888278	 136676.
10:47:59  893 894	 1492339679	 943073600	 161185.
10:48:00  894 895	 1492339680	 104919520	 161846.
10:48:00  895 896	 1492339680	 270455181	 165536.
10:48:00  896 897	 1492339680	 432039464	 161584.
10:48:00  897 898	 1492339680	 597777485	 165738.
10:48:00  898 899	 1492339680	 730829102	 133052.
10:48:00  899 900	 1492339680	 892494695	 161665.
10:48:01  900 901	 1492339681	 58127297	 165633.
10:48:01  901 902	 1492339681	 219629374	 161502.
10:48:01  902 903	 1492339681	 381080640	 161451.
10:48:01  903 904	 1492339681	 546767429	 165687.
10:48:01  904 905	 1492339681	 708412338	 161645.
10:48:01  905 906	 1492339681	 870251109	 161839.
10:48:02  906 907	 1492339682	 32182920	 161932.
10:48:02  907 908	 1492339682	 169047713	 136864.
10:48:02  908 909	 1492339682	 330247175	 161200.
10:48:02  909 910	 1492339682	 491657012	 161410.
10:48:02  910 911	 1492339682	 653239897	 161583.
10:48:02  911 912	 1492339682	 818718420	 165478.
10:48:02  912 913	 1492339682	 951652164	 132934.
10:48:03  913 914	 1492339683	 118098102	 166446.
10:48:03  914 915	 1492339683	 275850589	 157752.
10:48:03  915 916	 1492339683	 437261683	 161411.
10:48:03  916 917	 1492339683	 598756412	 161495.
10:48:03  917 918	 1492339683	 764365744	 165609.
10:48:03  918 919	 1492339683	 925818429	 161453.
10:48:04  919 920	 1492339684	 91284587	 165466.
10:48:04  920 921	 1492339684	 224258673	 132974.
10:48:04  921 922	 1492339684	 385396395	 161138.
10:48:04  922 923	 1492339684	 550891164	 165495.
10:48:04  923 924	 1492339684	 712294528	 161403.
10:48:04  924 925	 1492339684	 877789942	 165496.
10:48:05  925 926	 1492339685	 10696921	 132907.
10:48:05  926 927	 1492339685	 172111822	 161415.
10:48:05  927 928	 1492339685	 337559859	 165448.
10:48:05  928 929	 1492339685	 499031186	 161471.
10:48:05  929 930	 1492339685	 664240021	 165209.
10:48:05  930 931	 1492339685	 796843795	 132603.
10:48:05  931 932	 1492339685	 962385629	 165542.
10:48:06  932 933	 1492339686	 124024562	 161639.
10:48:06  933 934	 1492339686	 289706186	 165682.
10:48:06  934 935	 1492339686	 451110424	 161404.
10:48:06  935 936	 1492339686	 587979985	 136870.
10:48:06  936 937	 1492339686	 749477263	 161497.
10:48:06  937 938	 1492339686	 911114200	 161637.
10:48:07  938 939	 1492339687	 47760166	 136646.
10:48:07  939 940	 1492339687	 209700312	 161940.
10:48:07  940 941	 1492339687	 375388122	 165688.
10:48:07  941 942	 1492339687	 536938104	 161550.
10:48:07  942 943	 1492339687	 702628083	 165690.
10:48:07  943 944	 1492339687	 835539688	 132911.
10:48:07  944 945	 1492339688	 1140182	 165601.
10:48:08  945 946	 1492339688	 163229965	 162090.
10:48:08  946 947	 1492339688	 328980309	 165750.
10:48:08  947 948	 1492339688	 490531873	 161552.
10:48:08  948 949	 1492339688	 623541379	 133009.
10:48:08  949 950	 1492339688	 789058183	 165517.
10:48:08  950 951	 1492339688	 950418398	 161360.
10:48:09  951 952	 1492339689	 87684655	 137266.
10:48:09  952 953	 1492339689	 249195832	 161512.
10:48:09  953 954	 1492339689	 414894836	 165699.
10:48:09  954 955	 1492339689	 575956939	 161062.
10:48:09  955 956	 1492339689	 713174991	 137218.
10:48:09  956 957	 1492339689	 874461959	 161287.
10:48:10  957 958	 1492339690	 39803841	 165342.
10:48:10  958 959	 1492339690	 201910250	 162106.
10:48:10  959 960	 1492339690	 368398886	 166489.
10:48:10  960 961	 1492339690	 501076762	 132677.
10:48:10  961 962	 1492339690	 663116877	 162041.
10:48:10  962 963	 1492339690	 828888774	 165771.
10:48:10  963 964	 1492339690	 990431048	 161543.
10:48:11  964 965	 1492339691	 127557248	 137126.
10:48:11  965 966	 1492339691	 289201848	 161645.
10:48:11  966 967	 1492339691	 454656104	 165454.
10:48:11  967 968	 1492339691	 616287807	 161632.
10:48:11  968 969	 1492339691	 748972374	 132684.
10:48:11  969 970	 1492339691	 914686432	 165714.
10:48:12  970 971	 1492339692	 76325745	 161640.
10:48:12  971 972	 1492339692	 241765710	 165439.
10:48:12  972 973	 1492339692	 403545710	 161780.
10:48:12  973 974	 1492339692	 540354180	 136809.
10:48:12  974 975	 1492339692	 701850576	 161496.
10:48:12  975 976	 1492339692	 867359467	 165509.
10:48:12  976 977	 1492339693	 242444	 132883.
10:48:13  977 978	 1492339693	 161901762	 161659.
10:48:13  978 979	 1492339693	 327337777	 165436.
10:48:13  979 980	 1492339693	 493196465	 165859.
10:48:13  980 981	 1492339693	 626122298	 132926.
10:48:13  981 982	 1492339693	 787985017	 161863.
10:48:13  982 983	 1492339693	 953866901	 165882.
10:48:14  983 984	 1492339694	 119335264	 165468.
10:48:14  984 985	 1492339694	 252236421	 132901.
10:48:14  985 986	 1492339694	 413761895	 161526.
10:48:14  986 987	 1492339694	 579131898	 165370.
10:48:14  987 988	 1492339694	 712096339	 132964.
10:48:14  988 989	 1492339694	 877747648	 165651.
10:48:15  989 990	 1492339695	 39309614	 161562.
10:48:15  990 991	 1492339695	 205027281	 165718.
10:48:15  991 992	 1492339695	 337752891	 132726.
10:48:15  992 993	 1492339695	 499529781	 161776.
10:48:15  993 994	 1492339695	 665137767	 165608.
10:48:15  994 995	 1492339695	 798136309	 132999.
10:48:15  995 996	 1492339695	 964194181	 166058.
10:48:16  996 997	 1492339696	 125441222	 161247.
10:48:16  997 998	 1492339696	 290801499	 165360.
10:48:16  998 999	 1492339696	 423681065	 132880.
10:48:16  999 1000	 1492339696	 589441117	 165760.
10:48:16 1000 1001	 1492339696	 751313986	 161873.
10:48:16 1001 1002	 1492339696	 917032964	 165719.
10:48:17 1002 1003	 1492339697	 78765040	 161732.
10:48:17 1003 1004	 1492339697	 212009627	 133244.
10:48:17 1004 1005	 1492339697	 377704821	 165696.
10:48:17 1005 1006	 1492339697	 539439761	 161734.
10:48:17 1006 1007	 1492339697	 705305710	 165866.
10:48:17 1007 1008	 1492339697	 838452775	 133147.
10:48:17 1008 1009	 1492339698	 492092	 162040.
10:48:18 1009 1010	 1492339698	 166644540	 166152.
10:48:18 1010 1011	 1492339698	 328691707	 162047.
10:48:18 1011 1012	 1492339698	 494844019	 166153.
10:48:18 1012 1013	 1492339698	 656885691	 162041.
10:48:18 1013 1014	 1492339698	 794028576	 137143.
10:48:18 1014 1015	 1492339698	 955935377	 161907.
10:48:19 1015 1016	 1492339699	 122052911	 166118.
10:48:19 1016 1017	 1492339699	 283865642	 161812.
10:48:19 1017 1018	 1492339699	 449543189	 165678.
10:48:19 1018 1019	 1492339699	 582516507	 132973.
10:48:19 1019 1020	 1492339699	 743956455	 161440.
10:48:19 1020 1021	 1492339699	 902152946	 158197.
10:48:20 1021 1022	 1492339700	 67518626	 165365.
10:48:20 1022 1023	 1492339700	 200502634	 132984.
10:48:20 1023 1024	 1492339700	 366274438	 165772.
10:48:20 1024 1025	 1492339700	 527933428	 161659.
10:48:20 1025 1026	 1492339700	 693716529	 165783.
10:48:20 1026 1027	 1492339700	 826093108	 132377.
10:48:20 1027 1028	 1492339700	 991565599	 165472.
10:48:21 1028 1029	 1492339701	 152917250	 161352.
10:48:21 1029 1030	 1492339701	 285931401	 133014.
10:48:21 1030 1031	 1492339701	 451564219	 165633.
10:48:21 1031 1032	 1492339701	 613115980	 161552.
10:48:21 1032 1033	 1492339701	 778612937	 165497.
10:48:21 1033 1034	 1492339701	 911504647	 132891.
10:48:22 1034 1035	 1492339702	 72781989	 161278.
10:48:22 1035 1036	 1492339702	 238554495	 165772.
10:48:22 1036 1037	 1492339702	 399967307	 161413.
10:48:22 1037 1038	 1492339702	 536823251	 136856.
10:48:22 1038 1039	 1492339702	 698204871	 161382.
10:48:22 1039 1040	 1492339702	 859993760	 161788.
10:48:23 1040 1041	 1492339703	 25311352	 165318.
10:48:23 1041 1042	 1492339703	 157910268	 132599.
10:48:23 1042 1043	 1492339703	 319389608	 161479.
10:48:23 1043 1044	 1492339703	 485059988	 165671.
10:48:23 1044 1045	 1492339703	 646732131	 161672.
10:48:23 1045 1046	 1492339703	 779893525	 133161.
10:48:23 1046 1047	 1492339703	 945746910	 165854.
10:48:24 1047 1048	 1492339704	 111398718	 165651.
10:48:24 1048 1049	 1492339704	 272881665	 161483.
10:48:24 1049 1050	 1492339704	 405813474	 132932.
10:48:24 1050 1051	 1492339704	 571593111	 165780.
10:48:24 1051 1052	 1492339704	 733481547	 161888.
10:48:24 1052 1053	 1492339704	 898845065	 165364.
10:48:25 1053 1054	 1492339705	 31727244	 132882.
10:48:25 1054 1055	 1492339705	 197287029	 165560.
10:48:25 1055 1056	 1492339705	 359213210	 161926.
10:48:25 1056 1057	 1492339705	 525327331	 166114.
10:48:25 1057 1058	 1492339705	 687161251	 161834.
10:48:25 1058 1059	 1492339705	 824202899	 137042.
10:48:25 1059 1060	 1492339705	 985834874	 161632.
10:48:26 1060 1061	 1492339706	 151564442	 165729.
10:48:26 1061 1062	 1492339706	 313088009	 161524.
10:48:26 1062 1063	 1492339706	 446007995	 132920.
10:48:26 1063 1064	 1492339706	 611624823	 165617.
10:48:26 1064 1065	 1492339706	 776952221	 165327.
10:48:26 1065 1066	 1492339706	 938606514	 161654.
10:48:27 1066 1067	 1492339707	 75855387	 137249.
10:48:27 1067 1068	 1492339707	 237862354	 162007.
10:48:27 1068 1069	 1492339707	 399496102	 161634.
10:48:27 1069 1070	 1492339707	 564860591	 165364.
10:48:27 1070 1071	 1492339707	 698130534	 133270.
10:48:27 1071 1072	 1492339707	 863972551	 165842.
10:48:28 1072 1073	 1492339708	 25534526	 161562.
10:48:28 1073 1074	 1492339708	 191631681	 166097.
10:48:28 1074 1075	 1492339708	 324395865	 132765.
10:48:28 1075 1076	 1492339708	 489996521	 165600.
10:48:28 1076 1077	 1492339708	 651523160	 161527.
10:48:28 1077 1078	 1492339708	 817101747	 165578.
10:48:28 1078 1079	 1492339708	 949849981	 132749.
10:48:29 1079 1080	 1492339709	 115310597	 165460.
10:48:29 1080 1081	 1492339709	 276713315	 161403.
10:48:29 1081 1082	 1492339709	 413356763	 136643.
10:48:29 1082 1083	 1492339709	 574617552	 161261.
10:48:29 1083 1084	 1492339709	 739965001	 165348.
10:48:29 1084 1085	 1492339709	 872560189	 132595.
10:48:30 1085 1086	 1492339710	 38379261	 165819.
10:48:30 1086 1087	 1492339710	 199912359	 161533.
10:48:30 1087 1088	 1492339710	 336642497	 136730.
10:48:30 1088 1089	 1492339710	 497881044	 161239.
10:48:30 1089 1090	 1492339710	 664001111	 166120.
10:48:30 1090 1091	 1492339710	 825432223	 161431.
10:48:30 1091 1092	 1492339710	 958379438	 132947.
10:48:31 1092 1093	 1492339711	 123837975	 165459.
10:48:31 1093 1094	 1492339711	 285277018	 161439.
10:48:31 1094 1095	 1492339711	 450709954	 165433.
10:48:31 1095 1096	 1492339711	 583389499	 132679.
10:48:31 1096 1097	 1492339711	 748666389	 165277.
10:48:31 1097 1098	 1492339711	 910695279	 162029.
10:48:32 1098 1099	 1492339712	 43559518	 132864.
10:48:32 1099 1100	 1492339712	 209547042	 165988.
10:48:32 1100 1101	 1492339712	 371340274	 161793.
10:48:32 1101 1102	 1492339712	 536730925	 165391.
10:48:32 1102 1103	 1492339712	 669730835	 133000.
10:48:32 1103 1104	 1492339712	 835206792	 165475.
10:48:32 1104 1105	 1492339712	 996683445	 161477.
10:48:33 1105 1106	 1492339713	 162189128	 165506.
10:48:33 1106 1107	 1492339713	 295300926	 133112.
10:48:33 1107 1108	 1492339713	 460846681	 165545.
10:48:33 1108 1109	 1492339713	 622551866	 161706.
10:48:33 1109 1110	 1492339713	 784762713	 162211.
10:48:33 1110 1111	 1492339713	 917718821	 132956.
10:48:34 1111 1112	 1492339714	 83304587	 165585.
10:48:34 1112 1113	 1492339714	 244902470	 161598.
10:48:34 1113 1114	 1492339714	 377429132	 132527.
10:48:34 1114 1115	 1492339714	 543574994	 166146.
10:48:34 1115 1116	 1492339714	 705071768	 161496.
10:48:34 1116 1117	 1492339714	 870226923	 165156.
10:48:34 1117 1118	 1492339715	 2953941	 132727.
10:48:35 1118 1119	 1492339715	 168386860	 165433.
10:48:35 1119 1120	 1492339715	 329913829	 161527.
10:48:35 1120 1121	 1492339715	 466864058	 136950.
10:48:35 1121 1122	 1492339715	 628175546	 161311.
10:48:35 1122 1123	 1492339715	 793690177	 165515.
10:48:35 1123 1124	 1492339715	 926216932	 132527.
10:48:36 1124 1125	 1492339716	 91408127	 165191.
10:48:36 1125 1126	 1492339716	 253191915	 161784.
10:48:36 1126 1127	 1492339716	 419277500	 166085.
10:48:36 1127 1128	 1492339716	 551918182	 132641.
10:48:36 1128 1129	 1492339716	 717366190	 165448.
10:48:36 1129 1130	 1492339716	 878998064	 161632.
10:48:37 1130 1131	 1492339717	 44674951	 165677.
10:48:37 1131 1132	 1492339717	 177504330	 132829.
10:48:37 1132 1133	 1492339717	 342492817	 164989.
10:48:37 1133 1134	 1492339717	 504131896	 161639.
10:48:37 1134 1135	 1492339717	 640771680	 136639.
10:48:37 1135 1136	 1492339717	 801809485	 161038.
10:48:37 1136 1137	 1492339717	 962578869	 160770.
10:48:38 1137 1138	 1492339718	 99203354	 136624.
10:48:38 1138 1139	 1492339718	 260252372	 161049.
10:48:38 1139 1140	 1492339718	 421165854	 160914.
10:48:38 1140 1141	 1492339718	 586201275	 165035.
10:48:38 1141 1142	 1492339718	 718631839	 132430.
10:48:38 1142 1143	 1492339718	 879589959	 160959.
10:48:39 1143 1144	 1492339719	 45030901	 165441.
10:48:39 1144 1145	 1492339719	 206080201	 161049.
10:48:39 1145 1146	 1492339719	 338789038	 132709.
10:48:39 1146 1147	 1492339719	 503874035	 165085.
10:48:39 1147 1148	 1492339719	 665066869	 161193.
10:48:39 1148 1149	 1492339719	 797522968	 132456.
10:48:39 1149 1150	 1492339719	 958728305	 161205.
10:48:40 1150 1151	 1492339720	 124043850	 165316.
10:48:40 1151 1152	 1492339720	 285285634	 161241.
10:48:40 1152 1153	 1492339720	 450494972	 165210.
10:48:40 1153 1154	 1492339720	 583402133	 132907.
10:48:40 1154 1155	 1492339720	 745262449	 161860.
10:48:40 1155 1156	 1492339720	 910567539	 165305.
10:48:41 1156 1157	 1492339721	 72092017	 161525.
10:48:41 1157 1158	 1492339721	 209115198	 137023.
10:48:41 1158 1159	 1492339721	 370753608	 161638.
10:48:41 1159 1160	 1492339721	 536118683	 165365.
10:48:41 1160 1161	 1492339721	 697547921	 161430.
10:48:41 1161 1162	 1492339721	 859201100	 161653.
10:48:41 1162 1163	 1492339721	 991965368	 132764.
10:48:42 1163 1164	 1492339722	 157261815	 165297.
10:48:42 1164 1165	 1492339722	 318610914	 161349.
10:48:42 1165 1166	 1492339722	 451257936	 132647.
10:48:42 1166 1167	 1492339722	 616973461	 165715.
10:48:42 1167 1168	 1492339722	 778337332	 161364.
10:48:42 1168 1169	 1492339722	 944085020	 165748.
10:48:43 1169 1170	 1492339723	 77143771	 133058.
10:48:43 1170 1171	 1492339723	 243130286	 165987.
10:48:43 1171 1172	 1492339723	 404656743	 161526.
10:48:43 1172 1173	 1492339723	 566560961	 161905.
10:48:43 1173 1174	 1492339723	 732392556	 165831.
10:48:43 1174 1175	 1492339723	 865326426	 132934.
10:48:44 1175 1176	 1492339724	 31258254	 165932.
10:48:44 1176 1177	 1492339724	 192937161	 161679.
10:48:44 1177 1178	 1492339724	 358556945	 165620.
10:48:44 1178 1179	 1492339724	 491424186	 132867.
10:48:44 1179 1180	 1492339724	 656778362	 165354.
10:48:44 1180 1181	 1492339724	 818009093	 161231.
10:48:44 1181 1182	 1492339724	 950798736	 132789.
10:48:45 1182 1183	 1492339725	 116554492	 165756.
10:48:45 1183 1184	 1492339725	 278426631	 161872.
10:48:45 1184 1185	 1492339725	 440331540	 161905.
10:48:45 1185 1186	 1492339725	 606409339	 166078.
10:48:45 1186 1187	 1492339725	 768134458	 161725.
10:48:45 1187 1188	 1492339725	 930004761	 161870.
10:48:46 1188 1189	 1492339726	 95611677	 165607.
10:48:46 1189 1190	 1492339726	 257261425	 161650.
10:48:46 1190 1191	 1492339726	 418937313	 161676.
10:48:46 1191 1192	 1492339726	 552079964	 133143.
10:48:46 1192 1193	 1492339726	 717748950	 165669.
10:48:46 1193 1194	 1492339726	 879294353	 161545.
10:48:47 1194 1195	 1492339727	 45044738	 165750.
10:48:47 1195 1196	 1492339727	 206688857	 161645.
10:48:47 1196 1197	 1492339727	 372501830	 165813.
10:48:47 1197 1198	 1492339727	 534201239	 161699.
10:48:47 1198 1199	 1492339727	 667269695	 133068.
10:48:47 1199 1200	 1492339727	 833120551	 165851.
10:48:47 1200 1201	 1492339727	 994930008	 161810.
10:48:48 1201 1202	 1492339728	 161022704	 166092.
10:48:48 1202 1203	 1492339728	 323072684	 162050.
10:48:48 1203 1204	 1492339728	 460543198	 137471.
10:48:48 1204 1205	 1492339728	 622669128	 162126.
10:48:48 1205 1206	 1492339728	 788943294	 166274.
10:48:48 1206 1207	 1492339728	 950655263	 161712.
10:48:49 1207 1208	 1492339729	 112895106	 162240.
10:48:49 1208 1209	 1492339729	 278680845	 165786.
10:48:49 1209 1210	 1492339729	 444795355	 166114.
10:48:49 1210 1211	 1492339729	 578015711	 133220.
10:48:49 1211 1212	 1492339729	 739754970	 161740.
10:48:49 1212 1213	 1492339729	 905390715	 165635.
10:48:50 1213 1214	 1492339730	 67090420	 161700.
10:48:50 1214 1215	 1492339730	 204450576	 137360.
10:48:50 1215 1216	 1492339730	 365863975	 161414.
10:48:50 1216 1217	 1492339730	 531160958	 165297.
10:48:50 1217 1218	 1492339730	 692614980	 161454.
10:48:50 1218 1219	 1492339730	 829568412	 136953.
10:48:50 1219 1220	 1492339730	 991073475	 161505.
10:48:51 1220 1221	 1492339731	 156521453	 165448.
10:48:51 1221 1222	 1492339731	 318149140	 161628.
10:48:51 1222 1223	 1492339731	 450707488	 132558.
10:48:51 1223 1224	 1492339731	 616472860	 165766.
10:48:51 1224 1225	 1492339731	 777648516	 161175.
10:48:51 1225 1226	 1492339731	 914546488	 136898.
10:48:52 1226 1227	 1492339732	 75858048	 161312.
10:48:52 1227 1228	 1492339732	 241064608	 165206.
10:48:52 1228 1229	 1492339732	 402426409	 161362.
10:48:52 1229 1230	 1492339732	 535189881	 132764.
10:48:52 1230 1231	 1492339732	 700005970	 164816.
10:48:52 1231 1232	 1492339732	 861407327	 161401.
10:48:53 1232 1233	 1492339733	 27455917	 166049.
10:48:53 1233 1234	 1492339733	 151942161	 124486.
10:48:53 1234 1235	 1492339733	 317256530	 165314.
10:48:53 1235 1236	 1492339733	 478646720	 161390.
10:48:53 1236 1237	 1492339733	 644244949	 165599.
10:48:53 1237 1238	 1492339733	 776951471	 132706.
10:48:53 1238 1239	 1492339733	 942692625	 165741.
10:48:54 1239 1240	 1492339734	 104346329	 161654.
10:48:54 1240 1241	 1492339734	 265925411	 161579.
10:48:54 1241 1242	 1492339734	 402871795	 136947.
10:48:54 1242 1243	 1492339734	 564624678	 161752.
10:48:54 1243 1244	 1492339734	 730149690	 165525.
10:48:54 1244 1245	 1492339734	 891573471	 161424.
10:48:55 1245 1246	 1492339735	 28613651	 137040.
10:48:55 1246 1247	 1492339735	 190067225	 161454.
10:48:55 1247 1248	 1492339735	 356385301	 166318.
10:48:55 1248 1249	 1492339735	 518113086	 161728.
10:48:55 1249 1250	 1492339735	 680291315	 162178.
10:48:55 1250 1251	 1492339735	 846247254	 165956.
10:48:55 1251 1252	 1492339735	 983327009	 137080.
10:48:56 1252 1253	 1492339736	 145337653	 162010.
10:48:56 1253 1254	 1492339736	 306919433	 161582.
10:48:56 1254 1255	 1492339736	 472573298	 165654.
10:48:56 1255 1256	 1492339736	 634280933	 161708.
10:48:56 1256 1257	 1492339736	 799914564	 165633.
10:48:56 1257 1258	 1492339736	 961846232	 161932.
10:48:57 1258 1259	 1492339737	 98743163	 136897.
10:48:57 1259 1260	 1492339737	 260203015	 161460.
10:48:57 1260 1261	 1492339737	 421697565	 161494.
10:48:57 1261 1262	 1492339737	 587146451	 165449.
10:48:57 1262 1263	 1492339737	 719994842	 132849.
10:48:57 1263 1264	 1492339737	 885428357	 165433.
10:48:58 1264 1265	 1492339738	 46628518	 161200.
10:48:58 1265 1266	 1492339738	 183594880	 136967.
10:48:58 1266 1267	 1492339738	 345119502	 161524.
10:48:58 1267 1268	 1492339738	 510618482	 165499.
10:48:58 1268 1269	 1492339738	 671879353	 161261.
10:48:58 1269 1270	 1492339738	 808765058	 136886.
10:48:58 1270 1271	 1492339738	 970268952	 161504.
10:48:59 1271 1272	 1492339739	 135760879	 165492.
10:48:59 1272 1273	 1492339739	 268745818	 132985.
10:48:59 1273 1274	 1492339739	 434202640	 165456.
10:48:59 1274 1275	 1492339739	 595635826	 161434.
10:48:59 1275 1276	 1492339739	 761628029	 165992.
10:48:59 1276 1277	 1492339739	 923284791	 161657.
10:49:00 1277 1278	 1492339740	 59997286	 136712.
10:49:00 1278 1279	 1492339740	 221888326	 161891.
10:49:00 1279 1280	 1492339740	 383981531	 162093.
10:49:00 1280 1281	 1492339740	 550132235	 166151.
10:49:00 1281 1282	 1492339740	 712174330	 162042.
10:49:00 1282 1283	 1492339740	 877724067	 165550.
10:49:01 1283 1284	 1492339741	 10460730	 132736.
10:49:01 1284 1285	 1492339741	 176340798	 165880.
10:49:01 1285 1286	 1492339741	 338244378	 161904.
10:49:01 1286 1287	 1492339741	 499759368	 161515.
10:49:01 1287 1288	 1492339741	 665643913	 165885.
10:49:01 1288 1289	 1492339741	 827379917	 161736.
10:49:01 1289 1290	 1492339741	 960744730	 133364.
10:49:02 1290 1291	 1492339742	 126300891	 165557.
10:49:02 1291 1292	 1492339742	 287658245	 161357.
10:49:02 1292 1293	 1492339742	 448663225	 161005.
10:49:02 1293 1294	 1492339742	 614858271	 166195.
10:49:02 1294 1295	 1492339742	 772227509	 157369.
10:49:02 1295 1296	 1492339742	 909121842	 136895.
10:49:03 1296 1297	 1492339743	 70684376	 161562.
10:49:03 1297 1298	 1492339743	 232589781	 161905.
10:49:03 1298 1299	 1492339743	 398518224	 165929.
10:49:03 1299 1300	 1492339743	 560258644	 161740.
10:49:03 1300 1301	 1492339743	 721942093	 161684.
10:49:03 1301 1302	 1492339743	 887927928	 165986.
10:49:04 1302 1303	 1492339744	 49634172	 161706.
10:49:04 1303 1304	 1492339744	 221035185	 171401.
10:49:04 1304 1305	 1492339744	 366355928	 145321.
10:49:04 1305 1306	 1492339744	 528009457	 161653.
10:49:04 1306 1307	 1492339744	 689559630	 161550.
10:49:04 1307 1308	 1492339744	 855017289	 165458.
10:49:04 1308 1309	 1492339744	 987879815	 132863.
10:49:05 1309 1310	 1492339745	 149277437	 161397.
10:49:05 1310 1311	 1492339745	 314924222	 165647.
10:49:05 1311 1312	 1492339745	 476519724	 161595.
10:49:05 1312 1313	 1492339745	 642088491	 165569.
10:49:05 1313 1314	 1492339745	 803749602	 161661.
10:49:05 1314 1315	 1492339745	 936579918	 132831.
10:49:06 1315 1316	 1492339746	 102088517	 165508.
10:49:06 1316 1317	 1492339746	 262957958	 160870.
10:49:06 1317 1318	 1492339746	 423784637	 160826.
10:49:06 1318 1319	 1492339746	 560596723	 136812.
10:49:06 1319 1320	 1492339746	 721795302	 161199.
10:49:06 1320 1321	 1492339746	 887242073	 165447.
10:49:07 1321 1322	 1492339747	 19971010	 132729.
10:49:07 1322 1323	 1492339747	 181072778	 161101.
10:49:07 1323 1324	 1492339747	 346417984	 165346.
10:49:07 1324 1325	 1492339747	 478787811	 132370.
10:49:07 1325 1326	 1492339747	 643907416	 165119.
10:49:07 1326 1327	 1492339747	 805888490	 161981.
10:49:07 1327 1328	 1492339747	 971964332	 166076.
10:49:08 1328 1329	 1492339748	 133320920	 161357.
10:49:08 1329 1330	 1492339748	 265936143	 132615.
10:49:08 1330 1331	 1492339748	 431553533	 165617.
10:49:08 1331 1332	 1492339748	 593005077	 161452.
10:49:08 1332 1333	 1492339748	 726008149	 133003.
10:49:08 1333 1334	 1492339748	 891916444	 165908.
10:49:09 1334 1335	 1492339749	 53927464	 162011.
10:49:09 1335 1336	 1492339749	 220282681	 166355.
10:49:09 1336 1337	 1492339749	 382425183	 162143.
10:49:09 1337 1338	 1492339749	 544651851	 162227.
10:49:09 1338 1339	 1492339749	 711410074	 166758.
10:49:09 1339 1340	 1492339749	 869218748	 157808.
10:49:10 1340 1341	 1492339750	 30864517	 161646.
10:49:10 1341 1342	 1492339750	 196594927	 165731.
10:49:10 1342 1343	 1492339750	 358125251	 161530.
10:49:10 1343 1344	 1492339750	 491325076	 133200.
10:49:10 1344 1345	 1492339750	 657169188	 165844.
10:49:10 1345 1346	 1492339750	 818988451	 161819.
10:49:10 1346 1347	 1492339750	 984865896	 165878.
10:49:11 1347 1348	 1492339751	 146621238	 161755.
10:49:11 1348 1349	 1492339751	 308645245	 162024.
10:49:11 1349 1350	 1492339751	 474544834	 165900.
10:49:11 1350 1351	 1492339751	 636515490	 161970.
10:49:11 1351 1352	 1492339751	 802690860	 166176.
10:49:11 1352 1353	 1492339751	 964481623	 161790.
10:49:12 1353 1354	 1492339752	 126009754	 161528.
10:49:12 1354 1355	 1492339752	 291649127	 165640.
10:49:12 1355 1356	 1492339752	 424480284	 132831.
10:49:12 1356 1357	 1492339752	 586020710	 161540.
10:49:12 1357 1358	 1492339752	 747352333	 161332.
10:49:12 1358 1359	 1492339752	 913112390	 165760.
10:49:13 1359 1360	 1492339753	 74705292	 161604.
10:49:13 1360 1361	 1492339753	 211626578	 136910.
10:49:13 1361 1362	 1492339753	 373143296	 161517.
10:49:13 1362 1363	 1492339753	 538726190	 165583.
10:49:13 1363 1364	 1492339753	 671579431	 132853.
10:49:13 1364 1365	 1492339753	 837037025	 165458.
10:49:13 1365 1366	 1492339753	 998450249	 161413.
10:49:14 1366 1367	 1492339754	 163838347	 165388.
10:49:14 1367 1368	 1492339754	 296814110	 132976.
10:49:14 1368 1369	 1492339754	 458602216	 161788.
10:49:14 1369 1370	 1492339754	 624171369	 165569.
10:49:14 1370 1371	 1492339754	 785851404	 161680.
10:49:14 1371 1372	 1492339754	 922676547	 136825.
10:49:15 1372 1373	 1492339755	 84373904	 161698.
10:49:15 1373 1374	 1492339755	 250025078	 165651.
10:49:15 1374 1375	 1492339755	 411536104	 161511.
10:49:15 1375 1376	 1492339755	 577009692	 165473.
10:49:15 1376 1377	 1492339755	 710124651	 133115.
10:49:15 1377 1378	 1492339755	 875654066	 165530.
10:49:16 1378 1379	 1492339756	 37441722	 161787.
10:49:16 1379 1380	 1492339756	 199093988	 161653.
10:49:16 1380 1381	 1492339756	 336073076	 136979.
10:49:16 1381 1382	 1492339756	 497396986	 161324.
10:49:16 1382 1383	 1492339756	 662835583	 165438.
10:49:16 1383 1384	 1492339756	 824562633	 161727.
10:49:16 1384 1385	 1492339756	 957648484	 133086.
10:49:17 1385 1386	 1492339757	 123153868	 165506.
10:49:17 1386 1387	 1492339757	 284691671	 161537.
10:49:17 1387 1388	 1492339757	 450230408	 165539.
10:49:17 1388 1389	 1492339757	 582975843	 132746.
10:49:17 1389 1390	 1492339757	 748116018	 165140.
10:49:17 1390 1391	 1492339757	 909876774	 161760.
10:49:18 1391 1392	 1492339758	 75675874	 165800.
10:49:18 1392 1393	 1492339758	 208874413	 133198.
10:49:18 1393 1394	 1492339758	 374799352	 165925.
10:49:18 1394 1395	 1492339758	 536084463	 161285.
10:49:18 1395 1396	 1492339758	 701927222	 165843.
10:49:18 1396 1397	 1492339758	 863295832	 161369.
10:49:19 1397 1398	 1492339759	 28728783	 165433.
10:49:19 1398 1399	 1492339759	 161938648	 133209.
10:49:19 1399 1400	 1492339759	 323203430	 161265.
10:49:19 1400 1401	 1492339759	 488964644	 165761.
10:49:19 1401 1402	 1492339759	 650288302	 161324.
10:49:19 1402 1403	 1492339759	 815925813	 165638.
10:49:19 1403 1404	 1492339759	 977545820	 161620.
10:49:20 1404 1405	 1492339760	 110116651	 132570.
10:49:20 1405 1406	 1492339760	 275759490	 165643.
10:49:20 1406 1407	 1492339760	 437407734	 161648.
10:49:20 1407 1408	 1492339760	 602446058	 165039.
10:49:20 1408 1409	 1492339760	 735037256	 132591.
10:49:20 1409 1410	 1492339760	 897218580	 162181.
10:49:21 1410 1411	 1492339761	 54168384	 156950.
10:49:21 1411 1412	 1492339761	 219468918	 165301.
10:49:21 1412 1413	 1492339761	 380565084	 161096.
10:49:21 1413 1414	 1492339761	 512874904	 132310.
10:49:21 1414 1415	 1492339761	 678492153	 165617.
10:49:21 1415 1416	 1492339761	 839557506	 161065.
10:49:21 1416 1417	 1492339762	 764933	 161208.
10:49:22 1417 1418	 1492339762	 137873152	 137108.
10:49:22 1418 1419	 1492339762	 299192331	 161319.
10:49:22 1419 1420	 1492339762	 464192398	 165000.
10:49:22 1420 1421	 1492339762	 625577144	 161385.
10:49:22 1421 1422	 1492339762	 757999107	 132422.
10:49:22 1422 1423	 1492339762	 923070516	 165071.
10:49:23 1423 1424	 1492339763	 84432557	 161362.
10:49:23 1424 1425	 1492339763	 216756702	 132324.
10:49:23 1425 1426	 1492339763	 382160929	 165405.
10:49:23 1426 1427	 1492339763	 543284571	 161123.
10:49:23 1427 1428	 1492339763	 704295572	 161011.
10:49:23 1428 1429	 1492339763	 841247823	 136953.
10:49:23 1429 1430	 1492339764	 2571012	 161323.
10:49:24 1430 1431	 1492339764	 163811477	 161240.
10:49:24 1431 1432	 1492339764	 329463034	 165652.
10:49:24 1432 1433	 1492339764	 490658639	 161195.
10:49:24 1433 1434	 1492339764	 627195448	 136537.
10:49:24 1434 1435	 1492339764	 788490741	 161295.
10:49:24 1435 1436	 1492339764	 949500220	 161010.
10:49:25 1436 1437	 1492339765	 114889071	 165389.
10:49:25 1437 1438	 1492339765	 247572668	 132683.
10:49:25 1438 1439	 1492339765	 412779000	 165207.
10:49:25 1439 1440	 1492339765	 574700374	 161921.
10:49:25 1440 1441	 1492339765	 736044338	 161344.
10:49:25 1441 1442	 1492339765	 901711503	 165667.
10:49:26 1442 1443	 1492339766	 63648486	 161937.
10:49:26 1443 1444	 1492339766	 196405768	 132757.
10:49:26 1444 1445	 1492339766	 362286936	 165882.
10:49:26 1445 1446	 1492339766	 523734077	 161447.
10:49:26 1446 1447	 1492339766	 684908811	 161174.
10:49:26 1447 1448	 1492339766	 850726978	 165819.
10:49:27 1448 1449	 1492339767	 12307428	 161580.
10:49:27 1449 1450	 1492339767	 144814900	 132508.
10:49:27 1450 1451	 1492339767	 310373289	 165558.
10:49:27 1451 1452	 1492339767	 471605992	 161233.
10:49:27 1452 1453	 1492339767	 637213566	 165607.
10:49:27 1453 1454	 1492339767	 795457440	 158244.
10:49:27 1454 1455	 1492339767	 932414181	 136957.
10:49:28 1455 1456	 1492339768	 93560794	 161147.
10:49:28 1456 1457	 1492339768	 254893772	 161332.
10:49:28 1457 1458	 1492339768	 419987649	 165094.
10:49:28 1458 1459	 1492339768	 552655535	 132668.
10:49:28 1459 1460	 1492339768	 713896585	 161241.
10:49:28 1460 1461	 1492339768	 875051782	 161155.
10:49:29 1461 1462	 1492339769	 40207249	 165156.
10:49:29 1462 1463	 1492339769	 172954003	 132747.
10:49:29 1463 1464	 1492339769	 338230908	 165277.
10:49:29 1464 1465	 1492339769	 499868404	 161637.
10:49:29 1465 1466	 1492339769	 660964610	 161096.
10:49:29 1466 1467	 1492339769	 826579518	 165615.
10:49:29 1467 1468	 1492339769	 959225677	 132646.
10:49:30 1468 1469	 1492339770	 120505418	 161280.
10:49:30 1469 1470	 1492339770	 286135834	 165631.
10:49:30 1470 1471	 1492339770	 447073584	 160937.
10:49:30 1471 1472	 1492339770	 579757528	 132684.
10:49:30 1472 1473	 1492339770	 745067638	 165311.
10:49:30 1473 1474	 1492339770	 906452658	 161384.
10:49:31 1474 1475	 1492339771	 68027596	 161575.
10:49:31 1475 1476	 1492339771	 233720434	 165693.
10:49:31 1476 1477	 1492339771	 366411689	 132691.
10:49:31 1477 1478	 1492339771	 527829255	 161418.
10:49:31 1478 1479	 1492339771	 693226476	 165397.
10:49:31 1479 1480	 1492339771	 854348304	 161122.
10:49:32 1480 1481	 1492339772	 16499715	 162151.
10:49:32 1481 1482	 1492339772	 149141306	 132642.
10:49:32 1482 1483	 1492339772	 310897447	 161756.
10:49:32 1483 1484	 1492339772	 472136484	 161239.
10:49:32 1484 1485	 1492339772	 636831263	 164695.
10:49:32 1485 1486	 1492339772	 769683820	 132853.
10:49:32 1486 1487	 1492339772	 934811560	 165127.
10:49:33 1487 1488	 1492339773	 95906906	 161096.
10:49:33 1488 1489	 1492339773	 257693902	 161787.
10:49:33 1489 1490	 1492339773	 394368282	 136674.
10:49:33 1490 1491	 1492339773	 555900683	 161532.
10:49:33 1491 1492	 1492339773	 717669811	 161770.
10:49:33 1492 1493	 1492339773	 883141866	 165472.
10:49:34 1493 1494	 1492339774	 44788544	 161646.
10:49:34 1494 1495	 1492339774	 181324844	 136537.
10:49:34 1495 1496	 1492339774	 342362884	 161038.
10:49:34 1496 1497	 1492339774	 503950161	 161587.
10:49:34 1497 1498	 1492339774	 665074217	 161124.
10:49:34 1498 1499	 1492339774	 801671086	 136597.
10:49:34 1499 1500	 1492339774	 963230615	 161559.
10:49:35 1500 1501	 1492339775	 124101447	 160871.
10:49:35 1501 1502	 1492339775	 289191541	 165090.
10:49:35 1502 1503	 1492339775	 450790423	 161599.
10:49:35 1503 1504	 1492339775	 587853140	 137063.
10:49:35 1504 1505	 1492339775	 749328089	 161475.
10:49:35 1505 1506	 1492339775	 910208355	 160880.
10:49:36 1506 1507	 1492339776	 75113258	 164905.
10:49:36 1507 1508	 1492339776	 207788055	 132675.
10:49:36 1508 1509	 1492339776	 368714425	 160926.
10:49:36 1509 1510	 1492339776	 533938109	 165224.
10:49:36 1510 1511	 1492339776	 695486990	 161549.
10:49:36 1511 1512	 1492339776	 828193822	 132707.
10:49:36 1512 1513	 1492339776	 993520809	 165327.
10:49:37 1513 1514	 1492339777	 154760202	 161239.
10:49:37 1514 1515	 1492339777	 320136462	 165376.
10:49:37 1515 1516	 1492339777	 452910126	 132774.
10:49:37 1516 1517	 1492339777	 614622834	 161713.
10:49:37 1517 1518	 1492339777	 779667388	 165044.
10:49:37 1518 1519	 1492339777	 941356753	 161689.
10:49:38 1519 1520	 1492339778	 102516874	 161161.
10:49:38 1520 1521	 1492339778	 239387363	 136870.
10:49:38 1521 1522	 1492339778	 400831668	 161444.
10:49:38 1522 1523	 1492339778	 561754534	 160923.
10:49:38 1523 1524	 1492339778	 727401296	 165647.
10:49:38 1524 1525	 1492339778	 859940388	 132539.
10:49:39 1525 1526	 1492339779	 21207070	 161267.
10:49:39 1526 1527	 1492339779	 187108454	 165901.
10:49:39 1527 1528	 1492339779	 348228119	 161120.
10:49:39 1528 1529	 1492339779	 480684825	 132457.
10:49:39 1529 1530	 1492339779	 645961255	 165276.
10:49:39 1530 1531	 1492339779	 806842728	 160881.
10:49:39 1531 1532	 1492339779	 972133579	 165291.
10:49:40 1532 1533	 1492339780	 104785229	 132652.
10:49:40 1533 1534	 1492339780	 265890306	 161105.
10:49:40 1534 1535	 1492339780	 431216311	 165326.
10:49:40 1535 1536	 1492339780	 592691778	 161475.
10:49:40 1536 1537	 1492339780	 729423649	 136732.
10:49:40 1537 1538	 1492339780	 891073074	 161650.
10:49:41 1538 1539	 1492339781	 56548674	 165475.
10:49:41 1539 1540	 1492339781	 217757475	 161209.
10:49:41 1540 1541	 1492339781	 379299597	 161542.
10:49:41 1541 1542	 1492339781	 515953551	 136654.
10:49:41 1542 1543	 1492339781	 677409088	 161456.
10:49:41 1543 1544	 1492339781	 838681040	 161272.
10:49:42 1544 1545	 1492339782	 4739508	 166058.
10:49:42 1545 1546	 1492339782	 166147715	 161408.
10:49:42 1546 1547	 1492339782	 298867658	 132720.
10:49:42 1547 1548	 1492339782	 464148276	 165281.
10:49:42 1548 1549	 1492339782	 625744852	 161597.
10:49:42 1549 1550	 1492339782	 790633889	 164889.
10:49:42 1550 1551	 1492339782	 923483466	 132849.
10:49:43 1551 1552	 1492339783	 85759751	 162276.
10:49:43 1552 1553	 1492339783	 246836199	 161077.
10:49:43 1553 1554	 1492339783	 408119268	 161283.
10:49:43 1554 1555	 1492339783	 573359619	 165240.
10:49:43 1555 1556	 1492339783	 705855375	 132496.
10:49:43 1556 1557	 1492339783	 866961168	 161106.
10:49:44 1557 1558	 1492339784	 32903951	 165943.
10:49:44 1558 1559	 1492339784	 193901267	 160997.
10:49:44 1559 1560	 1492339784	 326480390	 132579.
10:49:44 1560 1561	 1492339784	 492234955	 165755.
10:49:44 1561 1562	 1492339784	 653612399	 161377.
10:49:44 1562 1563	 1492339784	 790220041	 136608.
10:49:44 1563 1564	 1492339784	 951674954	 161455.
10:49:45 1564 1565	 1492339785	 117682262	 166007.
10:49:45 1565 1566	 1492339785	 279086712	 161404.
10:49:45 1566 1567	 1492339785	 415778504	 136692.
10:49:45 1567 1568	 1492339785	 577309758	 161531.
10:49:45 1568 1569	 1492339785	 742469167	 165160.
10:49:45 1569 1570	 1492339785	 904514307	 162045.
10:49:46 1570 1571	 1492339786	 70121714	 165607.
10:49:46 1571 1572	 1492339786	 203213275	 133092.
10:49:46 1572 1573	 1492339786	 364619248	 161406.
10:49:46 1573 1574	 1492339786	 530211166	 165592.
10:49:46 1574 1575	 1492339786	 691651616	 161440.
10:49:46 1575 1576	 1492339786	 828279386	 136628.
10:49:46 1576 1577	 1492339786	 989889927	 161611.
10:49:47 1577 1578	 1492339787	 155709736	 165819.
10:49:47 1578 1579	 1492339787	 288547593	 132838.
10:49:47 1579 1580	 1492339787	 454208444	 165661.
10:49:47 1580 1581	 1492339787	 615808688	 161600.
10:49:47 1581 1582	 1492339787	 781110787	 165302.
10:49:47 1582 1583	 1492339787	 914269819	 133160.
10:49:48 1583 1584	 1492339788	 75674043	 161404.
10:49:48 1584 1585	 1492339788	 241636487	 165962.
10:49:48 1585 1586	 1492339788	 403334217	 161698.
10:49:48 1586 1587	 1492339788	 540390122	 137056.
10:49:48 1587 1588	 1492339788	 702362740	 161972.
10:49:48 1588 1589	 1492339788	 864095782	 161733.
10:49:49 1589 1590	 1492339789	 30020250	 165925.
10:49:49 1590 1591	 1492339789	 191917164	 161897.
10:49:49 1591 1592	 1492339789	 329069744	 137152.
10:49:49 1592 1593	 1492339789	 490726207	 161657.
10:49:49 1593 1594	 1492339789	 656628317	 165902.
10:49:49 1594 1595	 1492339789	 817825981	 161198.
10:49:49 1595 1596	 1492339789	 954455409	 136629.
10:49:50 1596 1597	 1492339790	 115458216	 161003.
10:49:50 1597 1598	 1492339790	 276737850	 161280.
10:49:50 1598 1599	 1492339790	 437847445	 161109.
10:49:50 1599 1600	 1492339790	 574834837	 136988.
10:49:50 1600 1601	 1492339790	 736509438	 161674.
10:49:50 1601 1602	 1492339790	 902067677	 165558.
10:49:51 1602 1603	 1492339791	 63586314	 161519.
10:49:51 1603 1604	 1492339791	 200607538	 137021.
10:49:51 1604 1605	 1492339791	 362126589	 161519.
10:49:51 1605 1606	 1492339791	 523930632	 161804.
10:49:51 1606 1607	 1492339791	 689104563	 165174.
10:49:51 1607 1608	 1492339791	 821870574	 132766.
10:49:51 1608 1609	 1492339791	 987859228	 165989.
10:49:52 1609 1610	 1492339792	 148982506	 161123.
10:49:52 1610 1611	 1492339792	 314566723	 165584.
10:49:52 1611 1612	 1492339792	 447558384	 132992.
10:49:52 1612 1613	 1492339792	 609333010	 161775.
10:49:52 1613 1614	 1492339792	 774406065	 165073.
10:49:52 1614 1615	 1492339792	 907566539	 133160.
10:49:53 1615 1616	 1492339793	 73355181	 165789.
10:49:53 1616 1617	 1492339793	 234719545	 161364.
10:49:53 1617 1618	 1492339793	 400477033	 165758.
10:49:53 1618 1619	 1492339793	 537670223	 137193.
10:49:53 1619 1620	 1492339793	 699047250	 161377.
10:49:53 1620 1621	 1492339793	 864749483	 165702.
10:49:54 1621 1622	 1492339794	 26640637	 161891.
10:49:54 1622 1623	 1492339794	 184807845	 158168.
10:49:54 1623 1624	 1492339794	 321793303	 136985.
10:49:54 1624 1625	 1492339794	 483729657	 161936.
10:49:54 1625 1626	 1492339794	 645248413	 161519.
10:49:54 1626 1627	 1492339794	 811412824	 166165.
10:49:54 1627 1628	 1492339794	 944430674	 133017.
10:49:55 1628 1629	 1492339795	 109633163	 165203.
10:49:55 1629 1630	 1492339795	 270936384	 161303.
10:49:55 1630 1631	 1492339795	 407659076	 136723.
10:49:55 1631 1632	 1492339795	 569246180	 161587.
10:49:55 1632 1633	 1492339795	 735000303	 165754.
10:49:55 1633 1634	 1492339795	 896424279	 161424.
10:49:56 1634 1635	 1492339796	 33210094	 136786.
10:49:56 1635 1636	 1492339796	 194954911	 161745.
10:49:56 1636 1637	 1492339796	 356539649	 161584.
10:49:56 1637 1638	 1492339796	 493126127	 136587.
10:49:56 1638 1639	 1492339796	 655046485	 161920.
10:49:56 1639 1640	 1492339796	 820938452	 165892.
10:49:56 1640 1641	 1492339796	 982832469	 161894.
10:49:57 1641 1642	 1492339797	 119693482	 136861.
10:49:57 1642 1643	 1492339797	 281688854	 161996.
10:49:57 1643 1644	 1492339797	 447278209	 165589.
10:49:57 1644 1645	 1492339797	 608539589	 161261.
10:49:57 1645 1646	 1492339797	 745143745	 136604.
10:49:57 1646 1647	 1492339797	 906412718	 161270.
10:49:58 1647 1648	 1492339798	 71976277	 165563.
10:49:58 1648 1649	 1492339798	 204626248	 132650.
10:49:58 1649 1650	 1492339798	 370422264	 165796.
10:49:58 1650 1651	 1492339798	 532009448	 161587.
10:49:58 1651 1652	 1492339798	 668871031	 136862.
10:49:58 1652 1653	 1492339798	 830489431	 161618.
10:49:58 1653 1654	 1492339798	 996240329	 165751.
10:49:59 1654 1655	 1492339799	 157555437	 161315.
10:49:59 1655 1656	 1492339799	 294521139	 136966.
10:49:59 1656 1657	 1492339799	 455951453	 161430.
10:49:59 1657 1658	 1492339799	 617978033	 162027.
10:49:59 1658 1659	 1492339799	 783614209	 165636.
10:49:59 1659 1660	 1492339799	 916688202	 133074.
10:50:00 1660 1661	 1492339800	 82525239	 165837.
10:50:00 1661 1662	 1492339800	 244394410	 161869.
10:50:00 1662 1663	 1492339800	 410214574	 165820.
10:50:00 1663 1664	 1492339800	 543081617	 132867.
10:50:00 1664 1665	 1492339800	 704678878	 161598.
10:50:00 1665 1666	 1492339800	 870129184	 165450.
10:50:01 1666 1667	 1492339801	 32186643	 162057.
10:50:01 1667 1668	 1492339801	 198212389	 166026.
10:50:01 1668 1669	 1492339801	 331244674	 133032.
10:50:01 1669 1670	 1492339801	 496953175	 165709.
10:50:01 1670 1671	 1492339801	 658580574	 161627.
10:50:01 1671 1672	 1492339801	 820044108	 161464.
10:50:01 1672 1673	 1492339801	 985776672	 165732.
10:50:02 1673 1674	 1492339802	 147202134	 161426.
10:50:02 1674 1675	 1492339802	 308351539	 161149.
10:50:02 1675 1676	 1492339802	 444811586	 136460.
10:50:02 1676 1677	 1492339802	 606096450	 161285.
10:50:02 1677 1678	 1492339802	 771287399	 165191.
10:50:02 1678 1679	 1492339802	 932332173	 161045.
10:50:03 1679 1680	 1492339803	 64661199	 132329.
10:50:03 1680 1681	 1492339803	 230124837	 165464.
10:50:03 1681 1682	 1492339803	 391393842	 161269.
10:50:03 1682 1683	 1492339803	 552612506	 161218.
10:50:03 1683 1684	 1492339803	 689233789	 136621.
10:50:03 1684 1685	 1492339803	 850787304	 161554.
10:50:04 1685 1686	 1492339804	 12465180	 161678.
10:50:04 1686 1687	 1492339804	 178201539	 165736.
10:50:04 1687 1688	 1492339804	 339648886	 161448.
10:50:04 1688 1689	 1492339804	 501106092	 161457.
10:50:04 1689 1690	 1492339804	 638156568	 137050.
10:50:04 1690 1691	 1492339804	 799465916	 161310.
10:50:04 1691 1692	 1492339804	 960763691	 161297.
10:50:05 1692 1693	 1492339805	 126449059	 165686.
10:50:05 1693 1694	 1492339805	 283507474	 157058.
10:50:05 1694 1695	 1492339805	 415987421	 132480.
10:50:05 1695 1696	 1492339805	 577011531	 161024.
10:50:05 1696 1697	 1492339805	 742105631	 165094.
10:50:05 1697 1698	 1492339805	 903231387	 161126.
10:50:06 1698 1699	 1492339806	 35654018	 132423.
10:50:06 1699 1700	 1492339806	 201172219	 165518.
10:50:06 1700 1701	 1492339806	 362358135	 161186.
10:50:06 1701 1702	 1492339806	 527620549	 165262.
10:50:06 1702 1703	 1492339806	 660667232	 133047.
10:50:06 1703 1704	 1492339806	 826066835	 165400.
10:50:06 1704 1705	 1492339806	 987904394	 161837.
10:50:07 1705 1706	 1492339807	 149716641	 161812.
10:50:07 1706 1707	 1492339807	 315530776	 165814.
10:50:07 1707 1708	 1492339807	 448467502	 132937.
10:50:07 1708 1709	 1492339807	 610276895	 161810.
10:50:07 1709 1710	 1492339807	 775946635	 165669.
10:50:07 1710 1711	 1492339807	 938077436	 162131.
10:50:08 1711 1712	 1492339808	 104080569	 166003.
10:50:08 1712 1713	 1492339808	 266106491	 162026.
10:50:08 1713 1714	 1492339808	 403539460	 137433.
10:50:08 1714 1715	 1492339808	 565417137	 161878.
10:50:08 1715 1716	 1492339808	 731343214	 165926.
10:50:08 1716 1717	 1492339808	 893402003	 162059.
10:50:09 1717 1718	 1492339809	 58968652	 165566.
10:50:09 1718 1719	 1492339809	 220738357	 161770.
10:50:09 1719 1720	 1492339809	 353718341	 132980.
10:50:09 1720 1721	 1492339809	 519452886	 165735.
10:50:09 1721 1722	 1492339809	 680396524	 160943.
10:50:09 1722 1723	 1492339809	 817158633	 136762.
10:50:09 1723 1724	 1492339809	 978395336	 161237.
10:50:10 1724 1725	 1492339810	 139636888	 161242.
10:50:10 1725 1726	 1492339810	 305280659	 165643.
10:50:10 1726 1727	 1492339810	 466403120	 161123.
10:50:10 1727 1728	 1492339810	 632163911	 165761.
10:50:10 1728 1729	 1492339810	 765260000	 133096.
10:50:10 1729 1730	 1492339810	 927129575	 161869.
10:50:11 1730 1731	 1492339811	 92798937	 165670.
10:50:11 1731 1732	 1492339811	 254093641	 161294.
10:50:11 1732 1733	 1492339811	 419423342	 165330.
10:50:11 1733 1734	 1492339811	 580980465	 161557.
10:50:11 1734 1735	 1492339811	 714224140	 133244.
10:50:11 1735 1736	 1492339811	 879889348	 165665.
10:50:12 1736 1737	 1492339812	 41501445	 161612.
10:50:12 1737 1738	 1492339812	 207030894	 165530.
10:50:12 1738 1739	 1492339812	 368682787	 161652.
10:50:12 1739 1740	 1492339812	 530186114	 161503.
10:50:12 1740 1741	 1492339812	 695716651	 165530.
10:50:12 1741 1742	 1492339812	 828512615	 132796.
10:50:12 1742 1743	 1492339812	 994108837	 165597.
10:50:13 1743 1744	 1492339813	 155865546	 161756.
10:50:13 1744 1745	 1492339813	 317504467	 161639.
10:50:13 1745 1746	 1492339813	 483362115	 165858.
10:50:13 1746 1747	 1492339813	 645262135	 161900.
10:50:13 1747 1748	 1492339813	 806851999	 161590.
10:50:13 1748 1749	 1492339813	 972446850	 165595.
10:50:14 1749 1750	 1492339814	 134143415	 161696.
10:50:14 1750 1751	 1492339814	 267146774	 133003.
10:50:14 1751 1752	 1492339814	 432791485	 165645.
10:50:14 1752 1753	 1492339814	 594400111	 161609.
10:50:14 1753 1754	 1492339814	 756014317	 161614.
10:50:14 1754 1755	 1492339814	 921471931	 165458.
10:50:15 1755 1756	 1492339815	 82814679	 161342.
10:50:15 1756 1757	 1492339815	 219645908	 136832.
10:50:15 1757 1758	 1492339815	 381132537	 161486.
10:50:15 1758 1759	 1492339815	 542688300	 161556.
10:50:15 1759 1760	 1492339815	 707784908	 165097.
10:50:15 1760 1761	 1492339815	 840674427	 132889.
10:50:16 1761 1762	 1492339816	 5993088	 165319.
10:50:16 1762 1763	 1492339816	 138377126	 132384.
10:50:16 1763 1764	 1492339816	 303739002	 165362.
10:50:16 1764 1765	 1492339816	 464829388	 161090.
10:50:16 1765 1766	 1492339816	 630710367	 165881.
10:50:16 1766 1767	 1492339816	 763754651	 133044.
10:50:16 1767 1768	 1492339816	 924986900	 161233.
10:50:17 1768 1769	 1492339817	 90875185	 165888.
10:50:17 1769 1770	 1492339817	 252364969	 161490.
10:50:17 1770 1771	 1492339817	 388973259	 136608.
10:50:17 1771 1772	 1492339817	 550679778	 161706.
10:50:17 1772 1773	 1492339817	 716736425	 166057.
10:50:17 1773 1774	 1492339817	 878197056	 161461.
10:50:18 1774 1775	 1492339818	 14921761	 136724.
10:50:18 1775 1776	 1492339818	 176467592	 161546.
10:50:18 1776 1777	 1492339818	 342117854	 165651.
10:50:18 1777 1778	 1492339818	 503988229	 161870.
10:50:18 1778 1779	 1492339818	 640851337	 136863.
10:50:18 1779 1780	 1492339818	 802675665	 161824.
10:50:18 1780 1781	 1492339818	 964273667	 161598.
10:50:19 1781 1782	 1492339819	 130148303	 165875.
10:50:19 1782 1783	 1492339819	 292242944	 162095.
10:50:19 1783 1784	 1492339819	 429324576	 137081.
10:50:19 1784 1785	 1492339819	 591330464	 162006.
10:50:19 1785 1786	 1492339819	 757369607	 166039.
10:50:19 1786 1787	 1492339819	 919083936	 161715.
10:50:20 1787 1788	 1492339820	 51675115	 132591.
10:50:20 1788 1789	 1492339820	 217380984	 165706.
10:50:20 1789 1790	 1492339820	 378779865	 161399.
10:50:20 1790 1791	 1492339820	 515680563	 136900.
10:50:20 1791 1792	 1492339820	 677307566	 161627.
10:50:20 1792 1793	 1492339820	 842738280	 165431.
10:50:21 1793 1794	 1492339821	 4265321	 161527.
10:50:21 1794 1795	 1492339821	 140960153	 136695.
10:50:21 1795 1796	 1492339821	 302261891	 161302.
10:50:21 1796 1797	 1492339821	 463872066	 161610.
10:50:21 1797 1798	 1492339821	 629658736	 165786.
10:50:21 1798 1799	 1492339821	 791457913	 161800.
10:50:21 1799 1800	 1492339821	 953818721	 162360.
10:50:22 1800 1801	 1492339822	 115410856	 161593.
10:50:22 1801 1802	 1492339822	 276922914	 161512.
10:50:22 1802 1803	 1492339822	 410047123	 133124.
10:50:22 1803 1804	 1492339822	 575926359	 165879.
10:50:22 1804 1805	 1492339822	 737650008	 161724.
10:50:22 1805 1806	 1492339822	 899106055	 161456.
10:50:23 1806 1807	 1492339823	 64862588	 165756.
10:50:23 1807 1808	 1492339823	 226452953	 161591.
10:50:23 1808 1809	 1492339823	 387680089	 161227.
10:50:23 1809 1810	 1492339823	 524525923	 136846.
10:50:23 1810 1811	 1492339823	 685667219	 161141.
10:50:23 1811 1812	 1492339823	 847047711	 161380.
10:50:24 1812 1813	 1492339824	 12170737	 165123.
10:50:24 1813 1814	 1492339824	 144906038	 132736.
10:50:24 1814 1815	 1492339824	 305771241	 160865.
10:50:24 1815 1816	 1492339824	 470939277	 165168.
10:50:24 1816 1817	 1492339824	 631867330	 160928.
10:50:24 1817 1818	 1492339824	 768483437	 136616.
10:50:24 1818 1819	 1492339824	 929800722	 161317.
10:50:25 1819 1820	 1492339825	 91182745	 161383.
10:50:25 1820 1821	 1492339825	 256633514	 165450.
10:50:25 1821 1822	 1492339825	 417764250	 161131.
10:50:25 1822 1823	 1492339825	 550640180	 132876.
10:50:25 1823 1824	 1492339825	 715922003	 165282.
10:50:25 1824 1825	 1492339825	 877456550	 161534.
10:50:26 1825 1826	 1492339826	 38624491	 161168.
10:50:26 1826 1827	 1492339826	 175346003	 136722.
10:50:26 1827 1828	 1492339826	 337125585	 161779.
10:50:26 1828 1829	 1492339826	 502856673	 165731.
10:50:26 1829 1830	 1492339826	 664758077	 161902.
10:50:26 1830 1831	 1492339826	 826799273	 162041.
10:50:26 1831 1832	 1492339826	 992679763	 165880.
10:50:27 1832 1833	 1492339827	 154306632	 161627.
10:50:27 1833 1834	 1492339827	 291406489	 137100.
10:50:27 1834 1835	 1492339827	 452864085	 161458.
10:50:27 1835 1836	 1492339827	 614555765	 161691.
10:50:27 1836 1837	 1492339827	 780431090	 165876.
10:50:27 1837 1838	 1492339827	 945956364	 165525.
10:50:28 1838 1839	 1492339828	 78648760	 132692.
10:50:28 1839 1840	 1492339828	 240026105	 161378.
10:50:28 1840 1841	 1492339828	 405472380	 165446.
10:50:28 1841 1842	 1492339828	 566841927	 161370.
10:50:28 1842 1843	 1492339828	 728305811	 161463.
10:50:28 1843 1844	 1492339828	 889739469	 161434.
10:50:29 1844 1845	 1492339829	 26825603	 137086.
10:50:29 1845 1846	 1492339829	 188406074	 161581.
10:50:29 1846 1847	 1492339829	 349864783	 161458.
10:50:29 1847 1848	 1492339829	 515441596	 165577.
10:50:29 1848 1849	 1492339829	 677111330	 161670.
10:50:29 1849 1850	 1492339829	 843110139	 165999.
10:50:29 1850 1851	 1492339829	 975867010	 132757.
10:50:30 1851 1852	 1492339830	 137330865	 161464.
10:50:30 1852 1853	 1492339830	 302940853	 165610.
10:50:30 1853 1854	 1492339830	 464199770	 161258.
10:50:30 1854 1855	 1492339830	 596997644	 132798.
10:50:30 1855 1856	 1492339830	 762398912	 165402.
10:50:30 1856 1857	 1492339830	 923983813	 161585.
10:50:31 1857 1858	 1492339831	 89934791	 165950.
10:50:31 1858 1859	 1492339831	 251549577	 161615.
10:50:31 1859 1860	 1492339831	 412911343	 161362.
10:50:31 1860 1861	 1492339831	 549913944	 137003.
10:50:31 1861 1862	 1492339831	 711479240	 161565.
10:50:31 1862 1863	 1492339831	 872757826	 161279.
10:50:32 1863 1864	 1492339832	 38271193	 165513.
10:50:32 1864 1865	 1492339832	 199550765	 161279.
10:50:32 1865 1866	 1492339832	 336826522	 137276.
10:50:32 1866 1867	 1492339832	 498541106	 161715.
10:50:32 1867 1868	 1492339832	 664189709	 165648.
10:50:32 1868 1869	 1492339832	 825900052	 161711.
10:50:32 1869 1870	 1492339832	 994056428	 168156.
10:50:33 1870 1871	 1492339833	 135133288	 141077.
10:50:33 1871 1872	 1492339833	 297014824	 161882.
10:50:33 1872 1873	 1492339833	 463320397	 166305.
10:50:33 1873 1874	 1492339833	 625544207	 162224.
10:50:33 1874 1875	 1492339833	 787352943	 161809.
10:50:33 1875 1876	 1492339833	 953070991	 165718.
10:50:34 1876 1877	 1492339834	 86331680	 133260.
10:50:34 1877 1878	 1492339834	 252437931	 166107.
10:50:34 1878 1879	 1492339834	 413991681	 161554.
10:50:34 1879 1880	 1492339834	 575540137	 161548.
10:50:34 1880 1881	 1492339834	 741042646	 165502.
10:50:34 1881 1882	 1492339834	 873645224	 132603.
10:50:35 1882 1883	 1492339835	 39044859	 165400.
10:50:35 1883 1884	 1492339835	 200728900	 161684.
10:50:35 1884 1885	 1492339835	 337670752	 136941.
10:50:35 1885 1886	 1492339835	 499541816	 161872.
10:50:35 1886 1887	 1492339835	 664943966	 165402.
10:50:35 1887 1888	 1492339835	 797420643	 132476.
10:50:35 1888 1889	 1492339835	 962764200	 165344.
10:50:36 1889 1890	 1492339836	 124566526	 161802.
10:50:36 1890 1891	 1492339836	 290130401	 165564.
10:50:36 1891 1892	 1492339836	 422755342	 132625.
10:50:36 1892 1893	 1492339836	 587974359	 165219.
10:50:36 1893 1894	 1492339836	 748908900	 160935.
10:50:36 1894 1895	 1492339836	 881903197	 132994.
10:50:37 1895 1896	 1492339837	 48045991	 166143.
10:50:37 1896 1897	 1492339837	 213535680	 165489.
10:50:37 1897 1898	 1492339837	 374578659	 161043.
10:50:37 1898 1899	 1492339837	 507109311	 132531.
10:50:37 1899 1900	 1492339837	 668358997	 161250.
10:50:37 1900 1901	 1492339837	 833531167	 165172.
10:50:37 1901 1902	 1492339837	 994932773	 161401.
10:50:38 1902 1903	 1492339838	 160410652	 165478.
10:50:38 1903 1904	 1492339838	 293118548	 132708.
10:50:38 1904 1905	 1492339838	 454417049	 161299.
10:50:38 1905 1906	 1492339838	 619956067	 165539.
10:50:38 1906 1907	 1492339838	 781369206	 161413.
10:50:38 1907 1908	 1492339838	 914059453	 132690.
10:50:39 1908 1909	 1492339839	 79083392	 165024.
10:50:39 1909 1910	 1492339839	 240550916	 161468.
10:50:39 1910 1911	 1492339839	 401939196	 161388.
10:50:39 1911 1912	 1492339839	 567358277	 165419.
10:50:39 1912 1913	 1492339839	 700011525	 132653.
10:50:39 1913 1914	 1492339839	 861821917	 161811.
