11:31:41    0 Step	 time(s)	 time(ns)	 delta(ms)
11:31:41    0 1	 1492428701	 856216099	 963.
11:31:42    1 2	 1492428702	 17671291	 161455.
11:31:42    2 3	 1492428702	 183893050	 166222.
11:31:42    3 4	 1492428702	 317530279	 133637.
11:31:42    4 5	 1492428702	 483681777	 166152.
11:31:42    5 6	 1492428702	 644898228	 161216.
11:31:42    6 7	 1492428702	 811005814	 166108.
11:31:42    7 8	 1492428702	 943460258	 132454.
11:31:43    8 9	 1492428703	 108652045	 165192.
11:31:43    9 10	 1492428703	 269830482	 161178.
11:31:43   10 11	 1492428703	 402353864	 132524.
11:31:43   11 12	 1492428703	 567483548	 165129.
11:31:43   12 13	 1492428703	 728551355	 161068.
11:31:43   13 14	 1492428703	 894032418	 165481.
11:31:44   14 15	 1492428704	 55563210	 161531.
11:31:44   15 16	 1492428704	 188510719	 132948.
11:31:44   16 17	 1492428704	 354218423	 165707.
11:31:44   17 18	 1492428704	 516120259	 161902.
11:31:44   18 19	 1492428704	 677664910	 161545.
11:31:44   19 20	 1492428704	 844167220	 166502.
11:31:44   20 21	 1492428704	 976888212	 132721.
11:31:45   21 22	 1492428705	 142570951	 165683.
11:31:45   22 23	 1492428705	 303903687	 161332.
11:31:45   23 24	 1492428705	 440986389	 137083.
11:31:45   24 25	 1492428705	 602761783	 161776.
11:31:45   25 26	 1492428705	 768348943	 165587.
11:31:45   26 27	 1492428705	 930115395	 161766.
11:31:46   27 28	 1492428706	 62895044	 132780.
11:31:46   28 29	 1492428706	 228624797	 165730.
11:31:46   29 30	 1492428706	 394228066	 165603.
11:31:46   30 31	 1492428706	 556277436	 162049.
11:31:46   31 32	 1492428706	 693316176	 137039.
11:31:46   32 33	 1492428706	 854607706	 161291.
11:31:47   33 34	 1492428707	 16481040	 161874.
11:31:47   34 35	 1492428707	 178181596	 161700.
11:31:47   35 36	 1492428707	 315238657	 137057.
11:31:47   36 37	 1492428707	 477051130	 161813.
11:31:47   37 38	 1492428707	 642673369	 165622.
11:31:47   38 39	 1492428707	 804258085	 161585.
11:31:47   39 40	 1492428707	 937203325	 132945.
11:31:48   40 41	 1492428708	 103399419	 166196.
11:31:48   41 42	 1492428708	 265588747	 162190.
11:31:48   42 43	 1492428708	 427536137	 161947.
11:31:48   43 44	 1492428708	 593269708	 165734.
11:31:48   44 45	 1492428708	 751333885	 158064.
11:31:48   45 46	 1492428708	 888323581	 136989.
11:31:49   46 47	 1492428709	 49784913	 161462.
11:31:49   47 48	 1492428709	 215350774	 165566.
11:31:49   48 49	 1492428709	 348033748	 132683.
11:31:49   49 50	 1492428709	 513789921	 165756.
11:31:49   50 51	 1492428709	 674780780	 160990.
11:31:49   51 52	 1492428709	 811120378	 136340.
11:31:49   52 53	 1492428709	 972631586	 161512.
11:31:50   53 54	 1492428710	 134064159	 161432.
11:31:50   54 55	 1492428710	 271344166	 137280.
11:31:50   55 56	 1492428710	 433159102	 161815.
11:31:50   56 57	 1492428710	 598609203	 165450.
11:31:50   57 58	 1492428710	 760108172	 161499.
11:31:50   58 59	 1492428710	 897123638	 137015.
11:31:51   59 60	 1492428711	 58555215	 161432.
11:31:51   60 61	 1492428711	 223966045	 165411.
11:31:51   61 62	 1492428711	 356772050	 132806.
11:31:51   62 63	 1492428711	 522542775	 165771.
11:31:51   63 64	 1492428711	 683711598	 161168.
11:31:51   64 65	 1492428711	 845348217	 161637.
11:31:51   65 66	 1492428711	 982170698	 136822.
11:31:52   66 67	 1492428712	 143589922	 161420.
11:31:52   67 68	 1492428712	 309465968	 165876.
11:31:52   68 69	 1492428712	 471017732	 161551.
11:31:52   69 70	 1492428712	 608139077	 137122.
11:31:52   70 71	 1492428712	 773576341	 165437.
11:31:52   71 72	 1492428712	 935706104	 162130.
11:31:53   72 73	 1492428713	 101373504	 165667.
11:31:53   73 74	 1492428713	 233875124	 132502.
11:31:53   74 75	 1492428713	 395589193	 161714.
11:31:53   75 76	 1492428713	 561072213	 165483.
11:31:53   76 77	 1492428713	 722573109	 161501.
11:31:53   77 78	 1492428713	 859726244	 137153.
11:31:54   78 79	 1492428714	 21962838	 162237.
11:31:54   79 80	 1492428714	 187645299	 165682.
11:31:54   80 81	 1492428714	 349051278	 161406.
11:31:54   81 82	 1492428714	 481550656	 132499.
11:31:54   82 83	 1492428714	 646982615	 165432.
11:31:54   83 84	 1492428714	 808512368	 161530.
11:31:54   84 85	 1492428714	 945494664	 136982.
11:31:55   85 86	 1492428715	 107203127	 161709.
11:31:55   86 87	 1492428715	 272565557	 165362.
11:31:55   87 88	 1492428715	 405357440	 132792.
11:31:55   88 89	 1492428715	 566297242	 160940.
11:31:55   89 90	 1492428715	 731967686	 165670.
11:31:55   90 91	 1492428715	 864869002	 132902.
11:31:56   91 92	 1492428716	 30572050	 165703.
11:31:56   92 93	 1492428716	 192140055	 161568.
11:31:56   93 94	 1492428716	 357785280	 165645.
11:31:56   94 95	 1492428716	 491112942	 133328.
11:31:56   95 96	 1492428716	 656649099	 165536.
11:31:56   96 97	 1492428716	 817915601	 161266.
11:31:56   97 98	 1492428716	 954609598	 136694.
11:31:57   98 99	 1492428717	 115874994	 161266.
11:31:57   99 100	 1492428717	 281366354	 165491.
11:31:57  100 101	 1492428717	 414472882	 133107.
11:31:57  101 102	 1492428717	 580040351	 165567.
11:31:57  102 103	 1492428717	 741520944	 161481.
11:31:57  103 104	 1492428717	 878243278	 136722.
11:31:58  104 105	 1492428718	 39309188	 161066.
11:31:58  105 106	 1492428718	 201409129	 162100.
11:31:58  106 107	 1492428718	 362469255	 161060.
11:31:58  107 108	 1492428718	 524116078	 161647.
11:31:58  108 109	 1492428718	 656865882	 132750.
11:31:58  109 110	 1492428718	 822253872	 165388.
11:31:58  110 111	 1492428718	 983712317	 161458.
11:31:59  111 112	 1492428719	 149462462	 165750.
11:31:59  112 113	 1492428719	 282586626	 133124.
11:31:59  113 114	 1492428719	 444043698	 161457.
11:31:59  114 115	 1492428719	 609786735	 165743.
11:31:59  115 116	 1492428719	 771501389	 161715.
11:31:59  116 117	 1492428719	 937140652	 165639.
11:32:00  117 118	 1492428720	 70352808	 133213.
11:32:00  118 119	 1492428720	 231767224	 161414.
11:32:00  119 120	 1492428720	 397464204	 165697.
11:32:00  120 121	 1492428720	 558871401	 161407.
11:32:00  121 122	 1492428720	 724363011	 165492.
11:32:00  122 123	 1492428720	 885718278	 161355.
11:32:01  123 124	 1492428721	 18458555	 132740.
11:32:01  124 125	 1492428721	 184267958	 165810.
11:32:01  125 126	 1492428721	 345754124	 161486.
11:32:01  126 127	 1492428721	 507337933	 161584.
11:32:01  127 128	 1492428721	 673029597	 165691.
11:32:01  128 129	 1492428721	 834717433	 161688.
11:32:01  129 130	 1492428722	 609915	 165893.
11:32:02  130 131	 1492428722	 133143799	 132534.
11:32:02  131 132	 1492428722	 294784236	 161640.
11:32:02  132 133	 1492428722	 460668003	 165884.
11:32:02  133 134	 1492428722	 622465589	 161797.
11:32:02  134 135	 1492428722	 787896498	 165431.
11:32:02  135 136	 1492428722	 920582054	 132686.
11:32:03  136 137	 1492428723	 81956217	 161374.
11:32:03  137 138	 1492428723	 247430364	 165474.
11:32:03  138 139	 1492428723	 408722175	 161292.
11:32:03  139 140	 1492428723	 570027149	 161305.
11:32:03  140 141	 1492428723	 706875744	 136849.
11:32:03  141 142	 1492428723	 868271857	 161396.
11:32:04  142 143	 1492428724	 29620956	 161349.
11:32:04  143 144	 1492428724	 194812941	 165192.
11:32:04  144 145	 1492428724	 327644647	 132831.
11:32:04  145 146	 1492428724	 489510609	 161866.
11:32:04  146 147	 1492428724	 655297185	 165787.
11:32:04  147 148	 1492428724	 816818866	 161522.
11:32:04  148 149	 1492428724	 978696875	 161878.
11:32:05  149 150	 1492428725	 144483970	 165787.
11:32:05  150 151	 1492428725	 305908693	 161424.
11:32:05  151 152	 1492428725	 438746210	 132838.
11:32:05  152 153	 1492428725	 604005645	 165259.
11:32:05  153 154	 1492428725	 765690917	 161686.
11:32:05  154 155	 1492428725	 931019274	 165328.
11:32:06  155 156	 1492428726	 63867811	 132849.
11:32:06  156 157	 1492428726	 225507731	 161640.
11:32:06  157 158	 1492428726	 391065878	 165558.
11:32:06  158 159	 1492428726	 553023742	 161958.
11:32:06  159 160	 1492428726	 719239841	 166216.
11:32:06  160 161	 1492428726	 884939533	 165699.
11:32:07  161 162	 1492428727	 18080816	 133142.
11:32:07  162 163	 1492428727	 180210381	 162129.
11:32:07  163 164	 1492428727	 345961846	 165752.
11:32:07  164 165	 1492428727	 507749177	 161787.
11:32:07  165 166	 1492428727	 673565881	 165817.
11:32:07  166 167	 1492428727	 806716568	 133150.
11:32:07  167 168	 1492428727	 972779986	 166064.
11:32:08  168 169	 1492428728	 134322957	 161543.
11:32:08  169 170	 1492428728	 300582251	 166259.
11:32:08  170 171	 1492428728	 433527258	 132945.
11:32:08  171 172	 1492428728	 599166573	 165639.
11:32:08  172 173	 1492428728	 760793737	 161628.
11:32:08  173 174	 1492428728	 926252094	 165458.
11:32:09  174 175	 1492428729	 88656131	 162404.
11:32:09  175 176	 1492428729	 226154720	 137498.
11:32:09  176 177	 1492428729	 387822683	 161668.
11:32:09  177 178	 1492428729	 553765799	 165944.
11:32:09  178 179	 1492428729	 715602978	 161837.
11:32:09  179 180	 1492428729	 877411922	 161809.
11:32:10  180 181	 1492428730	 43292297	 165880.
11:32:10  181 182	 1492428730	 204763237	 161471.
11:32:10  182 183	 1492428730	 337204565	 132441.
11:32:10  183 184	 1492428730	 502382897	 165179.
11:32:10  184 185	 1492428730	 663755150	 161372.
11:32:10  185 186	 1492428730	 824856537	 161101.
11:32:10  186 187	 1492428730	 961883524	 137027.
11:32:11  187 188	 1492428731	 123585931	 161703.
11:32:11  188 189	 1492428731	 284486426	 160900.
11:32:11  189 190	 1492428731	 449871881	 165386.
11:32:11  190 191	 1492428731	 611601991	 161730.
11:32:11  191 192	 1492428731	 773381760	 161780.
11:32:11  192 193	 1492428731	 910351650	 136969.
11:32:12  193 194	 1492428732	 72209219	 161858.
11:32:12  194 195	 1492428732	 238103435	 165894.
11:32:12  195 196	 1492428732	 399837639	 161734.
11:32:12  196 197	 1492428732	 561571798	 161734.
11:32:12  197 198	 1492428732	 727014561	 165444.
11:32:12  198 199	 1492428732	 888565923	 161551.
11:32:13  199 200	 1492428733	 21679402	 133113.
11:32:13  200 201	 1492428733	 187423699	 165744.
11:32:13  201 202	 1492428733	 349127256	 161704.
11:32:13  202 203	 1492428733	 515295172	 166168.
11:32:13  203 204	 1492428733	 676964778	 161670.
11:32:13  204 205	 1492428733	 813936557	 136971.
11:32:13  205 206	 1492428733	 975991326	 162055.
11:32:14  206 207	 1492428734	 142593827	 166603.
11:32:14  207 208	 1492428734	 304446479	 161853.
11:32:14  208 209	 1492428734	 470171169	 165724.
11:32:14  209 210	 1492428734	 632118578	 161947.
11:32:14  210 211	 1492428734	 764947867	 132830.
11:32:14  211 212	 1492428734	 931577551	 166630.
11:32:15  212 213	 1492428735	 88996764	 157419.
11:32:15  213 214	 1492428735	 250624322	 161627.
11:32:15  214 215	 1492428735	 416076973	 165453.
11:32:15  215 216	 1492428735	 577151994	 161075.
11:32:15  216 217	 1492428735	 738300919	 161149.
11:32:15  217 218	 1492428735	 875131140	 136830.
11:32:16  218 219	 1492428736	 37055278	 161924.
11:32:16  219 220	 1492428736	 202761685	 165706.
11:32:16  220 221	 1492428736	 364281674	 161521.
11:32:16  221 222	 1492428736	 529902375	 165620.
11:32:16  222 223	 1492428736	 662606035	 132704.
11:32:16  223 224	 1492428736	 824181085	 161575.
11:32:16  224 225	 1492428736	 989642315	 165461.
11:32:17  225 226	 1492428737	 151244702	 161602.
11:32:17  226 227	 1492428737	 284192703	 132948.
11:32:17  227 228	 1492428737	 449696468	 165504.
11:32:17  228 229	 1492428737	 610925876	 161230.
11:32:17  229 230	 1492428737	 776383892	 165458.
11:32:17  230 231	 1492428737	 909363771	 132980.
11:32:18  231 232	 1492428738	 71107127	 161743.
11:32:18  232 233	 1492428738	 236793205	 165686.
11:32:18  233 234	 1492428738	 398012189	 161219.
11:32:18  234 235	 1492428738	 597335698	 199323.
11:32:18  235 236	 1492428738	 758301642	 160966.
11:32:18  236 237	 1492428738	 895738953	 137438.
11:32:19  237 238	 1492428739	 87027902	 191289.
11:32:19  238 239	 1492428739	 219314605	 132286.
11:32:19  239 240	 1492428739	 380204281	 160890.
11:32:19  240 241	 1492428739	 546041534	 165837.
11:32:19  241 242	 1492428739	 707810759	 161770.
11:32:19  242 243	 1492428739	 844846488	 137035.
11:32:20  243 244	 1492428740	 36712570	 191866.
11:32:20  244 245	 1492428740	 204354464	 167642.
11:32:20  245 246	 1492428740	 365830124	 161476.
11:32:20  246 247	 1492428740	 531976497	 166146.
11:32:20  247 248	 1492428740	 664917963	 132942.
11:32:20  248 249	 1492428740	 826210687	 161292.
11:32:20  249 250	 1492428740	 992267026	 166057.
11:32:21  250 251	 1492428741	 157805301	 165538.
11:32:21  251 252	 1492428741	 290776512	 132971.
11:32:21  252 253	 1492428741	 452707382	 161931.
11:32:21  253 254	 1492428741	 619003709	 166296.
11:32:21  254 255	 1492428741	 780825050	 161822.
11:32:21  255 256	 1492428741	 947154475	 166329.
11:32:22  256 257	 1492428742	 108968882	 161815.
11:32:22  257 258	 1492428742	 274901092	 165932.
11:32:22  258 259	 1492428742	 408060894	 133160.
11:32:22  259 260	 1492428742	 574130290	 166069.
11:32:22  260 261	 1492428742	 735948838	 161819.
11:32:22  261 262	 1492428742	 902024886	 166076.
11:32:23  262 263	 1492428743	 63716569	 161691.
11:32:23  263 264	 1492428743	 196363513	 132647.
11:32:23  264 265	 1492428743	 362144915	 165782.
11:32:23  265 266	 1492428743	 524255772	 162110.
11:32:23  266 267	 1492428743	 689712611	 165457.
11:32:23  267 268	 1492428743	 822920999	 133209.
11:32:23  268 269	 1492428743	 988398711	 165477.
11:32:24  269 270	 1492428744	 150592865	 162195.
11:32:24  270 271	 1492428744	 316512092	 165919.
11:32:24  271 272	 1492428744	 478374553	 161862.
11:32:24  272 273	 1492428744	 615361947	 136988.
11:32:24  273 274	 1492428744	 776871935	 161510.
11:32:24  274 275	 1492428744	 938466149	 161594.
11:32:25  275 276	 1492428745	 104177802	 165712.
11:32:25  276 277	 1492428745	 237106468	 132928.
11:32:25  277 278	 1492428745	 402849594	 165743.
11:32:25  278 279	 1492428745	 564566214	 161717.
11:32:25  279 280	 1492428745	 726032884	 161467.
11:32:25  280 281	 1492428745	 891951043	 165918.
11:32:26  281 282	 1492428746	 24606434	 132655.
11:32:26  282 283	 1492428746	 191189067	 166583.
11:32:26  283 284	 1492428746	 348403391	 157214.
11:32:26  284 285	 1492428746	 510007620	 161604.
11:32:26  285 286	 1492428746	 647171906	 137165.
11:32:26  286 287	 1492428746	 808578905	 161407.
11:32:26  287 288	 1492428746	 973916183	 165337.
11:32:27  288 289	 1492428747	 135743059	 161827.
11:32:27  289 290	 1492428747	 268616480	 132873.
11:32:27  290 291	 1492428747	 434003884	 165388.
11:32:27  291 292	 1492428747	 595348351	 161344.
11:32:27  292 293	 1492428747	 756848958	 161501.
11:32:27  293 294	 1492428747	 923133534	 166284.
11:32:28  294 295	 1492428748	 85213935	 162081.
11:32:28  295 296	 1492428748	 222938679	 137724.
11:32:28  296 297	 1492428748	 385175221	 162237.
11:32:28  297 298	 1492428748	 551315248	 166140.
11:32:28  298 299	 1492428748	 713314164	 161999.
11:32:28  299 300	 1492428748	 879574377	 166260.
11:32:29  300 301	 1492428749	 41722684	 162148.
11:32:29  301 302	 1492428749	 207353045	 165631.
11:32:29  302 303	 1492428749	 340511628	 133158.
11:32:29  303 304	 1492428749	 502302074	 161791.
11:32:29  304 305	 1492428749	 668875410	 166573.
11:32:29  305 306	 1492428749	 831017090	 162142.
11:32:29  306 307	 1492428749	 997075814	 166059.
11:32:30  307 308	 1492428750	 158730759	 161655.
11:32:30  308 309	 1492428750	 325080020	 166349.
11:32:30  309 310	 1492428750	 458008092	 132928.
11:32:30  310 311	 1492428750	 623849050	 165841.
11:32:30  311 312	 1492428750	 785876073	 162027.
11:32:30  312 313	 1492428750	 951422154	 165546.
11:32:31  313 314	 1492428751	 84402367	 132980.
11:32:31  314 315	 1492428751	 250349727	 165947.
11:32:31  315 316	 1492428751	 416105613	 165756.
11:32:31  316 317	 1492428751	 577603379	 161498.
11:32:31  317 318	 1492428751	 710594996	 132992.
11:32:31  318 319	 1492428751	 939206178	 228611.
11:32:32  319 320	 1492428752	 76142772	 136936.
11:32:32  320 321	 1492428752	 238040988	 161899.
11:32:32  321 322	 1492428752	 399560017	 161519.
11:32:32  322 323	 1492428752	 565316599	 165756.
11:32:32  323 324	 1492428752	 731682135	 166366.
11:32:32  324 325	 1492428752	 864721733	 133040.
11:32:33  325 326	 1492428753	 28180789	 163459.
11:32:33  326 327	 1492428753	 193599534	 165418.
11:32:33  327 328	 1492428753	 355291081	 161692.
11:32:33  328 329	 1492428753	 521438950	 166148.
11:32:33  329 330	 1492428753	 683202110	 161763.
11:32:33  330 331	 1492428753	 816358200	 133156.
11:32:33  331 332	 1492428753	 981722619	 165364.
11:32:34  332 333	 1492428754	 143593350	 161871.
11:32:34  333 334	 1492428754	 309461016	 165868.
11:32:34  334 335	 1492428754	 442509083	 133048.
11:32:34  335 336	 1492428754	 604487082	 161978.
11:32:34  336 337	 1492428754	 769639127	 165152.
11:32:34  337 338	 1492428754	 931745864	 162107.
11:32:35  338 339	 1492428755	 99039257	 167293.
11:32:35  339 340	 1492428755	 260958285	 161919.
11:32:35  340 341	 1492428755	 428282921	 167325.
11:32:35  341 342	 1492428755	 589438327	 161155.
11:32:35  342 343	 1492428755	 726245039	 136807.
11:32:35  343 344	 1492428755	 887555442	 161310.
11:32:36  344 345	 1492428756	 53099485	 165544.
11:32:36  345 346	 1492428756	 186201303	 133102.
11:32:36  346 347	 1492428756	 351557356	 165356.
11:32:36  347 348	 1492428756	 513609564	 162052.
11:32:36  348 349	 1492428756	 679394103	 165785.
11:32:36  349 350	 1492428756	 812850799	 133457.
11:32:36  350 351	 1492428756	 978275400	 165424.
11:32:37  351 352	 1492428757	 139968731	 161694.
11:32:37  352 353	 1492428757	 306063578	 166094.
11:32:37  353 354	 1492428757	 439492496	 133429.
11:32:37  354 355	 1492428757	 605706319	 166214.
11:32:37  355 356	 1492428757	 767165736	 161459.
11:32:37  356 357	 1492428757	 929422677	 162257.
11:32:38  357 358	 1492428758	 95361398	 165939.
11:32:38  358 359	 1492428758	 257017953	 161657.
11:32:38  359 360	 1492428758	 394424842	 137407.
11:32:38  360 361	 1492428758	 556075420	 161650.
11:32:38  361 362	 1492428758	 721519904	 165445.
11:32:38  362 363	 1492428758	 883114033	 161594.
11:32:39  363 364	 1492428759	 19752542	 136638.
11:32:39  364 365	 1492428759	 181580171	 161828.
11:32:39  365 366	 1492428759	 346917289	 165337.
11:32:39  366 367	 1492428759	 479817052	 132900.
11:32:39  367 368	 1492428759	 641303798	 161487.
11:32:39  368 369	 1492428759	 806987163	 165683.
11:32:39  369 370	 1492428759	 969127597	 162140.
11:32:40  370 371	 1492428760	 106271469	 137144.
11:32:40  371 372	 1492428760	 268237150	 161966.
11:32:40  372 373	 1492428760	 434149557	 165912.
11:32:40  373 374	 1492428760	 595821532	 161672.
11:32:40  374 375	 1492428760	 761622323	 165801.
11:32:40  375 376	 1492428760	 894698243	 133076.
11:32:41  376 377	 1492428761	 56386802	 161689.
11:32:41  377 378	 1492428761	 221950204	 165563.
11:32:41  378 379	 1492428761	 383326206	 161376.
11:32:41  379 380	 1492428761	 548850758	 165525.
11:32:41  380 381	 1492428761	 681472703	 132621.
11:32:41  381 382	 1492428761	 842893810	 161422.
11:32:42  382 383	 1492428762	 4733843	 161840.
11:32:42  383 384	 1492428762	 170924800	 166191.
11:32:42  384 385	 1492428762	 332612106	 161687.
11:32:42  385 386	 1492428762	 469691257	 137079.
11:32:42  386 387	 1492428762	 631614865	 161924.
11:32:42  387 388	 1492428762	 790216836	 158602.
11:32:42  388 389	 1492428762	 957023234	 166806.
11:32:43  389 390	 1492428763	 115158485	 158135.
11:32:43  390 391	 1492428763	 280961508	 165804.
11:32:43  391 392	 1492428763	 442269033	 161307.
11:32:43  392 393	 1492428763	 579639120	 137370.
11:32:43  393 394	 1492428763	 740880926	 161242.
11:32:43  394 395	 1492428763	 906681512	 165800.
11:32:44  395 396	 1492428764	 68716031	 162035.
11:32:44  396 397	 1492428764	 230939201	 162223.
11:32:44  397 398	 1492428764	 367922829	 136984.
11:32:44  398 399	 1492428764	 529886299	 161963.
11:32:44  399 400	 1492428764	 695380068	 165494.
11:32:44  400 401	 1492428764	 857590250	 162210.
11:32:45  401 402	 1492428765	 23642296	 166052.
11:32:45  402 403	 1492428765	 156830843	 133189.
11:32:45  403 404	 1492428765	 322977750	 166147.
11:32:45  404 405	 1492428765	 485151327	 162173.
11:32:45  405 406	 1492428765	 650524894	 165374.
11:32:45  406 407	 1492428765	 812144612	 161619.
11:32:45  407 408	 1492428765	 949120584	 136976.
11:32:46  408 409	 1492428766	 110547914	 161428.
11:32:46  409 410	 1492428766	 272176253	 161628.
11:32:46  410 411	 1492428766	 437723378	 165547.
11:32:46  411 412	 1492428766	 570592853	 132870.
11:32:46  412 413	 1492428766	 736029597	 165436.
11:32:46  413 414	 1492428766	 897442769	 161413.
11:32:47  414 415	 1492428767	 30441134	 132999.
11:32:47  415 416	 1492428767	 195998489	 165557.
11:32:47  416 417	 1492428767	 361844137	 165846.
11:32:47  417 418	 1492428767	 523540043	 161696.
11:32:47  418 419	 1492428767	 656429697	 132889.
11:32:47  419 420	 1492428767	 822259152	 165830.
11:32:47  420 421	 1492428767	 988143053	 165884.
11:32:48  421 422	 1492428768	 149645615	 161502.
11:32:48  422 423	 1492428768	 311468745	 161824.
11:32:48  423 424	 1492428768	 448707572	 137238.
11:32:48  424 425	 1492428768	 610153745	 161447.
11:32:48  425 426	 1492428768	 775313100	 165159.
11:32:48  426 427	 1492428768	 908438294	 133125.
11:32:49  427 428	 1492428769	 70004872	 161567.
11:32:49  428 429	 1492428769	 235267643	 165262.
11:32:49  429 430	 1492428769	 396858176	 161591.
11:32:49  430 431	 1492428769	 533624116	 136766.
11:32:49  431 432	 1492428769	 695013091	 161389.
11:32:49  432 433	 1492428769	 826921680	 131908.
11:32:49  433 434	 1492428769	 992134165	 165213.
11:32:50  434 435	 1492428770	 153194363	 161060.
11:32:50  435 436	 1492428770	 314741851	 161548.
11:32:50  436 437	 1492428770	 480264624	 165522.
11:32:50  437 438	 1492428770	 642175701	 161911.
11:32:50  438 439	 1492428770	 779108094	 136933.
11:32:50  439 440	 1492428770	 940588919	 161481.
11:32:51  440 441	 1492428771	 106464975	 165876.
11:32:51  441 442	 1492428771	 268180689	 161715.
11:32:51  442 443	 1492428771	 400685196	 132505.
11:32:51  443 444	 1492428771	 566204111	 165519.
11:32:51  444 445	 1492428771	 727575282	 161371.
11:32:51  445 446	 1492428771	 888488534	 160913.
11:32:52  446 447	 1492428772	 25133611	 136645.
11:32:52  447 448	 1492428772	 186459387	 161326.
11:32:52  448 449	 1492428772	 347645043	 161186.
11:32:52  449 450	 1492428772	 513158111	 165513.
11:32:52  450 451	 1492428772	 674283133	 161125.
11:32:52  451 452	 1492428772	 811155532	 136872.
11:32:52  452 453	 1492428772	 972445699	 161290.
11:32:53  453 454	 1492428773	 133781251	 161336.
11:32:53  454 455	 1492428773	 298939602	 165158.
11:32:53  455 456	 1492428773	 431511150	 132572.
11:32:53  456 457	 1492428773	 592659336	 161148.
11:32:53  457 458	 1492428773	 757464717	 164806.
11:32:53  458 459	 1492428773	 918646568	 161181.
11:32:54  459 460	 1492428774	 76385484	 157739.
11:32:54  460 461	 1492428774	 213046482	 136661.
11:32:54  461 462	 1492428774	 374400971	 161355.
11:32:54  462 463	 1492428774	 535603297	 161202.
11:32:54  463 464	 1492428774	 672914190	 137311.
11:32:54  464 465	 1492428774	 834349161	 161435.
11:32:54  465 466	 1492428775	 245546	 165896.
11:32:55  466 467	 1492428775	 132918629	 132673.
11:32:55  467 468	 1492428775	 298701988	 165784.
11:32:55  468 469	 1492428775	 460235303	 161533.
11:32:55  469 470	 1492428775	 626177099	 165942.
11:32:55  470 471	 1492428775	 758802757	 132625.
11:32:55  471 472	 1492428775	 923919772	 165118.
11:32:56  472 473	 1492428776	 85304082	 161384.
11:32:56  473 474	 1492428776	 222474451	 137170.
11:32:56  474 475	 1492428776	 384130635	 161656.
11:32:56  475 476	 1492428776	 550078163	 165948.
11:32:56  476 477	 1492428776	 711484968	 161407.
11:32:56  477 478	 1492428776	 844003254	 132518.
11:32:57  478 479	 1492428777	 9602952	 165600.
11:32:57  479 480	 1492428777	 171179432	 161576.
11:32:57  480 481	 1492428777	 308251446	 137072.
11:32:57  481 482	 1492428777	 469669447	 161418.
11:32:57  482 483	 1492428777	 635579168	 165910.
11:32:57  483 484	 1492428777	 796911643	 161332.
11:32:57  484 485	 1492428777	 934375759	 137465.
11:32:58  485 486	 1492428778	 96440965	 162065.
11:32:58  486 487	 1492428778	 262154464	 165713.
11:32:58  487 488	 1492428778	 424092267	 161938.
11:32:58  488 489	 1492428778	 590185126	 166093.
11:32:58  489 490	 1492428778	 723668297	 133483.
11:32:58  490 491	 1492428778	 889546297	 165878.
11:32:59  491 492	 1492428779	 51184581	 161638.
11:32:59  492 493	 1492428779	 217234119	 166050.
11:32:59  493 494	 1492428779	 379682916	 162449.
11:32:59  494 495	 1492428779	 512565965	 132883.
11:32:59  495 496	 1492428779	 678434636	 165868.
11:32:59  496 497	 1492428779	 844242014	 165808.
11:33:00  497 498	 1492428780	 6003877	 161762.
11:33:00  498 499	 1492428780	 171963789	 165960.
11:33:00  499 500	 1492428780	 305022733	 133059.
11:33:00  500 501	 1492428780	 471477589	 166454.
11:33:00  501 502	 1492428780	 633843073	 162366.
11:33:00  502 503	 1492428780	 799257727	 165414.
11:33:00  503 504	 1492428780	 960382598	 161125.
11:33:01  504 505	 1492428781	 93236276	 132854.
11:33:01  505 506	 1492428781	 259024900	 165789.
11:33:01  506 507	 1492428781	 420911467	 161886.
11:33:01  507 508	 1492428781	 582486088	 161575.
11:33:01  508 509	 1492428781	 748179420	 165693.
11:33:01  509 510	 1492428781	 910212593	 162034.
11:33:02  510 511	 1492428782	 72205973	 161993.
11:33:02  511 512	 1492428782	 237790683	 165585.
11:33:02  512 513	 1492428782	 370726190	 132935.
11:33:02  513 514	 1492428782	 532369773	 161644.
11:33:02  514 515	 1492428782	 693662703	 161292.
11:33:02  515 516	 1492428782	 858700918	 165039.
11:33:03  516 517	 1492428783	 19862901	 161162.
11:33:03  517 518	 1492428783	 152669002	 132806.
11:33:03  518 519	 1492428783	 317918450	 165249.
11:33:03  519 520	 1492428783	 479529189	 161611.
11:33:03  520 521	 1492428783	 644927590	 165398.
11:33:03  521 522	 1492428783	 806180837	 161254.
11:33:03  522 523	 1492428783	 938936948	 132756.
11:33:04  523 524	 1492428784	 100377229	 161440.
11:33:04  524 525	 1492428784	 265488029	 165111.
11:33:04  525 526	 1492428784	 426584528	 161096.
11:33:04  526 527	 1492428784	 563416318	 136832.
11:33:04  527 528	 1492428784	 724655350	 161239.
11:33:04  528 529	 1492428784	 886148076	 161493.
11:33:05  529 530	 1492428785	 52867195	 166719.
11:33:05  530 531	 1492428785	 210429806	 157563.
11:33:05  531 532	 1492428785	 372065342	 161635.
11:33:05  532 533	 1492428785	 509204259	 137139.
11:33:05  533 534	 1492428785	 670751639	 161547.
11:33:05  534 535	 1492428785	 836457291	 165706.
11:33:05  535 536	 1492428785	 998113539	 161656.
11:33:06  536 537	 1492428786	 159771209	 161658.
11:33:06  537 538	 1492428786	 325350855	 165580.
11:33:06  538 539	 1492428786	 486820145	 161469.
11:33:06  539 540	 1492428786	 624007227	 137187.
11:33:06  540 541	 1492428786	 785706493	 161699.
11:33:06  541 542	 1492428786	 947476648	 161770.
11:33:07  542 543	 1492428787	 113339507	 165863.
11:33:07  543 544	 1492428787	 275296892	 161958.
11:33:07  544 545	 1492428787	 440825086	 165528.
11:33:07  545 546	 1492428787	 573780227	 132955.
11:33:07  546 547	 1492428787	 739506267	 165726.
11:33:07  547 548	 1492428787	 901112254	 161606.
11:33:08  548 549	 1492428788	 62824496	 161712.
11:33:08  549 550	 1492428788	 224327907	 161504.
11:33:08  550 551	 1492428788	 390030569	 165702.
11:33:08  551 552	 1492428788	 551702400	 161672.
11:33:08  552 553	 1492428788	 684592946	 132891.
11:33:08  553 554	 1492428788	 850256696	 165663.
11:33:09  554 555	 1492428789	 11722454	 161466.
11:33:09  555 556	 1492428789	 173279330	 161557.
11:33:09  556 557	 1492428789	 338944924	 165666.
11:33:09  557 558	 1492428789	 500504407	 161559.
11:33:09  558 559	 1492428789	 637296509	 136792.
11:33:09  559 560	 1492428789	 798618141	 161322.
11:33:09  560 561	 1492428789	 959949337	 161331.
11:33:10  561 562	 1492428790	 125593455	 165644.
11:33:10  562 563	 1492428790	 287107832	 161515.
11:33:10  563 564	 1492428790	 448389721	 161281.
11:33:10  564 565	 1492428790	 585487908	 137099.
11:33:10  565 566	 1492428790	 746766818	 161279.
11:33:10  566 567	 1492428790	 908165230	 161398.
11:33:11  567 568	 1492428791	 73817821	 165653.
11:33:11  568 569	 1492428791	 235503389	 161685.
11:33:11  569 570	 1492428791	 372410647	 136907.
11:33:11  570 571	 1492428791	 533793561	 161383.
11:33:11  571 572	 1492428791	 699481121	 165688.
11:33:11  572 573	 1492428791	 861307430	 161826.
11:33:11  573 574	 1492428791	 994293252	 132986.
11:33:12  574 575	 1492428792	 159604456	 165311.
11:33:12  575 576	 1492428792	 325178083	 165574.
11:33:12  576 577	 1492428792	 487033602	 161855.
11:33:12  577 578	 1492428792	 624478614	 137445.
11:33:12  578 579	 1492428792	 786232039	 161754.
11:33:12  579 580	 1492428792	 948080821	 161849.
11:33:13  580 581	 1492428793	 113714509	 165633.
11:33:13  581 582	 1492428793	 246618294	 132904.
11:33:13  582 583	 1492428793	 412334295	 165716.
11:33:13  583 584	 1492428793	 574299121	 161965.
11:33:13  584 585	 1492428793	 740196776	 165898.
11:33:13  585 586	 1492428793	 873310219	 133113.
11:33:14  586 587	 1492428794	 39175625	 165865.
11:33:14  587 588	 1492428794	 201356329	 162181.
11:33:14  588 589	 1492428794	 363198412	 161842.
11:33:14  589 590	 1492428794	 529476268	 166278.
11:33:14  590 591	 1492428794	 691547988	 162072.
11:33:14  591 592	 1492428794	 853679166	 162131.
11:33:15  592 593	 1492428795	 19786912	 166108.
11:33:15  593 594	 1492428795	 153004908	 133218.
11:33:15  594 595	 1492428795	 319174531	 166169.
11:33:15  595 596	 1492428795	 481635000	 162461.
11:33:15  596 597	 1492428795	 647543864	 165909.
11:33:15  597 598	 1492428795	 809065006	 161521.
11:33:15  598 599	 1492428795	 975290116	 166225.
11:33:16  599 600	 1492428796	 137510201	 162220.
11:33:16  600 601	 1492428796	 303641382	 166131.
11:33:16  601 602	 1492428796	 436906233	 133265.
11:33:16  602 603	 1492428796	 602896535	 165990.
11:33:16  603 604	 1492428796	 764862022	 161966.
11:33:16  604 605	 1492428796	 930256398	 165394.
11:33:17  605 606	 1492428797	 63319060	 133063.
11:33:17  606 607	 1492428797	 228993910	 165675.
11:33:17  607 608	 1492428797	 390555442	 161561.
11:33:17  608 609	 1492428797	 556313684	 165758.
11:33:17  609 610	 1492428797	 689244398	 132931.
11:33:17  610 611	 1492428797	 850903993	 161660.
11:33:18  611 612	 1492428798	 16906541	 166002.
11:33:18  612 613	 1492428798	 178098012	 161192.
11:33:18  613 614	 1492428798	 315273265	 137175.
11:33:18  614 615	 1492428798	 477226867	 161954.
11:33:18  615 616	 1492428798	 643503572	 166276.
11:33:18  616 617	 1492428798	 804952496	 161449.
11:33:18  617 618	 1492428798	 970663838	 165712.
11:33:19  618 619	 1492428799	 103711744	 133048.
11:33:19  619 620	 1492428799	 269501334	 165789.
11:33:19  620 621	 1492428799	 431495715	 161994.
11:33:19  621 622	 1492428799	 593107992	 161613.
11:33:19  622 623	 1492428799	 759230824	 166123.
11:33:19  623 624	 1492428799	 891590983	 132360.
11:33:20  624 625	 1492428800	 57677378	 166086.
11:33:20  625 626	 1492428800	 219087116	 161410.
11:33:20  626 627	 1492428800	 352222777	 133135.
11:33:20  627 628	 1492428800	 518108186	 165886.
11:33:20  628 629	 1492428800	 679625862	 161518.
11:33:20  629 630	 1492428800	 845424346	 165798.
11:33:20  630 631	 1492428800	 978307813	 132883.
11:33:21  631 632	 1492428801	 143719375	 165412.
11:33:21  632 633	 1492428801	 305733950	 162015.
11:33:21  633 634	 1492428801	 471642411	 165908.
11:33:21  634 635	 1492428801	 604503323	 132861.
11:33:21  635 636	 1492428801	 766551866	 162049.
11:33:21  636 637	 1492428801	 928678765	 162127.
11:33:22  637 638	 1492428802	 94450027	 165771.
11:33:22  638 639	 1492428802	 256468236	 162018.
11:33:22  639 640	 1492428802	 422670816	 166203.
11:33:22  640 641	 1492428802	 585013536	 162342.
11:33:22  641 642	 1492428802	 750918747	 165905.
11:33:22  642 643	 1492428802	 884399202	 133481.
11:33:23  643 644	 1492428803	 50405630	 166006.
11:33:23  644 645	 1492428803	 212142554	 161737.
11:33:23  645 646	 1492428803	 378054953	 165913.
11:33:23  646 647	 1492428803	 540024105	 161969.
11:33:23  647 648	 1492428803	 672972175	 132948.
11:33:23  648 649	 1492428803	 838890224	 165918.
11:33:23  649 650	 1492428804	 698233	 161808.
11:33:24  650 651	 1492428804	 166393615	 165695.
11:33:24  651 652	 1492428804	 328154104	 161761.
11:33:24  652 653	 1492428804	 465566124	 137412.
11:33:24  653 654	 1492428804	 626951133	 161385.
11:33:24  654 655	 1492428804	 788114458	 161163.
11:33:24  655 656	 1492428804	 953428471	 165314.
11:33:25  656 657	 1492428805	 114603285	 161175.
11:33:25  657 658	 1492428805	 247676556	 133073.
11:33:25  658 659	 1492428805	 413215753	 165540.
11:33:25  659 660	 1492428805	 574464399	 161248.
11:33:25  660 661	 1492428805	 710979919	 136516.
11:33:25  661 662	 1492428805	 872327457	 161347.
11:33:26  662 663	 1492428806	 38117647	 165790.
11:33:26  663 664	 1492428806	 199869400	 161752.
11:33:26  664 665	 1492428806	 365959613	 166090.
11:33:26  665 666	 1492428806	 498997893	 133039.
11:33:26  666 667	 1492428806	 660681630	 161683.
11:33:26  667 668	 1492428806	 826174906	 165494.
11:33:26  668 669	 1492428806	 987615117	 161440.
11:33:27  669 670	 1492428807	 124693642	 137078.
11:33:27  670 671	 1492428807	 286592811	 161900.
11:33:27  671 672	 1492428807	 452322792	 165730.
11:33:27  672 673	 1492428807	 614264073	 161941.
11:33:27  673 674	 1492428807	 751117462	 136853.
11:33:27  674 675	 1492428807	 912811114	 161694.
11:33:28  675 676	 1492428808	 74626568	 161815.
11:33:28  676 677	 1492428808	 239950047	 165324.
11:33:28  677 678	 1492428808	 372824959	 132875.
11:33:28  678 679	 1492428808	 538083042	 165258.
11:33:28  679 680	 1492428808	 699841377	 161758.
11:33:28  680 681	 1492428808	 836534570	 136693.
11:33:28  681 682	 1492428808	 998016460	 161482.
11:33:29  682 683	 1492428809	 164084175	 166068.
11:33:29  683 684	 1492428809	 326043629	 161959.
11:33:29  684 685	 1492428809	 491899314	 165856.
11:33:29  685 686	 1492428809	 624998018	 133099.
11:33:29  686 687	 1492428809	 790646288	 165648.
11:33:29  687 688	 1492428809	 952758043	 162112.
11:33:30  688 689	 1492428810	 118774633	 166016.
11:33:30  689 690	 1492428810	 277154401	 158380.
11:33:30  690 691	 1492428810	 442981847	 165828.
11:33:30  691 692	 1492428810	 576129327	 133147.
11:33:30  692 693	 1492428810	 738078835	 161950.
11:33:30  693 694	 1492428810	 903729358	 165650.
11:33:31  694 695	 1492428811	 65233972	 161505.
11:33:31  695 696	 1492428811	 202044634	 136811.
11:33:31  696 697	 1492428811	 363858379	 161813.
11:33:31  697 698	 1492428811	 525529420	 161671.
11:33:31  698 699	 1492428811	 691065047	 165536.
11:33:31  699 700	 1492428811	 852887172	 161822.
11:33:32  700 701	 1492428812	 14796052	 161909.
11:33:32  701 702	 1492428812	 180846806	 166051.
11:33:32  702 703	 1492428812	 342883062	 162036.
11:33:32  703 704	 1492428812	 504479454	 161596.
11:33:32  704 705	 1492428812	 670114206	 165635.
11:33:32  705 706	 1492428812	 803037079	 132923.
11:33:32  706 707	 1492428812	 989804190	 186767.
11:33:33  707 708	 1492428813	 122924384	 133120.
11:33:33  708 709	 1492428813	 288652019	 165728.
11:33:33  709 710	 1492428813	 449997729	 161346.
11:33:33  710 711	 1492428813	 615971740	 165974.
11:33:33  711 712	 1492428813	 777190979	 161219.
11:33:33  712 713	 1492428813	 910055909	 132865.
11:33:34  713 714	 1492428814	 75778517	 165722.
11:33:34  714 715	 1492428814	 237077255	 161299.
11:33:34  715 716	 1492428814	 402331204	 165254.
11:33:34  716 717	 1492428814	 564122880	 161792.
11:33:34  717 718	 1492428814	 725770149	 161647.
11:33:34  718 719	 1492428814	 862564281	 136794.
11:33:35  719 720	 1492428815	 23935901	 161372.
11:33:35  720 721	 1492428815	 189410380	 165474.
11:33:35  721 722	 1492428815	 350701095	 161291.
11:33:35  722 723	 1492428815	 515984350	 165283.
11:33:35  723 724	 1492428815	 648657966	 132674.
11:33:35  724 725	 1492428815	 809816378	 161158.
11:33:35  725 726	 1492428815	 975105818	 165290.
11:33:36  726 727	 1492428816	 136656475	 161550.
11:33:36  727 728	 1492428816	 298328199	 161672.
11:33:36  728 729	 1492428816	 435509902	 137182.
11:33:36  729 730	 1492428816	 597740990	 162231.
11:33:36  730 731	 1492428816	 763893498	 166152.
11:33:36  731 732	 1492428816	 925957806	 162065.
11:33:37  732 733	 1492428817	 92177799	 166220.
11:33:37  733 734	 1492428817	 253886567	 161708.
11:33:37  734 735	 1492428817	 419827242	 165941.
11:33:37  735 736	 1492428817	 581700633	 161873.
11:33:37  736 737	 1492428817	 714986428	 133286.
11:33:37  737 738	 1492428817	 881223311	 166237.
11:33:38  738 739	 1492428818	 43134176	 161911.
11:33:38  739 740	 1492428818	 209053336	 165919.
11:33:38  740 741	 1492428818	 370773132	 161720.
11:33:38  741 742	 1492428818	 536710582	 165937.
11:33:38  742 743	 1492428818	 669593034	 132883.
11:33:38  743 744	 1492428818	 835354910	 165762.
11:33:38  744 745	 1492428818	 997189978	 161835.
11:33:39  745 746	 1492428819	 158806043	 161616.
11:33:39  746 747	 1492428819	 295952714	 137146.
11:33:39  747 748	 1492428819	 457174963	 161223.
11:33:39  748 749	 1492428819	 623434073	 166259.
11:33:39  749 750	 1492428819	 785267474	 161833.
11:33:39  750 751	 1492428819	 946869863	 161603.
11:33:40  751 752	 1492428820	 112503803	 165634.
11:33:40  752 753	 1492428820	 245405844	 132902.
11:33:40  753 754	 1492428820	 411175952	 165770.
11:33:40  754 755	 1492428820	 573089654	 161913.
11:33:40  755 756	 1492428820	 738678553	 165589.
11:33:40  756 757	 1492428820	 900119177	 161441.
11:33:41  757 758	 1492428821	 33081859	 132963.
11:33:41  758 759	 1492428821	 198912834	 165831.
11:33:41  759 760	 1492428821	 360855041	 161942.
11:33:41  760 761	 1492428821	 526811426	 165956.
11:33:41  761 762	 1492428821	 692361226	 165550.
11:33:41  762 763	 1492428821	 825361375	 133000.
11:33:41  763 764	 1492428821	 987205829	 161845.
11:33:42  764 765	 1492428822	 152497726	 165291.
11:33:42  765 766	 1492428822	 314523437	 162026.
11:33:42  766 767	 1492428822	 479756645	 165233.
11:33:42  767 768	 1492428822	 612825049	 133069.
11:33:42  768 769	 1492428822	 774042303	 161217.
11:33:42  769 770	 1492428822	 939044485	 165002.
11:33:43  770 771	 1492428823	 100293876	 161250.
11:33:43  771 772	 1492428823	 237536160	 137242.
11:33:43  772 773	 1492428823	 399205369	 161669.
11:33:43  773 774	 1492428823	 561088814	 161884.
11:33:43  774 775	 1492428823	 727164607	 166075.
11:33:43  775 776	 1492428823	 889293484	 162129.
11:33:44  776 777	 1492428824	 26378343	 137085.
11:33:44  777 778	 1492428824	 188752475	 162374.
11:33:44  778 779	 1492428824	 347087662	 158335.
11:33:44  779 780	 1492428824	 509443794	 162357.
11:33:44  780 781	 1492428824	 671056686	 161612.
11:33:44  781 782	 1492428824	 837098814	 166043.
11:33:44  782 783	 1492428824	 998575550	 161476.
11:33:45  783 784	 1492428825	 135869233	 137294.
11:33:45  784 785	 1492428825	 297779707	 161911.
11:33:45  785 786	 1492428825	 459573630	 161793.
11:33:45  786 787	 1492428825	 625704892	 166132.
11:33:45  787 788	 1492428825	 791548117	 165843.
11:33:45  788 789	 1492428825	 924350095	 132802.
11:33:46  789 790	 1492428826	 89764097	 165414.
11:33:46  790 791	 1492428826	 251377220	 161613.
11:33:46  791 792	 1492428826	 388256767	 136879.
11:33:46  792 793	 1492428826	 549574882	 161319.
11:33:46  793 794	 1492428826	 715928878	 166354.
11:33:46  794 795	 1492428826	 877497886	 161569.
11:33:47  795 796	 1492428827	 10136363	 132638.
11:33:47  796 797	 1492428827	 175729840	 165594.
11:33:47  797 798	 1492428827	 337485326	 161755.
11:33:47  798 799	 1492428827	 473962805	 136478.
11:33:47  799 800	 1492428827	 635470186	 161507.
11:33:47  800 801	 1492428827	 797085953	 161616.
11:33:47  801 802	 1492428827	 962776394	 165690.
11:33:48  802 803	 1492428828	 96050736	 133275.
11:33:48  803 804	 1492428828	 261731829	 165681.
11:33:48  804 805	 1492428828	 423168238	 161436.
11:33:48  805 806	 1492428828	 589366803	 166199.
11:33:48  806 807	 1492428828	 751580440	 162213.
11:33:48  807 808	 1492428828	 917964509	 166384.
11:33:49  808 809	 1492428829	 51357355	 133393.
11:33:49  809 810	 1492428829	 217559731	 166203.
11:33:49  810 811	 1492428829	 379813439	 162253.
11:33:49  811 812	 1492428829	 546209098	 166396.
11:33:49  812 813	 1492428829	 708167838	 161959.
11:33:49  813 814	 1492428829	 873534295	 165366.
11:33:50  814 815	 1492428830	 6267755	 132734.
11:33:50  815 816	 1492428830	 171871201	 165603.
11:33:50  816 817	 1492428830	 333312002	 161441.
11:33:50  817 818	 1492428830	 465894829	 132583.
11:33:50  818 819	 1492428830	 631678906	 165784.
11:33:50  819 820	 1492428830	 792910275	 161231.
11:33:50  820 821	 1492428830	 958413300	 165503.
11:33:51  821 822	 1492428831	 91272562	 132859.
11:33:51  822 823	 1492428831	 252796458	 161524.
11:33:51  823 824	 1492428831	 418468259	 165672.
11:33:51  824 825	 1492428831	 580315457	 161847.
11:33:51  825 826	 1492428831	 717431898	 137117.
11:33:51  826 827	 1492428831	 878963989	 161532.
11:33:52  827 828	 1492428832	 40401153	 161437.
11:33:52  828 829	 1492428832	 205913705	 165512.
11:33:52  829 830	 1492428832	 338775548	 132862.
11:33:52  830 831	 1492428832	 504485282	 165710.
11:33:52  831 832	 1492428832	 666284596	 161799.
11:33:52  832 833	 1492428832	 831778267	 165494.
11:33:52  833 834	 1492428832	 964754370	 132976.
11:33:53  834 835	 1492428833	 130994926	 166241.
11:33:53  835 836	 1492428833	 292770878	 161776.
11:33:53  836 837	 1492428833	 458197999	 165427.
11:33:53  837 838	 1492428833	 590952435	 132754.
11:33:53  838 839	 1492428833	 756507719	 165555.
11:33:53  839 840	 1492428833	 918065425	 161558.
11:33:54  840 841	 1492428834	 55065271	 137000.
11:33:54  841 842	 1492428834	 216572850	 161508.
11:33:54  842 843	 1492428834	 382404541	 165831.
11:33:54  843 844	 1492428834	 544035631	 161631.
11:33:54  844 845	 1492428834	 680853082	 136818.
11:33:54  845 846	 1492428834	 842523292	 161670.
11:33:55  846 847	 1492428835	 8337653	 165814.
11:33:55  847 848	 1492428835	 141048343	 132711.
11:33:55  848 849	 1492428835	 303342760	 162294.
11:33:55  849 850	 1492428835	 468645553	 165303.
11:33:55  850 851	 1492428835	 633525884	 164881.
11:33:55  851 852	 1492428835	 766124709	 132598.
11:33:55  852 853	 1492428835	 927793335	 161669.
11:33:56  853 854	 1492428836	 64249444	 136456.
11:33:56  854 855	 1492428836	 225765328	 161516.
11:33:56  855 856	 1492428836	 391332454	 165567.
11:33:56  856 857	 1492428836	 552860536	 161528.
11:33:56  857 858	 1492428836	 689426916	 136567.
11:33:56  858 859	 1492428836	 850996421	 161569.
11:33:57  859 860	 1492428837	 16292145	 165296.
11:33:57  860 861	 1492428837	 149032187	 132740.
11:33:57  861 862	 1492428837	 310606738	 161574.
11:33:57  862 863	 1492428837	 476336920	 165731.
11:33:57  863 864	 1492428837	 609138037	 132801.
11:33:57  864 865	 1492428837	 775067347	 165929.
11:33:57  865 866	 1492428837	 937017925	 161951.
11:33:58  866 867	 1492428838	 103318073	 166300.
11:33:58  867 868	 1492428838	 265044192	 161726.
11:33:58  868 869	 1492428838	 402167419	 137123.
11:33:58  869 870	 1492428838	 563688809	 161522.
11:33:58  870 871	 1492428838	 729248752	 165560.
11:33:58  871 872	 1492428838	 890823045	 161574.
11:33:59  872 873	 1492428839	 27899588	 137076.
11:33:59  873 874	 1492428839	 189493711	 161594.
11:33:59  874 875	 1492428839	 355398180	 165905.
11:33:59  875 876	 1492428839	 517736438	 162338.
11:33:59  876 877	 1492428839	 651072056	 133336.
11:33:59  877 878	 1492428839	 816632186	 165560.
11:33:59  878 879	 1492428839	 978237072	 161605.
11:34:00  879 880	 1492428840	 139961304	 161724.
11:34:00  880 881	 1492428840	 305515120	 165554.
11:34:00  881 882	 1492428840	 467222906	 161708.
11:34:00  882 883	 1492428840	 632764046	 165541.
11:34:00  883 884	 1492428840	 795226432	 162462.
11:34:00  884 885	 1492428840	 952551921	 157326.
11:34:01  885 886	 1492428841	 85543817	 132992.
11:34:01  886 887	 1492428841	 251261694	 165717.
11:34:01  887 888	 1492428841	 412606660	 161345.
11:34:01  888 889	 1492428841	 574032191	 161426.
11:34:01  889 890	 1492428841	 739600917	 165569.
11:34:01  890 891	 1492428841	 897765722	 158164.
11:34:02  891 892	 1492428842	 59855812	 162091.
11:34:02  892 893	 1492428842	 225617108	 165761.
11:34:02  893 894	 1492428842	 387185447	 161568.
11:34:02  894 895	 1492428842	 520124119	 132939.
11:34:02  895 896	 1492428842	 686027630	 165903.
11:34:02  896 897	 1492428842	 847642143	 161615.
11:34:03  897 898	 1492428843	 9382232	 161740.
11:34:03  898 899	 1492428843	 175045292	 165663.
11:34:03  899 900	 1492428843	 336829102	 161784.
11:34:03  900 901	 1492428843	 502647905	 165819.
11:34:03  901 902	 1492428843	 664456914	 161809.
11:34:03  902 903	 1492428843	 826153301	 161696.
11:34:03  903 904	 1492428843	 959181813	 133029.
11:34:04  904 905	 1492428844	 124993893	 165812.
11:34:04  905 906	 1492428844	 286628666	 161634.
11:34:04  906 907	 1492428844	 452346685	 165718.
11:34:04  907 908	 1492428844	 613922171	 161576.
11:34:04  908 909	 1492428844	 775563420	 161641.
11:34:04  909 910	 1492428844	 941610353	 166047.
11:34:05  910 911	 1492428845	 103380225	 161770.
11:34:05  911 912	 1492428845	 236414779	 133035.
11:34:05  912 913	 1492428845	 402225825	 165811.
11:34:05  913 914	 1492428845	 563967045	 161741.
11:34:05  914 915	 1492428845	 725218148	 161251.
11:34:05  915 916	 1492428845	 890638690	 165420.
11:34:06  916 917	 1492428846	 52185055	 161547.
11:34:06  917 918	 1492428846	 184863862	 132679.
11:34:06  918 919	 1492428846	 350709885	 165846.
11:34:06  919 920	 1492428846	 512403227	 161693.
11:34:06  920 921	 1492428846	 677864618	 165461.
11:34:06  921 922	 1492428846	 839874720	 162010.
11:34:06  922 923	 1492428847	 1499690	 161625.
11:34:07  923 924	 1492428847	 163444493	 161945.
11:34:07  924 925	 1492428847	 329220162	 165776.
11:34:07  925 926	 1492428847	 490966519	 161746.
11:34:07  926 927	 1492428847	 628136661	 137170.
11:34:07  927 928	 1492428847	 789834930	 161699.
11:34:07  928 929	 1492428847	 951575761	 161741.
11:34:08  929 930	 1492428848	 117575037	 165999.
11:34:08  930 931	 1492428848	 279394407	 161819.
11:34:08  931 932	 1492428848	 441203720	 161809.
11:34:08  932 933	 1492428848	 606966083	 165763.
11:34:08  933 934	 1492428848	 768797715	 161832.
11:34:08  934 935	 1492428848	 930546220	 161748.
11:34:09  935 936	 1492428849	 67519731	 136973.
11:34:09  936 937	 1492428849	 229286367	 161767.
11:34:09  937 938	 1492428849	 390843147	 161557.
11:34:09  938 939	 1492428849	 556547402	 165704.
11:34:09  939 940	 1492428849	 718101844	 161555.
11:34:09  940 941	 1492428849	 883921797	 165820.
11:34:10  941 942	 1492428850	 45430743	 161509.
11:34:10  942 943	 1492428850	 207517538	 162086.
11:34:10  943 944	 1492428850	 369233512	 161716.
11:34:10  944 945	 1492428850	 506014234	 136781.
11:34:10  945 946	 1492428850	 667782898	 161769.
11:34:10  946 947	 1492428850	 829605414	 161822.
11:34:10  947 948	 1492428850	 987970907	 158366.
11:34:11  948 949	 1492428851	 153525308	 165554.
11:34:11  949 950	 1492428851	 315028161	 161503.
11:34:11  950 951	 1492428851	 476960545	 161932.
11:34:11  951 952	 1492428851	 643034746	 166075.
11:34:11  952 953	 1492428851	 805420731	 162386.
11:34:11  953 954	 1492428851	 942694163	 137273.
11:34:12  954 955	 1492428852	 104344438	 161650.
11:34:12  955 956	 1492428852	 265969899	 161626.
11:34:12  956 957	 1492428852	 428024583	 162054.
11:34:12  957 958	 1492428852	 593750294	 165726.
11:34:12  958 959	 1492428852	 726853733	 133103.
11:34:12  959 960	 1492428852	 888665593	 161812.
11:34:13  960 961	 1492428853	 54365352	 165700.
11:34:13  961 962	 1492428853	 187169935	 132805.
11:34:13  962 963	 1492428853	 352586541	 165416.
11:34:13  963 964	 1492428853	 514633011	 162047.
11:34:13  964 965	 1492428853	 680545962	 165913.
11:34:13  965 966	 1492428853	 813219585	 132673.
11:34:13  966 967	 1492428853	 975214256	 161995.
11:34:14  967 968	 1492428854	 141018823	 165805.
11:34:14  968 969	 1492428854	 306917428	 165898.
11:34:14  969 970	 1492428854	 439883963	 132967.
11:34:14  970 971	 1492428854	 605567209	 165683.
11:34:14  971 972	 1492428854	 767089993	 161523.
11:34:14  972 973	 1492428854	 929042257	 161952.
11:34:15  973 974	 1492428855	 94792506	 165750.
11:34:15  974 975	 1492428855	 227896758	 133104.
11:34:15  975 976	 1492428855	 393655598	 165760.
11:34:15  976 977	 1492428855	 555230157	 161574.
11:34:15  977 978	 1492428855	 720987305	 165757.
11:34:15  978 979	 1492428855	 854116756	 133130.
11:34:16  979 980	 1492428856	 20087057	 165970.
11:34:16  980 981	 1492428856	 181546599	 161459.
11:34:16  981 982	 1492428856	 347170368	 165624.
11:34:16  982 983	 1492428856	 480067492	 132898.
11:34:16  983 984	 1492428856	 641379702	 161311.
11:34:16  984 985	 1492428856	 807261818	 165883.
11:34:16  985 986	 1492428856	 968387351	 161125.
11:34:17  986 987	 1492428857	 105853452	 137466.
11:34:17  987 988	 1492428857	 263270112	 157417.
11:34:17  988 989	 1492428857	 424733640	 161463.
11:34:17  989 990	 1492428857	 586659849	 161927.
11:34:17  990 991	 1492428857	 723477532	 136817.
11:34:17  991 992	 1492428857	 884719179	 161242.
11:34:18  992 993	 1492428858	 50304461	 165585.
11:34:18  993 994	 1492428858	 183141309	 132837.
11:34:18  994 995	 1492428858	 348801647	 165660.
11:34:18  995 996	 1492428858	 510254713	 161453.
11:34:18  996 997	 1492428858	 676046651	 165792.
11:34:18  997 998	 1492428858	 809043147	 132997.
11:34:18  998 999	 1492428858	 974482546	 165439.
11:34:19  999 1000	 1492428859	 135644645	 161163.
11:34:19 1000 1001	 1492428859	 268577595	 132932.
11:34:19 1001 1002	 1492428859	 434065223	 165488.
11:34:19 1002 1003	 1492428859	 595764017	 161699.
11:34:19 1003 1004	 1492428859	 732753674	 136989.
11:34:19 1004 1005	 1492428859	 894122082	 161369.
11:34:20 1005 1006	 1492428860	 59861420	 165739.
11:34:20 1006 1007	 1492428860	 221404656	 161543.
11:34:20 1007 1008	 1492428860	 358253561	 136849.
11:34:20 1008 1009	 1492428860	 519416781	 161164.
11:34:20 1009 1010	 1492428860	 651901710	 132484.
11:34:20 1010 1011	 1492428860	 817421253	 165520.
11:34:20 1011 1012	 1492428860	 978645618	 161224.
11:34:21 1012 1013	 1492428861	 115431062	 136786.
11:34:21 1013 1014	 1492428861	 276975178	 161544.
11:34:21 1014 1015	 1492428861	 442772063	 165797.
11:34:21 1015 1016	 1492428861	 604277019	 161505.
11:34:21 1016 1017	 1492428861	 737360616	 133083.
11:34:21 1017 1018	 1492428861	 903340665	 165980.
11:34:22 1018 1019	 1492428862	 65381848	 162042.
11:34:22 1019 1020	 1492428862	 231360173	 165978.
11:34:22 1020 1021	 1492428862	 364594645	 133234.
11:34:22 1021 1022	 1492428862	 530123847	 165530.
11:34:22 1022 1023	 1492428862	 692503292	 162379.
11:34:22 1023 1024	 1492428862	 858116585	 165613.
11:34:23 1024 1025	 1492428863	 19916816	 161801.
11:34:23 1025 1026	 1492428863	 157207011	 137290.
11:34:23 1026 1027	 1492428863	 319093050	 161886.
11:34:23 1027 1028	 1492428863	 484526796	 165433.
11:34:23 1028 1029	 1492428863	 617178670	 132652.
11:34:23 1029 1030	 1492428863	 782491720	 165313.
11:34:23 1030 1031	 1492428863	 943570822	 161080.
11:34:24 1031 1032	 1492428864	 80550764	 136980.
11:34:24 1032 1033	 1492428864	 242419734	 161869.
11:34:24 1033 1034	 1492428864	 407718215	 165298.
11:34:24 1034 1035	 1492428864	 540335824	 132618.
11:34:24 1035 1036	 1492428864	 705795599	 165459.
11:34:24 1036 1037	 1492428864	 867549903	 161755.
11:34:25 1037 1038	 1492428865	 28947547	 161397.
11:34:25 1038 1039	 1492428865	 166086910	 137140.
11:34:25 1039 1040	 1492428865	 327465310	 161378.
11:34:25 1040 1041	 1492428865	 493501279	 166036.
11:34:25 1041 1042	 1492428865	 626047158	 132546.
11:34:25 1042 1043	 1492428865	 791303984	 165257.
11:34:25 1043 1044	 1492428865	 952505092	 161201.
11:34:26 1044 1045	 1492428866	 89492260	 136987.
11:34:26 1045 1046	 1492428866	 250899590	 161407.
11:34:26 1046 1047	 1492428866	 416540639	 165642.
11:34:26 1047 1048	 1492428866	 578161898	 161621.
11:34:26 1048 1049	 1492428866	 714975817	 136813.
11:34:26 1049 1050	 1492428866	 876707935	 161733.
11:34:27 1050 1051	 1492428867	 42272370	 165564.
11:34:27 1051 1052	 1492428867	 175320393	 133048.
11:34:27 1052 1053	 1492428867	 341117946	 165798.
11:34:27 1053 1054	 1492428867	 502725116	 161607.
11:34:27 1054 1055	 1492428867	 664927720	 162202.
11:34:27 1055 1056	 1492428867	 826218481	 161291.
11:34:27 1056 1057	 1492428867	 958522634	 132304.
11:34:28 1057 1058	 1492428868	 120196897	 161675.
11:34:28 1058 1059	 1492428868	 285775542	 165578.
11:34:28 1059 1060	 1492428868	 418508417	 132733.
11:34:28 1060 1061	 1492428868	 583777988	 165270.
11:34:28 1061 1062	 1492428868	 716625310	 132847.
11:34:28 1062 1063	 1492428868	 882619952	 165995.
11:34:29 1063 1064	 1492428869	 44446871	 161827.
11:34:29 1064 1065	 1492428869	 210331253	 165884.
11:34:29 1065 1066	 1492428869	 343035307	 132704.
11:34:29 1066 1067	 1492428869	 508856195	 165821.
11:34:29 1067 1068	 1492428869	 670377550	 161521.
11:34:29 1068 1069	 1492428869	 836374023	 165997.
11:34:29 1069 1070	 1492428869	 969487299	 133113.
11:34:30 1070 1071	 1492428870	 131020922	 161534.
11:34:30 1071 1072	 1492428870	 296960252	 165939.
11:34:30 1072 1073	 1492428870	 458568795	 161608.
11:34:30 1073 1074	 1492428870	 595430531	 136862.
11:34:30 1074 1075	 1492428870	 757144843	 161715.
11:34:30 1075 1076	 1492428870	 922750045	 165605.
11:34:31 1076 1077	 1492428871	 84353611	 161603.
11:34:31 1077 1078	 1492428871	 221579159	 137226.
11:34:31 1078 1079	 1492428871	 383377196	 161798.
11:34:31 1079 1080	 1492428871	 549181278	 165804.
11:34:31 1080 1081	 1492428871	 681600480	 132419.
11:34:31 1081 1082	 1492428871	 847107239	 165507.
11:34:32 1082 1083	 1492428872	 8626595	 161519.
11:34:32 1083 1084	 1492428872	 174698409	 166072.
11:34:32 1084 1085	 1492428872	 307508904	 132811.
11:34:32 1085 1086	 1492428872	 469202692	 161693.
11:34:32 1086 1087	 1492428872	 634324650	 165122.
11:34:32 1087 1088	 1492428872	 767267524	 132943.
11:34:32 1088 1089	 1492428872	 932656462	 165389.
11:34:33 1089 1090	 1492428873	 94151592	 161495.
11:34:33 1090 1091	 1492428873	 231182339	 137031.
11:34:33 1091 1092	 1492428873	 392314084	 161132.
11:34:33 1092 1093	 1492428873	 557890495	 165576.
11:34:33 1093 1094	 1492428873	 690757337	 132867.
11:34:33 1094 1095	 1492428873	 856528569	 165771.
11:34:34 1095 1096	 1492428874	 17876426	 161348.
11:34:34 1096 1097	 1492428874	 183633568	 165757.
11:34:34 1097 1098	 1492428874	 316656704	 133023.
11:34:34 1098 1099	 1492428874	 481585789	 164930.
11:34:34 1099 1100	 1492428874	 643191993	 161606.
11:34:34 1100 1101	 1492428874	 780355962	 137164.
11:34:34 1101 1102	 1492428874	 941897831	 161542.
11:34:35 1102 1103	 1492428875	 107459809	 165562.
11:34:35 1103 1104	 1492428875	 240146569	 132686.
11:34:35 1104 1105	 1492428875	 406127007	 165981.
11:34:35 1105 1106	 1492428875	 567835537	 161709.
11:34:35 1106 1107	 1492428875	 733882935	 166047.
11:34:35 1107 1108	 1492428875	 896236761	 162354.
11:34:36 1108 1109	 1492428876	 62395838	 166159.
11:34:36 1109 1110	 1492428876	 195685177	 133289.
11:34:36 1110 1111	 1492428876	 362139027	 166454.
11:34:36 1111 1112	 1492428876	 524393427	 162254.
11:34:36 1112 1113	 1492428876	 686319754	 161926.
11:34:36 1113 1114	 1492428876	 852013395	 165694.
11:34:37 1114 1115	 1492428877	 13676377	 161663.
11:34:37 1115 1116	 1492428877	 179306567	 165630.
11:34:37 1116 1117	 1492428877	 341127965	 161822.
11:34:37 1117 1118	 1492428877	 503447819	 162320.
11:34:37 1118 1119	 1492428877	 640617331	 137169.
11:34:37 1119 1120	 1492428877	 802284643	 161667.
11:34:37 1120 1121	 1492428877	 963569278	 161285.
11:34:38 1121 1122	 1492428878	 129126322	 165557.
11:34:38 1122 1123	 1492428878	 290989435	 161863.
11:34:38 1123 1124	 1492428878	 456457046	 165468.
11:34:38 1124 1125	 1492428878	 617972915	 161516.
11:34:38 1125 1126	 1492428878	 775938162	 157965.
11:34:38 1126 1127	 1492428878	 912948468	 137010.
11:34:39 1127 1128	 1492428879	 74289706	 161341.
11:34:39 1128 1129	 1492428879	 239929975	 165641.
11:34:39 1129 1130	 1492428879	 401391256	 161461.
11:34:39 1130 1131	 1492428879	 562545604	 161154.
11:34:39 1131 1132	 1492428879	 699237511	 136692.
11:34:39 1132 1133	 1492428879	 860732978	 161496.
11:34:40 1133 1134	 1492428880	 22279747	 161547.
11:34:40 1134 1135	 1492428880	 187969157	 165689.
11:34:40 1135 1136	 1492428880	 349517315	 161548.
11:34:40 1136 1137	 1492428880	 515004720	 165487.
11:34:40 1137 1138	 1492428880	 647671573	 132667.
11:34:40 1138 1139	 1492428880	 809250933	 161580.
11:34:40 1139 1140	 1492428880	 970662085	 161411.
11:34:41 1140 1141	 1492428881	 136154675	 165492.
11:34:41 1141 1142	 1492428881	 297794605	 161640.
11:34:41 1142 1143	 1492428881	 434856854	 137063.
11:34:41 1143 1144	 1492428881	 596530611	 161673.
11:34:41 1144 1145	 1492428881	 762429544	 165899.
11:34:41 1145 1146	 1492428881	 924084654	 161655.
11:34:42 1146 1147	 1492428882	 85465734	 161381.
11:34:42 1147 1148	 1492428882	 222500420	 137035.
11:34:42 1148 1149	 1492428882	 384045622	 161545.
11:34:42 1149 1150	 1492428882	 550145923	 166101.
11:34:42 1150 1151	 1492428882	 712013259	 161867.
11:34:42 1151 1152	 1492428882	 873792990	 161780.
11:34:43 1152 1153	 1492428883	 10815563	 137022.
11:34:43 1153 1154	 1492428883	 172617411	 161802.
11:34:43 1154 1155	 1492428883	 338481566	 165864.
11:34:43 1155 1156	 1492428883	 499974633	 161493.
11:34:43 1156 1157	 1492428883	 637178084	 137204.
11:34:43 1157 1158	 1492428883	 798875213	 161697.
11:34:43 1158 1159	 1492428883	 964703314	 165828.
11:34:44 1159 1160	 1492428884	 126386717	 161683.
11:34:44 1160 1161	 1492428884	 292992961	 166607.
11:34:44 1161 1162	 1492428884	 454935653	 161942.
11:34:44 1162 1163	 1492428884	 621199649	 166264.
11:34:44 1163 1164	 1492428884	 754480563	 133281.
11:34:44 1164 1165	 1492428884	 916664148	 162184.
11:34:45 1165 1166	 1492428885	 82920534	 166257.
11:34:45 1166 1167	 1492428885	 244630925	 161710.
11:34:45 1167 1168	 1492428885	 410756826	 166126.
11:34:45 1168 1169	 1492428885	 572639417	 161882.
11:34:45 1169 1170	 1492428885	 733980091	 161341.
11:34:45 1170 1171	 1492428885	 899811547	 165831.
11:34:46 1171 1172	 1492428886	 32699398	 132888.
11:34:46 1172 1173	 1492428886	 194024643	 161325.
11:34:46 1173 1174	 1492428886	 359568230	 165544.
11:34:46 1174 1175	 1492428886	 521089990	 161522.
11:34:46 1175 1176	 1492428886	 686855194	 165765.
11:34:46 1176 1177	 1492428886	 819908322	 133053.
11:34:46 1177 1178	 1492428886	 981717310	 161809.
11:34:47 1178 1179	 1492428887	 147460225	 165743.
11:34:47 1179 1180	 1492428887	 309189530	 161729.
11:34:47 1180 1181	 1492428887	 474629991	 165441.
11:34:47 1181 1182	 1492428887	 607396975	 132767.
11:34:47 1182 1183	 1492428887	 769120036	 161723.
11:34:47 1183 1184	 1492428887	 934871321	 165751.
11:34:48 1184 1185	 1492428888	 96343443	 161472.
11:34:48 1185 1186	 1492428888	 261624553	 165281.
11:34:48 1186 1187	 1492428888	 394249485	 132625.
11:34:48 1187 1188	 1492428888	 555575735	 161326.
11:34:48 1188 1189	 1492428888	 721100483	 165525.
11:34:48 1189 1190	 1492428888	 882186345	 161086.
11:34:49 1190 1191	 1492428889	 43549592	 161363.
11:34:49 1191 1192	 1492428889	 180530554	 136981.
11:34:49 1192 1193	 1492428889	 341919530	 161390.
11:34:49 1193 1194	 1492428889	 503278136	 161358.
11:34:49 1194 1195	 1492428889	 664837154	 161559.
11:34:49 1195 1196	 1492428889	 826118036	 161281.
11:34:49 1196 1197	 1492428889	 984144903	 158027.
11:34:50 1197 1198	 1492428890	 121519634	 137374.
11:34:50 1198 1199	 1492428890	 283139363	 161620.
11:34:50 1199 1200	 1492428890	 449415425	 166276.
11:34:50 1200 1201	 1492428890	 611213983	 161799.
11:34:50 1201 1202	 1492428890	 777147299	 165933.
11:34:50 1202 1203	 1492428890	 939050851	 161904.
11:34:51 1203 1204	 1492428891	 72039080	 132988.
11:34:51 1204 1205	 1492428891	 237997117	 165958.
11:34:51 1205 1206	 1492428891	 399956003	 161959.
11:34:51 1206 1207	 1492428891	 562085347	 162129.
11:34:51 1207 1208	 1492428891	 728007497	 165922.
11:34:51 1208 1209	 1492428891	 890001938	 161995.
11:34:52 1209 1210	 1492428892	 56061851	 166060.
11:34:52 1210 1211	 1492428892	 218092490	 162030.
11:34:52 1211 1212	 1492428892	 384392188	 166300.
11:34:52 1212 1213	 1492428892	 546375214	 161983.
11:34:52 1213 1214	 1492428892	 679710786	 133336.
11:34:52 1214 1215	 1492428892	 845887297	 166176.
11:34:53 1215 1216	 1492428893	 7824226	 161937.
11:34:53 1216 1217	 1492428893	 173635195	 165811.
11:34:53 1217 1218	 1492428893	 335878205	 162243.
11:34:53 1218 1219	 1492428893	 502051998	 166174.
11:34:53 1219 1220	 1492428893	 664003592	 161951.
11:34:53 1220 1221	 1492428893	 826144220	 162141.
11:34:53 1221 1222	 1492428893	 992483261	 166339.
11:34:54 1222 1223	 1492428894	 154592093	 162109.
11:34:54 1223 1224	 1492428894	 316396885	 161805.
11:34:54 1224 1225	 1492428894	 453429062	 137032.
11:34:54 1225 1226	 1492428894	 615181038	 161752.
11:34:54 1226 1227	 1492428894	 780874536	 165693.
11:34:54 1227 1228	 1492428894	 942503509	 161629.
11:34:55 1228 1229	 1492428895	 104114005	 161611.
11:34:55 1229 1230	 1492428895	 262672235	 158558.
11:34:55 1230 1231	 1492428895	 428560756	 165889.
11:34:55 1231 1232	 1492428895	 590315198	 161754.
11:34:55 1232 1233	 1492428895	 726661951	 136347.
11:34:55 1233 1234	 1492428895	 887865599	 161203.
11:34:56 1234 1235	 1492428896	 53514111	 165649.
11:34:56 1235 1236	 1492428896	 186196610	 132682.
11:34:56 1236 1237	 1492428896	 352079391	 165883.
11:34:56 1237 1238	 1492428896	 513927827	 161849.
11:34:56 1238 1239	 1492428896	 679573460	 165645.
11:34:56 1239 1240	 1492428896	 812185291	 132612.
11:34:56 1240 1241	 1492428896	 978244250	 166059.
11:34:57 1241 1242	 1492428897	 139725734	 161482.
11:34:57 1242 1243	 1492428897	 276874487	 137148.
11:34:57 1243 1244	 1492428897	 438508036	 161634.
11:34:57 1244 1245	 1492428897	 603888718	 165380.
11:34:57 1245 1246	 1492428897	 766241610	 162353.
11:34:57 1246 1247	 1492428897	 899188725	 132948.
11:34:58 1247 1248	 1492428898	 65080493	 165891.
11:34:58 1248 1249	 1492428898	 227069942	 161990.
11:34:58 1249 1250	 1492428898	 393473458	 166403.
11:34:58 1250 1251	 1492428898	 555248830	 161776.
11:34:58 1251 1252	 1492428898	 687871462	 132622.
11:34:58 1252 1253	 1492428898	 853536000	 165665.
11:34:59 1253 1254	 1492428899	 15097724	 161562.
11:34:59 1254 1255	 1492428899	 181004608	 165906.
11:34:59 1255 1256	 1492428899	 313772487	 132768.
11:34:59 1256 1257	 1492428899	 479123859	 165352.
11:34:59 1257 1258	 1492428899	 640840167	 161716.
11:34:59 1258 1259	 1492428899	 773864500	 133024.
11:34:59 1259 1260	 1492428899	 939380457	 165516.
11:35:00 1260 1261	 1492428900	 101034149	 161654.
11:35:00 1261 1262	 1492428900	 262925279	 161891.
11:35:00 1262 1263	 1492428900	 424228311	 161303.
11:35:00 1263 1264	 1492428900	 589899765	 165672.
11:35:00 1264 1265	 1492428900	 751215408	 161315.
11:35:00 1265 1266	 1492428900	 883956197	 132741.
11:35:01 1266 1267	 1492428901	 49421517	 165465.
11:35:01 1267 1268	 1492428901	 210786162	 161365.
11:35:01 1268 1269	 1492428901	 371836794	 161051.
11:35:01 1269 1270	 1492428901	 537606862	 165770.
11:35:01 1270 1271	 1492428901	 699397734	 161790.
11:35:01 1271 1272	 1492428901	 861491718	 162094.
11:35:01 1272 1273	 1492428901	 994635936	 133145.
11:35:02 1273 1274	 1492428902	 160240383	 165604.
11:35:02 1274 1275	 1492428902	 321686589	 161446.
11:35:02 1275 1276	 1492428902	 482816024	 161130.
11:35:02 1276 1277	 1492428902	 644212344	 161396.
11:35:02 1277 1278	 1492428902	 809631512	 165419.
11:35:02 1278 1279	 1492428902	 942118471	 132487.
11:35:03 1279 1280	 1492428903	 103351182	 161233.
11:35:03 1280 1281	 1492428903	 268966936	 165616.
11:35:03 1281 1282	 1492428903	 430337904	 161371.
11:35:03 1282 1283	 1492428903	 591497315	 161159.
11:35:03 1283 1284	 1492428903	 724651194	 133154.
11:35:03 1284 1285	 1492428903	 886117947	 161467.
11:35:04 1285 1286	 1492428904	 51364253	 165246.
11:35:04 1286 1287	 1492428904	 212736146	 161372.
11:35:04 1287 1288	 1492428904	 373927907	 161192.
11:35:04 1288 1289	 1492428904	 510881001	 136953.
11:35:04 1289 1290	 1492428904	 672472760	 161592.
11:35:04 1290 1291	 1492428904	 834219799	 161747.
11:35:04 1291 1292	 1492428904	 999921186	 165701.
11:35:05 1292 1293	 1492428905	 161560581	 161639.
11:35:05 1293 1294	 1492428905	 323267982	 161708.
11:35:05 1294 1295	 1492428905	 489129449	 165861.
11:35:05 1295 1296	 1492428905	 650886565	 161757.
11:35:05 1296 1297	 1492428905	 813341552	 162455.
11:35:05 1297 1298	 1492428905	 971082383	 157741.
11:35:06 1298 1299	 1492428906	 108185660	 137104.
11:35:06 1299 1300	 1492428906	 269970083	 161784.
11:35:06 1300 1301	 1492428906	 431640701	 161670.
11:35:06 1301 1302	 1492428906	 597210841	 165571.
11:35:06 1302 1303	 1492428906	 758947054	 161736.
11:35:06 1303 1304	 1492428906	 924623749	 165677.
11:35:07 1304 1305	 1492428907	 86322906	 161699.
11:35:07 1305 1306	 1492428907	 247923810	 161601.
11:35:07 1306 1307	 1492428907	 384889663	 136965.
11:35:07 1307 1308	 1492428907	 546449825	 161561.
11:35:07 1308 1309	 1492428907	 712250056	 165800.
11:35:07 1309 1310	 1492428907	 873924177	 161674.
11:35:08 1310 1311	 1492428908	 35421292	 161497.
11:35:08 1311 1312	 1492428908	 200914443	 165493.
11:35:08 1312 1313	 1492428908	 362671031	 161757.
11:35:08 1313 1314	 1492428908	 495643271	 132972.
11:35:08 1314 1315	 1492428908	 657216298	 161573.
11:35:08 1315 1316	 1492428908	 822916496	 165700.
11:35:08 1316 1317	 1492428908	 984654896	 161739.
11:35:09 1317 1318	 1492428909	 150353129	 165698.
11:35:09 1318 1319	 1492428909	 311961926	 161609.
11:35:09 1319 1320	 1492428909	 473553464	 161591.
11:35:09 1320 1321	 1492428909	 638859758	 165307.
11:35:09 1321 1322	 1492428909	 771897013	 133037.
11:35:09 1322 1323	 1492428909	 932940627	 161043.
11:35:10 1323 1324	 1492428910	 98239175	 165299.
11:35:10 1324 1325	 1492428910	 259910633	 161671.
11:35:10 1325 1326	 1492428910	 421481370	 161571.
11:35:10 1326 1327	 1492428910	 587358008	 165877.
11:35:10 1327 1328	 1492428910	 720217455	 132859.
11:35:10 1328 1329	 1492428910	 881760864	 161544.
11:35:11 1329 1330	 1492428911	 47514062	 165753.
11:35:11 1330 1331	 1492428911	 209233153	 161719.
11:35:11 1331 1332	 1492428911	 370796874	 161564.
11:35:11 1332 1333	 1492428911	 536676427	 165879.
11:35:11 1333 1334	 1492428911	 698377827	 161702.
11:35:11 1334 1335	 1492428911	 835496571	 137118.
11:35:11 1335 1336	 1492428911	 997288600	 161793.
11:35:12 1336 1337	 1492428912	 159027285	 161738.
11:35:12 1337 1338	 1492428912	 324951304	 165924.
11:35:12 1338 1339	 1492428912	 486599299	 161648.
11:35:12 1339 1340	 1492428912	 652423905	 165825.
11:35:12 1340 1341	 1492428912	 814152391	 161728.
11:35:12 1341 1342	 1492428912	 975943571	 161791.
11:35:13 1342 1343	 1492428913	 137704197	 161761.
11:35:13 1343 1344	 1492428913	 303172704	 165468.
11:35:13 1344 1345	 1492428913	 435988879	 132817.
11:35:13 1345 1346	 1492428913	 601538941	 165550.
11:35:13 1346 1347	 1492428913	 762848688	 161309.
11:35:13 1347 1348	 1492428913	 924399624	 161551.
11:35:14 1348 1349	 1492428914	 89892920	 165494.
11:35:14 1349 1350	 1492428914	 222791190	 132898.
11:35:14 1350 1351	 1492428914	 388249415	 165458.
11:35:14 1351 1352	 1492428914	 549721614	 161472.
11:35:14 1352 1353	 1492428914	 711232304	 161511.
11:35:14 1353 1354	 1492428914	 876880251	 165648.
11:35:15 1354 1355	 1492428915	 38548541	 161668.
11:35:15 1355 1356	 1492428915	 200155939	 161608.
11:35:15 1356 1357	 1492428915	 366145378	 165989.
11:35:15 1357 1358	 1492428915	 499201766	 133057.
11:35:15 1358 1359	 1492428915	 660798220	 161596.
11:35:15 1359 1360	 1492428915	 826546037	 165748.
11:35:15 1360 1361	 1492428915	 988331916	 161786.
11:35:16 1361 1362	 1492428916	 154129889	 165798.
11:35:16 1362 1363	 1492428916	 315421533	 161291.
11:35:16 1363 1364	 1492428916	 448367140	 132946.
11:35:16 1364 1365	 1492428916	 614090907	 165724.
11:35:16 1365 1366	 1492428916	 775717497	 161626.
11:35:16 1366 1367	 1492428916	 937103795	 161387.
11:35:17 1367 1368	 1492428917	 103542380	 166438.
11:35:17 1368 1369	 1492428917	 261055499	 157513.
11:35:17 1369 1370	 1492428917	 422374725	 161319.
11:35:17 1370 1371	 1492428917	 588252659	 165878.
11:35:17 1371 1372	 1492428917	 749890021	 161638.
11:35:17 1372 1373	 1492428917	 882629756	 132740.
11:35:18 1373 1374	 1492428918	 48095549	 165465.
11:35:18 1374 1375	 1492428918	 209345352	 161250.
11:35:18 1375 1376	 1492428918	 374645210	 165300.
11:35:18 1376 1377	 1492428918	 507522078	 132877.
11:35:18 1377 1378	 1492428918	 668937086	 161415.
11:35:18 1378 1379	 1492428918	 834330373	 165393.
11:35:18 1379 1380	 1492428918	 995983094	 161653.
11:35:19 1380 1381	 1492428919	 132820899	 136838.
11:35:19 1381 1382	 1492428919	 294344356	 161523.
11:35:19 1382 1383	 1492428919	 455416690	 161072.
11:35:19 1383 1384	 1492428919	 620825360	 165409.
11:35:19 1384 1385	 1492428919	 753734475	 132909.
11:35:19 1385 1386	 1492428919	 915379657	 161645.
11:35:20 1386 1387	 1492428920	 81127798	 165749.
11:35:20 1387 1388	 1492428920	 242787291	 161659.
11:35:20 1388 1389	 1492428920	 408130914	 165344.
11:35:20 1389 1390	 1492428920	 540685266	 132554.
11:35:20 1390 1391	 1492428920	 706282405	 165597.
11:35:20 1391 1392	 1492428920	 867794107	 161512.
11:35:20 1392 1393	 1492428921	 778485	 132984.
11:35:21 1393 1394	 1492428921	 166320132	 165542.
11:35:21 1394 1395	 1492428921	 327794270	 161474.
11:35:21 1395 1396	 1492428921	 493357493	 165563.
11:35:21 1396 1397	 1492428921	 626394188	 133037.
11:35:21 1397 1398	 1492428921	 792046993	 165653.
11:35:21 1398 1399	 1492428921	 953322391	 161275.
11:35:22 1399 1400	 1492428922	 90189659	 136867.
11:35:22 1400 1401	 1492428922	 252147071	 161958.
11:35:22 1401 1402	 1492428922	 418172880	 166026.
11:35:22 1402 1403	 1492428922	 580054600	 161881.
11:35:22 1403 1404	 1492428922	 745593127	 165539.
11:35:22 1404 1405	 1492428922	 878778347	 133185.
11:35:23 1405 1406	 1492428923	 44545049	 165767.
11:35:23 1406 1407	 1492428923	 206237189	 161692.
11:35:23 1407 1408	 1492428923	 372168613	 165931.
11:35:23 1408 1409	 1492428923	 534149225	 161981.
11:35:23 1409 1410	 1492428923	 671119226	 136970.
11:35:23 1410 1411	 1492428923	 832491665	 161372.
11:35:23 1411 1412	 1492428923	 997794469	 165303.
11:35:24 1412 1413	 1492428924	 130343051	 132549.
11:35:24 1413 1414	 1492428924	 295617515	 165274.
11:35:24 1414 1415	 1492428924	 457407731	 161791.
11:35:24 1415 1416	 1492428924	 590279850	 132872.
11:35:24 1416 1417	 1492428924	 756291989	 166012.
11:35:24 1417 1418	 1492428924	 918243887	 161952.
11:35:25 1418 1419	 1492428925	 84410477	 166167.
11:35:25 1419 1420	 1492428925	 246580686	 162169.
11:35:25 1420 1421	 1492428925	 412763669	 166183.
11:35:25 1421 1422	 1492428925	 575094238	 162331.
11:35:25 1422 1423	 1492428925	 712381502	 137288.
11:35:25 1423 1424	 1492428925	 874292449	 161910.
11:35:26 1424 1425	 1492428926	 35773099	 161481.
11:35:26 1425 1426	 1492428926	 201710138	 165937.
11:35:26 1426 1427	 1492428926	 334327237	 132617.
11:35:26 1427 1428	 1492428926	 500071883	 165745.
11:35:26 1428 1429	 1492428926	 661211733	 161140.
11:35:26 1429 1430	 1492428926	 797942976	 136731.
11:35:26 1430 1431	 1492428926	 959365019	 161422.
11:35:27 1431 1432	 1492428927	 124756476	 165391.
11:35:27 1432 1433	 1492428927	 286442213	 161686.
11:35:27 1433 1434	 1492428927	 423072014	 136630.
11:35:27 1434 1435	 1492428927	 584386106	 161314.
11:35:27 1435 1436	 1492428927	 749862779	 165477.
11:35:27 1436 1437	 1492428927	 882765519	 132902.
11:35:28 1437 1438	 1492428928	 48092104	 165327.
11:35:28 1438 1439	 1492428928	 211238578	 163146.
11:35:28 1439 1440	 1492428928	 360834466	 149596.
11:35:28 1440 1441	 1492428928	 526872775	 166038.
11:35:28 1441 1442	 1492428928	 659774696	 132902.
11:35:28 1442 1443	 1492428928	 825355115	 165581.
11:35:28 1443 1444	 1492428928	 986989017	 161634.
11:35:29 1444 1445	 1492428929	 152914806	 165926.
11:35:29 1445 1446	 1492428929	 286017669	 133103.
11:35:29 1446 1447	 1492428929	 451373496	 165355.
11:35:29 1447 1448	 1492428929	 612594286	 161221.
11:35:29 1448 1449	 1492428929	 749549093	 136955.
11:35:29 1449 1450	 1492428929	 911315739	 161766.
11:35:30 1450 1451	 1492428930	 73149585	 161834.
11:35:30 1451 1452	 1492428930	 238886552	 165737.
11:35:30 1452 1453	 1492428930	 400790570	 161904.
11:35:30 1453 1454	 1492428930	 537945922	 137156.
11:35:30 1454 1455	 1492428930	 699494103	 161548.
11:35:30 1455 1456	 1492428930	 865309798	 165816.
11:35:30 1456 1457	 1492428930	 998270776	 132961.
11:35:31 1457 1458	 1492428931	 160025541	 161754.
11:35:31 1458 1459	 1492428931	 326110848	 166086.
11:35:31 1459 1460	 1492428931	 487609064	 161498.
11:35:31 1460 1461	 1492428931	 653460415	 165851.
11:35:31 1461 1462	 1492428931	 786474136	 133014.
11:35:31 1462 1463	 1492428931	 952188403	 165714.
11:35:32 1463 1464	 1492428932	 113509212	 161321.
11:35:32 1464 1465	 1492428932	 250381085	 136872.
11:35:32 1465 1466	 1492428932	 412144226	 161763.
11:35:32 1466 1467	 1492428932	 573886149	 161742.
11:35:32 1467 1468	 1492428932	 739571844	 165686.
11:35:32 1468 1469	 1492428932	 872537866	 132966.
11:35:33 1469 1470	 1492428933	 37706681	 165168.
11:35:33 1470 1471	 1492428933	 199452262	 161746.
11:35:33 1471 1472	 1492428933	 336441503	 136989.
11:35:33 1472 1473	 1492428933	 498181554	 161740.
11:35:33 1473 1474	 1492428933	 660269066	 162088.
11:35:33 1474 1475	 1492428933	 821808438	 161539.
11:35:33 1475 1476	 1492428933	 983504795	 161697.
11:35:34 1476 1477	 1492428934	 116802974	 133298.
11:35:34 1477 1478	 1492428934	 282451169	 165648.
11:35:34 1478 1479	 1492428934	 443871958	 161421.
11:35:34 1479 1480	 1492428934	 609583028	 165711.
11:35:34 1480 1481	 1492428934	 742442169	 132859.
11:35:34 1481 1482	 1492428934	 907941896	 165500.
11:35:35 1482 1483	 1492428935	 69345491	 161403.
11:35:35 1483 1484	 1492428935	 206480625	 137135.
11:35:35 1484 1485	 1492428935	 368060586	 161580.
11:35:35 1485 1486	 1492428935	 534220110	 166160.
11:35:35 1486 1487	 1492428935	 666332088	 132112.
11:35:35 1487 1488	 1492428935	 832113760	 165782.
11:35:35 1488 1489	 1492428935	 993671502	 161557.
11:35:36 1489 1490	 1492428936	 159389764	 165719.
11:35:36 1490 1491	 1492428936	 291880446	 132490.
11:35:36 1491 1492	 1492428936	 457630953	 165751.
11:35:36 1492 1493	 1492428936	 619427785	 161797.
11:35:36 1493 1494	 1492428936	 752475245	 133047.
11:35:36 1494 1495	 1492428936	 918460742	 165986.
11:35:37 1495 1496	 1492428937	 79908855	 161448.
11:35:37 1496 1497	 1492428937	 245454573	 165545.
11:35:37 1497 1498	 1492428937	 407454661	 162000.
11:35:37 1498 1499	 1492428937	 540208800	 132755.
11:35:37 1499 1500	 1492428937	 705430372	 165221.
11:35:37 1500 1501	 1492428937	 871542106	 166112.
11:35:38 1501 1502	 1492428938	 4759614	 133217.
11:35:38 1502 1503	 1492428938	 166482101	 161723.
11:35:38 1503 1504	 1492428938	 332175488	 165693.
11:35:38 1504 1505	 1492428938	 493808781	 161634.
11:35:38 1505 1506	 1492428938	 630786269	 136977.
11:35:38 1506 1507	 1492428938	 792243934	 161458.
11:35:38 1507 1508	 1492428938	 958158039	 165914.
11:35:39 1508 1509	 1492428939	 119692988	 161535.
11:35:39 1509 1510	 1492428939	 249104011	 129411.
11:35:39 1510 1511	 1492428939	 414770196	 165666.
11:35:39 1511 1512	 1492428939	 576324835	 161555.
11:35:39 1512 1513	 1492428939	 741932561	 165607.
11:35:39 1513 1514	 1492428939	 874503022	 132571.
11:35:40 1514 1515	 1492428940	 40046331	 165543.
11:35:40 1515 1516	 1492428940	 201730315	 161684.
11:35:40 1516 1517	 1492428940	 338522418	 136792.
11:35:40 1517 1518	 1492428940	 500255749	 161734.
11:35:40 1518 1519	 1492428940	 661485486	 161229.
11:35:40 1519 1520	 1492428940	 798457530	 136972.
11:35:40 1520 1521	 1492428940	 960002266	 161545.
11:35:41 1521 1522	 1492428941	 122448586	 162446.
11:35:41 1522 1523	 1492428941	 288107185	 165659.
11:35:41 1523 1524	 1492428941	 450238905	 162132.
11:35:41 1524 1525	 1492428941	 587604227	 137365.
11:35:41 1525 1526	 1492428941	 748959807	 161356.
11:35:41 1526 1527	 1492428941	 914431878	 165472.
11:35:42 1527 1528	 1492428942	 47350796	 132919.
11:35:42 1528 1529	 1492428942	 213060878	 165710.
11:35:42 1529 1530	 1492428942	 374922231	 161861.
11:35:42 1530 1531	 1492428942	 540316042	 165394.
11:35:42 1531 1532	 1492428942	 673388706	 133072.
11:35:42 1532 1533	 1492428942	 834904581	 161516.
11:35:42 1533 1534	 1492428943	 1016237	 166112.
11:35:43 1534 1535	 1492428943	 162462807	 161447.
11:35:43 1535 1536	 1492428943	 328481020	 166018.
11:35:43 1536 1537	 1492428943	 461865544	 133384.
11:35:43 1537 1538	 1492428943	 627333651	 165468.
11:35:43 1538 1539	 1492428943	 789056513	 161723.
11:35:43 1539 1540	 1492428943	 955035928	 165980.
11:35:44 1540 1541	 1492428944	 87892793	 132857.
11:35:44 1541 1542	 1492428944	 249507471	 161614.
11:35:44 1542 1543	 1492428944	 415635018	 166128.
11:35:44 1543 1544	 1492428944	 577329745	 161695.
11:35:44 1544 1545	 1492428944	 713813618	 136483.
11:35:44 1545 1546	 1492428944	 874993384	 161180.
11:35:45 1546 1547	 1492428945	 40899887	 165907.
11:35:45 1547 1548	 1492428945	 173786037	 132886.
11:35:45 1548 1549	 1492428945	 339401136	 165615.
11:35:45 1549 1550	 1492428945	 501343782	 161943.
11:35:45 1550 1551	 1492428945	 666691851	 165348.
11:35:45 1551 1552	 1492428945	 799898676	 133206.
11:35:45 1552 1553	 1492428945	 966186356	 166288.
11:35:46 1553 1554	 1492428946	 127635931	 161450.
11:35:46 1554 1555	 1492428946	 293384566	 165748.
11:35:46 1555 1556	 1492428946	 426715688	 133331.
11:35:46 1556 1557	 1492428946	 591838375	 165123.
11:35:46 1557 1558	 1492428946	 752920895	 161083.
11:35:46 1558 1559	 1492428946	 913927120	 161006.
11:35:47 1559 1560	 1492428947	 50785187	 136858.
11:35:47 1560 1561	 1492428947	 212601831	 161817.
11:35:47 1561 1562	 1492428947	 378286179	 165696.
11:35:47 1562 1563	 1492428947	 539417544	 161119.
11:35:47 1563 1564	 1492428947	 671936073	 132519.
11:35:47 1564 1565	 1492428947	 837231331	 165295.
11:35:47 1565 1566	 1492428947	 999207485	 161976.
11:35:48 1566 1567	 1492428948	 136254941	 137048.
11:35:48 1567 1568	 1492428948	 297831061	 161576.
11:35:48 1568 1569	 1492428948	 463540286	 165709.
11:35:48 1569 1570	 1492428948	 625051872	 161512.
11:35:48 1570 1571	 1492428948	 761551032	 136499.
11:35:48 1571 1572	 1492428948	 922888611	 161337.
11:35:49 1572 1573	 1492428949	 84516244	 161628.
11:35:49 1573 1574	 1492428949	 221585134	 137069.
11:35:49 1574 1575	 1492428949	 382876085	 161291.
11:35:49 1575 1576	 1492428949	 548675576	 165799.
11:35:49 1576 1577	 1492428949	 681375794	 132701.
11:35:49 1577 1578	 1492428949	 846751645	 165375.
11:35:50 1578 1579	 1492428950	 7663908	 160913.
11:35:50 1579 1580	 1492428950	 169043629	 161379.
11:35:50 1580 1581	 1492428950	 305898812	 136856.
11:35:50 1581 1582	 1492428950	 467506994	 161608.
11:35:50 1582 1583	 1492428950	 633290404	 165783.
11:35:50 1583 1584	 1492428950	 766113627	 132823.
11:35:50 1584 1585	 1492428950	 931552468	 165439.
11:35:51 1585 1586	 1492428951	 93213761	 161661.
11:35:51 1586 1587	 1492428951	 254755132	 161542.
11:35:51 1587 1588	 1492428951	 391889550	 137134.
11:35:51 1588 1589	 1492428951	 553694074	 161805.
11:35:51 1589 1590	 1492428951	 719543951	 165850.
11:35:51 1590 1591	 1492428951	 880969863	 161426.
11:35:52 1591 1592	 1492428952	 13717339	 132747.
11:35:52 1592 1593	 1492428952	 179223757	 165506.
11:35:52 1593 1594	 1492428952	 344688391	 165465.
11:35:52 1594 1595	 1492428952	 477750740	 133063.
11:35:52 1595 1596	 1492428952	 639045095	 161294.
11:35:52 1596 1597	 1492428952	 804862049	 165817.
11:35:52 1597 1598	 1492428952	 966704874	 161843.
11:35:53 1598 1599	 1492428953	 104092670	 137387.
11:35:53 1599 1600	 1492428953	 266078793	 161987.
11:35:53 1600 1601	 1492428953	 431722515	 165643.
11:35:53 1601 1602	 1492428953	 593260399	 161538.
11:35:53 1602 1603	 1492428953	 730485439	 137225.
11:35:53 1603 1604	 1492428953	 892123941	 161639.
11:35:54 1604 1605	 1492428954	 57841163	 165717.
11:35:54 1605 1606	 1492428954	 219046229	 161205.
11:35:54 1606 1607	 1492428954	 355737603	 136691.
11:35:54 1607 1608	 1492428954	 517583809	 161847.
11:35:54 1608 1609	 1492428954	 679057685	 161473.
11:35:54 1609 1610	 1492428954	 816175819	 137119.
11:35:54 1610 1611	 1492428954	 978107311	 161931.
11:35:55 1611 1612	 1492428955	 143997703	 165890.
11:35:55 1612 1613	 1492428955	 305468791	 161472.
11:35:55 1613 1614	 1492428955	 471428779	 165960.
11:35:55 1614 1615	 1492428955	 604401177	 132972.
11:35:55 1615 1616	 1492428955	 769882192	 165481.
11:35:55 1616 1617	 1492428955	 931596178	 161714.
11:35:56 1617 1618	 1492428956	 64633942	 133038.
11:35:56 1618 1619	 1492428956	 230536855	 165903.
11:35:56 1619 1620	 1492428956	 391989179	 161452.
11:35:56 1620 1621	 1492428956	 558214299	 166225.
11:35:56 1621 1622	 1492428956	 720037115	 161823.
11:35:56 1622 1623	 1492428956	 857300442	 137263.
11:35:57 1623 1624	 1492428957	 19005756	 161706.
11:35:57 1624 1625	 1492428957	 185150600	 166144.
11:35:57 1625 1626	 1492428957	 347565386	 162415.
11:35:57 1626 1627	 1492428957	 513179181	 165614.
11:35:57 1627 1628	 1492428957	 646250534	 133071.
11:35:57 1628 1629	 1492428957	 807759249	 161509.
11:35:57 1629 1630	 1492428957	 973373319	 165614.
11:35:58 1630 1631	 1492428958	 139523598	 166151.
11:35:58 1631 1632	 1492428958	 272279221	 132755.
11:35:58 1632 1633	 1492428958	 434018424	 161739.
11:35:58 1633 1634	 1492428958	 595844788	 161827.
11:35:58 1634 1635	 1492428958	 761609567	 165764.
11:35:58 1635 1636	 1492428958	 923373291	 161764.
11:35:59 1636 1637	 1492428959	 56213900	 132841.
11:35:59 1637 1638	 1492428959	 221867990	 165654.
11:35:59 1638 1639	 1492428959	 383558462	 161690.
11:35:59 1639 1640	 1492428959	 549407330	 165849.
11:35:59 1640 1641	 1492428959	 682264864	 132858.
11:35:59 1641 1642	 1492428959	 843518944	 161254.
11:36:00 1642 1643	 1492428960	 9248580	 165729.
11:36:00 1643 1644	 1492428960	 170865839	 161618.
11:36:00 1644 1645	 1492428960	 332492452	 161626.
11:36:00 1645 1646	 1492428960	 498379553	 165887.
11:36:00 1646 1647	 1492428960	 660170532	 161791.
11:36:00 1647 1648	 1492428960	 793239671	 133069.
11:36:00 1648 1649	 1492428960	 958839711	 165600.
11:36:01 1649 1650	 1492428961	 120495104	 161656.
11:36:01 1650 1651	 1492428961	 282245422	 161750.
11:36:01 1651 1652	 1492428961	 447643501	 165398.
11:36:01 1652 1653	 1492428961	 609301720	 161659.
11:36:01 1653 1654	 1492428961	 775044855	 165743.
11:36:01 1654 1655	 1492428961	 943544553	 168499.
11:36:02 1655 1656	 1492428962	 99499506	 155955.
11:36:02 1656 1657	 1492428962	 261046703	 161547.
11:36:02 1657 1658	 1492428962	 393664334	 132618.
11:36:02 1658 1659	 1492428962	 559084161	 165420.
11:36:02 1659 1660	 1492428962	 720420475	 161336.
11:36:02 1660 1661	 1492428962	 882106370	 161686.
11:36:03 1661 1662	 1492428963	 47419167	 165313.
11:36:03 1662 1663	 1492428963	 180267243	 132848.
11:36:03 1663 1664	 1492428963	 342072403	 161805.
11:36:03 1664 1665	 1492428963	 503448705	 161376.
11:36:03 1665 1666	 1492428963	 668823785	 165376.
11:36:03 1666 1667	 1492428963	 830250956	 161427.
11:36:03 1667 1668	 1492428963	 966926363	 136675.
11:36:04 1668 1669	 1492428964	 128274485	 161348.
11:36:04 1669 1670	 1492428964	 289546534	 161272.
11:36:04 1670 1671	 1492428964	 454846626	 165301.
11:36:04 1671 1672	 1492428964	 616432283	 161585.
11:36:04 1672 1673	 1492428964	 749151451	 132719.
11:36:04 1673 1674	 1492428964	 914628533	 165477.
11:36:05 1674 1675	 1492428965	 75926420	 161298.
11:36:05 1675 1676	 1492428965	 241730964	 165805.
11:36:05 1676 1677	 1492428965	 403255524	 161524.
11:36:05 1677 1678	 1492428965	 536240105	 132985.
11:36:05 1678 1679	 1492428965	 701492953	 165253.
11:36:05 1679 1680	 1492428965	 863190758	 161698.
11:36:06 1680 1681	 1492428966	 24536104	 161345.
11:36:06 1681 1682	 1492428966	 189932473	 165396.
11:36:06 1682 1683	 1492428966	 322884836	 132953.
11:36:06 1683 1684	 1492428966	 484502192	 161617.
11:36:06 1684 1685	 1492428966	 650558388	 166056.
11:36:06 1685 1686	 1492428966	 816311656	 165753.
11:36:06 1686 1687	 1492428966	 974941955	 158631.
11:36:07 1687 1688	 1492428967	 107779674	 132837.
11:36:07 1688 1689	 1492428967	 273603223	 165824.
11:36:07 1689 1690	 1492428967	 435431482	 161828.
11:36:07 1690 1691	 1492428967	 601778602	 166347.
11:36:07 1691 1692	 1492428967	 763671720	 161893.
11:36:07 1692 1693	 1492428967	 930005773	 166335.
11:36:08 1693 1694	 1492428968	 63084318	 133078.
11:36:08 1694 1695	 1492428968	 228999850	 165916.
11:36:08 1695 1696	 1492428968	 390609456	 161609.
11:36:08 1696 1697	 1492428968	 552376818	 161768.
11:36:08 1697 1698	 1492428968	 718477744	 166101.
11:36:08 1698 1699	 1492428968	 880349239	 161871.
11:36:09 1699 1700	 1492428969	 17692925	 137344.
11:36:09 1700 1701	 1492428969	 179293864	 161601.
11:36:09 1701 1702	 1492428969	 345164616	 165870.
11:36:09 1702 1703	 1492428969	 507230175	 162066.
11:36:09 1703 1704	 1492428969	 672639594	 165409.
11:36:09 1704 1705	 1492428969	 805364145	 132725.
11:36:09 1705 1706	 1492428969	 967099770	 161736.
11:36:10 1706 1707	 1492428970	 132436496	 165336.
11:36:10 1707 1708	 1492428970	 265651299	 133215.
11:36:10 1708 1709	 1492428970	 430946497	 165295.
11:36:10 1709 1710	 1492428970	 592649835	 161704.
11:36:10 1710 1711	 1492428970	 729332127	 136682.
11:36:10 1711 1712	 1492428970	 890814811	 161483.
11:36:11 1712 1713	 1492428971	 56455535	 165640.
11:36:11 1713 1714	 1492428971	 217925697	 161470.
11:36:11 1714 1715	 1492428971	 354667663	 136743.
11:36:11 1715 1716	 1492428971	 516652548	 161984.
11:36:11 1716 1717	 1492428971	 682047272	 165395.
11:36:11 1717 1718	 1492428971	 818883204	 136836.
11:36:11 1718 1719	 1492428971	 980528264	 161645.
11:36:12 1719 1720	 1492428972	 146432709	 165904.
11:36:12 1720 1721	 1492428972	 308437912	 162006.
11:36:12 1721 1722	 1492428972	 473807225	 165369.
11:36:12 1722 1723	 1492428972	 606532023	 132725.
11:36:12 1723 1724	 1492428972	 768462180	 161930.
11:36:12 1724 1725	 1492428972	 933866639	 165404.
11:36:13 1725 1726	 1492428973	 95301115	 161435.
11:36:13 1726 1727	 1492428973	 232426746	 137126.
11:36:13 1727 1728	 1492428973	 394398327	 161971.
11:36:13 1728 1729	 1492428973	 560290419	 165892.
11:36:13 1729 1730	 1492428973	 721673623	 161383.
11:36:13 1730 1731	 1492428973	 854717003	 133044.
11:36:14 1731 1732	 1492428974	 20581219	 165864.
11:36:14 1732 1733	 1492428974	 182700571	 162120.
11:36:14 1733 1734	 1492428974	 348433932	 165733.
11:36:14 1734 1735	 1492428974	 510193481	 161759.
11:36:14 1735 1736	 1492428974	 643250279	 133057.
11:36:14 1736 1737	 1492428974	 808660534	 165410.
11:36:14 1737 1738	 1492428974	 970282462	 161622.
11:36:15 1738 1739	 1492428975	 136180784	 165899.
11:36:15 1739 1740	 1492428975	 297762553	 161581.
11:36:15 1740 1741	 1492428975	 464071031	 166309.
11:36:15 1741 1742	 1492428975	 597285668	 133215.
11:36:15 1742 1743	 1492428975	 758602605	 161316.
11:36:15 1743 1744	 1492428975	 924609605	 166007.
11:36:16 1744 1745	 1492428976	 86748045	 162139.
11:36:16 1745 1746	 1492428976	 252562904	 165815.
11:36:16 1746 1747	 1492428976	 385460669	 132897.
11:36:16 1747 1748	 1492428976	 551409698	 165949.
11:36:16 1748 1749	 1492428976	 713083003	 161674.
11:36:16 1749 1750	 1492428976	 846122418	 133039.
11:36:17 1750 1751	 1492428977	 11732095	 165610.
11:36:17 1751 1752	 1492428977	 173203606	 161471.
11:36:17 1752 1753	 1492428977	 338873160	 165670.
11:36:17 1753 1754	 1492428977	 472149421	 133276.
11:36:17 1754 1755	 1492428977	 637818156	 165669.
11:36:17 1755 1756	 1492428977	 799346080	 161528.
11:36:17 1756 1757	 1492428977	 965521066	 166175.
11:36:18 1757 1758	 1492428978	 123299478	 157778.
11:36:18 1758 1759	 1492428978	 256305199	 133006.
11:36:18 1759 1760	 1492428978	 421403374	 165098.
11:36:18 1760 1761	 1492428978	 582937997	 161535.
11:36:18 1761 1762	 1492428978	 719853145	 136915.
11:36:18 1762 1763	 1492428978	 881207077	 161354.
11:36:19 1763 1764	 1492428979	 46732635	 165526.
11:36:19 1764 1765	 1492428979	 179851284	 133118.
11:36:19 1765 1766	 1492428979	 345776390	 165925.
11:36:19 1766 1767	 1492428979	 507244357	 161468.
11:36:19 1767 1768	 1492428979	 668821420	 161577.
11:36:19 1768 1769	 1492428979	 806036724	 137215.
11:36:19 1769 1770	 1492428979	 967496619	 161460.
11:36:20 1770 1771	 1492428980	 133136329	 165640.
11:36:20 1771 1772	 1492428980	 294662432	 161526.
11:36:20 1772 1773	 1492428980	 456176849	 161515.
11:36:20 1773 1774	 1492428980	 621753586	 165576.
11:36:20 1774 1775	 1492428980	 754684608	 132931.
11:36:20 1775 1776	 1492428980	 916295566	 161611.
11:36:21 1776 1777	 1492428981	 82042404	 165747.
11:36:21 1777 1778	 1492428981	 243649163	 161607.
11:36:21 1778 1779	 1492428981	 405500288	 161851.
11:36:21 1779 1780	 1492428981	 571219190	 165719.
11:36:21 1780 1781	 1492428981	 733045272	 161826.
11:36:21 1781 1782	 1492428981	 899000444	 165955.
11:36:22 1782 1783	 1492428982	 60804934	 161805.
11:36:22 1783 1784	 1492428982	 222434767	 161630.
11:36:22 1784 1785	 1492428982	 355216503	 132781.
11:36:22 1785 1786	 1492428982	 521191066	 165975.
11:36:22 1786 1787	 1492428982	 683468956	 162278.
11:36:22 1787 1788	 1492428982	 842333591	 158864.
11:36:23 1788 1789	 1492428983	 8209674	 165876.
11:36:23 1789 1790	 1492428983	 169882389	 161673.
11:36:23 1790 1791	 1492428983	 336002247	 166120.
11:36:23 1791 1792	 1492428983	 469211618	 133209.
11:36:23 1792 1793	 1492428983	 631044214	 161833.
11:36:23 1793 1794	 1492428983	 796781023	 165737.
11:36:23 1794 1795	 1492428983	 958658223	 161877.
11:36:24 1795 1796	 1492428984	 124629864	 165972.
11:36:24 1796 1797	 1492428984	 257793920	 133164.
11:36:24 1797 1798	 1492428984	 422964237	 165170.
11:36:24 1798 1799	 1492428984	 584714033	 161750.
11:36:24 1799 1800	 1492428984	 746348441	 161634.
11:36:24 1800 1801	 1492428984	 911938067	 165590.
11:36:25 1801 1802	 1492428985	 73731183	 161793.
11:36:25 1802 1803	 1492428985	 206620677	 132890.
11:36:25 1803 1804	 1492428985	 372293769	 165673.
11:36:25 1804 1805	 1492428985	 533860032	 161566.
11:36:25 1805 1806	 1492428985	 695491049	 161631.
11:36:25 1806 1807	 1492428985	 861158990	 165668.
11:36:26 1807 1808	 1492428986	 22751341	 161592.
11:36:26 1808 1809	 1492428986	 184449738	 161698.
11:36:26 1809 1810	 1492428986	 349708467	 165259.
11:36:26 1810 1811	 1492428986	 511398373	 161690.
11:36:26 1811 1812	 1492428986	 647867959	 136470.
11:36:26 1812 1813	 1492428986	 809165873	 161298.
11:36:26 1813 1814	 1492428986	 941913662	 132747.
11:36:27 1814 1815	 1492428987	 107346362	 165433.
11:36:27 1815 1816	 1492428987	 269133507	 161787.
11:36:27 1816 1817	 1492428987	 435033730	 165900.
11:36:27 1817 1818	 1492428987	 567557839	 132525.
11:36:27 1818 1819	 1492428987	 728904211	 161346.
11:36:27 1819 1820	 1492428987	 894985375	 166081.
11:36:28 1820 1821	 1492428988	 56310804	 161326.
11:36:28 1821 1822	 1492428988	 192756869	 136446.
11:36:28 1822 1823	 1492428988	 354234047	 161477.
11:36:28 1823 1824	 1492428988	 519790488	 165556.
11:36:28 1824 1825	 1492428988	 652567780	 132777.
11:36:28 1825 1826	 1492428988	 814175893	 161609.
11:36:28 1826 1827	 1492428988	 980038036	 165862.
11:36:29 1827 1828	 1492428989	 142566405	 162528.
11:36:29 1828 1829	 1492428989	 271521809	 128956.
11:36:29 1829 1830	 1492428989	 437091095	 165569.
11:36:29 1830 1831	 1492428989	 598335786	 161245.
11:36:29 1831 1832	 1492428989	 764060794	 165725.
11:36:29 1832 1833	 1492428989	 896923301	 132862.
11:36:30 1833 1834	 1492428990	 58634816	 161712.
11:36:30 1834 1835	 1492428990	 224789768	 166155.
11:36:30 1835 1836	 1492428990	 386719155	 161929.
11:36:30 1836 1837	 1492428990	 552621046	 165902.
11:36:30 1837 1838	 1492428990	 685636374	 133015.
11:36:30 1838 1839	 1492428990	 851500260	 165864.
11:36:31 1839 1840	 1492428991	 13125957	 161626.
11:36:31 1840 1841	 1492428991	 174918618	 161792.
11:36:31 1841 1842	 1492428991	 340375861	 165458.
11:36:31 1842 1843	 1492428991	 473413634	 133037.
11:36:31 1843 1844	 1492428991	 639290259	 165877.
11:36:31 1844 1845	 1492428991	 800911336	 161621.
11:36:31 1845 1846	 1492428991	 966499210	 165588.
11:36:32 1846 1847	 1492428992	 128131273	 161632.
11:36:32 1847 1848	 1492428992	 265114308	 136983.
11:36:32 1848 1849	 1492428992	 426670259	 161556.
11:36:32 1849 1850	 1492428992	 587891334	 161221.
11:36:32 1850 1851	 1492428992	 753405376	 165514.
11:36:32 1851 1852	 1492428992	 886092979	 132688.
11:36:33 1852 1853	 1492428993	 47361770	 161268.
11:36:33 1853 1854	 1492428993	 212289900	 164929.
11:36:33 1854 1855	 1492428993	 373492840	 161203.
11:36:33 1855 1856	 1492428993	 506149010	 132656.
11:36:33 1856 1857	 1492428993	 671333841	 165185.
11:36:33 1857 1858	 1492428993	 832567549	 161233.
11:36:33 1858 1859	 1492428993	 994041014	 161474.
11:36:34 1859 1860	 1492428994	 131037603	 136996.
11:36:34 1860 1861	 1492428994	 292530666	 161493.
11:36:34 1861 1862	 1492428994	 458338310	 165808.
11:36:34 1862 1863	 1492428994	 619948220	 161610.
11:36:34 1863 1864	 1492428994	 752688718	 132740.
11:36:34 1864 1865	 1492428994	 917712955	 165025.
11:36:35 1865 1866	 1492428995	 78923418	 161210.
11:36:35 1866 1867	 1492428995	 244094695	 165171.
11:36:35 1867 1868	 1492428995	 376980851	 132887.
11:36:35 1868 1869	 1492428995	 538611594	 161630.
11:36:35 1869 1870	 1492428995	 704431496	 165820.
11:36:35 1870 1871	 1492428995	 865958100	 161527.
11:36:35 1871 1872	 1492428996	 3277318	 137319.
11:36:36 1872 1873	 1492428996	 164786801	 161510.
11:36:36 1873 1874	 1492428996	 330518049	 165731.
11:36:36 1874 1875	 1492428996	 492551952	 162034.
11:36:36 1875 1876	 1492428996	 658072616	 165520.
11:36:36 1876 1877	 1492428996	 791228468	 133156.
11:36:36 1877 1878	 1492428996	 953022320	 161794.
11:36:37 1878 1879	 1492428997	 118581185	 165559.
11:36:37 1879 1880	 1492428997	 280154005	 161573.
11:36:37 1880 1881	 1492428997	 417302778	 137149.
11:36:37 1881 1882	 1492428997	 578947602	 161644.
11:36:37 1882 1883	 1492428997	 744831610	 165884.
11:36:37 1883 1884	 1492428997	 906809470	 161978.
11:36:38 1884 1885	 1492428998	 72678568	 165869.
11:36:38 1885 1886	 1492428998	 205425338	 132747.
11:36:38 1886 1887	 1492428998	 371349424	 165924.
11:36:38 1887 1888	 1492428998	 533289750	 161941.
11:36:38 1888 1889	 1492428998	 699134567	 165844.
11:36:38 1889 1890	 1492428998	 832017097	 132883.
11:36:38 1890 1891	 1492428998	 993655556	 161638.
11:36:39 1891 1892	 1492428999	 159376477	 165721.
11:36:39 1892 1893	 1492428999	 321093402	 161717.
11:36:39 1893 1894	 1492428999	 487305677	 166213.
11:36:39 1894 1895	 1492428999	 620641650	 133335.
11:36:39 1895 1896	 1492428999	 786890032	 166249.
11:36:39 1896 1897	 1492428999	 948956893	 162067.
11:36:40 1897 1898	 1492429000	 115097870	 166141.
11:36:40 1898 1899	 1492429000	 277245488	 162147.
11:36:40 1899 1900	 1492429000	 443078558	 165834.
11:36:40 1900 1901	 1492429000	 605048711	 161969.
11:36:40 1901 1902	 1492429000	 738411062	 133363.
11:36:40 1902 1903	 1492429000	 904719828	 166309.
11:36:41 1903 1904	 1492429001	 66721457	 162001.
11:36:41 1904 1905	 1492429001	 233029112	 166308.
11:36:41 1905 1906	 1492429001	 394857410	 161828.
11:36:41 1906 1907	 1492429001	 560985528	 166128.
11:36:41 1907 1908	 1492429001	 693401313	 132416.
11:36:41 1908 1909	 1492429001	 854213852	 160813.
11:36:42 1909 1910	 1492429002	 19747966	 165534.
