07:13:24    0 Step	 time(s)	 time(ns)	 delta(ms)
07:13:24    0 1	 1492413204	 614812622	 916.
07:13:24    1 2	 1492413204	 776156998	 161345.
07:13:24    2 3	 1492413204	 909110143	 132953.
07:13:25    3 4	 1492413205	 74865346	 165755.
07:13:25    4 5	 1492413205	 236095480	 161230.
07:13:25    5 6	 1492413205	 368463150	 132368.
07:13:25    6 7	 1492413205	 533789722	 165327.
07:13:25    7 8	 1492413205	 694950286	 161160.
07:13:25    8 9	 1492413205	 831400233	 136450.
07:13:25    9 10	 1492413205	 992766805	 161366.
07:13:26   10 11	 1492413206	 153855925	 161090.
07:13:26   11 12	 1492413206	 290659248	 136803.
07:13:26   12 13	 1492413206	 452199111	 161540.
07:13:26   13 14	 1492413206	 618136507	 165937.
07:13:26   14 15	 1492413206	 750822269	 132686.
07:13:26   15 16	 1492413206	 916195833	 165374.
07:13:27   16 17	 1492413207	 77586973	 161391.
07:13:27   17 18	 1492413207	 210053790	 132466.
07:13:27   18 19	 1492413207	 375684182	 165631.
07:13:27   19 20	 1492413207	 537658746	 161974.
07:13:27   20 21	 1492413207	 703251310	 165593.
07:13:27   21 22	 1492413207	 836155860	 132905.
07:13:27   22 23	 1492413208	 2526499	 166370.
07:13:28   23 24	 1492413208	 164294724	 161768.
07:13:28   24 25	 1492413208	 325854037	 161560.
07:13:28   25 26	 1492413208	 491558000	 165704.
07:13:28   26 27	 1492413208	 628656000	 137098.
07:13:28   27 28	 1492413208	 790092944	 161437.
07:13:28   28 29	 1492413208	 955974131	 165881.
07:13:29   29 30	 1492413209	 117867964	 161894.
07:13:29   30 31	 1492413209	 250834756	 132966.
07:13:29   31 32	 1492413209	 415958262	 165124.
07:13:29   32 33	 1492413209	 577551144	 161593.
07:13:29   33 34	 1492413209	 714430642	 136879.
07:13:29   34 35	 1492413209	 877174781	 162745.
07:13:30   35 36	 1492413210	 34471133	 157296.
07:13:30   36 37	 1492413210	 200130025	 165659.
07:13:30   37 38	 1492413210	 361601447	 161471.
07:13:30   38 39	 1492413210	 494477326	 132876.
07:13:30   39 40	 1492413210	 659739298	 165262.
07:13:30   40 41	 1492413210	 821365440	 161626.
07:13:30   41 42	 1492413210	 957962346	 136597.
07:13:31   42 43	 1492413211	 119538567	 161576.
07:13:31   43 44	 1492413211	 284762291	 165224.
07:13:31   44 45	 1492413211	 417307148	 132545.
07:13:31   45 46	 1492413211	 582737445	 165430.
07:13:31   46 47	 1492413211	 748230172	 165493.
07:13:31   47 48	 1492413211	 880961845	 132732.
07:13:32   48 49	 1492413212	 42781492	 161819.
07:13:32   49 50	 1492413212	 208328990	 165548.
07:13:32   50 51	 1492413212	 340761968	 132433.
07:13:32   51 52	 1492413212	 506462548	 165700.
07:13:32   52 53	 1492413212	 671727086	 165265.
07:13:32   53 54	 1492413212	 804403215	 132676.
07:13:32   54 55	 1492413212	 965709160	 161306.
07:13:33   55 56	 1492413213	 131080800	 165371.
07:13:33   56 57	 1492413213	 297044910	 165965.
07:13:33   57 58	 1492413213	 429893023	 132848.
07:13:33   58 59	 1492413213	 595321807	 165428.
07:13:33   59 60	 1492413213	 756632710	 161311.
07:13:33   60 61	 1492413213	 889038721	 132406.
07:13:34   61 62	 1492413214	 54398787	 165360.
07:13:34   62 63	 1492413214	 215872154	 161474.
07:13:34   63 64	 1492413214	 352466722	 136594.
07:13:34   64 65	 1492413214	 513781468	 161315.
07:13:34   65 66	 1492413214	 679823752	 166042.
07:13:34   66 67	 1492413214	 812398625	 132575.
07:13:34   67 68	 1492413214	 978308502	 165910.
07:13:35   68 69	 1492413215	 140258628	 161950.
07:13:35   69 70	 1492413215	 305523242	 165265.
07:13:35   70 71	 1492413215	 438074921	 132552.
07:13:35   71 72	 1492413215	 599156346	 161081.
07:13:35   72 73	 1492413215	 764488240	 165332.
07:13:35   73 74	 1492413215	 925641334	 161153.
07:13:36   74 75	 1492413216	 58263488	 132622.
07:13:36   75 76	 1492413216	 223446274	 165183.
07:13:36   76 77	 1492413216	 384766040	 161320.
07:13:36   77 78	 1492413216	 546068810	 161303.
07:13:36   78 79	 1492413216	 711514036	 165445.
07:13:36   79 80	 1492413216	 844110126	 132596.
07:13:37   80 81	 1492413217	 5511450	 161401.
07:13:37   81 82	 1492413217	 170636023	 165125.
07:13:37   82 83	 1492413217	 331881032	 161245.
07:13:37   83 84	 1492413217	 464430712	 132549.
07:13:37   84 85	 1492413217	 629438270	 165008.
07:13:37   85 86	 1492413217	 790981789	 161543.
07:13:37   86 87	 1492413217	 956436334	 165455.
07:13:38   87 88	 1492413218	 89301255	 132865.
07:13:38   88 89	 1492413218	 250746228	 161445.
07:13:38   89 90	 1492413218	 415994335	 165248.
07:13:38   90 91	 1492413218	 549121659	 133127.
07:13:38   91 92	 1492413218	 714715293	 165594.
07:13:38   92 93	 1492413218	 876204134	 161489.
07:13:39   93 94	 1492413219	 12934374	 136730.
07:13:39   94 95	 1492413219	 174831521	 161897.
07:13:39   95 96	 1492413219	 336355804	 161524.
07:13:39   96 97	 1492413219	 502047799	 165692.
07:13:39   97 98	 1492413219	 634696130	 132649.
07:13:39   98 99	 1492413219	 800280213	 165584.
07:13:39   99 100	 1492413219	 961679558	 161399.
07:13:40  100 101	 1492413220	 98707364	 137028.
07:13:40  101 102	 1492413220	 260349462	 161642.
07:13:40  102 103	 1492413220	 425721673	 165372.
07:13:40  103 104	 1492413220	 587100838	 161380.
07:13:40  104 105	 1492413220	 719883152	 132782.
07:13:40  105 106	 1492413220	 887138898	 167256.
07:13:41  106 107	 1492413221	 35997286	 148858.
07:13:41  107 108	 1492413221	 197419436	 161422.
07:13:41  108 109	 1492413221	 334073092	 136654.
07:13:41  109 110	 1492413221	 495772507	 161699.
07:13:41  110 111	 1492413221	 660924265	 165152.
07:13:41  111 112	 1492413221	 793565744	 132641.
07:13:41  112 113	 1492413221	 959769554	 166204.
07:13:42  113 114	 1492413222	 121417411	 161648.
07:13:42  114 115	 1492413222	 287122476	 165705.
07:13:42  115 116	 1492413222	 448359438	 161237.
07:13:42  116 117	 1492413222	 581177714	 132818.
07:13:42  117 118	 1492413222	 746551191	 165374.
07:13:42  118 119	 1492413222	 907725454	 161174.
07:13:43  119 120	 1492413223	 45037723	 137312.
07:13:43  120 121	 1492413223	 206751552	 161714.
07:13:43  121 122	 1492413223	 372714820	 165964.
07:13:43  122 123	 1492413223	 534444752	 161729.
07:13:43  123 124	 1492413223	 696206796	 161762.
07:13:43  124 125	 1492413223	 833087550	 136881.
07:13:43  125 126	 1492413223	 998891868	 165805.
07:13:44  126 127	 1492413224	 160713739	 161821.
07:13:44  127 128	 1492413224	 322189949	 161477.
07:13:44  128 129	 1492413224	 459697592	 137507.
07:13:44  129 130	 1492413224	 621444534	 161747.
07:13:44  130 131	 1492413224	 786642419	 165198.
07:13:44  131 132	 1492413224	 948055626	 161413.
07:13:45  132 133	 1492413225	 84975760	 136920.
07:13:45  133 134	 1492413225	 246437864	 161463.
07:13:45  134 135	 1492413225	 411844235	 165406.
07:13:45  135 136	 1492413225	 544496798	 132652.
07:13:45  136 137	 1492413225	 705775973	 161280.
07:13:45  137 138	 1492413225	 870997113	 165221.
07:13:45  138 139	 1492413226	 3408016	 132411.
07:13:46  139 140	 1492413226	 169182714	 165774.
07:13:46  140 141	 1492413226	 330759087	 161577.
07:13:46  141 142	 1492413226	 467794838	 137036.
07:13:46  142 143	 1492413226	 634077685	 166282.
07:13:46  143 144	 1492413226	 795581758	 161504.
07:13:46  144 145	 1492413226	 961396657	 165815.
07:13:47  145 146	 1492413227	 123349543	 161953.
07:13:47  146 147	 1492413227	 260421372	 137072.
07:13:47  147 148	 1492413227	 422337456	 161916.
07:13:47  148 149	 1492413227	 588367729	 166030.
07:13:47  149 150	 1492413227	 750004965	 161638.
07:13:47  150 151	 1492413227	 887355765	 137350.
07:13:48  151 152	 1492413228	 48919658	 161564.
07:13:48  152 153	 1492413228	 210529132	 161610.
07:13:48  153 154	 1492413228	 376128923	 165600.
07:13:48  154 155	 1492413228	 537630364	 161501.
07:13:48  155 156	 1492413228	 670364978	 132735.
07:13:48  156 157	 1492413228	 835569895	 165205.
07:13:48  157 158	 1492413228	 997341750	 161772.
07:13:49  158 159	 1492413229	 162815406	 165473.
07:13:49  159 160	 1492413229	 324500467	 161685.
07:13:49  160 161	 1492413229	 461877032	 137377.
07:13:49  161 162	 1492413229	 623563803	 161687.
07:13:49  162 163	 1492413229	 788909419	 165345.
07:13:49  163 164	 1492413229	 949861016	 160952.
07:13:50  164 165	 1492413230	 82525522	 132664.
07:13:50  165 166	 1492413230	 247660495	 165135.
07:13:50  166 167	 1492413230	 409040070	 161380.
07:13:50  167 168	 1492413230	 570705152	 161665.
07:13:50  168 169	 1492413230	 736418395	 165713.
07:13:50  169 170	 1492413230	 898399733	 161981.
07:13:51  170 171	 1492413231	 35670898	 137272.
07:13:51  171 172	 1492413231	 197286157	 161615.
07:13:51  172 173	 1492413231	 358968978	 161683.
07:13:51  173 174	 1492413231	 524941433	 165972.
07:13:51  174 175	 1492413231	 686900291	 161959.
07:13:51  175 176	 1492413231	 852978391	 166078.
07:13:52  176 177	 1492413232	 10929624	 157951.
07:13:52  177 178	 1492413232	 147887568	 136958.
07:13:52  178 179	 1492413232	 309187612	 161300.
07:13:52  179 180	 1492413232	 474597617	 165410.
07:13:52  180 181	 1492413232	 607347460	 132750.
07:13:52  181 182	 1492413232	 772858082	 165511.
07:13:52  182 183	 1492413232	 934196952	 161339.
07:13:53  183 184	 1492413233	 95765674	 161568.
07:13:53  184 185	 1492413233	 232921543	 137156.
07:13:53  185 186	 1492413233	 394393722	 161472.
07:13:53  186 187	 1492413233	 560133945	 165741.
07:13:53  187 188	 1492413233	 721291068	 161157.
07:13:53  188 189	 1492413233	 854040973	 132750.
07:13:54  189 190	 1492413234	 19552937	 165512.
07:13:54  190 191	 1492413234	 185353633	 165800.
07:13:54  191 192	 1492413234	 318166860	 132814.
07:13:54  192 193	 1492413234	 479792602	 161625.
07:13:54  193 194	 1492413234	 641205574	 161413.
07:13:54  194 195	 1492413234	 806456602	 165251.
07:13:54  195 196	 1492413234	 967574883	 161119.
07:13:55  196 197	 1492413235	 100786042	 133211.
07:13:55  197 198	 1492413235	 266478665	 165692.
07:13:55  198 199	 1492413235	 427878396	 161400.
07:13:55  199 200	 1492413235	 593508057	 165630.
07:13:55  200 201	 1492413235	 726298666	 132790.
07:13:55  201 202	 1492413235	 888283663	 161985.
07:13:56  202 203	 1492413236	 53929998	 165647.
07:13:56  203 204	 1492413236	 215621163	 161691.
07:13:56  204 205	 1492413236	 352727482	 137106.
07:13:56  205 206	 1492413236	 514732423	 162005.
07:13:56  206 207	 1492413236	 676477933	 161746.
07:13:56  207 208	 1492413236	 842269639	 165791.
07:13:57  208 209	 1492413237	 4101383	 161832.
07:13:57  209 210	 1492413237	 141038121	 136937.
07:13:57  210 211	 1492413237	 302575240	 161537.
07:13:57  211 212	 1492413237	 464365918	 161791.
07:13:57  212 213	 1492413237	 630133187	 165767.
07:13:57  213 214	 1492413237	 791959591	 161826.
07:13:57  214 215	 1492413237	 928630328	 136671.
07:13:58  215 216	 1492413238	 90528869	 161899.
07:13:58  216 217	 1492413238	 252315143	 161786.
07:13:58  217 218	 1492413238	 418234451	 165919.
07:13:58  218 219	 1492413238	 580058790	 161825.
07:13:58  219 220	 1492413238	 717397270	 137338.
07:13:58  220 221	 1492413238	 879216761	 161819.
07:13:59  221 222	 1492413239	 40740275	 161524.
07:13:59  222 223	 1492413239	 206429034	 165689.
07:13:59  223 224	 1492413239	 339443054	 133014.
07:13:59  224 225	 1492413239	 505486919	 166044.
07:13:59  225 226	 1492413239	 666756995	 161270.
07:13:59  226 227	 1492413239	 827839823	 161083.
07:13:59  227 228	 1492413239	 964845932	 137006.
07:14:00  228 229	 1492413240	 126567094	 161721.
07:14:00  229 230	 1492413240	 292392921	 165826.
07:14:00  230 231	 1492413240	 453868177	 161475.
07:14:00  231 232	 1492413240	 615747655	 161879.
07:14:00  232 233	 1492413240	 781460507	 165713.
07:14:00  233 234	 1492413240	 943171863	 161712.
07:14:01  234 235	 1492413241	 76249340	 133077.
07:14:01  235 236	 1492413241	 242083466	 165834.
07:14:01  236 237	 1492413241	 403853313	 161770.
07:14:01  237 238	 1492413241	 569642689	 165789.
07:14:01  238 239	 1492413241	 728050544	 158408.
07:14:01  239 240	 1492413241	 889934159	 161884.
07:14:02  240 241	 1492413242	 55571086	 165637.
07:14:02  241 242	 1492413242	 212988942	 157418.
07:14:02  242 243	 1492413242	 378482544	 165493.
07:14:02  243 244	 1492413242	 511130159	 132648.
07:14:02  244 245	 1492413242	 676470612	 165340.
07:14:02  245 246	 1492413242	 837667742	 161197.
07:14:02  246 247	 1492413243	 321575	 162654.
07:14:03  247 248	 1492413243	 153580954	 153260.
07:14:03  248 249	 1492413243	 314779292	 161198.
07:14:03  249 250	 1492413243	 447632344	 132853.
07:14:03  250 251	 1492413243	 612873731	 165241.
07:14:03  251 252	 1492413243	 773993941	 161121.
07:14:03  252 253	 1492413243	 939399341	 165405.
07:14:04  253 254	 1492413244	 72287609	 132888.
07:14:04  254 255	 1492413244	 233559969	 161273.
07:14:04  255 256	 1492413244	 398509447	 164949.
07:14:04  256 257	 1492413244	 560044833	 161536.
07:14:04  257 258	 1492413244	 721488039	 161443.
07:14:04  258 259	 1492413244	 858069089	 136581.
07:14:05  259 260	 1492413245	 19427112	 161358.
07:14:05  260 261	 1492413245	 184634015	 165207.
07:14:05  261 262	 1492413245	 346091829	 161458.
07:14:05  262 263	 1492413245	 479215850	 133124.
07:14:05  263 264	 1492413245	 645417075	 166201.
07:14:05  264 265	 1492413245	 807083087	 161666.
07:14:05  265 266	 1492413245	 968596423	 161513.
07:14:06  266 267	 1492413246	 134432780	 165836.
07:14:06  267 268	 1492413246	 296203573	 161771.
07:14:06  268 269	 1492413246	 433214047	 137011.
07:14:06  269 270	 1492413246	 595003255	 161789.
07:14:06  270 271	 1492413246	 760989506	 165986.
07:14:06  271 272	 1492413246	 922547714	 161558.
07:14:07  272 273	 1492413247	 59777748	 137230.
07:14:07  273 274	 1492413247	 221572196	 161795.
07:14:07  274 275	 1492413247	 387211151	 165639.
07:14:07  275 276	 1492413247	 549241402	 162030.
07:14:07  276 277	 1492413247	 682284993	 133044.
07:14:07  277 278	 1492413247	 848191605	 165906.
07:14:08  278 279	 1492413248	 14265006	 166074.
07:14:08  279 280	 1492413248	 176221854	 161957.
07:14:08  280 281	 1492413248	 342360227	 166138.
07:14:08  281 282	 1492413248	 504289513	 161929.
07:14:08  282 283	 1492413248	 637177339	 132888.
07:14:08  283 284	 1492413248	 802859676	 165682.
07:14:08  284 285	 1492413248	 964230773	 161371.
07:14:09  285 286	 1492413249	 130041355	 165811.
07:14:09  286 287	 1492413249	 292089235	 162048.
07:14:09  287 288	 1492413249	 425222499	 133133.
07:14:09  288 289	 1492413249	 591157213	 165935.
07:14:09  289 290	 1492413249	 752985961	 161829.
07:14:09  290 291	 1492413249	 918794126	 165808.
07:14:10  291 292	 1492413250	 52006704	 133212.
07:14:10  292 293	 1492413250	 217852119	 165846.
07:14:10  293 294	 1492413250	 379737892	 161886.
07:14:10  294 295	 1492413250	 545294647	 165556.
07:14:10  295 296	 1492413250	 677920256	 132626.
07:14:10  296 297	 1492413250	 843990006	 166070.
07:14:10  297 298	 1492413251	 5834221	 161844.
07:14:11  298 299	 1492413251	 166818733	 160984.
07:14:11  299 300	 1492413251	 332504323	 165686.
07:14:11  300 301	 1492413251	 465304713	 132800.
07:14:11  301 302	 1492413251	 630711083	 165407.
07:14:11  302 303	 1492413251	 792345160	 161634.
07:14:11  303 304	 1492413251	 953679904	 161335.
07:14:12  304 305	 1492413252	 119286164	 165606.
07:14:12  305 306	 1492413252	 280775636	 161489.
07:14:12  306 307	 1492413252	 413564748	 132789.
07:14:12  307 308	 1492413252	 574914910	 161351.
07:14:12  308 309	 1492413252	 740127808	 165213.
07:14:12  309 310	 1492413252	 901374635	 161246.
07:14:13  310 311	 1492413253	 66605924	 165232.
07:14:13  311 312	 1492413253	 199270949	 132665.
07:14:13  312 313	 1492413253	 360903286	 161632.
07:14:13  313 314	 1492413253	 522401141	 161498.
07:14:13  314 315	 1492413253	 687926439	 165525.
07:14:13  315 316	 1492413253	 849440786	 161514.
07:14:13  316 317	 1492413253	 982148252	 132708.
07:14:14  317 318	 1492413254	 172977349	 190829.
07:14:14  318 319	 1492413254	 305938192	 132961.
07:14:14  319 320	 1492413254	 467605149	 161667.
07:14:14  320 321	 1492413254	 626031194	 158426.
07:14:14  321 322	 1492413254	 787529004	 161498.
07:14:14  322 323	 1492413254	 949051195	 161522.
07:14:15  323 324	 1492413255	 114896388	 165845.
07:14:15  324 325	 1492413255	 276108039	 161212.
07:14:15  325 326	 1492413255	 408973601	 132865.
07:14:15  326 327	 1492413255	 574315109	 165342.
07:14:15  327 328	 1492413255	 735876985	 161562.
07:14:15  328 329	 1492413255	 897536834	 161660.
07:14:16  329 330	 1492413256	 63382429	 165845.
07:14:16  330 331	 1492413256	 196928917	 133547.
07:14:16  331 332	 1492413256	 358936429	 162007.
07:14:16  332 333	 1492413256	 524475528	 165539.
07:14:16  333 334	 1492413256	 690485832	 166011.
07:14:16  334 335	 1492413256	 852019214	 161533.
07:14:16  335 336	 1492413256	 984855813	 132837.
07:14:17  336 337	 1492413257	 150802162	 165946.
07:14:17  337 338	 1492413257	 312553719	 161751.
07:14:17  338 339	 1492413257	 478642758	 166089.
07:14:17  339 340	 1492413257	 640594713	 161952.
07:14:17  340 341	 1492413257	 806548976	 165955.
07:14:17  341 342	 1492413257	 939329600	 132780.
07:14:18  342 343	 1492413258	 100910819	 161582.
07:14:18  343 344	 1492413258	 266601262	 165690.
07:14:18  344 345	 1492413258	 427997658	 161396.
07:14:18  345 346	 1492413258	 565251752	 137254.
07:14:18  346 347	 1492413258	 727009421	 161758.
07:14:18  347 348	 1492413258	 892897742	 165888.
07:14:19  348 349	 1492413259	 54361026	 161466.
07:14:19  349 350	 1492413259	 215730498	 161367.
07:14:19  350 351	 1492413259	 376958120	 161228.
07:14:19  351 352	 1492413259	 513662977	 136705.
07:14:19  352 353	 1492413259	 675120708	 161457.
07:14:19  353 354	 1492413259	 840915769	 165795.
07:14:19  354 355	 1492413260	 2410614	 161496.
07:14:20  355 356	 1492413260	 139427833	 137017.
07:14:20  356 357	 1492413260	 301119261	 161691.
07:14:20  357 358	 1492413260	 462374264	 161255.
07:14:20  358 359	 1492413260	 599397514	 137023.
07:14:20  359 360	 1492413260	 760886240	 161489.
07:14:20  360 361	 1492413260	 926534062	 165648.
07:14:21  361 362	 1492413261	 88422052	 161888.
07:14:21  362 363	 1492413261	 254629395	 166207.
07:14:21  363 364	 1492413261	 387816370	 133187.
07:14:21  364 365	 1492413261	 554003077	 166187.
07:14:21  365 366	 1492413261	 715703539	 161700.
07:14:21  366 367	 1492413261	 881613072	 165910.
07:14:22  367 368	 1492413262	 43097969	 161485.
07:14:22  368 369	 1492413262	 175741385	 132643.
07:14:22  369 370	 1492413262	 337170701	 161429.
07:14:22  370 371	 1492413262	 502453940	 165284.
07:14:22  371 372	 1492413262	 664058179	 161604.
07:14:22  372 373	 1492413262	 830116601	 166058.
07:14:22  373 374	 1492413262	 962500969	 132385.
07:14:23  374 375	 1492413263	 127875278	 165374.
07:14:23  375 376	 1492413263	 289231877	 161357.
07:14:23  376 377	 1492413263	 421775005	 132543.
07:14:23  377 378	 1492413263	 587179360	 165404.
07:14:23  378 379	 1492413263	 749180678	 162001.
07:14:23  379 380	 1492413263	 886078901	 136899.
07:14:24  380 381	 1492413264	 47909427	 161830.
07:14:24  381 382	 1492413264	 213380299	 165471.
07:14:24  382 383	 1492413264	 375249136	 161869.
07:14:24  383 384	 1492413264	 536965490	 161716.
07:14:24  384 385	 1492413264	 702786794	 165822.
07:14:24  385 386	 1492413264	 836043502	 133256.
07:14:24  386 387	 1492413264	 997755057	 161712.
07:14:25  387 388	 1492413265	 163462252	 165707.
07:14:25  388 389	 1492413265	 325276822	 161815.
07:14:25  389 390	 1492413265	 486980421	 161703.
07:14:25  390 391	 1492413265	 652693459	 165713.
07:14:25  391 392	 1492413265	 814919139	 162226.
07:14:25  392 393	 1492413265	 981162131	 166243.
07:14:26  393 394	 1492413266	 114557662	 133395.
07:14:26  394 395	 1492413266	 280889837	 166333.
07:14:26  395 396	 1492413266	 443270324	 162380.
07:14:26  396 397	 1492413266	 609460734	 166190.
07:14:26  397 398	 1492413266	 771728322	 162268.
07:14:26  398 399	 1492413266	 937788653	 166060.
07:14:27  399 400	 1492413267	 99845923	 162058.
07:14:27  400 401	 1492413267	 233311188	 133465.
07:14:27  401 402	 1492413267	 399432223	 166121.
07:14:27  402 403	 1492413267	 561636417	 162204.
07:14:27  403 404	 1492413267	 727741758	 166105.
07:14:27  404 405	 1492413267	 893310084	 165569.
07:14:28  405 406	 1492413268	 26304768	 132994.
07:14:28  406 407	 1492413268	 188086540	 161782.
07:14:28  407 408	 1492413268	 353785259	 165699.
07:14:28  408 409	 1492413268	 515709704	 161924.
07:14:28  409 410	 1492413268	 681382589	 165673.
07:14:28  410 411	 1492413268	 814684794	 133302.
07:14:28  411 412	 1492413268	 976373869	 161690.
07:14:29  412 413	 1492413269	 142221844	 165848.
07:14:29  413 414	 1492413269	 304233532	 162011.
07:14:29  414 415	 1492413269	 470219795	 165986.
07:14:29  415 416	 1492413269	 603310578	 133091.
07:14:29  416 417	 1492413269	 769454965	 166145.
07:14:29  417 418	 1492413269	 931285633	 161830.
07:14:30  418 419	 1492413270	 96845364	 165560.
07:14:30  419 420	 1492413270	 229489285	 132644.
07:14:30  420 421	 1492413270	 395106362	 165617.
07:14:30  421 422	 1492413270	 556709957	 161604.
07:14:30  422 423	 1492413270	 692926552	 136216.
07:14:30  423 424	 1492413270	 854827208	 161901.
07:14:31  424 425	 1492413271	 12491307	 157664.
07:14:31  425 426	 1492413271	 178096280	 165605.
07:14:31  426 427	 1492413271	 311074067	 132978.
07:14:31  427 428	 1492413271	 476580663	 165506.
07:14:31  428 429	 1492413271	 638319455	 161739.
07:14:31  429 430	 1492413271	 775102817	 136786.
07:14:31  430 431	 1492413271	 936460619	 161355.
07:14:32  431 432	 1492413272	 98610887	 162151.
07:14:32  432 433	 1492413272	 264177711	 165566.
07:14:32  433 434	 1492413272	 425947510	 161770.
07:14:32  434 435	 1492413272	 563164476	 137217.
07:14:32  435 436	 1492413272	 724963059	 161799.
07:14:32  436 437	 1492413272	 890202934	 165240.
07:14:33  437 438	 1492413273	 22956312	 132753.
07:14:33  438 439	 1492413273	 188985010	 166029.
07:14:33  439 440	 1492413273	 350719210	 161734.
07:14:33  440 441	 1492413273	 512483627	 161764.
07:14:33  441 442	 1492413273	 678134893	 165652.
07:14:33  442 443	 1492413273	 810556213	 132421.
07:14:33  443 444	 1492413273	 975718146	 165162.
07:14:34  444 445	 1492413274	 108365193	 132647.
07:14:34  445 446	 1492413274	 273555659	 165190.
07:14:34  446 447	 1492413274	 435254192	 161699.
07:14:34  447 448	 1492413274	 601335349	 166081.
07:14:34  448 449	 1492413274	 733889224	 132554.
07:14:34  449 450	 1492413274	 895328213	 161439.
07:14:35  450 451	 1492413275	 61239061	 165911.
07:14:35  451 452	 1492413275	 223248938	 162010.
07:14:35  452 453	 1492413275	 360065720	 136816.
07:14:35  453 454	 1492413275	 521446823	 161382.
07:14:35  454 455	 1492413275	 686779254	 165332.
07:14:35  455 456	 1492413275	 819475356	 132696.
07:14:35  456 457	 1492413275	 980892713	 161417.
07:14:36  457 458	 1492413276	 146555108	 165663.
07:14:36  458 459	 1492413276	 279675837	 133121.
07:14:36  459 460	 1492413276	 445601215	 165925.
07:14:36  460 461	 1492413276	 607351023	 161750.
07:14:36  461 462	 1492413276	 772768253	 165417.
07:14:36  462 463	 1492413276	 906027303	 133259.
07:14:37  463 464	 1492413277	 67386151	 161359.
07:14:37  464 465	 1492413277	 233180604	 165794.
07:14:37  465 466	 1492413277	 365733881	 132554.
07:14:37  466 467	 1492413277	 531350911	 165617.
07:14:37  467 468	 1492413277	 692892077	 161541.
07:14:37  468 469	 1492413277	 858917357	 166025.
07:14:37  469 470	 1492413277	 992057695	 133140.
07:14:38  470 471	 1492413278	 153290189	 161233.
07:14:38  471 472	 1492413278	 319111935	 165822.
07:14:38  472 473	 1492413278	 480636440	 161524.
07:14:38  473 474	 1492413278	 617756456	 137120.
07:14:38  474 475	 1492413278	 779187376	 161431.
07:14:38  475 476	 1492413278	 945060117	 165873.
07:14:39  476 477	 1492413279	 77689240	 132629.
07:14:39  477 478	 1492413279	 243368839	 165680.
07:14:39  478 479	 1492413279	 405360111	 161991.
07:14:39  479 480	 1492413279	 570879330	 165519.
07:14:39  480 481	 1492413279	 703311156	 132432.
07:14:39  481 482	 1492413279	 868774609	 165463.
07:14:40  482 483	 1492413280	 30109711	 161335.
07:14:40  483 484	 1492413280	 167077667	 136968.
07:14:40  484 485	 1492413280	 328552045	 161475.
07:14:40  485 486	 1492413280	 494328756	 165776.
07:14:40  486 487	 1492413280	 655956470	 161628.
07:14:40  487 488	 1492413280	 793025438	 137069.
07:14:40  488 489	 1492413280	 954771116	 161746.
07:14:41  489 490	 1492413281	 115919255	 161148.
07:14:41  490 491	 1492413281	 252917620	 136998.
07:14:41  491 492	 1492413281	 414309722	 161393.
07:14:41  492 493	 1492413281	 579821750	 165511.
07:14:41  493 494	 1492413281	 741573519	 161752.
07:14:41  494 495	 1492413281	 871244902	 129672.
07:14:42  495 496	 1492413282	 36272097	 165027.
07:14:42  496 497	 1492413282	 197821301	 161549.
07:14:42  497 498	 1492413282	 334449692	 136628.
07:14:42  498 499	 1492413282	 495715638	 161266.
07:14:42  499 500	 1492413282	 661158586	 165443.
07:14:42  500 501	 1492413282	 793742630	 132584.
07:14:42  501 502	 1492413282	 959379408	 165637.
07:14:43  502 503	 1492413283	 120779631	 161400.
07:14:43  503 504	 1492413283	 253594169	 132815.
07:14:43  504 505	 1492413283	 419171705	 165577.
07:14:43  505 506	 1492413283	 584854811	 165684.
07:14:43  506 507	 1492413283	 717593860	 132739.
07:14:43  507 508	 1492413283	 879271214	 161677.
07:14:44  508 509	 1492413284	 45422382	 166151.
07:14:44  509 510	 1492413284	 211330882	 165909.
07:14:44  510 511	 1492413284	 373252923	 161922.
07:14:44  511 512	 1492413284	 510464352	 137211.
07:14:44  512 513	 1492413284	 672527522	 162063.
07:14:44  513 514	 1492413284	 838232718	 165705.
07:14:44  514 515	 1492413284	 999824103	 161592.
07:14:45  515 516	 1492413285	 165528057	 165704.
07:14:45  516 517	 1492413285	 298083151	 132555.
07:14:45  517 518	 1492413285	 458968131	 160885.
07:14:45  518 519	 1492413285	 624124798	 165156.
07:14:45  519 520	 1492413285	 756705900	 132582.
07:14:45  520 521	 1492413285	 917712458	 161006.
07:14:46  521 522	 1492413286	 82866912	 165155.
07:14:46  522 523	 1492413286	 243778148	 160911.
07:14:46  523 524	 1492413286	 376307490	 132529.
07:14:46  524 525	 1492413286	 537201620	 160894.
07:14:46  525 526	 1492413286	 702704730	 165503.
07:14:46  526 527	 1492413286	 863710750	 161006.
07:14:46  527 528	 1492413286	 996234724	 132524.
07:14:47  528 529	 1492413287	 161292261	 165058.
07:14:47  529 530	 1492413287	 322430080	 161138.
07:14:47  530 531	 1492413287	 483586161	 161156.
07:14:47  531 532	 1492413287	 616143007	 132557.
07:14:47  532 533	 1492413287	 781080258	 164937.
07:14:47  533 534	 1492413287	 942144267	 161064.
07:14:48  534 535	 1492413288	 103258175	 161114.
07:14:48  535 536	 1492413288	 239780378	 136522.
07:14:48  536 537	 1492413288	 400801404	 161021.
07:14:48  537 538	 1492413288	 561826199	 161025.
07:14:48  538 539	 1492413288	 726975001	 165149.
07:14:48  539 540	 1492413288	 859567532	 132592.
07:14:49  540 541	 1492413289	 20539450	 160972.
07:14:49  541 542	 1492413289	 186162115	 165623.
07:14:49  542 543	 1492413289	 318834425	 132672.
07:14:49  543 544	 1492413289	 480398437	 161564.
07:14:49  544 545	 1492413289	 646000112	 165602.
07:14:49  545 546	 1492413289	 778398993	 132399.
07:14:49  546 547	 1492413289	 943864547	 165465.
07:14:50  547 548	 1492413290	 105032659	 161168.
07:14:50  548 549	 1492413290	 237806527	 132774.
07:14:50  549 550	 1492413290	 403795687	 165989.
07:14:50  550 551	 1492413290	 565575957	 161781.
07:14:50  551 552	 1492413290	 731255492	 165679.
07:14:50  552 553	 1492413290	 863941648	 132686.
07:14:51  553 554	 1492413291	 29805301	 165864.
07:14:51  554 555	 1492413291	 192096680	 162291.
07:14:51  555 556	 1492413291	 357588768	 165492.
07:14:51  556 557	 1492413291	 519465380	 161877.
07:14:51  557 558	 1492413291	 656513520	 137048.
07:14:51  558 559	 1492413291	 818530490	 162017.
07:14:51  559 560	 1492413291	 983560746	 165031.
07:14:52  560 561	 1492413292	 145808462	 162247.
07:14:52  561 562	 1492413292	 282899596	 137091.
07:14:52  562 563	 1492413292	 444350668	 161451.
07:14:52  563 564	 1492413292	 609833377	 165483.
07:14:52  564 565	 1492413292	 742712558	 132879.
07:14:52  565 566	 1492413292	 905067927	 162356.
07:14:53  566 567	 1492413293	 62535768	 157467.
07:14:53  567 568	 1492413293	 227775500	 165240.
07:14:53  568 569	 1492413293	 360640248	 132865.
07:14:53  569 570	 1492413293	 526539285	 165899.
07:14:53  570 571	 1492413293	 687776006	 161237.
07:14:53  571 572	 1492413293	 848822091	 161046.
07:14:53  572 573	 1492413293	 985721694	 136899.
07:14:54  573 574	 1492413294	 147569408	 161848.
07:14:54  574 575	 1492413294	 313616708	 166047.
07:14:54  575 576	 1492413294	 475392700	 161776.
07:14:54  576 577	 1492413294	 641309223	 165917.
07:14:54  577 578	 1492413294	 774291156	 132982.
07:14:54  578 579	 1492413294	 939750122	 165459.
07:14:55  579 580	 1492413295	 101701442	 161951.
07:14:55  580 581	 1492413295	 267374916	 165674.
07:14:55  581 582	 1492413295	 400364327	 132989.
07:14:55  582 583	 1492413295	 562429617	 162065.
07:14:55  583 584	 1492413295	 728310565	 165881.
07:14:55  584 585	 1492413295	 889816963	 161507.
07:14:56  585 586	 1492413296	 26838774	 137021.
07:14:56  586 587	 1492413296	 188150565	 161312.
07:14:56  587 588	 1492413296	 354231382	 166081.
07:14:56  588 589	 1492413296	 516525186	 162294.
07:14:56  589 590	 1492413296	 653181563	 136656.
07:14:56  590 591	 1492413296	 814683656	 161502.
07:14:56  591 592	 1492413296	 980102392	 165419.
07:14:57  592 593	 1492413297	 112692400	 132590.
07:14:57  593 594	 1492413297	 278126596	 165434.
07:14:57  594 595	 1492413297	 439726355	 161600.
07:14:57  595 596	 1492413297	 605505338	 165779.
07:14:57  596 597	 1492413297	 738409659	 132904.
07:14:57  597 598	 1492413297	 903994867	 165586.
07:14:58  598 599	 1492413298	 65737795	 161743.
07:14:58  599 600	 1492413298	 231463884	 165726.
07:14:58  600 601	 1492413298	 364554516	 133090.
07:14:58  601 602	 1492413298	 526395863	 161842.
07:14:58  602 603	 1492413298	 692324938	 165929.
07:14:58  603 604	 1492413298	 853894527	 161569.
07:14:58  604 605	 1492413298	 990528542	 136634.
07:14:59  605 606	 1492413299	 152214811	 161687.
07:14:59  606 607	 1492413299	 318320877	 166106.
07:14:59  607 608	 1492413299	 480464611	 162143.
07:14:59  608 609	 1492413299	 617369409	 136905.
07:14:59  609 610	 1492413299	 778922872	 161554.
07:14:59  610 611	 1492413299	 945111233	 166188.
07:15:00  611 612	 1492413300	 106826599	 161715.
07:15:00  612 613	 1492413300	 268422050	 161596.
07:15:00  613 614	 1492413300	 434000504	 165578.
07:15:00  614 615	 1492413300	 567063719	 133063.
07:15:00  615 616	 1492413300	 754029740	 186966.
07:15:00  616 617	 1492413300	 887076806	 133048.
07:15:01  617 618	 1492413301	 52641524	 165564.
07:15:01  618 619	 1492413301	 214385430	 161744.
07:15:01  619 620	 1492413301	 375690388	 161305.
07:15:01  620 621	 1492413301	 541301826	 165612.
07:15:01  621 622	 1492413301	 702883672	 161581.
07:15:01  622 623	 1492413301	 868767162	 165884.
07:15:01  623 624	 1492413302	 1746631	 132979.
07:15:02  624 625	 1492413302	 163102679	 161356.
07:15:02  625 626	 1492413302	 328799870	 165698.
07:15:02  626 627	 1492413302	 490438386	 161638.
07:15:02  627 628	 1492413302	 652026092	 161588.
07:15:02  628 629	 1492413302	 817596647	 165571.
07:15:02  629 630	 1492413302	 979245050	 161648.
07:15:03  630 631	 1492413303	 112263443	 133018.
07:15:03  631 632	 1492413303	 273921571	 161658.
07:15:03  632 633	 1492413303	 439642872	 165722.
07:15:03  633 634	 1492413303	 601335249	 161692.
07:15:03  634 635	 1492413303	 762975561	 161640.
07:15:03  635 636	 1492413303	 928877284	 165902.
07:15:04  636 637	 1492413304	 91215729	 162338.
07:15:04  637 638	 1492413304	 253181650	 161966.
07:15:04  638 639	 1492413304	 414610841	 161430.
07:15:04  639 640	 1492413304	 576390413	 161779.
07:15:04  640 641	 1492413304	 742117220	 165727.
07:15:04  641 642	 1492413304	 875002682	 132885.
07:15:05  642 643	 1492413305	 36577029	 161575.
07:15:05  643 644	 1492413305	 202355345	 165778.
07:15:05  644 645	 1492413305	 364188830	 161834.
07:15:05  645 646	 1492413305	 525823472	 161634.
07:15:05  646 647	 1492413305	 691530680	 165707.
07:15:05  647 648	 1492413305	 853011268	 161481.
07:15:05  648 649	 1492413305	 986258720	 133248.
07:15:06  649 650	 1492413306	 152246495	 165987.
07:15:06  650 651	 1492413306	 314015779	 161770.
07:15:06  651 652	 1492413306	 475741697	 161725.
07:15:06  652 653	 1492413306	 641765116	 166024.
07:15:06  653 654	 1492413306	 803608148	 161843.
07:15:06  654 655	 1492413306	 965393889	 161786.
07:15:07  655 656	 1492413307	 131115012	 165721.
07:15:07  656 657	 1492413307	 293047575	 161932.
07:15:07  657 658	 1492413307	 459184125	 166137.
07:15:07  658 659	 1492413307	 592127303	 132943.
07:15:07  659 660	 1492413307	 753789907	 161663.
07:15:07  660 661	 1492413307	 919353698	 165563.
07:15:08  661 662	 1492413308	 81127605	 161774.
07:15:08  662 663	 1492413308	 242671810	 161545.
07:15:08  663 664	 1492413308	 404335758	 161663.
07:15:08  664 665	 1492413308	 569959643	 165624.
07:15:08  665 666	 1492413308	 731686870	 161728.
07:15:08  666 667	 1492413308	 868768040	 137081.
07:15:09  667 668	 1492413309	 30026718	 161258.
07:15:09  668 669	 1492413309	 191757133	 161731.
07:15:09  669 670	 1492413309	 357662442	 165905.
07:15:09  670 671	 1492413309	 519701594	 162039.
07:15:09  671 672	 1492413309	 685916086	 166215.
07:15:09  672 673	 1492413309	 818907861	 132992.
07:15:09  673 674	 1492413309	 984816728	 165909.
07:15:10  674 675	 1492413310	 146445227	 161628.
07:15:10  675 676	 1492413310	 308494946	 162050.
07:15:10  676 677	 1492413310	 445674284	 137179.
07:15:10  677 678	 1492413310	 611470020	 165796.
07:15:10  678 679	 1492413310	 773093146	 161623.
07:15:10  679 680	 1492413310	 934696784	 161604.
07:15:11  680 681	 1492413311	 71824784	 137127.
07:15:11  681 682	 1492413311	 233534145	 161710.
07:15:11  682 683	 1492413311	 399183526	 165649.
07:15:11  683 684	 1492413311	 560742814	 161560.
07:15:11  684 685	 1492413311	 722774252	 162031.
07:15:11  685 686	 1492413311	 884055353	 161281.
07:15:12  686 687	 1492413312	 46411076	 162356.
07:15:12  687 688	 1492413312	 179456934	 133046.
07:15:12  688 689	 1492413312	 340908972	 161452.
07:15:12  689 690	 1492413312	 506684348	 165775.
07:15:12  690 691	 1492413312	 668462239	 161778.
07:15:12  691 692	 1492413312	 829922813	 161461.
07:15:12  692 693	 1492413312	 995193314	 165270.
07:15:13  693 694	 1492413313	 127936802	 132743.
07:15:13  694 695	 1492413313	 289686486	 161750.
07:15:13  695 696	 1492413313	 454872430	 165186.
07:15:13  696 697	 1492413313	 616377855	 161506.
07:15:13  697 698	 1492413313	 777928916	 161551.
07:15:13  698 699	 1492413313	 915197839	 137269.
07:15:14  699 700	 1492413314	 76841749	 161643.
07:15:14  700 701	 1492413314	 242546262	 165705.
07:15:14  701 702	 1492413314	 404389509	 161843.
07:15:14  702 703	 1492413314	 566234864	 161846.
07:15:14  703 704	 1492413314	 728008657	 161774.
07:15:14  704 705	 1492413314	 893729472	 165720.
07:15:15  705 706	 1492413315	 55415534	 161686.
07:15:15  706 707	 1492413315	 192510624	 137095.
07:15:15  707 708	 1492413315	 354299392	 161789.
07:15:15  708 709	 1492413315	 515784531	 161485.
07:15:15  709 710	 1492413315	 680989046	 165205.
07:15:15  710 711	 1492413315	 842315096	 161326.
07:15:15  711 712	 1492413315	 975026543	 132711.
07:15:16  712 713	 1492413316	 140241176	 165215.
07:15:16  713 714	 1492413316	 301831040	 161590.
07:15:16  714 715	 1492413316	 467372108	 165541.
07:15:16  715 716	 1492413316	 628928476	 161556.
07:15:16  716 717	 1492413316	 761595267	 132667.
07:15:16  717 718	 1492413316	 926941636	 165347.
07:15:17  718 719	 1492413317	 88612264	 161670.
07:15:17  719 720	 1492413317	 250006395	 161394.
07:15:17  720 721	 1492413317	 386397581	 136391.
07:15:17  721 722	 1492413317	 548004346	 161607.
07:15:17  722 723	 1492413317	 709907803	 161903.
07:15:17  723 724	 1492413317	 875719579	 165812.
07:15:18  724 725	 1492413318	 36914712	 161195.
07:15:18  725 726	 1492413318	 169705123	 132791.
07:15:18  726 727	 1492413318	 335031775	 165326.
07:15:18  727 728	 1492413318	 496363521	 161332.
07:15:18  728 729	 1492413318	 633215744	 136852.
07:15:18  729 730	 1492413318	 794282830	 161068.
07:15:18  730 731	 1492413318	 959735861	 165453.
07:15:19  731 732	 1492413319	 121273644	 161538.
07:15:19  732 733	 1492413319	 253969744	 132695.
07:15:19  733 734	 1492413319	 415442198	 161473.
07:15:19  734 735	 1492413319	 580789929	 165348.
07:15:19  735 736	 1492413319	 741972247	 161182.
07:15:19  736 737	 1492413319	 874656450	 132684.
07:15:20  737 738	 1492413320	 40084501	 165428.
07:15:20  738 739	 1492413320	 201540580	 161456.
07:15:20  739 740	 1492413320	 363234004	 161694.
07:15:20  740 741	 1492413320	 528880082	 165646.
07:15:20  741 742	 1492413320	 687442702	 158562.
07:15:20  742 743	 1492413320	 849080849	 161639.
07:15:20  743 744	 1492413320	 985989798	 136908.
07:15:21  744 745	 1492413321	 147588890	 161600.
07:15:21  745 746	 1492413321	 309236481	 161647.
07:15:21  746 747	 1492413321	 474663061	 165427.
07:15:21  747 748	 1492413321	 636148424	 161485.
07:15:21  748 749	 1492413321	 797821600	 161673.
07:15:21  749 750	 1492413321	 934715489	 136894.
07:15:22  750 751	 1492413322	 96005044	 161290.
07:15:22  751 752	 1492413322	 257298050	 161293.
07:15:22  752 753	 1492413322	 422638795	 165341.
07:15:22  753 754	 1492413322	 583970781	 161331.
07:15:22  754 755	 1492413322	 716648907	 132679.
07:15:22  755 756	 1492413322	 881920119	 165271.
07:15:23  756 757	 1492413323	 43167587	 161247.
07:15:23  757 758	 1492413323	 208474977	 165308.
07:15:23  758 759	 1492413323	 340867741	 132392.
07:15:23  759 760	 1492413323	 501873444	 161006.
07:15:23  760 761	 1492413323	 667231076	 165358.
07:15:23  761 762	 1492413323	 828334122	 161103.
07:15:23  762 763	 1492413323	 960674873	 132341.
07:15:24  763 764	 1492413324	 122080226	 161405.
07:15:24  764 765	 1492413324	 287980252	 165900.
07:15:24  765 766	 1492413324	 449662960	 161683.
07:15:24  766 767	 1492413324	 586790766	 137127.
07:15:24  767 768	 1492413324	 748791316	 162001.
07:15:24  768 769	 1492413324	 914330100	 165539.
07:15:25  769 770	 1492413325	 76088575	 161758.
07:15:25  770 771	 1492413325	 213213311	 137125.
07:15:25  771 772	 1492413325	 374605849	 161393.
07:15:25  772 773	 1492413325	 540995347	 166389.
07:15:25  773 774	 1492413325	 694102593	 153107.
07:15:25  774 775	 1492413325	 831345837	 137244.
07:15:25  775 776	 1492413325	 992642411	 161296.
07:15:26  776 777	 1492413326	 154467969	 161826.
07:15:26  777 778	 1492413326	 320013403	 165545.
07:15:26  778 779	 1492413326	 453102602	 133089.
07:15:26  779 780	 1492413326	 618898478	 165796.
07:15:26  780 781	 1492413326	 780382608	 161484.
07:15:26  781 782	 1492413326	 945992643	 165610.
07:15:27  782 783	 1492413327	 79368158	 133376.
07:15:27  783 784	 1492413327	 245061063	 165693.
07:15:27  784 785	 1492413327	 406223051	 161162.
07:15:27  785 786	 1492413327	 538723789	 132500.
07:15:27  786 787	 1492413327	 704478234	 165755.
07:15:27  787 788	 1492413327	 865674932	 161197.
07:15:28  788 789	 1492413328	 31454624	 165779.
07:15:28  789 790	 1492413328	 164460603	 133006.
07:15:28  790 791	 1492413328	 330538163	 166078.
07:15:28  791 792	 1492413328	 492181516	 161643.
07:15:28  792 793	 1492413328	 658023719	 165842.
07:15:28  793 794	 1492413328	 791057383	 133034.
07:15:28  794 795	 1492413328	 952731148	 161674.
07:15:29  795 796	 1492413329	 118257774	 165526.
07:15:29  796 797	 1492413329	 250948854	 132692.
07:15:29  797 798	 1492413329	 416383475	 165434.
07:15:29  798 799	 1492413329	 578198144	 161815.
07:15:29  799 800	 1492413329	 743902137	 165704.
07:15:29  800 801	 1492413329	 901976994	 158075.
07:15:30  801 802	 1492413330	 35172676	 133195.
07:15:30  802 803	 1492413330	 200947574	 165775.
07:15:30  803 804	 1492413330	 362333580	 161386.
07:15:30  804 805	 1492413330	 528149024	 165816.
07:15:30  805 806	 1492413330	 660805134	 132656.
07:15:30  806 807	 1492413330	 821692003	 160887.
07:15:30  807 808	 1492413330	 988427700	 166735.
07:15:31  808 809	 1492413331	 145748750	 157321.
07:15:31  809 810	 1492413331	 278903105	 133155.
07:15:31  810 811	 1492413331	 440349205	 161446.
07:15:31  811 812	 1492413331	 606203453	 165854.
07:15:31  812 813	 1492413331	 767614077	 161411.
07:15:31  813 814	 1492413331	 904883440	 137269.
07:15:32  814 815	 1492413332	 66816312	 161933.
07:15:32  815 816	 1492413332	 232337279	 165521.
07:15:32  816 817	 1492413332	 394212901	 161876.
07:15:32  817 818	 1492413332	 531299971	 137087.
07:15:32  818 819	 1492413332	 692765682	 161465.
07:15:32  819 820	 1492413332	 854448380	 161683.
07:15:33  820 821	 1492413333	 20674553	 166226.
07:15:33  821 822	 1492413333	 182234022	 161560.
07:15:33  822 823	 1492413333	 319443772	 137209.
07:15:33  823 824	 1492413333	 477422344	 157979.
07:15:33  824 825	 1492413333	 639406332	 161984.
07:15:33  825 826	 1492413333	 804898555	 165492.
07:15:33  826 827	 1492413333	 937694777	 132796.
07:15:34  827 828	 1492413334	 103559201	 165865.
07:15:34  828 829	 1492413334	 265521370	 161962.
07:15:34  829 830	 1492413334	 431168008	 165647.
07:15:34  830 831	 1492413334	 564364930	 133197.
07:15:34  831 832	 1492413334	 730507424	 166142.
07:15:34  832 833	 1492413334	 891997394	 161490.
07:15:35  833 834	 1492413335	 57979064	 165982.
07:15:35  834 835	 1492413335	 219872200	 161893.
07:15:35  835 836	 1492413335	 356465630	 136593.
07:15:35  836 837	 1492413335	 518160974	 161696.
07:15:35  837 838	 1492413335	 679409335	 161248.
07:15:35  838 839	 1492413335	 816625807	 137217.
07:15:35  839 840	 1492413335	 977998260	 161372.
07:15:36  840 841	 1492413336	 139658727	 161660.
07:15:36  841 842	 1492413336	 305705339	 166047.
07:15:36  842 843	 1492413336	 438622582	 132917.
07:15:36  843 844	 1492413336	 604480829	 165859.
07:15:36  844 845	 1492413336	 766186386	 161705.
07:15:36  845 846	 1492413336	 932085687	 165899.
07:15:37  846 847	 1492413337	 65518974	 133434.
07:15:37  847 848	 1492413337	 231155855	 165637.
07:15:37  848 849	 1492413337	 393135541	 161979.
07:15:37  849 850	 1492413337	 555007331	 161872.
07:15:37  850 851	 1492413337	 721054032	 166047.
07:15:37  851 852	 1492413337	 854315546	 133261.
07:15:38  852 853	 1492413338	 19912063	 165597.
07:15:38  853 854	 1492413338	 181261061	 161349.
07:15:38  854 855	 1492413338	 347304753	 166043.
07:15:38  855 856	 1492413338	 480349919	 133046.
07:15:38  856 857	 1492413338	 646167631	 165817.
07:15:38  857 858	 1492413338	 807679592	 161512.
07:15:38  858 859	 1492413338	 969431787	 161752.
07:15:39  859 860	 1492413339	 106263789	 136833.
07:15:39  860 861	 1492413339	 268291856	 162028.
07:15:39  861 862	 1492413339	 433704260	 165412.
07:15:39  862 863	 1492413339	 595085381	 161381.
07:15:39  863 864	 1492413339	 731468062	 136383.
07:15:39  864 865	 1492413339	 893325819	 161858.
07:15:40  865 866	 1492413340	 54970252	 161644.
07:15:40  866 867	 1492413340	 191921627	 136951.
07:15:40  867 868	 1492413340	 353662754	 161741.
07:15:40  868 869	 1492413340	 515040906	 161379.
07:15:40  869 870	 1492413340	 652134664	 137093.
07:15:40  870 871	 1492413340	 813590264	 161456.
07:15:40  871 872	 1492413340	 978739898	 165150.
07:15:41  872 873	 1492413341	 111686492	 132946.
07:15:41  873 874	 1492413341	 277275386	 165589.
07:15:41  874 875	 1492413341	 438950201	 161675.
07:15:41  875 876	 1492413341	 604524632	 165574.
07:15:41  876 877	 1492413341	 737564473	 133040.
07:15:41  877 878	 1492413341	 896169258	 158605.
07:15:42  878 879	 1492413342	 58694748	 162525.
07:15:42  879 880	 1492413342	 215769473	 157075.
07:15:42  880 881	 1492413342	 381730964	 165962.
07:15:42  881 882	 1492413342	 514816643	 133085.
07:15:42  882 883	 1492413342	 680692026	 165876.
07:15:42  883 884	 1492413342	 842698938	 162007.
07:15:43  884 885	 1492413343	 9178344	 166479.
07:15:43  885 886	 1492413343	 171153721	 161975.
07:15:43  886 887	 1492413343	 337522101	 166369.
07:15:43  887 888	 1492413343	 499533037	 162011.
07:15:43  888 889	 1492413343	 636944674	 137411.
07:15:43  889 890	 1492413343	 799040128	 162096.
07:15:43  890 891	 1492413343	 965082497	 166042.
07:15:44  891 892	 1492413344	 127226000	 162144.
07:15:44  892 893	 1492413344	 293496614	 166270.
07:15:44  893 894	 1492413344	 455602406	 162106.
07:15:44  894 895	 1492413344	 617737891	 162136.
07:15:44  895 896	 1492413344	 754889063	 137151.
07:15:44  896 897	 1492413344	 916607761	 161718.
07:15:45  897 898	 1492413345	 82517968	 165911.
07:15:45  898 899	 1492413345	 244161587	 161643.
07:15:45  899 900	 1492413345	 410202461	 166041.
07:15:45  900 901	 1492413345	 543198415	 132996.
07:15:45  901 902	 1492413345	 708981445	 165783.
07:15:45  902 903	 1492413345	 870557309	 161576.
07:15:46  903 904	 1492413346	 31878462	 161321.
07:15:46  904 905	 1492413346	 168734043	 136856.
07:15:46  905 906	 1492413346	 330818117	 162084.
07:15:46  906 907	 1492413346	 496225575	 165407.
07:15:46  907 908	 1492413346	 629221513	 132996.
07:15:46  908 909	 1492413346	 794713722	 165492.
07:15:46  909 910	 1492413346	 956672520	 161959.
07:15:47  910 911	 1492413347	 118526327	 161854.
07:15:47  911 912	 1492413347	 255526985	 137001.
07:15:47  912 913	 1492413347	 417316154	 161789.
07:15:47  913 914	 1492413347	 583179145	 165863.
07:15:47  914 915	 1492413347	 744853527	 161674.
07:15:47  915 916	 1492413347	 911035414	 166182.
07:15:48  916 917	 1492413348	 43911113	 132876.
07:15:48  917 918	 1492413348	 205367156	 161456.
07:15:48  918 919	 1492413348	 371103564	 165736.
07:15:48  919 920	 1492413348	 532876259	 161773.
07:15:48  920 921	 1492413348	 669824844	 136949.
07:15:48  921 922	 1492413348	 831445448	 161620.
07:15:48  922 923	 1492413348	 993024490	 161579.
07:15:49  923 924	 1492413349	 159009328	 165985.
07:15:49  924 925	 1492413349	 320289781	 161280.
07:15:49  925 926	 1492413349	 453293520	 133004.
07:15:49  926 927	 1492413349	 614790126	 161497.
07:15:49  927 928	 1492413349	 780204690	 165414.
07:15:49  928 929	 1492413349	 941367505	 161163.
07:15:50  929 930	 1492413350	 103230158	 161863.
07:15:50  930 931	 1492413350	 240465416	 137235.
07:15:50  931 932	 1492413350	 401841172	 161376.
07:15:50  932 933	 1492413350	 567586447	 165745.
07:15:50  933 934	 1492413350	 729046862	 161461.
07:15:50  934 935	 1492413350	 862155251	 133108.
07:15:51  935 936	 1492413351	 27995159	 165840.
07:15:51  936 937	 1492413351	 189676972	 161682.
07:15:51  937 938	 1492413351	 355486938	 165810.
07:15:51  938 939	 1492413351	 517467367	 161980.
07:15:51  939 940	 1492413351	 650674922	 133208.
07:15:51  940 941	 1492413351	 816899702	 166224.
07:15:51  941 942	 1492413351	 982891042	 165992.
07:15:52  942 943	 1492413352	 144905775	 162014.
07:15:52  943 944	 1492413352	 306951906	 162047.
07:15:52  944 945	 1492413352	 473123037	 166171.
07:15:52  945 946	 1492413352	 635540305	 162417.
07:15:52  946 947	 1492413352	 772254076	 136714.
07:15:52  947 948	 1492413352	 934020583	 161766.
07:15:53  948 949	 1492413353	 99561506	 165541.
07:15:53  949 950	 1492413353	 261146890	 161586.
07:15:53  950 951	 1492413353	 398511331	 137364.
07:15:53  951 952	 1492413353	 560120842	 161610.
07:15:53  952 953	 1492413353	 726065459	 165944.
07:15:53  953 954	 1492413353	 887966816	 161901.
07:15:54  954 955	 1492413354	 24870206	 136904.
07:15:54  955 956	 1492413354	 186487952	 161618.
07:15:54  956 957	 1492413354	 348195223	 161707.
07:15:54  957 958	 1492413354	 513913102	 165718.
07:15:54  958 959	 1492413354	 675156763	 161243.
07:15:54  959 960	 1492413354	 808250293	 133094.
07:15:54  960 961	 1492413354	 973820100	 165570.
07:15:55  961 962	 1492413355	 135593231	 161773.
07:15:55  962 963	 1492413355	 301467840	 165875.
07:15:55  963 964	 1492413355	 462697561	 161229.
07:15:55  964 965	 1492413355	 599915485	 137218.
07:15:55  965 966	 1492413355	 761344360	 161429.
07:15:55  966 967	 1492413355	 926894059	 165550.
07:15:56  967 968	 1492413356	 88133932	 161240.
07:15:56  968 969	 1492413356	 221024651	 132890.
07:15:56  969 970	 1492413356	 386694497	 165670.
07:15:56  970 971	 1492413356	 548170430	 161476.
07:15:56  971 972	 1492413356	 685279695	 137109.
07:15:56  972 973	 1492413356	 846619172	 161340.
07:15:57  973 974	 1492413357	 11586297	 164967.
07:15:57  974 975	 1492413357	 144370756	 132784.
07:15:57  975 976	 1492413357	 305756883	 161387.
07:15:57  976 977	 1492413357	 467431476	 161674.
07:15:57  977 978	 1492413357	 632604082	 165173.
07:15:57  978 979	 1492413357	 765706511	 133102.
07:15:57  979 980	 1492413357	 931225529	 165519.
07:15:58  980 981	 1492413358	 92825638	 161600.
07:15:58  981 982	 1492413358	 258929026	 166104.
07:15:58  982 983	 1492413358	 392170320	 133241.
07:15:58  983 984	 1492413358	 558105107	 165935.
07:15:58  984 985	 1492413358	 742196299	 184091.
07:15:58  985 986	 1492413358	 875478120	 133282.
07:15:59  986 987	 1492413359	 41344814	 165867.
07:15:59  987 988	 1492413359	 203519491	 162174.
07:15:59  988 989	 1492413359	 369011405	 165492.
07:15:59  989 990	 1492413359	 530980081	 161969.
07:15:59  990 991	 1492413359	 668284145	 137304.
07:15:59  991 992	 1492413359	 829929011	 161645.
07:15:59  992 993	 1492413359	 991708852	 161780.
07:16:00  993 994	 1492413360	 157465355	 165756.
07:16:00  994 995	 1492413360	 318974330	 161509.
07:16:00  995 996	 1492413360	 480570528	 161596.
07:16:00  996 997	 1492413360	 646263150	 165693.
07:16:00  997 998	 1492413360	 779133796	 132871.
07:16:00  998 999	 1492413360	 940823146	 161689.
07:16:01  999 1000	 1492413361	 106261493	 165438.
07:16:01 1000 1001	 1492413361	 267604223	 161343.
07:16:01 1001 1002	 1492413361	 429154831	 161551.
07:16:01 1002 1003	 1492413361	 594628645	 165473.
07:16:01 1003 1004	 1492413361	 727465777	 132837.
07:16:01 1004 1005	 1492413361	 889030943	 161566.
07:16:02 1005 1006	 1492413362	 54599415	 165568.
07:16:02 1006 1007	 1492413362	 216000064	 161401.
07:16:02 1007 1008	 1492413362	 381323324	 165323.
07:16:02 1008 1009	 1492413362	 513948394	 132625.
07:16:02 1009 1010	 1492413362	 675370782	 161422.
07:16:02 1010 1011	 1492413362	 840654470	 165284.
07:16:03 1011 1012	 1492413363	 1854714	 161200.
07:16:03 1012 1013	 1492413363	 134782308	 132928.
07:16:03 1013 1014	 1492413363	 300106952	 165325.
07:16:03 1014 1015	 1492413363	 461386453	 161279.
07:16:03 1015 1016	 1492413363	 626694177	 165308.
07:16:03 1016 1017	 1492413363	 759104125	 132410.
07:16:03 1017 1018	 1492413363	 920568755	 161465.
07:16:04 1018 1019	 1492413364	 86006123	 165437.
07:16:04 1019 1020	 1492413364	 247469639	 161463.
07:16:04 1020 1021	 1492413364	 408648506	 161179.
07:16:04 1021 1022	 1492413364	 574360836	 165713.
07:16:04 1022 1023	 1492413364	 707332444	 132971.
07:16:04 1023 1024	 1492413364	 873048651	 165716.
07:16:05 1024 1025	 1492413365	 34791906	 161744.
07:16:05 1025 1026	 1492413365	 196134208	 161342.
07:16:05 1026 1027	 1492413365	 361534545	 165400.
07:16:05 1027 1028	 1492413365	 494453801	 132919.
07:16:05 1028 1029	 1492413365	 655881204	 161428.
07:16:05 1029 1030	 1492413365	 817290433	 161409.
07:16:05 1030 1031	 1492413365	 982643369	 165353.
07:16:06 1031 1032	 1492413366	 115652052	 133009.
07:16:06 1032 1033	 1492413366	 276995050	 161343.
07:16:06 1033 1034	 1492413366	 442883665	 165888.
07:16:06 1034 1035	 1492413366	 604417906	 161535.
07:16:06 1035 1036	 1492413366	 770390734	 165972.
07:16:06 1036 1037	 1492413366	 931905727	 161515.
07:16:07 1037 1038	 1492413367	 93795818	 161891.
07:16:07 1038 1039	 1492413367	 226564560	 132768.
07:16:07 1039 1040	 1492413367	 391964375	 165400.
07:16:07 1040 1041	 1492413367	 553631777	 161667.
07:16:07 1041 1042	 1492413367	 715220399	 161589.
07:16:07 1042 1043	 1492413367	 880656462	 165436.
07:16:08 1043 1044	 1492413368	 42144264	 161488.
07:16:08 1044 1045	 1492413368	 174943594	 132799.
07:16:08 1045 1046	 1492413368	 340627678	 165684.
07:16:08 1046 1047	 1492413368	 502104353	 161477.
07:16:08 1047 1048	 1492413368	 663472794	 161368.
07:16:08 1048 1049	 1492413368	 828705354	 165233.
07:16:08 1049 1050	 1492413368	 990620457	 161915.
07:16:09 1050 1051	 1492413369	 127792441	 137172.
07:16:09 1051 1052	 1492413369	 289136867	 161345.
07:16:09 1052 1053	 1492413369	 455214397	 166077.
07:16:09 1053 1054	 1492413369	 617034790	 161821.
07:16:09 1054 1055	 1492413369	 778276646	 161241.
07:16:09 1055 1056	 1492413369	 936149946	 157874.
07:16:10 1056 1057	 1492413370	 68737901	 132588.
07:16:10 1057 1058	 1492413370	 234385615	 165647.
07:16:10 1058 1059	 1492413370	 395605192	 161220.
07:16:10 1059 1060	 1492413370	 561066861	 165462.
07:16:10 1060 1061	 1492413370	 722410749	 161344.
07:16:10 1061 1062	 1492413370	 855255392	 132844.
07:16:11 1062 1063	 1492413371	 17006106	 161751.
07:16:11 1063 1064	 1492413371	 182173038	 165167.
07:16:11 1064 1065	 1492413371	 343901243	 161728.
07:16:11 1065 1066	 1492413371	 505565786	 161664.
07:16:11 1066 1067	 1492413371	 671299126	 165734.
07:16:11 1067 1068	 1492413371	 832976953	 161678.
07:16:11 1068 1069	 1492413371	 965824575	 132847.
07:16:12 1069 1070	 1492413372	 127469857	 161646.
07:16:12 1070 1071	 1492413372	 292813728	 165343.
07:16:12 1071 1072	 1492413372	 454194469	 161381.
07:16:12 1072 1073	 1492413372	 615847467	 161653.
07:16:12 1073 1074	 1492413372	 781781298	 165934.
07:16:12 1074 1075	 1492413372	 943615093	 161834.
07:16:13 1075 1076	 1492413373	 80614577	 136999.
07:16:13 1076 1077	 1492413373	 242155019	 161541.
07:16:13 1077 1078	 1492413373	 403957401	 161802.
07:16:13 1078 1079	 1492413373	 569458385	 165501.
07:16:13 1079 1080	 1492413373	 731178221	 161720.
07:16:13 1080 1081	 1492413373	 892775294	 161597.
07:16:14 1081 1082	 1492413374	 29883565	 137108.
07:16:14 1082 1083	 1492413374	 191863860	 161981.
07:16:14 1083 1084	 1492413374	 357588761	 165724.
07:16:14 1084 1085	 1492413374	 519619841	 162032.
07:16:14 1085 1086	 1492413374	 678156725	 158536.
07:16:14 1086 1087	 1492413374	 840066980	 161911.
07:16:15 1087 1088	 1492413375	 6264591	 166197.
07:16:15 1088 1089	 1492413375	 168626181	 162362.
07:16:15 1089 1090	 1492413375	 330858823	 162233.
07:16:15 1090 1091	 1492413375	 467766950	 136908.
07:16:15 1091 1092	 1492413375	 629461316	 161694.
07:16:15 1092 1093	 1492413375	 795448019	 165987.
07:16:15 1093 1094	 1492413375	 957256601	 161808.
07:16:16 1094 1095	 1492413376	 123008010	 165752.
07:16:16 1095 1096	 1492413376	 284538567	 161530.
07:16:16 1096 1097	 1492413376	 421646114	 137108.
07:16:16 1097 1098	 1492413376	 583770684	 162124.
07:16:16 1098 1099	 1492413376	 745588378	 161818.
07:16:16 1099 1100	 1492413376	 911390106	 165802.
07:16:17 1100 1101	 1492413377	 73069120	 161679.
07:16:17 1101 1102	 1492413377	 205924428	 132855.
07:16:17 1102 1103	 1492413377	 371810862	 165887.
07:16:17 1103 1104	 1492413377	 537382110	 165571.
07:16:17 1104 1105	 1492413377	 698889923	 161508.
07:16:17 1105 1106	 1492413377	 835865608	 136975.
07:16:17 1106 1107	 1492413377	 997569954	 161705.
07:16:18 1107 1108	 1492413378	 158581669	 161011.
07:16:18 1108 1109	 1492413378	 295221279	 136640.
07:16:18 1109 1110	 1492413378	 456622720	 161401.
07:16:18 1110 1111	 1492413378	 622355245	 165733.
07:16:18 1111 1112	 1492413378	 755054315	 132699.
07:16:18 1112 1113	 1492413378	 920573727	 165520.
07:16:19 1113 1114	 1492413379	 82113415	 161539.
07:16:19 1114 1115	 1492413379	 247996090	 165883.
07:16:19 1115 1116	 1492413379	 381038127	 133042.
07:16:19 1116 1117	 1492413379	 546372068	 165334.
07:16:19 1117 1118	 1492413379	 707455304	 161083.
07:16:19 1118 1119	 1492413379	 840352062	 132897.
07:16:20 1119 1120	 1492413380	 5845603	 165493.
07:16:20 1120 1121	 1492413380	 167268831	 161424.
07:16:20 1121 1122	 1492413380	 304001131	 136732.
07:16:20 1122 1123	 1492413380	 465523464	 161522.
07:16:20 1123 1124	 1492413380	 631894134	 166371.
07:16:20 1124 1125	 1492413380	 793560934	 161667.
07:16:20 1125 1126	 1492413380	 930358812	 136798.
07:16:21 1126 1127	 1492413381	 109729694	 179370.
07:16:21 1127 1128	 1492413381	 246547828	 136818.
07:16:21 1128 1129	 1492413381	 404653369	 158106.
07:16:21 1129 1130	 1492413381	 570483017	 165830.
07:16:21 1130 1131	 1492413381	 732210101	 161727.
07:16:21 1131 1132	 1492413381	 869335462	 137125.
07:16:22 1132 1133	 1492413382	 31214070	 161879.
07:16:22 1133 1134	 1492413382	 196665080	 165451.
07:16:22 1134 1135	 1492413382	 358601500	 161936.
07:16:22 1135 1136	 1492413382	 524745882	 166145.
07:16:22 1136 1137	 1492413382	 658353188	 133607.
07:16:22 1137 1138	 1492413382	 820511181	 162158.
07:16:22 1138 1139	 1492413382	 986692389	 166181.
07:16:23 1139 1140	 1492413383	 148836096	 162144.
07:16:23 1140 1141	 1492413383	 315057003	 166221.
07:16:23 1141 1142	 1492413383	 477202342	 162145.
07:16:23 1142 1143	 1492413383	 643258588	 166056.
07:16:23 1143 1144	 1492413383	 775943130	 132685.
07:16:23 1144 1145	 1492413383	 941734536	 165791.
07:16:24 1145 1146	 1492413384	 103560488	 161826.
07:16:24 1146 1147	 1492413384	 269162000	 165602.
07:16:24 1147 1148	 1492413384	 402098234	 132936.
07:16:24 1148 1149	 1492413384	 567569219	 165471.
07:16:24 1149 1150	 1492413384	 729590965	 162022.
07:16:24 1150 1151	 1492413384	 891418950	 161828.
07:16:25 1151 1152	 1492413385	 28229069	 136810.
07:16:25 1152 1153	 1492413385	 189409469	 161180.
07:16:25 1153 1154	 1492413385	 354367294	 164958.
07:16:25 1154 1155	 1492413385	 487203603	 132836.
07:16:25 1155 1156	 1492413385	 652576821	 165373.
07:16:25 1156 1157	 1492413385	 785249188	 132673.
07:16:25 1157 1158	 1492413385	 950828183	 165579.
07:16:26 1158 1159	 1492413386	 116511317	 165683.
07:16:26 1159 1160	 1492413386	 278099745	 161588.
07:16:26 1160 1161	 1492413386	 415169749	 137070.
07:16:26 1161 1162	 1492413386	 576837424	 161668.
07:16:26 1162 1163	 1492413386	 743118263	 166281.
07:16:26 1163 1164	 1492413386	 904558758	 161440.
07:16:27 1164 1165	 1492413387	 41597631	 137039.
07:16:27 1165 1166	 1492413387	 203476581	 161879.
07:16:27 1166 1167	 1492413387	 368847241	 165371.
07:16:27 1167 1168	 1492413387	 530396425	 161549.
07:16:27 1168 1169	 1492413387	 667151002	 136755.
07:16:27 1169 1170	 1492413387	 828814925	 161664.
07:16:27 1170 1171	 1492413387	 994999162	 166184.
07:16:28 1171 1172	 1492413388	 127678922	 132680.
07:16:28 1172 1173	 1492413388	 289107921	 161429.
07:16:28 1173 1174	 1492413388	 454644034	 165536.
07:16:28 1174 1175	 1492413388	 591217344	 136573.
07:16:28 1175 1176	 1492413388	 752734741	 161517.
07:16:28 1176 1177	 1492413388	 918755099	 166021.
07:16:29 1177 1178	 1492413389	 80437606	 161682.
07:16:29 1178 1179	 1492413389	 245987355	 165550.
07:16:29 1179 1180	 1492413389	 378860500	 132873.
07:16:29 1180 1181	 1492413389	 540289429	 161429.
07:16:29 1181 1182	 1492413389	 706087774	 165799.
07:16:29 1182 1183	 1492413389	 867732274	 161644.
07:16:30 1183 1184	 1492413390	 29322625	 161590.
07:16:30 1184 1185	 1492413390	 195454304	 166132.
07:16:30 1185 1186	 1492413390	 328732780	 133278.
07:16:30 1186 1187	 1492413390	 494393836	 165662.
07:16:30 1187 1188	 1492413390	 655980711	 161586.
07:16:30 1188 1189	 1492413390	 788604854	 132625.
07:16:30 1189 1190	 1492413390	 954387668	 165782.
07:16:31 1190 1191	 1492413391	 116140961	 161754.
07:16:31 1191 1192	 1492413391	 281629699	 165488.
07:16:31 1192 1193	 1492413391	 414801271	 133172.
07:16:31 1193 1194	 1492413391	 580911811	 166111.
07:16:31 1194 1195	 1492413391	 742414954	 161503.
07:16:31 1195 1196	 1492413391	 908195900	 165781.
07:16:32 1196 1197	 1492413392	 76853703	 168657.
07:16:32 1197 1198	 1492413392	 213816450	 136963.
07:16:32 1198 1199	 1492413392	 379169796	 165353.
07:16:32 1199 1200	 1492413392	 512348928	 133180.
07:16:32 1200 1201	 1492413392	 674021710	 161672.
07:16:32 1201 1202	 1492413392	 839796832	 165776.
07:16:32 1202 1203	 1492413393	 1229977	 161433.
07:16:33 1203 1204	 1492413393	 162568336	 161338.
07:16:33 1204 1205	 1492413393	 299581195	 137013.
07:16:33 1205 1206	 1492413393	 460764778	 161183.
07:16:33 1206 1207	 1492413393	 622254120	 161490.
07:16:33 1207 1208	 1492413393	 787856012	 165602.
07:16:33 1208 1209	 1492413393	 920571741	 132715.
07:16:34 1209 1210	 1492413394	 86097560	 165526.
07:16:34 1210 1211	 1492413394	 247494610	 161397.
07:16:34 1211 1212	 1492413394	 384081153	 136587.
07:16:34 1212 1213	 1492413394	 545456785	 161375.
07:16:34 1213 1214	 1492413394	 711353892	 165898.
07:16:34 1214 1215	 1492413394	 873298671	 161944.
07:16:35 1215 1216	 1492413395	 6103049	 132805.
07:16:35 1216 1217	 1492413395	 171788348	 165685.
07:16:35 1217 1218	 1492413395	 333398168	 161610.
07:16:35 1218 1219	 1492413395	 470353438	 136955.
07:16:35 1219 1220	 1492413395	 632113034	 161760.
07:16:35 1220 1221	 1492413395	 797775115	 165662.
07:16:35 1221 1222	 1492413395	 930476850	 132702.
07:16:36 1222 1223	 1492413396	 95960445	 165483.
07:16:36 1223 1224	 1492413396	 257285481	 161325.
07:16:36 1224 1225	 1492413396	 423210433	 165925.
07:16:36 1225 1226	 1492413396	 556728125	 133518.
07:16:36 1226 1227	 1492413396	 722893253	 166165.
07:16:36 1227 1228	 1492413396	 884634644	 161741.
07:16:37 1228 1229	 1492413397	 50410422	 165776.
07:16:37 1229 1230	 1492413397	 211926391	 161516.
07:16:37 1230 1231	 1492413397	 344711515	 132785.
07:16:37 1231 1232	 1492413397	 510587286	 165876.
07:16:37 1232 1233	 1492413397	 672426041	 161839.
07:16:37 1233 1234	 1492413397	 838231568	 165805.
07:16:37 1234 1235	 1492413397	 999845267	 161614.
07:16:38 1235 1236	 1492413398	 132634040	 132789.
07:16:38 1236 1237	 1492413398	 298451491	 165817.
07:16:38 1237 1238	 1492413398	 460190039	 161739.
07:16:38 1238 1239	 1492413398	 625873007	 165683.
07:16:38 1239 1240	 1492413398	 758846928	 132974.
07:16:38 1240 1241	 1492413398	 924536310	 165689.
07:16:39 1241 1242	 1492413399	 85800322	 161264.
07:16:39 1242 1243	 1492413399	 222610673	 136810.
07:16:39 1243 1244	 1492413399	 384367971	 161758.
07:16:39 1244 1245	 1492413399	 545871800	 161504.
07:16:39 1245 1246	 1492413399	 682635931	 136764.
07:16:39 1246 1247	 1492413399	 848622406	 165986.
07:16:40 1247 1248	 1492413400	 10467047	 161845.
07:16:40 1248 1249	 1492413400	 172310895	 161844.
07:16:40 1249 1250	 1492413400	 337828218	 165517.
07:16:40 1250 1251	 1492413400	 471015191	 133187.
07:16:40 1251 1252	 1492413400	 636281522	 165266.
07:16:40 1252 1253	 1492413400	 797912002	 161631.
07:16:40 1253 1254	 1492413400	 963832283	 165920.
07:16:41 1254 1255	 1492413401	 97019039	 133187.
07:16:41 1255 1256	 1492413401	 262618928	 165600.
07:16:41 1256 1257	 1492413401	 424036393	 161417.
07:16:41 1257 1258	 1492413401	 561178530	 137142.
07:16:41 1258 1259	 1492413401	 722481698	 161303.
07:16:41 1259 1260	 1492413401	 887776191	 165295.
07:16:42 1260 1261	 1492413402	 20554634	 132778.
07:16:42 1261 1262	 1492413402	 186231600	 165677.
07:16:42 1262 1263	 1492413402	 347848788	 161617.
07:16:42 1263 1264	 1492413402	 513363642	 165515.
07:16:42 1264 1265	 1492413402	 646237971	 132875.
07:16:42 1265 1266	 1492413402	 808114397	 161876.
07:16:42 1266 1267	 1492413402	 974158416	 166044.
07:16:43 1267 1268	 1492413403	 136673496	 162515.
07:16:43 1268 1269	 1492413403	 297994153	 161321.
07:16:43 1269 1270	 1492413403	 431085379	 133091.
07:16:43 1270 1271	 1492413403	 597176840	 166092.
07:16:43 1271 1272	 1492413403	 758613286	 161436.
07:16:43 1272 1273	 1492413403	 924600774	 165987.
07:16:44 1273 1274	 1492413404	 57826390	 133226.
07:16:44 1274 1275	 1492413404	 219707033	 161881.
07:16:44 1275 1276	 1492413404	 385573739	 165866.
07:16:44 1276 1277	 1492413404	 547637878	 162065.
07:16:44 1277 1278	 1492413404	 713499015	 165861.
07:16:44 1278 1279	 1492413404	 846805721	 133306.
07:16:45 1279 1280	 1492413405	 12656652	 165851.
07:16:45 1280 1281	 1492413405	 174539386	 161883.
07:16:45 1281 1282	 1492413405	 340614986	 166076.
07:16:45 1282 1283	 1492413405	 502393263	 161778.
07:16:45 1283 1284	 1492413405	 664101114	 161708.
07:16:45 1284 1285	 1492413405	 797090122	 132989.
07:16:45 1285 1286	 1492413405	 962944770	 165854.
07:16:46 1286 1287	 1492413406	 124797705	 161853.
07:16:46 1287 1288	 1492413406	 290425808	 165629.
07:16:46 1288 1289	 1492413406	 423385984	 132960.
07:16:46 1289 1290	 1492413406	 589553894	 166168.
07:16:46 1290 1291	 1492413406	 751836126	 162282.
07:16:46 1291 1292	 1492413406	 913330471	 161494.
07:16:47 1292 1293	 1492413407	 79035238	 165705.
07:16:47 1293 1294	 1492413407	 211994779	 132959.
07:16:47 1294 1295	 1492413407	 377613113	 165619.
07:16:47 1295 1296	 1492413407	 539271154	 161658.
07:16:47 1296 1297	 1492413407	 704980985	 165710.
07:16:47 1297 1298	 1492413407	 838266749	 133285.
07:16:47 1298 1299	 1492413408	 337521	 162071.
07:16:48 1299 1300	 1492413408	 166301758	 165964.
07:16:48 1300 1301	 1492413408	 328215471	 161914.
07:16:48 1301 1302	 1492413408	 494026733	 165811.
07:16:48 1302 1303	 1492413408	 627160601	 133134.
07:16:48 1303 1304	 1492413408	 788876508	 161716.
07:16:48 1304 1305	 1492413408	 954923173	 166047.
07:16:49 1305 1306	 1492413409	 116081311	 161158.
07:16:49 1306 1307	 1492413409	 248987720	 132906.
07:16:49 1307 1308	 1492413409	 414622748	 165635.
07:16:49 1308 1309	 1492413409	 580742744	 166120.
07:16:49 1309 1310	 1492413409	 742717501	 161975.
07:16:49 1310 1311	 1492413409	 904367772	 161650.
07:16:50 1311 1312	 1492413410	 41524291	 137157.
07:16:50 1312 1313	 1492413410	 203244033	 161720.
07:16:50 1313 1314	 1492413410	 369125077	 165881.
07:16:50 1314 1315	 1492413410	 531275242	 162150.
07:16:50 1315 1316	 1492413410	 693035166	 161760.
07:16:50 1316 1317	 1492413410	 829703679	 136668.
07:16:50 1317 1318	 1492413410	 991022310	 161319.
07:16:51 1318 1319	 1492413411	 156694636	 165672.
07:16:51 1319 1320	 1492413411	 289789033	 133095.
07:16:51 1320 1321	 1492413411	 450967981	 161179.
07:16:51 1321 1322	 1492413411	 617215238	 166247.
07:16:51 1322 1323	 1492413411	 779040365	 161825.
07:16:51 1323 1324	 1492413411	 915995350	 136955.
07:16:52 1324 1325	 1492413412	 77693117	 161698.
07:16:52 1325 1326	 1492413412	 243381816	 165689.
07:16:52 1326 1327	 1492413412	 405460284	 162078.
07:16:52 1327 1328	 1492413412	 571334765	 165874.
07:16:52 1328 1329	 1492413412	 704405491	 133071.
07:16:52 1329 1330	 1492413412	 869943532	 165538.
07:16:53 1330 1331	 1492413413	 31894950	 161952.
07:16:53 1331 1332	 1492413413	 197398620	 165504.
07:16:53 1332 1333	 1492413413	 329967430	 132568.
07:16:53 1333 1334	 1492413413	 495346109	 165379.
07:16:53 1334 1335	 1492413413	 656920527	 161574.
07:16:53 1335 1336	 1492413413	 793583351	 136663.
07:16:53 1336 1337	 1492413413	 954920366	 161337.
07:16:54 1337 1338	 1492413414	 87464481	 132544.
07:16:54 1338 1339	 1492413414	 253204016	 165740.
07:16:54 1339 1340	 1492413414	 414899595	 161695.
07:16:54 1340 1341	 1492413414	 580715791	 165816.
07:16:54 1341 1342	 1492413414	 742349322	 161634.
07:16:54 1342 1343	 1492413414	 879368106	 137019.
07:16:55 1343 1344	 1492413415	 40450000	 161082.
07:16:55 1344 1345	 1492413415	 206330926	 165881.
07:16:55 1345 1346	 1492413415	 339507556	 133176.
07:16:55 1346 1347	 1492413415	 504960875	 165454.
07:16:55 1347 1348	 1492413415	 666978956	 162018.
07:16:55 1348 1349	 1492413415	 832621190	 165642.
07:16:55 1349 1350	 1492413415	 965642686	 133021.
07:16:56 1350 1351	 1492413416	 126874242	 161232.
07:16:56 1351 1352	 1492413416	 292502074	 165628.
07:16:56 1352 1353	 1492413416	 425476843	 132975.
07:16:56 1353 1354	 1492413416	 591560848	 166084.
07:16:56 1354 1355	 1492413416	 757128625	 165567.
07:16:56 1355 1356	 1492413416	 918346288	 161218.
07:16:57 1356 1357	 1492413417	 51295219	 132949.
07:16:57 1357 1358	 1492413417	 217050943	 165756.
07:16:57 1358 1359	 1492413417	 378524804	 161473.
07:16:57 1359 1360	 1492413417	 544237999	 165714.
07:16:57 1360 1361	 1492413417	 676999160	 132761.
07:16:57 1361 1362	 1492413417	 842294128	 165295.
07:16:57 1362 1363	 1492413417	 974723905	 132430.
07:16:58 1363 1364	 1492413418	 140253990	 165530.
07:16:58 1364 1365	 1492413418	 301479850	 161226.
07:16:58 1365 1366	 1492413418	 434396852	 132917.
07:16:58 1366 1367	 1492413418	 599903520	 165506.
07:16:58 1367 1368	 1492413418	 761401680	 161498.
07:16:58 1368 1369	 1492413418	 927245264	 165844.
07:16:59 1369 1370	 1492413419	 60357058	 133112.
07:16:59 1370 1371	 1492413419	 226113364	 165756.
07:16:59 1371 1372	 1492413419	 387772712	 161659.
07:16:59 1372 1373	 1492413419	 553799532	 166027.
07:16:59 1373 1374	 1492413419	 715464870	 161666.
07:16:59 1374 1375	 1492413419	 848605593	 133140.
07:17:00 1375 1376	 1492413420	 14558469	 165953.
07:17:00 1376 1377	 1492413420	 176265589	 161707.
07:17:00 1377 1378	 1492413420	 337868646	 161603.
07:17:00 1378 1379	 1492413420	 503896916	 166029.
07:17:00 1379 1380	 1492413420	 665307754	 161410.
07:17:00 1380 1381	 1492413420	 826848806	 161542.
07:17:00 1381 1382	 1492413420	 964233984	 137385.
07:17:01 1382 1383	 1492413421	 125696920	 161463.
07:17:01 1383 1384	 1492413421	 287179833	 161483.
07:17:01 1384 1385	 1492413421	 485573682	 198393.
07:17:01 1385 1386	 1492413421	 647333796	 161760.
07:17:01 1386 1387	 1492413421	 813035310	 165702.
07:17:01 1387 1388	 1492413421	 974772270	 161737.
07:17:02 1388 1389	 1492413422	 140418205	 165646.
07:17:02 1389 1390	 1492413422	 273008431	 132590.
07:17:02 1390 1391	 1492413422	 434368867	 161361.
07:17:02 1391 1392	 1492413422	 599742339	 165373.
07:17:02 1392 1393	 1492413422	 761138831	 161397.
07:17:02 1393 1394	 1492413422	 926717004	 165578.
07:17:03 1394 1395	 1492413423	 59736152	 133019.
07:17:03 1395 1396	 1492413423	 221367683	 161631.
07:17:03 1396 1397	 1492413423	 383103110	 161736.
07:17:03 1397 1398	 1492413423	 548884524	 165781.
07:17:03 1398 1399	 1492413423	 710717126	 161833.
07:17:03 1399 1400	 1492413423	 876572874	 165856.
07:17:04 1400 1401	 1492413424	 38401147	 161828.
07:17:04 1401 1402	 1492413424	 204314752	 165913.
07:17:04 1402 1403	 1492413424	 337351055	 133037.
07:17:04 1403 1404	 1492413424	 499160063	 161809.
07:17:04 1404 1405	 1492413424	 664943297	 165783.
07:17:04 1405 1406	 1492413424	 826745788	 161802.
07:17:04 1406 1407	 1492413424	 988726156	 161981.
07:17:05 1407 1408	 1492413425	 154494415	 165768.
07:17:05 1408 1409	 1492413425	 316447400	 161953.
07:17:05 1409 1410	 1492413425	 482520611	 166073.
07:17:05 1410 1411	 1492413425	 644429975	 161910.
07:17:05 1411 1412	 1492413425	 806075105	 161645.
07:17:05 1412 1413	 1492413425	 942882369	 136807.
07:17:06 1413 1414	 1492413426	 104186589	 161304.
07:17:06 1414 1415	 1492413426	 265532480	 161346.
07:17:06 1415 1416	 1492413426	 431112540	 165580.
07:17:06 1416 1417	 1492413426	 592753343	 161641.
07:17:06 1417 1418	 1492413426	 754401953	 161649.
07:17:06 1418 1419	 1492413426	 887353256	 132951.
07:17:07 1419 1420	 1492413427	 53159079	 165806.
07:17:07 1420 1421	 1492413427	 214877922	 161719.
07:17:07 1421 1422	 1492413427	 376276571	 161398.
07:17:07 1422 1423	 1492413427	 541955106	 165679.
07:17:07 1423 1424	 1492413427	 703616717	 161661.
07:17:07 1424 1425	 1492413427	 869567836	 165952.
07:17:07 1425 1426	 1492413428	 2791116	 133223.
07:17:08 1426 1427	 1492413428	 168615152	 165824.
07:17:08 1427 1428	 1492413428	 330266525	 161651.
07:17:08 1428 1429	 1492413428	 496264504	 165998.
07:17:08 1429 1430	 1492413428	 629430290	 133166.
07:17:08 1430 1431	 1492413428	 795103402	 165673.
07:17:08 1431 1432	 1492413428	 956876315	 161773.
07:17:09 1432 1433	 1492413429	 122550350	 165674.
07:17:09 1433 1434	 1492413429	 255592526	 133042.
07:17:09 1434 1435	 1492413429	 421464473	 165872.
07:17:09 1435 1436	 1492413429	 583038253	 161574.
07:17:09 1436 1437	 1492413429	 749005773	 165967.
07:17:09 1437 1438	 1492413429	 910332517	 161327.
07:17:10 1438 1439	 1492413430	 76131220	 165799.
07:17:10 1439 1440	 1492413430	 209184964	 133054.
07:17:10 1440 1441	 1492413430	 370954487	 161769.
07:17:10 1441 1442	 1492413430	 536655978	 165702.
07:17:10 1442 1443	 1492413430	 697742476	 161086.
07:17:10 1443 1444	 1492413430	 830470486	 132728.
07:17:10 1444 1445	 1492413430	 996759927	 166290.
07:17:11 1445 1446	 1492413431	 153939021	 157179.
07:17:11 1446 1447	 1492413431	 319115914	 165177.
07:17:11 1447 1448	 1492413431	 452444185	 133328.
07:17:11 1448 1449	 1492413431	 618570585	 166126.
07:17:11 1449 1450	 1492413431	 780635122	 162065.
07:17:11 1450 1451	 1492413431	 946282208	 165647.
07:17:12 1451 1452	 1492413432	 108655333	 162373.
07:17:12 1452 1453	 1492413432	 274490456	 165835.
07:17:12 1453 1454	 1492413432	 407588394	 133098.
07:17:12 1454 1455	 1492413432	 573095393	 165507.
07:17:12 1455 1456	 1492413432	 734329889	 161235.
07:17:12 1456 1457	 1492413432	 867127568	 132797.
07:17:13 1457 1458	 1492413433	 32425530	 165298.
07:17:13 1458 1459	 1492413433	 193907487	 161482.
07:17:13 1459 1460	 1492413433	 359504421	 165597.
07:17:13 1460 1461	 1492413433	 521109772	 161605.
07:17:13 1461 1462	 1492413433	 654096967	 132988.
07:17:13 1462 1463	 1492413433	 819992048	 165895.
07:17:13 1463 1464	 1492413433	 981973140	 161981.
07:17:14 1464 1465	 1492413434	 148129382	 166156.
07:17:14 1465 1466	 1492413434	 309854628	 161725.
07:17:14 1466 1467	 1492413434	 471646573	 161792.
07:17:14 1467 1468	 1492413434	 637352040	 165706.
07:17:14 1468 1469	 1492413434	 770359351	 133007.
07:17:14 1469 1470	 1492413434	 936660910	 166302.
07:17:15 1470 1471	 1492413435	 99261195	 162600.
07:17:15 1471 1472	 1492413435	 261520500	 162259.
07:17:15 1472 1473	 1492413435	 427620565	 166100.
07:17:15 1473 1474	 1492413435	 589347526	 161727.
07:17:15 1474 1475	 1492413435	 750761378	 161414.
07:17:15 1475 1476	 1492413435	 887623562	 136862.
07:17:16 1476 1477	 1492413436	 49367694	 161744.
07:17:16 1477 1478	 1492413436	 215333160	 165966.
07:17:16 1478 1479	 1492413436	 377225905	 161893.
07:17:16 1479 1480	 1492413436	 542875888	 165650.
07:17:16 1480 1481	 1492413436	 676068073	 133192.
07:17:16 1481 1482	 1492413436	 837710711	 161642.
07:17:16 1482 1483	 1492413437	 3122668	 165412.
07:17:17 1483 1484	 1492413437	 164971511	 161849.
07:17:17 1484 1485	 1492413437	 330937371	 165966.
07:17:17 1485 1486	 1492413437	 493033783	 162096.
07:17:17 1486 1487	 1492413437	 630091404	 137058.
07:17:17 1487 1488	 1492413437	 791827755	 161736.
07:17:17 1488 1489	 1492413437	 953455776	 161628.
07:17:18 1489 1490	 1492413438	 119340095	 165885.
07:17:18 1490 1491	 1492413438	 280979741	 161639.
07:17:18 1491 1492	 1492413438	 417874605	 136896.
07:17:18 1492 1493	 1492413438	 579599775	 161724.
07:17:18 1493 1494	 1492413438	 741272511	 161673.
07:17:18 1494 1495	 1492413438	 907211582	 165939.
07:17:19 1495 1496	 1492413439	 68653611	 161442.
07:17:19 1496 1497	 1492413439	 201533255	 132880.
07:17:19 1497 1498	 1492413439	 367261703	 165728.
07:17:19 1498 1499	 1492413439	 529308034	 162047.
07:17:19 1499 1500	 1492413439	 695254181	 165946.
07:17:19 1500 1501	 1492413439	 856931963	 161678.
07:17:19 1501 1502	 1492413439	 994480198	 137548.
07:17:20 1502 1503	 1492413440	 156184567	 161704.
07:17:20 1503 1504	 1492413440	 317786038	 161602.
07:17:20 1504 1505	 1492413440	 483593426	 165807.
07:17:20 1505 1506	 1492413440	 645295304	 161702.
07:17:20 1506 1507	 1492413440	 782533729	 137238.
07:17:20 1507 1508	 1492413440	 944189281	 161656.
07:17:21 1508 1509	 1492413441	 109531477	 165342.
07:17:21 1509 1510	 1492413441	 271329217	 161798.
07:17:21 1510 1511	 1492413441	 404121959	 132793.
07:17:21 1511 1512	 1492413441	 569966483	 165844.
07:17:21 1512 1513	 1492413441	 731749475	 161783.
07:17:21 1513 1514	 1492413441	 897812326	 166063.
07:17:22 1514 1515	 1492413442	 59826807	 162015.
07:17:22 1515 1516	 1492413442	 221689426	 161862.
07:17:22 1516 1517	 1492413442	 358857095	 137168.
07:17:22 1517 1518	 1492413442	 520658145	 161801.
07:17:22 1518 1519	 1492413442	 686692248	 166034.
07:17:22 1519 1520	 1492413442	 848724462	 162032.
07:17:23 1520 1521	 1492413443	 14437158	 165713.
07:17:23 1521 1522	 1492413443	 147291939	 132855.
07:17:23 1522 1523	 1492413443	 308916042	 161624.
07:17:23 1523 1524	 1492413443	 474252747	 165336.
07:17:23 1524 1525	 1492413443	 607283698	 133031.
07:17:23 1525 1526	 1492413443	 773249601	 165966.
07:17:23 1526 1527	 1492413443	 934642246	 161393.
07:17:24 1527 1528	 1492413444	 100328018	 165686.
07:17:24 1528 1529	 1492413444	 233155073	 132827.
07:17:24 1529 1530	 1492413444	 398777260	 165622.
07:17:24 1530 1531	 1492413444	 560566541	 161789.
07:17:24 1531 1532	 1492413444	 726378803	 165813.
07:17:24 1532 1533	 1492413444	 859289156	 132910.
07:17:25 1533 1534	 1492413445	 25518302	 166229.
07:17:25 1534 1535	 1492413445	 187336763	 161818.
07:17:25 1535 1536	 1492413445	 348958373	 161622.
07:17:25 1536 1537	 1492413445	 514713612	 165755.
07:17:25 1537 1538	 1492413445	 647713674	 133000.
07:17:25 1538 1539	 1492413445	 809184154	 161471.
07:17:25 1539 1540	 1492413445	 974720041	 165536.
07:17:26 1540 1541	 1492413446	 140509252	 165789.
07:17:26 1541 1542	 1492413446	 273719695	 133210.
07:17:26 1542 1543	 1492413446	 435447832	 161729.
07:17:26 1543 1544	 1492413446	 601509024	 166061.
07:17:26 1544 1545	 1492413446	 763274006	 161765.
07:17:26 1545 1546	 1492413446	 924950367	 161676.
07:17:27 1546 1547	 1492413447	 90750970	 165801.
07:17:27 1547 1548	 1492413447	 252515195	 161764.
07:17:27 1548 1549	 1492413447	 414104622	 161589.
07:17:27 1549 1550	 1492413447	 576070178	 161966.
07:17:27 1550 1551	 1492413447	 713145379	 137075.
07:17:27 1551 1552	 1492413447	 874836090	 161691.
07:17:28 1552 1553	 1492413448	 41236362	 166400.
07:17:28 1553 1554	 1492413448	 202741393	 161505.
07:17:28 1554 1555	 1492413448	 368534586	 165793.
07:17:28 1555 1556	 1492413448	 501504307	 132970.
07:17:28 1556 1557	 1492413448	 667340554	 165836.
07:17:28 1557 1558	 1492413448	 828857240	 161517.
07:17:28 1558 1559	 1492413448	 965563753	 136706.
07:17:29 1559 1560	 1492413449	 127347879	 161785.
07:17:29 1560 1561	 1492413449	 293284597	 165936.
07:17:29 1561 1562	 1492413449	 455375086	 162091.
07:17:29 1562 1563	 1492413449	 621507156	 166132.
07:17:29 1563 1564	 1492413449	 755059457	 133552.
07:17:29 1564 1565	 1492413449	 916515558	 161456.
07:17:30 1565 1566	 1492413450	 82618279	 166103.
07:17:30 1566 1567	 1492413450	 244454596	 161836.
07:17:30 1567 1568	 1492413450	 410137291	 165683.
07:17:30 1568 1569	 1492413450	 572499773	 162363.
07:17:30 1569 1570	 1492413450	 709686159	 137186.
07:17:30 1570 1571	 1492413450	 871086939	 161401.
07:17:31 1571 1572	 1492413451	 36776296	 165689.
07:17:31 1572 1573	 1492413451	 169519170	 132743.
07:17:31 1573 1574	 1492413451	 331049496	 161530.
07:17:31 1574 1575	 1492413451	 496480882	 165432.
07:17:31 1575 1576	 1492413451	 658449757	 161968.
07:17:31 1576 1577	 1492413451	 795694990	 137246.
07:17:31 1577 1578	 1492413451	 957580220	 161885.
07:17:32 1578 1579	 1492413452	 123400292	 165820.
07:17:32 1579 1580	 1492413452	 281445862	 158046.
07:17:32 1580 1581	 1492413452	 443081554	 161635.
07:17:32 1581 1582	 1492413452	 609425686	 166344.
07:17:32 1582 1583	 1492413452	 742501040	 133076.
07:17:32 1583 1584	 1492413452	 908256374	 165755.
07:17:33 1584 1585	 1492413453	 69733654	 161477.
07:17:33 1585 1586	 1492413453	 206689050	 136956.
07:17:33 1586 1587	 1492413453	 369013498	 162324.
07:17:33 1587 1588	 1492413453	 530274042	 161261.
07:17:33 1588 1589	 1492413453	 695823995	 165550.
07:17:33 1589 1590	 1492413453	 828575365	 132751.
07:17:33 1590 1591	 1492413453	 994731839	 166157.
07:17:34 1591 1592	 1492413454	 156195076	 161463.
07:17:34 1592 1593	 1492413454	 317924477	 161729.
07:17:34 1593 1594	 1492413454	 455241177	 137317.
07:17:34 1594 1595	 1492413454	 617027124	 161786.
07:17:34 1595 1596	 1492413454	 783326561	 166299.
07:17:34 1596 1597	 1492413454	 944730997	 161405.
07:17:35 1597 1598	 1492413455	 110711961	 165981.
07:17:35 1598 1599	 1492413455	 272937356	 162225.
07:17:35 1599 1600	 1492413455	 410146851	 137210.
07:17:35 1600 1601	 1492413455	 571665580	 161518.
07:17:35 1601 1602	 1492413455	 737663924	 165999.
07:17:35 1602 1603	 1492413455	 898996529	 161332.
07:17:36 1603 1604	 1492413456	 36326641	 137330.
07:17:36 1604 1605	 1492413456	 197723418	 161397.
07:17:36 1605 1606	 1492413456	 358872807	 161149.
07:17:36 1606 1607	 1492413456	 495913866	 137042.
07:17:36 1607 1608	 1492413456	 658200569	 162286.
07:17:36 1608 1609	 1492413456	 824400599	 166200.
07:17:36 1609 1610	 1492413456	 986267972	 161868.
07:17:37 1610 1611	 1492413457	 152204578	 165936.
07:17:37 1611 1612	 1492413457	 314057865	 161854.
07:17:37 1612 1613	 1492413457	 451216581	 137158.
07:17:37 1613 1614	 1492413457	 612884941	 161669.
07:17:37 1614 1615	 1492413457	 774448772	 161563.
07:17:37 1615 1616	 1492413457	 940489504	 166041.
07:17:38 1616 1617	 1492413458	 73693527	 133204.
07:17:38 1617 1618	 1492413458	 238925044	 165232.
07:17:38 1618 1619	 1492413458	 400116991	 161192.
07:17:38 1619 1620	 1492413458	 561992502	 161875.
07:17:38 1620 1621	 1492413458	 699186512	 137194.
07:17:38 1621 1622	 1492413458	 861191179	 162005.
07:17:39 1622 1623	 1492413459	 18927949	 157737.
07:17:39 1623 1624	 1492413459	 184724237	 165796.
07:17:39 1624 1625	 1492413459	 317580860	 132857.
07:17:39 1625 1626	 1492413459	 483367009	 165786.
07:17:39 1626 1627	 1492413459	 644569216	 161202.
07:17:39 1627 1628	 1492413459	 805609971	 161041.
07:17:39 1628 1629	 1492413459	 970630162	 165020.
07:17:40 1629 1630	 1492413460	 103653986	 133024.
07:17:40 1630 1631	 1492413460	 265427592	 161773.
07:17:40 1631 1632	 1492413460	 431045313	 165618.
07:17:40 1632 1633	 1492413460	 592320959	 161276.
07:17:40 1633 1634	 1492413460	 753545853	 161225.
07:17:40 1634 1635	 1492413460	 890835994	 137290.
07:17:41 1635 1636	 1492413461	 51901543	 161065.
07:17:41 1636 1637	 1492413461	 217451313	 165550.
07:17:41 1637 1638	 1492413461	 349913835	 132463.
07:17:41 1638 1639	 1492413461	 511356032	 161442.
07:17:41 1639 1640	 1492413461	 676798381	 165442.
07:17:41 1640 1641	 1492413461	 838589805	 161792.
07:17:41 1641 1642	 1492413462	 180145	 161590.
07:17:42 1642 1643	 1492413462	 137090206	 136910.
07:17:42 1643 1644	 1492413462	 298715027	 161625.
07:17:42 1644 1645	 1492413462	 459944503	 161229.
07:17:42 1645 1646	 1492413462	 625221372	 165277.
07:17:42 1646 1647	 1492413462	 786765427	 161544.
07:17:42 1647 1648	 1492413462	 948062200	 161297.
07:17:43 1648 1649	 1492413463	 84895822	 136834.
07:17:43 1649 1650	 1492413463	 246179426	 161283.
07:17:43 1650 1651	 1492413463	 407219025	 161040.
07:17:43 1651 1652	 1492413463	 572584271	 165365.
07:17:43 1652 1653	 1492413463	 705254189	 132670.
07:17:43 1653 1654	 1492413463	 870501648	 165247.
07:17:44 1654 1655	 1492413464	 31796795	 161296.
07:17:44 1655 1656	 1492413464	 193282302	 161485.
07:17:44 1656 1657	 1492413464	 330413192	 137131.
07:17:44 1657 1658	 1492413464	 491853705	 161440.
07:17:44 1658 1659	 1492413464	 653598766	 161745.
07:17:44 1659 1660	 1492413464	 819610969	 166013.
07:17:44 1660 1661	 1492413464	 981207202	 161596.
07:17:45 1661 1662	 1492413465	 147235080	 166028.
07:17:45 1662 1663	 1492413465	 280293022	 133058.
07:17:45 1663 1664	 1492413465	 446328740	 166035.
07:17:45 1664 1665	 1492413465	 608225920	 161898.
07:17:45 1665 1666	 1492413465	 773905475	 165679.
07:17:45 1666 1667	 1492413465	 934994913	 161090.
07:17:46 1667 1668	 1492413466	 72339725	 137344.
07:17:46 1668 1669	 1492413466	 233670830	 161332.
07:17:46 1669 1670	 1492413466	 399833899	 166163.
07:17:46 1670 1671	 1492413466	 561565836	 161732.
07:17:46 1671 1672	 1492413466	 698927564	 137361.
07:17:46 1672 1673	 1492413466	 860377248	 161450.
07:17:47 1673 1674	 1492413467	 21347417	 160970.
07:17:47 1674 1675	 1492413467	 158586328	 137239.
07:17:47 1675 1676	 1492413467	 319940385	 161354.
07:17:47 1676 1677	 1492413467	 481690169	 161750.
07:17:47 1677 1678	 1492413467	 647348183	 165658.
07:17:47 1678 1679	 1492413467	 779991299	 132643.
07:17:47 1679 1680	 1492413467	 945692107	 165701.
07:17:48 1680 1681	 1492413468	 107517862	 161826.
07:17:48 1681 1682	 1492413468	 272894836	 165377.
07:17:48 1682 1683	 1492413468	 405598087	 132703.
07:17:48 1683 1684	 1492413468	 567499726	 161901.
07:17:48 1684 1685	 1492413468	 733318380	 165819.
07:17:48 1685 1686	 1492413468	 866088411	 132770.
07:17:49 1686 1687	 1492413469	 31687861	 165600.
07:17:49 1687 1688	 1492413469	 192801044	 161113.
07:17:49 1688 1689	 1492413469	 358354783	 165553.
07:17:49 1689 1690	 1492413469	 491563747	 133210.
07:17:49 1690 1691	 1492413469	 652799228	 161235.
07:17:49 1691 1692	 1492413469	 818473907	 165675.
07:17:49 1692 1693	 1492413469	 980217809	 161744.
07:17:50 1693 1694	 1492413470	 117387887	 137170.
07:17:50 1694 1695	 1492413470	 279123501	 161735.
07:17:50 1695 1696	 1492413470	 444887309	 165764.
07:17:50 1696 1697	 1492413470	 606741830	 161855.
07:17:50 1697 1698	 1492413470	 739882890	 133141.
07:17:50 1698 1699	 1492413470	 905696414	 165813.
07:17:51 1699 1700	 1492413471	 67771941	 162076.
07:17:51 1700 1701	 1492413471	 232937316	 165165.
07:17:51 1701 1702	 1492413471	 394400342	 161463.
07:17:51 1702 1703	 1492413471	 531158892	 136759.
07:17:51 1703 1704	 1492413471	 692734963	 161576.
07:17:51 1704 1705	 1492413471	 858772146	 166037.
07:17:52 1705 1706	 1492413472	 20816975	 162045.
07:17:52 1706 1707	 1492413472	 182817674	 162000.
07:17:52 1707 1708	 1492413472	 319779183	 136962.
07:17:52 1708 1709	 1492413472	 481454644	 161675.
07:17:52 1709 1710	 1492413472	 647316378	 165862.
07:17:52 1710 1711	 1492413472	 809156097	 161840.
07:17:52 1711 1712	 1492413472	 946036353	 136880.
07:17:53 1712 1713	 1492413473	 108211872	 162176.
07:17:53 1713 1714	 1492413473	 274147841	 165936.
07:17:53 1714 1715	 1492413473	 435457310	 161309.
07:17:53 1715 1716	 1492413473	 572000088	 136543.
07:17:53 1716 1717	 1492413473	 733906531	 161906.
07:17:53 1717 1718	 1492413473	 899992275	 166086.
07:17:54 1718 1719	 1492413474	 61465729	 161473.
07:17:54 1719 1720	 1492413474	 194526435	 133061.
07:17:54 1720 1721	 1492413474	 359908477	 165382.
07:17:54 1721 1722	 1492413474	 521406068	 161498.
07:17:54 1722 1723	 1492413474	 658035484	 136629.
07:17:54 1723 1724	 1492413474	 819669990	 161635.
07:17:54 1724 1725	 1492413474	 985095063	 165425.
07:17:55 1725 1726	 1492413475	 142927882	 157833.
07:17:55 1726 1727	 1492413475	 309013922	 166086.
07:17:55 1727 1728	 1492413475	 442145257	 133131.
07:17:55 1728 1729	 1492413475	 607507900	 165363.
07:17:55 1729 1730	 1492413475	 769530084	 162022.
07:17:55 1730 1731	 1492413475	 906590302	 137060.
07:17:56 1731 1732	 1492413476	 68063852	 161474.
07:17:56 1732 1733	 1492413476	 230133482	 162069.
07:17:56 1733 1734	 1492413476	 396083582	 165950.
07:17:56 1734 1735	 1492413476	 561666875	 165584.
07:17:56 1735 1736	 1492413476	 694664055	 132997.
07:17:56 1736 1737	 1492413476	 856107684	 161443.
07:17:57 1737 1738	 1492413477	 22022233	 165915.
07:17:57 1738 1739	 1492413477	 154796104	 132774.
07:17:57 1739 1740	 1492413477	 320397020	 165601.
07:17:57 1740 1741	 1492413477	 481825934	 161429.
07:17:57 1741 1742	 1492413477	 643301490	 161475.
07:17:57 1742 1743	 1492413477	 780181998	 136881.
07:17:57 1743 1744	 1492413477	 942248164	 162066.
07:17:58 1744 1745	 1492413478	 108094182	 165846.
07:17:58 1745 1746	 1492413478	 269729906	 161636.
07:17:58 1746 1747	 1492413478	 406634767	 136904.
07:17:58 1747 1748	 1492413478	 568412265	 161778.
07:17:58 1748 1749	 1492413478	 729946705	 161534.
07:17:58 1749 1750	 1492413478	 895476240	 165530.
07:17:59 1750 1751	 1492413479	 28328919	 132853.
07:17:59 1751 1752	 1492413479	 193876595	 165547.
07:17:59 1752 1753	 1492413479	 355572470	 161696.
07:17:59 1753 1754	 1492413479	 492740120	 137168.
07:17:59 1754 1755	 1492413479	 654863929	 162124.
07:17:59 1755 1756	 1492413479	 820682148	 165818.
07:17:59 1756 1757	 1492413479	 982468646	 161786.
07:18:00 1757 1758	 1492413480	 148740024	 166272.
07:18:00 1758 1759	 1492413480	 310536076	 161796.
07:18:00 1759 1760	 1492413480	 443938999	 133403.
07:18:00 1760 1761	 1492413480	 605772385	 161833.
07:18:00 1761 1762	 1492413480	 771892149	 166120.
07:18:00 1762 1763	 1492413480	 933234822	 161343.
07:18:01 1763 1764	 1492413481	 98919492	 165684.
07:18:01 1764 1765	 1492413481	 260758236	 161839.
07:18:01 1765 1766	 1492413481	 422644381	 161886.
07:18:01 1766 1767	 1492413481	 559726719	 137082.
07:18:01 1767 1768	 1492413481	 721367763	 161641.
07:18:01 1768 1769	 1492413481	 887435443	 166068.
07:18:02 1769 1770	 1492413482	 49094890	 161660.
07:18:02 1770 1771	 1492413482	 210624676	 161529.
07:18:02 1771 1772	 1492413482	 375851362	 165227.
07:18:02 1772 1773	 1492413482	 537121503	 161270.
07:18:02 1773 1774	 1492413482	 673750642	 136629.
07:18:02 1774 1775	 1492413482	 834692085	 160942.
07:18:02 1775 1776	 1492413482	 996120089	 161428.
07:18:03 1776 1777	 1492413483	 161303495	 165183.
07:18:03 1777 1778	 1492413483	 294089462	 132786.
07:18:03 1778 1779	 1492413483	 455465570	 161376.
07:18:03 1779 1780	 1492413483	 621168495	 165703.
07:18:03 1780 1781	 1492413483	 782789851	 161622.
07:18:03 1781 1782	 1492413483	 944471180	 161681.
07:18:04 1782 1783	 1492413484	 110234790	 165764.
07:18:04 1783 1784	 1492413484	 272073975	 161839.
07:18:04 1784 1785	 1492413484	 433562146	 161488.
07:18:04 1785 1786	 1492413484	 570518285	 136956.
07:18:04 1786 1787	 1492413484	 732438443	 161920.
07:18:04 1787 1788	 1492413484	 894051041	 161613.
07:18:05 1788 1789	 1492413485	 59607405	 165556.
07:18:05 1789 1790	 1492413485	 221428328	 161821.
07:18:05 1790 1791	 1492413485	 387039356	 165611.
07:18:05 1791 1792	 1492413485	 548624731	 161585.
07:18:05 1792 1793	 1492413485	 710176989	 161553.
07:18:05 1793 1794	 1492413485	 846995454	 136818.
07:18:06 1794 1795	 1492413486	 8735129	 161740.
07:18:06 1795 1796	 1492413486	 170200071	 161465.
07:18:06 1796 1797	 1492413486	 335579528	 165379.
07:18:06 1797 1798	 1492413486	 496876551	 161297.
07:18:06 1798 1799	 1492413486	 658451219	 161575.
07:18:06 1799 1800	 1492413486	 791347331	 132896.
07:18:06 1800 1801	 1492413486	 957059388	 165712.
07:18:07 1801 1802	 1492413487	 118782211	 161723.
07:18:07 1802 1803	 1492413487	 280376199	 161594.
07:18:07 1803 1804	 1492413487	 446188989	 165813.
07:18:07 1804 1805	 1492413487	 607729622	 161540.
07:18:07 1805 1806	 1492413487	 769335054	 161606.
07:18:07 1806 1807	 1492413487	 934959795	 165625.
07:18:08 1807 1808	 1492413488	 67788394	 132828.
07:18:08 1808 1809	 1492413488	 229350799	 161562.
07:18:08 1809 1810	 1492413488	 394954368	 165604.
07:18:08 1810 1811	 1492413488	 556507959	 161554.
07:18:08 1811 1812	 1492413488	 718108603	 161600.
07:18:08 1812 1813	 1492413488	 883755195	 165647.
07:18:09 1813 1814	 1492413489	 16287719	 132532.
07:18:09 1814 1815	 1492413489	 181732078	 165445.
07:18:09 1815 1816	 1492413489	 343395983	 161664.
07:18:09 1816 1817	 1492413489	 504947859	 161552.
07:18:09 1817 1818	 1492413489	 670267100	 165319.
07:18:09 1818 1819	 1492413489	 803081238	 132814.
07:18:09 1819 1820	 1492413489	 963822258	 160741.
07:18:10 1820 1821	 1492413490	 129564525	 165742.
07:18:10 1821 1822	 1492413490	 290689448	 161125.
07:18:10 1822 1823	 1492413490	 452108281	 161419.
07:18:10 1823 1824	 1492413490	 589253028	 137145.
07:18:10 1824 1825	 1492413490	 750220420	 160967.
07:18:10 1825 1826	 1492413490	 911303171	 161083.
07:18:11 1826 1827	 1492413491	 48112351	 136809.
07:18:11 1827 1828	 1492413491	 209717724	 161605.
07:18:11 1828 1829	 1492413491	 374697262	 164980.
07:18:11 1829 1830	 1492413491	 535742511	 161045.
07:18:11 1830 1831	 1492413491	 668419268	 132677.
07:18:11 1831 1832	 1492413491	 833582493	 165163.
07:18:11 1832 1833	 1492413491	 995009086	 161427.
07:18:12 1833 1834	 1492413492	 156179541	 161170.
07:18:12 1834 1835	 1492413492	 321879730	 165701.
07:18:12 1835 1836	 1492413492	 454474243	 132594.
07:18:12 1836 1837	 1492413492	 619426103	 164952.
07:18:12 1837 1838	 1492413492	 781156280	 161730.
07:18:12 1838 1839	 1492413492	 942055002	 160899.
07:18:13 1839 1840	 1492413493	 78674348	 136619.
07:18:13 1840 1841	 1492413493	 240196970	 161523.
07:18:13 1841 1842	 1492413493	 401009030	 160812.
07:18:13 1842 1843	 1492413493	 566671004	 165662.
07:18:13 1843 1844	 1492413493	 699655464	 132984.
07:18:13 1844 1845	 1492413493	 864543084	 164888.
07:18:14 1845 1846	 1492413494	 25740047	 161197.
07:18:14 1846 1847	 1492413494	 187037229	 161297.
07:18:14 1847 1848	 1492413494	 319666918	 132630.
07:18:14 1848 1849	 1492413494	 485431323	 165764.
07:18:14 1849 1850	 1492413494	 646322371	 160891.
07:18:14 1850 1851	 1492413494	 811760502	 165438.
07:18:14 1851 1852	 1492413494	 973372744	 161612.
07:18:15 1852 1853	 1492413495	 106164445	 132792.
07:18:15 1853 1854	 1492413495	 272010271	 165846.
07:18:15 1854 1855	 1492413495	 433195705	 161185.
07:18:15 1855 1856	 1492413495	 594455555	 161260.
07:18:15 1856 1857	 1492413495	 730948522	 136493.
07:18:15 1857 1858	 1492413495	 892109961	 161162.
07:18:16 1858 1859	 1492413496	 53163526	 161053.
07:18:16 1859 1860	 1492413496	 218351360	 165188.
07:18:16 1860 1861	 1492413496	 350782149	 132431.
07:18:16 1861 1862	 1492413496	 512150387	 161368.
07:18:16 1862 1863	 1492413496	 677602438	 165452.
07:18:16 1863 1864	 1492413496	 838923912	 161322.
07:18:16 1864 1865	 1492413496	 999797725	 160873.
07:18:17 1865 1866	 1492413497	 136561447	 136764.
07:18:17 1866 1867	 1492413497	 297686890	 161126.
07:18:17 1867 1868	 1492413497	 458759304	 161072.
07:18:17 1868 1869	 1492413497	 624079811	 165321.
07:18:17 1869 1870	 1492413497	 781558455	 157478.
07:18:17 1870 1871	 1492413497	 918395829	 136838.
07:18:18 1871 1872	 1492413498	 79604428	 161208.
07:18:18 1872 1873	 1492413498	 240422477	 160818.
07:18:18 1873 1874	 1492413498	 377084676	 136662.
07:18:18 1874 1875	 1492413498	 538184905	 161101.
07:18:18 1875 1876	 1492413498	 699296671	 161111.
07:18:18 1876 1877	 1492413498	 865037432	 165741.
07:18:18 1877 1878	 1492413498	 997437125	 132400.
07:18:19 1878 1879	 1492413499	 162485280	 165048.
07:18:19 1879 1880	 1492413499	 323844704	 161359.
07:18:19 1880 1881	 1492413499	 456303461	 132459.
07:18:19 1881 1882	 1492413499	 621454845	 165152.
07:18:19 1882 1883	 1492413499	 782886320	 161431.
07:18:19 1883 1884	 1492413499	 944031159	 161145.
07:18:20 1884 1885	 1492413500	 109515214	 165484.
07:18:20 1885 1886	 1492413500	 242302024	 132787.
07:18:20 1886 1887	 1492413500	 403302144	 161000.
07:18:20 1887 1888	 1492413500	 568918763	 165616.
07:18:20 1888 1889	 1492413500	 701239641	 132321.
07:18:20 1889 1890	 1492413500	 862393100	 161154.
07:18:21 1890 1891	 1492413501	 27685910	 165293.
07:18:21 1891 1892	 1492413501	 188564177	 160878.
07:18:21 1892 1893	 1492413501	 324958213	 136394.
07:18:21 1893 1894	 1492413501	 486479476	 161521.
07:18:21 1894 1895	 1492413501	 647428970	 160950.
07:18:21 1895 1896	 1492413501	 812629764	 165200.
07:18:21 1896 1897	 1492413501	 945724424	 133095.
07:18:22 1897 1898	 1492413502	 107284870	 161561.
07:18:22 1898 1899	 1492413502	 269121991	 161837.
07:18:22 1899 1900	 1492413502	 434226483	 165104.
07:18:22 1900 1901	 1492413502	 595404687	 161178.
07:18:22 1901 1902	 1492413502	 732086574	 136682.
07:18:22 1902 1903	 1492413502	 892990491	 160904.
07:18:23 1903 1904	 1492413503	 54403623	 161413.
07:18:23 1904 1905	 1492413503	 221232663	 166829.
07:18:23 1905 1906	 1492413503	 378382734	 157150.
07:18:23 1906 1907	 1492413503	 511386828	 133005.
07:18:23 1907 1908	 1492413503	 676770802	 165390.
07:18:23 1908 1909	 1492413503	 837725481	 160948.
07:18:23 1909 1910	 1492413503	 999041750	 161316.
07:18:24 1910 1911	 1492413504	 135821288	 136780.
07:18:24 1911 1912	 1492413504	 296693337	 160872.
07:18:24 1912 1913	 1492413504	 461893793	 165200.
07:18:24 1913 1914	 1492413504	 594418512	 132525.
07:18:24 1914 1915	 1492413504	 755563992	 161146.
