06:14:12    0 Step	 time(s)	 time(ns)	 delta(ms)
06:14:12    0 1	 1492668852	 868705200	 33892.
06:14:12    1 2	 1492668853	 1259697	 132554.
06:14:13    2 3	 1492668853	 162933195	 161674.
06:14:13    3 4	 1492668853	 328789381	 165856.
06:14:13    4 5	 1492668853	 490902876	 162114.
06:14:13    5 6	 1492668853	 652552724	 161650.
06:14:13    6 7	 1492668853	 818002094	 165449.
06:14:13    7 8	 1492668853	 979112995	 161111.
06:14:14    8 9	 1492668854	 111939885	 132827.
06:14:14    9 10	 1492668854	 277326703	 165386.
06:14:14   10 11	 1492668854	 438199366	 160873.
06:14:14   11 12	 1492668854	 603248119	 165049.
06:14:14   12 13	 1492668854	 735643624	 132395.
06:14:14   13 14	 1492668854	 896977706	 161334.
06:14:15   14 15	 1492668855	 58269162	 161292.
06:14:15   15 16	 1492668855	 223933243	 165664.
06:14:15   16 17	 1492668855	 356593461	 132660.
06:14:15   17 18	 1492668855	 522309236	 165716.
06:14:15   18 19	 1492668855	 683728632	 161419.
06:14:15   19 20	 1492668855	 844956606	 161228.
06:14:16   20 21	 1492668856	 10548803	 165593.
06:14:16   21 22	 1492668856	 171848565	 161299.
06:14:16   22 23	 1492668856	 304765290	 132917.
06:14:16   23 24	 1492668856	 470593582	 165828.
06:14:16   24 25	 1492668856	 632375531	 161782.
06:14:16   25 26	 1492668856	 794023967	 161649.
06:14:16   26 27	 1492668856	 959991189	 165967.
06:14:17   27 28	 1492668857	 121464760	 161473.
06:14:17   28 29	 1492668857	 287396202	 165932.
06:14:17   29 30	 1492668857	 420469649	 133073.
06:14:17   30 31	 1492668857	 582361324	 161892.
06:14:17   31 32	 1492668857	 748186396	 165825.
06:14:17   32 33	 1492668857	 909733508	 161547.
06:14:18   33 34	 1492668858	 75693302	 165960.
06:14:18   34 35	 1492668858	 230183357	 154490.
06:14:18   35 36	 1492668858	 366989612	 136806.
06:14:18   36 37	 1492668858	 532524680	 165535.
06:14:18   37 38	 1492668858	 694065043	 161541.
06:14:18   38 39	 1492668858	 827088061	 133023.
06:14:18   39 40	 1492668858	 992729102	 165641.
06:14:19   40 41	 1492668859	 154392964	 161664.
06:14:19   41 42	 1492668859	 320014252	 165621.
06:14:19   42 43	 1492668859	 452731214	 132717.
06:14:19   43 44	 1492668859	 618249384	 165518.
06:14:19   44 45	 1492668859	 783944150	 165695.
06:14:19   45 46	 1492668859	 917280527	 133336.
06:14:20   46 47	 1492668860	 79045697	 161765.
06:14:20   47 48	 1492668860	 244091703	 165046.
06:14:20   48 49	 1492668860	 405763982	 161673.
06:14:20   49 50	 1492668860	 542962394	 137198.
06:14:20   50 51	 1492668860	 704430674	 161468.
06:14:20   51 52	 1492668860	 869979123	 165549.
06:14:21   52 53	 1492668861	 31510416	 161531.
06:14:21   53 54	 1492668861	 164798328	 133288.
06:14:21   54 55	 1492668861	 331338149	 166540.
06:14:21   55 56	 1492668861	 493225653	 161887.
06:14:21   56 57	 1492668861	 654702292	 161477.
06:14:21   57 58	 1492668861	 820604045	 165902.
06:14:21   58 59	 1492668861	 982448221	 161844.
06:14:22   59 60	 1492668862	 119710368	 137262.
06:14:22   60 61	 1492668862	 281714529	 162004.
06:14:22   61 62	 1492668862	 443189598	 161475.
06:14:22   62 63	 1492668862	 609137632	 165948.
06:14:22   63 64	 1492668862	 770781629	 161645.
06:14:22   64 65	 1492668862	 903197455	 132415.
06:14:23   65 66	 1492668863	 69012798	 165815.
06:14:23   66 67	 1492668863	 231093331	 162081.
06:14:23   67 68	 1492668863	 367643780	 136550.
06:14:23   68 69	 1492668863	 529120364	 161477.
06:14:23   69 70	 1492668863	 708786075	 179666.
06:14:23   70 71	 1492668863	 842056478	 133270.
06:14:23   71 72	 1492668864	 3741291	 161685.
06:14:24   72 73	 1492668864	 169504608	 165763.
06:14:24   73 74	 1492668864	 331463606	 161959.
06:14:24   74 75	 1492668864	 468711710	 137248.
06:14:24   75 76	 1492668864	 630565298	 161854.
06:14:24   76 77	 1492668864	 791965520	 161400.
06:14:24   77 78	 1492668864	 957534271	 165569.
06:14:25   78 79	 1492668865	 90493534	 132959.
06:14:25   79 80	 1492668865	 256207011	 165714.
06:14:25   80 81	 1492668865	 417693802	 161486.
06:14:25   81 82	 1492668865	 579793442	 162100.
06:14:25   82 83	 1492668865	 716849937	 137057.
06:14:25   83 84	 1492668865	 878811023	 161961.
06:14:26   84 85	 1492668866	 44322551	 165511.
06:14:26   85 86	 1492668866	 206052408	 161730.
06:14:26   86 87	 1492668866	 367776803	 161725.
06:14:26   87 88	 1492668866	 504740401	 136963.
06:14:26   88 89	 1492668866	 666003428	 161263.
06:14:26   89 90	 1492668866	 831670805	 165668.
06:14:26   90 91	 1492668866	 964298764	 132627.
06:14:27   91 92	 1492668867	 129628106	 165330.
06:14:27   92 93	 1492668867	 291071447	 161443.
06:14:27   93 94	 1492668867	 456635180	 165564.
06:14:27   94 95	 1492668867	 589685650	 133050.
06:14:27   95 96	 1492668867	 751129383	 161444.
06:14:27   96 97	 1492668867	 916760682	 165631.
06:14:28   97 98	 1492668868	 49609586	 132849.
06:14:28   98 99	 1492668868	 215263085	 165654.
06:14:28   99 100	 1492668868	 376616860	 161354.
06:14:28  100 101	 1492668868	 542037940	 165421.
06:14:28  101 102	 1492668868	 675043258	 133005.
06:14:28  102 103	 1492668868	 836598982	 161556.
06:14:28  103 104	 1492668869	 2037207	 165438.
06:14:29  104 105	 1492668869	 163715963	 161679.
06:14:29  105 106	 1492668869	 296942767	 133226.
06:14:29  106 107	 1492668869	 462769076	 165827.
06:14:29  107 108	 1492668869	 624341934	 161573.
06:14:29  108 109	 1492668869	 790135265	 165793.
06:14:29  109 110	 1492668869	 923293481	 133158.
06:14:30  110 111	 1492668870	 89656378	 166363.
06:14:30  111 112	 1492668870	 251564486	 161908.
06:14:30  112 113	 1492668870	 417047537	 165483.
06:14:30  113 114	 1492668870	 578935556	 161888.
06:14:30  114 115	 1492668870	 715991482	 137056.
06:14:30  115 116	 1492668870	 877627738	 161636.
06:14:31  116 117	 1492668871	 39375678	 161748.
06:14:31  117 118	 1492668871	 205062167	 165687.
06:14:31  118 119	 1492668871	 366781899	 161720.
06:14:31  119 120	 1492668871	 503830738	 137048.
06:14:31  120 121	 1492668871	 665384001	 161554.
06:14:31  121 122	 1492668871	 830925842	 165542.
06:14:31  122 123	 1492668871	 963356315	 132430.
06:14:32  123 124	 1492668872	 124793353	 161437.
06:14:32  124 125	 1492668872	 290090921	 165298.
06:14:32  125 126	 1492668872	 452013625	 161922.
06:14:32  126 127	 1492668872	 589205786	 137192.
06:14:32  127 128	 1492668872	 750819698	 161614.
06:14:32  128 129	 1492668872	 916221568	 165402.
06:14:33  129 130	 1492668873	 77328393	 161107.
06:14:33  130 131	 1492668873	 214113549	 136785.
06:14:33  131 132	 1492668873	 375829513	 161716.
06:14:33  132 133	 1492668873	 537679304	 161850.
06:14:33  133 134	 1492668873	 703676499	 165997.
06:14:33  134 135	 1492668873	 836640061	 132964.
06:14:33  135 136	 1492668874	 2366841	 165727.
06:14:34  136 137	 1492668874	 163931538	 161564.
06:14:34  137 138	 1492668874	 329525482	 165594.
06:14:34  138 139	 1492668874	 462735831	 133211.
06:14:34  139 140	 1492668874	 628092069	 165356.
06:14:34  140 141	 1492668874	 790020539	 161928.
06:14:34  141 142	 1492668874	 918747631	 128727.
06:14:35  142 143	 1492668875	 84015935	 165269.
06:14:35  143 144	 1492668875	 245497481	 161481.
06:14:35  144 145	 1492668875	 382233443	 136736.
06:14:35  145 146	 1492668875	 543393595	 161160.
06:14:35  146 147	 1492668875	 708487673	 165094.
06:14:35  147 148	 1492668875	 870314308	 161827.
06:14:35  148 149	 1492668876	 3063194	 132749.
06:14:36  149 150	 1492668876	 168423949	 165361.
06:14:36  150 151	 1492668876	 329969983	 161546.
06:14:36  151 152	 1492668876	 496009832	 166040.
06:14:36  152 153	 1492668876	 629030434	 133020.
06:14:36  153 154	 1492668876	 794225731	 165195.
06:14:36  154 155	 1492668876	 956241738	 162016.
06:14:37  155 156	 1492668877	 93206671	 136965.
06:14:37  156 157	 1492668877	 254905796	 161700.
06:14:37  157 158	 1492668877	 420327432	 165421.
06:14:37  158 159	 1492668877	 582423282	 162096.
06:14:37  159 160	 1492668877	 748306594	 165883.
06:14:37  160 161	 1492668877	 880926074	 132620.
06:14:38  161 162	 1492668878	 46542225	 165616.
06:14:38  162 163	 1492668878	 208204545	 161662.
06:14:38  163 164	 1492668878	 345458617	 137254.
06:14:38  164 165	 1492668878	 506836929	 161379.
06:14:38  165 166	 1492668878	 668300929	 161464.
06:14:38  166 167	 1492668878	 829334282	 161033.
06:14:38  167 168	 1492668878	 994794214	 165460.
06:14:39  168 169	 1492668879	 127961339	 133167.
06:14:39  169 170	 1492668879	 293557471	 165596.
06:14:39  170 171	 1492668879	 455495753	 161938.
06:14:39  171 172	 1492668879	 621483784	 165988.
06:14:39  172 173	 1492668879	 782969709	 161486.
06:14:39  173 174	 1492668879	 920126551	 137157.
06:14:40  174 175	 1492668880	 81760774	 161634.
06:14:40  175 176	 1492668880	 247498566	 165738.
06:14:40  176 177	 1492668880	 409266671	 161768.
06:14:40  177 178	 1492668880	 570986327	 161720.
06:14:40  178 179	 1492668880	 707833008	 136847.
06:14:40  179 180	 1492668880	 869303208	 161470.
06:14:41  180 181	 1492668881	 30545648	 161242.
06:14:41  181 182	 1492668881	 195934391	 165389.
06:14:41  182 183	 1492668881	 357578169	 161644.
06:14:41  183 184	 1492668881	 519205904	 161628.
06:14:41  184 185	 1492668881	 656195296	 136989.
06:14:41  185 186	 1492668881	 817688870	 161494.
06:14:41  186 187	 1492668881	 979276791	 161587.
06:14:42  187 188	 1492668882	 144777698	 165501.
06:14:42  188 189	 1492668882	 306337407	 161560.
06:14:42  189 190	 1492668882	 467688002	 161351.
06:14:42  190 191	 1492668882	 604328609	 136640.
06:14:42  191 192	 1492668882	 765920162	 161592.
06:14:42  192 193	 1492668882	 931549758	 165629.
06:14:43  193 194	 1492668883	 92938204	 161389.
06:14:43  194 195	 1492668883	 254336492	 161398.
06:14:43  195 196	 1492668883	 391164652	 136828.
06:14:43  196 197	 1492668883	 552982053	 161818.
06:14:43  197 198	 1492668883	 719018320	 166036.
06:14:43  198 199	 1492668883	 880739214	 161721.
06:14:44  199 200	 1492668884	 42698388	 161959.
06:14:44  200 201	 1492668884	 208361199	 165663.
06:14:44  201 202	 1492668884	 370166333	 161805.
06:14:44  202 203	 1492668884	 507035535	 136869.
06:14:44  203 204	 1492668884	 668678481	 161643.
06:14:44  204 205	 1492668884	 830163317	 161485.
06:14:44  205 206	 1492668884	 995558540	 165395.
06:14:45  206 207	 1492668885	 128176550	 132618.
06:14:45  207 208	 1492668885	 293364771	 165188.
06:14:45  208 209	 1492668885	 454516846	 161153.
06:14:45  209 210	 1492668885	 616748488	 162231.
06:14:45  210 211	 1492668885	 782968011	 166220.
06:14:45  211 212	 1492668885	 945005606	 162037.
06:14:46  212 213	 1492668886	 78359855	 133355.
06:14:46  213 214	 1492668886	 244290585	 165930.
06:14:46  214 215	 1492668886	 406171240	 161881.
06:14:46  215 216	 1492668886	 571882219	 165711.
06:14:46  216 217	 1492668886	 733565821	 161684.
06:14:46  217 218	 1492668886	 870679864	 137114.
06:14:47  218 219	 1492668887	 32152316	 161472.
06:14:47  219 220	 1492668887	 194045463	 161893.
06:14:47  220 221	 1492668887	 359690927	 165646.
06:14:47  221 222	 1492668887	 492455020	 132764.
06:14:47  222 223	 1492668887	 658424762	 165969.
06:14:47  223 224	 1492668887	 820294088	 161870.
06:14:47  224 225	 1492668887	 985962155	 165668.
06:14:48  225 226	 1492668888	 147792255	 161830.
06:14:48  226 227	 1492668888	 280696540	 132904.
06:14:48  227 228	 1492668888	 446463779	 165767.
06:14:48  228 229	 1492668888	 608571706	 162108.
06:14:48  229 230	 1492668888	 769882300	 161311.
06:14:48  230 231	 1492668888	 935723578	 165841.
06:14:49  231 232	 1492668889	 68800154	 133077.
06:14:49  232 233	 1492668889	 234426499	 165626.
06:14:49  233 234	 1492668889	 395951133	 161525.
06:14:49  234 235	 1492668889	 557526411	 161575.
06:14:49  235 236	 1492668889	 694176959	 136651.
06:14:49  236 237	 1492668889	 855639188	 161462.
06:14:50  237 238	 1492668890	 21448834	 165810.
06:14:50  238 239	 1492668890	 183047990	 161599.
06:14:50  239 240	 1492668890	 319698638	 136650.
06:14:50  240 241	 1492668890	 481046985	 161349.
06:14:50  241 242	 1492668890	 642456383	 161409.
06:14:50  242 243	 1492668890	 808037057	 165581.
06:14:50  243 244	 1492668890	 969247228	 161210.
06:14:51  244 245	 1492668891	 102183097	 132936.
06:14:51  245 246	 1492668891	 267907901	 165725.
06:14:51  246 247	 1492668891	 429235539	 161327.
06:14:51  247 248	 1492668891	 594781717	 165546.
06:14:51  248 249	 1492668891	 727393607	 132612.
06:14:51  249 250	 1492668891	 888536606	 161143.
06:14:52  250 251	 1492668892	 54156477	 165620.
06:14:52  251 252	 1492668892	 187158408	 133002.
06:14:52  252 253	 1492668892	 352558678	 165400.
06:14:52  253 254	 1492668892	 514277967	 161720.
06:14:52  254 255	 1492668892	 679849142	 165571.
06:14:52  255 256	 1492668892	 812493335	 132644.
06:14:52  256 257	 1492668892	 973721899	 161229.
06:14:53  257 258	 1492668893	 139029957	 165308.
06:14:53  258 259	 1492668893	 300726370	 161696.
06:14:53  259 260	 1492668893	 434096973	 133371.
06:14:53  260 261	 1492668893	 599757137	 165660.
06:14:53  261 262	 1492668893	 761475656	 161718.
06:14:53  262 263	 1492668893	 922848836	 161374.
06:14:54  263 264	 1492668894	 88499604	 165650.
06:14:54  264 265	 1492668894	 221756667	 133257.
06:14:54  265 266	 1492668894	 387567088	 165811.
06:14:54  266 267	 1492668894	 549574301	 162007.
06:14:54  267 268	 1492668894	 715826274	 166252.
06:14:54  268 269	 1492668894	 876884745	 161058.
06:14:55  269 270	 1492668895	 13938430	 137054.
06:14:55  270 271	 1492668895	 175595692	 161657.
06:14:55  271 272	 1492668895	 341326120	 165731.
06:14:55  272 273	 1492668895	 502810246	 161484.
06:14:55  273 274	 1492668895	 640119795	 137309.
06:14:55  274 275	 1492668895	 802281488	 162162.
06:14:55  275 276	 1492668895	 964422583	 162141.
06:14:56  276 277	 1492668896	 130335786	 165914.
06:14:56  277 278	 1492668896	 292590555	 162254.
06:14:56  278 279	 1492668896	 458802909	 166213.
06:14:56  279 280	 1492668896	 620925226	 162122.
06:14:56  280 281	 1492668896	 786989971	 166065.
06:14:56  281 282	 1492668896	 919825001	 132835.
06:14:57  282 283	 1492668897	 82290332	 162465.
06:14:57  283 284	 1492668897	 240234149	 157944.
06:14:57  284 285	 1492668897	 401844520	 161610.
06:14:57  285 286	 1492668897	 567409679	 165565.
06:14:57  286 287	 1492668897	 729529741	 162120.
06:14:57  287 288	 1492668897	 866506793	 136977.
06:14:58  288 289	 1492668898	 28356570	 161850.
06:14:58  289 290	 1492668898	 194152948	 165797.
06:14:58  290 291	 1492668898	 355536620	 161383.
06:14:58  291 292	 1492668898	 488368251	 132832.
06:14:58  292 293	 1492668898	 653856957	 165489.
06:14:58  293 294	 1492668898	 815270313	 161413.
06:14:58  294 295	 1492668898	 981312409	 166042.
06:14:59  295 296	 1492668899	 114385636	 133074.
06:14:59  296 297	 1492668899	 280188811	 165802.
06:14:59  297 298	 1492668899	 441023210	 160835.
06:14:59  298 299	 1492668899	 574206724	 133183.
06:14:59  299 300	 1492668899	 739499434	 165293.
06:14:59  300 301	 1492668899	 901423701	 161924.
06:15:00  301 302	 1492668900	 67273790	 165850.
06:15:00  302 303	 1492668900	 228577856	 161305.
06:15:00  303 304	 1492668900	 361351767	 132773.
06:15:00  304 305	 1492668900	 522753923	 161403.
06:15:00  305 306	 1492668900	 688153166	 165399.
06:15:00  306 307	 1492668900	 849586033	 161433.
06:15:01  307 308	 1492668901	 11122517	 161536.
06:15:01  308 309	 1492668901	 173276094	 162154.
06:15:01  309 310	 1492668901	 310576637	 137300.
06:15:01  310 311	 1492668901	 472412937	 161837.
06:15:01  311 312	 1492668901	 638435683	 166023.
06:15:01  312 313	 1492668901	 800001105	 161565.
06:15:01  313 314	 1492668901	 961844507	 161843.
06:15:02  314 315	 1492668902	 127568611	 165724.
06:15:02  315 316	 1492668902	 289255297	 161687.
06:15:02  316 317	 1492668902	 450883470	 161628.
06:15:02  317 318	 1492668902	 587885568	 137002.
06:15:02  318 319	 1492668902	 749126989	 161242.
06:15:02  319 320	 1492668902	 914667684	 165540.
06:15:03  320 321	 1492668903	 76179856	 161513.
06:15:03  321 322	 1492668903	 237704307	 161524.
06:15:03  322 323	 1492668903	 399296305	 161592.
06:15:03  323 324	 1492668903	 536262417	 136966.
06:15:03  324 325	 1492668903	 697940508	 161678.
06:15:03  325 326	 1492668903	 859706325	 161766.
06:15:04  326 327	 1492668904	 25568563	 165862.
06:15:04  327 328	 1492668904	 187428074	 161860.
06:15:04  328 329	 1492668904	 349186409	 161758.
06:15:04  329 330	 1492668904	 515014428	 165828.
06:15:04  330 331	 1492668904	 676703614	 161689.
06:15:04  331 332	 1492668904	 838412515	 161709.
06:15:04  332 333	 1492668904	 975568294	 137156.
06:15:05  333 334	 1492668905	 137516744	 161948.
06:15:05  334 335	 1492668905	 299220392	 161704.
06:15:05  335 336	 1492668905	 465054737	 165834.
06:15:05  336 337	 1492668905	 626916660	 161862.
06:15:05  337 338	 1492668905	 792630748	 165714.
06:15:05  338 339	 1492668905	 954041595	 161411.
06:15:06  339 340	 1492668906	 116003515	 161962.
06:15:06  340 341	 1492668906	 281764475	 165761.
06:15:06  341 342	 1492668906	 414815096	 133051.
06:15:06  342 343	 1492668906	 576986045	 162171.
06:15:06  343 344	 1492668906	 742909913	 165924.
06:15:06  344 345	 1492668906	 904556701	 161647.
06:15:07  345 346	 1492668907	 70324919	 165768.
06:15:07  346 347	 1492668907	 231965633	 161640.
06:15:07  347 348	 1492668907	 397446893	 165482.
06:15:07  348 349	 1492668907	 559305106	 161858.
06:15:07  349 350	 1492668907	 721119570	 161814.
06:15:07  350 351	 1492668907	 858432221	 137313.
06:15:08  351 352	 1492668908	 19940483	 161508.
06:15:08  352 353	 1492668908	 181412129	 161472.
06:15:08  353 354	 1492668908	 340148824	 158737.
06:15:08  354 355	 1492668908	 506306175	 166157.
06:15:08  355 356	 1492668908	 668245794	 161939.
06:15:08  356 357	 1492668908	 834092231	 165847.
06:15:08  357 358	 1492668908	 996070756	 161978.
06:15:09  358 359	 1492668909	 162127628	 166057.
06:15:09  359 360	 1492668909	 324328079	 162201.
06:15:09  360 361	 1492668909	 461981921	 137654.
06:15:09  361 362	 1492668909	 624339027	 162357.
06:15:09  362 363	 1492668909	 785872162	 161533.
06:15:09  363 364	 1492668909	 951030084	 165158.
06:15:10  364 365	 1492668910	 112293403	 161263.
06:15:10  365 366	 1492668910	 273565870	 161273.
06:15:10  366 367	 1492668910	 410589062	 137023.
06:15:10  367 368	 1492668910	 572116081	 161527.
06:15:10  368 369	 1492668910	 733848133	 161732.
06:15:10  369 370	 1492668910	 899714069	 165866.
06:15:11  370 371	 1492668911	 61263591	 161549.
06:15:11  371 372	 1492668911	 222929992	 161667.
06:15:11  372 373	 1492668911	 388824653	 165894.
06:15:11  373 374	 1492668911	 550547354	 161723.
06:15:11  374 375	 1492668911	 716369817	 165823.
06:15:11  375 376	 1492668911	 878319365	 161949.
06:15:12  376 377	 1492668912	 40096331	 161777.
06:15:12  377 378	 1492668912	 173151800	 133056.
06:15:12  378 379	 1492668912	 338923311	 165771.
06:15:12  379 380	 1492668912	 500497863	 161575.
06:15:12  380 381	 1492668912	 662230288	 161732.
06:15:12  381 382	 1492668912	 828102971	 165873.
06:15:12  382 383	 1492668912	 989735467	 161632.
06:15:13  383 384	 1492668913	 151276910	 161542.
06:15:13  384 385	 1492668913	 316877635	 165600.
06:15:13  385 386	 1492668913	 478424097	 161547.
06:15:13  386 387	 1492668913	 611260408	 132836.
06:15:13  387 388	 1492668913	 776513851	 165254.
06:15:13  388 389	 1492668913	 937588144	 161074.
06:15:14  389 390	 1492668914	 98681849	 161094.
06:15:14  390 391	 1492668914	 235383296	 136701.
06:15:14  391 392	 1492668914	 396802178	 161419.
06:15:14  392 393	 1492668914	 558546019	 161744.
06:15:14  393 394	 1492668914	 723985365	 165439.
06:15:14  394 395	 1492668914	 885303140	 161318.
06:15:15  395 396	 1492668915	 22164827	 136862.
06:15:15  396 397	 1492668915	 183338268	 161173.
06:15:15  397 398	 1492668915	 344777185	 161439.
06:15:15  398 399	 1492668915	 510278743	 165501.
06:15:15  399 400	 1492668915	 671771655	 161493.
06:15:15  400 401	 1492668915	 833366796	 161596.
06:15:15  401 402	 1492668915	 970604945	 137238.
06:15:16  402 403	 1492668916	 132559446	 161954.
06:15:16  403 404	 1492668916	 294279274	 161720.
06:15:16  404 405	 1492668916	 459739192	 165460.
06:15:16  405 406	 1492668916	 621404017	 161665.
06:15:16  406 407	 1492668916	 783089322	 161685.
06:15:16  407 408	 1492668916	 948486274	 165397.
06:15:17  408 409	 1492668917	 81479732	 132993.
06:15:17  409 410	 1492668917	 242969175	 161490.
06:15:17  410 411	 1492668917	 408539659	 165570.
06:15:17  411 412	 1492668917	 569788018	 161249.
06:15:17  412 413	 1492668917	 735604268	 165816.
06:15:17  413 414	 1492668917	 897240818	 161637.
06:15:18  414 415	 1492668918	 30206685	 132965.
06:15:18  415 416	 1492668918	 188417944	 158212.
06:15:18  416 417	 1492668918	 350244827	 161827.
06:15:18  417 418	 1492668918	 516183303	 165938.
06:15:18  418 419	 1492668918	 678136800	 161954.
06:15:18  419 420	 1492668918	 843623505	 165486.
06:15:18  420 421	 1492668918	 976295123	 132672.
06:15:19  421 422	 1492668919	 142068389	 165773.
06:15:19  422 423	 1492668919	 304021658	 161953.
06:15:19  423 424	 1492668919	 470134496	 166113.
06:15:19  424 425	 1492668919	 631672935	 161539.
06:15:19  425 426	 1492668919	 764568144	 132895.
06:15:19  426 427	 1492668919	 929692279	 165124.
06:15:20  427 428	 1492668920	 91088762	 161396.
06:15:20  428 429	 1492668920	 256513226	 165425.
06:15:20  429 430	 1492668920	 389197309	 132684.
06:15:20  430 431	 1492668920	 554951310	 165754.
06:15:20  431 432	 1492668920	 716702283	 161751.
06:15:20  432 433	 1492668920	 878157866	 161456.
06:15:21  433 434	 1492668921	 14759227	 136601.
06:15:21  434 435	 1492668921	 176330871	 161572.
06:15:21  435 436	 1492668921	 341794295	 165463.
06:15:21  436 437	 1492668921	 475026849	 133233.
06:15:21  437 438	 1492668921	 636844443	 161817.
06:15:21  438 439	 1492668921	 801983911	 165140.
06:15:21  439 440	 1492668921	 963197821	 161214.
06:15:22  440 441	 1492668922	 100168925	 136971.
06:15:22  441 442	 1492668922	 261284434	 161115.
06:15:22  442 443	 1492668922	 426547982	 165264.
06:15:22  443 444	 1492668922	 559549109	 133001.
06:15:22  444 445	 1492668922	 725248027	 165699.
06:15:22  445 446	 1492668922	 887042021	 161794.
06:15:23  446 447	 1492668923	 52436668	 165394.
06:15:23  447 448	 1492668923	 185446214	 133010.
06:15:23  448 449	 1492668923	 350960206	 165514.
06:15:23  449 450	 1492668923	 512417087	 161457.
06:15:23  450 451	 1492668923	 673807345	 161390.
06:15:23  451 452	 1492668923	 811113297	 137306.
06:15:23  452 453	 1492668923	 972648345	 161535.
06:15:24  453 454	 1492668924	 138354354	 165706.
06:15:24  454 455	 1492668924	 300067714	 161713.
06:15:24  455 456	 1492668924	 433062934	 132996.
06:15:24  456 457	 1492668924	 599097282	 166034.
06:15:24  457 458	 1492668924	 761214563	 162117.
06:15:24  458 459	 1492668924	 926964177	 165750.
06:15:25  459 460	 1492668925	 89195383	 162231.
06:15:25  460 461	 1492668925	 246597802	 157403.
06:15:25  461 462	 1492668925	 383486285	 136888.
06:15:25  462 463	 1492668925	 545209320	 161723.
06:15:25  463 464	 1492668925	 711206825	 165998.
06:15:25  464 465	 1492668925	 872805541	 161598.
06:15:26  465 466	 1492668926	 34205984	 161401.
06:15:26  466 467	 1492668926	 166789090	 132583.
06:15:26  467 468	 1492668926	 332422412	 165633.
06:15:26  468 469	 1492668926	 497723677	 165301.
06:15:26  469 470	 1492668926	 630046769	 132323.
06:15:26  470 471	 1492668926	 791536619	 161490.
06:15:26  471 472	 1492668926	 956979222	 165443.
06:15:27  472 473	 1492668927	 89828941	 132850.
06:15:27  473 474	 1492668927	 255864010	 166035.
06:15:27  474 475	 1492668927	 417175007	 161311.
06:15:27  475 476	 1492668927	 582509651	 165334.
06:15:27  476 477	 1492668927	 715649207	 133140.
06:15:27  477 478	 1492668927	 877271858	 161623.
06:15:28  478 479	 1492668928	 42267703	 164995.
06:15:28  479 480	 1492668928	 174638622	 132371.
06:15:28  480 481	 1492668928	 339269837	 164632.
06:15:28  481 482	 1492668928	 471407757	 132137.
06:15:28  482 483	 1492668928	 632549980	 161143.
06:15:28  483 484	 1492668928	 797481993	 164932.
06:15:28  484 485	 1492668928	 933812486	 136330.
06:15:29  485 486	 1492668929	 94662158	 160850.
06:15:29  486 487	 1492668929	 231523233	 136861.
06:15:29  487 488	 1492668929	 392526050	 161003.
06:15:29  488 489	 1492668929	 553654814	 161129.
06:15:29  489 490	 1492668929	 689772333	 136117.
06:15:29  490 491	 1492668929	 821896930	 132125.
06:15:29  491 492	 1492668929	 986717308	 164820.
06:15:30  492 493	 1492668930	 147634242	 160917.
06:15:30  493 494	 1492668930	 280431763	 132797.
06:15:30  494 495	 1492668930	 445387758	 164956.
06:15:30  495 496	 1492668930	 581745547	 136358.
06:15:30  496 497	 1492668930	 742859742	 161114.
06:15:30  497 498	 1492668930	 903749177	 160890.
06:15:31  498 499	 1492668931	 40117535	 136368.
06:15:31  499 500	 1492668931	 201295822	 161179.
06:15:31  500 501	 1492668931	 337737678	 136441.
06:15:31  501 502	 1492668931	 498740522	 161003.
06:15:31  502 503	 1492668931	 660058392	 161318.
06:15:31  503 504	 1492668931	 796407040	 136349.
06:15:31  504 505	 1492668931	 956823122	 160416.
06:15:32  505 506	 1492668932	 93293086	 136470.
06:15:32  506 507	 1492668932	 254276319	 160983.
06:15:32  507 508	 1492668932	 415289294	 161013.
06:15:32  508 509	 1492668932	 551350188	 136061.
06:15:32  509 510	 1492668932	 711935164	 160585.
06:15:32  510 511	 1492668932	 848018509	 136083.
06:15:33  511 512	 1492668933	 8950187	 160932.
06:15:33  512 513	 1492668933	 141338358	 132388.
06:15:33  513 514	 1492668933	 306154359	 164816.
06:15:33  514 515	 1492668933	 438515751	 132361.
06:15:33  515 516	 1492668933	 603437719	 164922.
06:15:33  516 517	 1492668933	 735169512	 131732.
06:15:33  517 518	 1492668933	 899777619	 164608.
06:15:34  518 519	 1492668934	 31879632	 132102.
06:15:34  519 520	 1492668934	 196768340	 164889.
06:15:34  520 521	 1492668934	 328706256	 131938.
06:15:34  521 522	 1492668934	 490176177	 161470.
06:15:34  522 523	 1492668934	 655292569	 165116.
06:15:34  523 524	 1492668934	 787460335	 132168.
06:15:34  524 525	 1492668934	 952351570	 164891.
06:15:35  525 526	 1492668935	 84743259	 132392.
06:15:35  526 527	 1492668935	 249702555	 164959.
06:15:35  527 528	 1492668935	 381838202	 132136.
06:15:35  528 529	 1492668935	 547182765	 165344.
06:15:35  529 530	 1492668935	 708179501	 160997.
06:15:35  530 531	 1492668935	 841503191	 133324.
06:15:35  531 532	 1492668936	 2321353	 160818.
06:15:36  532 533	 1492668936	 163163133	 160842.
06:15:36  533 534	 1492668936	 299476063	 136313.
06:15:36  534 535	 1492668936	 460480828	 161005.
06:15:36  535 536	 1492668936	 592665223	 132184.
06:15:36  536 537	 1492668936	 757526155	 164861.
06:15:36  537 538	 1492668936	 889385681	 131859.
06:15:37  538 539	 1492668937	 49528559	 160143.
06:15:37  539 540	 1492668937	 181446643	 131918.
06:15:37  540 541	 1492668937	 345965275	 164519.
06:15:37  541 542	 1492668937	 477498282	 131533.
06:15:37  542 543	 1492668937	 637911682	 160413.
06:15:37  543 544	 1492668937	 802365427	 164454.
06:15:37  544 545	 1492668937	 934046972	 131682.
06:15:38  545 546	 1492668938	 98441485	 164394.
06:15:38  546 547	 1492668938	 230267701	 131826.
06:15:38  547 548	 1492668938	 390590900	 160324.
06:15:38  548 549	 1492668938	 522695762	 132104.
06:15:38  549 550	 1492668938	 687507418	 164812.
06:15:38  550 551	 1492668938	 848317285	 160810.
06:15:38  551 552	 1492668938	 980342570	 132025.
06:15:39  552 553	 1492668939	 144764730	 164422.
06:15:39  553 554	 1492668939	 305394507	 160630.
06:15:39  554 555	 1492668939	 441411944	 136018.
06:15:39  555 556	 1492668939	 602402833	 160991.
06:15:39  556 557	 1492668939	 738952687	 136549.
06:15:39  557 558	 1492668939	 900129620	 161177.
06:15:40  558 559	 1492668940	 32220094	 132091.
06:15:40  559 560	 1492668940	 197034533	 164814.
06:15:40  560 561	 1492668940	 328997420	 131963.
06:15:40  561 562	 1492668940	 489389752	 160392.
06:15:40  562 563	 1492668940	 654392735	 165003.
06:15:40  563 564	 1492668940	 786481448	 132089.
06:15:40  564 565	 1492668940	 951537598	 165056.
06:15:41  565 566	 1492668941	 108822749	 157285.
06:15:41  566 567	 1492668941	 245177397	 136355.
06:15:41  567 568	 1492668941	 406261372	 161084.
06:15:41  568 569	 1492668941	 542886534	 136625.
06:15:41  569 570	 1492668941	 703663152	 160777.
06:15:41  570 571	 1492668941	 836225899	 132563.
06:15:41  571 572	 1492668942	 1268842	 165043.
06:15:42  572 573	 1492668942	 161865424	 160596.
06:15:42  573 574	 1492668942	 294079610	 132215.
06:15:42  574 575	 1492668942	 455081349	 161001.
06:15:42  575 576	 1492668942	 620044725	 164963.
06:15:42  576 577	 1492668942	 752449178	 132405.
06:15:42  577 578	 1492668942	 913535700	 161086.
06:15:43  578 579	 1492668943	 78658173	 165123.
06:15:43  579 580	 1492668943	 239704057	 161046.
06:15:43  580 581	 1492668943	 372105590	 132401.
06:15:43  581 582	 1492668943	 533096395	 160991.
06:15:43  582 583	 1492668943	 698158027	 165062.
06:15:43  583 584	 1492668943	 830628532	 132470.
06:15:43  584 585	 1492668943	 995656131	 165028.
06:15:44  585 586	 1492668944	 156625957	 160970.
06:15:44  586 587	 1492668944	 317466463	 160840.
06:15:44  587 588	 1492668944	 449681966	 132216.
06:15:44  588 589	 1492668944	 611172295	 161490.
06:15:44  589 590	 1492668944	 771749137	 160577.
06:15:44  590 591	 1492668944	 908280527	 136531.
06:15:45  591 592	 1492668945	 69009361	 160729.
06:15:45  592 593	 1492668945	 229942688	 160933.
06:15:45  593 594	 1492668945	 365879439	 135937.
06:15:45  594 595	 1492668945	 526216636	 160337.
06:15:45  595 596	 1492668945	 658330038	 132114.
06:15:45  596 597	 1492668945	 822698939	 164369.
06:15:45  597 598	 1492668945	 983660880	 160962.
06:15:46  598 599	 1492668946	 115991007	 132330.
06:15:46  599 600	 1492668946	 280979327	 164988.
06:15:46  600 601	 1492668946	 441802954	 160824.
06:15:46  601 602	 1492668946	 574004373	 132201.
06:15:46  602 603	 1492668946	 734678703	 160674.
06:15:46  603 604	 1492668946	 899639097	 164961.
06:15:47  604 605	 1492668947	 31825474	 132186.
06:15:47  605 606	 1492668947	 196765139	 164940.
06:15:47  606 607	 1492668947	 357572391	 160807.
06:15:47  607 608	 1492668947	 489782368	 132210.
06:15:47  608 609	 1492668947	 653727310	 163945.
06:15:47  609 610	 1492668947	 785714216	 131987.
06:15:47  610 611	 1492668947	 945904171	 160190.
06:15:48  611 612	 1492668948	 82008205	 136104.
06:15:48  612 613	 1492668948	 242380410	 160372.
06:15:48  613 614	 1492668948	 373899080	 131519.
06:15:48  614 615	 1492668948	 538095719	 164196.
06:15:48  615 616	 1492668948	 698376729	 160281.
06:15:48  616 617	 1492668948	 834302718	 135926.
06:15:48  617 618	 1492668948	 994798228	 160496.
06:15:49  618 619	 1492668949	 126510812	 131713.
06:15:49  619 620	 1492668949	 290975329	 164464.
06:15:49  620 621	 1492668949	 422666842	 131692.
06:15:49  621 622	 1492668949	 583111998	 160445.
06:15:49  622 623	 1492668949	 715069577	 131957.
06:15:49  623 624	 1492668949	 879473124	 164404.
06:15:50  624 625	 1492668950	 39691805	 160219.
06:15:50  625 626	 1492668950	 171661713	 131969.
06:15:50  626 627	 1492668950	 336059516	 164398.
06:15:50  627 628	 1492668950	 468097026	 132038.
06:15:50  628 629	 1492668950	 628880357	 160783.
06:15:50  629 630	 1492668950	 793448599	 164568.
06:15:50  630 631	 1492668950	 925538522	 132090.
06:15:51  631 632	 1492668951	 86395078	 160857.
06:15:51  632 633	 1492668951	 222324082	 135929.
06:15:51  633 634	 1492668951	 382525675	 160201.
06:15:51  634 635	 1492668951	 542999243	 160474.
06:15:51  635 636	 1492668951	 678919574	 135920.
06:15:51  636 637	 1492668951	 840275804	 161357.
06:15:51  637 638	 1492668951	 968180435	 127904.
06:15:52  638 639	 1492668952	 129236888	 161057.
06:15:52  639 640	 1492668952	 293881624	 164644.
06:15:52  640 641	 1492668952	 426305279	 132424.
06:15:52  641 642	 1492668952	 591385254	 165080.
06:15:52  642 643	 1492668952	 724052596	 132667.
06:15:52  643 644	 1492668952	 889170172	 165118.
06:15:53  644 645	 1492668953	 50069163	 160899.
06:15:53  645 646	 1492668953	 207415137	 157346.
06:15:53  646 647	 1492668953	 343611479	 136196.
06:15:53  647 648	 1492668953	 504819012	 161208.
06:15:53  648 649	 1492668953	 637333341	 132514.
06:15:53  649 650	 1492668953	 802169109	 164836.
06:15:53  650 651	 1492668953	 934647960	 132479.
06:15:54  651 652	 1492668954	 99585310	 164937.
06:15:54  652 653	 1492668954	 257075537	 157490.
06:15:54  653 654	 1492668954	 393649874	 136575.
06:15:54  654 655	 1492668954	 554799500	 161149.
06:15:54  655 656	 1492668954	 720112198	 165313.
06:15:54  656 657	 1492668954	 852660571	 132548.
06:15:55  657 658	 1492668955	 17841825	 165182.
06:15:55  658 659	 1492668955	 179056151	 161214.
06:15:55  659 660	 1492668955	 315288958	 136233.
06:15:55  660 661	 1492668955	 476219897	 160931.
06:15:55  661 662	 1492668955	 637227382	 161007.
06:15:55  662 663	 1492668955	 773799588	 136572.
06:15:55  663 664	 1492668955	 934943609	 161144.
06:15:56  664 665	 1492668956	 95791391	 160848.
06:15:56  665 666	 1492668956	 261198295	 165407.
06:15:56  666 667	 1492668956	 393896073	 132698.
06:15:56  667 668	 1492668956	 554868959	 160973.
06:15:56  668 669	 1492668956	 716104094	 161235.
06:15:56  669 670	 1492668956	 881330480	 165226.
06:15:57  670 671	 1492668957	 13736148	 132406.
06:15:57  671 672	 1492668957	 175537759	 161801.
06:15:57  672 673	 1492668957	 332633966	 157097.
06:15:57  673 674	 1492668957	 493718928	 161085.
06:15:57  674 675	 1492668957	 630222995	 136504.
06:15:57  675 676	 1492668957	 791357703	 161134.
06:15:57  676 677	 1492668957	 952326011	 160969.
06:15:58  677 678	 1492668958	 117541585	 165215.
06:15:58  678 679	 1492668958	 249797346	 132256.
06:15:58  679 680	 1492668958	 410799330	 161002.
06:15:58  680 681	 1492668958	 576024711	 165225.
06:15:58  681 682	 1492668958	 708360773	 132336.
06:15:58  682 683	 1492668958	 873415103	 165055.
06:15:59  683 684	 1492668959	 34426454	 161011.
06:15:59  684 685	 1492668959	 170807405	 136381.
06:15:59  685 686	 1492668959	 331540691	 160733.
06:15:59  686 687	 1492668959	 492423887	 160884.
06:15:59  687 688	 1492668959	 628621821	 136198.
06:15:59  688 689	 1492668959	 789118203	 160496.
06:15:59  689 690	 1492668959	 925030059	 135912.
06:16:00  690 691	 1492668960	 86139921	 161110.
06:16:00  691 692	 1492668960	 246914197	 160774.
06:16:00  692 693	 1492668960	 382917678	 136003.
06:16:00  693 694	 1492668960	 543872919	 160956.
06:16:00  694 695	 1492668960	 705051645	 161178.
06:16:00  695 696	 1492668960	 870386251	 165335.
06:16:00  696 697	 1492668961	 2738406	 132352.
06:16:01  697 698	 1492668961	 160387291	 157649.
06:16:01  698 699	 1492668961	 325457374	 165070.
06:16:01  699 700	 1492668961	 486286955	 160830.
06:16:01  700 701	 1492668961	 618575973	 132289.
06:16:01  701 702	 1492668961	 779409610	 160833.
06:16:01  702 703	 1492668961	 944803636	 165394.
06:16:02  703 704	 1492668962	 77063124	 132260.
06:16:02  704 705	 1492668962	 241988880	 164926.
06:16:02  705 706	 1492668962	 403032228	 161043.
06:16:02  706 707	 1492668962	 535553122	 132521.
06:16:02  707 708	 1492668962	 700777919	 165225.
06:16:02  708 709	 1492668962	 861677417	 160899.
06:16:03  709 710	 1492668963	 22428580	 160751.
06:16:03  710 711	 1492668963	 158529343	 136101.
06:16:03  711 712	 1492668963	 319171594	 160642.
06:16:03  712 713	 1492668963	 451293462	 132122.
06:16:03  713 714	 1492668963	 616068618	 164775.
06:16:03  714 715	 1492668963	 776779224	 160711.
06:16:03  715 716	 1492668963	 908913480	 132134.
06:16:04  716 717	 1492668964	 73555798	 164642.
06:16:04  717 718	 1492668964	 205688428	 132133.
06:16:04  718 719	 1492668964	 366330682	 160642.
06:16:04  719 720	 1492668964	 531291195	 164961.
06:16:04  720 721	 1492668964	 663509393	 132218.
06:16:04  721 722	 1492668964	 828700680	 165191.
06:16:04  722 723	 1492668964	 989826532	 161126.
06:16:05  723 724	 1492668965	 151203807	 161378.
06:16:05  724 725	 1492668965	 283736136	 132532.
06:16:05  725 726	 1492668965	 448970278	 165234.
06:16:05  726 727	 1492668965	 609958400	 160988.
06:16:05  727 728	 1492668965	 770952046	 160994.
06:16:05  728 729	 1492668965	 907494656	 136542.
06:16:06  729 730	 1492668966	 68627254	 161133.
06:16:06  730 731	 1492668966	 230191908	 161565.
06:16:06  731 732	 1492668966	 366764425	 136572.
06:16:06  732 733	 1492668966	 528313513	 161549.
06:16:06  733 734	 1492668966	 693983561	 165670.
06:16:06  734 735	 1492668966	 855544110	 161561.
06:16:06  735 736	 1492668966	 992309972	 136766.
06:16:07  736 737	 1492668967	 153137897	 160828.
06:16:07  737 738	 1492668967	 318258855	 165121.
06:16:07  738 739	 1492668967	 449951653	 131692.
06:16:07  739 740	 1492668967	 581743965	 131793.
06:16:07  740 741	 1492668967	 746385693	 164641.
06:16:07  741 742	 1492668967	 892864062	 146479.
06:16:08  742 743	 1492668968	 53907618	 161043.
06:16:08  743 744	 1492668968	 190170031	 136263.
06:16:08  744 745	 1492668968	 350776309	 160606.
06:16:08  745 746	 1492668968	 486844061	 136068.
06:16:08  746 747	 1492668968	 648226187	 161382.
06:16:08  747 748	 1492668968	 780169606	 131943.
06:16:08  748 749	 1492668968	 945209463	 165040.
06:16:09  749 750	 1492668969	 110504445	 165295.
06:16:09  750 751	 1492668969	 242873681	 132369.
06:16:09  751 752	 1492668969	 403929299	 161056.
06:16:09  752 753	 1492668969	 540336692	 136407.
06:16:09  753 754	 1492668969	 701568240	 161232.
06:16:09  754 755	 1492668969	 867150955	 165583.
06:16:09  755 756	 1492668969	 999446785	 132295.
06:16:10  756 757	 1492668970	 164410766	 164964.
06:16:10  757 758	 1492668970	 325385760	 160976.
06:16:10  758 759	 1492668970	 461605086	 136219.
06:16:10  759 760	 1492668970	 622841051	 161236.
06:16:10  760 761	 1492668970	 755245355	 132404.
06:16:10  761 762	 1492668970	 920849414	 165604.
06:16:11  762 763	 1492668971	 77551563	 156702.
06:16:11  763 764	 1492668971	 213726190	 136175.
06:16:11  764 765	 1492668971	 374456834	 160731.
06:16:11  765 766	 1492668971	 535726681	 161269.
06:16:11  766 767	 1492668971	 672073036	 136347.
06:16:11  767 768	 1492668971	 832735984	 160663.
06:16:11  768 769	 1492668971	 993538446	 160802.
06:16:12  769 770	 1492668972	 130027353	 136489.
06:16:12  770 771	 1492668972	 290912149	 160885.
06:16:12  771 772	 1492668972	 451297960	 160386.
06:16:12  772 773	 1492668972	 587559207	 136261.
06:16:12  773 774	 1492668972	 748367794	 160809.
06:16:12  774 775	 1492668972	 908895250	 160527.
06:16:13  775 776	 1492668973	 41192372	 132297.
06:16:13  776 777	 1492668973	 205967829	 164776.
06:16:13  777 778	 1492668973	 366835118	 160867.
06:16:13  778 779	 1492668973	 499011445	 132176.
06:16:13  779 780	 1492668973	 663696666	 164685.
06:16:13  780 781	 1492668973	 795906900	 132211.
06:16:13  781 782	 1492668973	 956730875	 160824.
06:16:14  782 783	 1492668974	 121659738	 164928.
06:16:14  783 784	 1492668974	 254044873	 132386.
06:16:14  784 785	 1492668974	 419116288	 165071.
06:16:14  785 786	 1492668974	 551744374	 132628.
06:16:14  786 787	 1492668974	 713409751	 161665.
06:16:14  787 788	 1492668974	 874353746	 160944.
06:16:15  788 789	 1492668975	 10564025	 136211.
06:16:15  789 790	 1492668975	 171490514	 160926.
06:16:15  790 791	 1492668975	 303626278	 132136.
06:16:15  791 792	 1492668975	 468462606	 164836.
06:16:15  792 793	 1492668975	 600682727	 132220.
06:16:15  793 794	 1492668975	 765773066	 165091.
06:16:15  794 795	 1492668975	 926882860	 161110.
06:16:16  795 796	 1492668976	 63414544	 136531.
06:16:16  796 797	 1492668976	 224582353	 161168.
06:16:16  797 798	 1492668976	 357072546	 132490.
06:16:16  798 799	 1492668976	 522423971	 165352.
06:16:16  799 800	 1492668976	 683610232	 161186.
06:16:16  800 801	 1492668976	 820065690	 136455.
06:16:16  801 802	 1492668976	 981331667	 161267.
06:16:17  802 803	 1492668977	 146391954	 165060.
06:16:17  803 804	 1492668977	 279228576	 132836.
06:16:17  804 805	 1492668977	 440622855	 161395.
06:16:17  805 806	 1492668977	 606046516	 165423.
06:16:17  806 807	 1492668977	 738569464	 132523.
06:16:17  807 808	 1492668977	 899333149	 160764.
06:16:18  808 809	 1492668978	 64446623	 165113.
06:16:18  809 810	 1492668978	 196914603	 132468.
06:16:18  810 811	 1492668978	 361669091	 164755.
06:16:18  811 812	 1492668978	 493828192	 132159.
06:16:18  812 813	 1492668978	 659276503	 165448.
06:16:18  813 814	 1492668978	 825794644	 166518.
06:16:18  814 815	 1492668978	 974124509	 148330.
06:16:19  815 816	 1492668979	 106816498	 132692.
06:16:19  816 817	 1492668979	 272226039	 165410.
06:16:19  817 818	 1492668979	 433487023	 161261.
06:16:19  818 819	 1492668979	 569613733	 136127.
06:16:19  819 820	 1492668979	 730498468	 160884.
06:16:19  820 821	 1492668979	 863086973	 132589.
06:16:20  821 822	 1492668980	 27520406	 164433.
06:16:20  822 823	 1492668980	 159603970	 132084.
06:16:20  823 824	 1492668980	 324213995	 164610.
06:16:20  824 825	 1492668980	 456128823	 131915.
06:16:20  825 826	 1492668980	 621287906	 165159.
06:16:20  826 827	 1492668980	 753271412	 131983.
06:16:20  827 828	 1492668980	 914416159	 161145.
06:16:21  828 829	 1492668981	 50797001	 136381.
06:16:21  829 830	 1492668981	 211259552	 160462.
06:16:21  830 831	 1492668981	 347776976	 136518.
06:16:21  831 832	 1492668981	 508587493	 160810.
06:16:21  832 833	 1492668981	 673709626	 165122.
06:16:21  833 834	 1492668981	 805670120	 131961.
06:16:21  834 835	 1492668981	 970408171	 164738.
06:16:22  835 836	 1492668982	 102683756	 132275.
06:16:22  836 837	 1492668982	 267687106	 165004.
06:16:22  837 838	 1492668982	 400232224	 132545.
06:16:22  838 839	 1492668982	 560905993	 160674.
06:16:22  839 840	 1492668982	 697319176	 136413.
06:16:22  840 841	 1492668982	 858175092	 160856.
06:16:23  841 842	 1492668983	 23348455	 165173.
06:16:23  842 843	 1492668983	 155727770	 132379.
06:16:23  843 844	 1492668983	 320699833	 164973.
06:16:23  844 845	 1492668983	 453286324	 132586.
06:16:23  845 846	 1492668983	 618811952	 165526.
06:16:23  846 847	 1492668983	 780290258	 161478.
06:16:23  847 848	 1492668983	 916994348	 136704.
06:16:24  848 849	 1492668984	 79378601	 162384.
06:16:24  849 850	 1492668984	 236716295	 157338.
06:16:24  850 851	 1492668984	 373308373	 136592.
06:16:24  851 852	 1492668984	 534655904	 161348.
06:16:24  852 853	 1492668984	 699665735	 165010.
06:16:24  853 854	 1492668984	 832385735	 132719.
06:16:24  854 855	 1492668984	 997817413	 165432.
06:16:25  855 856	 1492668985	 158798337	 160981.
06:16:25  856 857	 1492668985	 291193586	 132395.
06:16:25  857 858	 1492668985	 451826933	 160634.
06:16:25  858 859	 1492668985	 588514004	 136687.
06:16:25  859 860	 1492668985	 749266502	 160752.
06:16:25  860 861	 1492668985	 885364901	 136099.
06:16:26  861 862	 1492668986	 46042325	 160677.
06:16:26  862 863	 1492668986	 178176855	 132135.
06:16:26  863 864	 1492668986	 343281680	 165104.
06:16:26  864 865	 1492668986	 475375404	 132094.
06:16:26  865 866	 1492668986	 640769281	 165394.
06:16:26  866 867	 1492668986	 801967374	 161198.
06:16:26  867 868	 1492668986	 937977537	 136010.
06:16:27  868 869	 1492668987	 98606219	 160629.
06:16:27  869 870	 1492668987	 234611312	 136005.
06:16:27  870 871	 1492668987	 395535150	 160924.
06:16:27  871 872	 1492668987	 527827406	 132292.
06:16:27  872 873	 1492668987	 693196562	 165369.
06:16:27  873 874	 1492668987	 854449067	 161253.
06:16:27  874 875	 1492668987	 990689202	 136240.
06:16:28  875 876	 1492668988	 151538591	 160849.
06:16:28  876 877	 1492668988	 287315058	 135777.
06:16:28  877 878	 1492668988	 448010421	 160695.
06:16:28  878 879	 1492668988	 584840796	 136831.
06:16:28  879 880	 1492668988	 746022833	 161182.
06:16:28  880 881	 1492668988	 911197335	 165174.
06:16:29  881 882	 1492668989	 43670325	 132473.
06:16:29  882 883	 1492668989	 208882150	 165212.
06:16:29  883 884	 1492668989	 341155828	 132274.
06:16:29  884 885	 1492668989	 502533214	 161377.
06:16:29  885 886	 1492668989	 667355871	 164823.
06:16:29  886 887	 1492668989	 799559796	 132203.
06:16:29  887 888	 1492668989	 964217263	 164658.
06:16:30  888 889	 1492668990	 96514587	 132297.
06:16:30  889 890	 1492668990	 257673339	 161159.
06:16:30  890 891	 1492668990	 393673382	 136000.
06:16:30  891 892	 1492668990	 555144526	 161471.
06:16:30  892 893	 1492668990	 720043306	 164899.
06:16:30  893 894	 1492668990	 852068813	 132026.
06:16:31  894 895	 1492668991	 12993234	 160924.
06:16:31  895 896	 1492668991	 149773147	 136780.
06:16:31  896 897	 1492668991	 311063295	 161290.
06:16:31  897 898	 1492668991	 476265817	 165203.
06:16:31  898 899	 1492668991	 609097919	 132832.
06:16:31  899 900	 1492668991	 774730760	 165633.
06:16:31  900 901	 1492668991	 935891427	 161160.
06:16:32  901 902	 1492668992	 68236419	 132345.
06:16:32  902 903	 1492668992	 229375915	 161140.
06:16:32  903 904	 1492668992	 365732459	 136356.
06:16:32  904 905	 1492668992	 527091923	 161360.
06:16:32  905 906	 1492668992	 692442243	 165350.
06:16:32  906 907	 1492668992	 824748200	 132306.
06:16:32  907 908	 1492668992	 989536660	 164788.
06:16:33  908 909	 1492668993	 121844739	 132308.
06:16:33  909 910	 1492668993	 286897451	 165053.
06:16:33  910 911	 1492668993	 419110931	 132214.
06:16:33  911 912	 1492668993	 584246049	 165135.
06:16:33  912 913	 1492668993	 716599123	 132353.
06:16:33  913 914	 1492668993	 877422810	 160824.
06:16:34  914 915	 1492668994	 42206687	 164783.
06:16:34  915 916	 1492668994	 174260034	 132054.
06:16:34  916 917	 1492668994	 339199443	 164939.
06:16:34  917 918	 1492668994	 471110912	 131912.
06:16:34  918 919	 1492668994	 635951691	 164840.
06:16:34  919 920	 1492668994	 768818791	 132867.
06:16:34  920 921	 1492668994	 925869956	 157052.
06:16:35  921 922	 1492668995	 62293581	 136423.
06:16:35  922 923	 1492668995	 222913767	 160620.
06:16:35  923 924	 1492668995	 355056959	 132144.
06:16:35  924 925	 1492668995	 520559896	 165503.
06:16:35  925 926	 1492668995	 681508821	 160949.
06:16:35  926 927	 1492668995	 818244031	 136735.
06:16:35  927 928	 1492668995	 979307378	 161063.
06:16:36  928 929	 1492668996	 144345551	 165038.
06:16:36  929 930	 1492668996	 277326789	 132982.
06:16:36  930 931	 1492668996	 442004845	 164678.
06:16:36  931 932	 1492668996	 574712312	 132707.
06:16:36  932 933	 1492668996	 735709673	 160997.
06:16:36  933 934	 1492668996	 871871056	 136162.
06:16:37  934 935	 1492668997	 32690756	 160819.
06:16:37  935 936	 1492668997	 193634745	 160944.
06:16:37  936 937	 1492668997	 329941233	 136307.
06:16:37  937 938	 1492668997	 491239099	 161298.
06:16:37  938 939	 1492668997	 627795391	 136556.
06:16:37  939 940	 1492668997	 788444106	 160649.
06:16:37  940 941	 1492668997	 925049745	 136605.
06:16:38  941 942	 1492668998	 86070107	 161021.
06:16:38  942 943	 1492668998	 246876959	 160807.
06:16:38  943 944	 1492668998	 383275319	 136398.
06:16:38  944 945	 1492668998	 544263816	 160989.
06:16:38  945 946	 1492668998	 680532255	 136268.
06:16:38  946 947	 1492668998	 841732154	 161200.
06:16:39  947 948	 1492668999	 7008473	 165276.
06:16:39  948 949	 1492668999	 139413498	 132405.
06:16:39  949 950	 1492668999	 304618727	 165205.
06:16:39  950 951	 1492668999	 437105931	 132488.
06:16:39  951 952	 1492668999	 597819926	 160714.
06:16:39  952 953	 1492668999	 763055366	 165235.
06:16:39  953 954	 1492668999	 895257830	 132203.
06:16:40  954 955	 1492669000	 56714255	 161456.
06:16:40  955 956	 1492669000	 218027360	 161313.
06:16:40  956 957	 1492669000	 354000395	 135973.
06:16:40  957 958	 1492669000	 514926068	 160926.
06:16:40  958 959	 1492669000	 651736534	 136810.
06:16:40  959 960	 1492669000	 812256166	 160520.
06:16:40  960 961	 1492669000	 948234246	 135978.
06:16:41  961 962	 1492669001	 108987410	 160753.
06:16:41  962 963	 1492669001	 241262817	 132276.
06:16:41  963 964	 1492669001	 406237624	 164974.
06:16:41  964 965	 1492669001	 538513555	 132276.
06:16:41  965 966	 1492669001	 699250517	 160737.
06:16:41  966 967	 1492669001	 863960014	 164710.
06:16:41  967 968	 1492669001	 996082373	 132122.
06:16:42  968 969	 1492669002	 157181116	 161099.
06:16:42  969 970	 1492669002	 322110172	 164929.
06:16:42  970 971	 1492669002	 454202192	 132092.
06:16:42  971 972	 1492669002	 615264811	 161063.
06:16:42  972 973	 1492669002	 780332527	 165067.
06:16:42  973 974	 1492669002	 941322072	 160990.
06:16:43  974 975	 1492669003	 73697214	 132375.
06:16:43  975 976	 1492669003	 238630809	 164934.
06:16:43  976 977	 1492669003	 399458499	 160827.
06:16:43  977 978	 1492669003	 535903692	 136445.
06:16:43  978 979	 1492669003	 696762536	 160859.
06:16:43  979 980	 1492669003	 857807799	 161045.
06:16:43  980 981	 1492669003	 994435521	 136628.
06:16:44  981 982	 1492669004	 155116776	 160681.
06:16:44  982 983	 1492669004	 315660394	 160671.
06:16:44  983 984	 1492669004	 452423512	 136636.
06:16:44  984 985	 1492669004	 613554749	 161131.
06:16:44  985 986	 1492669004	 750260377	 136706.
06:16:44  986 987	 1492669004	 911307740	 161047.
06:16:45  987 988	 1492669005	 76636582	 165329.
06:16:45  988 989	 1492669005	 209006764	 132370.
06:16:45  989 990	 1492669005	 370304511	 161298.
06:16:45  990 991	 1492669005	 535473022	 165169.
06:16:45  991 992	 1492669005	 667859489	 132386.
06:16:45  992 993	 1492669005	 828430954	 160572.
06:16:45  993 994	 1492669005	 964708670	 136277.
06:16:46  994 995	 1492669006	 125741035	 161033.
06:16:46  995 996	 1492669006	 290940061	 165199.
06:16:46  996 997	 1492669006	 423556704	 132616.
06:16:46  997 998	 1492669006	 584738413	 161182.
06:16:46  998 999	 1492669006	 750233548	 165495.
06:16:46  999 1000	 1492669006	 882936046	 132703.
06:16:47 1000 1001	 1492669007	 44353382	 161417.
06:16:47 1001 1002	 1492669007	 209677200	 165324.
06:16:47 1002 1003	 1492669007	 342225629	 132548.
06:16:47 1003 1004	 1492669007	 507429948	 165205.
06:16:47 1004 1005	 1492669007	 668575210	 161145.
06:16:47 1005 1006	 1492669007	 804705390	 136130.
06:16:47 1006 1007	 1492669007	 965549224	 160844.
06:16:48 1007 1008	 1492669008	 97469339	 131920.
06:16:48 1008 1009	 1492669008	 262148112	 164679.
06:16:48 1009 1010	 1492669008	 394243697	 132095.
06:16:48 1010 1011	 1492669008	 554973221	 160730.
06:16:48 1011 1012	 1492669008	 719763820	 164791.
06:16:48 1012 1013	 1492669008	 851823451	 132059.
06:16:49 1013 1014	 1492669009	 16715289	 164892.
06:16:49 1014 1015	 1492669009	 148794087	 132079.
06:16:49 1015 1016	 1492669009	 309746724	 160952.
06:16:49 1016 1017	 1492669009	 474627249	 164881.
06:16:49 1017 1018	 1492669009	 606631445	 132004.
06:16:49 1018 1019	 1492669009	 767293108	 160662.
06:16:49 1019 1020	 1492669009	 903317568	 136024.
06:16:50 1020 1021	 1492669010	 63635868	 160319.
06:16:50 1021 1022	 1492669010	 224455309	 160819.
06:16:50 1022 1023	 1492669010	 360588760	 136134.
06:16:50 1023 1024	 1492669010	 521056479	 160467.
06:16:50 1024 1025	 1492669010	 653175765	 132119.
06:16:50 1025 1026	 1492669010	 815107958	 161933.
06:16:50 1026 1027	 1492669010	 976260015	 161152.
06:16:51 1027 1028	 1492669011	 137587236	 161327.
06:16:51 1028 1029	 1492669011	 270060794	 132474.
06:16:51 1029 1030	 1492669011	 434982214	 164921.
06:16:51 1030 1031	 1492669011	 567305475	 132323.
06:16:51 1031 1032	 1492669011	 732270204	 164965.
06:16:51 1032 1033	 1492669011	 893058927	 160789.
06:16:52 1033 1034	 1492669012	 29401187	 136342.
06:16:52 1034 1035	 1492669012	 190172505	 160771.
06:16:52 1035 1036	 1492669012	 322255515	 132083.
06:16:52 1036 1037	 1492669012	 487104549	 164849.
06:16:52 1037 1038	 1492669012	 648166202	 161062.
06:16:52 1038 1039	 1492669012	 780480848	 132315.
06:16:52 1039 1040	 1492669012	 945537089	 165056.
06:16:53 1040 1041	 1492669013	 106678275	 161141.
06:16:53 1041 1042	 1492669013	 239186277	 132508.
06:16:53 1042 1043	 1492669013	 404432648	 165246.
06:16:53 1043 1044	 1492669013	 565466190	 161034.
06:16:53 1044 1045	 1492669013	 701833734	 136367.
06:16:53 1045 1046	 1492669013	 862870727	 161037.
06:16:54 1046 1047	 1492669014	 27958804	 165089.
06:16:54 1047 1048	 1492669014	 160250306	 132291.
06:16:54 1048 1049	 1492669014	 321316957	 161067.
06:16:54 1049 1050	 1492669014	 486586796	 165270.
06:16:54 1050 1051	 1492669014	 619388874	 132802.
06:16:54 1051 1052	 1492669014	 784848223	 165459.
06:16:54 1052 1053	 1492669014	 946453423	 161605.
06:16:55 1053 1054	 1492669015	 83214263	 136761.
06:16:55 1054 1055	 1492669015	 244143329	 160929.
06:16:55 1055 1056	 1492669015	 380426931	 136284.
06:16:55 1056 1057	 1492669015	 540933720	 160506.
06:16:55 1057 1058	 1492669015	 673155081	 132222.
06:16:55 1058 1059	 1492669015	 838560538	 165405.
06:16:55 1059 1060	 1492669015	 999728507	 161168.
06:16:56 1060 1061	 1492669016	 135869435	 136141.
06:16:56 1061 1062	 1492669016	 296883795	 161015.
06:16:56 1062 1063	 1492669016	 432996119	 136112.
06:16:56 1063 1064	 1492669016	 593965003	 160969.
06:16:56 1064 1065	 1492669016	 759007717	 165042.
06:16:56 1065 1066	 1492669016	 891291887	 132285.
06:16:57 1066 1067	 1492669017	 52290378	 160998.
06:16:57 1067 1068	 1492669017	 188624110	 136334.
06:16:57 1068 1069	 1492669017	 350038754	 161414.
06:16:57 1069 1070	 1492669017	 515047780	 165009.
06:16:57 1070 1071	 1492669017	 647185245	 132138.
06:16:57 1071 1072	 1492669017	 808068145	 160883.
06:16:57 1072 1073	 1492669017	 944212044	 136144.
06:16:58 1073 1074	 1492669018	 104928589	 160716.
06:16:58 1074 1075	 1492669018	 241360018	 136432.
06:16:58 1075 1076	 1492669018	 402274979	 160915.
06:16:58 1076 1077	 1492669018	 567790491	 165515.
06:16:58 1077 1078	 1492669018	 699984327	 132194.
06:16:58 1078 1079	 1492669018	 860701670	 160717.
06:16:59 1079 1080	 1492669019	 25867621	 165166.
06:16:59 1080 1081	 1492669019	 158793662	 132926.
06:16:59 1081 1082	 1492669019	 324156211	 165363.
06:16:59 1082 1083	 1492669019	 485610040	 161454.
06:16:59 1083 1084	 1492669019	 622276192	 136666.
06:16:59 1084 1085	 1492669019	 783667642	 161391.
06:16:59 1085 1086	 1492669019	 945320592	 161653.
06:17:00 1086 1087	 1492669020	 81786963	 136467.
06:17:00 1087 1088	 1492669020	 242777318	 160990.
06:17:00 1088 1089	 1492669020	 407675234	 164898.
06:17:00 1089 1090	 1492669020	 540058210	 132383.
06:17:00 1090 1091	 1492669020	 701049237	 160991.
06:17:00 1091 1092	 1492669020	 861985636	 160936.
06:17:01 1092 1093	 1492669021	 26758686	 164773.
06:17:01 1093 1094	 1492669021	 158985049	 132227.
06:17:01 1094 1095	 1492669021	 320095484	 161110.
06:17:01 1095 1096	 1492669021	 485015876	 164921.
06:17:01 1096 1097	 1492669021	 642675181	 157659.
06:17:01 1097 1098	 1492669021	 779277626	 136602.
06:17:01 1098 1099	 1492669021	 973057106	 193780.
06:17:02 1099 1100	 1492669022	 138341033	 165284.
06:17:02 1100 1101	 1492669022	 270735082	 132394.
06:17:02 1101 1102	 1492669022	 432064279	 161329.
06:17:02 1102 1103	 1492669022	 597217771	 165153.
06:17:02 1103 1104	 1492669022	 758281131	 161064.
06:17:02 1104 1105	 1492669022	 890561441	 132280.
06:17:03 1105 1106	 1492669023	 55470169	 164909.
06:17:03 1106 1107	 1492669023	 216250814	 160781.
06:17:03 1107 1108	 1492669023	 348440990	 132190.
06:17:03 1108 1109	 1492669023	 509270976	 160830.
06:17:03 1109 1110	 1492669023	 674374281	 165103.
06:17:03 1110 1111	 1492669023	 806383754	 132009.
06:17:03 1111 1112	 1492669023	 967224627	 160841.
06:17:04 1112 1113	 1492669024	 132364722	 165140.
06:17:04 1113 1114	 1492669024	 264728923	 132365.
06:17:04 1114 1115	 1492669024	 425612701	 160883.
06:17:04 1115 1116	 1492669024	 586695057	 161083.
06:17:04 1116 1117	 1492669024	 751793213	 165098.
06:17:04 1117 1118	 1492669024	 884053198	 132260.
06:17:05 1118 1119	 1492669025	 49107801	 165054.
06:17:05 1119 1120	 1492669025	 210038007	 160931.
06:17:05 1120 1121	 1492669025	 342500060	 132462.
06:17:05 1121 1122	 1492669025	 503260548	 160760.
06:17:05 1122 1123	 1492669025	 639354200	 136094.
06:17:05 1123 1124	 1492669025	 800133177	 160779.
06:17:05 1124 1125	 1492669025	 964819518	 164686.
06:17:06 1125 1126	 1492669026	 97208978	 132390.
06:17:06 1126 1127	 1492669026	 258331520	 161122.
06:17:06 1127 1128	 1492669026	 423312772	 164981.
06:17:06 1128 1129	 1492669026	 555494943	 132183.
06:17:06 1129 1130	 1492669026	 720115638	 164620.
06:17:06 1130 1131	 1492669026	 852174996	 132060.
06:17:07 1131 1132	 1492669027	 13342920	 161168.
06:17:07 1132 1133	 1492669027	 174598142	 161255.
06:17:07 1133 1134	 1492669027	 311279243	 136681.
06:17:07 1134 1135	 1492669027	 471874392	 160595.
06:17:07 1135 1136	 1492669027	 607895800	 136022.
06:17:07 1136 1137	 1492669027	 768794095	 160898.
06:17:07 1137 1138	 1492669027	 901091223	 132297.
06:17:08 1138 1139	 1492669028	 66278699	 165187.
06:17:08 1139 1140	 1492669028	 227134066	 160856.
06:17:08 1140 1141	 1492669028	 359642481	 132508.
06:17:08 1141 1142	 1492669028	 524497996	 164856.
06:17:08 1142 1143	 1492669028	 685253007	 160755.
06:17:08 1143 1144	 1492669028	 817470347	 132217.
06:17:08 1144 1145	 1492669028	 982222660	 164752.
06:17:09 1145 1146	 1492669029	 143459454	 161237.
06:17:09 1146 1147	 1492669029	 275570781	 132112.
06:17:09 1147 1148	 1492669029	 440667435	 165096.
06:17:09 1148 1149	 1492669029	 601510371	 160843.
06:17:09 1149 1150	 1492669029	 733881839	 132372.
06:17:09 1150 1151	 1492669029	 898863513	 164981.
06:17:10 1151 1152	 1492669030	 59682210	 160819.
06:17:10 1152 1153	 1492669030	 195935013	 136253.
06:17:10 1153 1154	 1492669030	 356671809	 160737.
06:17:10 1154 1155	 1492669030	 517230402	 160558.
06:17:10 1155 1156	 1492669030	 649307851	 132078.
06:17:10 1156 1157	 1492669030	 813868549	 164560.
06:17:10 1157 1158	 1492669030	 974621154	 160753.
06:17:11 1158 1159	 1492669031	 106689114	 132068.
06:17:11 1159 1160	 1492669031	 271388998	 164700.
06:17:11 1160 1161	 1492669031	 403526020	 132137.
06:17:11 1161 1162	 1492669031	 564321754	 160795.
06:17:11 1162 1163	 1492669031	 729079639	 164758.
06:17:11 1163 1164	 1492669031	 861350792	 132271.
06:17:12 1164 1165	 1492669032	 26434199	 165084.
06:17:12 1165 1166	 1492669032	 158524560	 132090.
06:17:12 1166 1167	 1492669032	 319588520	 161064.
06:17:12 1167 1168	 1492669032	 484924197	 165336.
06:17:12 1168 1169	 1492669032	 617591819	 132668.
06:17:12 1169 1170	 1492669032	 782795586	 165203.
06:17:12 1170 1171	 1492669032	 943157853	 160363.
06:17:13 1171 1172	 1492669033	 76078072	 132920.
06:17:13 1172 1173	 1492669033	 240935743	 164857.
06:17:13 1173 1174	 1492669033	 373337256	 132402.
06:17:13 1174 1175	 1492669033	 538205112	 164868.
06:17:13 1175 1176	 1492669033	 670361868	 132157.
06:17:13 1176 1177	 1492669033	 834834807	 164473.
06:17:13 1177 1178	 1492669033	 967243937	 132409.
06:17:14 1178 1179	 1492669034	 127923888	 160680.
06:17:14 1179 1180	 1492669034	 292998531	 165074.
06:17:14 1180 1181	 1492669034	 425021476	 132023.
06:17:14 1181 1182	 1492669034	 590046326	 165025.
06:17:14 1182 1183	 1492669034	 721809719	 131763.
06:17:14 1183 1184	 1492669034	 886519631	 164710.
06:17:15 1184 1185	 1492669035	 19262952	 132744.
06:17:15 1185 1186	 1492669035	 180018258	 160755.
06:17:15 1186 1187	 1492669035	 345054978	 165037.
06:17:15 1187 1188	 1492669035	 477337996	 132283.
06:17:15 1188 1189	 1492669035	 641998577	 164660.
06:17:15 1189 1190	 1492669035	 774371021	 132373.
06:17:15 1190 1191	 1492669035	 935497777	 161126.
06:17:16 1191 1192	 1492669036	 101249602	 165752.
06:17:16 1192 1193	 1492669036	 233295827	 132046.
06:17:16 1193 1194	 1492669036	 398455093	 165160.
06:17:16 1194 1195	 1492669036	 530553070	 132098.
06:17:16 1195 1196	 1492669036	 691043556	 160490.
06:17:16 1196 1197	 1492669036	 827774695	 136731.
06:17:16 1197 1198	 1492669036	 988770570	 160996.
06:17:17 1198 1199	 1492669037	 154081003	 165311.
06:17:17 1199 1200	 1492669037	 315427895	 161347.
06:17:17 1200 1201	 1492669037	 448125725	 132697.
06:17:17 1201 1202	 1492669037	 613606409	 165481.
06:17:17 1202 1203	 1492669037	 775190992	 161585.
06:17:17 1203 1204	 1492669037	 933333655	 158142.
06:17:18 1204 1205	 1492669038	 98646141	 165313.
06:17:18 1205 1206	 1492669038	 231301871	 132656.
06:17:18 1206 1207	 1492669038	 396876754	 165574.
06:17:18 1207 1208	 1492669038	 558246479	 161370.
06:17:18 1208 1209	 1492669038	 690835105	 132589.
06:17:18 1209 1210	 1492669038	 856892130	 166057.
06:17:19 1210 1211	 1492669039	 21889076	 164997.
06:17:19 1211 1212	 1492669039	 153980121	 132091.
06:17:19 1212 1213	 1492669039	 314460895	 160481.
06:17:19 1213 1214	 1492669039	 475172698	 160711.
06:17:19 1214 1215	 1492669039	 611450678	 136278.
06:17:19 1215 1216	 1492669039	 771768376	 160318.
06:17:19 1216 1217	 1492669039	 903831696	 132063.
06:17:20 1217 1218	 1492669040	 68298317	 164467.
06:17:20 1218 1219	 1492669040	 228817525	 160519.
06:17:20 1219 1220	 1492669040	 360743061	 131926.
06:17:20 1220 1221	 1492669040	 525376239	 164633.
06:17:20 1221 1222	 1492669040	 657343203	 131967.
06:17:20 1222 1223	 1492669040	 817923420	 160580.
06:17:20 1223 1224	 1492669040	 978744321	 160821.
06:17:21 1224 1225	 1492669041	 114831436	 136087.
06:17:21 1225 1226	 1492669041	 275136903	 160306.
06:17:21 1226 1227	 1492669041	 407353370	 132216.
06:17:21 1227 1228	 1492669041	 571836432	 164483.
06:17:21 1228 1229	 1492669041	 732381404	 160545.
06:17:21 1229 1230	 1492669041	 864500202	 132119.
06:17:22 1230 1231	 1492669042	 29113149	 164613.
06:17:22 1231 1232	 1492669042	 161277850	 132165.
06:17:22 1232 1233	 1492669042	 326096873	 164819.
06:17:22 1233 1234	 1492669042	 486353557	 160256.
06:17:22 1234 1235	 1492669042	 618327446	 131974.
06:17:22 1235 1236	 1492669042	 782773636	 164446.
06:17:22 1236 1237	 1492669042	 914684414	 131911.
06:17:23 1237 1238	 1492669043	 75244013	 160560.
06:17:23 1238 1239	 1492669043	 240481470	 165237.
06:17:23 1239 1240	 1492669043	 372781599	 132300.
06:17:23 1240 1241	 1492669043	 533653105	 160872.
06:17:23 1241 1242	 1492669043	 694315875	 160663.
06:17:23 1242 1243	 1492669043	 830505312	 136189.
06:17:23 1243 1244	 1492669043	 991354632	 160849.
06:17:24 1244 1245	 1492669044	 123351827	 131998.
06:17:24 1245 1246	 1492669044	 288079118	 164727.
06:17:24 1246 1247	 1492669044	 448632609	 160553.
06:17:24 1247 1248	 1492669044	 581071023	 132439.
06:17:24 1248 1249	 1492669044	 746124285	 165053.
06:17:24 1249 1250	 1492669044	 906824828	 160701.
06:17:25 1250 1251	 1492669045	 39212539	 132387.
06:17:25 1251 1252	 1492669045	 204159353	 164947.
06:17:25 1252 1253	 1492669045	 364541343	 160382.
06:17:25 1253 1254	 1492669045	 496562101	 132021.
06:17:25 1254 1255	 1492669045	 661362715	 164800.
06:17:25 1255 1256	 1492669045	 793277600	 131915.
06:17:25 1256 1257	 1492669045	 953817115	 160540.
06:17:26 1257 1258	 1492669046	 118517716	 164700.
06:17:26 1258 1259	 1492669046	 250248348	 131731.
06:17:26 1259 1260	 1492669046	 410963762	 160715.
06:17:26 1260 1261	 1492669046	 542876868	 131914.
06:17:26 1261 1262	 1492669046	 707404505	 164527.
06:17:26 1262 1263	 1492669046	 868182827	 160779.
06:17:26 1263 1264	 1492669047	 118440	 131935.
06:17:27 1264 1265	 1492669047	 164531556	 164413.
06:17:27 1265 1266	 1492669047	 297134468	 132603.
06:17:27 1266 1267	 1492669047	 462069692	 164935.
06:17:27 1267 1268	 1492669047	 622449909	 160381.
06:17:27 1268 1269	 1492669047	 754551695	 132101.
06:17:27 1269 1270	 1492669047	 918649780	 164098.
06:17:28 1270 1271	 1492669048	 50583387	 131934.
06:17:28 1271 1272	 1492669048	 211155945	 160573.
06:17:28 1272 1273	 1492669048	 375652092	 164496.
06:17:28 1273 1274	 1492669048	 508429361	 132777.
06:17:28 1274 1275	 1492669048	 664831310	 156402.
06:17:28 1275 1276	 1492669048	 796548311	 131717.
06:17:28 1276 1277	 1492669048	 961265536	 164717.
06:17:29 1277 1278	 1492669049	 121844701	 160579.
06:17:29 1278 1279	 1492669049	 253943106	 132099.
06:17:29 1279 1280	 1492669049	 418858341	 164915.
06:17:29 1280 1281	 1492669049	 551005897	 132148.
06:17:29 1281 1282	 1492669049	 711501293	 160495.
06:17:29 1282 1283	 1492669049	 876555410	 165054.
06:17:30 1283 1284	 1492669050	 8562593	 132007.
06:17:30 1284 1285	 1492669050	 169315285	 160753.
06:17:30 1285 1286	 1492669050	 334156174	 164841.
06:17:30 1286 1287	 1492669050	 465907622	 131751.
06:17:30 1287 1288	 1492669050	 626378593	 160471.
06:17:30 1288 1289	 1492669050	 762650161	 136272.
06:17:30 1289 1290	 1492669050	 922806191	 160156.
06:17:31 1290 1291	 1492669051	 59098213	 136292.
06:17:31 1291 1292	 1492669051	 220019305	 160921.
06:17:31 1292 1293	 1492669051	 380250937	 160232.
06:17:31 1293 1294	 1492669051	 512382967	 132132.
06:17:31 1294 1295	 1492669051	 677837087	 165454.
06:17:31 1295 1296	 1492669051	 838326108	 160489.
06:17:31 1296 1297	 1492669051	 974568822	 136243.
06:17:32 1297 1298	 1492669052	 135301051	 160732.
06:17:32 1298 1299	 1492669052	 267341931	 132041.
06:17:32 1299 1300	 1492669052	 428224466	 160882.
06:17:32 1300 1301	 1492669052	 593161490	 164937.
06:17:32 1301 1302	 1492669052	 754060430	 160899.
06:17:32 1302 1303	 1492669052	 886600689	 132540.
06:17:33 1303 1304	 1492669053	 51340687	 164740.
06:17:33 1304 1305	 1492669053	 183232711	 131892.
06:17:33 1305 1306	 1492669053	 343884191	 160652.
06:17:33 1306 1307	 1492669053	 508336099	 164452.
06:17:33 1307 1308	 1492669053	 640317456	 131981.
06:17:33 1308 1309	 1492669053	 801224619	 160907.
06:17:33 1309 1310	 1492669053	 937197330	 135973.
06:17:34 1310 1311	 1492669054	 97186251	 159989.
06:17:34 1311 1312	 1492669054	 229097059	 131911.
06:17:34 1312 1313	 1492669054	 393284882	 164188.
06:17:34 1313 1314	 1492669054	 525056049	 131771.
06:17:34 1314 1315	 1492669054	 686061493	 161005.
06:17:34 1315 1316	 1492669054	 850096532	 164035.
06:17:34 1316 1317	 1492669054	 982426251	 132330.
06:17:35 1317 1318	 1492669055	 143051390	 160625.
06:17:35 1318 1319	 1492669055	 278983540	 135932.
06:17:35 1319 1320	 1492669055	 439383645	 160400.
06:17:35 1320 1321	 1492669055	 575361885	 135979.
06:17:35 1321 1322	 1492669055	 735787677	 160425.
06:17:35 1322 1323	 1492669055	 868016370	 132229.
06:17:36 1323 1324	 1492669056	 32251107	 164235.
06:17:36 1324 1325	 1492669056	 163710380	 131459.
06:17:36 1325 1326	 1492669056	 324354124	 160644.
06:17:36 1326 1327	 1492669056	 484810683	 160456.
06:17:36 1327 1328	 1492669056	 620782860	 135973.
06:17:36 1328 1329	 1492669056	 781529253	 160746.
06:17:36 1329 1330	 1492669056	 917488234	 135959.
06:17:37 1330 1331	 1492669057	 77708609	 160220.
06:17:37 1331 1332	 1492669057	 209414406	 131706.
06:17:37 1332 1333	 1492669057	 374160977	 164747.
06:17:37 1333 1334	 1492669057	 534714263	 160553.
06:17:37 1334 1335	 1492669057	 666698876	 131985.
06:17:37 1335 1336	 1492669057	 831380238	 164681.
06:17:37 1336 1337	 1492669057	 963350170	 131970.
06:17:38 1337 1338	 1492669058	 128205947	 164856.
06:17:38 1338 1339	 1492669058	 288755084	 160549.
06:17:38 1339 1340	 1492669058	 420923956	 132169.
06:17:38 1340 1341	 1492669058	 585084500	 164160.
06:17:38 1341 1342	 1492669058	 716968499	 131884.
06:17:38 1342 1343	 1492669058	 877959472	 160991.
06:17:39 1343 1344	 1492669059	 13901848	 135943.
06:17:39 1344 1345	 1492669059	 175261281	 161359.
06:17:39 1345 1346	 1492669059	 332028894	 156768.
06:17:39 1346 1347	 1492669059	 464114655	 132085.
06:17:39 1347 1348	 1492669059	 628695653	 164581.
06:17:39 1348 1349	 1492669059	 789479410	 160784.
06:17:39 1349 1350	 1492669059	 921369387	 131890.
06:17:40 1350 1351	 1492669060	 86422457	 165053.
06:17:40 1351 1352	 1492669060	 218557526	 132135.
06:17:40 1352 1353	 1492669060	 378826803	 160270.
06:17:40 1353 1354	 1492669060	 543926775	 165099.
06:17:40 1354 1355	 1492669060	 675990514	 132064.
06:17:40 1355 1356	 1492669060	 836229336	 160239.
06:17:40 1356 1357	 1492669060	 972265181	 136036.
06:17:41 1357 1358	 1492669061	 129308625	 157043.
06:17:41 1358 1359	 1492669061	 294003433	 164695.
06:17:41 1359 1360	 1492669061	 426385422	 132382.
06:17:41 1360 1361	 1492669061	 586728007	 160343.
06:17:41 1361 1362	 1492669061	 722870199	 136142.
06:17:41 1362 1363	 1492669061	 883558772	 160688.
06:17:42 1363 1364	 1492669062	 44002329	 160444.
06:17:42 1364 1365	 1492669062	 176111794	 132109.
06:17:42 1365 1366	 1492669062	 340578868	 164468.
06:17:42 1366 1367	 1492669062	 472381202	 131802.
06:17:42 1367 1368	 1492669062	 632856270	 160475.
06:17:42 1368 1369	 1492669062	 797508431	 164652.
06:17:42 1369 1370	 1492669062	 929540056	 132032.
06:17:43 1370 1371	 1492669063	 89779959	 160240.
06:17:43 1371 1372	 1492669063	 225692587	 135912.
06:17:43 1372 1373	 1492669063	 386232982	 160541.
06:17:43 1373 1374	 1492669063	 518128340	 131895.
06:17:43 1374 1375	 1492669063	 682851854	 164724.
06:17:43 1375 1376	 1492669063	 843488381	 160636.
06:17:43 1376 1377	 1492669063	 975528319	 132040.
06:17:44 1377 1378	 1492669064	 139981002	 164453.
06:17:44 1378 1379	 1492669064	 271960276	 131979.
06:17:44 1379 1380	 1492669064	 432247150	 160287.
06:17:44 1380 1381	 1492669064	 568418536	 136171.
06:17:44 1381 1382	 1492669064	 729178746	 160760.
06:17:44 1382 1383	 1492669064	 889478856	 160301.
06:17:45 1383 1384	 1492669065	 21443527	 131964.
06:17:45 1384 1385	 1492669065	 186018654	 164575.
06:17:45 1385 1386	 1492669065	 317888040	 131870.
06:17:45 1386 1387	 1492669065	 482660697	 164772.
06:17:45 1387 1388	 1492669065	 614308997	 131649.
06:17:45 1388 1389	 1492669065	 774749298	 160440.
06:17:45 1389 1390	 1492669065	 939798229	 165049.
06:17:46 1390 1391	 1492669066	 71819866	 132022.
06:17:46 1391 1392	 1492669066	 236594124	 164774.
06:17:46 1392 1393	 1492669066	 368450179	 131856.
06:17:46 1393 1394	 1492669066	 529572517	 161122.
06:17:46 1394 1395	 1492669066	 665614379	 136042.
06:17:46 1395 1396	 1492669066	 826637105	 161023.
06:17:46 1396 1397	 1492669066	 963404479	 136767.
06:17:47 1397 1398	 1492669067	 124097761	 160693.
06:17:47 1398 1399	 1492669067	 289335803	 165239.
06:17:47 1399 1400	 1492669067	 422101613	 132765.
06:17:47 1400 1401	 1492669067	 583568710	 161467.
06:17:47 1401 1402	 1492669067	 719792697	 136224.
06:17:47 1402 1403	 1492669067	 880916646	 161124.
06:17:48 1403 1404	 1492669068	 46410366	 165494.
06:17:48 1404 1405	 1492669068	 178623537	 132213.
06:17:48 1405 1406	 1492669068	 343289342	 164666.
06:17:48 1406 1407	 1492669068	 475301451	 132012.
06:17:48 1407 1408	 1492669068	 640584878	 165284.
06:17:48 1408 1409	 1492669068	 772859286	 132274.
06:17:48 1409 1410	 1492669068	 938049776	 165190.
06:17:49 1410 1411	 1492669069	 98711941	 160663.
06:17:49 1411 1412	 1492669069	 231161794	 132449.
06:17:49 1412 1413	 1492669069	 396488422	 165327.
06:17:49 1413 1414	 1492669069	 557747474	 161259.
06:17:49 1414 1415	 1492669069	 694019991	 136273.
06:17:49 1415 1416	 1492669069	 856050834	 162031.
06:17:50 1416 1417	 1492669070	 17233816	 161183.
06:17:50 1417 1418	 1492669070	 149457172	 132223.
06:17:50 1418 1419	 1492669070	 310244507	 160787.
06:17:50 1419 1420	 1492669070	 446236325	 135992.
06:17:50 1420 1421	 1492669070	 607227599	 160991.
06:17:50 1421 1422	 1492669070	 772655623	 165428.
06:17:50 1422 1423	 1492669070	 905020859	 132366.
06:17:51 1423 1424	 1492669071	 65822446	 160801.
06:17:51 1424 1425	 1492669071	 202031791	 136209.
06:17:51 1425 1426	 1492669071	 362578624	 160547.
06:17:51 1426 1427	 1492669071	 499070243	 136492.
06:17:51 1427 1428	 1492669071	 659939304	 160869.
06:17:51 1428 1429	 1492669071	 820856601	 160930.
06:17:51 1429 1430	 1492669071	 957129498	 136260.
06:17:52 1430 1431	 1492669072	 117664626	 160535.
06:17:52 1431 1432	 1492669072	 254268365	 136604.
06:17:52 1432 1433	 1492669072	 415340169	 161072.
06:17:52 1433 1434	 1492669072	 581196688	 165856.
06:17:52 1434 1435	 1492669072	 713899477	 132703.
06:17:52 1435 1436	 1492669072	 878863062	 164964.
06:17:53 1436 1437	 1492669073	 11237993	 132375.
06:17:53 1437 1438	 1492669073	 176293373	 165055.
06:17:53 1438 1439	 1492669073	 337301534	 161008.
06:17:53 1439 1440	 1492669073	 469979018	 132678.
06:17:53 1440 1441	 1492669073	 634821789	 164842.
06:17:53 1441 1442	 1492669073	 766772869	 131952.
06:17:53 1442 1443	 1492669073	 931520336	 164747.
06:17:54 1443 1444	 1492669074	 63578344	 132058.
06:17:54 1444 1445	 1492669074	 228315497	 164737.
06:17:54 1445 1446	 1492669074	 360541606	 132226.
06:17:54 1446 1447	 1492669074	 525720523	 165179.
06:17:54 1447 1448	 1492669074	 686951862	 161232.
06:17:54 1448 1449	 1492669074	 819399794	 132448.
06:17:54 1449 1450	 1492669074	 984642491	 165242.
06:17:55 1450 1451	 1492669075	 117197896	 132556.
06:17:55 1451 1452	 1492669075	 278733719	 161535.
06:17:55 1452 1453	 1492669075	 439695860	 160963.
06:17:55 1453 1454	 1492669075	 576072922	 136377.
06:17:55 1454 1455	 1492669075	 736943465	 160870.
06:17:55 1455 1456	 1492669075	 873060497	 136117.
06:17:56 1456 1457	 1492669076	 33767347	 160707.
06:17:56 1457 1458	 1492669076	 198544093	 164777.
06:17:56 1458 1459	 1492669076	 330940006	 132396.
06:17:56 1459 1460	 1492669076	 496282707	 165342.
06:17:56 1460 1461	 1492669076	 625180774	 128899.
06:17:56 1461 1462	 1492669076	 789989957	 164809.
06:17:56 1462 1463	 1492669076	 950862154	 160872.
06:17:57 1463 1464	 1492669077	 82980004	 132118.
06:17:57 1464 1465	 1492669077	 248096126	 165116.
06:17:57 1465 1466	 1492669077	 380743654	 132647.
06:17:57 1466 1467	 1492669077	 545895171	 165152.
06:17:57 1467 1468	 1492669077	 706808715	 160913.
06:17:57 1468 1469	 1492669077	 842940462	 136132.
06:17:58 1469 1470	 1492669078	 3933950	 160994.
06:17:58 1470 1471	 1492669078	 136443317	 132509.
06:17:58 1471 1472	 1492669078	 301274690	 164831.
06:17:58 1472 1473	 1492669078	 462426921	 161153.
06:17:58 1473 1474	 1492669078	 598806423	 136379.
06:17:58 1474 1475	 1492669078	 759970834	 161165.
06:17:58 1475 1476	 1492669078	 896309595	 136338.
06:17:59 1476 1477	 1492669079	 57091928	 160783.
06:17:59 1477 1478	 1492669079	 189472948	 132381.
06:17:59 1478 1479	 1492669079	 354835926	 165363.
06:17:59 1479 1480	 1492669079	 515976144	 161140.
06:17:59 1480 1481	 1492669079	 648813814	 132837.
06:17:59 1481 1482	 1492669079	 814083737	 165270.
06:17:59 1482 1483	 1492669079	 975176963	 161094.
06:18:00 1483 1484	 1492669080	 107811504	 132634.
06:18:00 1484 1485	 1492669080	 268736290	 160925.
06:18:00 1485 1486	 1492669080	 433607628	 164871.
06:18:00 1486 1487	 1492669080	 594759749	 161152.
06:18:00 1487 1488	 1492669080	 727249685	 132490.
06:18:00 1488 1489	 1492669080	 892375062	 165126.
06:18:01 1489 1490	 1492669081	 53149295	 160774.
06:18:01 1490 1491	 1492669081	 185728213	 132579.
06:18:01 1491 1492	 1492669081	 354878567	 169150.
06:18:01 1492 1493	 1492669081	 515951034	 161073.
06:18:01 1493 1494	 1492669081	 680886244	 164935.
06:18:01 1494 1495	 1492669081	 813199850	 132314.
06:18:01 1495 1496	 1492669081	 974671505	 161471.
06:18:02 1496 1497	 1492669082	 139875056	 165204.
06:18:02 1497 1498	 1492669082	 272070915	 132196.
06:18:02 1498 1499	 1492669082	 436947748	 164876.
06:18:02 1499 1500	 1492669082	 597987144	 161040.
06:18:02 1500 1501	 1492669082	 730347102	 132360.
06:18:02 1501 1502	 1492669082	 895279879	 164933.
06:18:03 1502 1503	 1492669083	 56118397	 160838.
06:18:03 1503 1504	 1492669083	 192526411	 136408.
06:18:03 1504 1505	 1492669083	 353026481	 160500.
06:18:03 1505 1506	 1492669083	 513703862	 160678.
06:18:03 1506 1507	 1492669083	 650050306	 136346.
06:18:03 1507 1508	 1492669083	 810835727	 160785.
06:18:03 1508 1509	 1492669083	 943021187	 132186.
06:18:04 1509 1510	 1492669084	 107820091	 164799.
06:18:04 1510 1511	 1492669084	 268486388	 160666.
06:18:04 1511 1512	 1492669084	 400505325	 132019.
06:18:04 1512 1513	 1492669084	 565298343	 164793.
06:18:04 1513 1514	 1492669084	 697635961	 132338.
06:18:04 1514 1515	 1492669084	 858643473	 161007.
06:18:05 1515 1516	 1492669085	 23330919	 164688.
06:18:05 1516 1517	 1492669085	 155640610	 132309.
06:18:05 1517 1518	 1492669085	 320353463	 164713.
06:18:05 1518 1519	 1492669085	 481262634	 160909.
06:18:05 1519 1520	 1492669085	 613585653	 132323.
06:18:05 1520 1521	 1492669085	 778575759	 164990.
06:18:05 1521 1522	 1492669085	 940247291	 161672.
06:18:06 1522 1523	 1492669086	 68202127	 127955.
06:18:06 1523 1524	 1492669086	 232844240	 164642.
06:18:06 1524 1525	 1492669086	 394327821	 161484.
06:18:06 1525 1526	 1492669086	 526644364	 132316.
06:18:06 1526 1527	 1492669086	 691249101	 164605.
06:18:06 1527 1528	 1492669086	 823476956	 132228.
06:18:06 1528 1529	 1492669086	 988730886	 165254.
06:18:07 1529 1530	 1492669087	 121017324	 132286.
06:18:07 1530 1531	 1492669087	 286197886	 165181.
06:18:07 1531 1532	 1492669087	 447128681	 160931.
06:18:07 1532 1533	 1492669087	 579586154	 132457.
06:18:07 1533 1534	 1492669087	 744498387	 164912.
06:18:07 1534 1535	 1492669087	 876666734	 132168.
06:18:08 1535 1536	 1492669088	 41711426	 165045.
06:18:08 1536 1537	 1492669088	 173920304	 132209.
06:18:08 1537 1538	 1492669088	 339219748	 165299.
06:18:08 1538 1539	 1492669088	 500001126	 160782.
06:18:08 1539 1540	 1492669088	 636484723	 136483.
06:18:08 1540 1541	 1492669088	 797565947	 161082.
06:18:08 1541 1542	 1492669088	 934106054	 136540.
06:18:09 1542 1543	 1492669089	 95482027	 161376.
06:18:09 1543 1544	 1492669089	 261132806	 165651.
06:18:09 1544 1545	 1492669089	 422608852	 161476.
06:18:09 1545 1546	 1492669089	 559534982	 136926.
06:18:09 1546 1547	 1492669089	 721166860	 161632.
06:18:09 1547 1548	 1492669089	 886696286	 165529.
06:18:10 1548 1549	 1492669090	 19368526	 132672.
06:18:10 1549 1550	 1492669090	 184969390	 165601.
06:18:10 1550 1551	 1492669090	 346363306	 161394.
06:18:10 1551 1552	 1492669090	 512040798	 165678.
06:18:10 1552 1553	 1492669090	 645005544	 132964.
06:18:10 1553 1554	 1492669090	 810560265	 165555.
06:18:10 1554 1555	 1492669090	 971618585	 161058.
06:18:11 1555 1556	 1492669091	 108425987	 136808.
06:18:11 1556 1557	 1492669091	 269229818	 160804.
06:18:11 1557 1558	 1492669091	 405450198	 136220.
06:18:11 1558 1559	 1492669091	 566220301	 160770.
06:18:11 1559 1560	 1492669091	 726835921	 160616.
06:18:11 1560 1561	 1492669091	 859032387	 132196.
06:18:12 1561 1562	 1492669092	 23993779	 164961.
06:18:12 1562 1563	 1492669092	 184818898	 160826.
06:18:12 1563 1564	 1492669092	 316900124	 132081.
06:18:12 1564 1565	 1492669092	 481763431	 164863.
06:18:12 1565 1566	 1492669092	 642469195	 160706.
06:18:12 1566 1567	 1492669092	 774877090	 132408.
06:18:12 1567 1568	 1492669092	 939824876	 164948.
06:18:13 1568 1569	 1492669093	 100462955	 160638.
06:18:13 1569 1570	 1492669093	 232733600	 132270.
06:18:13 1570 1571	 1492669093	 397537060	 164804.
06:18:13 1571 1572	 1492669093	 558380291	 160843.
06:18:13 1572 1573	 1492669093	 690654353	 132274.
06:18:13 1573 1574	 1492669093	 851380673	 160726.
06:18:14 1574 1575	 1492669094	 16487375	 165107.
06:18:14 1575 1576	 1492669094	 148807925	 132321.
06:18:14 1576 1577	 1492669094	 313852171	 165044.
06:18:14 1577 1578	 1492669094	 474310792	 160459.
06:18:14 1578 1579	 1492669094	 606685210	 132374.
06:18:14 1579 1580	 1492669094	 771296532	 164611.
06:18:14 1580 1581	 1492669094	 903288203	 131992.
06:18:15 1581 1582	 1492669095	 68427341	 165139.
06:18:15 1582 1583	 1492669095	 229464431	 161037.
06:18:15 1583 1584	 1492669095	 366087296	 136623.
06:18:15 1584 1585	 1492669095	 526699553	 160612.
06:18:15 1585 1586	 1492669095	 659383889	 132685.
06:18:15 1586 1587	 1492669095	 824533757	 165149.
06:18:15 1587 1588	 1492669095	 985933203	 161400.
06:18:16 1588 1589	 1492669096	 122547194	 136614.
06:18:16 1589 1590	 1492669096	 288024146	 165477.
06:18:16 1590 1591	 1492669096	 448796127	 160772.
06:18:16 1591 1592	 1492669096	 581102185	 132306.
06:18:16 1592 1593	 1492669096	 747013620	 165911.
06:18:16 1593 1594	 1492669096	 875116403	 128103.
06:18:17 1594 1595	 1492669097	 40114853	 164999.
06:18:17 1595 1596	 1492669097	 201497205	 161382.
06:18:17 1596 1597	 1492669097	 334353256	 132856.
06:18:17 1597 1598	 1492669097	 499364468	 165011.
06:18:17 1598 1599	 1492669097	 660565872	 161202.
06:18:17 1599 1600	 1492669097	 797136456	 136570.
06:18:17 1600 1601	 1492669097	 958134565	 160998.
06:18:18 1601 1602	 1492669098	 123278702	 165144.
06:18:18 1602 1603	 1492669098	 255613064	 132335.
06:18:18 1603 1604	 1492669098	 416807991	 161195.
06:18:18 1604 1605	 1492669098	 553305153	 136497.
06:18:18 1605 1606	 1492669098	 714097832	 160792.
06:18:18 1606 1607	 1492669098	 879599532	 165502.
06:18:19 1607 1608	 1492669099	 12195243	 132596.
06:18:19 1608 1609	 1492669099	 177609775	 165414.
06:18:19 1609 1610	 1492669099	 339091673	 161482.
06:18:19 1610 1611	 1492669099	 475710839	 136620.
06:18:19 1611 1612	 1492669099	 636956409	 161245.
06:18:19 1612 1613	 1492669099	 797883970	 160928.
06:18:19 1613 1614	 1492669099	 934251984	 136368.
06:18:20 1614 1615	 1492669100	 94787998	 160536.
06:18:20 1615 1616	 1492669100	 231493457	 136705.
06:18:20 1616 1617	 1492669100	 392383986	 160891.
06:18:20 1617 1618	 1492669100	 557399881	 165016.
06:18:20 1618 1619	 1492669100	 689959225	 132559.
06:18:20 1619 1620	 1492669100	 851209946	 161251.
06:18:21 1620 1621	 1492669101	 16439868	 165230.
06:18:21 1621 1622	 1492669101	 148792164	 132352.
06:18:21 1622 1623	 1492669101	 313696474	 164904.
06:18:21 1623 1624	 1492669101	 446709857	 133014.
06:18:21 1624 1625	 1492669101	 611623585	 164913.
06:18:21 1625 1626	 1492669101	 772922834	 161300.
06:18:21 1626 1627	 1492669101	 905344201	 132421.
06:18:22 1627 1628	 1492669102	 70155887	 164812.
06:18:22 1628 1629	 1492669102	 202939652	 132783.
06:18:22 1629 1630	 1492669102	 363833131	 160894.
06:18:22 1630 1631	 1492669102	 524564105	 160731.
06:18:22 1631 1632	 1492669102	 660433656	 135869.
06:18:22 1632 1633	 1492669102	 792639078	 132206.
06:18:22 1633 1634	 1492669102	 953478063	 160839.
06:18:23 1634 1635	 1492669103	 118284450	 164806.
06:18:23 1635 1636	 1492669103	 251054287	 132770.
06:18:23 1636 1637	 1492669103	 415883082	 164829.
06:18:23 1637 1638	 1492669103	 576982120	 161099.
06:18:23 1638 1639	 1492669103	 709049536	 132067.
06:18:23 1639 1640	 1492669103	 874276632	 165227.
06:18:24 1640 1641	 1492669104	 6571933	 132296.
06:18:24 1641 1642	 1492669104	 171617193	 165045.
06:18:24 1642 1643	 1492669104	 303889724	 132272.
06:18:24 1643 1644	 1492669104	 469315855	 165427.
06:18:24 1644 1645	 1492669104	 630098851	 160783.
06:18:24 1645 1646	 1492669104	 766535024	 136436.
06:18:24 1646 1647	 1492669104	 927606455	 161071.
06:18:25 1647 1648	 1492669105	 59963951	 132358.
06:18:25 1648 1649	 1492669105	 224838189	 164874.
06:18:25 1649 1650	 1492669105	 357095013	 132257.
06:18:25 1650 1651	 1492669105	 522187061	 165092.
06:18:25 1651 1652	 1492669105	 683373702	 161186.
06:18:25 1652 1653	 1492669105	 819914978	 136542.
06:18:25 1653 1654	 1492669105	 980700295	 160785.
06:18:26 1654 1655	 1492669106	 117308785	 136608.
06:18:26 1655 1656	 1492669106	 278231869	 160924.
06:18:26 1656 1657	 1492669106	 443433654	 165201.
06:18:26 1657 1658	 1492669106	 575738553	 132305.
06:18:26 1658 1659	 1492669106	 736562332	 160824.
06:18:26 1659 1660	 1492669106	 901462220	 164900.
06:18:27 1660 1661	 1492669107	 33902390	 132440.
06:18:27 1661 1662	 1492669107	 194858062	 160956.
06:18:27 1662 1663	 1492669107	 331298615	 136440.
06:18:27 1663 1664	 1492669107	 492284059	 160986.
06:18:27 1664 1665	 1492669107	 657228090	 164944.
06:18:27 1665 1666	 1492669107	 789347735	 132119.
06:18:27 1666 1667	 1492669107	 949993013	 160646.
06:18:28 1667 1668	 1492669108	 115280481	 165287.
06:18:28 1668 1669	 1492669108	 247454707	 132174.
06:18:28 1669 1670	 1492669108	 412053508	 164599.
06:18:28 1670 1671	 1492669108	 544023342	 131970.
06:18:28 1671 1672	 1492669108	 704604241	 160581.
06:18:28 1672 1673	 1492669108	 869265530	 164661.
06:18:28 1673 1674	 1492669109	 1750575	 132485.
06:18:29 1674 1675	 1492669109	 162997791	 161248.
06:18:29 1675 1676	 1492669109	 299473108	 136475.
06:18:29 1676 1677	 1492669109	 460354932	 160882.
06:18:29 1677 1678	 1492669109	 625508428	 165153.
06:18:29 1678 1679	 1492669109	 757424374	 131916.
06:18:29 1679 1680	 1492669109	 922754653	 165330.
06:18:30 1680 1681	 1492669110	 55089192	 132335.
06:18:30 1681 1682	 1492669110	 215963189	 160874.
06:18:30 1682 1683	 1492669110	 380682291	 164719.
06:18:30 1683 1684	 1492669110	 513106292	 132424.
06:18:30 1684 1685	 1492669110	 674281895	 161176.
06:18:30 1685 1686	 1492669110	 839475525	 165193.
06:18:30 1686 1687	 1492669110	 971771288	 132296.
06:18:31 1687 1688	 1492669111	 136690480	 164919.
06:18:31 1688 1689	 1492669111	 268907419	 132217.
06:18:31 1689 1690	 1492669111	 429296462	 160389.
06:18:31 1690 1691	 1492669111	 593844605	 164548.
06:18:31 1691 1692	 1492669111	 725888325	 132044.
06:18:31 1692 1693	 1492669111	 886766769	 160879.
06:18:32 1693 1694	 1492669112	 51843630	 165076.
06:18:32 1694 1695	 1492669112	 184419003	 132576.
06:18:32 1695 1696	 1492669112	 345430571	 161011.
06:18:32 1696 1697	 1492669112	 506135157	 160705.
06:18:32 1697 1698	 1492669112	 642345884	 136211.
06:18:32 1698 1699	 1492669112	 803718630	 161372.
06:18:32 1699 1700	 1492669112	 960377282	 156659.
06:18:33 1700 1701	 1492669113	 96173916	 135797.
06:18:33 1701 1702	 1492669113	 256895544	 160721.
06:18:33 1702 1703	 1492669113	 417451134	 160556.
06:18:33 1703 1704	 1492669113	 553598753	 136147.
06:18:33 1704 1705	 1492669113	 714184234	 160586.
06:18:33 1705 1706	 1492669113	 846176056	 131992.
06:18:34 1706 1707	 1492669114	 10563601	 164387.
06:18:34 1707 1708	 1492669114	 170895950	 160333.
06:18:34 1708 1709	 1492669114	 302824545	 131928.
06:18:34 1709 1710	 1492669114	 463106191	 160282.
06:18:34 1710 1711	 1492669114	 599029795	 135924.
06:18:34 1711 1712	 1492669114	 759398135	 160368.
06:18:34 1712 1713	 1492669114	 895638621	 136240.
06:18:35 1713 1714	 1492669115	 56332150	 160694.
06:18:35 1714 1715	 1492669115	 217378526	 161046.
06:18:35 1715 1716	 1492669115	 353748470	 136370.
06:18:35 1716 1717	 1492669115	 514652868	 160905.
06:18:35 1717 1718	 1492669115	 650932971	 136280.
06:18:35 1718 1719	 1492669115	 811797027	 160864.
06:18:35 1719 1720	 1492669115	 943773432	 131976.
06:18:36 1720 1721	 1492669116	 108998531	 165225.
06:18:36 1721 1722	 1492669116	 269388187	 160390.
06:18:36 1722 1723	 1492669116	 406114393	 136726.
06:18:36 1723 1724	 1492669116	 566998507	 160884.
06:18:36 1724 1725	 1492669116	 703406404	 136408.
06:18:36 1725 1726	 1492669116	 863929733	 160523.
06:18:36 1726 1727	 1492669117	 375649	 136446.
06:18:37 1727 1728	 1492669117	 161301724	 160926.
06:18:37 1728 1729	 1492669117	 326452743	 165152.
06:18:37 1729 1730	 1492669117	 458677830	 132225.
06:18:37 1730 1731	 1492669117	 619658939	 160981.
06:18:37 1731 1732	 1492669117	 755872970	 136214.
06:18:37 1732 1733	 1492669117	 916934656	 161061.
06:18:38 1733 1734	 1492669118	 82207599	 165273.
06:18:38 1734 1735	 1492669118	 215165863	 132959.
06:18:38 1735 1736	 1492669118	 372667984	 157502.
06:18:38 1736 1737	 1492669118	 537903232	 165235.
06:18:38 1737 1738	 1492669118	 670719234	 132816.
06:18:38 1738 1739	 1492669118	 836491835	 165773.
06:18:38 1739 1740	 1492669118	 998083972	 161592.
06:18:39 1740 1741	 1492669119	 163815835	 165732.
06:18:39 1741 1742	 1492669119	 297002875	 133187.
06:18:39 1742 1743	 1492669119	 462753155	 165750.
06:18:39 1743 1744	 1492669119	 623946890	 161194.
06:18:39 1744 1745	 1492669119	 760354989	 136408.
06:18:39 1745 1746	 1492669119	 921531583	 161176.
06:18:40 1746 1747	 1492669120	 87170003	 165639.
06:18:40 1747 1748	 1492669120	 248374770	 161204.
06:18:40 1748 1749	 1492669120	 380486454	 132112.
06:18:40 1749 1750	 1492669120	 545285761	 164799.
06:18:40 1750 1751	 1492669120	 677814053	 132529.
06:18:40 1751 1752	 1492669120	 842869246	 165055.
06:18:41 1752 1753	 1492669121	 3933866	 161065.
06:18:41 1753 1754	 1492669121	 140324126	 136390.
06:18:41 1754 1755	 1492669121	 300924295	 160600.
06:18:41 1755 1756	 1492669121	 437657125	 136733.
06:18:41 1756 1757	 1492669121	 598480377	 160823.
06:18:41 1757 1758	 1492669121	 730508839	 132029.
06:18:41 1758 1759	 1492669121	 895507954	 164999.
06:18:42 1759 1760	 1492669122	 27697962	 132190.
06:18:42 1760 1761	 1492669122	 193029432	 165331.
06:18:42 1761 1762	 1492669122	 353729532	 160700.
06:18:42 1762 1763	 1492669122	 489774616	 136045.
06:18:42 1763 1764	 1492669122	 650282609	 160508.
06:18:42 1764 1765	 1492669122	 782350955	 132069.
06:18:42 1765 1766	 1492669122	 947417212	 165066.
06:18:43 1766 1767	 1492669123	 108548771	 161131.
06:18:43 1767 1768	 1492669123	 244800354	 136252.
06:18:43 1768 1769	 1492669123	 405404130	 160604.
06:18:43 1769 1770	 1492669123	 542252289	 136848.
06:18:43 1770 1771	 1492669123	 699470197	 157218.
06:18:43 1771 1772	 1492669123	 831495107	 132025.
06:18:43 1772 1773	 1492669123	 996764420	 165269.
06:18:44 1773 1774	 1492669124	 157303791	 160539.
06:18:44 1774 1775	 1492669124	 289425589	 132122.
06:18:44 1775 1776	 1492669124	 454086152	 164661.
06:18:44 1776 1777	 1492669124	 586569110	 132483.
06:18:44 1777 1778	 1492669124	 751180235	 164611.
06:18:44 1778 1779	 1492669124	 883300836	 132121.
06:18:45 1779 1780	 1492669125	 44127490	 160826.
06:18:45 1780 1781	 1492669125	 209392154	 165265.
06:18:45 1781 1782	 1492669125	 341639785	 132247.
06:18:45 1782 1783	 1492669125	 506643570	 165004.
06:18:45 1783 1784	 1492669125	 638753099	 132110.
06:18:45 1784 1785	 1492669125	 799938327	 161185.
06:18:45 1785 1786	 1492669125	 965153766	 165215.
06:18:46 1786 1787	 1492669126	 97132102	 131979.
06:18:46 1787 1788	 1492669126	 262076749	 164944.
06:18:46 1788 1789	 1492669126	 394392311	 132316.
06:18:46 1789 1790	 1492669126	 555864895	 161473.
06:18:46 1790 1791	 1492669126	 720602980	 164738.
06:18:46 1791 1792	 1492669126	 853245959	 132643.
06:18:47 1792 1793	 1492669127	 18400560	 165154.
06:18:47 1793 1794	 1492669127	 150724358	 132324.
06:18:47 1794 1795	 1492669127	 315903484	 165179.
06:18:47 1795 1796	 1492669127	 476877520	 160974.
06:18:47 1796 1797	 1492669127	 613420307	 136543.
06:18:47 1797 1798	 1492669127	 774105147	 160685.
06:18:47 1798 1799	 1492669127	 910508457	 136403.
06:18:48 1799 1800	 1492669128	 71715567	 161207.
06:18:48 1800 1801	 1492669128	 237250127	 165535.
06:18:48 1801 1802	 1492669128	 369450776	 132200.
06:18:48 1802 1803	 1492669128	 529950807	 160501.
06:18:48 1803 1804	 1492669128	 666319854	 136369.
06:18:48 1804 1805	 1492669128	 827624146	 161304.
06:18:48 1805 1806	 1492669128	 993474117	 165850.
06:18:49 1806 1807	 1492669129	 117634663	 124160.
06:18:49 1807 1808	 1492669129	 282322463	 164688.
06:18:49 1808 1809	 1492669129	 443575321	 161253.
06:18:49 1809 1810	 1492669129	 580115687	 136540.
06:18:49 1810 1811	 1492669129	 741016247	 160901.
06:18:49 1811 1812	 1492669129	 873256369	 132240.
06:18:50 1812 1813	 1492669130	 37957133	 164701.
06:18:50 1813 1814	 1492669130	 198814018	 160857.
06:18:50 1814 1815	 1492669130	 335256303	 136442.
06:18:50 1815 1816	 1492669130	 495916851	 160661.
06:18:50 1816 1817	 1492669130	 628156064	 132239.
06:18:50 1817 1818	 1492669130	 793096040	 164940.
06:18:50 1818 1819	 1492669130	 925501011	 132405.
06:18:51 1819 1820	 1492669131	 90294658	 164793.
06:18:51 1820 1821	 1492669131	 251646097	 161352.
06:18:51 1821 1822	 1492669131	 388131724	 136485.
06:18:51 1822 1823	 1492669131	 549305535	 161174.
06:18:51 1823 1824	 1492669131	 685849676	 136544.
06:18:51 1824 1825	 1492669131	 847107286	 161258.
06:18:52 1825 1826	 1492669132	 12328461	 165221.
06:18:52 1826 1827	 1492669132	 144891044	 132563.
06:18:52 1827 1828	 1492669132	 309805099	 164914.
06:18:52 1828 1829	 1492669132	 470656636	 160851.
06:18:52 1829 1830	 1492669132	 602599020	 131943.
06:18:52 1830 1831	 1492669132	 767730295	 165131.
06:18:52 1831 1832	 1492669132	 900001713	 132271.
06:18:53 1832 1833	 1492669133	 64813830	 164813.
06:18:53 1833 1834	 1492669133	 197082699	 132268.
06:18:53 1834 1835	 1492669133	 362164423	 165082.
06:18:53 1835 1836	 1492669133	 523442704	 161278.
06:18:53 1836 1837	 1492669133	 656007467	 132565.
06:18:53 1837 1838	 1492669133	 820721708	 164714.
06:18:53 1838 1839	 1492669133	 952490822	 131770.
06:18:54 1839 1840	 1492669134	 117404388	 164913.
06:18:54 1840 1841	 1492669134	 250031984	 132628.
06:18:54 1841 1842	 1492669134	 415414160	 165382.
06:18:54 1842 1843	 1492669134	 576683726	 161269.
06:18:54 1843 1844	 1492669134	 708750972	 132068.
06:18:54 1844 1845	 1492669134	 874088018	 165337.
06:18:55 1845 1846	 1492669135	 35313339	 161225.
06:18:55 1846 1847	 1492669135	 172032005	 136719.
06:18:55 1847 1848	 1492669135	 333865556	 161833.
06:18:55 1848 1849	 1492669135	 498632143	 164767.
06:18:55 1849 1850	 1492669135	 630723480	 132091.
06:18:55 1850 1851	 1492669135	 791637470	 160914.
06:18:55 1851 1852	 1492669135	 928006115	 136369.
06:18:56 1852 1853	 1492669136	 88956246	 160950.
06:18:56 1853 1854	 1492669136	 250143244	 161187.
06:18:56 1854 1855	 1492669136	 386392665	 136249.
06:18:56 1855 1856	 1492669136	 551329364	 164937.
06:18:56 1856 1857	 1492669136	 683499308	 132170.
06:18:56 1857 1858	 1492669136	 843887494	 160388.
06:18:56 1858 1859	 1492669136	 980378615	 136491.
06:18:57 1859 1860	 1492669137	 141729851	 161352.
06:18:57 1860 1861	 1492669137	 307012753	 165282.
06:18:57 1861 1862	 1492669137	 439170678	 132158.
06:18:57 1862 1863	 1492669137	 604364838	 165195.
06:18:57 1863 1864	 1492669137	 736777953	 132413.
06:18:57 1864 1865	 1492669137	 897535669	 160757.
06:18:58 1865 1866	 1492669138	 62287932	 164753.
06:18:58 1866 1867	 1492669138	 194391059	 132103.
06:18:58 1867 1868	 1492669138	 359373440	 164982.
06:18:58 1868 1869	 1492669138	 492063546	 132690.
06:18:58 1869 1870	 1492669138	 656802690	 164739.
06:18:58 1870 1871	 1492669138	 788979887	 132178.
06:18:58 1871 1872	 1492669138	 950083561	 161103.
06:18:59 1872 1873	 1492669139	 114819019	 164736.
06:18:59 1873 1874	 1492669139	 247263476	 132444.
06:18:59 1874 1875	 1492669139	 411739163	 164476.
06:18:59 1875 1876	 1492669139	 544058081	 132319.
06:18:59 1876 1877	 1492669139	 701854983	 157797.
06:18:59 1877 1878	 1492669139	 866675537	 164820.
06:18:59 1878 1879	 1492669139	 998989607	 132314.
06:19:00 1879 1880	 1492669140	 164194767	 165205.
06:19:00 1880 1881	 1492669140	 325095679	 160901.
06:19:00 1881 1882	 1492669140	 457383254	 132288.
06:19:00 1882 1883	 1492669140	 622443768	 165061.
06:19:00 1883 1884	 1492669140	 783237436	 160793.
06:19:00 1884 1885	 1492669140	 915433560	 132196.
06:19:01 1885 1886	 1492669141	 80530273	 165097.
06:19:01 1886 1887	 1492669141	 241339050	 160809.
06:19:01 1887 1888	 1492669141	 373575948	 132237.
06:19:01 1888 1889	 1492669141	 538692461	 165116.
06:19:01 1889 1890	 1492669141	 699488328	 160796.
06:19:01 1890 1891	 1492669141	 835753011	 136265.
06:19:01 1891 1892	 1492669141	 997065099	 161312.
06:19:02 1892 1893	 1492669142	 157901484	 160836.
06:19:02 1893 1894	 1492669142	 294314884	 136414.
06:19:02 1894 1895	 1492669142	 455014494	 160699.
06:19:02 1895 1896	 1492669142	 619780787	 164767.
06:19:02 1896 1897	 1492669142	 752063669	 132282.
06:19:02 1897 1898	 1492669142	 913024187	 160961.
06:19:03 1898 1899	 1492669143	 78158440	 165134.
06:19:03 1899 1900	 1492669143	 239269555	 161111.
06:19:03 1900 1901	 1492669143	 371640656	 132371.
06:19:03 1901 1902	 1492669143	 536825985	 165186.
06:19:03 1902 1903	 1492669143	 697666222	 160840.
06:19:03 1903 1904	 1492669143	 830033228	 132367.
06:19:03 1904 1905	 1492669143	 991137386	 161104.
06:19:04 1905 1906	 1492669144	 156453320	 165316.
06:19:04 1906 1907	 1492669144	 317496372	 161043.
06:19:04 1907 1908	 1492669144	 453885580	 136389.
06:19:04 1908 1909	 1492669144	 615021094	 161136.
06:19:04 1909 1910	 1492669144	 776133565	 161112.
06:19:04 1910 1911	 1492669144	 912463163	 136330.
06:19:05 1911 1912	 1492669145	 74161753	 161698.
06:19:05 1912 1913	 1492669145	 231081003	 156920.
06:19:05 1913 1914	 1492669145	 396205219	 165124.
06:19:05 1914 1915	 1492669145	 528847090	 132642.
06:19:05 1915 1916	 1492669145	 689665942	 160819.
06:19:05 1916 1917	 1492669145	 854585048	 164919.
06:19:05 1917 1918	 1492669145	 986594836	 132010.
06:19:06 1918 1919	 1492669146	 147082550	 160487.
06:19:06 1919 1920	 1492669146	 311644836	 164563.
06:19:06 1920 1921	 1492669146	 443534509	 131889.
06:19:06 1921 1922	 1492669146	 604577858	 161044.
06:19:06 1922 1923	 1492669146	 740422530	 135844.
06:19:06 1923 1924	 1492669146	 900989695	 160567.
06:19:07 1924 1925	 1492669147	 61785974	 160797.
06:19:07 1925 1926	 1492669147	 193788118	 132002.
06:19:07 1926 1927	 1492669147	 358739297	 164951.
06:19:07 1927 1928	 1492669147	 490795456	 132056.
06:19:07 1928 1929	 1492669147	 655549368	 164754.
06:19:07 1929 1930	 1492669147	 787766218	 132217.
06:19:07 1930 1931	 1492669147	 952284244	 164518.
06:19:08 1931 1932	 1492669148	 112963437	 160679.
06:19:08 1932 1933	 1492669148	 245175453	 132212.
06:19:08 1933 1934	 1492669148	 409997581	 164822.
06:19:08 1934 1935	 1492669148	 541943677	 131946.
06:19:08 1935 1936	 1492669148	 707082478	 165139.
06:19:08 1936 1937	 1492669148	 868076826	 160995.
06:19:08 1937 1938	 1492669149	 548903	 132472.
06:19:09 1938 1939	 1492669149	 165836746	 165287.
06:19:09 1939 1940	 1492669149	 326686548	 160850.
06:19:09 1940 1941	 1492669149	 459120139	 132434.
06:19:09 1941 1942	 1492669149	 624276272	 165156.
06:19:09 1942 1943	 1492669149	 785296391	 161020.
06:19:09 1943 1944	 1492669149	 946327760	 161031.
06:19:10 1944 1945	 1492669150	 82757675	 136430.
06:19:10 1945 1946	 1492669150	 243774481	 161017.
06:19:10 1946 1947	 1492669150	 404542773	 160768.
06:19:10 1947 1948	 1492669150	 540769943	 136228.
06:19:10 1948 1949	 1492669150	 701741703	 160971.
06:19:10 1949 1950	 1492669150	 862548106	 160807.
06:19:10 1950 1951	 1492669150	 998859112	 136311.
06:19:11 1951 1952	 1492669151	 159678203	 160819.
06:19:11 1952 1953	 1492669151	 320454251	 160776.
06:19:11 1953 1954	 1492669151	 456819542	 136365.
06:19:11 1954 1955	 1492669151	 617915125	 161096.
06:19:11 1955 1956	 1492669151	 782968203	 165053.
06:19:11 1956 1957	 1492669151	 915328200	 132360.
06:19:12 1957 1958	 1492669152	 76548519	 161220.
06:19:12 1958 1959	 1492669152	 241459134	 164911.
06:19:12 1959 1960	 1492669152	 373491833	 132033.
06:19:12 1960 1961	 1492669152	 534010030	 160518.
06:19:12 1961 1962	 1492669152	 670220688	 136210.
06:19:12 1962 1963	 1492669152	 831289285	 161069.
06:19:12 1963 1964	 1492669152	 967664349	 136375.
