07:27:26    0 Step	 time(s)	 time(ns)	 delta(ms)
07:27:26    0 1	 1492327646	 693135322	 956.
07:27:26    1 2	 1492327646	 854284978	 161150.
07:27:26    2 3	 1492327646	 991466381	 137181.
07:27:27    3 4	 1492327647	 153351353	 161885.
07:27:27    4 5	 1492327647	 314850556	 161499.
07:27:27    5 6	 1492327647	 480344018	 165494.
07:27:27    6 7	 1492327647	 613406973	 133063.
07:27:27    7 8	 1492327647	 779256779	 165850.
07:27:27    8 9	 1492327647	 940658779	 161402.
07:27:28    9 10	 1492327648	 106373723	 165715.
07:27:28   10 11	 1492327648	 239347420	 132973.
07:27:28   11 12	 1492327648	 404656808	 165310.
07:27:28   12 13	 1492327648	 566089247	 161432.
07:27:28   13 14	 1492327648	 699034328	 132945.
07:27:28   14 15	 1492327648	 864629464	 165595.
07:27:29   15 16	 1492327649	 26212203	 161583.
07:27:29   16 17	 1492327649	 191959577	 165747.
07:27:29   17 18	 1492327649	 324779333	 132820.
07:27:29   18 19	 1492327649	 490161611	 165382.
07:27:29   19 20	 1492327649	 651616613	 161455.
07:27:29   20 21	 1492327649	 817804762	 166189.
07:27:29   21 22	 1492327649	 950495188	 132690.
07:27:30   22 23	 1492327650	 112467124	 161972.
07:27:30   23 24	 1492327650	 278111327	 165644.
07:27:30   24 25	 1492327650	 439768119	 161657.
07:27:30   25 26	 1492327650	 576484341	 136716.
07:27:30   26 27	 1492327650	 737656302	 161172.
07:27:30   27 28	 1492327650	 903255874	 165600.
07:27:31   28 29	 1492327651	 36064746	 132809.
07:27:31   29 30	 1492327651	 197482956	 161418.
07:27:31   30 31	 1492327651	 363078605	 165595.
07:27:31   31 32	 1492327651	 528939721	 165861.
07:27:31   32 33	 1492327651	 661712892	 132774.
07:27:31   33 34	 1492327651	 823240705	 161527.
07:27:31   34 35	 1492327651	 989778463	 166538.
07:27:32   35 36	 1492327652	 147327490	 157549.
07:27:32   36 37	 1492327652	 280250083	 132923.
07:27:32   37 38	 1492327652	 445598200	 165348.
07:27:32   38 39	 1492327652	 607657814	 162060.
07:27:32   39 40	 1492327652	 773183931	 165526.
07:27:32   40 41	 1492327652	 906558744	 133375.
07:27:33   41 42	 1492327653	 72270094	 165711.
07:27:33   42 43	 1492327653	 234189465	 161919.
07:27:33   43 44	 1492327653	 400078649	 165889.
07:27:33   44 45	 1492327653	 561814616	 161736.
07:27:33   45 46	 1492327653	 694785926	 132972.
07:27:33   46 47	 1492327653	 860779494	 165993.
07:27:34   47 48	 1492327654	 26396046	 165617.
07:27:34   48 49	 1492327654	 188511041	 162115.
07:27:34   49 50	 1492327654	 354359232	 165848.
07:27:34   50 51	 1492327654	 487284704	 132925.
07:27:34   51 52	 1492327654	 648794483	 161510.
07:27:34   52 53	 1492327654	 814357648	 165563.
07:27:34   53 54	 1492327654	 947144855	 132788.
07:27:35   54 55	 1492327655	 112865271	 165720.
07:27:35   55 56	 1492327655	 274442020	 161577.
07:27:35   56 57	 1492327655	 439895884	 165454.
07:27:35   57 58	 1492327655	 572732816	 132837.
07:27:35   58 59	 1492327655	 738240131	 165507.
07:27:35   59 60	 1492327655	 900297941	 162058.
07:27:36   60 61	 1492327656	 66120426	 165822.
07:27:36   61 62	 1492327656	 199353228	 133233.
07:27:36   62 63	 1492327656	 360447554	 161094.
07:27:36   63 64	 1492327656	 526162074	 165715.
07:27:36   64 65	 1492327656	 663364525	 137202.
07:27:36   65 66	 1492327656	 825271906	 161908.
07:27:36   66 67	 1492327656	 986763127	 161491.
07:27:37   67 68	 1492327657	 152547672	 165784.
07:27:37   68 69	 1492327657	 285433314	 132886.
07:27:37   69 70	 1492327657	 451092707	 165659.
07:27:37   70 71	 1492327657	 612463335	 161371.
07:27:37   71 72	 1492327657	 778468735	 166006.
07:27:37   72 73	 1492327657	 911306555	 132837.
07:27:38   73 74	 1492327658	 72667959	 161362.
07:27:38   74 75	 1492327658	 238172209	 165504.
07:27:38   75 76	 1492327658	 403684998	 165513.
07:27:38   76 77	 1492327658	 536322885	 132638.
07:27:38   77 78	 1492327658	 697690683	 161367.
07:27:38   78 79	 1492327658	 864075716	 166386.
07:27:39   79 80	 1492327659	 25212017	 161136.
07:27:39   80 81	 1492327659	 159079221	 133867.
07:27:39   81 82	 1492327659	 324911546	 165832.
07:27:39   82 83	 1492327659	 486619172	 161708.
07:27:39   83 84	 1492327659	 652454523	 165835.
07:27:39   84 85	 1492327659	 785195809	 132742.
07:27:39   85 86	 1492327659	 946821829	 161626.
07:27:40   86 87	 1492327660	 112937082	 166115.
07:27:40   87 88	 1492327660	 274702653	 161766.
07:27:40   88 89	 1492327660	 440882936	 166180.
07:27:40   89 90	 1492327660	 602609784	 161727.
07:27:40   90 91	 1492327660	 739478851	 136869.
07:27:40   91 92	 1492327660	 901142759	 161664.
07:27:41   92 93	 1492327661	 62851579	 161708.
07:27:41   93 94	 1492327661	 228717917	 165867.
07:27:41   94 95	 1492327661	 390486352	 161768.
07:27:41   95 96	 1492327661	 556340209	 165854.
07:27:41   96 97	 1492327661	 689206562	 132866.
07:27:41   97 98	 1492327661	 850978433	 161772.
07:27:42   98 99	 1492327662	 16675400	 165697.
07:27:42   99 100	 1492327662	 178353751	 161679.
07:27:42  100 101	 1492327662	 344290692	 165936.
07:27:42  101 102	 1492327662	 505826707	 161536.
07:27:42  102 103	 1492327662	 667482760	 161657.
07:27:42  103 104	 1492327662	 833116154	 165633.
07:27:42  104 105	 1492327662	 994661764	 161546.
07:27:43  105 106	 1492327663	 156564629	 161902.
07:27:43  106 107	 1492327663	 289709738	 133146.
07:27:43  107 108	 1492327663	 455318067	 165608.
07:27:43  108 109	 1492327663	 617022904	 161705.
07:27:43  109 110	 1492327663	 782648362	 165625.
07:27:43  110 111	 1492327663	 944391236	 161743.
07:27:44  111 112	 1492327664	 81424019	 137033.
07:27:44  112 113	 1492327664	 242229480	 160805.
07:27:44  113 114	 1492327664	 407865795	 165636.
07:27:44  114 115	 1492327664	 540457500	 132592.
07:27:44  115 116	 1492327664	 701645578	 161188.
07:27:44  116 117	 1492327664	 867081284	 165436.
07:27:44  117 118	 1492327665	 374645	 133293.
07:27:45  118 119	 1492327665	 165829931	 165456.
07:27:45  119 120	 1492327665	 327472232	 161642.
07:27:45  120 121	 1492327665	 464019775	 136547.
07:27:45  121 122	 1492327665	 625381171	 161362.
07:27:45  122 123	 1492327665	 791277049	 165896.
07:27:45  123 124	 1492327665	 952872605	 161595.
07:27:46  124 125	 1492327666	 89566956	 136695.
07:27:46  125 126	 1492327666	 251428440	 161861.
07:27:46  126 127	 1492327666	 412968535	 161540.
07:27:46  127 128	 1492327666	 549468347	 136500.
07:27:46  128 129	 1492327666	 710762071	 161294.
07:27:46  129 130	 1492327666	 875884166	 165122.
07:27:47  130 131	 1492327667	 8673041	 132789.
07:27:47  131 132	 1492327667	 173928826	 165256.
07:27:47  132 133	 1492327667	 335334911	 161406.
07:27:47  133 134	 1492327667	 468160948	 132826.
07:27:47  134 135	 1492327667	 633912870	 165752.
07:27:47  135 136	 1492327667	 795425421	 161512.
07:27:47  136 137	 1492327667	 960510771	 165085.
07:27:48  137 138	 1492327668	 93552687	 133042.
07:27:48  138 139	 1492327668	 259327184	 165775.
07:27:48  139 140	 1492327668	 420724458	 161397.
07:27:48  140 141	 1492327668	 553639076	 132915.
07:27:48  141 142	 1492327668	 719076293	 165437.
07:27:48  142 143	 1492327668	 880678509	 161602.
07:27:49  143 144	 1492327669	 46192764	 165527.
07:27:49  144 145	 1492327669	 179134550	 132929.
07:27:49  145 146	 1492327669	 340242405	 161108.
07:27:49  146 147	 1492327669	 505802309	 165560.
07:27:49  147 148	 1492327669	 667090100	 161288.
07:27:49  148 149	 1492327669	 803609692	 136519.
07:27:49  149 150	 1492327669	 965232973	 161624.
07:27:50  150 151	 1492327670	 130593309	 165360.
07:27:50  151 152	 1492327670	 263597352	 133004.
07:27:50  152 153	 1492327670	 425130127	 161533.
07:27:50  153 154	 1492327670	 591257781	 166128.
07:27:50  154 155	 1492327670	 752633153	 161375.
07:27:50  155 156	 1492327670	 918016821	 165384.
07:27:51  156 157	 1492327671	 50726382	 132709.
07:27:51  157 158	 1492327671	 212028592	 161302.
07:27:51  158 159	 1492327671	 377772375	 165744.
07:27:51  159 160	 1492327671	 514967983	 137196.
07:27:51  160 161	 1492327671	 676326318	 161358.
07:27:51  161 162	 1492327671	 837580796	 161255.
07:27:52  162 163	 1492327672	 3573755	 165993.
07:27:52  163 164	 1492327672	 136645690	 133071.
07:27:52  164 165	 1492327672	 302870075	 166225.
07:27:52  165 166	 1492327672	 464128320	 161258.
07:27:52  166 167	 1492327672	 629668103	 165540.
07:27:52  167 168	 1492327672	 762702876	 133035.
07:27:52  168 169	 1492327672	 924033577	 161331.
07:27:53  169 170	 1492327673	 89404829	 165371.
07:27:53  170 171	 1492327673	 222139419	 132734.
07:27:53  171 172	 1492327673	 387751283	 165612.
07:27:53  172 173	 1492327673	 549470577	 161719.
07:27:53  173 174	 1492327673	 714733163	 165263.
07:27:53  174 175	 1492327673	 847668518	 132935.
07:27:54  175 176	 1492327674	 8919338	 161251.
07:27:54  176 177	 1492327674	 171354770	 162436.
07:27:54  177 178	 1492327674	 333351004	 161996.
07:27:54  178 179	 1492327674	 499208140	 165857.
07:27:54  179 180	 1492327674	 632142692	 132934.
07:27:54  180 181	 1492327674	 797814154	 165672.
07:27:54  181 182	 1492327674	 959819122	 162005.
07:27:55  182 183	 1492327675	 125460609	 165641.
07:27:55  183 184	 1492327675	 258493210	 133033.
07:27:55  184 185	 1492327675	 424053097	 165560.
07:27:55  185 186	 1492327675	 585756448	 161703.
07:27:55  186 187	 1492327675	 747569009	 161813.
07:27:55  187 188	 1492327675	 885118805	 137550.
07:27:56  188 189	 1492327676	 47191711	 162072.
07:27:56  189 190	 1492327676	 213484789	 166294.
07:27:56  190 191	 1492327676	 375281049	 161796.
07:27:56  191 192	 1492327676	 541153712	 165872.
07:27:56  192 193	 1492327676	 702847739	 161695.
07:27:56  193 194	 1492327676	 839821434	 136973.
07:27:56  194 195	 1492327677	 1300602	 161480.
07:27:57  195 196	 1492327677	 166855199	 165554.
07:27:57  196 197	 1492327677	 328330337	 161475.
07:27:57  197 198	 1492327677	 461212702	 132882.
07:27:57  198 199	 1492327677	 626607522	 165395.
07:27:57  199 200	 1492327677	 788344084	 161737.
07:27:57  200 201	 1492327677	 954434105	 166090.
07:27:58  201 202	 1492327678	 116029303	 161595.
07:27:58  202 203	 1492327678	 253088080	 137059.
07:27:58  203 204	 1492327678	 414380166	 161292.
07:27:58  204 205	 1492327678	 575963280	 161583.
07:27:58  205 206	 1492327678	 712696908	 136734.
07:27:58  206 207	 1492327678	 874498743	 161802.
07:27:59  207 208	 1492327679	 40170323	 165671.
07:27:59  208 209	 1492327679	 201115946	 160946.
07:27:59  209 210	 1492327679	 338448354	 137332.
07:27:59  210 211	 1492327679	 500067931	 161620.
07:27:59  211 212	 1492327679	 661481770	 161413.
07:27:59  212 213	 1492327679	 826863511	 165382.
07:27:59  213 214	 1492327679	 960059633	 133196.
07:28:00  214 215	 1492327680	 121638740	 161580.
07:28:00  215 216	 1492327680	 287063230	 165424.
07:28:00  216 217	 1492327680	 448756600	 161693.
07:28:00  217 218	 1492327680	 614903063	 166147.
07:28:00  218 219	 1492327680	 747923574	 133020.
07:28:00  219 220	 1492327680	 913254506	 165331.
07:28:01  220 221	 1492327681	 74460477	 161206.
07:28:01  221 222	 1492327681	 235973133	 161513.
07:28:01  222 223	 1492327681	 401927766	 165955.
07:28:01  223 224	 1492327681	 563623170	 161695.
07:28:01  224 225	 1492327681	 696667622	 133044.
07:28:01  225 226	 1492327681	 862586594	 165920.
07:28:02  226 227	 1492327682	 24424997	 161838.
07:28:02  227 228	 1492327682	 190241164	 165816.
07:28:02  228 229	 1492327682	 351474382	 161233.
07:28:02  229 230	 1492327682	 512970489	 161496.
07:28:02  230 231	 1492327682	 645760171	 132790.
07:28:02  231 232	 1492327682	 811015925	 165256.
07:28:02  232 233	 1492327682	 972277943	 161262.
07:28:03  233 234	 1492327683	 137999019	 165721.
07:28:03  234 235	 1492327683	 299565242	 161566.
07:28:03  235 236	 1492327683	 461351569	 161786.
07:28:03  236 237	 1492327683	 598366284	 137015.
07:28:03  237 238	 1492327683	 759905902	 161540.
07:28:03  238 239	 1492327683	 921444045	 161538.
07:28:04  239 240	 1492327684	 86898459	 165454.
07:28:04  240 241	 1492327684	 248733934	 161836.
07:28:04  241 242	 1492327684	 414538770	 165805.
07:28:04  242 243	 1492327684	 576186802	 161648.
07:28:04  243 244	 1492327684	 709002529	 132815.
07:28:04  244 245	 1492327684	 874123575	 165121.
07:28:05  245 246	 1492327685	 35691844	 161569.
07:28:05  246 247	 1492327685	 197609362	 161917.
07:28:05  247 248	 1492327685	 358946058	 161337.
07:28:05  248 249	 1492327685	 491647543	 132701.
07:28:05  249 250	 1492327685	 657049453	 165402.
07:28:05  250 251	 1492327685	 818801260	 161752.
07:28:05  251 252	 1492327685	 980241710	 161440.
07:28:06  252 253	 1492327686	 145620531	 165379.
07:28:06  253 254	 1492327686	 278322206	 132702.
07:28:06  254 255	 1492327686	 440201258	 161879.
07:28:06  255 256	 1492327686	 605915097	 165714.
07:28:06  256 257	 1492327686	 771628714	 165713.
07:28:06  257 258	 1492327686	 904464114	 132836.
07:28:07  258 259	 1492327687	 70415640	 165952.
07:28:07  259 260	 1492327687	 232062320	 161646.
07:28:07  260 261	 1492327687	 397805451	 165743.
07:28:07  261 262	 1492327687	 530832416	 133027.
07:28:07  262 263	 1492327687	 696743675	 165911.
07:28:07  263 264	 1492327687	 858455307	 161712.
07:28:08  264 265	 1492327688	 19958398	 161503.
07:28:08  265 266	 1492327688	 186111028	 166153.
07:28:08  266 267	 1492327688	 347745567	 161634.
07:28:08  267 268	 1492327688	 484972232	 137227.
07:28:08  268 269	 1492327688	 647010962	 162039.
07:28:08  269 270	 1492327688	 808430658	 161420.
07:28:08  270 271	 1492327688	 974432129	 166001.
07:28:09  271 272	 1492327689	 107373482	 132941.
07:28:09  272 273	 1492327689	 272834401	 165461.
07:28:09  273 274	 1492327689	 434459069	 161625.
07:28:09  274 275	 1492327689	 595793250	 161334.
07:28:09  275 276	 1492327689	 732651176	 136871.
07:28:09  276 277	 1492327689	 893928635	 161264.
07:28:10  277 278	 1492327690	 59459427	 165531.
07:28:10  278 279	 1492327690	 221469084	 162010.
07:28:10  279 280	 1492327690	 387127854	 165659.
07:28:10  280 281	 1492327690	 520438557	 133310.
07:28:10  281 282	 1492327690	 682818599	 162380.
07:28:10  282 283	 1492327690	 849000145	 166182.
07:28:11  283 284	 1492327691	 10960311	 161960.
07:28:11  284 285	 1492327691	 176914246	 165954.
07:28:11  285 286	 1492327691	 339057699	 162143.
07:28:11  286 287	 1492327691	 505176623	 166119.
07:28:11  287 288	 1492327691	 638171256	 132995.
07:28:11  288 289	 1492327691	 800351636	 162180.
07:28:11  289 290	 1492327691	 966751345	 166400.
07:28:12  290 291	 1492327692	 128713461	 161962.
07:28:12  291 292	 1492327692	 294506795	 165794.
07:28:12  292 293	 1492327692	 427343378	 132836.
07:28:12  293 294	 1492327692	 593372154	 166029.
07:28:12  294 295	 1492327692	 754824739	 161453.
07:28:12  295 296	 1492327692	 920598873	 165774.
07:28:13  296 297	 1492327693	 82197990	 161599.
07:28:13  297 298	 1492327693	 219242179	 137044.
07:28:13  298 299	 1492327693	 380607405	 161365.
07:28:13  299 300	 1492327693	 542294746	 161687.
07:28:13  300 301	 1492327693	 679066199	 136772.
07:28:13  301 302	 1492327693	 840204446	 161138.
07:28:14  302 303	 1492327694	 5805415	 165601.
07:28:14  303 304	 1492327694	 167219043	 161414.
07:28:14  304 305	 1492327694	 299981664	 132762.
07:28:14  305 306	 1492327694	 465890026	 165909.
07:28:14  306 307	 1492327694	 627444638	 161554.
07:28:14  307 308	 1492327694	 792634764	 165191.
07:28:14  308 309	 1492327694	 925895277	 133260.
07:28:15  309 310	 1492327695	 84124795	 158230.
07:28:15  310 311	 1492327695	 245328081	 161203.
07:28:15  311 312	 1492327695	 410872838	 165545.
07:28:15  312 313	 1492327695	 572335478	 161462.
07:28:15  313 314	 1492327695	 709187443	 136852.
07:28:15  314 315	 1492327695	 870968771	 161782.
07:28:16  315 316	 1492327696	 36850701	 165881.
07:28:16  316 317	 1492327696	 199102936	 162253.
07:28:16  317 318	 1492327696	 331778560	 132675.
07:28:16  318 319	 1492327696	 497456889	 165679.
07:28:16  319 320	 1492327696	 658963146	 161506.
07:28:16  320 321	 1492327696	 824843307	 165880.
07:28:16  321 322	 1492327696	 986607584	 161764.
07:28:17  322 323	 1492327697	 123827599	 137220.
07:28:17  323 324	 1492327697	 285392760	 161566.
07:28:17  324 325	 1492327697	 451355686	 165962.
07:28:17  325 326	 1492327697	 613473695	 162118.
07:28:17  326 327	 1492327697	 779391279	 165918.
07:28:17  327 328	 1492327697	 941173416	 161782.
07:28:18  328 329	 1492327698	 73838114	 132665.
07:28:18  329 330	 1492327698	 240291080	 166453.
07:28:18  330 331	 1492327698	 402135268	 161844.
07:28:18  331 332	 1492327698	 568138583	 166003.
07:28:18  332 333	 1492327698	 729950829	 161813.
07:28:18  333 334	 1492327698	 895904523	 165953.
07:28:19  334 335	 1492327699	 29021553	 133117.
07:28:19  335 336	 1492327699	 195070907	 166050.
07:28:19  336 337	 1492327699	 356948377	 161877.
07:28:19  337 338	 1492327699	 522865031	 165917.
07:28:19  338 339	 1492327699	 684204281	 161339.
07:28:19  339 340	 1492327699	 816624598	 132420.
07:28:19  340 341	 1492327699	 981999351	 165375.
07:28:20  341 342	 1492327700	 143135376	 161136.
07:28:20  342 343	 1492327700	 304468773	 161334.
07:28:20  343 344	 1492327700	 441062832	 136594.
07:28:20  344 345	 1492327700	 602341916	 161279.
07:28:20  345 346	 1492327700	 763461156	 161119.
07:28:20  346 347	 1492327700	 928776228	 165315.
07:28:21  347 348	 1492327701	 90089365	 161313.
07:28:21  348 349	 1492327701	 226548256	 136459.
07:28:21  349 350	 1492327701	 387767686	 161219.
07:28:21  350 351	 1492327701	 549113816	 161347.
07:28:21  351 352	 1492327701	 710067716	 160954.
07:28:21  352 353	 1492327701	 846577966	 136510.
07:28:21  353 354	 1492327702	 453942	 153876.
07:28:22  354 355	 1492327702	 165372710	 164918.
07:28:22  355 356	 1492327702	 326483122	 161111.
07:28:22  356 357	 1492327702	 459168960	 132686.
07:28:22  357 358	 1492327702	 624565727	 165397.
07:28:22  358 359	 1492327702	 785825299	 161259.
07:28:22  359 360	 1492327702	 951366164	 165541.
07:28:23  360 361	 1492327703	 84774309	 133408.
07:28:23  361 362	 1492327703	 250233136	 165459.
07:28:23  362 363	 1492327703	 411711671	 161479.
07:28:23  363 364	 1492327703	 577457437	 165745.
07:28:23  364 365	 1492327703	 710462650	 133005.
07:28:23  365 366	 1492327703	 872283415	 161821.
07:28:24  366 367	 1492327704	 37801175	 165518.
07:28:24  367 368	 1492327704	 199218041	 161417.
07:28:24  368 369	 1492327704	 336368765	 137151.
07:28:24  369 370	 1492327704	 497945181	 161576.
07:28:24  370 371	 1492327704	 664062816	 166118.
07:28:24  371 372	 1492327704	 825498895	 161436.
07:28:24  372 373	 1492327704	 958617565	 133118.
07:28:25  373 374	 1492327705	 124121982	 165505.
07:28:25  374 375	 1492327705	 285619526	 161497.
07:28:25  375 376	 1492327705	 451383535	 165764.
07:28:25  376 377	 1492327705	 584639959	 133257.
07:28:25  377 378	 1492327705	 750628159	 165988.
07:28:25  378 379	 1492327705	 912398811	 161771.
07:28:26  379 380	 1492327706	 78363756	 165965.
07:28:26  380 381	 1492327706	 240646158	 162282.
07:28:26  381 382	 1492327706	 377478219	 136832.
07:28:26  382 383	 1492327706	 539541470	 162063.
07:28:26  383 384	 1492327706	 705626138	 166085.
07:28:26  384 385	 1492327706	 867790066	 162164.
07:28:27  385 386	 1492327707	 34342954	 166553.
07:28:27  386 387	 1492327707	 196708064	 162365.
07:28:27  387 388	 1492327707	 362742106	 166034.
07:28:27  388 389	 1492327707	 524620046	 161878.
07:28:27  389 390	 1492327707	 661625754	 137005.
07:28:27  390 391	 1492327707	 823230277	 161605.
07:28:27  391 392	 1492327707	 989195414	 165965.
07:28:28  392 393	 1492327708	 150451089	 161256.
07:28:28  393 394	 1492327708	 287644539	 137193.
07:28:28  394 395	 1492327708	 449432935	 161789.
07:28:28  395 396	 1492327708	 615109447	 165676.
07:28:28  396 397	 1492327708	 747690014	 132581.
07:28:28  397 398	 1492327708	 909712132	 162022.
07:28:29  398 399	 1492327709	 75213593	 165501.
07:28:29  399 400	 1492327709	 236773554	 161560.
07:28:29  400 401	 1492327709	 402956595	 166183.
07:28:29  401 402	 1492327709	 536188941	 133233.
07:28:29  402 403	 1492327709	 702175962	 165987.
07:28:29  403 404	 1492327709	 864116783	 161941.
07:28:30  404 405	 1492327710	 29424482	 165307.
07:28:30  405 406	 1492327710	 191207330	 161783.
07:28:30  406 407	 1492327710	 324243814	 133037.
07:28:30  407 408	 1492327710	 489925280	 165681.
07:28:30  408 409	 1492327710	 651642369	 161717.
07:28:30  409 410	 1492327710	 817012481	 165370.
07:28:30  410 411	 1492327710	 950333395	 133321.
07:28:31  411 412	 1492327711	 116586273	 166253.
07:28:31  412 413	 1492327711	 277855888	 161270.
07:28:31  413 414	 1492327711	 438976857	 161121.
07:28:31  414 415	 1492327711	 575986612	 137009.
07:28:31  415 416	 1492327711	 737368675	 161382.
07:28:31  416 417	 1492327711	 902577944	 165210.
07:28:32  417 418	 1492327712	 35652048	 133074.
07:28:32  418 419	 1492327712	 201512590	 165860.
07:28:32  419 420	 1492327712	 362660419	 161148.
07:28:32  420 421	 1492327712	 499561127	 136901.
07:28:32  421 422	 1492327712	 661376232	 161815.
07:28:32  422 423	 1492327712	 827070281	 165694.
07:28:32  423 424	 1492327712	 989824941	 162755.
07:28:33  424 425	 1492327713	 147428200	 157603.
07:28:33  425 426	 1492327713	 313684859	 166257.
07:28:33  426 427	 1492327713	 443021521	 129336.
07:28:33  427 428	 1492327713	 609267472	 166246.
07:28:33  428 429	 1492327713	 771059122	 161792.
07:28:33  429 430	 1492327713	 937081508	 166022.
07:28:34  430 431	 1492327714	 99034955	 161954.
07:28:34  431 432	 1492327714	 264837999	 165803.
07:28:34  432 433	 1492327714	 398052546	 133215.
07:28:34  433 434	 1492327714	 563909384	 165856.
07:28:34  434 435	 1492327714	 725505928	 161597.
07:28:34  435 436	 1492327714	 891262268	 165756.
07:28:35  436 437	 1492327715	 24205769	 132944.
07:28:35  437 438	 1492327715	 189724181	 165518.
07:28:35  438 439	 1492327715	 351178442	 161454.
07:28:35  439 440	 1492327715	 516819731	 165642.
07:28:35  440 441	 1492327715	 649771305	 132951.
07:28:35  441 442	 1492327715	 815555826	 165785.
07:28:35  442 443	 1492327715	 976826359	 161270.
07:28:36  443 444	 1492327716	 113511635	 136685.
07:28:36  444 445	 1492327716	 274912468	 161401.
07:28:36  445 446	 1492327716	 440485474	 165573.
07:28:36  446 447	 1492327716	 573446723	 132961.
07:28:36  447 448	 1492327716	 739556773	 166111.
07:28:36  448 449	 1492327716	 901139054	 161582.
07:28:37  449 450	 1492327717	 66758102	 165619.
07:28:37  450 451	 1492327717	 228414725	 161656.
07:28:37  451 452	 1492327717	 365093852	 136680.
07:28:37  452 453	 1492327717	 526787859	 161694.
07:28:37  453 454	 1492327717	 692638194	 165850.
07:28:37  454 455	 1492327717	 853982639	 161344.
07:28:37  455 456	 1492327717	 986733137	 132751.
07:28:38  456 457	 1492327718	 152887037	 166154.
07:28:38  457 458	 1492327718	 314722320	 161835.
07:28:38  458 459	 1492327718	 480361161	 165639.
07:28:38  459 460	 1492327718	 613000122	 132639.
07:28:38  460 461	 1492327718	 778368500	 165368.
07:28:38  461 462	 1492327718	 940353224	 161985.
07:28:39  462 463	 1492327719	 77334172	 136981.
07:28:39  463 464	 1492327719	 239110893	 161777.
07:28:39  464 465	 1492327719	 400673409	 161562.
07:28:39  465 466	 1492327719	 566440206	 165767.
07:28:39  466 467	 1492327719	 699525789	 133085.
07:28:39  467 468	 1492327719	 864344704	 164819.
07:28:40  468 469	 1492327720	 25774708	 161430.
07:28:40  469 470	 1492327720	 162463884	 136690.
07:28:40  470 471	 1492327720	 323935350	 161471.
07:28:40  471 472	 1492327720	 485357019	 161422.
07:28:40  472 473	 1492327720	 651357764	 166001.
07:28:40  473 474	 1492327720	 788422266	 137064.
07:28:40  474 475	 1492327720	 950135525	 161713.
07:28:41  475 476	 1492327721	 111842108	 161707.
07:28:41  476 477	 1492327721	 277295227	 165453.
07:28:41  477 478	 1492327721	 410598082	 133303.
07:28:41  478 479	 1492327721	 576631574	 166033.
07:28:41  479 480	 1492327721	 738212225	 161581.
07:28:41  480 481	 1492327721	 899824662	 161612.
07:28:42  481 482	 1492327722	 65919422	 166095.
07:28:42  482 483	 1492327722	 199028187	 133109.
07:28:42  483 484	 1492327722	 364560830	 165533.
07:28:42  484 485	 1492327722	 526176324	 161615.
07:28:42  485 486	 1492327722	 691778480	 165602.
07:28:42  486 487	 1492327722	 824377992	 132600.
07:28:42  487 488	 1492327722	 989676417	 165298.
07:28:43  488 489	 1492327723	 150919739	 161244.
07:28:43  489 490	 1492327723	 287460515	 136540.
07:28:43  490 491	 1492327723	 448782769	 161323.
07:28:43  491 492	 1492327723	 614313610	 165531.
07:28:43  492 493	 1492327723	 747098883	 132785.
07:28:43  493 494	 1492327723	 912648624	 165549.
07:28:44  494 495	 1492327724	 67202068	 154554.
07:28:44  495 496	 1492327724	 232629059	 165427.
07:28:44  496 497	 1492327724	 394228595	 161599.
07:28:44  497 498	 1492327724	 531312707	 137084.
07:28:44  498 499	 1492327724	 693293249	 161981.
07:28:44  499 500	 1492327724	 858897171	 165604.
07:28:45  500 501	 1492327725	 20695088	 161798.
07:28:45  501 502	 1492327725	 186407191	 165712.
07:28:45  502 503	 1492327725	 319563027	 133156.
07:28:45  503 504	 1492327725	 485335911	 165773.
07:28:45  504 505	 1492327725	 647091837	 161756.
07:28:45  505 506	 1492327725	 808806759	 161715.
07:28:45  506 507	 1492327725	 945888983	 137082.
07:28:46  507 508	 1492327726	 107364736	 161476.
07:28:46  508 509	 1492327726	 269263671	 161898.
07:28:46  509 510	 1492327726	 435270955	 166008.
07:28:46  510 511	 1492327726	 596418707	 161147.
07:28:46  511 512	 1492327726	 732999348	 136581.
07:28:46  512 513	 1492327726	 894055163	 161056.
07:28:47  513 514	 1492327727	 55475191	 161420.
07:28:47  514 515	 1492327727	 221436542	 165961.
07:28:47  515 516	 1492327727	 354398448	 132962.
07:28:47  516 517	 1492327727	 520288376	 165890.
07:28:47  517 518	 1492327727	 681788697	 161500.
07:28:47  518 519	 1492327727	 843091981	 161304.
07:28:47  519 520	 1492327727	 979984059	 136892.
07:28:48  520 521	 1492327728	 141697858	 161714.
07:28:48  521 522	 1492327728	 308152761	 166455.
07:28:48  522 523	 1492327728	 469950900	 161798.
07:28:48  523 524	 1492327728	 636040634	 166089.
07:28:48  524 525	 1492327728	 797874432	 161834.
07:28:48  525 526	 1492327728	 935139539	 137265.
07:28:49  526 527	 1492327729	 97153156	 162014.
07:28:49  527 528	 1492327729	 259256760	 162103.
07:28:49  528 529	 1492327729	 425150833	 165895.
07:28:49  529 530	 1492327729	 587227059	 162076.
07:28:49  530 531	 1492327729	 753296891	 166070.
07:28:49  531 532	 1492327729	 915067418	 161770.
07:28:50  532 533	 1492327730	 77029290	 161962.
07:28:50  533 534	 1492327730	 214295437	 137266.
07:28:50  534 535	 1492327730	 375979284	 161684.
07:28:50  535 536	 1492327730	 541784041	 165805.
07:28:50  536 537	 1492327730	 703757527	 161973.
07:28:50  537 538	 1492327730	 869474869	 165718.
07:28:51  538 539	 1492327731	 31432326	 161957.
07:28:51  539 540	 1492327731	 197538342	 166106.
07:28:51  540 541	 1492327731	 330499780	 132962.
07:28:51  541 542	 1492327731	 496510189	 166010.
07:28:51  542 543	 1492327731	 658114884	 161605.
07:28:51  543 544	 1492327731	 823408398	 165293.
07:28:51  544 545	 1492327731	 985704849	 162297.
07:28:52  545 546	 1492327732	 118537672	 132832.
07:28:52  546 547	 1492327732	 284238017	 165701.
07:28:52  547 548	 1492327732	 445693890	 161456.
07:28:52  548 549	 1492327732	 611298900	 165605.
07:28:52  549 550	 1492327732	 744560551	 133261.
07:28:52  550 551	 1492327732	 905844713	 161285.
07:28:53  551 552	 1492327733	 72034481	 166189.
07:28:53  552 553	 1492327733	 233690129	 161656.
07:28:53  553 554	 1492327733	 370794876	 137105.
07:28:53  554 555	 1492327733	 532791666	 161996.
07:28:53  555 556	 1492327733	 694463163	 161672.
07:28:53  556 557	 1492327733	 859847706	 165385.
07:28:54  557 558	 1492327734	 21137110	 161289.
07:28:54  558 559	 1492327734	 157933871	 136797.
07:28:54  559 560	 1492327734	 319352270	 161418.
07:28:54  560 561	 1492327734	 485034538	 165682.
07:28:54  561 562	 1492327734	 646689422	 161655.
07:28:54  562 563	 1492327734	 783513387	 136824.
07:28:54  563 564	 1492327734	 944814716	 161301.
07:28:55  564 565	 1492327735	 110722743	 165909.
07:28:55  565 566	 1492327735	 272400475	 161677.
07:28:55  566 567	 1492327735	 433469852	 161070.
07:28:55  567 568	 1492327735	 570215653	 136745.
07:28:55  568 569	 1492327735	 731587733	 161373.
07:28:55  569 570	 1492327735	 893244914	 161657.
07:28:56  570 571	 1492327736	 59234178	 165989.
07:28:56  571 572	 1492327736	 220989242	 161755.
07:28:56  572 573	 1492327736	 357950601	 136961.
07:28:56  573 574	 1492327736	 519715440	 161765.
07:28:56  574 575	 1492327736	 685467538	 165752.
07:28:56  575 576	 1492327736	 847386157	 161919.
07:28:57  576 577	 1492327737	 13099057	 165713.
07:28:57  577 578	 1492327737	 174778534	 161679.
07:28:57  578 579	 1492327737	 336584104	 161806.
07:28:57  579 580	 1492327737	 473540283	 136956.
07:28:57  580 581	 1492327737	 635061011	 161521.
07:28:57  581 582	 1492327737	 801038748	 165978.
07:28:57  582 583	 1492327737	 962700817	 161662.
07:28:58  583 584	 1492327738	 124640738	 161940.
07:28:58  584 585	 1492327738	 290245078	 165604.
07:28:58  585 586	 1492327738	 422997275	 132752.
07:28:58  586 587	 1492327738	 588893727	 165897.
07:28:58  587 588	 1492327738	 750998076	 162104.
07:28:58  588 589	 1492327738	 917213592	 166215.
07:28:59  589 590	 1492327739	 79210906	 161998.
07:28:59  590 591	 1492327739	 241332466	 162121.
07:28:59  591 592	 1492327739	 378468449	 137136.
07:28:59  592 593	 1492327739	 540359105	 161891.
07:28:59  593 594	 1492327739	 705551291	 165192.
07:28:59  594 595	 1492327739	 867305005	 161754.
07:29:00  595 596	 1492327740	 4498283	 137193.
07:29:00  596 597	 1492327740	 165927491	 161429.
07:29:00  597 598	 1492327740	 327535486	 161608.
07:29:00  598 599	 1492327740	 493210557	 165675.
07:29:00  599 600	 1492327740	 654991003	 161781.
07:29:00  600 601	 1492327740	 821615416	 166624.
07:29:00  601 602	 1492327740	 978618168	 157003.
07:29:01  602 603	 1492327741	 139843710	 161225.
07:29:01  603 604	 1492327741	 272722930	 132880.
07:29:01  604 605	 1492327741	 438185563	 165462.
07:29:01  605 606	 1492327741	 599736285	 161551.
07:29:01  606 607	 1492327741	 765530158	 165794.
07:29:01  607 608	 1492327741	 927607217	 162077.
07:29:02  608 609	 1492327742	 93445595	 165838.
07:29:02  609 610	 1492327742	 254702401	 161257.
07:29:02  610 611	 1492327742	 387565655	 132863.
07:29:02  611 612	 1492327742	 553207864	 165643.
07:29:02  612 613	 1492327742	 714588077	 161380.
07:29:02  613 614	 1492327742	 875824478	 161236.
07:29:03  614 615	 1492327743	 41313807	 165490.
07:29:03  615 616	 1492327743	 174244471	 132930.
07:29:03  616 617	 1492327743	 335705783	 161461.
07:29:03  617 618	 1492327743	 501352017	 165647.
07:29:03  618 619	 1492327743	 662902750	 161551.
07:29:03  619 620	 1492327743	 828748511	 165845.
07:29:03  620 621	 1492327743	 990701285	 161953.
07:29:04  621 622	 1492327744	 152553205	 161852.
07:29:04  622 623	 1492327744	 318462574	 165909.
07:29:04  623 624	 1492327744	 451629644	 133167.
07:29:04  624 625	 1492327744	 613358177	 161729.
07:29:04  625 626	 1492327744	 779285825	 165928.
07:29:04  626 627	 1492327744	 941148123	 161862.
07:29:05  627 628	 1492327745	 106783280	 165635.
07:29:05  628 629	 1492327745	 268214446	 161431.
07:29:05  629 630	 1492327745	 430038181	 161824.
07:29:05  630 631	 1492327745	 595911506	 165873.
07:29:05  631 632	 1492327745	 728745916	 132835.
07:29:05  632 633	 1492327745	 889806990	 161061.
07:29:06  633 634	 1492327746	 55673441	 165866.
07:29:06  634 635	 1492327746	 216891772	 161219.
07:29:06  635 636	 1492327746	 353930548	 137038.
07:29:06  636 637	 1492327746	 512010762	 158081.
07:29:06  637 638	 1492327746	 677709547	 165698.
07:29:06  638 639	 1492327746	 840032741	 162324.
07:29:07  639 640	 1492327747	 5853140	 165820.
07:29:07  640 641	 1492327747	 167349919	 161497.
07:29:07  641 642	 1492327747	 300587224	 133237.
07:29:07  642 643	 1492327747	 465766654	 165179.
07:29:07  643 644	 1492327747	 631486955	 165721.
07:29:07  644 645	 1492327747	 793237179	 161750.
07:29:07  645 646	 1492327747	 926557613	 133320.
07:29:08  646 647	 1492327748	 92254642	 165697.
07:29:08  647 648	 1492327748	 253824611	 161570.
07:29:08  648 649	 1492327748	 419547586	 165723.
07:29:08  649 650	 1492327748	 581393673	 161846.
07:29:08  650 651	 1492327748	 718281211	 136888.
07:29:08  651 652	 1492327748	 879408158	 161127.
07:29:09  652 653	 1492327749	 41672228	 162264.
07:29:09  653 654	 1492327749	 207423232	 165751.
07:29:09  654 655	 1492327749	 340464712	 133041.
07:29:09  655 656	 1492327749	 506277952	 165814.
07:29:09  656 657	 1492327749	 667909799	 161632.
07:29:09  657 658	 1492327749	 833207644	 165297.
07:29:09  658 659	 1492327749	 966173963	 132967.
07:29:10  659 660	 1492327750	 128374838	 162201.
07:29:10  660 661	 1492327750	 294396264	 166021.
07:29:10  661 662	 1492327750	 455857560	 161461.
07:29:10  662 663	 1492327750	 621525694	 165668.
07:29:10  663 664	 1492327750	 754951669	 133426.
07:29:10  664 665	 1492327750	 920747676	 165796.
07:29:11  665 666	 1492327751	 82847280	 162100.
07:29:11  666 667	 1492327751	 244801178	 161954.
07:29:11  667 668	 1492327751	 410836029	 166035.
07:29:11  668 669	 1492327751	 547862806	 137027.
07:29:11  669 670	 1492327751	 709657053	 161794.
07:29:11  670 671	 1492327751	 871777317	 162120.
07:29:12  671 672	 1492327752	 38246446	 166469.
07:29:12  672 673	 1492327752	 196144930	 157899.
07:29:12  673 674	 1492327752	 358056524	 161911.
07:29:12  674 675	 1492327752	 524017261	 165961.
07:29:12  675 676	 1492327752	 685866802	 161850.
07:29:12  676 677	 1492327752	 822888061	 137021.
07:29:12  677 678	 1492327752	 984195778	 161307.
07:29:13  678 679	 1492327753	 150093257	 165898.
07:29:13  679 680	 1492327753	 283015579	 132922.
07:29:13  680 681	 1492327753	 448048022	 165033.
07:29:13  681 682	 1492327753	 609572032	 161524.
07:29:13  682 683	 1492327753	 770993492	 161421.
07:29:13  683 684	 1492327753	 907936024	 136943.
07:29:14  684 685	 1492327754	 69215464	 161279.
07:29:14  685 686	 1492327754	 234370838	 165156.
07:29:14  686 687	 1492327754	 366758246	 132387.
07:29:14  687 688	 1492327754	 528062246	 161304.
07:29:14  688 689	 1492327754	 693436988	 165375.
07:29:14  689 690	 1492327754	 826016779	 132580.
07:29:14  690 691	 1492327754	 991439209	 165422.
07:29:15  691 692	 1492327755	 152603210	 161164.
07:29:15  692 693	 1492327755	 318204783	 165602.
07:29:15  693 694	 1492327755	 450847311	 132642.
07:29:15  694 695	 1492327755	 616157049	 165310.
07:29:15  695 696	 1492327755	 777680107	 161523.
07:29:15  696 697	 1492327755	 914495406	 136815.
07:29:16  697 698	 1492327756	 75884522	 161389.
07:29:16  698 699	 1492327756	 237383713	 161499.
07:29:16  699 700	 1492327756	 374015078	 136632.
07:29:16  700 701	 1492327756	 535464025	 161449.
07:29:16  701 702	 1492327756	 701105264	 165641.
07:29:16  702 703	 1492327756	 867134451	 166029.
07:29:16  703 704	 1492327757	 98907	 132965.
07:29:17  704 705	 1492327757	 161808431	 161709.
07:29:17  705 706	 1492327757	 327431914	 165624.
07:29:17  706 707	 1492327757	 488950900	 161519.
07:29:17  707 708	 1492327757	 626276923	 137326.
07:29:17  708 709	 1492327757	 787857527	 161580.
07:29:17  709 710	 1492327757	 953589032	 165732.
07:29:18  710 711	 1492327758	 115597415	 162008.
07:29:18  711 712	 1492327758	 277679055	 162082.
07:29:18  712 713	 1492327758	 414851418	 137172.
07:29:18  713 714	 1492327758	 576398404	 161547.
07:29:18  714 715	 1492327758	 741898960	 165501.
07:29:18  715 716	 1492327758	 903879963	 161981.
07:29:19  716 717	 1492327759	 41115309	 137235.
07:29:19  717 718	 1492327759	 202737810	 161623.
07:29:19  718 719	 1492327759	 368704128	 165966.
07:29:19  719 720	 1492327759	 530780133	 162076.
07:29:19  720 721	 1492327759	 696316249	 165536.
07:29:19  721 722	 1492327759	 829388566	 133072.
07:29:19  722 723	 1492327759	 991092354	 161704.
07:29:20  723 724	 1492327760	 149794054	 158702.
07:29:20  724 725	 1492327760	 315187147	 165393.
07:29:20  725 726	 1492327760	 476768786	 161582.
07:29:20  726 727	 1492327760	 613470537	 136701.
07:29:20  727 728	 1492327760	 775004418	 161534.
07:29:20  728 729	 1492327760	 940522557	 165518.
07:29:21  729 730	 1492327761	 102195403	 161673.
07:29:21  730 731	 1492327761	 235227238	 133032.
07:29:21  731 732	 1492327761	 401279157	 166052.
07:29:21  732 733	 1492327761	 562906575	 161627.
07:29:21  733 734	 1492327761	 724656872	 161751.
07:29:21  734 735	 1492327761	 861634925	 136978.
07:29:22  735 736	 1492327762	 23332723	 161697.
07:29:22  736 737	 1492327762	 189181831	 165850.
07:29:22  737 738	 1492327762	 351228623	 162046.
07:29:22  738 739	 1492327762	 512909695	 161681.
07:29:22  739 740	 1492327762	 650116095	 137207.
07:29:22  740 741	 1492327762	 811545973	 161430.
07:29:22  741 742	 1492327762	 970402870	 158857.
07:29:23  742 743	 1492327763	 136498724	 166096.
07:29:23  743 744	 1492327763	 298147510	 161648.
07:29:23  744 745	 1492327763	 431084161	 132937.
07:29:23  745 746	 1492327763	 597039439	 165955.
07:29:23  746 747	 1492327763	 759072560	 162033.
07:29:23  747 748	 1492327763	 924494199	 165422.
07:29:24  748 749	 1492327764	 90494799	 166001.
07:29:24  749 750	 1492327764	 223351470	 132856.
07:29:24  750 751	 1492327764	 389494089	 166143.
07:29:24  751 752	 1492327764	 551231316	 161737.
07:29:24  752 753	 1492327764	 716707098	 165476.
07:29:24  753 754	 1492327764	 849453349	 132746.
07:29:25  754 755	 1492327765	 11176642	 161723.
07:29:25  755 756	 1492327765	 176470071	 165294.
07:29:25  756 757	 1492327765	 309465594	 132995.
07:29:25  757 758	 1492327765	 474871348	 165406.
07:29:25  758 759	 1492327765	 636644635	 161774.
07:29:25  759 760	 1492327765	 773318594	 136673.
07:29:25  760 761	 1492327765	 935077023	 161759.
07:29:26  761 762	 1492327766	 101132860	 166056.
07:29:26  762 763	 1492327766	 262913786	 161781.
07:29:26  763 764	 1492327766	 429106530	 166192.
07:29:26  764 765	 1492327766	 591249911	 162144.
07:29:26  765 766	 1492327766	 753448532	 162199.
07:29:26  766 767	 1492327766	 886358661	 132909.
07:29:27  767 768	 1492327767	 52310582	 165953.
07:29:27  768 769	 1492327767	 214017570	 161706.
07:29:27  769 770	 1492327767	 380133284	 166116.
07:29:27  770 771	 1492327767	 512959633	 132826.
07:29:27  771 772	 1492327767	 674039271	 161080.
07:29:27  772 773	 1492327767	 839681383	 165642.
07:29:27  773 774	 1492327767	 972891696	 133211.
07:29:28  774 775	 1492327768	 138275659	 165383.
07:29:28  775 776	 1492327768	 299864576	 161589.
07:29:28  776 777	 1492327768	 465483175	 165619.
07:29:28  777 778	 1492327768	 598630845	 133147.
07:29:28  778 779	 1492327768	 764342186	 165712.
07:29:28  779 780	 1492327768	 926007932	 161666.
07:29:29  780 781	 1492327769	 91700118	 165692.
07:29:29  781 782	 1492327769	 253343079	 161643.
07:29:29  782 783	 1492327769	 386351482	 133008.
07:29:29  783 784	 1492327769	 552124198	 165773.
07:29:29  784 785	 1492327769	 713627730	 161503.
07:29:29  785 786	 1492327769	 879378397	 165751.
07:29:30  786 787	 1492327770	 12419607	 133041.
07:29:30  787 788	 1492327770	 178062209	 165643.
07:29:30  788 789	 1492327770	 339694352	 161632.
07:29:30  789 790	 1492327770	 505598984	 165905.
07:29:30  790 791	 1492327770	 638514057	 132915.
07:29:30  791 792	 1492327770	 803732200	 165218.
07:29:30  792 793	 1492327770	 964614904	 160883.
07:29:31  793 794	 1492327771	 97116691	 132501.
07:29:31  794 795	 1492327771	 258407651	 161291.
07:29:31  795 796	 1492327771	 423515058	 165108.
07:29:31  796 797	 1492327771	 584954655	 161439.
07:29:31  797 798	 1492327771	 746220425	 161266.
07:29:31  798 799	 1492327771	 882811781	 136592.
07:29:32  799 800	 1492327772	 43946683	 161134.
07:29:32  800 801	 1492327772	 209085957	 165140.
07:29:32  801 802	 1492327772	 370077057	 160991.
07:29:32  802 803	 1492327772	 502761295	 132684.
07:29:32  803 804	 1492327772	 663657474	 160896.
07:29:32  804 805	 1492327772	 828606672	 164949.
07:29:32  805 806	 1492327772	 961002359	 132396.
07:29:33  806 807	 1492327773	 122184704	 161182.
07:29:33  807 808	 1492327773	 287345219	 165161.
07:29:33  808 809	 1492327773	 449057128	 161712.
07:29:33  809 810	 1492327773	 615059444	 166002.
07:29:33  810 811	 1492327773	 748023695	 132964.
07:29:33  811 812	 1492327773	 913430088	 165407.
07:29:34  812 813	 1492327774	 74786864	 161357.
07:29:34  813 814	 1492327774	 236781408	 161994.
07:29:34  814 815	 1492327774	 369885455	 133104.
07:29:34  815 816	 1492327774	 535728854	 165844.
07:29:34  816 817	 1492327774	 697458478	 161729.
07:29:34  817 818	 1492327774	 863167375	 165709.
07:29:34  818 819	 1492327774	 996176265	 133009.
07:29:35  819 820	 1492327775	 161620343	 165444.
07:29:35  820 821	 1492327775	 323217604	 161597.
07:29:35  821 822	 1492327775	 456070874	 132854.
07:29:35  822 823	 1492327775	 621241666	 165170.
07:29:35  823 824	 1492327775	 782177933	 160937.
07:29:35  824 825	 1492327775	 943083166	 160905.
07:29:36  825 826	 1492327776	 79991546	 136908.
07:29:36  826 827	 1492327776	 241788025	 161797.
07:29:36  827 828	 1492327776	 403025573	 161237.
07:29:36  828 829	 1492327776	 568480689	 165455.
07:29:36  829 830	 1492327776	 701214125	 132734.
07:29:36  830 831	 1492327776	 866476506	 165262.
07:29:37  831 832	 1492327777	 27957975	 161482.
07:29:37  832 833	 1492327777	 160844434	 132886.
07:29:37  833 834	 1492327777	 326576162	 165732.
07:29:37  834 835	 1492327777	 488460275	 161884.
07:29:37  835 836	 1492327777	 654097798	 165638.
07:29:37  836 837	 1492327777	 815701572	 161603.
07:29:37  837 838	 1492327777	 953071319	 137370.
07:29:38  838 839	 1492327778	 114800955	 161730.
07:29:38  839 840	 1492327778	 280352510	 165551.
07:29:38  840 841	 1492327778	 441779196	 161427.
07:29:38  841 842	 1492327778	 574773564	 132994.
07:29:38  842 843	 1492327778	 739966199	 165193.
07:29:38  843 844	 1492327778	 901931995	 161966.
07:29:39  844 845	 1492327779	 39031983	 137100.
07:29:39  845 846	 1492327779	 200686196	 161654.
07:29:39  846 847	 1492327779	 366451949	 165766.
07:29:39  847 848	 1492327779	 528162116	 161710.
07:29:39  848 849	 1492327779	 690287079	 162125.
07:29:39  849 850	 1492327779	 823457592	 133170.
07:29:39  850 851	 1492327779	 985065239	 161608.
07:29:40  851 852	 1492327780	 150246083	 165181.
07:29:40  852 853	 1492327780	 283284321	 133038.
07:29:40  853 854	 1492327780	 449024413	 165740.
07:29:40  854 855	 1492327780	 610457364	 161433.
07:29:40  855 856	 1492327780	 776114460	 165657.
07:29:40  856 857	 1492327780	 908844125	 132730.
07:29:41  857 858	 1492327781	 74634252	 165790.
07:29:41  858 859	 1492327781	 236294579	 161660.
07:29:41  859 860	 1492327781	 401802621	 165508.
07:29:41  860 861	 1492327781	 534940794	 133139.
07:29:41  861 862	 1492327781	 696779356	 161838.
07:29:41  862 863	 1492327781	 862650305	 165871.
07:29:42  863 864	 1492327782	 24354877	 161705.
07:29:42  864 865	 1492327782	 190058177	 165703.
07:29:42  865 866	 1492327782	 323209458	 133151.
07:29:42  866 867	 1492327782	 489270709	 166061.
07:29:42  867 868	 1492327782	 651226347	 161956.
07:29:42  868 869	 1492327782	 812532465	 161306.
07:29:42  869 870	 1492327782	 949093269	 136561.
07:29:43  870 871	 1492327783	 111191794	 162099.
07:29:43  871 872	 1492327783	 276318510	 165126.
07:29:43  872 873	 1492327783	 437764403	 161446.
07:29:43  873 874	 1492327783	 574724356	 136960.
07:29:43  874 875	 1492327783	 736033724	 161309.
07:29:43  875 876	 1492327783	 897511969	 161479.
07:29:44  876 877	 1492327784	 63524376	 166012.
07:29:44  877 878	 1492327784	 196326206	 132802.
07:29:44  878 879	 1492327784	 361899279	 165573.
07:29:44  879 880	 1492327784	 523449763	 161551.
07:29:44  880 881	 1492327784	 688993347	 165543.
07:29:44  881 882	 1492327784	 821796381	 132803.
07:29:44  882 883	 1492327784	 987671430	 165875.
07:29:45  883 884	 1492327785	 149456113	 161785.
07:29:45  884 885	 1492327785	 315289949	 165834.
07:29:45  885 886	 1492327785	 448073476	 132783.
07:29:45  886 887	 1492327785	 613692805	 165620.
07:29:45  887 888	 1492327785	 775094148	 161401.
07:29:45  888 889	 1492327785	 907815817	 132722.
07:29:46  889 890	 1492327786	 73493156	 165677.
07:29:46  890 891	 1492327786	 235378249	 161885.
07:29:46  891 892	 1492327786	 401020116	 165642.
07:29:46  892 893	 1492327786	 563016671	 161996.
07:29:46  893 894	 1492327786	 700146483	 137130.
07:29:46  894 895	 1492327786	 861559751	 161414.
07:29:47  895 896	 1492327787	 27287960	 165728.
07:29:47  896 897	 1492327787	 188987035	 161699.
07:29:47  897 898	 1492327787	 322030971	 133044.
07:29:47  898 899	 1492327787	 487750400	 165719.
07:29:47  899 900	 1492327787	 649249435	 161499.
07:29:47  900 901	 1492327787	 786184758	 136936.
07:29:47  901 902	 1492327787	 947594925	 161410.
07:29:48  902 903	 1492327788	 113233740	 165639.
07:29:48  903 904	 1492327788	 278705868	 165472.
07:29:48  904 905	 1492327788	 411612105	 132906.
07:29:48  905 906	 1492327788	 577730800	 166119.
07:29:48  906 907	 1492327788	 739786099	 162055.
07:29:48  907 908	 1492327788	 905867589	 166082.
07:29:49  908 909	 1492327789	 68064967	 162197.
07:29:49  909 910	 1492327789	 234144646	 166079.
07:29:49  910 911	 1492327789	 367309598	 133165.
07:29:49  911 912	 1492327789	 533091597	 165782.
07:29:49  912 913	 1492327789	 694797463	 161706.
07:29:49  913 914	 1492327789	 860627515	 165830.
07:29:50  914 915	 1492327790	 23039201	 162412.
07:29:50  915 916	 1492327790	 159982815	 136944.
07:29:50  916 917	 1492327790	 321582755	 161600.
07:29:50  917 918	 1492327790	 483708215	 162125.
07:29:50  918 919	 1492327790	 649437232	 165729.
07:29:50  919 920	 1492327790	 812161968	 162725.
07:29:50  920 921	 1492327790	 973808700	 161646.
07:29:51  921 922	 1492327791	 106662972	 132855.
07:29:51  922 923	 1492327791	 268167902	 161505.
07:29:51  923 924	 1492327791	 433784759	 165617.
07:29:51  924 925	 1492327791	 595768570	 161983.
07:29:51  925 926	 1492327791	 732795209	 137027.
07:29:51  926 927	 1492327791	 894249174	 161454.
07:29:52  927 928	 1492327792	 59918056	 165669.
07:29:52  928 929	 1492327792	 221275326	 161357.
07:29:52  929 930	 1492327792	 354004707	 132729.
07:29:52  930 931	 1492327792	 519784908	 165781.
07:29:52  931 932	 1492327792	 681677896	 161893.
07:29:52  932 933	 1492327792	 843540336	 161862.
07:29:53  933 934	 1492327793	 9211708	 165671.
07:29:53  934 935	 1492327793	 142212250	 133001.
07:29:53  935 936	 1492327793	 308055667	 165843.
07:29:53  936 937	 1492327793	 469698882	 161644.
07:29:53  937 938	 1492327793	 635852286	 166153.
07:29:53  938 939	 1492327793	 769146380	 133294.
07:29:53  939 940	 1492327793	 930887386	 161741.
07:29:54  940 941	 1492327794	 96304252	 165417.
07:29:54  941 942	 1492327794	 258060395	 161756.
07:29:54  942 943	 1492327794	 394785917	 136726.
07:29:54  943 944	 1492327794	 556489634	 161703.
07:29:54  944 945	 1492327794	 722634368	 166145.
07:29:54  945 946	 1492327794	 884503053	 161869.
07:29:55  946 947	 1492327795	 17450267	 132947.
07:29:55  947 948	 1492327795	 183175183	 165725.
07:29:55  948 949	 1492327795	 345260729	 162086.
07:29:55  949 950	 1492327795	 510874241	 165613.
07:29:55  950 951	 1492327795	 672658595	 161784.
07:29:55  951 952	 1492327795	 805829565	 133171.
07:29:55  952 953	 1492327795	 971574887	 165746.
07:29:56  953 954	 1492327796	 133824418	 162249.
07:29:56  954 955	 1492327796	 295942453	 162118.
07:29:56  955 956	 1492327796	 461969838	 166028.
07:29:56  956 957	 1492327796	 624054128	 162084.
07:29:56  957 958	 1492327796	 761435625	 137381.
07:29:56  958 959	 1492327796	 923033575	 161598.
07:29:57  959 960	 1492327797	 88998181	 165965.
07:29:57  960 961	 1492327797	 250776412	 161778.
07:29:57  961 962	 1492327797	 416951713	 166175.
07:29:57  962 963	 1492327797	 579114182	 162163.
07:29:57  963 964	 1492327797	 715970593	 136856.
07:29:57  964 965	 1492327797	 877968387	 161998.
07:29:58  965 966	 1492327798	 43827207	 165859.
07:29:58  966 967	 1492327798	 205889066	 162062.
07:29:58  967 968	 1492327798	 338438268	 132549.
07:29:58  968 969	 1492327798	 504135156	 165697.
07:29:58  969 970	 1492327798	 665919383	 161784.
07:29:58  970 971	 1492327798	 831882188	 165963.
07:29:58  971 972	 1492327798	 964894106	 133012.
07:29:59  972 973	 1492327799	 130873150	 165979.
07:29:59  973 974	 1492327799	 292735861	 161863.
07:29:59  974 975	 1492327799	 458590940	 165855.
07:29:59  975 976	 1492327799	 620261865	 161671.
07:29:59  976 977	 1492327799	 753409303	 133147.
07:29:59  977 978	 1492327799	 918822366	 165413.
07:30:00  978 979	 1492327800	 80684299	 161862.
07:30:00  979 980	 1492327800	 246434161	 165750.
07:30:00  980 981	 1492327800	 379436757	 133003.
07:30:00  981 982	 1492327800	 545183079	 165746.
07:30:00  982 983	 1492327800	 707060428	 161877.
07:30:00  983 984	 1492327800	 872919141	 165859.
07:30:01  984 985	 1492327801	 34938071	 162019.
07:30:01  985 986	 1492327801	 196799345	 161861.
07:30:01  986 987	 1492327801	 330173515	 133374.
07:30:01  987 988	 1492327801	 496124510	 165951.
07:30:01  988 989	 1492327801	 661858663	 165734.
07:30:01  989 990	 1492327801	 823578370	 161720.
07:30:01  990 991	 1492327801	 985249020	 161671.
07:30:02  991 992	 1492327802	 151025077	 165776.
07:30:02  992 993	 1492327802	 312777861	 161753.
07:30:02  993 994	 1492327802	 474769944	 161992.
07:30:02  994 995	 1492327802	 640800619	 166030.
07:30:02  995 996	 1492327802	 802578677	 161778.
07:30:02  996 997	 1492327802	 968550961	 165973.
07:30:03  997 998	 1492327803	 101464628	 132913.
07:30:03  998 999	 1492327803	 263366359	 161902.
07:30:03  999 1000	 1492327803	 425022719	 161657.
07:30:03 1000 1001	 1492327803	 590818445	 165795.
07:30:03 1001 1002	 1492327803	 752813366	 161995.
07:30:03 1002 1003	 1492327803	 918665710	 165852.
07:30:04 1003 1004	 1492327804	 80473784	 161809.
07:30:04 1004 1005	 1492327804	 242311041	 161837.
07:30:04 1005 1006	 1492327804	 404036139	 161725.
07:30:04 1006 1007	 1492327804	 541194371	 137158.
07:30:04 1007 1008	 1492327804	 702948874	 161755.
07:30:04 1008 1009	 1492327804	 868818802	 165870.
07:30:05 1009 1010	 1492327805	 30548097	 161729.
07:30:05 1010 1011	 1492327805	 192300201	 161752.
07:30:05 1011 1012	 1492327805	 358338931	 166039.
07:30:05 1012 1013	 1492327805	 520266188	 161927.
07:30:05 1013 1014	 1492327805	 686228368	 165962.
07:30:05 1014 1015	 1492327805	 848064477	 161836.
07:30:06 1015 1016	 1492327806	 9517041	 161453.
07:30:06 1016 1017	 1492327806	 142823615	 133306.
07:30:06 1017 1018	 1492327806	 308779876	 165957.
07:30:06 1018 1019	 1492327806	 470570366	 161790.
07:30:06 1019 1020	 1492327806	 637353977	 166784.
07:30:06 1020 1021	 1492327806	 791130550	 153776.
07:30:06 1021 1022	 1492327806	 952950842	 161821.
07:30:07 1022 1023	 1492327807	 119005134	 166054.
07:30:07 1023 1024	 1492327807	 280702179	 161697.
07:30:07 1024 1025	 1492327807	 442523316	 161821.
07:30:07 1025 1026	 1492327807	 608490978	 165968.
07:30:07 1026 1027	 1492327807	 770106870	 161616.
07:30:07 1027 1028	 1492327807	 935882348	 165775.
07:30:08 1028 1029	 1492327808	 97591125	 161709.
07:30:08 1029 1030	 1492327808	 259393481	 161802.
07:30:08 1030 1031	 1492327808	 392289709	 132896.
07:30:08 1031 1032	 1492327808	 557945851	 165657.
07:30:08 1032 1033	 1492327808	 719648283	 161702.
07:30:08 1033 1034	 1492327808	 885397464	 165749.
07:30:09 1034 1035	 1492327809	 47203504	 161806.
07:30:09 1035 1036	 1492327809	 208803404	 161600.
07:30:09 1036 1037	 1492327809	 374407836	 165605.
07:30:09 1037 1038	 1492327809	 536035004	 161627.
07:30:09 1038 1039	 1492327809	 669226337	 133191.
07:30:09 1039 1040	 1492327809	 834995770	 165770.
07:30:09 1040 1041	 1492327809	 996604080	 161608.
07:30:10 1041 1042	 1492327810	 158042753	 161439.
07:30:10 1042 1043	 1492327810	 323638245	 165595.
07:30:10 1043 1044	 1492327810	 485161111	 161523.
07:30:10 1044 1045	 1492327810	 617935396	 132774.
07:30:10 1045 1046	 1492327810	 783560316	 165625.
07:30:10 1046 1047	 1492327810	 944947426	 161387.
07:30:11 1047 1048	 1492327811	 106269248	 161322.
07:30:11 1048 1049	 1492327811	 272114603	 165845.
07:30:11 1049 1050	 1492327811	 433640603	 161526.
07:30:11 1050 1051	 1492327811	 566728664	 133088.
07:30:11 1051 1052	 1492327811	 732393529	 165665.
07:30:11 1052 1053	 1492327811	 893575676	 161182.
07:30:12 1053 1054	 1492327812	 59130257	 165555.
07:30:12 1054 1055	 1492327812	 220664787	 161535.
07:30:12 1055 1056	 1492327812	 382341850	 161677.
07:30:12 1056 1057	 1492327812	 519347899	 137006.
07:30:12 1057 1058	 1492327812	 680937753	 161590.
07:30:12 1058 1059	 1492327812	 846343789	 165406.
07:30:13 1059 1060	 1492327813	 7606340	 161262.
07:30:13 1060 1061	 1492327813	 169209524	 161603.
07:30:13 1061 1062	 1492327813	 330844215	 161635.
07:30:13 1062 1063	 1492327813	 467718572	 136874.
07:30:13 1063 1064	 1492327813	 629537489	 161819.
07:30:13 1064 1065	 1492327813	 795086678	 165549.
07:30:13 1065 1066	 1492327813	 956344444	 161258.
07:30:14 1066 1067	 1492327814	 117949606	 161605.
07:30:14 1067 1068	 1492327814	 283315669	 165366.
07:30:14 1068 1069	 1492327814	 416074357	 132759.
07:30:14 1069 1070	 1492327814	 577440213	 161366.
07:30:14 1070 1071	 1492327814	 742871421	 165431.
07:30:14 1071 1072	 1492327814	 904304289	 161433.
07:30:15 1072 1073	 1492327815	 66446448	 162142.
07:30:15 1073 1074	 1492327815	 203366210	 136920.
07:30:15 1074 1075	 1492327815	 364932346	 161566.
07:30:15 1075 1076	 1492327815	 526644610	 161712.
07:30:15 1076 1077	 1492327815	 692573471	 165929.
07:30:15 1077 1078	 1492327815	 854263907	 161691.
07:30:15 1078 1079	 1492327815	 986843841	 132580.
07:30:16 1079 1080	 1492327816	 152233295	 165389.
07:30:16 1080 1081	 1492327816	 313732995	 161500.
07:30:16 1081 1082	 1492327816	 478742377	 165009.
07:30:16 1082 1083	 1492327816	 611308883	 132567.
07:30:16 1083 1084	 1492327816	 772739036	 161430.
07:30:16 1084 1085	 1492327816	 938073862	 165335.
07:30:17 1085 1086	 1492327817	 70781323	 132707.
07:30:17 1086 1087	 1492327817	 236047207	 165266.
07:30:17 1087 1088	 1492327817	 397571493	 161524.
07:30:17 1088 1089	 1492327817	 559498232	 161927.
07:30:17 1089 1090	 1492327817	 725450091	 165952.
07:30:17 1090 1091	 1492327817	 887726267	 162276.
07:30:18 1091 1092	 1492327818	 20760414	 133034.
07:30:18 1092 1093	 1492327818	 182340151	 161580.
07:30:18 1093 1094	 1492327818	 347904934	 165565.
07:30:18 1094 1095	 1492327818	 480431527	 132526.
07:30:18 1095 1096	 1492327818	 645920028	 165489.
07:30:18 1096 1097	 1492327818	 807329752	 161410.
07:30:18 1097 1098	 1492327818	 972684060	 165354.
07:30:19 1098 1099	 1492327819	 105349451	 132665.
07:30:19 1099 1100	 1492327819	 270874825	 165526.
07:30:19 1100 1101	 1492327819	 432720474	 161845.
07:30:19 1101 1102	 1492327819	 565525927	 132806.
07:30:19 1102 1103	 1492327819	 730994110	 165468.
07:30:19 1103 1104	 1492327819	 892359226	 161365.
07:30:20 1104 1105	 1492327820	 58148852	 165790.
07:30:20 1105 1106	 1492327820	 191143078	 132994.
07:30:20 1106 1107	 1492327820	 356699136	 165556.
07:30:20 1107 1108	 1492327820	 517901080	 161202.
07:30:20 1108 1109	 1492327820	 654756386	 136855.
07:30:20 1109 1110	 1492327820	 815840536	 161084.
07:30:20 1110 1111	 1492327820	 981902880	 166063.
07:30:21 1111 1112	 1492327821	 114392114	 132489.
07:30:21 1112 1113	 1492327821	 280159317	 165767.
07:30:21 1113 1114	 1492327821	 442011008	 161852.
07:30:21 1114 1115	 1492327821	 607323499	 165312.
07:30:21 1115 1116	 1492327821	 739959581	 132636.
07:30:21 1116 1117	 1492327821	 905322749	 165364.
07:30:22 1117 1118	 1492327822	 66892970	 161570.
07:30:22 1118 1119	 1492327822	 232410245	 165517.
07:30:22 1119 1120	 1492327822	 364906945	 132497.
07:30:22 1120 1121	 1492327822	 530984924	 166078.
07:30:22 1121 1122	 1492327822	 692658823	 161674.
07:30:22 1122 1123	 1492327822	 858127867	 165469.
07:30:22 1123 1124	 1492327822	 990849827	 132722.
07:30:23 1124 1125	 1492327823	 156681807	 165832.
07:30:23 1125 1126	 1492327823	 318552033	 161870.
07:30:23 1126 1127	 1492327823	 484235222	 165683.
07:30:23 1127 1128	 1492327823	 617333290	 133098.
07:30:23 1128 1129	 1492327823	 778769286	 161436.
07:30:23 1129 1130	 1492327823	 944165991	 165397.
07:30:24 1130 1131	 1492327824	 76624743	 132459.
07:30:24 1131 1132	 1492327824	 242093953	 165469.
07:30:24 1132 1133	 1492327824	 403704638	 161610.
07:30:24 1133 1134	 1492327824	 540839852	 137136.
07:30:24 1134 1135	 1492327824	 702722731	 161883.
07:30:24 1135 1136	 1492327824	 864746092	 162023.
07:30:25 1136 1137	 1492327825	 30601895	 165856.
07:30:25 1137 1138	 1492327825	 192175493	 161573.
07:30:25 1138 1139	 1492327825	 358017420	 165842.
07:30:25 1139 1140	 1492327825	 490942144	 132925.
07:30:25 1140 1141	 1492327825	 656664152	 165722.
07:30:25 1141 1142	 1492327825	 818140671	 161476.
07:30:25 1142 1143	 1492327825	 984016590	 165876.
07:30:26 1143 1144	 1492327826	 117109221	 133093.
07:30:26 1144 1145	 1492327826	 283027533	 165918.
07:30:26 1145 1146	 1492327826	 445036250	 162009.
07:30:26 1146 1147	 1492327826	 607022368	 161986.
07:30:26 1147 1148	 1492327826	 773057209	 166035.
07:30:26 1148 1149	 1492327826	 905518271	 132461.
07:30:27 1149 1150	 1492327827	 71524425	 166006.
07:30:27 1150 1151	 1492327827	 232802271	 161278.
07:30:27 1151 1152	 1492327827	 369800441	 136998.
07:30:27 1152 1153	 1492327827	 531502869	 161703.
07:30:27 1153 1154	 1492327827	 696926631	 165423.
07:30:27 1154 1155	 1492327827	 858313819	 161388.
07:30:27 1155 1156	 1492327827	 990850194	 132536.
07:30:28 1156 1157	 1492327828	 156482659	 165632.
07:30:28 1157 1158	 1492327828	 317601340	 161119.
07:30:28 1158 1159	 1492327828	 454446242	 136845.
07:30:28 1159 1160	 1492327828	 616026025	 161580.
07:30:28 1160 1161	 1492327828	 781271374	 165245.
07:30:28 1161 1162	 1492327828	 914798120	 133527.
07:30:29 1162 1163	 1492327829	 72195637	 157397.
07:30:29 1163 1164	 1492327829	 233398731	 161204.
07:30:29 1164 1165	 1492327829	 399159288	 165760.
07:30:29 1165 1166	 1492327829	 531979553	 132820.
07:30:29 1166 1167	 1492327829	 697654819	 165676.
07:30:29 1167 1168	 1492327829	 863053362	 165398.
07:30:29 1168 1169	 1492327829	 996337207	 133284.
07:30:30 1169 1170	 1492327830	 162193898	 165857.
07:30:30 1170 1171	 1492327830	 323432401	 161238.
07:30:30 1171 1172	 1492327830	 489056206	 165624.
07:30:30 1172 1173	 1492327830	 650917054	 161861.
07:30:30 1173 1174	 1492327830	 783726141	 132809.
07:30:30 1174 1175	 1492327830	 949392242	 165666.
07:30:31 1175 1176	 1492327831	 110699869	 161308.
07:30:31 1176 1177	 1492327831	 247928854	 137229.
07:30:31 1177 1178	 1492327831	 409725631	 161796.
07:30:31 1178 1179	 1492327831	 575722254	 165997.
07:30:31 1179 1180	 1492327831	 737533579	 161811.
07:30:31 1180 1181	 1492327831	 903504360	 165971.
07:30:32 1181 1182	 1492327832	 36612994	 133109.
07:30:32 1182 1183	 1492327832	 202369866	 165757.
07:30:32 1183 1184	 1492327832	 363878884	 161509.
07:30:32 1184 1185	 1492327832	 529296934	 165418.
07:30:32 1185 1186	 1492327832	 662291893	 132995.
07:30:32 1186 1187	 1492327832	 828093491	 165801.
07:30:32 1187 1188	 1492327832	 989740166	 161647.
07:30:33 1188 1189	 1492327833	 122409762	 132670.
07:30:33 1189 1190	 1492327833	 288372629	 165962.
07:30:33 1190 1191	 1492327833	 449928002	 161556.
07:30:33 1191 1192	 1492327833	 615359934	 165432.
07:30:33 1192 1193	 1492327833	 777267350	 161907.
07:30:33 1193 1194	 1492327833	 910263997	 132997.
07:30:34 1194 1195	 1492327834	 76127606	 165863.
07:30:34 1195 1196	 1492327834	 237487139	 161360.
07:30:34 1196 1197	 1492327834	 403565744	 166079.
07:30:34 1197 1198	 1492327834	 536479064	 132913.
07:30:34 1198 1199	 1492327834	 698257310	 161778.
07:30:34 1199 1200	 1492327834	 864173759	 165917.
07:30:35 1200 1201	 1492327835	 26057169	 161883.
07:30:35 1201 1202	 1492327835	 192247951	 166191.
07:30:35 1202 1203	 1492327835	 353845642	 161597.
07:30:35 1203 1204	 1492327835	 491200335	 137355.
07:30:35 1204 1205	 1492327835	 652628268	 161428.
07:30:35 1205 1206	 1492327835	 818549909	 165922.
07:30:35 1206 1207	 1492327835	 980279400	 161729.
07:30:36 1207 1208	 1492327836	 112993502	 132714.
07:30:36 1208 1209	 1492327836	 278468284	 165475.
07:30:36 1209 1210	 1492327836	 439968759	 161500.
07:30:36 1210 1211	 1492327836	 605647675	 165680.
07:30:36 1211 1212	 1492327836	 738758575	 133110.
07:30:36 1212 1213	 1492327836	 904784354	 166026.
07:30:37 1213 1214	 1492327837	 66615651	 161831.
07:30:37 1214 1215	 1492327837	 224660967	 158046.
07:30:37 1215 1216	 1492327837	 361440538	 136779.
07:30:37 1216 1217	 1492327837	 523004381	 161564.
07:30:37 1217 1218	 1492327837	 688529002	 165525.
07:30:37 1218 1219	 1492327837	 849766876	 161238.
07:30:38 1219 1220	 1492327838	 11059651	 161292.
07:30:38 1220 1221	 1492327838	 147918138	 136859.
07:30:38 1221 1222	 1492327838	 308895174	 160977.
07:30:38 1222 1223	 1492327838	 470038101	 161143.
07:30:38 1223 1224	 1492327838	 635301279	 165263.
07:30:38 1224 1225	 1492327838	 768058997	 132758.
07:30:38 1225 1226	 1492327838	 929879448	 161820.
07:30:39 1226 1227	 1492327839	 95694654	 165815.
07:30:39 1227 1228	 1492327839	 257379656	 161685.
07:30:39 1228 1229	 1492327839	 423051576	 165672.
07:30:39 1229 1230	 1492327839	 552617172	 129566.
07:30:39 1230 1231	 1492327839	 713756360	 161139.
07:30:39 1231 1232	 1492327839	 879118271	 165362.
07:30:40 1232 1233	 1492327840	 40992536	 161874.
07:30:40 1233 1234	 1492327840	 178573572	 137581.
07:30:40 1234 1235	 1492327840	 340131264	 161558.
07:30:40 1235 1236	 1492327840	 505943193	 165812.
07:30:40 1236 1237	 1492327840	 667856111	 161913.
07:30:40 1237 1238	 1492327840	 804772209	 136916.
07:30:40 1238 1239	 1492327840	 966326585	 161554.
07:30:41 1239 1240	 1492327841	 128083938	 161758.
07:30:41 1240 1241	 1492327841	 294035276	 165951.
07:30:41 1241 1242	 1492327841	 456012423	 161977.
07:30:41 1242 1243	 1492327841	 621637400	 165625.
07:30:41 1243 1244	 1492327841	 754589927	 132953.
07:30:41 1244 1245	 1492327841	 916299649	 161709.
07:30:42 1245 1246	 1492327842	 82217556	 165918.
07:30:42 1246 1247	 1492327842	 247810201	 165593.
07:30:42 1247 1248	 1492327842	 380864515	 133054.
07:30:42 1248 1249	 1492327842	 542821075	 161957.
07:30:42 1249 1250	 1492327842	 709165894	 166345.
07:30:42 1250 1251	 1492327842	 871290990	 162125.
07:30:43 1251 1252	 1492327843	 36707364	 165416.
07:30:43 1252 1253	 1492327843	 169674912	 132968.
07:30:43 1253 1254	 1492327843	 335643631	 165968.
07:30:43 1254 1255	 1492327843	 497085509	 161442.
07:30:43 1255 1256	 1492327843	 662833151	 165748.
07:30:43 1256 1257	 1492327843	 824434154	 161601.
07:30:43 1257 1258	 1492327843	 957373432	 132939.
07:30:44 1258 1259	 1492327844	 123129644	 165756.
07:30:44 1259 1260	 1492327844	 284783431	 161654.
07:30:44 1260 1261	 1492327844	 422013709	 137230.
07:30:44 1261 1262	 1492327844	 609337122	 187324.
07:30:44 1262 1263	 1492327844	 742432827	 133096.
07:30:44 1263 1264	 1492327844	 904155811	 161723.
07:30:45 1264 1265	 1492327845	 69757564	 165601.
07:30:45 1265 1266	 1492327845	 202642773	 132885.
07:30:45 1266 1267	 1492327845	 364670657	 162028.
07:30:45 1267 1268	 1492327845	 530709737	 166040.
07:30:45 1268 1269	 1492327845	 692132094	 161422.
07:30:45 1269 1270	 1492327845	 824706254	 132574.
07:30:45 1270 1271	 1492327845	 990342496	 165636.
07:30:46 1271 1272	 1492327846	 151712890	 161371.
07:30:46 1272 1273	 1492327846	 317441040	 165728.
07:30:46 1273 1274	 1492327846	 450480478	 133039.
07:30:46 1274 1275	 1492327846	 612490762	 162011.
07:30:46 1275 1276	 1492327846	 778410119	 165919.
07:30:46 1276 1277	 1492327846	 939505677	 161095.
07:30:47 1277 1278	 1492327847	 77064060	 137559.
07:30:47 1278 1279	 1492327847	 238757605	 161693.
07:30:47 1279 1280	 1492327847	 404556504	 165799.
07:30:47 1280 1281	 1492327847	 566169149	 161613.
07:30:47 1281 1282	 1492327847	 703028401	 136859.
07:30:47 1282 1283	 1492327847	 864443717	 161415.
07:30:48 1283 1284	 1492327848	 26230411	 161787.
07:30:48 1284 1285	 1492327848	 192563410	 166333.
07:30:48 1285 1286	 1492327848	 325242417	 132679.
07:30:48 1286 1287	 1492327848	 491061726	 165820.
07:30:48 1287 1288	 1492327848	 653085521	 162023.
07:30:48 1288 1289	 1492327848	 818928122	 165843.
07:30:48 1289 1290	 1492327848	 981013590	 162085.
07:30:49 1290 1291	 1492327849	 146971649	 165958.
07:30:49 1291 1292	 1492327849	 280409326	 133438.
07:30:49 1292 1293	 1492327849	 442478555	 162069.
07:30:49 1293 1294	 1492327849	 608168711	 165690.
07:30:49 1294 1295	 1492327849	 770055980	 161888.
07:30:49 1295 1296	 1492327849	 936018872	 165963.
07:30:50 1296 1297	 1492327850	 98156113	 162137.
07:30:50 1297 1298	 1492327850	 264171534	 166015.
07:30:50 1298 1299	 1492327850	 397139262	 132968.
07:30:50 1299 1300	 1492327850	 558911234	 161772.
07:30:50 1300 1301	 1492327850	 724710660	 165799.
07:30:50 1301 1302	 1492327850	 886600784	 161891.
07:30:51 1302 1303	 1492327851	 23385300	 136784.
07:30:51 1303 1304	 1492327851	 185112188	 161727.
07:30:51 1304 1305	 1492327851	 351062586	 165950.
07:30:51 1305 1306	 1492327851	 512371750	 161310.
07:30:51 1306 1307	 1492327851	 649360854	 136989.
07:30:51 1307 1308	 1492327851	 810819811	 161459.
07:30:51 1308 1309	 1492327851	 976626094	 165806.
07:30:52 1309 1310	 1492327852	 138400540	 161774.
07:30:52 1310 1311	 1492327852	 300038850	 161639.
07:30:52 1311 1312	 1492327852	 437096939	 137058.
07:30:52 1312 1313	 1492327852	 599128225	 162031.
07:30:52 1313 1314	 1492327852	 764909010	 165781.
07:30:52 1314 1315	 1492327852	 926149935	 161241.
07:30:53 1315 1316	 1492327853	 59262987	 133113.
07:30:53 1316 1317	 1492327853	 225100397	 165837.
07:30:53 1317 1318	 1492327853	 386929479	 161829.
07:30:53 1318 1319	 1492327853	 552662658	 165733.
07:30:53 1319 1320	 1492327853	 714779509	 162117.
07:30:53 1320 1321	 1492327853	 876511964	 161733.
07:30:54 1321 1322	 1492327854	 9354496	 132842.
07:30:54 1322 1323	 1492327854	 174960890	 165607.
07:30:54 1323 1324	 1492327854	 336463371	 161502.
07:30:54 1324 1325	 1492327854	 502611130	 166148.
07:30:54 1325 1326	 1492327854	 664609734	 161999.
07:30:54 1326 1327	 1492327854	 797436754	 132827.
07:30:54 1327 1328	 1492327854	 963396609	 165959.
07:30:55 1328 1329	 1492327855	 125322885	 161927.
07:30:55 1329 1330	 1492327855	 291285740	 165963.
07:30:55 1330 1331	 1492327855	 453010702	 161725.
07:30:55 1331 1332	 1492327855	 618758445	 165747.
07:30:55 1332 1333	 1492327855	 752347204	 133589.
07:30:55 1333 1334	 1492327855	 909930410	 157583.
07:30:56 1334 1335	 1492327856	 75847753	 165918.
07:30:56 1335 1336	 1492327856	 237212089	 161364.
07:30:56 1336 1337	 1492327856	 398929214	 161717.
07:30:56 1337 1338	 1492327856	 536025022	 137096.
07:30:56 1338 1339	 1492327856	 698385477	 162360.
07:30:56 1339 1340	 1492327856	 864434579	 166049.
07:30:57 1340 1341	 1492327857	 26412636	 161978.
07:30:57 1341 1342	 1492327857	 192314647	 165902.
07:30:57 1342 1343	 1492327857	 354125253	 161811.
07:30:57 1343 1344	 1492327857	 519721651	 165596.
07:30:57 1344 1345	 1492327857	 681528244	 161807.
07:30:57 1345 1346	 1492327857	 814624124	 133096.
07:30:57 1346 1347	 1492327857	 980269080	 165645.
07:30:58 1347 1348	 1492327858	 141955749	 161687.
07:30:58 1348 1349	 1492327858	 303128778	 161173.
07:30:58 1349 1350	 1492327858	 468799637	 165670.
07:30:58 1350 1351	 1492327858	 630789824	 161991.
07:30:58 1351 1352	 1492327858	 767897736	 137108.
07:30:58 1352 1353	 1492327858	 929977784	 162080.
07:30:59 1353 1354	 1492327859	 95611766	 165634.
07:30:59 1354 1355	 1492327859	 257833020	 162221.
07:30:59 1355 1356	 1492327859	 423881742	 166049.
07:30:59 1356 1357	 1492327859	 585910614	 162028.
07:30:59 1357 1358	 1492327859	 719066217	 133156.
07:30:59 1358 1359	 1492327859	 884731665	 165665.
07:31:00 1359 1360	 1492327860	 46342467	 161611.
07:31:00 1360 1361	 1492327860	 211723456	 165381.
07:31:00 1361 1362	 1492327860	 373351377	 161628.
07:31:00 1362 1363	 1492327860	 535188207	 161837.
07:31:00 1363 1364	 1492327860	 672283784	 137096.
07:31:00 1364 1365	 1492327860	 833956139	 161672.
07:31:00 1365 1366	 1492327860	 999463698	 165507.
07:31:01 1366 1367	 1492327861	 160856478	 161393.
07:31:01 1367 1368	 1492327861	 322333584	 161477.
07:31:01 1368 1369	 1492327861	 487884984	 165552.
07:31:01 1369 1370	 1492327861	 620873891	 132989.
07:31:01 1370 1371	 1492327861	 782653074	 161779.
07:31:01 1371 1372	 1492327861	 948719553	 166066.
07:31:02 1372 1373	 1492327862	 110624242	 161905.
07:31:02 1373 1374	 1492327862	 271716823	 161093.
07:31:02 1374 1375	 1492327862	 436990518	 165273.
07:31:02 1375 1376	 1492327862	 598733468	 161743.
07:31:02 1376 1377	 1492327862	 731492886	 132760.
07:31:02 1377 1378	 1492327862	 893133208	 161640.
07:31:03 1378 1379	 1492327863	 54439174	 161306.
07:31:03 1379 1380	 1492327863	 220115828	 165677.
07:31:03 1380 1381	 1492327863	 381317332	 161201.
07:31:03 1381 1382	 1492327863	 513859715	 132542.
07:31:03 1382 1383	 1492327863	 679399800	 165541.
07:31:03 1383 1384	 1492327863	 840851420	 161451.
07:31:04 1384 1385	 1492327864	 2713412	 161862.
07:31:04 1385 1386	 1492327864	 168557530	 165844.
07:31:04 1386 1387	 1492327864	 330240587	 161683.
07:31:04 1387 1388	 1492327864	 492028641	 161788.
07:31:04 1388 1389	 1492327864	 658087077	 166059.
07:31:04 1389 1390	 1492327864	 791201806	 133115.
07:31:04 1390 1391	 1492327864	 953091822	 161890.
07:31:05 1391 1392	 1492327865	 118994786	 165903.
07:31:05 1392 1393	 1492327865	 280707976	 161713.
07:31:05 1393 1394	 1492327865	 442651670	 161943.
07:31:05 1394 1395	 1492327865	 608255760	 165604.
07:31:05 1395 1396	 1492327865	 769597574	 161343.
07:31:05 1396 1397	 1492327865	 902274788	 132677.
07:31:06 1397 1398	 1492327866	 68140389	 165865.
07:31:06 1398 1399	 1492327866	 229945582	 161805.
07:31:06 1399 1400	 1492327866	 395304411	 165359.
07:31:06 1400 1401	 1492327866	 557034535	 161730.
07:31:06 1401 1402	 1492327866	 718873474	 161839.
07:31:06 1402 1403	 1492327866	 856271916	 137399.
07:31:07 1403 1404	 1492327867	 18613457	 162341.
07:31:07 1404 1405	 1492327867	 176521738	 157909.
07:31:07 1405 1406	 1492327867	 341951784	 165430.
07:31:07 1406 1407	 1492327867	 507852961	 165901.
07:31:07 1407 1408	 1492327867	 640512414	 132659.
07:31:07 1408 1409	 1492327867	 794849446	 154337.
07:31:07 1409 1410	 1492327867	 960451158	 165602.
07:31:08 1410 1411	 1492327868	 126426019	 165975.
07:31:08 1411 1412	 1492327868	 288615356	 162189.
07:31:08 1412 1413	 1492327868	 422109182	 166084.
07:31:08 1413 1414	 1492327868	 588618755	 133919.
07:31:08 1414 1415	 1492327868	 754955515	 166337.
07:31:08 1415 1416	 1492327868	 917161590	 162206.
07:31:09 1416 1417	 1492327869	 83365732	 166204.
07:31:09 1417 1418	 1492327869	 245402080	 162037.
07:31:09 1418 1419	 1492327869	 407695897	 162294.
07:31:09 1419 1420	 1492327869	 573855608	 166159.
07:31:09 1420 1421	 1492327869	 736004060	 162149.
07:31:09 1421 1422	 1492327869	 902233754	 166230.
07:31:10 1422 1423	 1492327870	 35818835	 133585.
07:31:10 1423 1424	 1492327870	 202263375	 166444.
07:31:10 1424 1425	 1492327870	 396751304	 194488.
07:31:10 1425 1426	 1492327870	 588937573	 192186.
07:31:10 1426 1427	 1492327870	 722176774	 133240.
07:31:10 1427 1428	 1492327870	 913885238	 191708.
07:31:11 1428 1429	 1492327871	 81499990	 167615.
07:31:11 1429 1430	 1492327871	 243466056	 161966.
07:31:11 1430 1431	 1492327871	 409659887	 166194.
07:31:11 1431 1432	 1492327871	 543065114	 133405.
07:31:11 1432 1433	 1492327871	 709429202	 166364.
07:31:11 1433 1434	 1492327871	 872706799	 163278.
07:31:12 1434 1435	 1492327872	 39131600	 166424.
07:31:12 1435 1436	 1492327872	 201088952	 161958.
07:31:12 1436 1437	 1492327872	 363111812	 162023.
07:31:12 1437 1438	 1492327872	 528802161	 165690.
07:31:12 1438 1439	 1492327872	 690594710	 161792.
07:31:12 1439 1440	 1492327872	 853832682	 163238.
07:31:13 1440 1441	 1492327873	 19540046	 165708.
07:31:13 1441 1442	 1492327873	 181130335	 161590.
07:31:13 1442 1443	 1492327873	 342787857	 161658.
07:31:13 1443 1444	 1492327873	 508574404	 165786.
07:31:13 1444 1445	 1492327873	 670077038	 161503.
07:31:13 1445 1446	 1492327873	 803008786	 132932.
07:31:13 1446 1447	 1492327873	 968932778	 165924.
07:31:14 1447 1448	 1492327874	 130558763	 161626.
07:31:14 1448 1449	 1492327874	 295820543	 165261.
07:31:14 1449 1450	 1492327874	 457445198	 161625.
07:31:14 1450 1451	 1492327874	 590162295	 132717.
07:31:14 1451 1452	 1492327874	 755355261	 165193.
07:31:14 1452 1453	 1492327874	 916858878	 161504.
07:31:15 1453 1454	 1492327875	 53719582	 136860.
07:31:15 1454 1455	 1492327875	 214971022	 161252.
07:31:15 1455 1456	 1492327875	 380731739	 165761.
07:31:15 1456 1457	 1492327875	 513420866	 132689.
07:31:15 1457 1458	 1492327875	 678683494	 165262.
07:31:15 1458 1459	 1492327875	 840101085	 161418.
07:31:16 1459 1460	 1492327876	 1330153	 161229.
07:31:16 1460 1461	 1492327876	 167039375	 165709.
07:31:16 1461 1462	 1492327876	 299972387	 132933.
07:31:16 1462 1463	 1492327876	 461609901	 161638.
07:31:16 1463 1464	 1492327876	 623223372	 161613.
07:31:16 1464 1465	 1492327876	 789086890	 165864.
07:31:16 1465 1466	 1492327876	 950685257	 161598.
07:31:17 1466 1467	 1492327877	 116522866	 165838.
07:31:17 1467 1468	 1492327877	 278181917	 161659.
07:31:17 1468 1469	 1492327877	 439774420	 161592.
07:31:17 1469 1470	 1492327877	 576664861	 136891.
07:31:17 1470 1471	 1492327877	 738462743	 161798.
07:31:17 1471 1472	 1492327877	 900128497	 161665.
07:31:18 1472 1473	 1492327878	 65525295	 165397.
07:31:18 1473 1474	 1492327878	 226713926	 161189.
07:31:18 1474 1475	 1492327878	 359150380	 132436.
07:31:18 1475 1476	 1492327878	 524866108	 165716.
07:31:18 1476 1477	 1492327878	 685627300	 160761.
07:31:18 1477 1478	 1492327878	 846933085	 161306.
07:31:18 1478 1479	 1492327878	 983462918	 136530.
07:31:19 1479 1480	 1492327879	 144722431	 161259.
07:31:19 1480 1481	 1492327879	 310662845	 165941.
07:31:19 1481 1482	 1492327879	 471973135	 161310.
07:31:19 1482 1483	 1492327879	 633298106	 161325.
07:31:19 1483 1484	 1492327879	 770087591	 136789.
07:31:19 1484 1485	 1492327879	 930940150	 160853.
07:31:20 1485 1486	 1492327880	 92262473	 161322.
07:31:20 1486 1487	 1492327880	 229193829	 136932.
07:31:20 1487 1488	 1492327880	 389944641	 160750.
07:31:20 1488 1489	 1492327880	 555753040	 165809.
07:31:20 1489 1490	 1492327880	 716797486	 161044.
07:31:20 1490 1491	 1492327880	 878154369	 161357.
07:31:21 1491 1492	 1492327881	 14876468	 136722.
07:31:21 1492 1493	 1492327881	 176252451	 161376.
07:31:21 1493 1494	 1492327881	 337312825	 161061.
07:31:21 1494 1495	 1492327881	 502688433	 165375.
07:31:21 1495 1496	 1492327881	 635247041	 132559.
07:31:21 1496 1497	 1492327881	 796111781	 160865.
07:31:21 1497 1498	 1492327881	 961636429	 165524.
07:31:22 1498 1499	 1492327882	 93922039	 132286.
07:31:22 1499 1500	 1492327882	 259323914	 165402.
07:31:22 1500 1501	 1492327882	 420533752	 161210.
07:31:22 1501 1502	 1492327882	 581434525	 160900.
07:31:22 1502 1503	 1492327882	 747047225	 165613.
07:31:22 1503 1504	 1492327882	 879306977	 132260.
07:31:23 1504 1505	 1492327883	 44439513	 165132.
07:31:23 1505 1506	 1492327883	 205651963	 161213.
07:31:23 1506 1507	 1492327883	 338119867	 132468.
07:31:23 1507 1508	 1492327883	 503406193	 165286.
07:31:23 1508 1509	 1492327883	 664681407	 161275.
07:31:23 1509 1510	 1492327883	 826502683	 161821.
07:31:23 1510 1511	 1492327883	 983775538	 157273.
07:31:24 1511 1512	 1492327884	 116245023	 132470.
07:31:24 1512 1513	 1492327884	 281431562	 165186.
07:31:24 1513 1514	 1492327884	 442357707	 160926.
07:31:24 1514 1515	 1492327884	 578625010	 136268.
07:31:24 1515 1516	 1492327884	 739608025	 160983.
07:31:24 1516 1517	 1492327884	 900916361	 161308.
07:31:25 1517 1518	 1492327885	 65871814	 164956.
07:31:25 1518 1519	 1492327885	 198413816	 132542.
07:31:25 1519 1520	 1492327885	 363711810	 165298.
07:31:25 1520 1521	 1492327885	 524737746	 161026.
07:31:25 1521 1522	 1492327885	 657027951	 132290.
07:31:25 1522 1523	 1492327885	 822044622	 165016.
07:31:25 1523 1524	 1492327885	 983042048	 160998.
07:31:26 1524 1525	 1492327886	 115716318	 132674.
07:31:26 1525 1526	 1492327886	 281087250	 165371.
07:31:26 1526 1527	 1492327886	 442301342	 161214.
07:31:26 1527 1528	 1492327886	 608094454	 165793.
07:31:26 1528 1529	 1492327886	 769433829	 161340.
07:31:26 1529 1530	 1492327886	 930891501	 161457.
07:31:27 1530 1531	 1492327887	 63874800	 132984.
07:31:27 1531 1532	 1492327887	 225186197	 161311.
07:31:27 1532 1533	 1492327887	 390790262	 165604.
07:31:27 1533 1534	 1492327887	 552108628	 161318.
07:31:27 1534 1535	 1492327887	 688601525	 136493.
07:31:27 1535 1536	 1492327887	 849757668	 161156.
07:31:28 1536 1537	 1492327888	 10782185	 161025.
07:31:28 1537 1538	 1492327888	 176118156	 165336.
07:31:28 1538 1539	 1492327888	 308946763	 132829.
07:31:28 1539 1540	 1492327888	 473803992	 164857.
07:31:28 1540 1541	 1492327888	 635094634	 161290.
07:31:28 1541 1542	 1492327888	 771443439	 136349.
07:31:28 1542 1543	 1492327888	 932261645	 160818.
07:31:29 1543 1544	 1492327889	 93613905	 161353.
07:31:29 1544 1545	 1492327889	 258948672	 165334.
07:31:29 1545 1546	 1492327889	 391424632	 132476.
07:31:29 1546 1547	 1492327889	 557174271	 165750.
07:31:29 1547 1548	 1492327889	 718311026	 161137.
07:31:29 1548 1549	 1492327889	 879863341	 161552.
07:31:30 1549 1550	 1492327890	 16484719	 136621.
07:31:30 1550 1551	 1492327890	 177624388	 161140.
07:31:30 1551 1552	 1492327890	 338964791	 161341.
07:31:30 1552 1553	 1492327890	 503742589	 164777.
07:31:30 1553 1554	 1492327890	 636374781	 132633.
07:31:30 1554 1555	 1492327890	 797824647	 161449.
07:31:30 1555 1556	 1492327890	 962825743	 165002.
07:31:31 1556 1557	 1492327891	 123729003	 160903.
07:31:31 1557 1558	 1492327891	 256262470	 132533.
07:31:31 1558 1559	 1492327891	 421324248	 165062.
07:31:31 1559 1560	 1492327891	 582626046	 161302.
07:31:31 1560 1561	 1492327891	 743585546	 160959.
07:31:31 1561 1562	 1492327891	 875980917	 132396.
07:31:32 1562 1563	 1492327892	 41008031	 165027.
07:31:32 1563 1564	 1492327892	 201866226	 160858.
07:31:32 1564 1565	 1492327892	 338253815	 136388.
07:31:32 1565 1566	 1492327892	 499321919	 161068.
07:31:32 1566 1567	 1492327892	 660369901	 161048.
07:31:32 1567 1568	 1492327892	 797323696	 136953.
07:31:32 1568 1569	 1492327892	 958202174	 160879.
07:31:33 1569 1570	 1492327893	 119303308	 161101.
07:31:33 1570 1571	 1492327893	 284562095	 165259.
07:31:33 1571 1572	 1492327893	 417011782	 132450.
07:31:33 1572 1573	 1492327893	 577743045	 160731.
07:31:33 1573 1574	 1492327893	 742898035	 165155.
07:31:33 1574 1575	 1492327893	 875674543	 132776.
07:31:34 1575 1576	 1492327894	 36753656	 161079.
07:31:34 1576 1577	 1492327894	 202119246	 165366.
07:31:34 1577 1578	 1492327894	 363250530	 161131.
07:31:34 1578 1579	 1492327894	 495948401	 132698.
07:31:34 1579 1580	 1492327894	 661382913	 165435.
07:31:34 1580 1581	 1492327894	 823313605	 161930.
07:31:34 1581 1582	 1492327894	 980712412	 157399.
07:31:35 1582 1583	 1492327895	 145978931	 165267.
07:31:35 1583 1584	 1492327895	 278590956	 132612.
07:31:35 1584 1585	 1492327895	 440089148	 161498.
07:31:35 1585 1586	 1492327895	 604930306	 164841.
07:31:35 1586 1587	 1492327895	 766041625	 161111.
07:31:35 1587 1588	 1492327895	 898540587	 132499.
07:31:36 1588 1589	 1492327896	 64041371	 165501.
07:31:36 1589 1590	 1492327896	 225803381	 161762.
07:31:36 1590 1591	 1492327896	 391030723	 165227.
07:31:36 1591 1592	 1492327896	 523458497	 132428.
07:31:36 1592 1593	 1492327896	 684601988	 161144.
07:31:36 1593 1594	 1492327896	 845772129	 161170.
07:31:37 1594 1595	 1492327897	 11211630	 165439.
07:31:37 1595 1596	 1492327897	 143719949	 132509.
07:31:37 1596 1597	 1492327897	 308812573	 165092.
07:31:37 1597 1598	 1492327897	 469830068	 161018.
07:31:37 1598 1599	 1492327897	 635016552	 165186.
07:31:37 1599 1600	 1492327897	 767333235	 132317.
07:31:37 1600 1601	 1492327897	 928199014	 160866.
07:31:38 1601 1602	 1492327898	 93320236	 165121.
07:31:38 1602 1603	 1492327898	 226111908	 132792.
07:31:38 1603 1604	 1492327898	 387795648	 161683.
07:31:38 1604 1605	 1492327898	 552758347	 164963.
07:31:38 1605 1606	 1492327898	 713795130	 161037.
07:31:38 1606 1607	 1492327898	 846263124	 132468.
07:31:39 1607 1608	 1492327899	 11103452	 164840.
07:31:39 1608 1609	 1492327899	 172184060	 161081.
07:31:39 1609 1610	 1492327899	 304619662	 132435.
07:31:39 1610 1611	 1492327899	 469517572	 164898.
07:31:39 1611 1612	 1492327899	 630750488	 161233.
07:31:39 1612 1613	 1492327899	 766986789	 136237.
07:31:39 1613 1614	 1492327899	 928032749	 161046.
07:31:40 1614 1615	 1492327900	 89362767	 161330.
07:31:40 1615 1616	 1492327900	 254474969	 165112.
07:31:40 1616 1617	 1492327900	 387086140	 132611.
07:31:40 1617 1618	 1492327900	 548476422	 161390.
07:31:40 1618 1619	 1492327900	 713749988	 165274.
07:31:40 1619 1620	 1492327900	 874908293	 161158.
07:31:41 1620 1621	 1492327901	 7591808	 132684.
07:31:41 1621 1622	 1492327901	 173007155	 165415.
07:31:41 1622 1623	 1492327901	 334332798	 161326.
07:31:41 1623 1624	 1492327901	 495775218	 161442.
07:31:41 1624 1625	 1492327901	 661743223	 165968.
07:31:41 1625 1626	 1492327901	 823420625	 161677.
07:31:41 1626 1627	 1492327901	 960194186	 136774.
07:31:42 1627 1628	 1492327902	 121742653	 161548.
07:31:42 1628 1629	 1492327902	 283078540	 161336.
07:31:42 1629 1630	 1492327902	 448170308	 165092.
07:31:42 1630 1631	 1492327902	 580895606	 132725.
07:31:42 1631 1632	 1492327902	 742061509	 161166.
07:31:42 1632 1633	 1492327902	 907505696	 165444.
07:31:43 1633 1634	 1492327903	 72942326	 165437.
07:31:43 1634 1635	 1492327903	 205605340	 132663.
07:31:43 1635 1636	 1492327903	 367063673	 161458.
07:31:43 1636 1637	 1492327903	 532301007	 165238.
07:31:43 1637 1638	 1492327903	 693196639	 160895.
07:31:43 1638 1639	 1492327903	 825658323	 132462.
07:31:43 1639 1640	 1492327903	 991221901	 165564.
07:31:44 1640 1641	 1492327904	 153037897	 161816.
07:31:44 1641 1642	 1492327904	 318762770	 165725.
07:31:44 1642 1643	 1492327904	 451919871	 133157.
07:31:44 1643 1644	 1492327904	 617979852	 166060.
07:31:44 1644 1645	 1492327904	 779512974	 161533.
07:31:44 1645 1646	 1492327904	 945028823	 165516.
07:31:45 1646 1647	 1492327905	 77862305	 132833.
07:31:45 1647 1648	 1492327905	 239503243	 161641.
07:31:45 1648 1649	 1492327905	 405482829	 165980.
07:31:45 1649 1650	 1492327905	 566948166	 161465.
07:31:45 1650 1651	 1492327905	 704345621	 166126.
07:31:45 1651 1652	 1492327905	 866674293	 133600.
07:31:46 1652 1653	 1492327906	 24046743	 157373.
07:31:46 1653 1654	 1492327906	 189189319	 165142.
07:31:46 1654 1655	 1492327906	 325980643	 136791.
07:31:46 1655 1656	 1492327906	 487398610	 161418.
07:31:46 1656 1657	 1492327906	 652976600	 165578.
07:31:46 1657 1658	 1492327906	 785586228	 132610.
07:31:46 1658 1659	 1492327906	 950930316	 165344.
07:31:47 1659 1660	 1492327907	 112748369	 161818.
07:31:47 1660 1661	 1492327907	 278572530	 165824.
07:31:47 1661 1662	 1492327907	 411318568	 132746.
07:31:47 1662 1663	 1492327907	 576952007	 165634.
07:31:47 1663 1664	 1492327907	 738174486	 161222.
07:31:47 1664 1665	 1492327907	 871063228	 132889.
07:31:48 1665 1666	 1492327908	 36552296	 165489.
07:31:48 1666 1667	 1492327908	 197588865	 161037.
07:31:48 1667 1668	 1492327908	 362550055	 164961.
07:31:48 1668 1669	 1492327908	 495219923	 132670.
07:31:48 1669 1670	 1492327908	 656258584	 161038.
07:31:48 1670 1671	 1492327908	 821293807	 165036.
07:31:48 1671 1672	 1492327908	 982495052	 161201.
07:31:49 1672 1673	 1492327909	 115307543	 132812.
07:31:49 1673 1674	 1492327909	 281191590	 165884.
07:31:49 1674 1675	 1492327909	 443423118	 162232.
07:31:49 1675 1676	 1492327909	 605294073	 161871.
07:31:49 1676 1677	 1492327909	 770831298	 165537.
07:31:49 1677 1678	 1492327909	 903774174	 132943.
07:31:50 1678 1679	 1492327910	 69595753	 165822.
07:31:50 1679 1680	 1492327910	 231292723	 161696.
07:31:50 1680 1681	 1492327910	 396690828	 165399.
07:31:50 1681 1682	 1492327910	 558376798	 161686.
07:31:50 1682 1683	 1492327910	 695515229	 137138.
07:31:50 1683 1684	 1492327910	 856906934	 161392.
07:31:51 1684 1685	 1492327911	 22601012	 165694.
07:31:51 1685 1686	 1492327911	 184188690	 161587.
07:31:51 1686 1687	 1492327911	 321275107	 137087.
07:31:51 1687 1688	 1492327911	 482950512	 161675.
07:31:51 1688 1689	 1492327911	 644804148	 161854.
07:31:51 1689 1690	 1492327911	 810737536	 165933.
07:31:51 1690 1691	 1492327911	 943249023	 132512.
07:31:52 1691 1692	 1492327912	 108514445	 165265.
07:31:52 1692 1693	 1492327912	 270448663	 161934.
07:31:52 1693 1694	 1492327912	 403298236	 132850.
07:31:52 1694 1695	 1492327912	 568536954	 165239.
07:31:52 1695 1696	 1492327912	 729943687	 161406.
07:31:52 1696 1697	 1492327912	 866891643	 136948.
07:31:53 1697 1698	 1492327913	 28170299	 161279.
07:31:53 1698 1699	 1492327913	 189243032	 161073.
07:31:53 1699 1700	 1492327913	 355378566	 166135.
07:31:53 1700 1701	 1492327913	 488236977	 132859.
07:31:53 1701 1702	 1492327913	 653579507	 165342.
07:31:53 1702 1703	 1492327913	 814835902	 161257.
07:31:53 1703 1704	 1492327913	 951946817	 137111.
07:31:54 1704 1705	 1492327914	 113426730	 161480.
07:31:54 1705 1706	 1492327914	 279354231	 165927.
07:31:54 1706 1707	 1492327914	 440482996	 161129.
07:31:54 1707 1708	 1492327914	 577470651	 136987.
07:31:54 1708 1709	 1492327914	 738679428	 161209.
07:31:54 1709 1710	 1492327914	 904421627	 165742.
07:31:55 1710 1711	 1492327915	 37199107	 132778.
07:31:55 1711 1712	 1492327915	 198538751	 161340.
07:31:55 1712 1713	 1492327915	 364171290	 165632.
07:31:55 1713 1714	 1492327915	 497083960	 132913.
07:31:55 1714 1715	 1492327915	 662476782	 165393.
07:31:55 1715 1716	 1492327915	 823412589	 160935.
07:31:55 1716 1717	 1492327915	 959663921	 136252.
07:31:56 1717 1718	 1492327916	 121490943	 161827.
07:31:56 1718 1719	 1492327916	 287115701	 165624.
07:31:56 1719 1720	 1492327916	 449326545	 162211.
07:31:56 1720 1721	 1492327916	 586091846	 136766.
07:31:56 1721 1722	 1492327916	 748025716	 161933.
07:31:56 1722 1723	 1492327916	 903166216	 155141.
07:31:57 1723 1724	 1492327917	 64746871	 161581.
07:31:57 1724 1725	 1492327917	 230545120	 165798.
07:31:57 1725 1726	 1492327917	 363369652	 132824.
07:31:57 1726 1727	 1492327917	 529381799	 166013.
07:31:57 1727 1728	 1492327917	 690797419	 161415.
07:31:57 1728 1729	 1492327917	 856581723	 165784.
07:31:58 1729 1730	 1492327918	 18651001	 162070.
07:31:58 1730 1731	 1492327918	 151879681	 133228.
07:31:58 1731 1732	 1492327918	 317808396	 165929.
07:31:58 1732 1733	 1492327918	 479113074	 161305.
07:31:58 1733 1734	 1492327918	 644590058	 165477.
07:31:58 1734 1735	 1492327918	 777378730	 132789.
07:31:58 1735 1736	 1492327918	 943365582	 165986.
07:31:59 1736 1737	 1492327919	 104955834	 161591.
07:31:59 1737 1738	 1492327919	 241734829	 136779.
07:31:59 1738 1739	 1492327919	 403646175	 161911.
07:31:59 1739 1740	 1492327919	 569226845	 165581.
07:31:59 1740 1741	 1492327919	 730334443	 161107.
07:31:59 1741 1742	 1492327919	 863052026	 132718.
07:32:00 1742 1743	 1492327920	 28988927	 165937.
07:32:00 1743 1744	 1492327920	 191201059	 162212.
07:32:00 1744 1745	 1492327920	 327459461	 136258.
07:32:00 1745 1746	 1492327920	 488982395	 161523.
07:32:00 1746 1747	 1492327920	 654961090	 165979.
07:32:00 1747 1748	 1492327920	 816372046	 161411.
07:32:00 1748 1749	 1492327920	 949507009	 133135.
07:32:01 1749 1750	 1492327921	 114975531	 165468.
07:32:01 1750 1751	 1492327921	 280877669	 165903.
07:32:01 1751 1752	 1492327921	 442418442	 161540.
07:32:01 1752 1753	 1492327921	 604318079	 161900.
07:32:01 1753 1754	 1492327921	 765886876	 161569.
07:32:01 1754 1755	 1492327921	 931966463	 166079.
07:32:02 1755 1756	 1492327922	 89660645	 157694.
07:32:02 1756 1757	 1492327922	 226723646	 137063.
07:32:02 1757 1758	 1492327922	 388167512	 161444.
07:32:02 1758 1759	 1492327922	 549767696	 161600.
07:32:02 1759 1760	 1492327922	 715319045	 165552.
07:32:02 1760 1761	 1492327922	 881276861	 165958.
07:32:03 1761 1762	 1492327923	 42948476	 161671.
07:32:03 1762 1763	 1492327923	 175417810	 132470.
07:32:03 1763 1764	 1492327923	 340564708	 165146.
07:32:03 1764 1765	 1492327923	 501849463	 161285.
07:32:03 1765 1766	 1492327923	 663055016	 161206.
07:32:03 1766 1767	 1492327923	 799743937	 136689.
07:32:03 1767 1768	 1492327923	 961247655	 161504.
07:32:04 1768 1769	 1492327924	 122331087	 161083.
07:32:04 1769 1770	 1492327924	 287622020	 165291.
07:32:04 1770 1771	 1492327924	 420419281	 132797.
07:32:04 1771 1772	 1492327924	 581957633	 161539.
07:32:04 1772 1773	 1492327924	 747403664	 165445.
07:32:04 1773 1774	 1492327924	 908662950	 161260.
07:32:05 1774 1775	 1492327925	 74342629	 165679.
07:32:05 1775 1776	 1492327925	 235972052	 161630.
07:32:05 1776 1777	 1492327925	 368790088	 132818.
07:32:05 1777 1778	 1492327925	 534644638	 165854.
07:32:05 1778 1779	 1492327925	 696476514	 161832.
07:32:05 1779 1780	 1492327925	 862120823	 165645.
07:32:06 1780 1781	 1492327926	 23818660	 161697.
07:32:06 1781 1782	 1492327926	 184903138	 161085.
07:32:06 1782 1783	 1492327926	 321997562	 137094.
07:32:06 1783 1784	 1492327926	 483872277	 161875.
07:32:06 1784 1785	 1492327926	 645932749	 162061.
07:32:06 1785 1786	 1492327926	 811629727	 165697.
07:32:06 1786 1787	 1492327926	 973353290	 161723.
07:32:07 1787 1788	 1492327927	 110230045	 136877.
07:32:07 1788 1789	 1492327927	 271912831	 161683.
07:32:07 1789 1790	 1492327927	 437255265	 165342.
07:32:07 1790 1791	 1492327927	 598740646	 161485.
07:32:07 1791 1792	 1492327927	 731373862	 132634.
07:32:07 1792 1793	 1492327927	 893491965	 162118.
07:32:08 1793 1794	 1492327928	 55022411	 161530.
07:32:08 1794 1795	 1492327928	 216977163	 161955.
07:32:08 1795 1796	 1492327928	 353918801	 136942.
07:32:08 1796 1797	 1492327928	 519763077	 165844.
07:32:08 1797 1798	 1492327928	 681106731	 161344.
07:32:08 1798 1799	 1492327928	 842449055	 161342.
07:32:08 1799 1800	 1492327928	 979559763	 137111.
07:32:09 1800 1801	 1492327929	 141502277	 161942.
07:32:09 1801 1802	 1492327929	 303532482	 162030.
07:32:09 1802 1803	 1492327929	 469586466	 166054.
07:32:09 1803 1804	 1492327929	 635796480	 166210.
07:32:09 1804 1805	 1492327929	 797643523	 161847.
07:32:09 1805 1806	 1492327929	 963726660	 166083.
07:32:10 1806 1807	 1492327930	 97204514	 133478.
07:32:10 1807 1808	 1492327930	 263633401	 166429.
07:32:10 1808 1809	 1492327930	 425729891	 162097.
07:32:10 1809 1810	 1492327930	 591882380	 166152.
07:32:10 1810 1811	 1492327930	 753759394	 161877.
07:32:10 1811 1812	 1492327930	 916043079	 162284.
07:32:11 1812 1813	 1492327931	 82067209	 166024.
07:32:11 1813 1814	 1492327931	 244355543	 162288.
07:32:11 1814 1815	 1492327931	 381904469	 137549.
07:32:11 1815 1816	 1492327931	 543440399	 161536.
07:32:11 1816 1817	 1492327931	 709028219	 165588.
07:32:11 1817 1818	 1492327931	 870811434	 161783.
07:32:12 1818 1819	 1492327932	 32489678	 161678.
07:32:12 1819 1820	 1492327932	 198161976	 165673.
07:32:12 1820 1821	 1492327932	 359904672	 161742.
07:32:12 1821 1822	 1492327932	 521485551	 161581.
07:32:12 1822 1823	 1492327932	 654609186	 133124.
07:32:12 1823 1824	 1492327932	 820248707	 165639.
07:32:12 1824 1825	 1492327932	 981876511	 161628.
07:32:13 1825 1826	 1492327933	 147636729	 165761.
07:32:13 1826 1827	 1492327933	 309317404	 161680.
07:32:13 1827 1828	 1492327933	 470896986	 161580.
07:32:13 1828 1829	 1492327933	 636597085	 165700.
07:32:13 1829 1830	 1492327933	 798222535	 161625.
07:32:13 1830 1831	 1492327933	 931173529	 132951.
07:32:14 1831 1832	 1492327934	 96767755	 165595.
07:32:14 1832 1833	 1492327934	 258243798	 161476.
07:32:14 1833 1834	 1492327934	 419887608	 161643.
07:32:14 1834 1835	 1492327934	 585705281	 165818.
07:32:14 1835 1836	 1492327934	 747551262	 161846.
07:32:14 1836 1837	 1492327934	 913143385	 165592.
07:32:15 1837 1838	 1492327935	 46015897	 132873.
07:32:15 1838 1839	 1492327935	 207438673	 161422.
07:32:15 1839 1840	 1492327935	 373037470	 165599.
07:32:15 1840 1841	 1492327935	 534919357	 161882.
07:32:15 1841 1842	 1492327935	 671946961	 137028.
07:32:15 1842 1843	 1492327935	 833340535	 161393.
07:32:15 1843 1844	 1492327935	 994578067	 161238.
07:32:16 1844 1845	 1492327936	 160319532	 165741.
07:32:16 1845 1846	 1492327936	 321731913	 161413.
07:32:16 1846 1847	 1492327936	 454745101	 133013.
07:32:16 1847 1848	 1492327936	 620177108	 165432.
07:32:16 1848 1849	 1492327936	 782012939	 161836.
07:32:16 1849 1850	 1492327936	 947354157	 165341.
07:32:17 1850 1851	 1492327937	 109085515	 161731.
07:32:17 1851 1852	 1492327937	 246420841	 137336.
07:32:17 1852 1853	 1492327937	 407934369	 161513.
07:32:17 1853 1854	 1492327937	 573911463	 165977.
07:32:17 1854 1855	 1492327937	 735609535	 161698.
07:32:17 1855 1856	 1492327937	 897401891	 161793.
07:32:18 1856 1857	 1492327938	 63479367	 166077.
07:32:18 1857 1858	 1492327938	 196550030	 133071.
07:32:18 1858 1859	 1492327938	 361869156	 165319.
07:32:18 1859 1860	 1492327938	 523444765	 161576.
07:32:18 1860 1861	 1492327938	 685344360	 161899.
07:32:18 1861 1862	 1492327938	 850938536	 165594.
07:32:18 1862 1863	 1492327938	 983677567	 132739.
07:32:19 1863 1864	 1492327939	 146038094	 162361.
07:32:19 1864 1865	 1492327939	 307957769	 161920.
07:32:19 1865 1866	 1492327939	 465596373	 157638.
07:32:19 1866 1867	 1492327939	 631831931	 166236.
07:32:19 1867 1868	 1492327939	 793524250	 161692.
07:32:19 1868 1869	 1492327939	 930897874	 137374.
07:32:20 1869 1870	 1492327940	 93327211	 162429.
07:32:20 1870 1871	 1492327940	 259310565	 165983.
07:32:20 1871 1872	 1492327940	 420926734	 161617.
07:32:20 1872 1873	 1492327940	 586852687	 165925.
07:32:20 1873 1874	 1492327940	 748579674	 161727.
07:32:20 1874 1875	 1492327940	 881456446	 132877.
07:32:21 1875 1876	 1492327941	 47280050	 165824.
07:32:21 1876 1877	 1492327941	 208893870	 161614.
07:32:21 1877 1878	 1492327941	 374160587	 165266.
07:32:21 1878 1879	 1492327941	 507461970	 133302.
07:32:21 1879 1880	 1492327941	 673391922	 165930.
07:32:21 1880 1881	 1492327941	 835173011	 161781.
07:32:21 1881 1882	 1492327941	 997038915	 161866.
07:32:22 1882 1883	 1492327942	 162699382	 165660.
07:32:22 1883 1884	 1492327942	 295278109	 132579.
07:32:22 1884 1885	 1492327942	 461091249	 165813.
07:32:22 1885 1886	 1492327942	 622660212	 161569.
07:32:22 1886 1887	 1492327942	 788529396	 165869.
07:32:22 1887 1888	 1492327942	 921393839	 132865.
07:32:23 1888 1889	 1492327943	 82775882	 161382.
07:32:23 1889 1890	 1492327943	 248174184	 165398.
07:32:23 1890 1891	 1492327943	 409514552	 161340.
07:32:23 1891 1892	 1492327943	 546400305	 136886.
07:32:23 1892 1893	 1492327943	 708106338	 161706.
07:32:23 1893 1894	 1492327943	 869748978	 161643.
07:32:24 1894 1895	 1492327944	 35405700	 165657.
07:32:24 1895 1896	 1492327944	 196904454	 161498.
07:32:24 1896 1897	 1492327944	 362434019	 165530.
07:32:24 1897 1898	 1492327944	 524264371	 161830.
07:32:24 1898 1899	 1492327944	 657157445	 132893.
07:32:24 1899 1900	 1492327944	 822652357	 165495.
07:32:24 1900 1901	 1492327944	 984378913	 161727.
07:32:25 1901 1902	 1492327945	 150035658	 165656.
07:32:25 1902 1903	 1492327945	 283003145	 132968.
07:32:25 1903 1904	 1492327945	 448802973	 165800.
07:32:25 1904 1905	 1492327945	 606946605	 158143.
07:32:25 1905 1906	 1492327945	 768552228	 161606.
07:32:25 1906 1907	 1492327945	 904993914	 136442.
07:32:26 1907 1908	 1492327946	 66296729	 161303.
07:32:26 1908 1909	 1492327946	 231909447	 165612.
07:32:26 1909 1910	 1492327946	 365080851	 133172.
07:32:26 1910 1911	 1492327946	 526969984	 161889.
07:32:26 1911 1912	 1492327946	 692285826	 165316.
