15:53:44    0 Step	 time(s)	 time(ns)	 delta(ms)
15:53:44    0 1	 1492530824	 945023339	 941.
15:53:45    1 2	 1492530825	 106676574	 161653.
15:53:45    2 3	 1492530825	 272308648	 165632.
15:53:45    3 4	 1492530825	 405246649	 132938.
15:53:45    4 5	 1492530825	 570851324	 165605.
15:53:45    5 6	 1492530825	 732460438	 161609.
15:53:45    6 7	 1492530825	 898422555	 165962.
15:53:46    7 8	 1492530826	 31256542	 132834.
15:53:46    8 9	 1492530826	 192745980	 161490.
15:53:46    9 10	 1492530826	 358491903	 165746.
15:53:46   10 11	 1492530826	 520090443	 161598.
15:53:46   11 12	 1492530826	 685661671	 165571.
15:53:46   12 13	 1492530826	 818826186	 133165.
15:53:46   13 14	 1492530826	 984441167	 165615.
15:53:47   14 15	 1492530827	 145934317	 161493.
15:53:47   15 16	 1492530827	 307433043	 161499.
15:53:47   16 17	 1492530827	 444249550	 136816.
15:53:47   17 18	 1492530827	 605790723	 161541.
15:53:47   18 19	 1492530827	 771229289	 165439.
15:53:47   19 20	 1492530827	 903901363	 132672.
15:53:48   20 21	 1492530828	 69504869	 165604.
15:53:48   21 22	 1492530828	 234896350	 165391.
15:53:48   22 23	 1492530828	 395914342	 161018.
15:53:48   23 24	 1492530828	 532724740	 136810.
15:53:48   24 25	 1492530828	 694292088	 161568.
15:53:48   25 26	 1492530828	 859610683	 165318.
15:53:48   26 27	 1492530828	 992742493	 133132.
15:53:49   27 28	 1492530829	 158350207	 165608.
15:53:49   28 29	 1492530829	 319886505	 161536.
15:53:49   29 30	 1492530829	 481411380	 161525.
15:53:49   30 31	 1492530829	 618373346	 136962.
15:53:49   31 32	 1492530829	 783944985	 165572.
15:53:49   32 33	 1492530829	 945319719	 161374.
15:53:50   33 34	 1492530830	 78198217	 132879.
15:53:50   34 35	 1492530830	 243912738	 165714.
15:53:50   35 36	 1492530830	 405136455	 161224.
15:53:50   36 37	 1492530830	 566570672	 161434.
15:53:50   37 38	 1492530830	 732126821	 165557.
15:53:50   38 39	 1492530830	 865111482	 132984.
15:53:51   39 40	 1492530831	 26273501	 161162.
15:53:51   40 41	 1492530831	 191372081	 165099.
15:53:51   41 42	 1492530831	 352754082	 161382.
15:53:51   42 43	 1492530831	 485383814	 132630.
15:53:51   43 44	 1492530831	 650394216	 165010.
15:53:51   44 45	 1492530831	 811400616	 161006.
15:53:51   45 46	 1492530831	 976782024	 165382.
15:53:52   46 47	 1492530832	 110099476	 133317.
15:53:52   47 48	 1492530832	 275956079	 165857.
15:53:52   48 49	 1492530832	 437373721	 161417.
15:53:52   49 50	 1492530832	 602625142	 165252.
15:53:52   50 51	 1492530832	 735607775	 132982.
15:53:52   51 52	 1492530832	 896726779	 161120.
15:53:53   52 53	 1492530833	 62014175	 165287.
15:53:53   53 54	 1492530833	 194503985	 132490.
15:53:53   54 55	 1492530833	 355775166	 161271.
15:53:53   55 56	 1492530833	 520993478	 165218.
15:53:53   56 57	 1492530833	 682270730	 161277.
15:53:53   57 58	 1492530833	 843858872	 161589.
15:53:53   58 59	 1492530833	 981034809	 137176.
15:53:54   59 60	 1492530834	 142357260	 161322.
15:53:54   60 61	 1492530834	 307721835	 165365.
15:53:54   61 62	 1492530834	 469225868	 161504.
15:53:54   62 63	 1492530834	 635261207	 166035.
15:53:54   63 64	 1492530834	 768355641	 133094.
15:53:54   64 65	 1492530834	 930361254	 162006.
15:53:55   65 66	 1492530835	 96000567	 165639.
15:53:55   66 67	 1492530835	 257698705	 161698.
15:53:55   67 68	 1492530835	 423716096	 166018.
15:53:55   68 69	 1492530835	 556872029	 133156.
15:53:55   69 70	 1492530835	 723150242	 166278.
15:53:55   70 71	 1492530835	 880944696	 157794.
15:53:56   71 72	 1492530836	 46629239	 165685.
15:53:56   72 73	 1492530836	 208540557	 161911.
15:53:56   73 74	 1492530836	 345691446	 137151.
15:53:56   74 75	 1492530836	 506773811	 161082.
15:53:56   75 76	 1492530836	 672277831	 165505.
15:53:56   76 77	 1492530836	 804935141	 132657.
15:53:56   77 78	 1492530836	 966378684	 161443.
15:53:57   78 79	 1492530837	 132072775	 165694.
15:53:57   79 80	 1492530837	 268849929	 136778.
15:53:57   80 81	 1492530837	 430267379	 161417.
15:53:57   81 82	 1492530837	 592148287	 161881.
15:53:57   82 83	 1492530837	 758018877	 165871.
15:53:57   83 84	 1492530837	 890879757	 132860.
15:53:58   84 85	 1492530838	 56412547	 165533.
15:53:58   85 86	 1492530838	 222046150	 165634.
15:53:58   86 87	 1492530838	 354547666	 132501.
15:53:58   87 88	 1492530838	 520571547	 166024.
15:53:58   88 89	 1492530838	 682368674	 161797.
15:53:58   89 90	 1492530838	 843820470	 161452.
15:53:58   90 91	 1492530838	 980824780	 137004.
15:53:59   91 92	 1492530839	 142377456	 161553.
15:53:59   92 93	 1492530839	 308021925	 165645.
15:53:59   93 94	 1492530839	 469623536	 161601.
15:53:59   94 95	 1492530839	 607050439	 137427.
15:53:59   95 96	 1492530839	 768557970	 161508.
15:53:59   96 97	 1492530839	 930694849	 162137.
15:54:00   97 98	 1492530840	 96180518	 165485.
15:54:00   98 99	 1492530840	 257788826	 161609.
15:54:00   99 100	 1492530840	 394708019	 136919.
15:54:00  100 101	 1492530840	 556200040	 161492.
15:54:00  101 102	 1492530840	 717681215	 161481.
15:54:00  102 103	 1492530840	 879365057	 161684.
15:54:01  103 104	 1492530841	 45246853	 165882.
15:54:01  104 105	 1492530841	 206655952	 161409.
15:54:01  105 106	 1492530841	 372444755	 165788.
15:54:01  106 107	 1492530841	 534228848	 161785.
15:54:01  107 108	 1492530841	 667196730	 132967.
15:54:01  108 109	 1492530841	 828871119	 161675.
15:54:01  109 110	 1492530841	 995043661	 166172.
15:54:02  110 111	 1492530842	 156934575	 161891.
15:54:02  111 112	 1492530842	 322567181	 165633.
15:54:02  112 113	 1492530842	 484111428	 161544.
15:54:02  113 114	 1492530842	 649777878	 165667.
15:54:02  114 115	 1492530842	 782867737	 133089.
15:54:02  115 116	 1492530842	 944106911	 161240.
15:54:03  116 117	 1492530843	 109226982	 165120.
15:54:03  117 118	 1492530843	 270608771	 161381.
15:54:03  118 119	 1492530843	 403052331	 132444.
15:54:03  119 120	 1492530843	 568307827	 165256.
15:54:03  120 121	 1492530843	 729327026	 161019.
15:54:03  121 122	 1492530843	 894644118	 165317.
15:54:04  122 123	 1492530844	 27403650	 132759.
15:54:04  123 124	 1492530844	 188648534	 161245.
15:54:04  124 125	 1492530844	 353907066	 165259.
15:54:04  125 126	 1492530844	 515276929	 161370.
15:54:04  126 127	 1492530844	 647878385	 132601.
15:54:04  127 128	 1492530844	 813637131	 165759.
15:54:04  128 129	 1492530844	 974991802	 161355.
15:54:05  129 130	 1492530845	 136522689	 161530.
15:54:05  130 131	 1492530845	 302159258	 165637.
15:54:05  131 132	 1492530845	 459836245	 157677.
15:54:05  132 133	 1492530845	 596873904	 137038.
15:54:05  133 134	 1492530845	 757994609	 161120.
15:54:05  134 135	 1492530845	 923589141	 165595.
15:54:06  135 136	 1492530846	 85135588	 161546.
15:54:06  136 137	 1492530846	 217918562	 132783.
15:54:06  137 138	 1492530846	 383072285	 165154.
15:54:06  138 139	 1492530846	 545044873	 161973.
15:54:06  139 140	 1492530846	 710494056	 165449.
15:54:06  140 141	 1492530846	 872565627	 162071.
15:54:07  141 142	 1492530847	 5517264	 132952.
15:54:07  142 143	 1492530847	 170814515	 165297.
15:54:07  143 144	 1492530847	 332629358	 161815.
15:54:07  144 145	 1492530847	 498615803	 165986.
15:54:07  145 146	 1492530847	 660249796	 161634.
15:54:07  146 147	 1492530847	 822079118	 161830.
15:54:07  147 148	 1492530847	 987659585	 165580.
15:54:08  148 149	 1492530848	 120737998	 133079.
15:54:08  149 150	 1492530848	 282504491	 161766.
15:54:08  150 151	 1492530848	 448206631	 165702.
15:54:08  151 152	 1492530848	 609870491	 161664.
15:54:08  152 153	 1492530848	 771617791	 161747.
15:54:08  153 154	 1492530848	 937301686	 165684.
15:54:09  154 155	 1492530849	 98998108	 161697.
15:54:09  155 156	 1492530849	 264659632	 165661.
15:54:09  156 157	 1492530849	 426471806	 161813.
15:54:09  157 158	 1492530849	 559440528	 132968.
15:54:09  158 159	 1492530849	 721308165	 161868.
15:54:09  159 160	 1492530849	 887012369	 165704.
15:54:10  160 161	 1492530850	 49199296	 162187.
15:54:10  161 162	 1492530850	 215173475	 165974.
15:54:10  162 163	 1492530850	 377255507	 162082.
15:54:10  163 164	 1492530850	 538641285	 161386.
15:54:10  164 165	 1492530850	 675360155	 136719.
15:54:10  165 166	 1492530850	 837085699	 161725.
15:54:10  166 167	 1492530850	 998618396	 161533.
15:54:11  167 168	 1492530851	 164497043	 165879.
15:54:11  168 169	 1492530851	 330598014	 166101.
15:54:11  169 170	 1492530851	 463655485	 133057.
15:54:11  170 171	 1492530851	 625397530	 161742.
15:54:11  171 172	 1492530851	 791122877	 165726.
15:54:11  172 173	 1492530851	 952777704	 161654.
15:54:12  173 174	 1492530852	 114422185	 161645.
15:54:12  174 175	 1492530852	 280188570	 165766.
15:54:12  175 176	 1492530852	 413261499	 133074.
15:54:12  176 177	 1492530852	 579635854	 166374.
15:54:12  177 178	 1492530852	 741883044	 162247.
15:54:12  178 179	 1492530852	 903929130	 162046.
15:54:13  179 180	 1492530853	 69778297	 165849.
15:54:13  180 181	 1492530853	 231759529	 161981.
15:54:13  181 182	 1492530853	 397590932	 165832.
15:54:13  182 183	 1492530853	 559217090	 161626.
15:54:13  183 184	 1492530853	 720689169	 161472.
15:54:13  184 185	 1492530853	 853539625	 132850.
15:54:14  185 186	 1492530854	 19242798	 165703.
15:54:14  186 187	 1492530854	 181074087	 161832.
15:54:14  187 188	 1492530854	 342638774	 161564.
15:54:14  188 189	 1492530854	 508188770	 165550.
15:54:14  189 190	 1492530854	 669942360	 161754.
15:54:14  190 191	 1492530854	 835214559	 165272.
15:54:14  191 192	 1492530854	 996797226	 161583.
15:54:15  192 193	 1492530855	 129431444	 132634.
15:54:15  193 194	 1492530855	 295011827	 165581.
15:54:15  194 195	 1492530855	 456355186	 161343.
15:54:15  195 196	 1492530855	 617512310	 161157.
15:54:15  196 197	 1492530855	 782938363	 165426.
15:54:15  197 198	 1492530855	 915901478	 132963.
15:54:16  198 199	 1492530856	 77316700	 161415.
15:54:16  199 200	 1492530856	 242877038	 165561.
15:54:16  200 201	 1492530856	 404412504	 161535.
15:54:16  201 202	 1492530856	 565888644	 161476.
15:54:16  202 203	 1492530856	 731523512	 165635.
15:54:16  203 204	 1492530856	 892938277	 161415.
15:54:17  204 205	 1492530857	 29768473	 136830.
15:54:17  205 206	 1492530857	 191131400	 161363.
15:54:17  206 207	 1492530857	 352381505	 161250.
15:54:17  207 208	 1492530857	 518078376	 165697.
15:54:17  208 209	 1492530857	 679766581	 161688.
15:54:17  209 210	 1492530857	 841176443	 161410.
15:54:17  210 211	 1492530857	 977992287	 136816.
15:54:18  211 212	 1492530858	 139542271	 161550.
15:54:18  212 213	 1492530858	 300991833	 161450.
15:54:18  213 214	 1492530858	 461963045	 160971.
15:54:18  214 215	 1492530858	 594475785	 132512.
15:54:18  215 216	 1492530858	 755467142	 160992.
15:54:18  216 217	 1492530858	 920716939	 165250.
15:54:19  217 218	 1492530859	 81963023	 161246.
15:54:19  218 219	 1492530859	 214618194	 132655.
15:54:19  219 220	 1492530859	 379967590	 165349.
15:54:19  220 221	 1492530859	 541192644	 161225.
15:54:19  221 222	 1492530859	 706401083	 165209.
15:54:19  222 223	 1492530859	 867835706	 161434.
15:54:19  223 224	 1492530860	 569846	 132735.
15:54:20  224 225	 1492530860	 161645614	 161075.
15:54:20  225 226	 1492530860	 326746047	 165101.
15:54:20  226 227	 1492530860	 459178939	 132433.
15:54:20  227 228	 1492530860	 620408073	 161229.
15:54:20  228 229	 1492530860	 785759636	 165351.
15:54:20  229 230	 1492530860	 947103319	 161344.
15:54:21  230 231	 1492530861	 108149235	 161046.
15:54:21  231 232	 1492530861	 244615397	 136466.
15:54:21  232 233	 1492530861	 405781699	 161166.
15:54:21  233 234	 1492530861	 567033946	 161253.
15:54:21  234 235	 1492530861	 732327627	 165293.
15:54:21  235 236	 1492530861	 865166259	 132839.
15:54:22  236 237	 1492530862	 30899228	 165733.
15:54:22  237 238	 1492530862	 192480250	 161581.
15:54:22  238 239	 1492530862	 357767993	 165288.
15:54:22  239 240	 1492530862	 490535991	 132768.
15:54:22  240 241	 1492530862	 651825993	 161290.
15:54:22  241 242	 1492530862	 813289757	 161463.
15:54:22  242 243	 1492530862	 978658445	 165369.
15:54:23  243 244	 1492530863	 111248590	 132590.
15:54:23  244 245	 1492530863	 272773874	 161526.
15:54:23  245 246	 1492530863	 438216633	 165442.
15:54:23  246 247	 1492530863	 599613109	 161397.
15:54:23  247 248	 1492530863	 732360357	 132747.
15:54:23  248 249	 1492530863	 897915038	 165555.
15:54:24  249 250	 1492530864	 59696528	 161781.
15:54:24  250 251	 1492530864	 221495332	 161799.
15:54:24  251 252	 1492530864	 387089083	 165594.
15:54:24  252 253	 1492530864	 519696631	 132607.
15:54:24  253 254	 1492530864	 681401998	 161706.
15:54:24  254 255	 1492530864	 846976589	 165574.
15:54:25  255 256	 1492530865	 8931880	 161956.
15:54:25  256 257	 1492530865	 170661996	 161730.
15:54:25  257 258	 1492530865	 336694524	 166032.
15:54:25  258 259	 1492530865	 469535448	 132841.
15:54:25  259 260	 1492530865	 635289918	 165755.
15:54:25  260 261	 1492530865	 796868232	 161578.
15:54:25  261 262	 1492530865	 962403784	 165536.
15:54:26  262 263	 1492530866	 95313850	 132910.
15:54:26  263 264	 1492530866	 256878520	 161564.
15:54:26  264 265	 1492530866	 422323568	 165445.
15:54:26  265 266	 1492530866	 583937958	 161615.
15:54:26  266 267	 1492530866	 749577560	 165639.
15:54:26  267 268	 1492530866	 882351684	 132774.
15:54:27  268 269	 1492530867	 47999410	 165648.
15:54:27  269 270	 1492530867	 209503760	 161504.
15:54:27  270 271	 1492530867	 370929395	 161426.
15:54:27  271 272	 1492530867	 507967188	 137038.
15:54:27  272 273	 1492530867	 669684148	 161717.
15:54:27  273 274	 1492530867	 831451560	 161767.
15:54:27  274 275	 1492530867	 997193063	 165742.
15:54:28  275 276	 1492530868	 159160556	 161967.
15:54:28  276 277	 1492530868	 296642944	 137483.
15:54:28  277 278	 1492530868	 458265833	 161623.
15:54:28  278 279	 1492530868	 624165050	 165899.
15:54:28  279 280	 1492530868	 785841058	 161676.
15:54:28  280 281	 1492530868	 922930543	 137089.
15:54:29  281 282	 1492530869	 84801847	 161872.
15:54:29  282 283	 1492530869	 250547909	 165746.
15:54:29  283 284	 1492530869	 412422946	 161875.
15:54:29  284 285	 1492530869	 578116245	 165693.
15:54:29  285 286	 1492530869	 711264168	 133148.
15:54:29  286 287	 1492530869	 877783625	 166519.
15:54:30  287 288	 1492530870	 40057057	 162274.
15:54:30  288 289	 1492530870	 206395357	 166338.
15:54:30  289 290	 1492530870	 368618564	 162223.
15:54:30  290 291	 1492530870	 534915984	 166298.
15:54:30  291 292	 1492530870	 696893965	 161978.
15:54:30  292 293	 1492530870	 859256578	 162362.
15:54:30  293 294	 1492530870	 996110713	 136855.
15:54:31  294 295	 1492530871	 157821109	 161710.
15:54:31  295 296	 1492530871	 323916116	 166095.
15:54:31  296 297	 1492530871	 486023273	 162107.
15:54:31  297 298	 1492530871	 648121704	 162099.
15:54:31  298 299	 1492530871	 814180794	 166058.
15:54:31  299 300	 1492530871	 947233770	 133053.
15:54:32  300 301	 1492530872	 113346360	 166113.
15:54:32  301 302	 1492530872	 275135397	 161789.
15:54:32  302 303	 1492530872	 436812189	 161677.
15:54:32  303 304	 1492530872	 602642706	 165830.
15:54:32  304 305	 1492530872	 735509896	 132868.
15:54:32  305 306	 1492530872	 901325870	 165816.
15:54:33  306 307	 1492530873	 62828759	 161502.
15:54:33  307 308	 1492530873	 228797679	 165969.
15:54:33  308 309	 1492530873	 394406852	 165610.
15:54:33  309 310	 1492530873	 527972456	 133565.
15:54:33  310 311	 1492530873	 693782908	 165811.
15:54:33  311 312	 1492530873	 855364624	 161581.
15:54:34  312 313	 1492530874	 21277944	 165914.
15:54:34  313 314	 1492530874	 153737195	 132459.
15:54:34  314 315	 1492530874	 319731823	 165995.
15:54:34  315 316	 1492530874	 481048222	 161316.
15:54:34  316 317	 1492530874	 646774237	 165726.
15:54:34  317 318	 1492530874	 780284657	 133510.
15:54:34  318 319	 1492530874	 937832266	 157548.
15:54:35  319 320	 1492530875	 103678192	 165846.
15:54:35  320 321	 1492530875	 265537019	 161859.
15:54:35  321 322	 1492530875	 402682867	 137146.
15:54:35  322 323	 1492530875	 564448673	 161765.
15:54:35  323 324	 1492530875	 726570465	 162122.
15:54:35  324 325	 1492530875	 892241854	 165672.
15:54:36  325 326	 1492530876	 53631010	 161389.
15:54:36  326 327	 1492530876	 219478871	 165848.
15:54:36  327 328	 1492530876	 352465153	 132986.
15:54:36  328 329	 1492530876	 518114674	 165649.
15:54:36  329 330	 1492530876	 679538823	 161425.
15:54:36  330 331	 1492530876	 845353738	 165814.
15:54:36  331 332	 1492530876	 978378534	 133025.
15:54:37  332 333	 1492530877	 143754675	 165376.
15:54:37  333 334	 1492530877	 305780280	 162026.
15:54:37  334 335	 1492530877	 438768079	 132988.
15:54:37  335 336	 1492530877	 604649915	 165882.
15:54:37  336 337	 1492530877	 766425990	 161776.
15:54:37  337 338	 1492530877	 932416009	 165990.
15:54:38  338 339	 1492530878	 65181316	 132765.
15:54:38  339 340	 1492530878	 226429773	 161248.
15:54:38  340 341	 1492530878	 391782338	 165353.
15:54:38  341 342	 1492530878	 553832967	 162051.
15:54:38  342 343	 1492530878	 690779895	 136947.
15:54:38  343 344	 1492530878	 852052895	 161273.
15:54:39  344 345	 1492530879	 18148262	 166095.
15:54:39  345 346	 1492530879	 180240873	 162093.
15:54:39  346 347	 1492530879	 317265041	 137024.
15:54:39  347 348	 1492530879	 479170754	 161905.
15:54:39  348 349	 1492530879	 645084240	 165914.
15:54:39  349 350	 1492530879	 807044976	 161961.
15:54:39  350 351	 1492530879	 973111239	 166066.
15:54:40  351 352	 1492530880	 135061484	 161950.
15:54:40  352 353	 1492530880	 272359604	 137298.
15:54:40  353 354	 1492530880	 434317015	 161958.
15:54:40  354 355	 1492530880	 600003064	 165686.
15:54:40  355 356	 1492530880	 761109326	 161106.
15:54:40  356 357	 1492530880	 893669708	 132560.
15:54:41  357 358	 1492530881	 58946411	 165277.
15:54:41  358 359	 1492530881	 220453861	 161508.
15:54:41  359 360	 1492530881	 356966168	 136512.
15:54:41  360 361	 1492530881	 518906098	 161940.
15:54:41  361 362	 1492530881	 684445883	 165540.
15:54:41  362 363	 1492530881	 845737772	 161291.
15:54:41  363 364	 1492530881	 978683481	 132946.
15:54:42  364 365	 1492530882	 144439778	 165756.
15:54:42  365 366	 1492530882	 306232673	 161793.
15:54:42  366 367	 1492530882	 471362088	 165130.
15:54:42  367 368	 1492530882	 604139796	 132777.
15:54:42  368 369	 1492530882	 765346213	 161207.
15:54:42  369 370	 1492530882	 930753699	 165407.
15:54:43  370 371	 1492530883	 63427206	 132674.
15:54:43  371 372	 1492530883	 229288409	 165861.
15:54:43  372 373	 1492530883	 390517217	 161229.
15:54:43  373 374	 1492530883	 556348314	 165831.
15:54:43  374 375	 1492530883	 689063121	 132715.
15:54:43  375 376	 1492530883	 855095298	 166032.
15:54:44  376 377	 1492530884	 16649760	 161554.
15:54:44  377 378	 1492530884	 178221678	 161572.
15:54:44  378 379	 1492530884	 344101730	 165880.
15:54:44  379 380	 1492530884	 505429103	 161328.
15:54:44  380 381	 1492530884	 638189411	 132760.
15:54:44  381 382	 1492530884	 803621421	 165432.
15:54:44  382 383	 1492530884	 965158164	 161537.
15:54:45  383 384	 1492530885	 130795983	 165638.
15:54:45  384 385	 1492530885	 292263795	 161468.
15:54:45  385 386	 1492530885	 428960502	 136696.
15:54:45  386 387	 1492530885	 590178778	 161218.
15:54:45  387 388	 1492530885	 751204721	 161027.
15:54:45  388 389	 1492530885	 917260146	 166055.
15:54:46  389 390	 1492530886	 74852570	 157592.
15:54:46  390 391	 1492530886	 207984914	 133133.
15:54:46  391 392	 1492530886	 373553529	 165568.
15:54:46  392 393	 1492530886	 535119450	 161566.
15:54:46  393 394	 1492530886	 701321244	 166202.
15:54:46  394 395	 1492530886	 862753647	 161432.
15:54:46  395 396	 1492530886	 995624145	 132871.
15:54:47  396 397	 1492530887	 153760547	 158136.
15:54:47  397 398	 1492530887	 315395658	 161635.
15:54:47  398 399	 1492530887	 481036401	 165641.
15:54:47  399 400	 1492530887	 642735718	 161699.
15:54:47  400 401	 1492530887	 808637581	 165902.
15:54:47  401 402	 1492530887	 941783481	 133146.
15:54:48  402 403	 1492530888	 103133379	 161350.
15:54:48  403 404	 1492530888	 268701044	 165568.
15:54:48  404 405	 1492530888	 430029114	 161328.
15:54:48  405 406	 1492530888	 566964601	 136935.
15:54:48  406 407	 1492530888	 728533296	 161569.
15:54:48  407 408	 1492530888	 894162281	 165629.
15:54:49  408 409	 1492530889	 55753041	 161591.
15:54:49  409 410	 1492530889	 217297354	 161544.
15:54:49  410 411	 1492530889	 354067518	 136770.
15:54:49  411 412	 1492530889	 515316796	 161249.
15:54:49  412 413	 1492530889	 677130466	 161814.
15:54:49  413 414	 1492530889	 814099889	 136970.
15:54:49  414 415	 1492530889	 976228874	 162129.
15:54:50  415 416	 1492530890	 142325563	 166096.
15:54:50  416 417	 1492530890	 303663891	 161339.
15:54:50  417 418	 1492530890	 465429307	 161765.
15:54:50  418 419	 1492530890	 602586257	 137157.
15:54:50  419 420	 1492530890	 764185030	 161599.
15:54:50  420 421	 1492530890	 929893769	 165708.
15:54:51  421 422	 1492530891	 91531575	 161638.
15:54:51  422 423	 1492530891	 228182750	 136651.
15:54:51  423 424	 1492530891	 389264677	 161082.
15:54:51  424 425	 1492530891	 550552148	 161288.
15:54:51  425 426	 1492530891	 715900035	 165348.
15:54:51  426 427	 1492530891	 848377734	 132477.
15:54:52  427 428	 1492530892	 13557645	 165180.
15:54:52  428 429	 1492530892	 170846261	 157289.
15:54:52  429 430	 1492530892	 336090332	 165244.
15:54:52  430 431	 1492530892	 468797445	 132707.
15:54:52  431 432	 1492530892	 629781033	 160984.
15:54:52  432 433	 1492530892	 794799313	 165018.
15:54:52  433 434	 1492530892	 956063688	 161264.
15:54:53  434 435	 1492530893	 88336304	 132273.
15:54:53  435 436	 1492530893	 253491781	 165155.
15:54:53  436 437	 1492530893	 414598101	 161107.
15:54:53  437 438	 1492530893	 575664777	 161066.
15:54:53  438 439	 1492530893	 712310132	 136646.
15:54:53  439 440	 1492530893	 873307702	 160998.
15:54:54  440 441	 1492530894	 34777091	 161469.
15:54:54  441 442	 1492530894	 200249758	 165472.
15:54:54  442 443	 1492530894	 361724963	 161476.
15:54:54  443 444	 1492530894	 494602475	 132877.
15:54:54  444 445	 1492530894	 660170797	 165568.
15:54:54  445 446	 1492530894	 821550936	 161381.
15:54:54  446 447	 1492530894	 982915792	 161365.
15:54:55  447 448	 1492530895	 148685564	 165769.
15:54:55  448 449	 1492530895	 310099880	 161415.
15:54:55  449 450	 1492530895	 442800355	 132700.
15:54:55  450 451	 1492530895	 607955257	 165155.
15:54:55  451 452	 1492530895	 768995471	 161040.
15:54:55  452 453	 1492530895	 905664844	 136670.
15:54:56  453 454	 1492530896	 67445576	 161780.
15:54:56  454 455	 1492530896	 233132163	 165687.
15:54:56  455 456	 1492530896	 394569689	 161437.
15:54:56  456 457	 1492530896	 527453747	 132884.
15:54:56  457 458	 1492530896	 693404867	 165952.
15:54:56  458 459	 1492530896	 859371888	 165967.
15:54:57  459 460	 1492530897	 21814274	 162442.
15:54:57  460 461	 1492530897	 183577899	 161764.
15:54:57  461 462	 1492530897	 316753676	 133175.
15:54:57  462 463	 1492530897	 478240947	 161488.
15:54:57  463 464	 1492530897	 643746201	 165505.
15:54:57  464 465	 1492530897	 805568066	 161822.
15:54:57  465 466	 1492530897	 942416259	 136848.
15:54:58  466 467	 1492530898	 104264533	 161848.
15:54:58  467 468	 1492530898	 269565983	 165302.
15:54:58  468 469	 1492530898	 402256703	 132690.
15:54:58  469 470	 1492530898	 563991253	 161735.
15:54:58  470 471	 1492530898	 729649140	 165658.
15:54:58  471 472	 1492530898	 862413833	 132765.
15:54:59  472 473	 1492530899	 28392568	 165978.
15:54:59  473 474	 1492530899	 189984912	 161593.
15:54:59  474 475	 1492530899	 355884059	 165899.
15:54:59  475 476	 1492530899	 488830582	 132946.
15:54:59  476 477	 1492530899	 649966938	 161137.
15:54:59  477 478	 1492530899	 815257221	 165290.
15:54:59  478 479	 1492530899	 977230783	 161973.
15:55:00  479 480	 1492530900	 114391157	 137161.
15:55:00  480 481	 1492530900	 275727795	 161336.
15:55:00  481 482	 1492530900	 437332195	 161605.
15:55:00  482 483	 1492530900	 603183482	 165851.
15:55:00  483 484	 1492530900	 764714339	 161531.
15:55:00  484 485	 1492530900	 926334505	 161620.
15:55:01  485 486	 1492530901	 62918839	 136585.
15:55:01  486 487	 1492530901	 224212083	 161293.
15:55:01  487 488	 1492530901	 385724695	 161512.
15:55:01  488 489	 1492530901	 551293088	 165569.
15:55:01  489 490	 1492530901	 712786658	 161493.
15:55:01  490 491	 1492530901	 878748303	 165962.
15:55:02  491 492	 1492530902	 40502944	 161755.
15:55:02  492 493	 1492530902	 202042321	 161539.
15:55:02  493 494	 1492530902	 339164001	 137122.
15:55:02  494 495	 1492530902	 500978626	 161814.
15:55:02  495 496	 1492530902	 662474731	 161496.
15:55:02  496 497	 1492530902	 827878132	 165404.
15:55:02  497 498	 1492530902	 989471548	 161593.
15:55:03  498 499	 1492530903	 151307596	 161836.
15:55:03  499 500	 1492530903	 317116241	 165809.
15:55:03  500 501	 1492530903	 478760111	 161644.
15:55:03  501 502	 1492530903	 611663055	 132903.
15:55:03  502 503	 1492530903	 777435578	 165772.
15:55:03  503 504	 1492530903	 938833390	 161398.
15:55:04  504 505	 1492530904	 100466848	 161634.
15:55:04  505 506	 1492530904	 266220656	 165753.
15:55:04  506 507	 1492530904	 428159730	 161939.
15:55:04  507 508	 1492530904	 590041399	 161882.
15:55:04  508 509	 1492530904	 755729965	 165689.
15:55:04  509 510	 1492530904	 888673306	 132943.
15:55:05  510 511	 1492530905	 54469187	 165796.
15:55:05  511 512	 1492530905	 216138497	 161669.
15:55:05  512 513	 1492530905	 377734425	 161596.
15:55:05  513 514	 1492530905	 543306267	 165572.
15:55:05  514 515	 1492530905	 705065956	 161760.
15:55:05  515 516	 1492530905	 866923253	 161857.
15:55:06  516 517	 1492530906	 32817413	 165894.
15:55:06  517 518	 1492530906	 194450361	 161633.
15:55:06  518 519	 1492530906	 356394885	 161945.
15:55:06  519 520	 1492530906	 493683104	 137288.
15:55:06  520 521	 1492530906	 655345974	 161663.
15:55:06  521 522	 1492530906	 817269857	 161924.
15:55:06  522 523	 1492530906	 983240958	 165971.
15:55:07  523 524	 1492530907	 144728897	 161488.
15:55:07  524 525	 1492530907	 281452821	 136723.
15:55:07  525 526	 1492530907	 442912122	 161460.
15:55:07  526 527	 1492530907	 608828044	 165916.
15:55:07  527 528	 1492530907	 770895872	 162068.
15:55:07  528 529	 1492530907	 932073391	 161177.
15:55:08  529 530	 1492530908	 69088524	 137015.
15:55:08  530 531	 1492530908	 227498627	 158410.
15:55:08  531 532	 1492530908	 393273937	 165776.
15:55:08  532 533	 1492530908	 555093519	 161819.
15:55:08  533 534	 1492530908	 716732145	 161639.
15:55:08  534 535	 1492530908	 854083961	 137352.
15:55:09  535 536	 1492530909	 15687247	 161603.
15:55:09  536 537	 1492530909	 181748645	 166061.
15:55:09  537 538	 1492530909	 343819872	 162072.
15:55:09  538 539	 1492530909	 510237115	 166417.
15:55:09  539 540	 1492530909	 676353755	 166116.
15:55:09  540 541	 1492530909	 838031872	 161679.
15:55:09  541 542	 1492530909	 971204255	 133172.
15:55:10  542 543	 1492530910	 137190265	 165986.
15:55:10  543 544	 1492530910	 298911562	 161721.
15:55:10  544 545	 1492530910	 460677534	 161766.
15:55:10  545 546	 1492530910	 626242438	 165565.
15:55:10  546 547	 1492530910	 787906328	 161664.
15:55:10  547 548	 1492530910	 949140243	 161234.
15:55:11  548 549	 1492530911	 86229217	 137089.
15:55:11  549 550	 1492530911	 247782782	 161553.
15:55:11  550 551	 1492530911	 413302601	 165520.
15:55:11  551 552	 1492530911	 574466982	 161165.
15:55:11  552 553	 1492530911	 736003108	 161536.
15:55:11  553 554	 1492530911	 872619771	 136616.
15:55:12  554 555	 1492530912	 33910438	 161291.
15:55:12  555 556	 1492530912	 195264005	 161354.
15:55:12  556 557	 1492530912	 360522365	 165258.
15:55:12  557 558	 1492530912	 493008763	 132486.
15:55:12  558 559	 1492530912	 654137832	 161130.
15:55:12  559 560	 1492530912	 819501754	 165364.
15:55:12  560 561	 1492530912	 980540432	 161038.
15:55:13  561 562	 1492530913	 113322385	 132782.
15:55:13  562 563	 1492530913	 278849241	 165527.
15:55:13  563 564	 1492530913	 439773135	 160924.
15:55:13  564 565	 1492530913	 576550560	 136777.
15:55:13  565 566	 1492530913	 737746551	 161196.
15:55:13  566 567	 1492530913	 899085884	 161340.
15:55:14  567 568	 1492530914	 64308315	 165222.
15:55:14  568 569	 1492530914	 196929123	 132621.
15:55:14  569 570	 1492530914	 362381974	 165453.
15:55:14  570 571	 1492530914	 523551345	 161169.
15:55:14  571 572	 1492530914	 685048811	 161498.
15:55:14  572 573	 1492530914	 821825759	 136776.
15:55:14  573 574	 1492530914	 982869259	 161044.
15:55:15  574 575	 1492530915	 148164368	 165295.
15:55:15  575 576	 1492530915	 309430908	 161267.
15:55:15  576 577	 1492530915	 445987344	 136556.
15:55:15  577 578	 1492530915	 607603393	 161616.
15:55:15  578 579	 1492530915	 740272504	 132669.
15:55:15  579 580	 1492530915	 905657547	 165385.
15:55:16  580 581	 1492530916	 67098886	 161442.
15:55:16  581 582	 1492530916	 228389136	 161290.
15:55:16  582 583	 1492530916	 364710815	 136322.
15:55:16  583 584	 1492530916	 526070430	 161359.
15:55:16  584 585	 1492530916	 691898400	 165828.
15:55:16  585 586	 1492530916	 853393916	 161496.
15:55:16  586 587	 1492530916	 990549965	 137156.
15:55:17  587 588	 1492530917	 152203085	 161653.
15:55:17  588 589	 1492530917	 317845391	 165642.
15:55:17  589 590	 1492530917	 479476411	 161631.
15:55:17  590 591	 1492530917	 616697798	 137221.
15:55:17  591 592	 1492530917	 778338805	 161642.
15:55:17  592 593	 1492530917	 944222663	 165883.
15:55:18  593 594	 1492530918	 105968270	 161746.
15:55:18  594 595	 1492530918	 271924263	 165956.
15:55:18  595 596	 1492530918	 404514732	 132590.
15:55:18  596 597	 1492530918	 566351615	 161837.
15:55:18  597 598	 1492530918	 731579982	 165229.
15:55:18  598 599	 1492530918	 868356280	 136776.
15:55:19  599 600	 1492530919	 30275983	 161920.
15:55:19  600 601	 1492530919	 196669957	 166394.
15:55:19  601 602	 1492530919	 354225606	 157555.
15:55:19  602 603	 1492530919	 520177111	 165952.
15:55:19  603 604	 1492530919	 652890640	 132713.
15:55:19  604 605	 1492530919	 814133487	 161243.
15:55:19  605 606	 1492530919	 979839758	 165706.
15:55:20  606 607	 1492530920	 141765511	 161926.
15:55:20  607 608	 1492530920	 278962157	 137197.
15:55:20  608 609	 1492530920	 440613098	 161651.
15:55:20  609 610	 1492530920	 606379877	 165767.
15:55:20  610 611	 1492530920	 767859543	 161479.
15:55:20  611 612	 1492530920	 900341866	 132483.
15:55:21  612 613	 1492530921	 65797771	 165455.
15:55:21  613 614	 1492530921	 227277429	 161480.
15:55:21  614 615	 1492530921	 363714260	 136437.
15:55:21  615 616	 1492530921	 525517435	 161803.
15:55:21  616 617	 1492530921	 686901520	 161384.
15:55:21  617 618	 1492530921	 823929256	 137028.
15:55:21  618 619	 1492530921	 985314789	 161386.
15:55:22  619 620	 1492530922	 150755206	 165440.
15:55:22  620 621	 1492530922	 283171199	 132416.
15:55:22  621 622	 1492530922	 448676902	 165506.
15:55:22  622 623	 1492530922	 610064690	 161387.
15:55:22  623 624	 1492530922	 746845260	 136781.
15:55:22  624 625	 1492530922	 907913285	 161068.
15:55:23  625 626	 1492530923	 73616000	 165703.
15:55:23  626 627	 1492530923	 206421600	 132805.
15:55:23  627 628	 1492530923	 367575542	 161154.
15:55:23  628 629	 1492530923	 533297692	 165723.
15:55:23  629 630	 1492530923	 694701480	 161403.
15:55:23  630 631	 1492530923	 831775534	 137074.
15:55:23  631 632	 1492530923	 993188172	 161413.
15:55:24  632 633	 1492530924	 158825477	 165637.
15:55:24  633 634	 1492530924	 292383725	 133558.
15:55:24  634 635	 1492530924	 458021258	 165638.
15:55:24  635 636	 1492530924	 619876707	 161855.
15:55:24  636 637	 1492530924	 786035328	 166159.
15:55:24  637 638	 1492530924	 947947506	 161912.
15:55:25  638 639	 1492530925	 81068155	 133121.
15:55:25  639 640	 1492530925	 246823425	 165755.
15:55:25  640 641	 1492530925	 409044960	 162222.
15:55:25  641 642	 1492530925	 574788114	 165743.
15:55:25  642 643	 1492530925	 735842415	 161054.
15:55:25  643 644	 1492530925	 868082341	 132240.
15:55:26  644 645	 1492530926	 33121678	 165039.
15:55:26  645 646	 1492530926	 193884585	 160763.
15:55:26  646 647	 1492530926	 326134564	 132250.
15:55:26  647 648	 1492530926	 491121828	 164988.
15:55:26  648 649	 1492530926	 652006908	 160885.
15:55:26  649 650	 1492530926	 816779392	 164772.
15:55:26  650 651	 1492530926	 949674015	 132895.
15:55:27  651 652	 1492530927	 111307889	 161634.
15:55:27  652 653	 1492530927	 277016265	 165708.
15:55:27  653 654	 1492530927	 438562579	 161546.
15:55:27  654 655	 1492530927	 599950951	 161389.
15:55:27  655 656	 1492530927	 765210917	 165260.
15:55:27  656 657	 1492530927	 897966418	 132755.
15:55:28  657 658	 1492530928	 59669400	 161703.
15:55:28  658 659	 1492530928	 225182580	 165513.
15:55:28  659 660	 1492530928	 358419015	 133237.
15:55:28  660 661	 1492530928	 519925603	 161506.
15:55:28  661 662	 1492530928	 685586036	 165661.
15:55:28  662 663	 1492530928	 847382891	 161797.
15:55:28  663 664	 1492530928	 984529492	 137146.
15:55:29  664 665	 1492530929	 146505697	 161976.
15:55:29  665 666	 1492530929	 312852107	 166347.
15:55:29  666 667	 1492530929	 474327772	 161475.
15:55:29  667 668	 1492530929	 640211086	 165884.
15:55:29  668 669	 1492530929	 773423601	 133212.
15:55:29  669 670	 1492530929	 938962283	 165539.
15:55:30  670 671	 1492530930	 100362058	 161400.
15:55:30  671 672	 1492530930	 262520103	 162158.
15:55:30  672 673	 1492530930	 421061983	 158542.
15:55:30  673 674	 1492530930	 554058642	 132996.
15:55:30  674 675	 1492530930	 719762828	 165705.
15:55:30  675 676	 1492530930	 881613905	 161851.
15:55:31  676 677	 1492530931	 47043624	 165429.
15:55:31  677 678	 1492530931	 208904427	 161861.
15:55:31  678 679	 1492530931	 370341422	 161437.
15:55:31  679 680	 1492530931	 503407712	 133066.
15:55:31  680 681	 1492530931	 669118808	 165712.
15:55:31  681 682	 1492530931	 830803646	 161684.
15:55:31  682 683	 1492530931	 996637107	 165834.
15:55:32  683 684	 1492530932	 158366138	 161729.
15:55:32  684 685	 1492530932	 320206699	 161840.
15:55:32  685 686	 1492530932	 485958461	 165752.
15:55:32  686 687	 1492530932	 647912983	 161955.
15:55:32  687 688	 1492530932	 813625614	 165712.
15:55:32  688 689	 1492530932	 975247085	 161622.
15:55:33  689 690	 1492530933	 108368011	 133121.
15:55:33  690 691	 1492530933	 274271292	 165903.
15:55:33  691 692	 1492530933	 436186820	 161916.
15:55:33  692 693	 1492530933	 597843515	 161656.
15:55:33  693 694	 1492530933	 763344853	 165502.
15:55:33  694 695	 1492530933	 924679665	 161334.
15:55:34  695 696	 1492530934	 86250276	 161571.
15:55:34  696 697	 1492530934	 223402457	 137152.
15:55:34  697 698	 1492530934	 385026844	 161625.
15:55:34  698 699	 1492530934	 550571975	 165545.
15:55:34  699 700	 1492530934	 712490703	 161918.
15:55:34  700 701	 1492530934	 874246777	 161757.
15:55:35  701 702	 1492530935	 40173740	 165926.
15:55:35  702 703	 1492530935	 173160402	 132987.
15:55:35  703 704	 1492530935	 339106500	 165946.
15:55:35  704 705	 1492530935	 500964976	 161859.
15:55:35  705 706	 1492530935	 666613111	 165648.
15:55:35  706 707	 1492530935	 828203573	 161590.
15:55:35  707 708	 1492530935	 986403310	 158200.
15:55:36  708 709	 1492530936	 123637503	 137234.
15:55:36  709 710	 1492530936	 285432439	 161795.
15:55:36  710 711	 1492530936	 451090247	 165658.
15:55:36  711 712	 1492530936	 612984813	 161895.
15:55:36  712 713	 1492530936	 749839123	 136854.
15:55:36  713 714	 1492530936	 911124506	 161285.
15:55:37  714 715	 1492530937	 72867545	 161743.
15:55:37  715 716	 1492530937	 238705684	 165838.
15:55:37  716 717	 1492530937	 371407682	 132703.
15:55:37  717 718	 1492530937	 537356793	 165948.
15:55:37  718 719	 1492530937	 698998250	 161642.
15:55:37  719 720	 1492530937	 864805186	 165807.
15:55:37  720 721	 1492530937	 997814348	 133009.
15:55:38  721 722	 1492530938	 163393320	 165579.
15:55:38  722 723	 1492530938	 325329746	 161936.
15:55:38  723 724	 1492530938	 490916103	 165587.
15:55:38  724 725	 1492530938	 623787664	 132871.
15:55:38  725 726	 1492530938	 785640974	 161854.
15:55:38  726 727	 1492530938	 951304081	 165663.
15:55:39  727 728	 1492530939	 113397311	 162093.
15:55:39  728 729	 1492530939	 279327590	 165930.
15:55:39  729 730	 1492530939	 441464394	 162137.
15:55:39  730 731	 1492530939	 578760043	 137296.
15:55:39  731 732	 1492530939	 740796724	 162036.
15:55:39  732 733	 1492530939	 906470207	 165674.
15:55:40  733 734	 1492530940	 68156960	 161687.
15:55:40  734 735	 1492530940	 205100337	 136943.
15:55:40  735 736	 1492530940	 367346231	 162246.
15:55:40  736 737	 1492530940	 529188356	 161842.
15:55:40  737 738	 1492530940	 694944928	 165757.
15:55:40  738 739	 1492530940	 856495913	 161551.
15:55:41  739 740	 1492530941	 22979010	 166483.
15:55:41  740 741	 1492530941	 152353791	 129375.
15:55:41  741 742	 1492530941	 314189348	 161835.
15:55:41  742 743	 1492530941	 480157383	 165968.
15:55:41  743 744	 1492530941	 641681625	 161524.
15:55:41  744 745	 1492530941	 774580055	 132899.
15:55:41  745 746	 1492530941	 939872370	 165292.
15:55:42  746 747	 1492530942	 105477790	 165605.
15:55:42  747 748	 1492530942	 267083127	 161606.
15:55:42  748 749	 1492530942	 404265791	 137182.
15:55:42  749 750	 1492530942	 566257790	 161993.
15:55:42  750 751	 1492530942	 727777212	 161519.
15:55:42  751 752	 1492530942	 893103838	 165327.
15:55:43  752 753	 1492530943	 51099527	 157995.
15:55:43  753 754	 1492530943	 188877192	 137778.
15:55:43  754 755	 1492530943	 350965870	 162089.
15:55:43  755 756	 1492530943	 517314182	 166348.
15:55:43  756 757	 1492530943	 679341195	 162027.
15:55:43  757 758	 1492530943	 845642372	 166301.
15:55:44  758 759	 1492530944	 8062486	 162420.
15:55:44  759 760	 1492530944	 170283919	 162222.
15:55:44  760 761	 1492530944	 336389630	 166105.
15:55:44  761 762	 1492530944	 469026952	 132638.
15:55:44  762 763	 1492530944	 634617655	 165590.
15:55:44  763 764	 1492530944	 796361270	 161744.
15:55:44  764 765	 1492530944	 958196432	 161835.
15:55:45  765 766	 1492530945	 95693406	 137497.
15:55:45  766 767	 1492530945	 257136772	 161443.
15:55:45  767 768	 1492530945	 422878320	 165742.
15:55:45  768 769	 1492530945	 584876634	 161998.
15:55:45  769 770	 1492530945	 717405561	 132529.
15:55:45  770 771	 1492530945	 882471672	 165066.
15:55:46  771 772	 1492530946	 43867863	 161397.
15:55:46  772 773	 1492530946	 173231396	 129363.
15:55:46  773 774	 1492530946	 338340799	 165109.
15:55:46  774 775	 1492530946	 499959020	 161619.
15:55:46  775 776	 1492530946	 665773518	 165814.
15:55:46  776 777	 1492530946	 798563963	 132791.
15:55:46  777 778	 1492530946	 964333487	 165769.
15:55:47  778 779	 1492530947	 126182566	 161849.
15:55:47  779 780	 1492530947	 291890028	 165708.
15:55:47  780 781	 1492530947	 424666487	 132776.
15:55:47  781 782	 1492530947	 586775371	 162109.
15:55:47  782 783	 1492530947	 753212421	 166437.
15:55:47  783 784	 1492530947	 915212229	 162000.
15:55:48  784 785	 1492530948	 81190847	 165979.
15:55:48  785 786	 1492530948	 214362888	 133172.
15:55:48  786 787	 1492530948	 380172704	 165809.
15:55:48  787 788	 1492530948	 541412218	 161240.
15:55:48  788 789	 1492530948	 707246089	 165834.
15:55:48  789 790	 1492530948	 840124297	 132878.
15:55:49  790 791	 1492530949	 5760397	 165636.
15:55:49  791 792	 1492530949	 167525191	 161765.
15:55:49  792 793	 1492530949	 333232243	 165707.
15:55:49  793 794	 1492530949	 466339237	 133107.
15:55:49  794 795	 1492530949	 631429097	 165090.
15:55:49  795 796	 1492530949	 793132475	 161703.
15:55:49  796 797	 1492530949	 925739101	 132607.
15:55:50  797 798	 1492530950	 91231706	 165492.
15:55:50  798 799	 1492530950	 252911072	 161680.
15:55:50  799 800	 1492530950	 389609367	 136698.
15:55:50  800 801	 1492530950	 551204174	 161595.
15:55:50  801 802	 1492530950	 717039251	 165835.
15:55:50  802 803	 1492530950	 879161907	 162123.
15:55:51  803 804	 1492530951	 40859633	 161697.
15:55:51  804 805	 1492530951	 173638855	 132780.
15:55:51  805 806	 1492530951	 338831976	 165193.
15:55:51  806 807	 1492530951	 471335606	 132503.
15:55:51  807 808	 1492530951	 636593149	 165258.
15:55:51  808 809	 1492530951	 798321275	 161728.
15:55:51  809 810	 1492530951	 934859485	 136538.
15:55:52  810 811	 1492530952	 96051785	 161192.
15:55:52  811 812	 1492530952	 261375603	 165324.
15:55:52  812 813	 1492530952	 394471891	 133097.
15:55:52  813 814	 1492530952	 559997802	 165526.
15:55:52  814 815	 1492530952	 721221022	 161223.
15:55:52  815 816	 1492530952	 857931207	 136710.
15:55:53  816 817	 1492530953	 19209746	 161278.
15:55:53  817 818	 1492530953	 180660694	 161451.
15:55:53  818 819	 1492530953	 317488042	 136828.
15:55:53  819 820	 1492530953	 479125779	 161638.
15:55:53  820 821	 1492530953	 644983280	 165857.
15:55:53  821 822	 1492530953	 777667312	 132684.
15:55:53  822 823	 1492530953	 943017440	 165350.
15:55:54  823 824	 1492530954	 103908611	 160891.
15:55:54  824 825	 1492530954	 240977737	 137069.
15:55:54  825 826	 1492530954	 402667963	 161691.
15:55:54  826 827	 1492530954	 568936412	 166268.
15:55:54  827 828	 1492530954	 734468874	 165533.
15:55:54  828 829	 1492530954	 867603920	 133135.
15:55:55  829 830	 1492530955	 33519101	 165915.
15:55:55  830 831	 1492530955	 195110275	 161591.
15:55:55  831 832	 1492530955	 360559858	 165450.
15:55:55  832 833	 1492530955	 493898957	 133339.
15:55:55  833 834	 1492530955	 660098044	 166199.
15:55:55  834 835	 1492530955	 821367125	 161269.
15:55:55  835 836	 1492530955	 986480065	 165113.
15:55:56  836 837	 1492530956	 119283161	 132803.
15:55:56  837 838	 1492530956	 285017642	 165734.
15:55:56  838 839	 1492530956	 446510892	 161494.
15:55:56  839 840	 1492530956	 579658232	 133147.
15:55:56  840 841	 1492530956	 745032383	 165374.
15:55:56  841 842	 1492530956	 905963551	 160931.
15:55:57  842 843	 1492530957	 68104033	 162141.
15:55:57  843 844	 1492530957	 201064932	 132961.
15:55:57  844 845	 1492530957	 366263595	 165198.
15:55:57  845 846	 1492530957	 531823898	 165561.
15:55:57  846 847	 1492530957	 664621668	 132797.
15:55:57  847 848	 1492530957	 830094603	 165473.
15:55:57  848 849	 1492530957	 991887086	 161793.
15:55:58  849 850	 1492530958	 124708247	 132821.
15:55:58  850 851	 1492530958	 290243570	 165535.
15:55:58  851 852	 1492530958	 455915576	 165672.
15:55:58  852 853	 1492530958	 617575829	 161661.
15:55:58  853 854	 1492530958	 750557551	 132981.
15:55:58  854 855	 1492530958	 916126002	 165569.
15:55:59  855 856	 1492530959	 77844271	 161718.
15:55:59  856 857	 1492530959	 214952536	 137108.
15:55:59  857 858	 1492530959	 376779453	 161827.
15:55:59  858 859	 1492530959	 541985035	 165206.
15:55:59  859 860	 1492530959	 703138849	 161154.
15:55:59  860 861	 1492530959	 840078719	 136939.
15:55:59  861 862	 1492530960	 1458879	 161381.
15:56:00  862 863	 1492530960	 162673628	 161214.
15:56:00  863 864	 1492530960	 328316256	 165643.
15:56:00  864 865	 1492530960	 461374867	 133059.
15:56:00  865 866	 1492530960	 622937880	 161563.
15:56:00  866 867	 1492530960	 788499525	 165561.
15:56:00  867 868	 1492530960	 949821704	 161322.
15:56:01  868 869	 1492530961	 115246205	 165425.
15:56:01  869 870	 1492530961	 281032106	 165786.
15:56:01  870 871	 1492530961	 446906795	 165875.
15:56:01  871 872	 1492530961	 579840817	 132933.
15:56:01  872 873	 1492530961	 741498223	 161658.
15:56:01  873 874	 1492530961	 907465647	 165967.
15:56:02  874 875	 1492530962	 69074278	 161609.
15:56:02  875 876	 1492530962	 230407902	 161334.
15:56:02  876 877	 1492530962	 396008294	 165600.
15:56:02  877 878	 1492530962	 528622427	 132614.
15:56:02  878 879	 1492530962	 689835297	 161213.
15:56:02  879 880	 1492530962	 855154154	 165319.
15:56:03  880 881	 1492530963	 16446580	 161293.
15:56:03  881 882	 1492530963	 178022037	 161575.
15:56:03  882 883	 1492530963	 314829483	 136807.
15:56:03  883 884	 1492530963	 476126229	 161297.
15:56:03  884 885	 1492530963	 641550973	 165425.
15:56:03  885 886	 1492530963	 802869928	 161319.
15:56:03  886 887	 1492530963	 935370756	 132500.
15:56:04  887 888	 1492530964	 96499452	 161129.
15:56:04  888 889	 1492530964	 261990811	 165491.
15:56:04  889 890	 1492530964	 423207443	 161217.
15:56:04  890 891	 1492530964	 559902189	 136695.
15:56:04  891 892	 1492530964	 720940893	 161039.
15:56:04  892 893	 1492530964	 882342755	 161401.
15:56:05  893 894	 1492530965	 47855259	 165513.
15:56:05  894 895	 1492530965	 209375209	 161520.
15:56:05  895 896	 1492530965	 346068251	 136693.
15:56:05  896 897	 1492530965	 506999018	 160931.
15:56:05  897 898	 1492530965	 668200851	 161202.
15:56:05  898 899	 1492530965	 833540578	 165339.
15:56:05  899 900	 1492530965	 966425690	 132885.
15:56:06  900 901	 1492530966	 128178334	 161753.
15:56:06  901 902	 1492530966	 294029920	 165852.
15:56:06  902 903	 1492530966	 456070918	 162041.
15:56:06  903 904	 1492530966	 622266461	 166195.
15:56:06  904 905	 1492530966	 783908112	 161642.
15:56:06  905 906	 1492530966	 920972332	 137064.
15:56:07  906 907	 1492530967	 83078026	 162106.
15:56:07  907 908	 1492530967	 245126234	 162048.
15:56:07  908 909	 1492530967	 411096455	 165970.
15:56:07  909 910	 1492530967	 572954570	 161858.
15:56:07  910 911	 1492530967	 710368914	 137415.
15:56:07  911 912	 1492530967	 872331309	 161962.
15:56:08  912 913	 1492530968	 38290580	 165959.
15:56:08  913 914	 1492530968	 200801814	 162512.
15:56:08  914 915	 1492530968	 358484590	 157682.
15:56:08  915 916	 1492530968	 524439460	 165955.
15:56:08  916 917	 1492530968	 657257331	 132818.
15:56:08  917 918	 1492530968	 822657410	 165400.
15:56:08  918 919	 1492530968	 983947713	 161290.
15:56:09  919 920	 1492530969	 120590062	 136643.
15:56:09  920 921	 1492530969	 282337672	 161747.
15:56:09  921 922	 1492530969	 448381704	 166044.
15:56:09  922 923	 1492530969	 609849336	 161468.
15:56:09  923 924	 1492530969	 771416655	 161567.
15:56:09  924 925	 1492530969	 908123671	 136707.
15:56:10  925 926	 1492530970	 69933709	 161810.
15:56:10  926 927	 1492530970	 231438430	 161505.
15:56:10  927 928	 1492530970	 397395193	 165957.
15:56:10  928 929	 1492530970	 559277098	 161882.
15:56:10  929 930	 1492530970	 725216720	 165939.
15:56:10  930 931	 1492530970	 858485595	 133269.
15:56:11  931 932	 1492530971	 24216378	 165731.
15:56:11  932 933	 1492530971	 182427284	 158211.
15:56:11  933 934	 1492530971	 348326260	 165899.
15:56:11  934 935	 1492530971	 510178388	 161852.
15:56:11  935 936	 1492530971	 676490242	 166312.
15:56:11  936 937	 1492530971	 809664040	 133174.
15:56:11  937 938	 1492530971	 975115806	 165452.
15:56:12  938 939	 1492530972	 136849213	 161733.
15:56:12  939 940	 1492530972	 298796309	 161947.
15:56:12  940 941	 1492530972	 464351221	 165555.
15:56:12  941 942	 1492530972	 597432718	 133081.
15:56:12  942 943	 1492530972	 763017485	 165585.
15:56:12  943 944	 1492530972	 924515916	 161499.
15:56:13  944 945	 1492530973	 90185238	 165669.
15:56:13  945 946	 1492530973	 222849111	 132664.
15:56:13  946 947	 1492530973	 384736229	 161887.
15:56:13  947 948	 1492530973	 549900285	 165164.
15:56:13  948 949	 1492530973	 711828205	 161928.
15:56:13  949 950	 1492530973	 848755168	 136927.
15:56:14  950 951	 1492530974	 10250458	 161495.
15:56:14  951 952	 1492530974	 175709463	 165459.
15:56:14  952 953	 1492530974	 308293323	 132584.
15:56:14  953 954	 1492530974	 473712314	 165419.
15:56:14  954 955	 1492530974	 634909419	 161197.
15:56:14  955 956	 1492530974	 767924433	 133015.
15:56:14  956 957	 1492530974	 933810796	 165886.
15:56:15  957 958	 1492530975	 95188122	 161378.
15:56:15  958 959	 1492530975	 260728567	 165540.
15:56:15  959 960	 1492530975	 393676830	 132949.
15:56:15  960 961	 1492530975	 559673001	 165996.
15:56:15  961 962	 1492530975	 720693914	 161021.
15:56:15  962 963	 1492530975	 886622338	 165928.
15:56:16  963 964	 1492530976	 19362309	 132740.
15:56:16  964 965	 1492530976	 180835911	 161474.
15:56:16  965 966	 1492530976	 346314433	 165478.
15:56:16  966 967	 1492530976	 479452786	 133138.
15:56:16  967 968	 1492530976	 644884544	 165432.
15:56:16  968 969	 1492530976	 806460147	 161576.
15:56:16  969 970	 1492530976	 967715016	 161255.
15:56:17  970 971	 1492530977	 104549172	 136834.
15:56:17  971 972	 1492530977	 266005523	 161456.
15:56:17  972 973	 1492530977	 432015205	 166010.
15:56:17  973 974	 1492530977	 593932979	 161918.
15:56:17  974 975	 1492530977	 760017568	 166084.
15:56:17  975 976	 1492530977	 892962842	 132946.
15:56:18  976 977	 1492530978	 54844995	 161882.
15:56:18  977 978	 1492530978	 220105451	 165260.
15:56:18  978 979	 1492530978	 381704113	 161599.
15:56:18  979 980	 1492530978	 518869808	 137165.
15:56:18  980 981	 1492530978	 680436002	 161567.
15:56:18  981 982	 1492530978	 842494582	 162058.
15:56:19  982 983	 1492530979	 8080125	 165586.
15:56:19  983 984	 1492530979	 141169108	 133089.
15:56:19  984 985	 1492530979	 302586794	 161417.
15:56:19  985 986	 1492530979	 468012185	 165426.
15:56:19  986 987	 1492530979	 629256027	 161244.
15:56:19  987 988	 1492530979	 766304778	 137048.
15:56:19  988 989	 1492530979	 928033788	 161729.
15:56:20  989 990	 1492530980	 89420613	 161387.
15:56:20  990 991	 1492530980	 254861810	 165442.
15:56:20  991 992	 1492530980	 387515104	 132653.
15:56:20  992 993	 1492530980	 548906032	 161391.
15:56:20  993 994	 1492530980	 714232707	 165326.
15:56:20  994 995	 1492530980	 875122093	 160890.
15:56:21  995 996	 1492530981	 7605178	 132483.
15:56:21  996 997	 1492530981	 173433683	 165828.
15:56:21  997 998	 1492530981	 334459314	 161026.
15:56:21  998 999	 1492530981	 495743042	 161284.
15:56:21  999 1000	 1492530981	 632731809	 136989.
15:56:21 1000 1001	 1492530981	 793640893	 160909.
15:56:21 1001 1002	 1492530981	 959421048	 165780.
15:56:22 1002 1003	 1492530982	 120539913	 161119.
15:56:22 1003 1004	 1492530982	 252984504	 132444.
15:56:22 1004 1005	 1492530982	 418272023	 165288.
15:56:22 1005 1006	 1492530982	 575611856	 157340.
15:56:22 1006 1007	 1492530982	 740910284	 165298.
15:56:22 1007 1008	 1492530982	 873553991	 132644.
15:56:23 1008 1009	 1492530983	 34542168	 160988.
15:56:23 1009 1010	 1492530983	 199731935	 165190.
15:56:23 1010 1011	 1492530983	 360817128	 161085.
15:56:23 1011 1012	 1492530983	 493384865	 132568.
15:56:23 1012 1013	 1492530983	 658569389	 165184.
15:56:23 1013 1014	 1492530983	 819623551	 161054.
15:56:23 1014 1015	 1492530983	 956066669	 136443.
15:56:24 1015 1016	 1492530984	 117452520	 161386.
15:56:24 1016 1017	 1492530984	 278424445	 160972.
15:56:24 1017 1018	 1492530984	 443707235	 165283.
15:56:24 1018 1019	 1492530984	 576528059	 132821.
15:56:24 1019 1020	 1492530984	 738214221	 161686.
15:56:24 1020 1021	 1492530984	 895790162	 157576.
15:56:25 1021 1022	 1492530985	 61071067	 165281.
15:56:25 1022 1023	 1492530985	 222273365	 161202.
15:56:25 1023 1024	 1492530985	 359174711	 136901.
15:56:25 1024 1025	 1492530985	 520824348	 161650.
15:56:25 1025 1026	 1492530985	 681985573	 161161.
15:56:25 1026 1027	 1492530985	 847547057	 165562.
15:56:26 1027 1028	 1492530986	 8352535	 160805.
15:56:26 1028 1029	 1492530986	 144948324	 136596.
15:56:26 1029 1030	 1492530986	 306023884	 161076.
15:56:26 1030 1031	 1492530986	 466573822	 160549.
15:56:26 1031 1032	 1492530986	 599643197	 133070.
15:56:26 1032 1033	 1492530986	 764464619	 164821.
15:56:26 1033 1034	 1492530986	 925435225	 160971.
15:56:27 1034 1035	 1492530987	 90906501	 165471.
15:56:27 1035 1036	 1492530987	 223496645	 132590.
15:56:27 1036 1037	 1492530987	 384178711	 160682.
15:56:27 1037 1038	 1492530987	 549865947	 165688.
15:56:27 1038 1039	 1492530987	 710795728	 160929.
15:56:27 1039 1040	 1492530987	 847633498	 136838.
15:56:28 1040 1041	 1492530988	 9041476	 161408.
15:56:28 1041 1042	 1492530988	 170042121	 161001.
15:56:28 1042 1043	 1492530988	 335525755	 165483.
15:56:28 1043 1044	 1492530988	 467751021	 132226.
15:56:28 1044 1045	 1492530988	 628822003	 161071.
15:56:28 1045 1046	 1492530988	 794219562	 165397.
15:56:28 1046 1047	 1492530988	 926634379	 132415.
15:56:29 1047 1048	 1492530989	 87944223	 161310.
15:56:29 1048 1049	 1492530989	 253056035	 165112.
15:56:29 1049 1050	 1492530989	 414069606	 161013.
15:56:29 1050 1051	 1492530989	 547076972	 133008.
15:56:29 1051 1052	 1492530989	 712501612	 165424.
15:56:29 1052 1053	 1492530989	 873532555	 161031.
15:56:30 1053 1054	 1492530990	 34804520	 161272.
15:56:30 1054 1055	 1492530990	 171233180	 136429.
15:56:30 1055 1056	 1492530990	 332732088	 161499.
15:56:30 1056 1057	 1492530990	 498056704	 165324.
15:56:30 1057 1058	 1492530990	 659126746	 161070.
15:56:30 1058 1059	 1492530990	 791771974	 132646.
15:56:30 1059 1060	 1492530990	 953087084	 161315.
15:56:31 1060 1061	 1492530991	 118177594	 165090.
15:56:31 1061 1062	 1492530991	 279936673	 161759.
15:56:31 1062 1063	 1492530991	 440969718	 161033.
15:56:31 1063 1064	 1492530991	 573728225	 132759.
15:56:31 1064 1065	 1492530991	 739210732	 165482.
15:56:31 1065 1066	 1492530991	 900302501	 161092.
15:56:32 1066 1067	 1492530992	 61501183	 161199.
15:56:32 1067 1068	 1492530992	 198485983	 136985.
15:56:32 1068 1069	 1492530992	 359995367	 161509.
15:56:32 1069 1070	 1492530992	 521679832	 161685.
15:56:32 1070 1071	 1492530992	 683012080	 161332.
15:56:32 1071 1072	 1492530992	 848267912	 165256.
15:56:32 1072 1073	 1492530992	 981077183	 132809.
15:56:33 1073 1074	 1492530993	 146772857	 165696.
15:56:33 1074 1075	 1492530993	 308335253	 161562.
15:56:33 1075 1076	 1492530993	 469671719	 161336.
15:56:33 1076 1077	 1492530993	 634848057	 165177.
15:56:33 1077 1078	 1492530993	 767464803	 132617.
15:56:33 1078 1079	 1492530993	 928705500	 161240.
15:56:34 1079 1080	 1492530994	 93802870	 165098.
15:56:34 1080 1081	 1492530994	 255244351	 161441.
15:56:34 1081 1082	 1492530994	 387886471	 132642.
15:56:34 1082 1083	 1492530994	 553402735	 165516.
15:56:34 1083 1084	 1492530994	 714478319	 161076.
15:56:34 1084 1085	 1492530994	 875478014	 161000.
15:56:35 1085 1086	 1492530995	 12117328	 136639.
15:56:35 1086 1087	 1492530995	 173581106	 161464.
15:56:35 1087 1088	 1492530995	 334673138	 161092.
15:56:35 1088 1089	 1492530995	 500310167	 165637.
15:56:35 1089 1090	 1492530995	 661581055	 161271.
15:56:35 1090 1091	 1492530995	 794045174	 132464.
15:56:35 1091 1092	 1492530995	 959486571	 165441.
15:56:36 1092 1093	 1492530996	 120468009	 160982.
15:56:36 1093 1094	 1492530996	 253024297	 132556.
15:56:36 1094 1095	 1492530996	 418143788	 165119.
15:56:36 1095 1096	 1492530996	 579353022	 161210.
15:56:36 1096 1097	 1492530996	 744633419	 165280.
15:56:36 1097 1098	 1492530996	 905951730	 161318.
15:56:37 1098 1099	 1492530997	 38506408	 132555.
15:56:37 1099 1100	 1492530997	 203532112	 165026.
15:56:37 1100 1101	 1492530997	 364700512	 161168.
15:56:37 1101 1102	 1492530997	 526274514	 161574.
15:56:37 1102 1103	 1492530997	 659044267	 132770.
15:56:37 1103 1104	 1492530997	 824811259	 165767.
15:56:37 1104 1105	 1492530997	 986301782	 161490.
15:56:38 1105 1106	 1492530998	 151910041	 165609.
15:56:38 1106 1107	 1492530998	 313542381	 161632.
15:56:38 1107 1108	 1492530998	 474585293	 161043.
15:56:38 1108 1109	 1492530998	 611329413	 136744.
15:56:38 1109 1110	 1492530998	 772744380	 161415.
15:56:38 1110 1111	 1492530998	 934136949	 161393.
15:56:39 1111 1112	 1492530999	 95514398	 161377.
15:56:39 1112 1113	 1492530999	 260803776	 165289.
15:56:39 1113 1114	 1492530999	 393287232	 132484.
15:56:39 1114 1115	 1492530999	 559007138	 165720.
15:56:39 1115 1116	 1492530999	 720619177	 161612.
15:56:39 1116 1117	 1492530999	 882073808	 161455.
15:56:40 1117 1118	 1492531000	 47753932	 165680.
15:56:40 1118 1119	 1492531000	 209249725	 161495.
15:56:40 1119 1120	 1492531000	 341978508	 132729.
15:56:40 1120 1121	 1492531000	 508046357	 166068.
15:56:40 1121 1122	 1492531000	 669590592	 161544.
15:56:40 1122 1123	 1492531000	 830920701	 161330.
15:56:40 1123 1124	 1492531000	 996391027	 165471.
15:56:41 1124 1125	 1492531001	 158165289	 161774.
15:56:41 1125 1126	 1492531001	 323924798	 165760.
15:56:41 1126 1127	 1492531001	 456830195	 132905.
15:56:41 1127 1128	 1492531001	 618324902	 161495.
15:56:41 1128 1129	 1492531001	 783920908	 165596.
15:56:41 1129 1130	 1492531001	 945223920	 161303.
15:56:42 1130 1131	 1492531002	 106951638	 161727.
15:56:42 1131 1132	 1492531002	 272560691	 165609.
15:56:42 1132 1133	 1492531002	 405449514	 132889.
15:56:42 1133 1134	 1492531002	 566829958	 161381.
15:56:42 1134 1135	 1492531002	 732395767	 165565.
15:56:42 1135 1136	 1492531002	 894100891	 161706.
15:56:43 1136 1137	 1492531003	 55546076	 161445.
15:56:43 1137 1138	 1492531003	 192420980	 136875.
15:56:43 1138 1139	 1492531003	 353518855	 161098.
15:56:43 1139 1140	 1492531003	 519132049	 165613.
15:56:43 1140 1141	 1492531003	 680536539	 161404.
15:56:43 1141 1142	 1492531003	 842095693	 161559.
15:56:44 1142 1143	 1492531004	 8123399	 166028.
15:56:44 1143 1144	 1492531004	 140433254	 132310.
15:56:44 1144 1145	 1492531004	 301938387	 161505.
15:56:44 1145 1146	 1492531004	 467761957	 165824.
15:56:44 1146 1147	 1492531004	 628672382	 160910.
15:56:44 1147 1148	 1492531004	 761539065	 132867.
15:56:44 1148 1149	 1492531004	 927194410	 165655.
15:56:45 1149 1150	 1492531005	 88555582	 161361.
15:56:45 1150 1151	 1492531005	 250106466	 161551.
15:56:45 1151 1152	 1492531005	 415503421	 165397.
15:56:45 1152 1153	 1492531005	 548279741	 132776.
15:56:45 1153 1154	 1492531005	 709272788	 160993.
15:56:45 1154 1155	 1492531005	 874210453	 164938.
15:56:46 1155 1156	 1492531006	 6878019	 132668.
15:56:46 1156 1157	 1492531006	 172131821	 165254.
15:56:46 1157 1158	 1492531006	 333251644	 161119.
15:56:46 1158 1159	 1492531006	 494664788	 161413.
15:56:46 1159 1160	 1492531006	 660246983	 165583.
15:56:46 1160 1161	 1492531006	 792752741	 132505.
15:56:46 1161 1162	 1492531006	 954791126	 162039.
15:56:47 1162 1163	 1492531007	 112874718	 158083.
15:56:47 1163 1164	 1492531007	 278949811	 166076.
15:56:47 1164 1165	 1492531007	 445426854	 166477.
15:56:47 1165 1166	 1492531007	 602792331	 157365.
15:56:47 1166 1167	 1492531007	 765331975	 162540.
15:56:47 1167 1168	 1492531007	 898685261	 133353.
15:56:48 1168 1169	 1492531008	 64666995	 165982.
15:56:48 1169 1170	 1492531008	 222898026	 158231.
15:56:48 1170 1171	 1492531008	 388771070	 165873.
15:56:48 1171 1172	 1492531008	 550500100	 161729.
15:56:48 1172 1173	 1492531008	 687669642	 137169.
15:56:48 1173 1174	 1492531008	 849179560	 161510.
15:56:49 1174 1175	 1492531009	 14958384	 165779.
15:56:49 1175 1176	 1492531009	 176715994	 161758.
15:56:49 1176 1177	 1492531009	 338583879	 161868.
15:56:49 1177 1178	 1492531009	 500189768	 161605.
15:56:49 1178 1179	 1492531009	 665771991	 165583.
15:56:49 1179 1180	 1492531009	 827382595	 161610.
15:56:49 1180 1181	 1492531009	 992976100	 165594.
15:56:50 1181 1182	 1492531010	 125842172	 132866.
15:56:50 1182 1183	 1492531010	 287248117	 161406.
15:56:50 1183 1184	 1492531010	 452909586	 165661.
15:56:50 1184 1185	 1492531010	 619376498	 166467.
15:56:50 1185 1186	 1492531010	 781355343	 161979.
15:56:50 1186 1187	 1492531010	 914150059	 132795.
15:56:51 1187 1188	 1492531011	 80538970	 166389.
15:56:51 1188 1189	 1492531011	 246255538	 165716.
15:56:51 1189 1190	 1492531011	 407885753	 161631.
15:56:51 1190 1191	 1492531011	 544928239	 137042.
15:56:51 1191 1192	 1492531011	 703007735	 158080.
15:56:51 1192 1193	 1492531011	 868440184	 165432.
15:56:51 1193 1194	 1492531012	 1515011	 133075.
15:56:52 1194 1195	 1492531012	 166786921	 165272.
15:56:52 1195 1196	 1492531012	 328602746	 161815.
15:56:52 1196 1197	 1492531012	 494775776	 166173.
15:56:52 1197 1198	 1492531012	 627650116	 132875.
15:56:52 1198 1199	 1492531012	 793699294	 166049.
15:56:52 1199 1200	 1492531012	 955163623	 161464.
15:56:53 1200 1201	 1492531013	 120986549	 165823.
15:56:53 1201 1202	 1492531013	 253958326	 132972.
15:56:53 1202 1203	 1492531013	 419510409	 165552.
15:56:53 1203 1204	 1492531013	 581186744	 161676.
15:56:53 1204 1205	 1492531013	 746555043	 165369.
15:56:53 1205 1206	 1492531013	 879616763	 133061.
15:56:54 1206 1207	 1492531014	 45166617	 165550.
15:56:54 1207 1208	 1492531014	 206690613	 161524.
15:56:54 1208 1209	 1492531014	 344178978	 137489.
15:56:54 1209 1210	 1492531014	 506510808	 162331.
15:56:54 1210 1211	 1492531014	 672683399	 166173.
15:56:54 1211 1212	 1492531014	 834768638	 162085.
15:56:54 1212 1213	 1492531015	 997394	 166229.
15:56:55 1213 1214	 1492531015	 163014511	 162017.
15:56:55 1214 1215	 1492531015	 324911025	 161897.
15:56:55 1215 1216	 1492531015	 462309145	 137398.
15:56:55 1216 1217	 1492531015	 623916542	 161607.
15:56:55 1217 1218	 1492531015	 789722794	 165806.
15:56:55 1218 1219	 1492531015	 950940623	 161218.
15:56:56 1219 1220	 1492531016	 88362348	 137422.
15:56:56 1220 1221	 1492531016	 250073274	 161711.
15:56:56 1221 1222	 1492531016	 415231589	 165158.
15:56:56 1222 1223	 1492531016	 547931404	 132700.
15:56:56 1223 1224	 1492531016	 713925263	 165994.
15:56:56 1224 1225	 1492531016	 875139267	 161214.
15:56:57 1225 1226	 1492531017	 40528864	 165390.
15:56:57 1226 1227	 1492531017	 173197104	 132668.
15:56:57 1227 1228	 1492531017	 334483575	 161286.
15:56:57 1228 1229	 1492531017	 500026681	 165543.
15:56:57 1229 1230	 1492531017	 629487517	 129461.
15:56:57 1230 1231	 1492531017	 795091336	 165604.
15:56:57 1231 1232	 1492531017	 956703189	 161612.
15:56:58 1232 1233	 1492531018	 122879119	 166176.
15:56:58 1233 1234	 1492531018	 255510778	 132631.
15:56:58 1234 1235	 1492531018	 420382374	 164872.
15:56:58 1235 1236	 1492531018	 582024482	 161642.
15:56:58 1236 1237	 1492531018	 719042283	 137018.
15:56:58 1237 1238	 1492531018	 880542940	 161501.
15:56:59 1238 1239	 1492531019	 42031945	 161489.
15:56:59 1239 1240	 1492531019	 178698584	 136666.
15:56:59 1240 1241	 1492531019	 339782475	 161084.
15:56:59 1241 1242	 1492531019	 505393494	 165611.
15:56:59 1242 1243	 1492531019	 638032862	 132640.
15:56:59 1243 1244	 1492531019	 803815707	 165782.
15:56:59 1244 1245	 1492531019	 965269255	 161454.
15:57:00 1245 1246	 1492531020	 130923188	 165654.
15:57:00 1246 1247	 1492531020	 263680661	 132757.
15:57:00 1247 1248	 1492531020	 429216014	 165536.
15:57:00 1248 1249	 1492531020	 590712283	 161496.
15:57:00 1249 1250	 1492531020	 727447684	 136735.
15:57:00 1250 1251	 1492531020	 888883136	 161436.
15:57:01 1251 1252	 1492531021	 54473561	 165590.
15:57:01 1252 1253	 1492531021	 215662194	 161189.
15:57:01 1253 1254	 1492531021	 348656749	 132994.
15:57:01 1254 1255	 1492531021	 514184941	 165529.
15:57:01 1255 1256	 1492531021	 675783969	 161599.
15:57:01 1256 1257	 1492531021	 836938838	 161155.
15:57:01 1257 1258	 1492531022	 2658569	 165719.
15:57:02 1258 1259	 1492531022	 135360863	 132703.
15:57:02 1259 1260	 1492531022	 296975153	 161614.
15:57:02 1260 1261	 1492531022	 462682575	 165707.
15:57:02 1261 1262	 1492531022	 625029973	 162348.
15:57:02 1262 1263	 1492531022	 782317769	 157288.
15:57:02 1263 1264	 1492531022	 947949015	 165631.
15:57:03 1264 1265	 1492531023	 80710887	 132762.
15:57:03 1265 1266	 1492531023	 246091742	 165380.
15:57:03 1266 1267	 1492531023	 407551002	 161460.
15:57:03 1267 1268	 1492531023	 573028133	 165477.
15:57:03 1268 1269	 1492531023	 734413460	 161385.
15:57:03 1269 1270	 1492531023	 871088737	 136675.
15:57:04 1270 1271	 1492531024	 32405005	 161317.
15:57:04 1271 1272	 1492531024	 193672788	 161267.
15:57:04 1272 1273	 1492531024	 359344643	 165672.
15:57:04 1273 1274	 1492531024	 520817821	 161474.
15:57:04 1274 1275	 1492531024	 653408010	 132590.
15:57:04 1275 1276	 1492531024	 818696747	 165288.
15:57:04 1276 1277	 1492531024	 980272437	 161576.
15:57:05 1277 1278	 1492531025	 146016660	 165744.
15:57:05 1278 1279	 1492531025	 307308579	 161292.
15:57:05 1279 1280	 1492531025	 439834752	 132526.
15:57:05 1280 1281	 1492531025	 605442836	 165609.
15:57:05 1281 1282	 1492531025	 767191305	 161748.
15:57:05 1282 1283	 1492531025	 932352378	 165161.
15:57:06 1283 1284	 1492531026	 65067876	 132716.
15:57:06 1284 1285	 1492531026	 226934389	 161866.
15:57:06 1285 1286	 1492531026	 392780641	 165846.
15:57:06 1286 1287	 1492531026	 554385719	 161605.
15:57:06 1287 1288	 1492531026	 691035914	 136651.
15:57:06 1288 1289	 1492531026	 851955124	 160919.
15:57:07 1289 1290	 1492531027	 17053714	 165098.
15:57:07 1290 1291	 1492531027	 149727453	 132674.
15:57:07 1291 1292	 1492531027	 315274528	 165547.
15:57:07 1292 1293	 1492531027	 477223998	 161950.
15:57:07 1293 1294	 1492531027	 614050167	 136826.
15:57:07 1294 1295	 1492531027	 775584914	 161535.
15:57:07 1295 1296	 1492531027	 941299543	 165714.
15:57:08 1296 1297	 1492531028	 102774401	 161475.
15:57:08 1297 1298	 1492531028	 239823911	 137050.
15:57:08 1298 1299	 1492531028	 401089374	 161265.
15:57:08 1299 1300	 1492531028	 566702842	 165614.
15:57:08 1300 1301	 1492531028	 699289167	 132586.
15:57:08 1301 1302	 1492531028	 865224054	 165935.
15:57:09 1302 1303	 1492531029	 26746471	 161522.
15:57:09 1303 1304	 1492531029	 192172490	 165426.
15:57:09 1304 1305	 1492531029	 325237878	 133066.
15:57:09 1305 1306	 1492531029	 490638578	 165400.
15:57:09 1306 1307	 1492531029	 652184378	 161546.
15:57:09 1307 1308	 1492531029	 784888327	 132704.
15:57:09 1308 1309	 1492531029	 950641448	 165753.
15:57:10 1309 1310	 1492531030	 112221871	 161581.
15:57:10 1310 1311	 1492531030	 278115606	 165893.
15:57:10 1311 1312	 1492531030	 440291239	 162176.
15:57:10 1312 1313	 1492531030	 577741997	 137451.
15:57:10 1313 1314	 1492531030	 739146448	 161404.
15:57:10 1314 1315	 1492531030	 904335207	 165189.
15:57:11 1315 1316	 1492531031	 65759483	 161424.
15:57:11 1316 1317	 1492531031	 227266183	 161507.
15:57:11 1317 1318	 1492531031	 364007305	 136741.
15:57:11 1318 1319	 1492531031	 525346853	 161340.
15:57:11 1319 1320	 1492531031	 686646297	 161299.
15:57:11 1320 1321	 1492531031	 851684322	 165038.
15:57:11 1321 1322	 1492531031	 984004026	 132320.
15:57:12 1322 1323	 1492531032	 145167057	 161163.
15:57:12 1323 1324	 1492531032	 310350507	 165183.
15:57:12 1324 1325	 1492531032	 471442539	 161092.
15:57:12 1325 1326	 1492531032	 603994259	 132552.
15:57:12 1326 1327	 1492531032	 769515819	 165522.
15:57:12 1327 1328	 1492531032	 930600683	 161084.
15:57:13 1328 1329	 1492531033	 91591050	 160991.
15:57:13 1329 1330	 1492531033	 228407772	 136816.
15:57:13 1330 1331	 1492531033	 389470324	 161071.
15:57:13 1331 1332	 1492531033	 550546489	 161068.
15:57:13 1332 1333	 1492531033	 716189060	 165643.
15:57:13 1333 1334	 1492531033	 844659214	 128470.
15:57:14 1334 1335	 1492531034	 5642525	 160983.
15:57:14 1335 1336	 1492531034	 170595601	 164953.
15:57:14 1336 1337	 1492531034	 331698948	 161104.
15:57:14 1337 1338	 1492531034	 464096283	 132397.
15:57:14 1338 1339	 1492531034	 629430376	 165334.
15:57:14 1339 1340	 1492531034	 790719237	 161289.
15:57:14 1340 1341	 1492531034	 927815907	 137097.
15:57:15 1341 1342	 1492531035	 89743934	 161928.
15:57:15 1342 1343	 1492531035	 255346133	 165602.
15:57:15 1343 1344	 1492531035	 416674558	 161328.
15:57:15 1344 1345	 1492531035	 553626883	 136953.
15:57:15 1345 1346	 1492531035	 714746935	 161120.
15:57:15 1346 1347	 1492531035	 846976239	 132229.
15:57:16 1347 1348	 1492531036	 12466558	 165490.
15:57:16 1348 1349	 1492531036	 174030006	 161564.
15:57:16 1349 1350	 1492531036	 311217345	 137187.
15:57:16 1350 1351	 1492531036	 472870377	 161653.
15:57:16 1351 1352	 1492531036	 638043992	 165174.
15:57:16 1352 1353	 1492531036	 770872263	 132828.
15:57:16 1353 1354	 1492531036	 931973935	 161102.
15:57:17 1354 1355	 1492531037	 97315332	 165341.
15:57:17 1355 1356	 1492531037	 234124456	 136809.
15:57:17 1356 1357	 1492531037	 395792001	 161668.
15:57:17 1357 1358	 1492531037	 557480737	 161688.
15:57:17 1358 1359	 1492531037	 723737418	 166257.
15:57:17 1359 1360	 1492531037	 856560405	 132823.
15:57:18 1360 1361	 1492531038	 22137350	 165577.
15:57:18 1361 1362	 1492531038	 183938055	 161801.
15:57:18 1362 1363	 1492531038	 349303395	 165365.
15:57:18 1363 1364	 1492531038	 482034728	 132731.
15:57:18 1364 1365	 1492531038	 647904243	 165870.
15:57:18 1365 1366	 1492531038	 809756231	 161852.
15:57:18 1366 1367	 1492531038	 946435635	 136679.
15:57:19 1367 1368	 1492531039	 107863619	 161428.
15:57:19 1368 1369	 1492531039	 273534869	 165672.
15:57:19 1369 1370	 1492531039	 435322867	 161788.
15:57:19 1370 1371	 1492531039	 567993738	 132670.
15:57:19 1371 1372	 1492531039	 733528997	 165536.
15:57:19 1372 1373	 1492531039	 894940560	 161411.
15:57:20 1373 1374	 1492531040	 31611461	 136671.
15:57:20 1374 1375	 1492531040	 193077358	 161466.
15:57:20 1375 1376	 1492531040	 358592515	 165515.
15:57:20 1376 1377	 1492531040	 491082508	 132490.
15:57:20 1377 1378	 1492531040	 656952623	 165870.
15:57:20 1378 1379	 1492531040	 818670170	 161718.
15:57:20 1379 1380	 1492531040	 984047619	 165377.
15:57:21 1380 1381	 1492531041	 117017124	 132970.
15:57:21 1381 1382	 1492531041	 278418606	 161401.
15:57:21 1382 1383	 1492531041	 444288385	 165870.
15:57:21 1383 1384	 1492531041	 609913431	 165625.
15:57:21 1384 1385	 1492531041	 742736742	 132823.
15:57:21 1385 1386	 1492531041	 903886113	 161150.
15:57:22 1386 1387	 1492531042	 68977359	 165091.
15:57:22 1387 1388	 1492531042	 201759009	 132782.
15:57:22 1388 1389	 1492531042	 367079859	 165321.
15:57:22 1389 1390	 1492531042	 528700975	 161621.
15:57:22 1390 1391	 1492531042	 661186456	 132485.
15:57:22 1391 1392	 1492531042	 826204242	 165018.
15:57:22 1392 1393	 1492531042	 958746027	 132542.
15:57:23 1393 1394	 1492531043	 124184842	 165439.
15:57:23 1394 1395	 1492531043	 285614040	 161429.
15:57:23 1395 1396	 1492531043	 451680852	 166067.
15:57:23 1396 1397	 1492531043	 584717623	 133036.
15:57:23 1397 1398	 1492531043	 751000183	 166283.
15:57:23 1398 1399	 1492531043	 912297990	 161298.
15:57:24 1399 1400	 1492531044	 77919509	 165621.
15:57:24 1400 1401	 1492531044	 211342161	 133423.
15:57:24 1401 1402	 1492531044	 376797863	 165456.
15:57:24 1402 1403	 1492531044	 538215486	 161417.
15:57:24 1403 1404	 1492531044	 695816063	 157601.
15:57:24 1404 1405	 1492531044	 832804982	 136989.
15:57:24 1405 1406	 1492531044	 994685922	 161881.
15:57:25 1406 1407	 1492531045	 160386243	 165700.
15:57:25 1407 1408	 1492531045	 322364708	 161978.
15:57:25 1408 1409	 1492531045	 459378773	 137014.
15:57:25 1409 1410	 1492531045	 621493208	 162115.
15:57:25 1410 1411	 1492531045	 787379862	 165887.
15:57:25 1411 1412	 1492531045	 948756418	 161376.
15:57:26 1412 1413	 1492531046	 81754013	 132998.
15:57:26 1413 1414	 1492531046	 247569502	 165815.
15:57:26 1414 1415	 1492531046	 409297356	 161728.
15:57:26 1415 1416	 1492531046	 575261025	 165964.
15:57:26 1416 1417	 1492531046	 708447268	 133186.
15:57:26 1417 1418	 1492531046	 874280591	 165833.
15:57:27 1418 1419	 1492531047	 36130778	 161850.
15:57:27 1419 1420	 1492531047	 197845490	 161715.
15:57:27 1420 1421	 1492531047	 363453550	 165608.
15:57:27 1421 1422	 1492531047	 496555420	 133102.
15:57:27 1422 1423	 1492531047	 658280514	 161725.
15:57:27 1423 1424	 1492531047	 824246363	 165966.
15:57:27 1424 1425	 1492531047	 985747403	 161501.
15:57:28 1425 1426	 1492531048	 118729912	 132983.
15:57:28 1426 1427	 1492531048	 284818797	 166088.
15:57:28 1427 1428	 1492531048	 446508753	 161690.
15:57:28 1428 1429	 1492531048	 612498456	 165990.
15:57:28 1429 1430	 1492531048	 774000258	 161502.
15:57:28 1430 1431	 1492531048	 910857657	 136857.
15:57:29 1431 1432	 1492531049	 72294839	 161438.
15:57:29 1432 1433	 1492531049	 237833747	 165538.
15:57:29 1433 1434	 1492531049	 370916665	 133083.
15:57:29 1434 1435	 1492531049	 532476780	 161560.
15:57:29 1435 1436	 1492531049	 698091085	 165615.
15:57:29 1436 1437	 1492531049	 830913001	 132822.
15:57:29 1437 1438	 1492531049	 996549045	 165636.
15:57:30 1438 1439	 1492531050	 159063442	 162514.
15:57:30 1439 1440	 1492531050	 320688202	 161625.
15:57:30 1440 1441	 1492531050	 482033479	 161345.
15:57:30 1441 1442	 1492531050	 618874285	 136841.
15:57:30 1442 1443	 1492531050	 780252729	 161378.
15:57:30 1443 1444	 1492531050	 945687456	 165435.
15:57:31 1444 1445	 1492531051	 78583710	 132896.
15:57:31 1445 1446	 1492531051	 244529477	 165946.
15:57:31 1446 1447	 1492531051	 405738671	 161209.
15:57:31 1447 1448	 1492531051	 567330120	 161592.
15:57:31 1448 1449	 1492531051	 704393568	 137063.
15:57:31 1449 1450	 1492531051	 865798940	 161406.
15:57:32 1450 1451	 1492531052	 31765265	 165966.
15:57:32 1451 1452	 1492531052	 164309274	 132544.
15:57:32 1452 1453	 1492531052	 330508844	 166200.
15:57:32 1453 1454	 1492531052	 492394101	 161885.
15:57:32 1454 1455	 1492531052	 654482803	 162089.
15:57:32 1455 1456	 1492531052	 820595543	 166112.
15:57:32 1456 1457	 1492531052	 953179638	 132584.
15:57:33 1457 1458	 1492531053	 119450785	 166271.
15:57:33 1458 1459	 1492531053	 280908230	 161458.
15:57:33 1459 1460	 1492531053	 446725105	 165817.
15:57:33 1460 1461	 1492531053	 608829457	 162104.
15:57:33 1461 1462	 1492531053	 745917638	 137088.
15:57:33 1462 1463	 1492531053	 907105114	 161188.
15:57:34 1463 1464	 1492531054	 73171071	 166066.
15:57:34 1464 1465	 1492531054	 234886038	 161715.
15:57:34 1465 1466	 1492531054	 371879441	 136993.
15:57:34 1466 1467	 1492531054	 533483841	 161604.
15:57:34 1467 1468	 1492531054	 699285792	 165802.
15:57:34 1468 1469	 1492531054	 831928189	 132643.
15:57:34 1469 1470	 1492531054	 993915873	 161988.
15:57:35 1470 1471	 1492531055	 159553823	 165638.
15:57:35 1471 1472	 1492531055	 321150937	 161597.
15:57:35 1472 1473	 1492531055	 458010666	 136859.
15:57:35 1473 1474	 1492531055	 619890801	 161881.
15:57:35 1474 1475	 1492531055	 781397874	 161507.
15:57:35 1475 1476	 1492531055	 946789834	 165392.
15:57:36 1476 1477	 1492531056	 79871420	 133081.
15:57:36 1477 1478	 1492531056	 246392753	 166522.
15:57:36 1478 1479	 1492531056	 407661279	 161268.
15:57:36 1479 1480	 1492531056	 573128996	 165468.
15:57:36 1480 1481	 1492531056	 705845611	 132716.
15:57:36 1481 1482	 1492531056	 871342367	 165497.
15:57:37 1482 1483	 1492531057	 33317002	 161975.
15:57:37 1483 1484	 1492531057	 199319763	 166002.
15:57:37 1484 1485	 1492531057	 361476560	 162157.
15:57:37 1485 1486	 1492531057	 499000173	 137524.
15:57:37 1486 1487	 1492531057	 661072123	 162072.
15:57:37 1487 1488	 1492531057	 827328531	 166256.
15:57:37 1488 1489	 1492531057	 989501635	 162173.
15:57:38 1489 1490	 1492531058	 156026673	 166525.
15:57:38 1490 1491	 1492531058	 318027939	 162002.
15:57:38 1491 1492	 1492531058	 480299086	 162271.
15:57:38 1492 1493	 1492531058	 646395894	 166097.
15:57:38 1493 1494	 1492531058	 808397511	 162001.
15:57:38 1494 1495	 1492531058	 945701124	 137304.
15:57:39 1495 1496	 1492531059	 107444085	 161743.
15:57:39 1496 1497	 1492531059	 273785881	 166342.
15:57:39 1497 1498	 1492531059	 435509304	 161723.
15:57:39 1498 1499	 1492531059	 600965809	 165456.
15:57:39 1499 1500	 1492531059	 733687477	 132722.
15:57:39 1500 1501	 1492531059	 895441904	 161755.
15:57:40 1501 1502	 1492531060	 61533638	 166091.
15:57:40 1502 1503	 1492531060	 223432965	 161900.
15:57:40 1503 1504	 1492531060	 360379972	 136947.
15:57:40 1504 1505	 1492531060	 522002507	 161622.
15:57:40 1505 1506	 1492531060	 687664152	 165662.
15:57:40 1506 1507	 1492531060	 849494188	 161830.
15:57:40 1507 1508	 1492531060	 986596300	 137102.
15:57:41 1508 1509	 1492531061	 148170667	 161575.
15:57:41 1509 1510	 1492531061	 309708063	 161537.
15:57:41 1510 1511	 1492531061	 475044087	 165336.
15:57:41 1511 1512	 1492531061	 607731684	 132687.
15:57:41 1512 1513	 1492531061	 769248178	 161517.
15:57:41 1513 1514	 1492531061	 934879383	 165631.
15:57:42 1514 1515	 1492531062	 96401715	 161522.
15:57:42 1515 1516	 1492531062	 258023780	 161622.
15:57:42 1516 1517	 1492531062	 423547529	 165524.
15:57:42 1517 1518	 1492531062	 556660623	 133113.
15:57:42 1518 1519	 1492531062	 721696798	 165036.
15:57:42 1519 1520	 1492531062	 883291695	 161595.
15:57:43 1520 1521	 1492531063	 48973353	 165682.
15:57:43 1521 1522	 1492531063	 210566300	 161593.
15:57:43 1522 1523	 1492531063	 343160505	 132594.
15:57:43 1523 1524	 1492531063	 508620254	 165460.
15:57:43 1524 1525	 1492531063	 670228578	 161608.
15:57:43 1525 1526	 1492531063	 835637836	 165410.
15:57:43 1526 1527	 1492531063	 968504923	 132867.
15:57:44 1527 1528	 1492531064	 133865883	 165361.
15:57:44 1528 1529	 1492531064	 295398675	 161532.
15:57:44 1529 1530	 1492531064	 457128484	 161730.
15:57:44 1530 1531	 1492531064	 622951139	 165823.
15:57:44 1531 1532	 1492531064	 755795793	 132844.
15:57:44 1532 1533	 1492531064	 921251425	 165456.
15:57:45 1533 1534	 1492531065	 83050825	 161800.
15:57:45 1534 1535	 1492531065	 244570405	 161519.
15:57:45 1535 1536	 1492531065	 381295962	 136726.
15:57:45 1536 1537	 1492531065	 542835106	 161539.
15:57:45 1537 1538	 1492531065	 708488246	 165653.
15:57:45 1538 1539	 1492531065	 869809194	 161321.
15:57:45 1539 1540	 1492531066	 2895970	 133087.
15:57:46 1540 1541	 1492531066	 168549630	 165653.
15:57:46 1541 1542	 1492531066	 330397829	 161849.
15:57:46 1542 1543	 1492531066	 496033105	 165635.
15:57:46 1543 1544	 1492531066	 628772114	 132739.
15:57:46 1544 1545	 1492531066	 789920717	 161148.
15:57:46 1545 1546	 1492531066	 955716835	 165797.
15:57:47 1546 1547	 1492531067	 112573546	 156856.
15:57:47 1547 1548	 1492531067	 273690358	 161117.
15:57:47 1548 1549	 1492531067	 410438433	 136748.
15:57:47 1549 1550	 1492531067	 571812652	 161374.
15:57:47 1550 1551	 1492531067	 733066284	 161254.
15:57:47 1551 1552	 1492531067	 898541665	 165475.
15:57:48 1552 1553	 1492531068	 59744256	 161203.
15:57:48 1553 1554	 1492531068	 192514629	 132770.
15:57:48 1554 1555	 1492531068	 354389133	 161875.
15:57:48 1555 1556	 1492531068	 515890996	 161502.
15:57:48 1556 1557	 1492531068	 681169423	 165278.
15:57:48 1557 1558	 1492531068	 842604889	 161436.
15:57:48 1558 1559	 1492531068	 975227223	 132622.
15:57:49 1559 1560	 1492531069	 140131973	 164905.
15:57:49 1560 1561	 1492531069	 301211688	 161079.
15:57:49 1561 1562	 1492531069	 462411173	 161200.
15:57:49 1562 1563	 1492531069	 599016156	 136605.
15:57:49 1563 1564	 1492531069	 759974050	 160958.
15:57:49 1564 1565	 1492531069	 921157144	 161183.
15:57:50 1565 1566	 1492531070	 86232586	 165075.
15:57:50 1566 1567	 1492531070	 218879236	 132647.
15:57:50 1567 1568	 1492531070	 380121308	 161242.
15:57:50 1568 1569	 1492531070	 545417412	 165296.
15:57:50 1569 1570	 1492531070	 706428038	 161011.
15:57:50 1570 1571	 1492531070	 838990208	 132562.
15:57:51 1571 1572	 1492531071	 4223197	 165233.
15:57:51 1572 1573	 1492531071	 165635787	 161412.
15:57:51 1573 1574	 1492531071	 331231117	 165596.
15:57:51 1574 1575	 1492531071	 464171895	 132941.
15:57:51 1575 1576	 1492531071	 629440951	 165269.
15:57:51 1576 1577	 1492531071	 790990601	 161549.
15:57:51 1577 1578	 1492531071	 956614118	 165624.
15:57:52 1578 1579	 1492531072	 89384199	 132770.
15:57:52 1579 1580	 1492531072	 255131469	 165747.
15:57:52 1580 1581	 1492531072	 416817755	 161686.
15:57:52 1581 1582	 1492531072	 578586777	 161769.
15:57:52 1582 1583	 1492531072	 715339670	 136753.
15:57:52 1583 1584	 1492531072	 876319834	 160981.
15:57:53 1584 1585	 1492531073	 41573126	 165253.
15:57:53 1585 1586	 1492531073	 174426702	 132853.
15:57:53 1586 1587	 1492531073	 339994162	 165568.
15:57:53 1587 1588	 1492531073	 501622927	 161629.
15:57:53 1588 1589	 1492531073	 634007054	 132384.
15:57:53 1589 1590	 1492531073	 799620133	 165613.
15:57:53 1590 1591	 1492531073	 965585100	 165965.
15:57:54 1591 1592	 1492531074	 127051428	 161466.
15:57:54 1592 1593	 1492531074	 260227298	 133176.
15:57:54 1593 1594	 1492531074	 426657789	 166431.
15:57:54 1594 1595	 1492531074	 589050054	 162392.
15:57:54 1595 1596	 1492531074	 751300111	 162250.
15:57:54 1596 1597	 1492531074	 917786550	 166486.
15:57:55 1597 1598	 1492531075	 84092997	 166307.
15:57:55 1598 1599	 1492531075	 246345135	 162252.
15:57:55 1599 1600	 1492531075	 412509143	 166164.
15:57:55 1600 1601	 1492531075	 545582479	 133073.
15:57:55 1601 1602	 1492531075	 711420492	 165838.
15:57:55 1602 1603	 1492531075	 873215549	 161795.
15:57:56 1603 1604	 1492531076	 34841649	 161626.
15:57:56 1604 1605	 1492531076	 200465931	 165625.
15:57:56 1605 1606	 1492531076	 333682965	 133217.
15:57:56 1606 1607	 1492531076	 499268312	 165585.
15:57:56 1607 1608	 1492531076	 660291024	 161023.
15:57:56 1608 1609	 1492531076	 822446902	 162156.
15:57:56 1609 1610	 1492531076	 959902489	 137455.
15:57:57 1610 1611	 1492531077	 121596690	 161694.
15:57:57 1611 1612	 1492531077	 286992605	 165396.
15:57:57 1612 1613	 1492531077	 419306230	 132314.
15:57:57 1613 1614	 1492531077	 584676672	 165370.
15:57:57 1614 1615	 1492531077	 745754117	 161078.
15:57:57 1615 1616	 1492531077	 882787736	 137033.
15:57:58 1616 1617	 1492531078	 37292212	 154505.
15:57:58 1617 1618	 1492531078	 203220816	 165929.
15:57:58 1618 1619	 1492531078	 364837223	 161616.
15:57:58 1619 1620	 1492531078	 501540129	 136703.
15:57:58 1620 1621	 1492531078	 663033794	 161493.
15:57:58 1621 1622	 1492531078	 828336042	 165303.
15:57:58 1622 1623	 1492531078	 989777539	 161441.
15:57:59 1623 1624	 1492531079	 126489821	 136713.
15:57:59 1624 1625	 1492531079	 288034120	 161544.
15:57:59 1625 1626	 1492531079	 453621560	 165587.
15:57:59 1626 1627	 1492531079	 615381450	 161760.
15:57:59 1627 1628	 1492531079	 748284284	 132903.
15:57:59 1628 1629	 1492531079	 914164126	 165880.
15:58:00 1629 1630	 1492531080	 79888586	 165724.
15:58:00 1630 1631	 1492531080	 241592590	 161704.
15:58:00 1631 1632	 1492531080	 374948724	 133356.
15:58:00 1632 1633	 1492531080	 540457387	 165509.
15:58:00 1633 1634	 1492531080	 702308162	 161851.
15:58:00 1634 1635	 1492531080	 867733641	 165425.
15:58:00 1635 1636	 1492531081	 297265	 132564.
15:58:01 1636 1637	 1492531081	 161535304	 161238.
15:58:01 1637 1638	 1492531081	 327023000	 165488.
15:58:01 1638 1639	 1492531081	 488723654	 161700.
15:58:01 1639 1640	 1492531081	 650108439	 161385.
15:58:01 1640 1641	 1492531081	 815670111	 165562.
15:58:01 1641 1642	 1492531081	 977493987	 161824.
15:58:02 1642 1643	 1492531082	 110120897	 132627.
15:58:02 1643 1644	 1492531082	 275225353	 165104.
15:58:02 1644 1645	 1492531082	 436373618	 161148.
15:58:02 1645 1646	 1492531082	 597784569	 161411.
15:58:02 1646 1647	 1492531082	 763142691	 165358.
15:58:02 1647 1648	 1492531082	 895771813	 132630.
15:58:03 1648 1649	 1492531083	 57140147	 161368.
15:58:03 1649 1650	 1492531083	 222440613	 165300.
15:58:03 1650 1651	 1492531083	 384150134	 161710.
15:58:03 1651 1652	 1492531083	 549830580	 165680.
15:58:03 1652 1653	 1492531083	 682642916	 132813.
15:58:03 1653 1654	 1492531083	 844001828	 161359.
15:58:04 1654 1655	 1492531084	 9352470	 165350.
15:58:04 1655 1656	 1492531084	 170937411	 161585.
15:58:04 1656 1657	 1492531084	 332387582	 161450.
15:58:04 1657 1658	 1492531084	 493878016	 161491.
15:58:04 1658 1659	 1492531084	 630705287	 136827.
15:58:04 1659 1660	 1492531084	 791855942	 161151.
15:58:04 1660 1661	 1492531084	 953034785	 161179.
15:58:05 1661 1662	 1492531085	 118558948	 165524.
15:58:05 1662 1663	 1492531085	 251377870	 132819.
15:58:05 1663 1664	 1492531085	 416750339	 165372.
15:58:05 1664 1665	 1492531085	 578038227	 161288.
15:58:05 1665 1666	 1492531085	 739319453	 161281.
15:58:05 1666 1667	 1492531085	 875859309	 136540.
15:58:06 1667 1668	 1492531086	 37301389	 161442.
15:58:06 1668 1669	 1492531086	 198944454	 161643.
15:58:06 1669 1670	 1492531086	 364523896	 165580.
15:58:06 1670 1671	 1492531086	 525790176	 161266.
15:58:06 1671 1672	 1492531086	 662490274	 136700.
15:58:06 1672 1673	 1492531086	 824087230	 161597.
15:58:06 1673 1674	 1492531086	 989806772	 165719.
15:58:07 1674 1675	 1492531087	 151834290	 162028.
15:58:07 1675 1676	 1492531087	 289286552	 137452.
15:58:07 1676 1677	 1492531087	 451546680	 162260.
15:58:07 1677 1678	 1492531087	 613449559	 161903.
15:58:07 1678 1679	 1492531087	 779561431	 166112.
15:58:07 1679 1680	 1492531087	 941694601	 162133.
15:58:08 1680 1681	 1492531088	 107928049	 166234.
15:58:08 1681 1682	 1492531088	 270002280	 162074.
15:58:08 1682 1683	 1492531088	 436029273	 166027.
15:58:08 1683 1684	 1492531088	 569292511	 133263.
15:58:08 1684 1685	 1492531088	 735685645	 166393.
15:58:08 1685 1686	 1492531088	 897562652	 161877.
15:58:09 1686 1687	 1492531089	 64615680	 167053.
15:58:09 1687 1688	 1492531089	 222662272	 158047.
15:58:09 1688 1689	 1492531089	 384203401	 161541.
15:58:09 1689 1690	 1492531089	 549642968	 165440.
15:58:09 1690 1691	 1492531089	 682262293	 132619.
15:58:09 1691 1692	 1492531089	 847583843	 165322.
15:58:10 1692 1693	 1492531090	 9467981	 161884.
15:58:10 1693 1694	 1492531090	 174844461	 165376.
15:58:10 1694 1695	 1492531090	 307899265	 133055.
15:58:10 1695 1696	 1492531090	 468998410	 161099.
15:58:10 1696 1697	 1492531090	 634732423	 165734.
15:58:10 1697 1698	 1492531090	 796063574	 161331.
15:58:10 1698 1699	 1492531090	 933288813	 137226.
15:58:11 1699 1700	 1492531091	 94818332	 161529.
15:58:11 1700 1701	 1492531091	 256421177	 161603.
15:58:11 1701 1702	 1492531091	 422486324	 166065.
15:58:11 1702 1703	 1492531091	 584434680	 161948.
15:58:11 1703 1704	 1492531091	 721025811	 136591.
15:58:11 1704 1705	 1492531091	 882331895	 161307.
15:58:12 1705 1706	 1492531092	 43820710	 161488.
15:58:12 1706 1707	 1492531092	 209206074	 165386.
15:58:12 1707 1708	 1492531092	 370697749	 161491.
15:58:12 1708 1709	 1492531092	 503550536	 132853.
15:58:12 1709 1710	 1492531092	 669238850	 165689.
15:58:12 1710 1711	 1492531092	 830548693	 161309.
15:58:12 1711 1712	 1492531092	 995877406	 165329.
15:58:13 1712 1713	 1492531093	 157455626	 161578.
15:58:13 1713 1714	 1492531093	 290192182	 132737.
15:58:13 1714 1715	 1492531093	 455885632	 165693.
15:58:13 1715 1716	 1492531093	 617137070	 161252.
15:58:13 1716 1717	 1492531093	 782339381	 165202.
15:58:13 1717 1718	 1492531093	 914828002	 132489.
15:58:14 1718 1719	 1492531094	 76081677	 161253.
15:58:14 1719 1720	 1492531094	 241381612	 165300.
15:58:14 1720 1721	 1492531094	 402792374	 161411.
15:58:14 1721 1722	 1492531094	 535646658	 132855.
15:58:14 1722 1723	 1492531094	 701124039	 165477.
15:58:14 1723 1724	 1492531094	 862627137	 161503.
15:58:15 1724 1725	 1492531095	 28178871	 165552.
15:58:15 1725 1726	 1492531095	 189603191	 161424.
15:58:15 1726 1727	 1492531095	 351196819	 161594.
15:58:15 1727 1728	 1492531095	 488311484	 137114.
15:58:15 1728 1729	 1492531095	 650208388	 161897.
15:58:15 1729 1730	 1492531095	 811722575	 161514.
15:58:15 1730 1731	 1492531095	 977530646	 165808.
15:58:16 1731 1732	 1492531096	 110437446	 132907.
15:58:16 1732 1733	 1492531096	 276097193	 165660.
15:58:16 1733 1734	 1492531096	 437742002	 161645.
15:58:16 1734 1735	 1492531096	 602916743	 165174.
15:58:16 1735 1736	 1492531096	 735643825	 132728.
15:58:16 1736 1737	 1492531096	 900869770	 165225.
15:58:17 1737 1738	 1492531097	 62358819	 161490.
15:58:17 1738 1739	 1492531097	 199068223	 136709.
15:58:17 1739 1740	 1492531097	 360459571	 161391.
15:58:17 1740 1741	 1492531097	 522373807	 161915.
15:58:17 1741 1742	 1492531097	 687838985	 165465.
15:58:17 1742 1743	 1492531097	 849596606	 161757.
15:58:17 1743 1744	 1492531097	 986527986	 136932.
15:58:18 1744 1745	 1492531098	 148147339	 161619.
15:58:18 1745 1746	 1492531098	 309966564	 161819.
15:58:18 1746 1747	 1492531098	 475627948	 165662.
15:58:18 1747 1748	 1492531098	 637439670	 161811.
15:58:18 1748 1749	 1492531098	 774833388	 137394.
15:58:18 1749 1750	 1492531098	 936482067	 161649.
15:58:19 1750 1751	 1492531099	 102814433	 166332.
15:58:19 1751 1752	 1492531099	 264428295	 161614.
15:58:19 1752 1753	 1492531099	 430135892	 165708.
15:58:19 1753 1754	 1492531099	 563472032	 133336.
15:58:19 1754 1755	 1492531099	 729003285	 165531.
15:58:19 1755 1756	 1492531099	 890469140	 161466.
15:58:20 1756 1757	 1492531100	 52058569	 161589.
15:58:20 1757 1758	 1492531100	 214387030	 162329.
15:58:20 1758 1759	 1492531100	 351433442	 137046.
15:58:20 1759 1760	 1492531100	 512627679	 161194.
15:58:20 1760 1761	 1492531100	 649158045	 136531.
15:58:20 1761 1762	 1492531100	 810741969	 161584.
15:58:20 1762 1763	 1492531100	 972293575	 161551.
15:58:21 1763 1764	 1492531101	 138102676	 165809.
15:58:21 1764 1765	 1492531101	 271020379	 132918.
15:58:21 1765 1766	 1492531101	 436396808	 165377.
15:58:21 1766 1767	 1492531101	 597838361	 161441.
15:58:21 1767 1768	 1492531101	 734386402	 136548.
15:58:21 1768 1769	 1492531101	 895706750	 161320.
15:58:22 1769 1770	 1492531102	 61186541	 165480.
15:58:22 1770 1771	 1492531102	 222471295	 161285.
15:58:22 1771 1772	 1492531102	 383352325	 160881.
15:58:22 1772 1773	 1492531102	 519875215	 136523.
15:58:22 1773 1774	 1492531102	 680828685	 160953.
15:58:22 1774 1775	 1492531102	 841650114	 160822.
15:58:22 1775 1776	 1492531102	 978092423	 136442.
15:58:23 1776 1777	 1492531103	 139115233	 161023.
15:58:23 1777 1778	 1492531103	 299986556	 160871.
15:58:23 1778 1779	 1492531103	 436553526	 136567.
15:58:23 1779 1780	 1492531103	 597713185	 161160.
15:58:23 1780 1781	 1492531103	 758593801	 160881.
15:58:23 1781 1782	 1492531103	 923596875	 165003.
15:58:24 1782 1783	 1492531104	 56136528	 132539.
15:58:24 1783 1784	 1492531104	 217321988	 161186.
15:58:24 1784 1785	 1492531104	 382559495	 165237.
15:58:24 1785 1786	 1492531104	 544015026	 161456.
15:58:24 1786 1787	 1492531104	 676810327	 132795.
15:58:24 1787 1788	 1492531104	 841961156	 165151.
15:58:24 1788 1789	 1492531105	 3341255	 161380.
15:58:25 1789 1790	 1492531105	 164813792	 161472.
15:58:25 1790 1791	 1492531105	 330620069	 165807.
15:58:25 1791 1792	 1492531105	 491993592	 161373.
15:58:25 1792 1793	 1492531105	 624932739	 132939.
15:58:25 1793 1794	 1492531105	 790109345	 165177.
15:58:25 1794 1795	 1492531105	 951365093	 161256.
15:58:26 1795 1796	 1492531106	 112512668	 161147.
15:58:26 1796 1797	 1492531106	 249680659	 137168.
15:58:26 1797 1798	 1492531106	 411369091	 161689.
15:58:26 1798 1799	 1492531106	 572760853	 161392.
15:58:26 1799 1800	 1492531106	 737888040	 165127.
15:58:26 1800 1801	 1492531106	 899020394	 161132.
15:58:27 1801 1802	 1492531107	 35585426	 136565.
15:58:27 1802 1803	 1492531107	 197043345	 161458.
15:58:27 1803 1804	 1492531107	 358177890	 161135.
15:58:27 1804 1805	 1492531107	 519621857	 161444.
15:58:27 1805 1806	 1492531107	 684968991	 165347.
15:58:27 1806 1807	 1492531107	 818003793	 133034.
15:58:27 1807 1808	 1492531107	 983667108	 165664.
15:58:28 1808 1809	 1492531108	 144763611	 161096.
15:58:28 1809 1810	 1492531108	 306536922	 161774.
15:58:28 1810 1811	 1492531108	 472257498	 165720.
15:58:28 1811 1812	 1492531108	 633709943	 161453.
15:58:28 1812 1813	 1492531108	 766332082	 132622.
15:58:28 1813 1814	 1492531108	 931453361	 165121.
15:58:29 1814 1815	 1492531109	 92874118	 161421.
15:58:29 1815 1816	 1492531109	 253974164	 161100.
15:58:29 1816 1817	 1492531109	 419809477	 165835.
15:58:29 1817 1818	 1492531109	 552913044	 133104.
15:58:29 1818 1819	 1492531109	 714378855	 161466.
15:58:29 1819 1820	 1492531109	 879667804	 165288.
15:58:30 1820 1821	 1492531110	 41352259	 161685.
15:58:30 1821 1822	 1492531110	 202827813	 161476.
15:58:30 1822 1823	 1492531110	 368427359	 165599.
15:58:30 1823 1824	 1492531110	 501143572	 132716.
15:58:30 1824 1825	 1492531110	 666753192	 165610.
15:58:30 1825 1826	 1492531110	 828128691	 161375.
15:58:30 1826 1827	 1492531110	 989790887	 161663.
15:58:31 1827 1828	 1492531111	 155761175	 165970.
15:58:31 1828 1829	 1492531111	 288960237	 133199.
15:58:31 1829 1830	 1492531111	 454809693	 165849.
15:58:31 1830 1831	 1492531111	 616470674	 161661.
15:58:31 1831 1832	 1492531111	 781826205	 165356.
15:58:31 1832 1833	 1492531111	 943584733	 161758.
15:58:32 1833 1834	 1492531112	 76580454	 132996.
15:58:32 1834 1835	 1492531112	 242720024	 166140.
15:58:32 1835 1836	 1492531112	 404340105	 161620.
15:58:32 1836 1837	 1492531112	 570315163	 165975.
15:58:32 1837 1838	 1492531112	 732246912	 161932.
15:58:32 1838 1839	 1492531112	 897909570	 165662.
15:58:33 1839 1840	 1492531113	 30775521	 132866.
15:58:33 1840 1841	 1492531113	 192615660	 161840.
15:58:33 1841 1842	 1492531113	 358498707	 165883.
15:58:33 1842 1843	 1492531113	 520616446	 162118.
15:58:33 1843 1844	 1492531113	 686427796	 165812.
15:58:33 1844 1845	 1492531113	 848808814	 162381.
15:58:34 1845 1846	 1492531114	 10868210	 162059.
15:58:34 1846 1847	 1492531114	 172595361	 161727.
15:58:34 1847 1848	 1492531114	 309607793	 137012.
15:58:34 1848 1849	 1492531114	 471313963	 161707.
15:58:34 1849 1850	 1492531114	 637431718	 166117.
15:58:34 1850 1851	 1492531114	 798897116	 161466.
15:58:34 1851 1852	 1492531114	 965031527	 166134.
15:58:35 1852 1853	 1492531115	 97962261	 132931.
15:58:35 1853 1854	 1492531115	 259491986	 161530.
15:58:35 1854 1855	 1492531115	 425493689	 166001.
15:58:35 1855 1856	 1492531115	 587308888	 161816.
15:58:35 1856 1857	 1492531115	 752573881	 165265.
15:58:35 1857 1858	 1492531115	 885456888	 132883.
15:58:36 1858 1859	 1492531116	 46910775	 161453.
15:58:36 1859 1860	 1492531116	 212619108	 165709.
15:58:36 1860 1861	 1492531116	 374349531	 161730.
15:58:36 1861 1862	 1492531116	 540202618	 165853.
15:58:36 1862 1863	 1492531116	 672857128	 132655.
15:58:36 1863 1864	 1492531116	 835424808	 162568.
15:58:36 1864 1865	 1492531116	 992907092	 157482.
15:58:37 1865 1866	 1492531117	 158656895	 165750.
15:58:37 1866 1867	 1492531117	 291456253	 132799.
15:58:37 1867 1868	 1492531117	 457935419	 166479.
15:58:37 1868 1869	 1492531117	 619905709	 161970.
15:58:37 1869 1870	 1492531117	 785366059	 165461.
15:58:37 1870 1871	 1492531117	 946877886	 161512.
15:58:38 1871 1872	 1492531118	 83989631	 137111.
15:58:38 1872 1873	 1492531118	 245734223	 161745.
15:58:38 1873 1874	 1492531118	 411256150	 165522.
15:58:38 1874 1875	 1492531118	 543992547	 132736.
15:58:38 1875 1876	 1492531118	 705261172	 161269.
15:58:38 1876 1877	 1492531118	 870851626	 165591.
15:58:39 1877 1878	 1492531119	 32741555	 161889.
15:58:39 1878 1879	 1492531119	 198822525	 166081.
15:58:39 1879 1880	 1492531119	 331926615	 133104.
15:58:39 1880 1881	 1492531119	 497217959	 165292.
15:58:39 1881 1882	 1492531119	 658948798	 161730.
15:58:39 1882 1883	 1492531119	 824793705	 165845.
15:58:39 1883 1884	 1492531119	 957430310	 132637.
15:58:40 1884 1885	 1492531120	 119598833	 162169.
15:58:40 1885 1886	 1492531120	 285755183	 166156.
15:58:40 1886 1887	 1492531120	 447389846	 161635.
15:58:40 1887 1888	 1492531120	 584433628	 137043.
15:58:40 1888 1889	 1492531120	 746112805	 161679.
15:58:40 1889 1890	 1492531120	 911830130	 165718.
15:58:41 1890 1891	 1492531121	 73501485	 161671.
15:58:41 1891 1892	 1492531121	 239415586	 165914.
15:58:41 1892 1893	 1492531121	 372528945	 133114.
15:58:41 1893 1894	 1492531121	 538660865	 166132.
15:58:41 1894 1895	 1492531121	 699854051	 161193.
15:58:41 1895 1896	 1492531121	 865476969	 165623.
15:58:41 1896 1897	 1492531121	 998477985	 133001.
15:58:42 1897 1898	 1492531122	 160174925	 161697.
15:58:42 1898 1899	 1492531122	 326223073	 166048.
15:58:42 1899 1900	 1492531122	 488696651	 162473.
15:58:42 1900 1901	 1492531122	 654871504	 166175.
15:58:42 1901 1902	 1492531122	 817086236	 162215.
15:58:42 1902 1903	 1492531122	 983046112	 165960.
15:58:43 1903 1904	 1492531123	 145179478	 162133.
15:58:43 1904 1905	 1492531123	 307366975	 162188.
15:58:43 1905 1906	 1492531123	 444060532	 136693.
15:58:43 1906 1907	 1492531123	 605462713	 161402.
15:58:43 1907 1908	 1492531123	 770966027	 165504.
15:58:43 1908 1909	 1492531123	 903848233	 132882.
15:58:44 1909 1910	 1492531124	 69289013	 165441.
15:58:44 1910 1911	 1492531124	 230737082	 161448.
15:58:44 1911 1912	 1492531124	 367573266	 136836.
15:58:44 1912 1913	 1492531124	 529275739	 161702.
15:58:44 1913 1914	 1492531124	 694874901	 165600.
15:58:44 1914 1915	 1492531124	 827850972	 132976.
15:58:44 1915 1916	 1492531124	 993433758	 165583.
