12:58:10    0 Step	 time(s)	 time(ns)	 delta(ms)
12:58:10    0 1	 1492779490	 976366271	 29949.
12:58:11    1 2	 1492779491	 113025720	 136659.
12:58:11    2 3	 1492779491	 274690668	 161665.
12:58:11    3 4	 1492779491	 436937760	 162247.
12:58:11    4 5	 1492779491	 602910256	 165973.
12:58:11    5 6	 1492779491	 764855826	 161946.
12:58:11    6 7	 1492779491	 930589031	 165733.
12:58:12    7 8	 1492779492	 63644376	 133055.
12:58:12    8 9	 1492779492	 229564691	 165920.
12:58:12    9 10	 1492779492	 391061132	 161497.
12:58:12   10 11	 1492779492	 557111332	 166050.
12:58:12   11 12	 1492779492	 689984906	 132874.
12:58:12   12 13	 1492779492	 851907300	 161922.
12:58:13   13 14	 1492779493	 17848958	 165942.
12:58:13   14 15	 1492779493	 180011700	 162162.
12:58:13   15 16	 1492779493	 345540375	 165529.
12:58:13   16 17	 1492779493	 478647498	 133107.
12:58:13   17 18	 1492779493	 643971898	 165325.
12:58:13   18 19	 1492779493	 805260068	 161288.
12:58:13   19 20	 1492779493	 942106985	 136847.
12:58:14   20 21	 1492779494	 103960453	 161853.
12:58:14   21 22	 1492779494	 269622792	 165662.
12:58:14   22 23	 1492779494	 431186071	 161564.
12:58:14   23 24	 1492779494	 568291799	 137106.
12:58:14   24 25	 1492779494	 730021181	 161729.
12:58:14   25 26	 1492779494	 892070871	 162050.
12:58:15   26 27	 1492779495	 57856180	 165785.
12:58:15   27 28	 1492779495	 223718077	 165862.
12:58:15   28 29	 1492779495	 356865778	 133147.
12:58:15   29 30	 1492779495	 522699250	 165834.
12:58:15   30 31	 1492779495	 684410631	 161711.
12:58:15   31 32	 1492779495	 845996645	 161586.
12:58:16   32 33	 1492779496	 11461137	 165465.
12:58:16   33 34	 1492779496	 144212470	 132751.
12:58:16   34 35	 1492779496	 309476059	 165264.
12:58:16   35 36	 1492779496	 470653056	 161177.
12:58:16   36 37	 1492779496	 636358986	 165706.
12:58:16   37 38	 1492779496	 797824114	 161465.
12:58:16   38 39	 1492779496	 930410888	 132587.
12:58:17   39 40	 1492779497	 95672098	 165261.
12:58:17   40 41	 1492779497	 256880359	 161208.
12:58:17   41 42	 1492779497	 418002187	 161122.
12:58:17   42 43	 1492779497	 583587612	 165585.
12:58:17   43 44	 1492779497	 716539780	 132952.
12:58:17   44 45	 1492779497	 877735705	 161196.
12:58:18   45 46	 1492779498	 43376522	 165641.
12:58:18   46 47	 1492779498	 204887411	 161511.
12:58:18   47 48	 1492779498	 370644270	 165757.
12:58:18   48 49	 1492779498	 503478478	 132834.
12:58:18   49 50	 1492779498	 668848808	 165370.
12:58:18   50 51	 1492779498	 829949928	 161102.
12:58:18   51 52	 1492779498	 962876302	 132926.
12:58:19   52 53	 1492779499	 128038960	 165163.
12:58:19   53 54	 1492779499	 289707928	 161669.
12:58:19   54 55	 1492779499	 455526952	 165819.
12:58:19   55 56	 1492779499	 588559026	 133032.
12:58:19   56 57	 1492779499	 754753123	 166194.
12:58:19   57 58	 1492779499	 920474925	 165722.
12:58:20   58 59	 1492779500	 53151001	 132676.
12:58:20   59 60	 1492779500	 214369818	 161219.
12:58:20   60 61	 1492779500	 380149491	 165779.
12:58:20   61 62	 1492779500	 545480567	 165331.
12:58:20   62 63	 1492779500	 678622447	 133142.
12:58:20   63 64	 1492779500	 839731371	 161109.
12:58:21   64 65	 1492779501	 5134873	 165404.
12:58:21   65 66	 1492779501	 138299286	 133164.
12:58:21   66 67	 1492779501	 299855846	 161557.
12:58:21   67 68	 1492779501	 465860753	 166004.
12:58:21   68 69	 1492779501	 627281726	 161421.
12:58:21   69 70	 1492779501	 789470762	 162189.
12:58:21   70 71	 1492779501	 922171465	 132701.
12:58:22   71 72	 1492779502	 88114305	 165943.
12:58:22   72 73	 1492779502	 250082323	 161968.
12:58:22   73 74	 1492779502	 386985216	 136903.
12:58:22   74 75	 1492779502	 549037653	 162052.
12:58:22   75 76	 1492779502	 710500252	 161463.
12:58:22   76 77	 1492779502	 876046564	 165546.
12:58:23   77 78	 1492779503	 9242661	 133196.
12:58:23   78 79	 1492779503	 174579340	 165337.
12:58:23   79 80	 1492779503	 336330752	 161751.
12:58:23   80 81	 1492779503	 501866308	 165536.
12:58:23   81 82	 1492779503	 634558021	 132692.
12:58:23   82 83	 1492779503	 799955477	 165397.
12:58:23   83 84	 1492779503	 932593159	 132638.
12:58:24   84 85	 1492779504	 98354053	 165761.
12:58:24   85 86	 1492779504	 260229825	 161876.
12:58:24   86 87	 1492779504	 425439289	 165209.
12:58:24   87 88	 1492779504	 558830905	 133392.
12:58:24   88 89	 1492779504	 724420346	 165589.
12:58:24   89 90	 1492779504	 885392448	 160972.
12:58:25   90 91	 1492779505	 51402773	 166010.
12:58:25   91 92	 1492779505	 184438741	 133036.
12:58:25   92 93	 1492779505	 349982108	 165544.
12:58:25   93 94	 1492779505	 511688678	 161706.
12:58:25   94 95	 1492779505	 648764655	 137076.
12:58:25   95 96	 1492779505	 810041791	 161277.
12:58:25   96 97	 1492779505	 975939702	 165898.
12:58:26   97 98	 1492779506	 137474569	 161535.
12:58:26   98 99	 1492779506	 274535715	 137061.
12:58:26   99 100	 1492779506	 435431917	 160897.
12:58:26  100 101	 1492779506	 600944559	 165513.
12:58:26  101 102	 1492779506	 734053695	 133108.
12:58:26  102 103	 1492779506	 899881533	 165828.
12:58:27  103 104	 1492779507	 61425790	 161544.
12:58:27  104 105	 1492779507	 227119973	 165695.
12:58:27  105 106	 1492779507	 360108194	 132988.
12:58:27  106 107	 1492779507	 522106956	 161999.
12:58:27  107 108	 1492779507	 687442475	 165335.
12:58:27  108 109	 1492779507	 849422945	 161981.
12:58:27  109 110	 1492779507	 986193304	 136770.
12:58:28  110 111	 1492779508	 147314442	 161121.
12:58:28  111 112	 1492779508	 312624199	 165310.
12:58:28  112 113	 1492779508	 445107200	 132483.
12:58:28  113 114	 1492779508	 611169787	 166062.
12:58:28  114 115	 1492779508	 772398143	 161229.
12:58:28  115 116	 1492779508	 909225946	 136828.
12:58:29  116 117	 1492779509	 70867569	 161641.
12:58:29  117 118	 1492779509	 236481277	 165614.
12:58:29  118 119	 1492779509	 369505553	 133024.
12:58:29  119 120	 1492779509	 531482269	 161977.
12:58:29  120 121	 1492779509	 697643343	 166161.
12:58:29  121 122	 1492779509	 863468331	 165825.
12:58:30  122 123	 1492779510	 25219934	 161752.
12:58:30  123 124	 1492779510	 158234634	 133014.
12:58:30  124 125	 1492779510	 324008695	 165774.
12:58:30  125 126	 1492779510	 485706248	 161698.
12:58:30  126 127	 1492779510	 652053967	 166348.
12:58:30  127 128	 1492779510	 813656794	 161602.
12:58:30  128 129	 1492779510	 946497510	 132841.
12:58:31  129 130	 1492779511	 111931002	 165434.
12:58:31  130 131	 1492779511	 273281475	 161350.
12:58:31  131 132	 1492779511	 438854088	 165573.
12:58:31  132 133	 1492779511	 571577505	 132723.
12:58:31  133 134	 1492779511	 737472591	 165895.
12:58:31  134 135	 1492779511	 899124943	 161653.
12:58:32  135 136	 1492779512	 60812322	 161687.
12:58:32  136 137	 1492779512	 226346344	 165534.
12:58:32  137 138	 1492779512	 359192809	 132846.
12:58:32  138 139	 1492779512	 524851309	 165659.
12:58:32  139 140	 1492779512	 686719974	 161869.
12:58:32  140 141	 1492779512	 853045628	 166325.
12:58:33  141 142	 1492779513	 10539054	 157494.
12:58:33  142 143	 1492779513	 143695123	 133156.
12:58:33  143 144	 1492779513	 309321258	 165626.
12:58:33  144 145	 1492779513	 471089571	 161768.
12:58:33  145 146	 1492779513	 632899645	 161810.
12:58:33  146 147	 1492779513	 798442732	 165543.
12:58:33  147 148	 1492779513	 931425828	 132984.
12:58:34  148 149	 1492779514	 97569010	 166143.
12:58:34  149 150	 1492779514	 259512118	 161943.
12:58:34  150 151	 1492779514	 425152490	 165640.
12:58:34  151 152	 1492779514	 587047313	 161895.
12:58:34  152 153	 1492779514	 724183035	 137136.
12:58:34  153 154	 1492779514	 885289148	 161106.
12:58:35  154 155	 1492779515	 47161952	 161873.
12:58:35  155 156	 1492779515	 212317446	 165155.
12:58:35  156 157	 1492779515	 345214719	 132897.
12:58:35  157 158	 1492779515	 510592414	 165378.
12:58:35  158 159	 1492779515	 672502453	 161910.
12:58:35  159 160	 1492779515	 838124635	 165622.
12:58:35  160 161	 1492779515	 971036005	 132912.
12:58:36  161 162	 1492779516	 136337083	 165301.
12:58:36  162 163	 1492779516	 297813851	 161477.
12:58:36  163 164	 1492779516	 459193499	 161379.
12:58:36  164 165	 1492779516	 596004228	 136811.
12:58:36  165 166	 1492779516	 757302969	 161299.
12:58:36  166 167	 1492779516	 922705671	 165402.
12:58:37  167 168	 1492779517	 84197836	 161493.
12:58:37  168 169	 1492779517	 245538669	 161340.
12:58:37  169 170	 1492779517	 411158925	 165621.
12:58:37  170 171	 1492779517	 544311281	 133152.
12:58:37  171 172	 1492779517	 705864568	 161553.
12:58:37  172 173	 1492779517	 871322093	 165458.
12:58:38  173 174	 1492779518	 32988990	 161667.
12:58:38  174 175	 1492779518	 194475188	 161486.
12:58:38  175 176	 1492779518	 360220878	 165746.
12:58:38  176 177	 1492779518	 521938152	 161717.
12:58:38  177 178	 1492779518	 654728591	 132790.
12:58:38  178 179	 1492779518	 819872453	 165144.
12:58:38  179 180	 1492779518	 980957958	 161086.
12:58:39  180 181	 1492779519	 142074077	 161116.
12:58:39  181 182	 1492779519	 278713622	 136639.
12:58:39  182 183	 1492779519	 440020955	 161308.
12:58:39  183 184	 1492779519	 601499479	 161478.
12:58:39  184 185	 1492779519	 766782489	 165283.
12:58:39  185 186	 1492779519	 928157276	 161375.
12:58:40  186 187	 1492779520	 64848198	 136691.
12:58:40  187 188	 1492779520	 225781556	 160933.
12:58:40  188 189	 1492779520	 386705182	 160924.
12:58:40  189 190	 1492779520	 551778419	 165073.
12:58:40  190 191	 1492779520	 684427453	 132649.
12:58:40  191 192	 1492779520	 849320836	 164894.
12:58:41  192 193	 1492779521	 10387296	 161066.
12:58:41  193 194	 1492779521	 176321253	 165934.
12:58:41  194 195	 1492779521	 309251196	 132930.
12:58:41  195 196	 1492779521	 475184766	 165933.
12:58:41  196 197	 1492779521	 636838345	 161654.
12:58:41  197 198	 1492779521	 769835051	 132997.
12:58:41  198 199	 1492779521	 935158344	 165323.
12:58:42  199 200	 1492779522	 96981925	 161824.
12:58:42  200 201	 1492779522	 262515808	 165534.
12:58:42  201 202	 1492779522	 395650062	 133134.
12:58:42  202 203	 1492779522	 557279107	 161629.
12:58:42  203 204	 1492779522	 722574378	 165295.
12:58:42  204 205	 1492779522	 888137496	 165563.
12:58:43  205 206	 1492779523	 21384058	 133247.
12:58:43  206 207	 1492779523	 182936333	 161552.
12:58:43  207 208	 1492779523	 348734899	 165799.
12:58:43  208 209	 1492779523	 510709511	 161974.
12:58:43  209 210	 1492779523	 672347184	 161638.
12:58:43  210 211	 1492779523	 837903799	 165556.
12:58:44  211 212	 1492779524	 1749780	 163847.
12:58:44  212 213	 1492779524	 147083118	 145333.
12:58:44  213 214	 1492779524	 308638541	 161555.
12:58:44  214 215	 1492779524	 474184182	 165546.
12:58:44  215 216	 1492779524	 607190588	 133006.
12:58:44  216 217	 1492779524	 772904854	 165715.
12:58:44  217 218	 1492779524	 934631782	 161726.
12:58:45  218 219	 1492779525	 96473577	 161842.
12:58:45  219 220	 1492779525	 262610225	 166137.
12:58:45  220 221	 1492779525	 395675361	 133065.
12:58:45  221 222	 1492779525	 561518414	 165843.
12:58:45  222 223	 1492779525	 723546650	 162028.
12:58:45  223 224	 1492779525	 889057279	 165511.
12:58:46  224 225	 1492779526	 22021651	 132964.
12:58:46  225 226	 1492779526	 183976736	 161955.
12:58:46  226 227	 1492779526	 349814526	 165838.
12:58:46  227 228	 1492779526	 511655109	 161841.
12:58:46  228 229	 1492779526	 677657099	 166002.
12:58:46  229 230	 1492779526	 810165758	 132508.
12:58:46  230 231	 1492779526	 975796666	 165631.
12:58:47  231 232	 1492779527	 137409972	 161614.
12:58:47  232 233	 1492779527	 302973637	 165563.
12:58:47  233 234	 1492779527	 435822160	 132849.
12:58:47  234 235	 1492779527	 601807088	 165985.
12:58:47  235 236	 1492779527	 763559642	 161752.
12:58:47  236 237	 1492779527	 900395294	 136836.
12:58:48  237 238	 1492779528	 62281908	 161887.
12:58:48  238 239	 1492779528	 223763915	 161482.
12:58:48  239 240	 1492779528	 389678780	 165914.
12:58:48  240 241	 1492779528	 522774043	 133096.
12:58:48  241 242	 1492779528	 688424724	 165650.
12:58:48  242 243	 1492779528	 850063713	 161639.
12:58:49  243 244	 1492779529	 15872427	 165809.
12:58:49  244 245	 1492779529	 148734124	 132862.
12:58:49  245 246	 1492779529	 314615766	 165881.
12:58:49  246 247	 1492779529	 476152225	 161537.
12:58:49  247 248	 1492779529	 637847460	 161695.
12:58:49  248 249	 1492779529	 775102302	 137255.
12:58:49  249 250	 1492779529	 936588831	 161487.
12:58:50  250 251	 1492779530	 102500157	 165911.
12:58:50  251 252	 1492779530	 264377490	 161877.
12:58:50  252 253	 1492779530	 397190154	 132813.
12:58:50  253 254	 1492779530	 563089645	 165899.
12:58:50  254 255	 1492779530	 724564612	 161475.
12:58:50  255 256	 1492779530	 890891499	 166327.
12:58:51  256 257	 1492779531	 52429935	 161539.
12:58:51  257 258	 1492779531	 189533146	 137103.
12:58:51  258 259	 1492779531	 351000976	 161468.
12:58:51  259 260	 1492779531	 516651010	 165650.
12:58:51  260 261	 1492779531	 649498977	 132848.
12:58:51  261 262	 1492779531	 815017284	 165518.
12:58:51  262 263	 1492779531	 976560287	 161543.
12:58:52  263 264	 1492779532	 143100689	 166540.
12:58:52  264 265	 1492779532	 305312998	 162213.
12:58:52  265 266	 1492779532	 438592180	 133279.
12:58:52  266 267	 1492779532	 604572068	 165980.
12:58:52  267 268	 1492779532	 766394196	 161822.
12:58:52  268 269	 1492779532	 932141724	 165747.
12:58:53  269 270	 1492779533	 65221558	 133080.
12:58:53  270 271	 1492779533	 231522088	 166301.
12:58:53  271 272	 1492779533	 393407015	 161885.
12:58:53  272 273	 1492779533	 558876992	 165470.
12:58:53  273 274	 1492779533	 720714304	 161837.
12:58:53  274 275	 1492779533	 857809946	 137096.
12:58:54  275 276	 1492779534	 19546115	 161736.
12:58:54  276 277	 1492779534	 185843388	 166297.
12:58:54  277 278	 1492779534	 347907133	 162064.
12:58:54  278 279	 1492779534	 485212538	 137305.
12:58:54  279 280	 1492779534	 646428906	 161217.
12:58:54  280 281	 1492779534	 811852263	 165423.
12:58:54  281 282	 1492779534	 973662030	 161810.
12:58:55  282 283	 1492779535	 111506390	 137844.
12:58:55  283 284	 1492779535	 265020567	 153514.
12:58:55  284 285	 1492779535	 430659517	 165639.
12:58:55  285 286	 1492779535	 592505135	 161846.
12:58:55  286 287	 1492779535	 758365784	 165860.
12:58:55  287 288	 1492779535	 891443248	 133078.
12:58:56  288 289	 1492779536	 57406949	 165964.
12:58:56  289 290	 1492779536	 219073491	 161666.
12:58:56  290 291	 1492779536	 384854580	 165781.
12:58:56  291 292	 1492779536	 517738255	 132884.
12:58:56  292 293	 1492779536	 679371925	 161634.
12:58:56  293 294	 1492779536	 845144570	 165772.
12:58:57  294 295	 1492779537	 6647502	 161503.
12:58:57  295 296	 1492779537	 143171233	 136524.
12:58:57  296 297	 1492779537	 304762391	 161591.
12:58:57  297 298	 1492779537	 470201497	 165439.
12:58:57  298 299	 1492779537	 602849563	 132648.
12:58:57  299 300	 1492779537	 764804212	 161955.
12:58:57  300 301	 1492779537	 930792308	 165988.
12:58:58  301 302	 1492779538	 93068568	 162276.
12:58:58  302 303	 1492779538	 229875671	 136807.
12:58:58  303 304	 1492779538	 391178750	 161303.
12:58:58  304 305	 1492779538	 556648289	 165470.
12:58:58  305 306	 1492779538	 718260518	 161612.
12:58:58  306 307	 1492779538	 855399463	 137139.
12:58:59  307 308	 1492779539	 16957287	 161558.
12:58:59  308 309	 1492779539	 183340918	 166384.
12:58:59  309 310	 1492779539	 344907522	 161566.
12:58:59  310 311	 1492779539	 478125034	 133218.
12:58:59  311 312	 1492779539	 644358908	 166234.
12:58:59  312 313	 1492779539	 810116083	 165757.
12:58:59  313 314	 1492779539	 972007247	 161891.
12:59:00  314 315	 1492779540	 138157203	 166150.
12:59:00  315 316	 1492779540	 300389198	 162232.
12:59:00  316 317	 1492779540	 433449702	 133060.
12:59:00  317 318	 1492779540	 599261813	 165813.
12:59:00  318 319	 1492779540	 761309898	 162048.
12:59:00  319 320	 1492779540	 927220688	 165910.
12:59:01  320 321	 1492779541	 89149714	 161929.
12:59:01  321 322	 1492779541	 255270792	 166122.
12:59:01  322 323	 1492779541	 388151308	 132880.
12:59:01  323 324	 1492779541	 549730729	 161579.
12:59:01  324 325	 1492779541	 715497975	 165768.
12:59:01  325 326	 1492779541	 877186803	 161688.
12:59:02  326 327	 1492779542	 42876230	 165690.
12:59:02  327 328	 1492779542	 204385917	 161510.
12:59:02  328 329	 1492779542	 366030707	 161644.
12:59:02  329 330	 1492779542	 499146542	 133116.
12:59:02  330 331	 1492779542	 665025403	 165879.
12:59:02  331 332	 1492779542	 826876276	 161851.
12:59:02  332 333	 1492779542	 992770440	 165894.
12:59:03  333 334	 1492779543	 154488880	 161719.
12:59:03  334 335	 1492779543	 316338444	 161849.
12:59:03  335 336	 1492779543	 478105718	 161767.
12:59:03  336 337	 1492779543	 643810339	 165705.
12:59:03  337 338	 1492779543	 805631742	 161821.
12:59:03  338 339	 1492779543	 971280957	 165650.
12:59:04  339 340	 1492779544	 104426968	 133146.
12:59:04  340 341	 1492779544	 266197953	 161771.
12:59:04  341 342	 1492779544	 428304012	 162106.
12:59:04  342 343	 1492779544	 590091914	 161788.
12:59:04  343 344	 1492779544	 755885438	 165793.
12:59:04  344 345	 1492779544	 916903729	 161018.
12:59:05  345 346	 1492779545	 82257758	 165354.
12:59:05  346 347	 1492779545	 244062404	 161805.
12:59:05  347 348	 1492779545	 376866176	 132804.
12:59:05  348 349	 1492779545	 538293540	 161427.
12:59:05  349 350	 1492779545	 703724802	 165432.
12:59:05  350 351	 1492779545	 865115436	 161390.
12:59:05  351 352	 1492779546	 2134417	 137019.
12:59:06  352 353	 1492779546	 163659287	 161525.
12:59:06  353 354	 1492779546	 324999343	 161340.
12:59:06  354 355	 1492779546	 486267686	 161268.
12:59:06  355 356	 1492779546	 623450703	 137183.
12:59:06  356 357	 1492779546	 785378372	 161928.
12:59:06  357 358	 1492779546	 950923755	 165545.
12:59:07  358 359	 1492779547	 112591699	 161668.
12:59:07  359 360	 1492779547	 278155816	 165565.
12:59:07  360 361	 1492779547	 411166867	 133011.
12:59:07  361 362	 1492779547	 577215431	 166048.
12:59:07  362 363	 1492779547	 739543451	 162328.
12:59:07  363 364	 1492779547	 901792355	 162249.
12:59:08  364 365	 1492779548	 63843735	 162051.
12:59:08  365 366	 1492779548	 229588920	 165746.
12:59:08  366 367	 1492779548	 391650315	 162061.
12:59:08  367 368	 1492779548	 524948813	 133299.
12:59:08  368 369	 1492779548	 690889483	 165940.
12:59:08  369 370	 1492779548	 856639917	 165751.
12:59:09  370 371	 1492779549	 18407589	 161767.
12:59:09  371 372	 1492779549	 184440204	 166033.
12:59:09  372 373	 1492779549	 317359213	 132919.
12:59:09  373 374	 1492779549	 479603522	 162244.
12:59:09  374 375	 1492779549	 645168656	 165565.
12:59:09  375 376	 1492779549	 810940198	 165772.
12:59:09  376 377	 1492779549	 943968600	 133028.
12:59:10  377 378	 1492779550	 106288626	 162320.
12:59:10  378 379	 1492779550	 271983337	 165695.
12:59:10  379 380	 1492779550	 433580519	 161597.
12:59:10  380 381	 1492779550	 595413111	 161833.
12:59:10  381 382	 1492779550	 732205620	 136792.
12:59:10  382 383	 1492779550	 894152851	 161948.
12:59:11  383 384	 1492779551	 59454146	 165301.
12:59:11  384 385	 1492779551	 220406244	 160952.
12:59:11  385 386	 1492779551	 385936074	 165530.
12:59:11  386 387	 1492779551	 518572960	 132637.
12:59:11  387 388	 1492779551	 679973318	 161400.
12:59:11  388 389	 1492779551	 846317548	 166344.
12:59:12  389 390	 1492779552	 3504373	 157187.
12:59:12  390 391	 1492779552	 165100393	 161596.
12:59:12  391 392	 1492779552	 326425110	 161325.
12:59:12  392 393	 1492779552	 463202994	 136778.
12:59:12  393 394	 1492779552	 624284392	 161081.
12:59:12  394 395	 1492779552	 785601712	 161317.
12:59:12  395 396	 1492779552	 950999980	 165399.
12:59:13  396 397	 1492779553	 83576390	 132576.
12:59:13  397 398	 1492779553	 244879404	 161303.
12:59:13  398 399	 1492779553	 410372750	 165493.
12:59:13  399 400	 1492779553	 571585530	 161213.
12:59:13  400 401	 1492779553	 732888021	 161303.
12:59:13  401 402	 1492779553	 865606372	 132718.
12:59:14  402 403	 1492779554	 31157316	 165551.
12:59:14  403 404	 1492779554	 192774020	 161617.
12:59:14  404 405	 1492779554	 358448424	 165674.
12:59:14  405 406	 1492779554	 519879984	 161432.
12:59:14  406 407	 1492779554	 681274096	 161394.
12:59:14  407 408	 1492779554	 818196479	 136922.
12:59:14  408 409	 1492779554	 979818737	 161622.
12:59:15  409 410	 1492779555	 141308303	 161490.
12:59:15  410 411	 1492779555	 307607142	 166299.
12:59:15  411 412	 1492779555	 469503448	 161896.
12:59:15  412 413	 1492779555	 635402159	 165899.
12:59:15  413 414	 1492779555	 797201855	 161800.
12:59:15  414 415	 1492779555	 934444699	 137242.
12:59:16  415 416	 1492779556	 96793345	 162349.
12:59:16  416 417	 1492779556	 258574356	 161781.
12:59:16  417 418	 1492779556	 424497504	 165923.
12:59:16  418 419	 1492779556	 586227414	 161730.
12:59:16  419 420	 1492779556	 723204883	 136978.
12:59:16  420 421	 1492779556	 885324868	 162120.
12:59:17  421 422	 1492779557	 51221167	 165896.
12:59:17  422 423	 1492779557	 213085900	 161865.
12:59:17  423 424	 1492779557	 378531609	 165445.
12:59:17  424 425	 1492779557	 540704340	 162173.
12:59:17  425 426	 1492779557	 673701150	 132997.
12:59:17  426 427	 1492779557	 839685729	 165984.
12:59:17  427 428	 1492779558	 1714978	 162030.
12:59:18  428 429	 1492779558	 167454401	 165739.
12:59:18  429 430	 1492779558	 329172481	 161718.
12:59:18  430 431	 1492779558	 462081263	 132909.
12:59:18  431 432	 1492779558	 628132513	 166051.
12:59:18  432 433	 1492779558	 789711289	 161579.
12:59:18  433 434	 1492779558	 955762404	 166051.
12:59:19  434 435	 1492779559	 117761601	 161999.
12:59:19  435 436	 1492779559	 254737523	 136976.
12:59:19  436 437	 1492779559	 416539383	 161802.
12:59:19  437 438	 1492779559	 582360849	 165822.
12:59:19  438 439	 1492779559	 743652949	 161292.
12:59:19  439 440	 1492779559	 905497123	 161844.
12:59:20  440 441	 1492779560	 42174131	 136677.
12:59:20  441 442	 1492779560	 203590028	 161416.
12:59:20  442 443	 1492779560	 369441041	 165851.
12:59:20  443 444	 1492779560	 501911905	 132471.
12:59:20  444 445	 1492779560	 667092036	 165180.
12:59:20  445 446	 1492779560	 828862236	 161770.
12:59:20  446 447	 1492779560	 990125162	 161263.
12:59:21  447 448	 1492779561	 127150794	 137025.
12:59:21  448 449	 1492779561	 289014974	 161865.
12:59:21  449 450	 1492779561	 454591056	 165576.
12:59:21  450 451	 1492779561	 616306075	 161715.
12:59:21  451 452	 1492779561	 752842094	 136536.
12:59:21  452 453	 1492779561	 914002345	 161160.
12:59:22  453 454	 1492779562	 80240887	 166239.
12:59:22  454 455	 1492779562	 212807343	 132566.
12:59:22  455 456	 1492779562	 378514037	 165707.
12:59:22  456 457	 1492779562	 540160788	 161646.
12:59:22  457 458	 1492779562	 701508936	 161349.
12:59:22  458 459	 1492779562	 838702199	 137193.
12:59:22  459 460	 1492779563	 1192545	 162490.
12:59:23  460 461	 1492779563	 158661788	 157470.
12:59:23  461 462	 1492779563	 324402349	 165740.
12:59:23  462 463	 1492779563	 457149752	 132747.
12:59:23  463 464	 1492779563	 622719015	 165570.
12:59:23  464 465	 1492779563	 784062873	 161344.
12:59:23  465 466	 1492779563	 920518490	 136455.
12:59:24  466 467	 1492779564	 81690938	 161173.
12:59:24  467 468	 1492779564	 218379574	 136688.
12:59:24  468 469	 1492779564	 379466641	 161087.
12:59:24  469 470	 1492779564	 544945562	 165479.
12:59:24  470 471	 1492779564	 677545603	 132600.
12:59:24  471 472	 1492779564	 838785525	 161240.
12:59:25  472 473	 1492779565	 4069222	 165284.
12:59:25  473 474	 1492779565	 136695992	 132627.
12:59:25  474 475	 1492779565	 302186415	 165490.
12:59:25  475 476	 1492779565	 463311880	 161126.
12:59:25  476 477	 1492779565	 600360740	 137048.
12:59:25  477 478	 1492779565	 761916919	 161557.
12:59:25  478 479	 1492779565	 927311585	 165394.
12:59:26  479 480	 1492779566	 59867349	 132556.
12:59:26  480 481	 1492779566	 221494011	 161627.
12:59:26  481 482	 1492779566	 386899409	 165405.
12:59:26  482 483	 1492779566	 519862463	 132963.
12:59:26  483 484	 1492779566	 685177994	 165316.
12:59:26  484 485	 1492779566	 846804287	 161626.
12:59:26  485 486	 1492779566	 983637692	 136833.
12:59:27  486 487	 1492779567	 145056086	 161419.
12:59:27  487 488	 1492779567	 307337721	 162281.
12:59:27  488 489	 1492779567	 469478216	 162141.
12:59:27  489 490	 1492779567	 635253792	 165776.
12:59:27  490 491	 1492779567	 768553655	 133299.
12:59:27  491 492	 1492779567	 934380378	 165827.
12:59:28  492 493	 1492779568	 95861921	 161482.
12:59:28  493 494	 1492779568	 257602964	 161741.
12:59:28  494 495	 1492779568	 394906208	 137303.
12:59:28  495 496	 1492779568	 556814590	 161908.
12:59:28  496 497	 1492779568	 722227645	 165413.
12:59:28  497 498	 1492779568	 884230132	 162003.
12:59:29  498 499	 1492779569	 16986306	 132756.
12:59:29  499 500	 1492779569	 182517302	 165531.
12:59:29  500 501	 1492779569	 348096408	 165579.
12:59:29  501 502	 1492779569	 481479025	 133383.
12:59:29  502 503	 1492779569	 643059454	 161580.
12:59:29  503 504	 1492779569	 808912024	 165853.
12:59:29  504 505	 1492779569	 970517397	 161605.
12:59:30  505 506	 1492779570	 107516430	 136999.
12:59:30  506 507	 1492779570	 269062611	 161546.
12:59:30  507 508	 1492779570	 430309878	 161248.
12:59:30  508 509	 1492779570	 596547894	 166238.
12:59:30  509 510	 1492779570	 762356009	 165808.
12:59:30  510 511	 1492779570	 895375041	 133019.
12:59:31  511 512	 1492779571	 56844139	 161469.
12:59:31  512 513	 1492779571	 223033499	 166189.
12:59:31  513 514	 1492779571	 355920982	 132888.
12:59:31  514 515	 1492779571	 521309518	 165388.
12:59:31  515 516	 1492779571	 682920434	 161611.
12:59:31  516 517	 1492779571	 819479322	 136559.
12:59:31  517 518	 1492779571	 981165727	 161686.
12:59:32  518 519	 1492779572	 147169003	 166004.
12:59:32  519 520	 1492779572	 308731322	 161562.
12:59:32  520 521	 1492779572	 441060980	 132330.
12:59:32  521 522	 1492779572	 606532920	 165472.
12:59:32  522 523	 1492779572	 768288261	 161755.
12:59:32  523 524	 1492779572	 905493601	 137205.
12:59:33  524 525	 1492779573	 66885471	 161392.
12:59:33  525 526	 1492779573	 232450542	 165565.
12:59:33  526 527	 1492779573	 393853233	 161403.
12:59:33  527 528	 1492779573	 526178612	 132325.
12:59:33  528 529	 1492779573	 691450478	 165272.
12:59:33  529 530	 1492779573	 853017600	 161567.
12:59:34  530 531	 1492779574	 15281414	 162264.
12:59:34  531 532	 1492779574	 148020571	 132739.
12:59:34  532 533	 1492779574	 313686361	 165666.
12:59:34  533 534	 1492779574	 475136885	 161451.
12:59:34  534 535	 1492779574	 611642414	 136505.
12:59:34  535 536	 1492779574	 773204847	 161563.
12:59:34  536 537	 1492779574	 938755551	 165550.
12:59:35  537 538	 1492779575	 99927354	 161172.
12:59:35  538 539	 1492779575	 232727303	 132800.
12:59:35  539 540	 1492779575	 398162505	 165435.
12:59:35  540 541	 1492779575	 559327877	 161166.
12:59:35  541 542	 1492779575	 696244788	 136916.
12:59:35  542 543	 1492779575	 857831203	 161587.
12:59:36  543 544	 1492779576	 23224510	 165393.
12:59:36  544 545	 1492779576	 155975831	 132752.
12:59:36  545 546	 1492779576	 317441877	 161466.
12:59:36  546 547	 1492779576	 483110464	 165668.
12:59:36  547 548	 1492779576	 644465893	 161356.
12:59:36  548 549	 1492779576	 781565177	 137099.
12:59:36  549 550	 1492779576	 942847718	 161282.
12:59:37  550 551	 1492779577	 108119196	 165272.
12:59:37  551 552	 1492779577	 269526427	 161407.
12:59:37  552 553	 1492779577	 406468161	 136942.
12:59:37  553 554	 1492779577	 568355978	 161888.
12:59:37  554 555	 1492779577	 729894970	 161539.
12:59:37  555 556	 1492779577	 896019368	 166124.
12:59:38  556 557	 1492779578	 57910186	 161891.
12:59:38  557 558	 1492779578	 224191803	 166282.
12:59:38  558 559	 1492779578	 357823363	 133631.
12:59:38  559 560	 1492779578	 523706849	 165884.
12:59:38  560 561	 1492779578	 685532867	 161826.
12:59:38  561 562	 1492779578	 847293411	 161760.
12:59:39  562 563	 1492779579	 12991446	 165698.
12:59:39  563 564	 1492779579	 146180040	 133189.
12:59:39  564 565	 1492779579	 308262218	 162082.
12:59:39  565 566	 1492779579	 474696273	 166434.
12:59:39  566 567	 1492779579	 636994281	 162298.
12:59:39  567 568	 1492779579	 803256160	 166262.
12:59:39  568 569	 1492779579	 965332310	 162076.
12:59:40  569 570	 1492779580	 131473928	 166142.
12:59:40  570 571	 1492779580	 293551218	 162077.
12:59:40  571 572	 1492779580	 455614501	 162063.
12:59:40  572 573	 1492779580	 621685149	 166071.
12:59:40  573 574	 1492779580	 788078002	 166393.
12:59:40  574 575	 1492779580	 921399039	 133321.
12:59:41  575 576	 1492779581	 87459677	 166060.
12:59:41  576 577	 1492779581	 249020218	 161561.
12:59:41  577 578	 1492779581	 410838816	 161819.
12:59:41  578 579	 1492779581	 576893594	 166054.
12:59:41  579 580	 1492779581	 738506634	 161613.
12:59:41  580 581	 1492779581	 875673532	 137167.
12:59:42  581 582	 1492779582	 37452768	 161779.
12:59:42  582 583	 1492779582	 203360774	 165908.
12:59:42  583 584	 1492779582	 365157603	 161797.
12:59:42  584 585	 1492779582	 531137950	 165981.
12:59:42  585 586	 1492779582	 664293977	 133156.
12:59:42  586 587	 1492779582	 830327447	 166033.
12:59:42  587 588	 1492779582	 992342670	 162015.
12:59:43  588 589	 1492779583	 157669975	 165328.
12:59:43  589 590	 1492779583	 319520181	 161850.
12:59:43  590 591	 1492779583	 456886401	 137366.
12:59:43  591 592	 1492779583	 618514637	 161628.
12:59:43  592 593	 1492779583	 780374922	 161861.
12:59:43  593 594	 1492779583	 946396574	 166021.
12:59:44  594 595	 1492779584	 108079857	 161684.
12:59:44  595 596	 1492779584	 244545929	 136466.
12:59:44  596 597	 1492779584	 406534601	 161988.
12:59:44  597 598	 1492779584	 572184388	 165650.
12:59:44  598 599	 1492779584	 733840068	 161656.
12:59:44  599 600	 1492779584	 895344305	 161504.
12:59:45  600 601	 1492779585	 57706449	 162362.
12:59:45  601 602	 1492779585	 191038312	 133332.
12:59:45  602 603	 1492779585	 357019790	 165981.
12:59:45  603 604	 1492779585	 518870808	 161851.
12:59:45  604 605	 1492779585	 684453949	 165584.
12:59:45  605 606	 1492779585	 846134136	 161680.
12:59:46  606 607	 1492779586	 12043815	 165910.
12:59:46  607 608	 1492779586	 173933600	 161889.
12:59:46  608 609	 1492779586	 306950974	 133018.
12:59:46  609 610	 1492779586	 472595640	 165644.
12:59:46  610 611	 1492779586	 634209855	 161615.
12:59:46  611 612	 1492779586	 795912543	 161702.
12:59:46  612 613	 1492779586	 961551475	 165639.
12:59:47  613 614	 1492779587	 94454994	 132904.
12:59:47  614 615	 1492779587	 255966559	 161511.
12:59:47  615 616	 1492779587	 421537776	 165571.
12:59:47  616 617	 1492779587	 583184370	 161647.
12:59:47  617 618	 1492779587	 744854812	 161671.
12:59:47  618 619	 1492779587	 878163550	 133308.
12:59:48  619 620	 1492779588	 39439802	 161277.
12:59:48  620 621	 1492779588	 204547303	 165107.
12:59:48  621 622	 1492779588	 365706304	 161159.
12:59:48  622 623	 1492779588	 498234411	 132528.
12:59:48  623 624	 1492779588	 663524564	 165290.
12:59:48  624 625	 1492779588	 824956025	 161432.
12:59:48  625 626	 1492779588	 990420116	 165464.
12:59:49  626 627	 1492779589	 151540664	 161120.
12:59:49  627 628	 1492779589	 284435777	 132895.
12:59:49  628 629	 1492779589	 445574329	 161139.
12:59:49  629 630	 1492779589	 610699337	 165125.
12:59:49  630 631	 1492779589	 771948952	 161250.
12:59:49  631 632	 1492779589	 937283962	 165335.
12:59:50  632 633	 1492779590	 70333423	 133049.
12:59:50  633 634	 1492779590	 231924445	 161591.
12:59:50  634 635	 1492779590	 397317625	 165393.
12:59:50  635 636	 1492779590	 562874314	 165557.
12:59:50  636 637	 1492779590	 695758261	 132884.
12:59:50  637 638	 1492779590	 861266868	 165509.
12:59:51  638 639	 1492779591	 22677948	 161411.
12:59:51  639 640	 1492779591	 188109043	 165431.
12:59:51  640 641	 1492779591	 320622023	 132513.
12:59:51  641 642	 1492779591	 481816841	 161195.
12:59:51  642 643	 1492779591	 647429548	 165613.
12:59:51  643 644	 1492779591	 808620252	 161190.
12:59:51  644 645	 1492779591	 945622946	 137003.
12:59:52  645 646	 1492779592	 107769431	 162146.
12:59:52  646 647	 1492779592	 273734799	 165966.
12:59:52  647 648	 1492779592	 435956351	 162221.
12:59:52  648 649	 1492779592	 601863984	 165908.
12:59:52  649 650	 1492779592	 734617128	 132753.
12:59:52  650 651	 1492779592	 896354294	 161737.
12:59:53  651 652	 1492779593	 62266079	 165912.
12:59:53  652 653	 1492779593	 223982544	 161716.
12:59:53  653 654	 1492779593	 390036532	 166054.
12:59:53  654 655	 1492779593	 523194767	 133158.
12:59:53  655 656	 1492779593	 684793264	 161599.
12:59:53  656 657	 1492779593	 850543586	 165750.
12:59:54  657 658	 1492779594	 12172270	 161629.
12:59:54  658 659	 1492779594	 149455475	 137283.
12:59:54  659 660	 1492779594	 311097374	 161642.
12:59:54  660 661	 1492779594	 476816917	 165720.
12:59:54  661 662	 1492779594	 638429699	 161612.
12:59:54  662 663	 1492779594	 804286010	 165857.
12:59:54  663 664	 1492779594	 937067927	 132782.
12:59:55  664 665	 1492779595	 98505116	 161437.
12:59:55  665 666	 1492779595	 264641721	 166136.
12:59:55  666 667	 1492779595	 401387457	 136746.
12:59:55  667 668	 1492779595	 562836759	 161449.
12:59:55  668 669	 1492779595	 724309623	 161473.
12:59:55  669 670	 1492779595	 890029296	 165720.
12:59:56  670 671	 1492779596	 22631997	 132603.
12:59:56  671 672	 1492779596	 189245646	 166613.
12:59:56  672 673	 1492779596	 346901497	 157656.
12:59:56  673 674	 1492779596	 509000616	 162099.
12:59:56  674 675	 1492779596	 674620004	 165620.
12:59:56  675 676	 1492779596	 807662975	 133043.
12:59:56  676 677	 1492779596	 973071173	 165408.
12:59:57  677 678	 1492779597	 134770840	 161700.
12:59:57  678 679	 1492779597	 300905503	 166134.
12:59:57  679 680	 1492779597	 434035860	 133131.
12:59:57  680 681	 1492779597	 600106956	 166071.
12:59:57  681 682	 1492779597	 762383103	 162276.
12:59:57  682 683	 1492779597	 928601087	 166218.
12:59:58  683 684	 1492779598	 90730660	 162129.
12:59:58  684 685	 1492779598	 256948112	 166218.
12:59:58  685 686	 1492779598	 418855750	 161907.
12:59:58  686 687	 1492779598	 552140996	 133286.
12:59:58  687 688	 1492779598	 717595411	 165454.
12:59:58  688 689	 1492779598	 883139809	 165544.
12:59:59  689 690	 1492779599	 44427197	 161288.
12:59:59  690 691	 1492779599	 181527259	 137100.
12:59:59  691 692	 1492779599	 342733940	 161207.
12:59:59  692 693	 1492779599	 508238469	 165504.
12:59:59  693 694	 1492779599	 641248050	 133010.
12:59:59  694 695	 1492779599	 802655662	 161407.
12:59:59  695 696	 1492779599	 968380240	 165725.
13:00:00  696 697	 1492779600	 126363287	 157983.
13:00:00  697 698	 1492779600	 292016763	 165653.
13:00:00  698 699	 1492779600	 424866256	 132850.
13:00:00  699 700	 1492779600	 590757341	 165891.
13:00:00  700 701	 1492779600	 752368774	 161611.
13:00:00  701 702	 1492779600	 913914933	 161547.
13:00:01  702 703	 1492779601	 75387285	 161472.
13:00:01  703 704	 1492779601	 241275253	 165888.
13:00:01  704 705	 1492779601	 402819562	 161544.
13:00:01  705 706	 1492779601	 568576428	 165757.
13:00:01  706 707	 1492779601	 701640304	 133064.
13:00:01  707 708	 1492779601	 867580718	 165940.
13:00:02  708 709	 1492779602	 29372184	 161792.
13:00:02  709 710	 1492779602	 191061029	 161689.
13:00:02  710 711	 1492779602	 356909881	 165849.
13:00:02  711 712	 1492779602	 518258642	 161348.
13:00:02  712 713	 1492779602	 679326182	 161068.
13:00:02  713 714	 1492779602	 816033630	 136707.
13:00:02  714 715	 1492779602	 977262594	 161229.
13:00:03  715 716	 1492779603	 138483312	 161221.
13:00:03  716 717	 1492779603	 303535005	 165052.
13:00:03  717 718	 1492779603	 436061587	 132526.
13:00:03  718 719	 1492779603	 597151704	 161090.
13:00:03  719 720	 1492779603	 762445533	 165294.
13:00:03  720 721	 1492779603	 923761981	 161317.
13:00:04  721 722	 1492779604	 84972743	 161210.
13:00:04  722 723	 1492779604	 221749112	 136777.
13:00:04  723 724	 1492779604	 383061342	 161312.
13:00:04  724 725	 1492779604	 544532405	 161471.
13:00:04  725 726	 1492779604	 709706957	 165175.
13:00:04  726 727	 1492779604	 870942328	 161235.
13:00:04  727 728	 1492779605	 3235008	 132293.
13:00:05  728 729	 1492779605	 168502312	 165267.
13:00:05  729 730	 1492779605	 329836698	 161334.
13:00:05  730 731	 1492779605	 491171059	 161335.
13:00:05  731 732	 1492779605	 627790288	 136619.
13:00:05  732 733	 1492779605	 789375571	 161585.
13:00:05  733 734	 1492779605	 954744502	 165369.
13:00:06  734 735	 1492779606	 116308681	 161564.
13:00:06  735 736	 1492779606	 277747638	 161439.
13:00:06  736 737	 1492779606	 415070385	 137323.
13:00:06  737 738	 1492779606	 577077522	 162007.
13:00:06  738 739	 1492779606	 742991804	 165914.
13:00:06  739 740	 1492779606	 904814657	 161823.
13:00:07  740 741	 1492779607	 70574654	 165760.
13:00:07  741 742	 1492779607	 218174285	 147600.
13:00:07  742 743	 1492779607	 379934508	 161760.
13:00:07  743 744	 1492779607	 545752794	 165818.
13:00:07  744 745	 1492779607	 707321620	 161569.
13:00:07  745 746	 1492779607	 869153405	 161832.
13:00:08  746 747	 1492779608	 34924668	 165772.
13:00:08  747 748	 1492779608	 196456160	 161531.
13:00:08  748 749	 1492779608	 329312707	 132856.
13:00:08  749 750	 1492779608	 495107192	 165795.
13:00:08  750 751	 1492779608	 657059823	 161953.
13:00:08  751 752	 1492779608	 818787220	 161727.
13:00:08  752 753	 1492779608	 984519943	 165733.
13:00:09  753 754	 1492779609	 146376354	 161856.
13:00:09  754 755	 1492779609	 308264227	 161888.
13:00:09  755 756	 1492779609	 473938680	 165674.
13:00:09  756 757	 1492779609	 635340070	 161402.
13:00:09  757 758	 1492779609	 768019881	 132680.
13:00:09  758 759	 1492779609	 933821492	 165801.
13:00:10  759 760	 1492779610	 95291396	 161470.
13:00:10  760 761	 1492779610	 260847174	 165556.
13:00:10  761 762	 1492779610	 422014973	 161168.
13:00:10  762 763	 1492779610	 583116335	 161101.
13:00:10  763 764	 1492779610	 719913600	 136797.
13:00:10  764 765	 1492779610	 881221593	 161308.
13:00:11  765 766	 1492779611	 42526469	 161305.
13:00:11  766 767	 1492779611	 208096598	 165570.
13:00:11  767 768	 1492779611	 369555642	 161459.
13:00:11  768 769	 1492779611	 502543902	 132989.
13:00:11  769 770	 1492779611	 668087774	 165543.
13:00:11  770 771	 1492779611	 829623506	 161536.
13:00:11  771 772	 1492779611	 991085141	 161462.
13:00:12  772 773	 1492779612	 156579410	 165494.
13:00:12  773 774	 1492779612	 317912900	 161334.
13:00:12  774 775	 1492779612	 450700390	 132787.
13:00:12  775 776	 1492779612	 616160917	 165461.
13:00:12  776 777	 1492779612	 777700398	 161539.
13:00:12  777 778	 1492779612	 939411798	 161711.
13:00:13  778 779	 1492779613	 104945524	 165534.
13:00:13  779 780	 1492779613	 266449481	 161504.
13:00:13  780 781	 1492779613	 399360638	 132911.
13:00:13  781 782	 1492779613	 564798014	 165438.
13:00:13  782 783	 1492779613	 726008004	 161210.
13:00:13  783 784	 1492779613	 891758610	 165750.
13:00:14  784 785	 1492779614	 53197572	 161439.
13:00:14  785 786	 1492779614	 215010038	 161813.
13:00:14  786 787	 1492779614	 351822277	 136812.
13:00:14  787 788	 1492779614	 513808154	 161986.
13:00:14  788 789	 1492779614	 675284836	 161477.
13:00:14  789 790	 1492779614	 840452733	 165167.
13:00:14  790 791	 1492779615	 2032484	 161580.
13:00:15  791 792	 1492779615	 163885074	 161853.
13:00:15  792 793	 1492779615	 301050771	 137165.
13:00:15  793 794	 1492779615	 462707529	 161657.
13:00:15  794 795	 1492779615	 624620976	 161914.
13:00:15  795 796	 1492779615	 790601286	 165980.
13:00:15  796 797	 1492779615	 951944130	 161343.
13:00:16  797 798	 1492779616	 113598540	 161654.
13:00:16  798 799	 1492779616	 250862529	 137264.
13:00:16  799 800	 1492779616	 412944784	 162082.
13:00:16  800 801	 1492779616	 578980627	 166036.
13:00:16  801 802	 1492779616	 740590953	 161611.
13:00:16  802 803	 1492779616	 906166832	 165576.
13:00:17  803 804	 1492779617	 67516199	 161349.
13:00:17  804 805	 1492779617	 200196825	 132681.
13:00:17  805 806	 1492779617	 365722032	 165525.
13:00:17  806 807	 1492779617	 527137503	 161415.
13:00:17  807 808	 1492779617	 688848532	 161711.
13:00:17  808 809	 1492779617	 854289373	 165441.
13:00:18  809 810	 1492779618	 16358039	 162069.
13:00:18  810 811	 1492779618	 149091902	 132734.
13:00:18  811 812	 1492779618	 314792534	 165700.
13:00:18  812 813	 1492779618	 476469792	 161677.
13:00:18  813 814	 1492779618	 613297915	 136829.
13:00:18  814 815	 1492779618	 775253680	 161955.
13:00:18  815 816	 1492779618	 941413489	 166160.
13:00:19  816 817	 1492779619	 102973512	 161560.
13:00:19  817 818	 1492779619	 268530895	 165558.
13:00:19  818 819	 1492779619	 401364472	 132833.
13:00:19  819 820	 1492779619	 563009346	 161645.
13:00:19  820 821	 1492779619	 728852503	 165843.
13:00:19  821 822	 1492779619	 890548227	 161696.
13:00:20  822 823	 1492779620	 56206936	 165659.
13:00:20  823 824	 1492779620	 189266298	 133059.
13:00:20  824 825	 1492779620	 351165253	 161899.
13:00:20  825 826	 1492779620	 517005510	 165840.
13:00:20  826 827	 1492779620	 678798342	 161793.
13:00:20  827 828	 1492779620	 815843225	 137045.
13:00:20  828 829	 1492779620	 977463132	 161620.
13:00:21  829 830	 1492779621	 142838311	 165375.
13:00:21  830 831	 1492779621	 304487308	 161649.
13:00:21  831 832	 1492779621	 465961272	 161474.
13:00:21  832 833	 1492779621	 603243609	 137282.
13:00:21  833 834	 1492779621	 764782809	 161540.
13:00:21  834 835	 1492779621	 930287858	 165505.
13:00:22  835 836	 1492779622	 92140237	 161852.
13:00:22  836 837	 1492779622	 258208858	 166069.
13:00:22  837 838	 1492779622	 391230392	 133021.
13:00:22  838 839	 1492779622	 553025718	 161795.
13:00:22  839 840	 1492779622	 718828642	 165803.
13:00:22  840 841	 1492779622	 880579953	 161752.
13:00:23  841 842	 1492779623	 42416633	 161836.
13:00:23  842 843	 1492779623	 208318170	 165902.
13:00:23  843 844	 1492779623	 370131050	 161813.
13:00:23  844 845	 1492779623	 531885931	 161755.
13:00:23  845 846	 1492779623	 697506903	 165621.
13:00:23  846 847	 1492779623	 830552218	 133045.
13:00:23  847 848	 1492779623	 996155218	 165603.
13:00:24  848 849	 1492779624	 158163091	 162008.
13:00:24  849 850	 1492779624	 315505054	 157342.
13:00:24  850 851	 1492779624	 452797605	 137292.
13:00:24  851 852	 1492779624	 614337511	 161540.
13:00:24  852 853	 1492779624	 775855275	 161518.
13:00:24  853 854	 1492779624	 912699803	 136845.
13:00:25  854 855	 1492779625	 74279524	 161579.
13:00:25  855 856	 1492779625	 240017707	 165738.
13:00:25  856 857	 1492779625	 405356934	 165340.
13:00:25  857 858	 1492779625	 538411324	 133054.
13:00:25  858 859	 1492779625	 700187057	 161776.
13:00:25  859 860	 1492779625	 866098199	 165911.
13:00:26  860 861	 1492779626	 27460737	 161362.
13:00:26  861 862	 1492779626	 159946319	 132486.
13:00:26  862 863	 1492779626	 325038219	 165092.
13:00:26  863 864	 1492779626	 486195012	 161157.
13:00:26  864 865	 1492779626	 647941022	 161746.
13:00:26  865 866	 1492779626	 785095266	 137154.
13:00:26  866 867	 1492779626	 946838237	 161743.
13:00:27  867 868	 1492779627	 112546434	 165708.
13:00:27  868 869	 1492779627	 274177781	 161631.
13:00:27  869 870	 1492779627	 411062582	 136885.
13:00:27  870 871	 1492779627	 572515152	 161453.
13:00:27  871 872	 1492779627	 734141284	 161626.
13:00:27  872 873	 1492779627	 900118505	 165977.
13:00:28  873 874	 1492779628	 62079078	 161961.
13:00:28  874 875	 1492779628	 194637669	 132558.
13:00:28  875 876	 1492779628	 360297823	 165661.
13:00:28  876 877	 1492779628	 522002912	 161705.
13:00:28  877 878	 1492779628	 658960510	 136957.
13:00:28  878 879	 1492779628	 820803896	 161844.
13:00:28  879 880	 1492779628	 982901457	 162097.
13:00:29  880 881	 1492779629	 144375132	 161474.
13:00:29  881 882	 1492779629	 281318646	 136943.
13:00:29  882 883	 1492779629	 442862062	 161544.
13:00:29  883 884	 1492779629	 608674695	 165812.
13:00:29  884 885	 1492779629	 770616607	 161942.
13:00:29  885 886	 1492779629	 936304384	 165688.
13:00:30  886 887	 1492779630	 69276710	 132972.
13:00:30  887 888	 1492779630	 235242062	 165966.
13:00:30  888 889	 1492779630	 397219423	 161977.
13:00:30  889 890	 1492779630	 559516943	 162298.
13:00:30  890 891	 1492779630	 725764457	 166247.
13:00:30  891 892	 1492779630	 858932181	 133168.
13:00:31  892 893	 1492779631	 24311265	 165379.
13:00:31  893 894	 1492779631	 185619683	 161308.
13:00:31  894 895	 1492779631	 347366762	 161747.
13:00:31  895 896	 1492779631	 484629374	 137263.
13:00:31  896 897	 1492779631	 646841621	 162212.
13:00:31  897 898	 1492779631	 812033285	 165192.
13:00:31  898 899	 1492779631	 973607127	 161574.
13:00:32  899 900	 1492779632	 110518605	 136911.
13:00:32  900 901	 1492779632	 276398809	 165880.
13:00:32  901 902	 1492779632	 437819423	 161421.
13:00:32  902 903	 1492779632	 604189737	 166370.
13:00:32  903 904	 1492779632	 737197452	 133008.
13:00:32  904 905	 1492779632	 898727780	 161530.
13:00:33  905 906	 1492779633	 64357158	 165630.
13:00:33  906 907	 1492779633	 225797403	 161440.
13:00:33  907 908	 1492779633	 362672503	 136875.
13:00:33  908 909	 1492779633	 524231008	 161559.
13:00:33  909 910	 1492779633	 690014735	 165783.
13:00:33  910 911	 1492779633	 822557001	 132543.
13:00:33  911 912	 1492779633	 988105774	 165548.
13:00:34  912 913	 1492779634	 149768926	 161664.
13:00:34  913 914	 1492779634	 286638148	 136869.
13:00:34  914 915	 1492779634	 448748987	 162111.
13:00:34  915 916	 1492779634	 610522513	 161773.
13:00:34  916 917	 1492779634	 776029247	 165507.
13:00:34  917 918	 1492779634	 937665538	 161636.
13:00:35  918 919	 1492779635	 74651233	 136986.
13:00:35  919 920	 1492779635	 236225975	 161575.
13:00:35  920 921	 1492779635	 401762032	 165536.
13:00:35  921 922	 1492779635	 534590288	 132828.
13:00:35  922 923	 1492779635	 700075586	 165485.
13:00:35  923 924	 1492779635	 861596006	 161521.
13:00:36  924 925	 1492779636	 23340217	 161744.
13:00:36  925 926	 1492779636	 160104526	 136764.
13:00:36  926 927	 1492779636	 321481297	 161377.
13:00:36  927 928	 1492779636	 487106617	 165625.
13:00:36  928 929	 1492779636	 620157668	 133051.
13:00:36  929 930	 1492779636	 785507654	 165350.
13:00:36  930 931	 1492779636	 947527390	 162020.
13:00:37  931 932	 1492779637	 113168808	 165642.
13:00:37  932 933	 1492779637	 245471955	 132303.
13:00:37  933 934	 1492779637	 411125001	 165653.
13:00:37  934 935	 1492779637	 572647361	 161522.
13:00:37  935 936	 1492779637	 705340417	 132693.
13:00:37  936 937	 1492779637	 871306649	 165966.
13:00:38  937 938	 1492779638	 32834185	 161528.
13:00:38  938 939	 1492779638	 169693511	 136859.
13:00:38  939 940	 1492779638	 331339058	 161646.
13:00:38  940 941	 1492779638	 497121346	 165782.
13:00:38  941 942	 1492779638	 659238906	 162118.
13:00:38  942 943	 1492779638	 824714684	 165475.
13:00:38  943 944	 1492779638	 957907095	 133193.
13:00:39  944 945	 1492779639	 123651917	 165745.
13:00:39  945 946	 1492779639	 285141591	 161489.
13:00:39  946 947	 1492779639	 422071634	 136930.
13:00:39  947 948	 1492779639	 584163648	 162092.
13:00:39  948 949	 1492779639	 749740602	 165577.
13:00:39  949 950	 1492779639	 911234572	 161494.
13:00:40  950 951	 1492779640	 48546049	 137312.
13:00:40  951 952	 1492779640	 210209424	 161663.
13:00:40  952 953	 1492779640	 371746431	 161537.
13:00:40  953 954	 1492779640	 536930170	 165184.
13:00:40  954 955	 1492779640	 670281118	 133351.
13:00:40  955 956	 1492779640	 831811374	 161530.
13:00:40  956 957	 1492779640	 992808421	 160997.
13:00:41  957 958	 1492779641	 125564747	 132756.
13:00:41  958 959	 1492779641	 290943061	 165379.
13:00:41  959 960	 1492779641	 452734720	 161791.
13:00:41  960 961	 1492779641	 589657002	 136923.
13:00:41  961 962	 1492779641	 751711682	 162054.
13:00:41  962 963	 1492779641	 917508256	 165797.
13:00:42  963 964	 1492779642	 79478681	 161970.
13:00:42  964 965	 1492779642	 245304653	 165826.
13:00:42  965 966	 1492779642	 378641302	 133337.
13:00:42  966 967	 1492779642	 540295204	 161654.
13:00:42  967 968	 1492779642	 705816697	 165521.
13:00:42  968 969	 1492779642	 867478976	 161663.
13:00:43  969 970	 1492779643	 4350859	 136872.
13:00:43  970 971	 1492779643	 165894191	 161543.
13:00:43  971 972	 1492779643	 331388284	 165494.
13:00:43  972 973	 1492779643	 464454479	 133066.
13:00:43  973 974	 1492779643	 629935207	 165481.
13:00:43  974 975	 1492779643	 791256888	 161322.
13:00:43  975 976	 1492779643	 928152326	 136895.
13:00:44  976 977	 1492779644	 90202208	 162050.
13:00:44  977 978	 1492779644	 255958795	 165756.
13:00:44  978 979	 1492779644	 417756384	 161798.
13:00:44  979 980	 1492779644	 550617732	 132861.
13:00:44  980 981	 1492779644	 715946018	 165329.
13:00:44  981 982	 1492779644	 881598667	 165652.
13:00:45  982 983	 1492779645	 43246583	 161648.
13:00:45  983 984	 1492779645	 176409385	 133163.
13:00:45  984 985	 1492779645	 342569844	 166161.
13:00:45  985 986	 1492779645	 504269579	 161699.
13:00:45  986 987	 1492779645	 670157275	 165888.
13:00:45  987 988	 1492779645	 829132683	 158975.
13:00:45  988 989	 1492779645	 995095750	 165963.
13:00:46  989 990	 1492779646	 128142637	 133047.
13:00:46  990 991	 1492779646	 293777328	 165635.
13:00:46  991 992	 1492779646	 455044116	 161267.
13:00:46  992 993	 1492779646	 616490072	 161446.
13:00:46  993 994	 1492779646	 781998208	 165508.
13:00:46  994 995	 1492779646	 914769310	 132771.
13:00:47  995 996	 1492779647	 76273902	 161505.
13:00:47  996 997	 1492779647	 237381700	 161107.
13:00:47  997 998	 1492779647	 402535172	 165154.
13:00:47  998 999	 1492779647	 534778518	 132243.
13:00:47  999 1000	 1492779647	 696004880	 161227.
13:00:47 1000 1001	 1492779647	 861347902	 165343.
13:00:48 1001 1002	 1492779648	 22590160	 161242.
13:00:48 1002 1003	 1492779648	 155048192	 132458.
13:00:48 1003 1004	 1492779648	 320316841	 165269.
13:00:48 1004 1005	 1492779648	 473912549	 153595.
13:00:48 1005 1006	 1492779648	 638745898	 164834.
13:00:48 1006 1007	 1492779648	 771586892	 132841.
13:00:48 1007 1008	 1492779648	 932647185	 161060.
13:00:49 1008 1009	 1492779649	 97784958	 165138.
13:00:49 1009 1010	 1492779649	 259184305	 161399.
13:00:49 1010 1011	 1492779649	 395743867	 136560.
13:00:49 1011 1012	 1492779649	 557180133	 161436.
13:00:49 1012 1013	 1492779649	 718585384	 161405.
13:00:49 1013 1014	 1492779649	 883967403	 165382.
13:00:50 1014 1015	 1492779650	 16622441	 132655.
13:00:50 1015 1016	 1492779650	 177924465	 161302.
13:00:50 1016 1017	 1492779650	 343261610	 165337.
13:00:50 1017 1018	 1492779650	 504740268	 161479.
13:00:50 1018 1019	 1492779650	 637163477	 132423.
13:00:50 1019 1020	 1492779650	 802757554	 165594.
13:00:50 1020 1021	 1492779650	 960172476	 157415.
13:00:51 1021 1022	 1492779651	 125196236	 165024.
13:00:51 1022 1023	 1492779651	 257809350	 132613.
13:00:51 1023 1024	 1492779651	 419089827	 161281.
13:00:51 1024 1025	 1492779651	 584300752	 165210.
13:00:51 1025 1026	 1492779651	 745916133	 161616.
13:00:51 1026 1027	 1492779651	 907286632	 161370.
13:00:52 1027 1028	 1492779652	 39772554	 132486.
13:00:52 1028 1029	 1492779652	 205545269	 165773.
13:00:52 1029 1030	 1492779652	 366821702	 161276.
13:00:52 1030 1031	 1492779652	 532206617	 165385.
13:00:52 1031 1032	 1492779652	 665278306	 133072.
13:00:52 1032 1033	 1492779652	 823249627	 157971.
13:00:52 1033 1034	 1492779652	 988664577	 165415.
13:00:53 1034 1035	 1492779653	 150059402	 161395.
13:00:53 1035 1036	 1492779653	 311078520	 161019.
13:00:53 1036 1037	 1492779653	 476879606	 165801.
13:00:53 1037 1038	 1492779653	 609586010	 132707.
13:00:53 1038 1039	 1492779653	 770702225	 161116.
13:00:53 1039 1040	 1492779653	 936021734	 165319.
13:00:54 1040 1041	 1492779654	 68545227	 132524.
13:00:54 1041 1042	 1492779654	 229658102	 161113.
13:00:54 1042 1043	 1492779654	 395320779	 165662.
13:00:54 1043 1044	 1492779654	 556490607	 161170.
13:00:54 1044 1045	 1492779654	 693060228	 136570.
13:00:54 1045 1046	 1492779654	 854375511	 161315.
13:00:55 1046 1047	 1492779655	 15243181	 160868.
13:00:55 1047 1048	 1492779655	 180608899	 165366.
13:00:55 1048 1049	 1492779655	 313239847	 132631.
13:00:55 1049 1050	 1492779655	 474317858	 161078.
13:00:55 1050 1051	 1492779655	 639957853	 165640.
13:00:55 1051 1052	 1492779655	 801317043	 161359.
13:00:55 1052 1053	 1492779655	 962603247	 161286.
13:00:56 1053 1054	 1492779656	 99628919	 137026.
13:00:56 1054 1055	 1492779656	 260729947	 161101.
13:00:56 1055 1056	 1492779656	 421760905	 161031.
13:00:56 1056 1057	 1492779656	 587189749	 165428.
13:00:56 1057 1058	 1492779656	 719698158	 132509.
13:00:56 1058 1059	 1492779656	 885192446	 165494.
13:00:57 1059 1060	 1492779657	 46608674	 161416.
13:00:57 1060 1061	 1492779657	 207725223	 161117.
13:00:57 1061 1062	 1492779657	 340536753	 132811.
13:00:57 1062 1063	 1492779657	 505577326	 165041.
13:00:57 1063 1064	 1492779657	 666543947	 160967.
13:00:57 1064 1065	 1492779657	 799288600	 132744.
13:00:57 1065 1066	 1492779657	 964287121	 164999.
13:00:58 1066 1067	 1492779658	 125520793	 161233.
13:00:58 1067 1068	 1492779658	 290677339	 165157.
13:00:58 1068 1069	 1492779658	 423268132	 132591.
13:00:58 1069 1070	 1492779658	 588936824	 165669.
13:00:58 1070 1071	 1492779658	 750451132	 161514.
13:00:58 1071 1072	 1492779658	 911787402	 161336.
13:00:59 1072 1073	 1492779659	 72774980	 160988.
13:00:59 1073 1074	 1492779659	 205220560	 132445.
13:00:59 1074 1075	 1492779659	 370431031	 165211.
13:00:59 1075 1076	 1492779659	 531793474	 161362.
13:00:59 1076 1077	 1492779659	 664437387	 132644.
13:00:59 1077 1078	 1492779659	 829680847	 165244.
13:00:59 1078 1079	 1492779659	 991303950	 161623.
13:01:00 1079 1080	 1492779660	 156772186	 165468.
13:01:00 1080 1081	 1492779660	 318085309	 161313.
13:01:00 1081 1082	 1492779660	 451061159	 132976.
13:01:00 1082 1083	 1492779660	 616269294	 165208.
13:01:00 1083 1084	 1492779660	 777565523	 161296.
13:01:00 1084 1085	 1492779660	 938854345	 161289.
13:01:01 1085 1086	 1492779661	 104333369	 165479.
13:01:01 1086 1087	 1492779661	 237330734	 132997.
13:01:01 1087 1088	 1492779661	 402956375	 165626.
13:01:01 1088 1089	 1492779661	 564536923	 161581.
13:01:01 1089 1090	 1492779661	 726234767	 161697.
13:01:01 1090 1091	 1492779661	 892736087	 166502.
13:01:02 1091 1092	 1492779662	 50319135	 157583.
13:01:02 1092 1093	 1492779662	 211296517	 160977.
13:01:02 1093 1094	 1492779662	 343928260	 132632.
13:01:02 1094 1095	 1492779662	 509223821	 165295.
13:01:02 1095 1096	 1492779662	 670294813	 161072.
13:01:02 1096 1097	 1492779662	 835527591	 165232.
13:01:02 1097 1098	 1492779662	 968174451	 132647.
13:01:03 1098 1099	 1492779663	 129471630	 161297.
13:01:03 1099 1100	 1492779663	 294768002	 165297.
13:01:03 1100 1101	 1492779663	 455920600	 161152.
13:01:03 1101 1102	 1492779663	 617262738	 161342.
13:01:03 1102 1103	 1492779663	 753938927	 136677.
13:01:03 1103 1104	 1492779663	 915210582	 161271.
13:01:04 1104 1105	 1492779664	 76458526	 161248.
13:01:04 1105 1106	 1492779664	 241676409	 165218.
13:01:04 1106 1107	 1492779664	 403262289	 161586.
13:01:04 1107 1108	 1492779664	 536476899	 133215.
13:01:04 1108 1109	 1492779664	 702225734	 165748.
13:01:04 1109 1110	 1492779664	 863931543	 161706.
13:01:05 1110 1111	 1492779665	 29841599	 165910.
13:01:05 1111 1112	 1492779665	 191478093	 161637.
13:01:05 1112 1113	 1492779665	 352893627	 161415.
13:01:05 1113 1114	 1492779665	 518356090	 165463.
13:01:05 1114 1115	 1492779665	 651250473	 132894.
13:01:05 1115 1116	 1492779665	 812210647	 160960.
13:01:05 1116 1117	 1492779665	 977472953	 165263.
13:01:06 1117 1118	 1492779666	 138963627	 161490.
13:01:06 1118 1119	 1492779666	 304492276	 165529.
13:01:06 1119 1120	 1492779666	 437071673	 132579.
13:01:06 1120 1121	 1492779666	 598573156	 161502.
13:01:06 1121 1122	 1492779666	 764382097	 165809.
13:01:06 1122 1123	 1492779666	 925981049	 161599.
13:01:07 1123 1124	 1492779667	 87842190	 161861.
13:01:07 1124 1125	 1492779667	 253621054	 165779.
13:01:07 1125 1126	 1492779667	 414633554	 161012.
13:01:07 1126 1127	 1492779667	 547219741	 132586.
13:01:07 1127 1128	 1492779667	 713050661	 165831.
13:01:07 1128 1129	 1492779667	 874468938	 161419.
13:01:08 1129 1130	 1492779668	 40311453	 165842.
13:01:08 1130 1131	 1492779668	 201875900	 161565.
13:01:08 1131 1132	 1492779668	 334660143	 132784.
13:01:08 1132 1133	 1492779668	 500193020	 165533.
13:01:08 1133 1134	 1492779668	 661641705	 161448.
13:01:08 1134 1135	 1492779668	 823275297	 161634.
13:01:08 1135 1136	 1492779668	 988934153	 165659.
13:01:09 1136 1137	 1492779669	 150325996	 161392.
13:01:09 1137 1138	 1492779669	 283243769	 132917.
13:01:09 1138 1139	 1492779669	 448699188	 165456.
13:01:09 1139 1140	 1492779669	 610129498	 161430.
13:01:09 1140 1141	 1492779669	 771346827	 161218.
13:01:09 1141 1142	 1492779669	 936862483	 165515.
13:01:10 1142 1143	 1492779670	 69551878	 132690.
13:01:10 1143 1144	 1492779670	 230795630	 161243.
13:01:10 1144 1145	 1492779670	 396200104	 165405.
13:01:10 1145 1146	 1492779670	 557571744	 161371.
13:01:10 1146 1147	 1492779670	 689877616	 132306.
13:01:10 1147 1148	 1492779670	 855557726	 165680.
13:01:11 1148 1149	 1492779671	 16729040	 161172.
13:01:11 1149 1150	 1492779671	 178151001	 161422.
13:01:11 1150 1151	 1492779671	 343353060	 165202.
13:01:11 1151 1152	 1492779671	 475859692	 132506.
13:01:11 1152 1153	 1492779671	 637238043	 161379.
13:01:11 1153 1154	 1492779671	 802794864	 165557.
13:01:11 1154 1155	 1492779671	 964347415	 161552.
13:01:12 1155 1156	 1492779672	 125994258	 161647.
13:01:12 1156 1157	 1492779672	 284026252	 158032.
13:01:12 1157 1158	 1492779672	 449584144	 165558.
13:01:12 1158 1159	 1492779672	 582218905	 132635.
13:01:12 1159 1160	 1492779672	 743206620	 160987.
13:01:12 1160 1161	 1492779672	 908788027	 165582.
13:01:13 1161 1162	 1492779673	 69600696	 160812.
13:01:13 1162 1163	 1492779673	 202208141	 132608.
13:01:13 1163 1164	 1492779673	 367599809	 165392.
13:01:13 1164 1165	 1492779673	 529041311	 161441.
13:01:13 1165 1166	 1492779673	 690207212	 161166.
13:01:13 1166 1167	 1492779673	 827058046	 136851.
13:01:13 1167 1168	 1492779673	 988488613	 161430.
13:01:14 1168 1169	 1492779674	 150106120	 161618.
13:01:14 1169 1170	 1492779674	 315715357	 165609.
13:01:14 1170 1171	 1492779674	 476909409	 161194.
13:01:14 1171 1172	 1492779674	 638130856	 161222.
13:01:14 1172 1173	 1492779674	 775227505	 137096.
13:01:14 1173 1174	 1492779674	 936880466	 161653.
13:01:15 1174 1175	 1492779675	 102557903	 165678.
13:01:15 1175 1176	 1492779675	 264144430	 161586.
13:01:15 1176 1177	 1492779675	 429583276	 165439.
13:01:15 1177 1178	 1492779675	 591299959	 161717.
13:01:15 1178 1179	 1492779675	 752775970	 161476.
13:01:15 1179 1180	 1492779675	 889956706	 137180.
13:01:16 1180 1181	 1492779676	 51543914	 161588.
13:01:16 1181 1182	 1492779676	 213387083	 161843.
13:01:16 1182 1183	 1492779676	 378925910	 165539.
13:01:16 1183 1184	 1492779676	 540824230	 161898.
13:01:16 1184 1185	 1492779676	 702706410	 161882.
13:01:16 1185 1186	 1492779676	 868651516	 165945.
13:01:17 1186 1187	 1492779677	 30834014	 162183.
13:01:17 1187 1188	 1492779677	 193022439	 162188.
13:01:17 1188 1189	 1492779677	 329914231	 136892.
13:01:17 1189 1190	 1492779677	 491365350	 161451.
13:01:17 1190 1191	 1492779677	 656703536	 165338.
13:01:17 1191 1192	 1492779677	 818619496	 161916.
13:01:17 1192 1193	 1492779677	 951879934	 133261.
13:01:18 1193 1194	 1492779678	 118249515	 166369.
13:01:18 1194 1195	 1492779678	 280080456	 161831.
13:01:18 1195 1196	 1492779678	 441804182	 161724.
13:01:18 1196 1197	 1492779678	 607855196	 166051.
13:01:18 1197 1198	 1492779678	 773466563	 165611.
13:01:18 1198 1199	 1492779678	 935546070	 162080.
13:01:19 1199 1200	 1492779679	 68601707	 133055.
13:01:19 1200 1201	 1492779679	 234549493	 165948.
13:01:19 1201 1202	 1492779679	 396666309	 162117.
13:01:19 1202 1203	 1492779679	 561740321	 165074.
13:01:19 1203 1204	 1492779679	 694466619	 132726.
13:01:19 1204 1205	 1492779679	 856123989	 161658.
13:01:20 1205 1206	 1492779680	 21535026	 165411.
13:01:20 1206 1207	 1492779680	 182809834	 161275.
13:01:20 1207 1208	 1492779680	 315821122	 133011.
13:01:20 1208 1209	 1492779680	 481592601	 165771.
13:01:20 1209 1210	 1492779680	 643432818	 161841.
13:01:20 1210 1211	 1492779680	 809473534	 166040.
13:01:20 1211 1212	 1492779680	 971001779	 161528.
13:01:21 1212 1213	 1492779681	 136740485	 165739.
13:01:21 1213 1214	 1492779681	 269580008	 132840.
13:01:21 1214 1215	 1492779681	 434717063	 165137.
13:01:21 1215 1216	 1492779681	 595972681	 161255.
13:01:21 1216 1217	 1492779681	 728561116	 132589.
13:01:21 1217 1218	 1492779681	 894241574	 165680.
13:01:22 1218 1219	 1492779682	 56039137	 161798.
13:01:22 1219 1220	 1492779682	 221782315	 165743.
13:01:22 1220 1221	 1492779682	 383419032	 161637.
13:01:22 1221 1222	 1492779682	 516750083	 133331.
13:01:22 1222 1223	 1492779682	 682461838	 165712.
13:01:22 1223 1224	 1492779682	 843910905	 161449.
13:01:23 1224 1225	 1492779683	 9878432	 165967.
13:01:23 1225 1226	 1492779683	 143023863	 133146.
13:01:23 1226 1227	 1492779683	 309297847	 166274.
13:01:23 1227 1228	 1492779683	 471108062	 161810.
13:01:23 1228 1229	 1492779683	 632656229	 161548.
13:01:23 1229 1230	 1492779683	 798331606	 165675.
13:01:23 1230 1231	 1492779683	 960201466	 161870.
13:01:24 1231 1232	 1492779684	 93094786	 132893.
13:01:24 1232 1233	 1492779684	 258654706	 165560.
13:01:24 1233 1234	 1492779684	 420155558	 161501.
13:01:24 1234 1235	 1492779684	 585709048	 165554.
13:01:24 1235 1236	 1492779684	 747125544	 161416.
13:01:24 1236 1237	 1492779684	 908812845	 161688.
13:01:25 1237 1238	 1492779685	 45985403	 137172.
13:01:25 1238 1239	 1492779685	 208256703	 162271.
13:01:25 1239 1240	 1492779685	 365641772	 157385.
13:01:25 1240 1241	 1492779685	 527023318	 161382.
13:01:25 1241 1242	 1492779685	 692244908	 165222.
13:01:25 1242 1243	 1492779685	 853636792	 161391.
13:01:25 1243 1244	 1492779685	 990468245	 136832.
13:01:26 1244 1245	 1492779686	 151753436	 161285.
13:01:26 1245 1246	 1492779686	 313023840	 161271.
13:01:26 1246 1247	 1492779686	 478864114	 165840.
13:01:26 1247 1248	 1492779686	 640453473	 161589.
13:01:26 1248 1249	 1492779686	 773093733	 132640.
13:01:26 1249 1250	 1492779686	 938625114	 165532.
13:01:27 1250 1251	 1492779687	 99762439	 161137.
13:01:27 1251 1252	 1492779687	 261490943	 161729.
13:01:27 1252 1253	 1492779687	 398535995	 137045.
13:01:27 1253 1254	 1492779687	 559968130	 161432.
13:01:27 1254 1255	 1492779687	 721458545	 161490.
13:01:27 1255 1256	 1492779687	 886832610	 165374.
13:01:28 1256 1257	 1492779688	 47955205	 161123.
13:01:28 1257 1258	 1492779688	 180861548	 132906.
13:01:28 1258 1259	 1492779688	 345982796	 165121.
13:01:28 1259 1260	 1492779688	 507267382	 161285.
13:01:28 1260 1261	 1492779688	 672590504	 165323.
13:01:28 1261 1262	 1492779688	 834394587	 161804.
13:01:28 1262 1263	 1492779688	 971214851	 136821.
13:01:29 1263 1264	 1492779689	 132308976	 161094.
13:01:29 1264 1265	 1492779689	 293583344	 161274.
13:01:29 1265 1266	 1492779689	 430278233	 136695.
13:01:29 1266 1267	 1492779689	 592101035	 161823.
13:01:29 1267 1268	 1492779689	 750436192	 158335.
13:01:29 1268 1269	 1492779689	 915888754	 165452.
13:01:30 1269 1270	 1492779690	 77489211	 161601.
13:01:30 1270 1271	 1492779690	 239550186	 162061.
13:01:30 1271 1272	 1492779690	 400696772	 161146.
13:01:30 1272 1273	 1492779690	 537990429	 137294.
13:01:30 1273 1274	 1492779690	 699849638	 161859.
13:01:30 1274 1275	 1492779690	 865249175	 165400.
13:01:31 1275 1276	 1492779691	 26626826	 161378.
13:01:31 1276 1277	 1492779691	 188133029	 161506.
13:01:31 1277 1278	 1492779691	 321170912	 133038.
13:01:31 1278 1279	 1492779691	 482350156	 161179.
13:01:31 1279 1280	 1492779691	 648078853	 165729.
13:01:31 1280 1281	 1492779691	 809370197	 161291.
13:01:31 1281 1282	 1492779691	 974931447	 165561.
13:01:32 1282 1283	 1492779692	 136300123	 161369.
13:01:32 1283 1284	 1492779692	 273049080	 136749.
13:01:32 1284 1285	 1492779692	 434318205	 161269.
13:01:32 1285 1286	 1492779692	 595464566	 161146.
13:01:32 1286 1287	 1492779692	 760837120	 165373.
13:01:32 1287 1288	 1492779692	 893646476	 132809.
13:01:33 1288 1289	 1492779693	 58904470	 165258.
13:01:33 1289 1290	 1492779693	 216458271	 157554.
13:01:33 1290 1291	 1492779693	 381665859	 165208.
13:01:33 1291 1292	 1492779693	 543146182	 161480.
13:01:33 1292 1293	 1492779693	 675656988	 132511.
13:01:33 1293 1294	 1492779693	 841027605	 165370.
13:01:33 1294 1295	 1492779694	 2140403	 161113.
13:01:34 1295 1296	 1492779694	 163702937	 161563.
13:01:34 1296 1297	 1492779694	 329195808	 165493.
13:01:34 1297 1298	 1492779694	 461926227	 132730.
13:01:34 1298 1299	 1492779694	 623570838	 161645.
13:01:34 1299 1300	 1492779694	 789006336	 165435.
13:01:34 1300 1301	 1492779694	 950074079	 161068.
13:01:35 1301 1302	 1492779695	 114987047	 164913.
13:01:35 1302 1303	 1492779695	 248011581	 133024.
13:01:35 1303 1304	 1492779695	 413266720	 165255.
13:01:35 1304 1305	 1492779695	 574392811	 161127.
13:01:35 1305 1306	 1492779695	 735539303	 161146.
13:01:35 1306 1307	 1492779695	 901828076	 166289.
13:01:36 1307 1308	 1492779696	 35105318	 133277.
13:01:36 1308 1309	 1492779696	 196448884	 161344.
13:01:36 1309 1310	 1492779696	 354497062	 158048.
13:01:36 1310 1311	 1492779696	 520798744	 166301.
13:01:36 1311 1312	 1492779696	 682354710	 161556.
13:01:36 1312 1313	 1492779696	 819394228	 137040.
13:01:36 1313 1314	 1492779696	 980963334	 161569.
13:01:37 1314 1315	 1492779697	 142617899	 161655.
13:01:37 1315 1316	 1492779697	 308350065	 165732.
13:01:37 1316 1317	 1492779697	 469714018	 161364.
13:01:37 1317 1318	 1492779697	 606845840	 137132.
13:01:37 1318 1319	 1492779697	 768526150	 161680.
13:01:37 1319 1320	 1492779697	 934276506	 165750.
13:01:38 1320 1321	 1492779698	 96140126	 161864.
13:01:38 1321 1322	 1492779698	 262026150	 165886.
13:01:38 1322 1323	 1492779698	 394669373	 132643.
13:01:38 1323 1324	 1492779698	 553028041	 158359.
13:01:38 1324 1325	 1492779698	 718861500	 165833.
13:01:38 1325 1326	 1492779698	 881023850	 162163.
13:01:39 1326 1327	 1492779699	 42842252	 161818.
13:01:39 1327 1328	 1492779699	 176143972	 133302.
13:01:39 1328 1329	 1492779699	 341985957	 165842.
13:01:39 1329 1330	 1492779699	 503499393	 161513.
13:01:39 1330 1331	 1492779699	 669358173	 165859.
13:01:39 1331 1332	 1492779699	 802437818	 133080.
13:01:39 1332 1333	 1492779699	 968281950	 165844.
13:01:40 1333 1334	 1492779700	 129939888	 161658.
13:01:40 1334 1335	 1492779700	 295904894	 165965.
13:01:40 1335 1336	 1492779700	 458034428	 162129.
13:01:40 1336 1337	 1492779700	 591030181	 132996.
13:01:40 1337 1338	 1492779700	 756569420	 165539.
13:01:40 1338 1339	 1492779700	 918009777	 161440.
13:01:41 1339 1340	 1492779701	 83594272	 165585.
13:01:41 1340 1341	 1492779701	 217237568	 133643.
13:01:41 1341 1342	 1492779701	 378701139	 161464.
13:01:41 1342 1343	 1492779701	 544496951	 165796.
13:01:41 1343 1344	 1492779701	 706199611	 161702.
13:01:41 1344 1345	 1492779701	 843142264	 136943.
13:01:41 1345 1346	 1492779702	 4853777	 161711.
13:01:42 1346 1347	 1492779702	 166733123	 161880.
13:01:42 1347 1348	 1492779702	 332726640	 165993.
13:01:42 1348 1349	 1492779702	 494615504	 161889.
13:01:42 1349 1350	 1492779702	 631558813	 136944.
13:01:42 1350 1351	 1492779702	 793601028	 162042.
13:01:42 1351 1352	 1492779702	 959914785	 166313.
13:01:43 1352 1353	 1492779703	 121863387	 161949.
13:01:43 1353 1354	 1492779703	 284277023	 162414.
13:01:43 1354 1355	 1492779703	 421536668	 137259.
13:01:43 1355 1356	 1492779703	 583693149	 162157.
13:01:43 1356 1357	 1492779703	 750449473	 166756.
13:01:43 1357 1358	 1492779703	 912466794	 162017.
13:01:44 1358 1359	 1492779704	 77872698	 165406.
13:01:44 1359 1360	 1492779704	 239455505	 161583.
13:01:44 1360 1361	 1492779704	 405173635	 165718.
13:01:44 1361 1362	 1492779704	 538382900	 133210.
13:01:44 1362 1363	 1492779704	 700016180	 161633.
13:01:44 1363 1364	 1492779704	 865557296	 165541.
13:01:45 1364 1365	 1492779705	 27446104	 161889.
13:01:45 1365 1366	 1492779705	 193033815	 165588.
13:01:45 1366 1367	 1492779705	 326150147	 133116.
13:01:45 1367 1368	 1492779705	 491935778	 165785.
13:01:45 1368 1369	 1492779705	 653841525	 161906.
13:01:45 1369 1370	 1492779705	 819518296	 165677.
13:01:45 1370 1371	 1492779705	 981797014	 162279.
13:01:46 1371 1372	 1492779706	 148025728	 166228.
13:01:46 1372 1373	 1492779706	 309984263	 161959.
13:01:46 1373 1374	 1492779706	 443152511	 133168.
13:01:46 1374 1375	 1492779706	 608925210	 165773.
13:01:46 1375 1376	 1492779706	 770785662	 161860.
13:01:46 1376 1377	 1492779706	 936347601	 165562.
13:01:47 1377 1378	 1492779707	 98317158	 161970.
13:01:47 1378 1379	 1492779707	 264301424	 165984.
13:01:47 1379 1380	 1492779707	 397614371	 133313.
13:01:47 1380 1381	 1492779707	 559264700	 161650.
13:01:47 1381 1382	 1492779707	 724648241	 165384.
13:01:47 1382 1383	 1492779707	 886481454	 161833.
13:01:48 1383 1384	 1492779708	 52878846	 166398.
13:01:48 1384 1385	 1492779708	 186185418	 133306.
13:01:48 1385 1386	 1492779708	 352513600	 166328.
13:01:48 1386 1387	 1492779708	 514294583	 161781.
13:01:48 1387 1388	 1492779708	 676095727	 161801.
13:01:48 1388 1389	 1492779708	 841510548	 165415.
13:01:48 1389 1390	 1492779708	 974831199	 133321.
13:01:49 1390 1391	 1492779709	 140634986	 165804.
13:01:49 1391 1392	 1492779709	 302124808	 161490.
13:01:49 1392 1393	 1492779709	 467593277	 165468.
13:01:49 1393 1394	 1492779709	 629321306	 161728.
13:01:49 1394 1395	 1492779709	 766614947	 137294.
13:01:49 1395 1396	 1492779709	 928599870	 161985.
13:01:50 1396 1397	 1492779710	 90167890	 161568.
13:01:50 1397 1398	 1492779710	 256006751	 165838.
13:01:50 1398 1399	 1492779710	 389156629	 133150.
13:01:50 1399 1400	 1492779710	 550440816	 161284.
13:01:50 1400 1401	 1492779710	 716053845	 165614.
13:01:50 1401 1402	 1492779710	 877383869	 161330.
13:01:51 1402 1403	 1492779711	 14639222	 137255.
13:01:51 1403 1404	 1492779711	 176414184	 161775.
13:01:51 1404 1405	 1492779711	 342177334	 165763.
13:01:51 1405 1406	 1492779711	 503432830	 161256.
13:01:51 1406 1407	 1492779711	 640187577	 136754.
13:01:51 1407 1408	 1492779711	 801478964	 161292.
13:01:51 1408 1409	 1492779711	 962728596	 161250.
13:01:52 1409 1410	 1492779712	 128626989	 165898.
13:01:52 1410 1411	 1492779712	 294951177	 166324.
13:01:52 1411 1412	 1492779712	 428010395	 133059.
13:01:52 1412 1413	 1492779712	 593988878	 165979.
13:01:52 1413 1414	 1492779712	 755401835	 161412.
13:01:52 1414 1415	 1492779712	 921436455	 166035.
13:01:53 1415 1416	 1492779713	 84386414	 162950.
13:01:53 1416 1417	 1492779713	 242087814	 157702.
13:01:53 1417 1418	 1492779713	 379425972	 137338.
13:01:53 1418 1419	 1492779713	 541217463	 161791.
13:01:53 1419 1420	 1492779713	 707257170	 166040.
13:01:53 1420 1421	 1492779713	 868656151	 161399.
13:01:54 1421 1422	 1492779714	 5893022	 137237.
13:01:54 1422 1423	 1492779714	 167630228	 161737.
13:01:54 1423 1424	 1492779714	 333604068	 165974.
13:01:54 1424 1425	 1492779714	 495856751	 162253.
13:01:54 1425 1426	 1492779714	 662134921	 166278.
13:01:54 1426 1427	 1492779714	 794738924	 132604.
13:01:54 1427 1428	 1492779714	 956337621	 161598.
13:01:55 1428 1429	 1492779715	 121758230	 165421.
13:01:55 1429 1430	 1492779715	 254517794	 132760.
13:01:55 1430 1431	 1492779715	 420144930	 165638.
13:01:55 1431 1432	 1492779715	 581872816	 161716.
13:01:55 1432 1433	 1492779715	 743668468	 161796.
13:01:55 1433 1434	 1492779715	 880428963	 136761.
13:01:56 1434 1435	 1492779716	 42198285	 161769.
13:01:56 1435 1436	 1492779716	 208186130	 165988.
13:01:56 1436 1437	 1492779716	 369592510	 161406.
13:01:56 1437 1438	 1492779716	 506848981	 137257.
13:01:56 1438 1439	 1492779716	 668118089	 161269.
13:01:56 1439 1440	 1492779716	 833606596	 165488.
13:01:56 1440 1441	 1492779716	 966316970	 132711.
13:01:57 1441 1442	 1492779717	 132122546	 165805.
13:01:57 1442 1443	 1492779717	 294267190	 162145.
13:01:57 1443 1444	 1492779717	 460156898	 165890.
13:01:57 1444 1445	 1492779717	 622029932	 161873.
13:01:57 1445 1446	 1492779717	 758984247	 136954.
13:01:57 1446 1447	 1492779717	 920438093	 161454.
13:01:58 1447 1448	 1492779718	 82298298	 161860.
13:01:58 1448 1449	 1492779718	 248309383	 166011.
13:01:58 1449 1450	 1492779718	 409577252	 161268.
13:01:58 1450 1451	 1492779718	 546436899	 136860.
13:01:58 1451 1452	 1492779718	 707847232	 161410.
13:01:58 1452 1453	 1492779718	 873951281	 166104.
13:01:59 1453 1454	 1492779719	 7124399	 133173.
13:01:59 1454 1455	 1492779719	 172851585	 165727.
13:01:59 1455 1456	 1492779719	 334663695	 161812.
13:01:59 1456 1457	 1492779719	 496055601	 161392.
13:01:59 1457 1458	 1492779719	 633245893	 137191.
13:01:59 1458 1459	 1492779719	 795246846	 162001.
13:01:59 1459 1460	 1492779719	 961116103	 165869.
13:02:00 1460 1461	 1492779720	 123135254	 162019.
13:02:00 1461 1462	 1492779720	 289263799	 166129.
13:02:00 1462 1463	 1492779720	 422519265	 133255.
13:02:00 1463 1464	 1492779720	 588649537	 166130.
13:02:00 1464 1465	 1492779720	 750371530	 161722.
13:02:00 1465 1466	 1492779720	 911837009	 161466.
13:02:01 1466 1467	 1492779721	 77423940	 165587.
13:02:01 1467 1468	 1492779721	 239073401	 161649.
13:02:01 1468 1469	 1492779721	 400580422	 161507.
13:02:01 1469 1470	 1492779721	 537637442	 137057.
13:02:01 1470 1471	 1492779721	 699159095	 161522.
13:02:01 1471 1472	 1492779721	 864969347	 165810.
13:02:02 1472 1473	 1492779722	 26419947	 161451.
13:02:02 1473 1474	 1492779722	 188132768	 161712.
13:02:02 1474 1475	 1492779722	 353459204	 165327.
13:02:02 1475 1476	 1492779722	 486293653	 132834.
13:02:02 1476 1477	 1492779722	 647862766	 161569.
13:02:02 1477 1478	 1492779722	 813575478	 165713.
13:02:02 1478 1479	 1492779722	 974875126	 161300.
13:02:03 1479 1480	 1492779723	 136240508	 161365.
13:02:03 1480 1481	 1492779723	 273348652	 137108.
13:02:03 1481 1482	 1492779723	 434800132	 161452.
13:02:03 1482 1483	 1492779723	 596102701	 161302.
13:02:03 1483 1484	 1492779723	 761406608	 165304.
13:02:03 1484 1485	 1492779723	 922677919	 161272.
13:02:04 1485 1486	 1492779724	 55439507	 132761.
13:02:04 1486 1487	 1492779724	 217456576	 162017.
13:02:04 1487 1488	 1492779724	 378857990	 161402.
13:02:04 1488 1489	 1492779724	 540272284	 161414.
13:02:04 1489 1490	 1492779724	 705706176	 165434.
13:02:04 1490 1491	 1492779724	 867371155	 161665.
13:02:04 1491 1492	 1492779725	 269389	 132898.
13:02:05 1492 1493	 1492779725	 165275006	 165006.
13:02:05 1493 1494	 1492779725	 326708196	 161433.
13:02:05 1494 1495	 1492779725	 487906187	 161198.
13:02:05 1495 1496	 1492779725	 624742407	 136836.
13:02:05 1496 1497	 1492779725	 785963056	 161221.
13:02:05 1497 1498	 1492779725	 947173799	 161211.
13:02:06 1498 1499	 1492779726	 112860753	 165686.
13:02:06 1499 1500	 1492779726	 274267444	 161407.
13:02:06 1500 1501	 1492779726	 406850336	 132583.
13:02:06 1501 1502	 1492779726	 572418298	 165568.
13:02:06 1502 1503	 1492779726	 733764578	 161346.
13:02:06 1503 1504	 1492779726	 895420655	 161656.
13:02:07 1504 1505	 1492779727	 32417959	 136998.
13:02:07 1505 1506	 1492779727	 194262238	 161844.
13:02:07 1506 1507	 1492779727	 359565164	 165303.
13:02:07 1507 1508	 1492779727	 520689505	 161124.
13:02:07 1508 1509	 1492779727	 653154827	 132466.
13:02:07 1509 1510	 1492779727	 818899935	 165745.
13:02:07 1510 1511	 1492779727	 980735973	 161836.
13:02:08 1511 1512	 1492779728	 146613709	 165877.
13:02:08 1512 1513	 1492779728	 308413390	 161800.
13:02:08 1513 1514	 1492779728	 445570125	 137157.
13:02:08 1514 1515	 1492779728	 607424310	 161854.
13:02:08 1515 1516	 1492779728	 773392032	 165968.
13:02:08 1516 1517	 1492779728	 935197890	 161806.
13:02:09 1517 1518	 1492779729	 101219558	 166021.
13:02:09 1518 1519	 1492779729	 234479918	 133261.
13:02:09 1519 1520	 1492779729	 400497758	 166017.
13:02:09 1520 1521	 1492779729	 562472324	 161975.
13:02:09 1521 1522	 1492779729	 728220224	 165748.
13:02:09 1522 1523	 1492779729	 861032307	 132812.
13:02:10 1523 1524	 1492779730	 27225089	 166193.
13:02:10 1524 1525	 1492779730	 189259530	 162034.
13:02:10 1525 1526	 1492779730	 355304673	 166045.
13:02:10 1526 1527	 1492779730	 517621451	 162317.
13:02:10 1527 1528	 1492779730	 679864816	 162244.
13:02:10 1528 1529	 1492779730	 846070061	 166205.
13:02:11 1529 1530	 1492779731	 8180883	 162111.
13:02:11 1530 1531	 1492779731	 174364779	 166184.
13:02:11 1531 1532	 1492779731	 308066848	 133702.
13:02:11 1532 1533	 1492779731	 474290237	 166223.
13:02:11 1533 1534	 1492779731	 636677961	 162388.
13:02:11 1534 1535	 1492779731	 798902050	 162224.
13:02:11 1535 1536	 1492779731	 965422407	 166520.
13:02:12 1536 1537	 1492779732	 131789101	 166367.
13:02:12 1537 1538	 1492779732	 294115127	 162326.
13:02:12 1538 1539	 1492779732	 456480462	 162365.
13:02:12 1539 1540	 1492779732	 622053608	 165573.
13:02:12 1540 1541	 1492779732	 754688707	 132635.
13:02:12 1541 1542	 1492779732	 916385406	 161697.
13:02:13 1542 1543	 1492779733	 81788802	 165404.
13:02:13 1543 1544	 1492779733	 243200388	 161411.
13:02:13 1544 1545	 1492779733	 404801357	 161601.
13:02:13 1545 1546	 1492779733	 570454102	 165653.
13:02:13 1546 1547	 1492779733	 703318372	 132864.
13:02:13 1547 1548	 1492779733	 868908353	 165590.
13:02:14 1548 1549	 1492779734	 30595996	 161688.
13:02:14 1549 1550	 1492779734	 192186462	 161590.
13:02:14 1550 1551	 1492779734	 353806539	 161620.
13:02:14 1551 1552	 1492779734	 519397864	 165592.
13:02:14 1552 1553	 1492779734	 681012427	 161614.
13:02:14 1553 1554	 1492779734	 846820906	 165809.
13:02:15 1554 1555	 1492779735	 8421847	 161601.
13:02:15 1555 1556	 1492779735	 141347248	 132925.
13:02:15 1556 1557	 1492779735	 307181575	 165834.
13:02:15 1557 1558	 1492779735	 468892714	 161711.
13:02:15 1558 1559	 1492779735	 630471183	 161579.
13:02:15 1559 1560	 1492779735	 796080106	 165609.
13:02:15 1560 1561	 1492779735	 957725292	 161645.
13:02:16 1561 1562	 1492779736	 119861517	 162136.
13:02:16 1562 1563	 1492779736	 256721028	 136860.
13:02:16 1563 1564	 1492779736	 418542742	 161821.
13:02:16 1564 1565	 1492779736	 584561069	 166019.
13:02:16 1565 1566	 1492779736	 746682977	 162122.
13:02:16 1566 1567	 1492779736	 913029424	 166346.
13:02:17 1567 1568	 1492779737	 75425473	 162396.
13:02:17 1568 1569	 1492779737	 241913468	 166488.
13:02:17 1569 1570	 1492779737	 403880747	 161967.
13:02:17 1570 1571	 1492779737	 569692251	 165812.
13:02:17 1571 1572	 1492779737	 702738144	 133046.
13:02:17 1572 1573	 1492779737	 864604644	 161866.
13:02:18 1573 1574	 1492779738	 30907515	 166303.
13:02:18 1574 1575	 1492779738	 192937450	 162030.
13:02:18 1575 1576	 1492779738	 358996663	 166059.
13:02:18 1576 1577	 1492779738	 521185357	 162189.
13:02:18 1577 1578	 1492779738	 654552214	 133367.
13:02:18 1578 1579	 1492779738	 820493373	 165941.
13:02:18 1579 1580	 1492779738	 982768209	 162275.
13:02:19 1580 1581	 1492779739	 149140724	 166372.
13:02:19 1581 1582	 1492779739	 314856835	 165717.
13:02:19 1582 1583	 1492779739	 476840647	 161983.
13:02:19 1583 1584	 1492779739	 610018208	 133178.
13:02:19 1584 1585	 1492779739	 775681094	 165663.
13:02:19 1585 1586	 1492779739	 937435148	 161754.
13:02:20 1586 1587	 1492779740	 103383145	 165948.
13:02:20 1587 1588	 1492779740	 265235047	 161852.
13:02:20 1588 1589	 1492779740	 402125473	 136890.
13:02:20 1589 1590	 1492779740	 563626920	 161502.
13:02:20 1590 1591	 1492779740	 729314498	 165687.
13:02:20 1591 1592	 1492779740	 890648842	 161335.
13:02:21 1592 1593	 1492779741	 57069130	 166420.
13:02:21 1593 1594	 1492779741	 190073859	 133005.
13:02:21 1594 1595	 1492779741	 351482434	 161408.
13:02:21 1595 1596	 1492779741	 517273661	 165791.
13:02:21 1596 1597	 1492779741	 678742567	 161469.
13:02:21 1597 1598	 1492779741	 815672296	 136930.
13:02:21 1598 1599	 1492779741	 977087612	 161415.
13:02:22 1599 1600	 1492779742	 139370051	 162283.
13:02:22 1600 1601	 1492779742	 301115359	 161745.
13:02:22 1601 1602	 1492779742	 466653212	 165538.
13:02:22 1602 1603	 1492779742	 599475995	 132823.
13:02:22 1603 1604	 1492779742	 761094894	 161619.
13:02:22 1604 1605	 1492779742	 927067568	 165972.
13:02:23 1605 1606	 1492779743	 93032698	 165965.
13:02:23 1606 1607	 1492779743	 254682734	 161650.
13:02:23 1607 1608	 1492779743	 387747887	 133066.
13:02:23 1608 1609	 1492779743	 553626092	 165878.
13:02:23 1609 1610	 1492779743	 715234835	 161609.
13:02:23 1610 1611	 1492779743	 881663662	 166429.
13:02:24 1611 1612	 1492779744	 43446949	 161783.
13:02:24 1612 1613	 1492779744	 205483209	 162036.
13:02:24 1613 1614	 1492779744	 371232356	 165749.
13:02:24 1614 1615	 1492779744	 504175548	 132943.
13:02:24 1615 1616	 1492779744	 670258712	 166083.
13:02:24 1616 1617	 1492779744	 831489923	 161232.
13:02:24 1617 1618	 1492779744	 997147981	 165658.
13:02:25 1618 1619	 1492779745	 129685376	 132537.
13:02:25 1619 1620	 1492779745	 291115076	 161430.
13:02:25 1620 1621	 1492779745	 456961013	 165846.
13:02:25 1621 1622	 1492779745	 618447673	 161486.
13:02:25 1622 1623	 1492779745	 755416423	 136969.
13:02:25 1623 1624	 1492779745	 916818304	 161402.
13:02:26 1624 1625	 1492779746	 78262548	 161444.
13:02:26 1625 1626	 1492779746	 244533354	 166271.
13:02:26 1626 1627	 1492779746	 377282893	 132750.
13:02:26 1627 1628	 1492779746	 543044118	 165761.
13:02:26 1628 1629	 1492779746	 704521171	 161477.
13:02:26 1629 1630	 1492779746	 866505997	 161985.
13:02:27 1630 1631	 1492779747	 28026952	 161521.
13:02:27 1631 1632	 1492779747	 161350158	 133323.
13:02:27 1632 1633	 1492779747	 323111766	 161761.
13:02:27 1633 1634	 1492779747	 488525951	 165415.
13:02:27 1634 1635	 1492779747	 650103883	 161578.
13:02:27 1635 1636	 1492779747	 783207389	 133103.
13:02:27 1636 1637	 1492779747	 948371044	 165164.
13:02:28 1637 1638	 1492779748	 109629406	 161258.
13:02:28 1638 1639	 1492779748	 246678939	 137050.
13:02:28 1639 1640	 1492779748	 408447020	 161768.
13:02:28 1640 1641	 1492779748	 569896612	 161449.
13:02:28 1641 1642	 1492779748	 735957472	 166061.
13:02:28 1642 1643	 1492779748	 897897118	 161940.
13:02:29 1643 1644	 1492779749	 35529902	 137633.
13:02:29 1644 1645	 1492779749	 197481321	 161951.
13:02:29 1645 1646	 1492779749	 363195372	 165714.
13:02:29 1646 1647	 1492779749	 524670547	 161475.
13:02:29 1647 1648	 1492779749	 657436657	 132766.
13:02:29 1648 1649	 1492779749	 823532519	 166096.
13:02:29 1649 1650	 1492779749	 985260568	 161728.
13:02:30 1650 1651	 1492779750	 151184674	 165924.
13:02:30 1651 1652	 1492779750	 312985795	 161801.
13:02:30 1652 1653	 1492779750	 446019051	 133034.
13:02:30 1653 1654	 1492779750	 611387393	 165368.
13:02:30 1654 1655	 1492779750	 773133869	 161747.
13:02:30 1655 1656	 1492779750	 939154957	 166021.
13:02:31 1656 1657	 1492779751	 72010669	 132855.
13:02:31 1657 1658	 1492779751	 233796065	 161786.
13:02:31 1658 1659	 1492779751	 399682599	 165886.
13:02:31 1659 1660	 1492779751	 561266088	 161584.
13:02:31 1660 1661	 1492779751	 723162575	 161896.
13:02:31 1661 1662	 1492779751	 860290021	 137128.
13:02:32 1662 1663	 1492779752	 22074707	 161784.
13:02:32 1663 1664	 1492779752	 184783164	 162709.
13:02:32 1664 1665	 1492779752	 346704396	 161921.
13:02:32 1665 1666	 1492779752	 513014813	 166311.
13:02:32 1666 1667	 1492779752	 675006847	 161992.
13:02:32 1667 1668	 1492779752	 837144776	 162137.
13:02:32 1668 1669	 1492779752	 974556843	 137412.
13:02:33 1669 1670	 1492779753	 136561500	 162005.
13:02:33 1670 1671	 1492779753	 302775368	 166214.
13:02:33 1671 1672	 1492779753	 464661015	 161886.
13:02:33 1672 1673	 1492779753	 630394449	 165733.
13:02:33 1673 1674	 1492779753	 762897865	 132504.
13:02:33 1674 1675	 1492779753	 928527099	 165629.
13:02:34 1675 1676	 1492779754	 89840485	 161313.
13:02:34 1676 1677	 1492779754	 226471047	 136631.
13:02:34 1677 1678	 1492779754	 387902441	 161431.
13:02:34 1678 1679	 1492779754	 553682120	 165780.
13:02:34 1679 1680	 1492779754	 686367654	 132685.
13:02:34 1680 1681	 1492779754	 852230725	 165863.
13:02:35 1681 1682	 1492779755	 13803821	 161574.
13:02:35 1682 1683	 1492779755	 175723377	 161919.
13:02:35 1683 1684	 1492779755	 312572680	 136849.
13:02:35 1684 1685	 1492779755	 474192185	 161620.
13:02:35 1685 1686	 1492779755	 639814629	 165622.
13:02:35 1686 1687	 1492779755	 772243698	 132429.
13:02:35 1687 1688	 1492779755	 937601222	 165358.
13:02:36 1688 1689	 1492779756	 99143565	 161542.
13:02:36 1689 1690	 1492779756	 236406431	 137263.
13:02:36 1690 1691	 1492779756	 397689850	 161284.
13:02:36 1691 1692	 1492779756	 563207303	 165517.
13:02:36 1692 1693	 1492779756	 724500990	 161294.
13:02:36 1693 1694	 1492779756	 857542831	 133042.
13:02:37 1694 1695	 1492779757	 23366996	 165824.
13:02:37 1695 1696	 1492779757	 185043257	 161676.
13:02:37 1696 1697	 1492779757	 350371621	 165328.
13:02:37 1697 1698	 1492779757	 482902481	 132531.
13:02:37 1698 1699	 1492779757	 644251629	 161349.
13:02:37 1699 1700	 1492779757	 809775586	 165524.
13:02:37 1700 1701	 1492779757	 975026020	 165251.
13:02:38 1701 1702	 1492779758	 108333056	 133307.
13:02:38 1702 1703	 1492779758	 270312480	 161979.
13:02:38 1703 1704	 1492779758	 435898032	 165586.
13:02:38 1704 1705	 1492779758	 601794365	 165896.
13:02:38 1705 1706	 1492779758	 763601605	 161807.
13:02:38 1706 1707	 1492779758	 901123423	 137522.
13:02:39 1707 1708	 1492779759	 63313974	 162191.
13:02:39 1708 1709	 1492779759	 225047958	 161734.
13:02:39 1709 1710	 1492779759	 390954968	 165907.
13:02:39 1710 1711	 1492779759	 552661936	 161707.
13:02:39 1711 1712	 1492779759	 689917793	 137255.
13:02:39 1712 1713	 1492779759	 851316148	 161399.
13:02:40 1713 1714	 1492779760	 17235301	 165919.
13:02:40 1714 1715	 1492779760	 178819113	 161584.
13:02:40 1715 1716	 1492779760	 315927435	 137108.
13:02:40 1716 1717	 1492779760	 477771287	 161844.
13:02:40 1717 1718	 1492779760	 643108402	 165337.
13:02:40 1718 1719	 1492779760	 804393626	 161285.
13:02:40 1719 1720	 1492779760	 965486116	 161093.
13:02:41 1720 1721	 1492779761	 102390646	 136904.
13:02:41 1721 1722	 1492779761	 263775569	 161385.
13:02:41 1722 1723	 1492779761	 425041980	 161267.
13:02:41 1723 1724	 1492779761	 590711684	 165669.
13:02:41 1724 1725	 1492779761	 751876854	 161166.
13:02:41 1725 1726	 1492779761	 884707321	 132830.
13:02:42 1726 1727	 1492779762	 49878022	 165171.
13:02:42 1727 1728	 1492779762	 211260998	 161383.
13:02:42 1728 1729	 1492779762	 372869779	 161608.
13:02:42 1729 1730	 1492779762	 538610799	 165741.
13:02:42 1730 1731	 1492779762	 671246079	 132636.
13:02:42 1731 1732	 1492779762	 837020809	 165774.
13:02:42 1732 1733	 1492779762	 998176331	 161156.
13:02:43 1733 1734	 1492779763	 135883580	 137707.
13:02:43 1734 1735	 1492779763	 293300320	 157417.
13:02:43 1735 1736	 1492779763	 454552795	 161253.
13:02:43 1736 1737	 1492779763	 620186425	 165633.
13:02:43 1737 1738	 1492779763	 753044439	 132858.
13:02:43 1738 1739	 1492779763	 918607408	 165563.
13:02:44 1739 1740	 1492779764	 80221450	 161614.
13:02:44 1740 1741	 1492779764	 213189892	 132969.
13:02:44 1741 1742	 1492779764	 378657293	 165467.
13:02:44 1742 1743	 1492779764	 544210667	 165553.
13:02:44 1743 1744	 1492779764	 677167189	 132957.
13:02:44 1744 1745	 1492779764	 838641128	 161474.
13:02:45 1745 1746	 1492779765	 4241882	 165601.
13:02:45 1746 1747	 1492779765	 165822867	 161581.
13:02:45 1747 1748	 1492779765	 303077589	 137255.
13:02:45 1748 1749	 1492779765	 464674704	 161596.
13:02:45 1749 1750	 1492779765	 630214663	 165540.
13:02:45 1750 1751	 1492779765	 762947060	 132733.
13:02:45 1751 1752	 1492779765	 928708267	 165761.
13:02:46 1752 1753	 1492779766	 90494630	 161786.
13:02:46 1753 1754	 1492779766	 256817748	 166323.
13:02:46 1754 1755	 1492779766	 422849156	 166032.
13:02:46 1755 1756	 1492779766	 584679867	 161831.
13:02:46 1756 1757	 1492779766	 717602066	 132922.
13:02:46 1757 1758	 1492779766	 883466619	 165864.
13:02:47 1758 1759	 1492779767	 45244832	 161779.
13:02:47 1759 1760	 1492779767	 210993577	 165748.
13:02:47 1760 1761	 1492779767	 344228459	 133235.
13:02:47 1761 1762	 1492779767	 510105954	 165878.
13:02:47 1762 1763	 1492779767	 671936361	 161830.
13:02:47 1763 1764	 1492779767	 837414114	 165478.
13:02:47 1764 1765	 1492779767	 969908431	 132494.
13:02:48 1765 1766	 1492779768	 132056420	 162148.
13:02:48 1766 1767	 1492779768	 298384516	 166328.
13:02:48 1767 1768	 1492779768	 460298098	 161914.
13:02:48 1768 1769	 1492779768	 625633066	 165335.
13:02:48 1769 1770	 1492779768	 758594775	 132961.
13:02:48 1770 1771	 1492779768	 924103580	 165509.
13:02:49 1771 1772	 1492779769	 85800179	 161697.
13:02:49 1772 1773	 1492779769	 222840086	 137040.
13:02:49 1773 1774	 1492779769	 384683273	 161843.
13:02:49 1774 1775	 1492779769	 550778973	 166096.
13:02:49 1775 1776	 1492779769	 712181997	 161403.
13:02:49 1776 1777	 1492779769	 877723705	 165541.
13:02:50 1777 1778	 1492779770	 10634949	 132912.
13:02:50 1778 1779	 1492779770	 176034911	 165400.
13:02:50 1779 1780	 1492779770	 338193897	 162159.
13:02:50 1780 1781	 1492779770	 504061464	 165867.
13:02:50 1781 1782	 1492779770	 636766496	 132705.
13:02:50 1782 1783	 1492779770	 798296486	 161530.
13:02:50 1783 1784	 1492779770	 963636777	 165340.
13:02:51 1784 1785	 1492779771	 96564038	 132928.
13:02:51 1785 1786	 1492779771	 261798175	 165234.
13:02:51 1786 1787	 1492779771	 423304034	 161506.
13:02:51 1787 1788	 1492779771	 588928247	 165624.
13:02:51 1788 1789	 1492779771	 721649401	 132721.
13:02:51 1789 1790	 1492779771	 883152668	 161503.
13:02:52 1790 1791	 1492779772	 48812084	 165660.
13:02:52 1791 1792	 1492779772	 182095870	 133284.
13:02:52 1792 1793	 1492779772	 347505572	 165409.
13:02:52 1793 1794	 1492779772	 509081133	 161576.
13:02:52 1794 1795	 1492779772	 674722004	 165641.
13:02:52 1795 1796	 1492779772	 807504791	 132783.
13:02:52 1796 1797	 1492779772	 973179329	 165674.
13:02:53 1797 1798	 1492779773	 134481913	 161303.
13:02:53 1798 1799	 1492779773	 271249383	 136767.
13:02:53 1799 1800	 1492779773	 432946213	 161697.
13:02:53 1800 1801	 1492779773	 594970492	 162024.
13:02:53 1801 1802	 1492779773	 761404539	 166434.
13:02:53 1802 1803	 1492779773	 922861231	 161457.
13:02:54 1803 1804	 1492779774	 59923977	 137063.
13:02:54 1804 1805	 1492779774	 221971998	 162048.
13:02:54 1805 1806	 1492779774	 387689244	 165717.
13:02:54 1806 1807	 1492779774	 549740167	 162051.
13:02:54 1807 1808	 1492779774	 716090874	 166351.
13:02:54 1808 1809	 1492779774	 849255397	 133164.
13:02:55 1809 1810	 1492779775	 14498674	 165243.
13:02:55 1810 1811	 1492779775	 176262727	 161764.
13:02:55 1811 1812	 1492779775	 342055868	 165794.
13:02:55 1812 1813	 1492779775	 474911091	 132855.
13:02:55 1813 1814	 1492779775	 640102000	 165191.
13:02:55 1814 1815	 1492779775	 801337443	 161235.
13:02:55 1815 1816	 1492779775	 933966868	 132630.
13:02:56 1816 1817	 1492779776	 99308611	 165341.
13:02:56 1817 1818	 1492779776	 261139033	 161831.
13:02:56 1818 1819	 1492779776	 398270644	 137131.
13:02:56 1819 1820	 1492779776	 559722172	 161452.
13:02:56 1820 1821	 1492779776	 721249221	 161527.
13:02:56 1821 1822	 1492779776	 887116414	 165867.
13:02:57 1822 1823	 1492779777	 19832719	 132716.
13:02:57 1823 1824	 1492779777	 185692708	 165860.
13:02:57 1824 1825	 1492779777	 347947119	 162255.
13:02:57 1825 1826	 1492779777	 514047499	 166100.
13:02:57 1826 1827	 1492779777	 675387926	 161341.
13:02:57 1827 1828	 1492779777	 812498535	 137110.
13:02:57 1828 1829	 1492779777	 973483254	 160985.
13:02:58 1829 1830	 1492779778	 138854051	 165371.
13:02:58 1830 1831	 1492779778	 271979935	 133126.
13:02:58 1831 1832	 1492779778	 433194326	 161214.
13:02:58 1832 1833	 1492779778	 599045888	 165852.
13:02:58 1833 1834	 1492779778	 760762756	 161716.
13:02:58 1834 1835	 1492779778	 926873203	 166111.
13:02:59 1835 1836	 1492779779	 59955103	 133082.
13:02:59 1836 1837	 1492779779	 225205075	 165250.
13:02:59 1837 1838	 1492779779	 387148358	 161943.
13:02:59 1838 1839	 1492779779	 520126243	 132978.
13:02:59 1839 1840	 1492779779	 685941245	 165815.
13:02:59 1840 1841	 1492779779	 848452919	 162512.
13:03:00 1841 1842	 1492779780	 9871609	 161418.
13:03:00 1842 1843	 1492779780	 171538886	 161668.
13:03:00 1843 1844	 1492779780	 308240158	 136701.
13:03:00 1844 1845	 1492779780	 469905584	 161665.
13:03:00 1845 1846	 1492779780	 631373924	 161469.
13:03:00 1846 1847	 1492779780	 768278356	 136904.
13:03:00 1847 1848	 1492779780	 929871480	 161593.
13:03:01 1848 1849	 1492779781	 95615270	 165744.
13:03:01 1849 1850	 1492779781	 257555813	 161941.
13:03:01 1850 1851	 1492779781	 423481327	 165925.
13:03:01 1851 1852	 1492779781	 585003698	 161522.
13:03:01 1852 1853	 1492779781	 750778597	 165776.
13:03:01 1853 1854	 1492779781	 884177240	 133398.
13:03:02 1854 1855	 1492779782	 46018615	 161841.
13:03:02 1855 1856	 1492779782	 211932323	 165914.
13:03:02 1856 1857	 1492779782	 373774201	 161842.
13:03:02 1857 1858	 1492779782	 539631699	 165857.
13:03:02 1858 1859	 1492779782	 701002339	 161371.
13:03:02 1859 1860	 1492779782	 833493219	 132491.
13:03:02 1860 1861	 1492779782	 999182716	 165689.
13:03:03 1861 1862	 1492779783	 160436298	 161254.
13:03:03 1862 1863	 1492779783	 322013526	 161577.
13:03:03 1863 1864	 1492779783	 487368293	 165355.
13:03:03 1864 1865	 1492779783	 620025257	 132657.
13:03:03 1865 1866	 1492779783	 781391804	 161367.
13:03:03 1866 1867	 1492779783	 946585529	 165193.
13:03:04 1867 1868	 1492779784	 107986107	 161401.
13:03:04 1868 1869	 1492779784	 240642261	 132656.
13:03:04 1869 1870	 1492779784	 405988559	 165346.
13:03:04 1870 1871	 1492779784	 567682668	 161694.
13:03:04 1871 1872	 1492779784	 733368231	 165686.
13:03:04 1872 1873	 1492779784	 894631286	 161263.
13:03:05 1873 1874	 1492779785	 52639966	 158009.
13:03:05 1874 1875	 1492779785	 189647163	 137007.
13:03:05 1875 1876	 1492779785	 351174585	 161527.
13:03:05 1876 1877	 1492779785	 512710488	 161536.
13:03:05 1877 1878	 1492779785	 678267431	 165557.
13:03:05 1878 1879	 1492779785	 839928454	 161661.
13:03:05 1879 1880	 1492779786	 1504150	 161576.
13:03:06 1880 1881	 1492779786	 167303292	 165799.
13:03:06 1881 1882	 1492779786	 329230918	 161928.
13:03:06 1882 1883	 1492779786	 490822947	 161592.
13:03:06 1883 1884	 1492779786	 623664616	 132841.
13:03:06 1884 1885	 1492779786	 789319845	 165656.
13:03:06 1885 1886	 1492779786	 950844263	 161524.
13:03:07 1886 1887	 1492779787	 116602186	 165758.
13:03:07 1887 1888	 1492779787	 278767550	 162165.
13:03:07 1888 1889	 1492779787	 444877086	 166110.
13:03:07 1889 1890	 1492779787	 606996334	 162119.
13:03:07 1890 1891	 1492779787	 772993217	 165997.
13:03:07 1891 1892	 1492779787	 906381904	 133389.
13:03:08 1892 1893	 1492779788	 68333671	 161951.
13:03:08 1893 1894	 1492779788	 233922117	 165589.
13:03:08 1894 1895	 1492779788	 395515825	 161594.
13:03:08 1895 1896	 1492779788	 556856969	 161341.
13:03:08 1896 1897	 1492779788	 722438094	 165581.
13:03:08 1897 1898	 1492779788	 855629952	 133192.
13:03:09 1898 1899	 1492779789	 17368481	 161738.
13:03:09 1899 1900	 1492779789	 183161956	 165794.
13:03:09 1900 1901	 1492779789	 344792653	 161630.
13:03:09 1901 1902	 1492779789	 506283667	 161491.
13:03:09 1902 1903	 1492779789	 672173493	 165890.
13:03:09 1903 1904	 1492779789	 833724543	 161551.
13:03:09 1904 1905	 1492779789	 995077449	 161353.
13:03:10 1905 1906	 1492779790	 157297404	 162220.
13:03:10 1906 1907	 1492779790	 290005709	 132708.
13:03:10 1907 1908	 1492779790	 451411860	 161407.
13:03:10 1908 1909	 1492779790	 616827625	 165415.
13:03:10 1909 1910	 1492779790	 778025535	 161198.
13:03:10 1910 1911	 1492779790	 939503640	 161478.
13:03:11 1911 1912	 1492779791	 72262591	 132759.
