23:30:13    0 Step	 time(s)	 time(ns)	 delta(ms)
23:30:13    0 1	 1492558213	 137187697	 33904.
23:30:13    1 2	 1492558213	 269875230	 132688.
23:30:13    2 3	 1492558213	 431576873	 161702.
23:30:13    3 4	 1492558213	 597066953	 165490.
23:30:13    4 5	 1492558213	 758377223	 161310.
23:30:13    5 6	 1492558213	 919855374	 161478.
23:30:14    6 7	 1492558214	 56429350	 136574.
23:30:14    7 8	 1492558214	 217714411	 161285.
23:30:14    8 9	 1492558214	 379068704	 161354.
23:30:14    9 10	 1492558214	 544793175	 165725.
23:30:14   10 11	 1492558214	 677640124	 132847.
23:30:14   11 12	 1492558214	 843610987	 165971.
23:30:15   12 13	 1492558215	 5091249	 161480.
23:30:15   13 14	 1492558215	 170356874	 165266.
23:30:15   14 15	 1492558215	 332300411	 161943.
23:30:15   15 16	 1492558215	 494181361	 161881.
23:30:15   16 17	 1492558215	 630968778	 136787.
23:30:15   17 18	 1492558215	 792428179	 161460.
23:30:15   18 19	 1492558215	 957438987	 165011.
23:30:16   19 20	 1492558216	 90467139	 133028.
23:30:16   20 21	 1492558216	 256410676	 165944.
23:30:16   21 22	 1492558216	 418290137	 161879.
23:30:16   22 23	 1492558216	 584044311	 165754.
23:30:16   23 24	 1492558216	 716991918	 132948.
23:30:16   24 25	 1492558216	 878631050	 161639.
23:30:17   25 26	 1492558217	 44499093	 165868.
23:30:17   26 27	 1492558217	 206019976	 161521.
23:30:17   27 28	 1492558217	 342817192	 136797.
23:30:17   28 29	 1492558217	 504429751	 161612.
23:30:17   29 30	 1492558217	 670144511	 165715.
23:30:17   30 31	 1492558217	 831321776	 161177.
23:30:17   31 32	 1492558217	 964366479	 133045.
23:30:18   32 33	 1492558218	 130238536	 165872.
23:30:18   33 34	 1492558218	 296211539	 165973.
23:30:18   34 35	 1492558218	 458250526	 162039.
23:30:18   35 36	 1492558218	 590945571	 132695.
23:30:18   36 37	 1492558218	 757072323	 166127.
23:30:18   37 38	 1492558218	 918842811	 161771.
23:30:19   38 39	 1492558219	 84527654	 165684.
23:30:19   39 40	 1492558219	 245914285	 161387.
23:30:19   40 41	 1492558219	 378807250	 132893.
23:30:19   41 42	 1492558219	 544865340	 166058.
23:30:19   42 43	 1492558219	 706487980	 161623.
23:30:19   43 44	 1492558219	 872635852	 166148.
23:30:20   44 45	 1492558220	 34474081	 161838.
23:30:20   45 46	 1492558220	 171516975	 137043.
23:30:20   46 47	 1492558220	 332942127	 161425.
23:30:20   47 48	 1492558220	 498512137	 165570.
23:30:20   48 49	 1492558220	 660086782	 161574.
23:30:20   49 50	 1492558220	 793189206	 133103.
23:30:20   50 51	 1492558220	 958919505	 165730.
23:30:21   51 52	 1492558221	 124438128	 165519.
23:30:21   52 53	 1492558221	 257265299	 132827.
23:30:21   53 54	 1492558221	 418607623	 161342.
23:30:21   54 55	 1492558221	 584274757	 165667.
23:30:21   55 56	 1492558221	 716987982	 132714.
23:30:21   56 57	 1492558221	 882892121	 165904.
23:30:22   57 58	 1492558222	 44342136	 161450.
23:30:22   58 59	 1492558222	 209914717	 165572.
23:30:22   59 60	 1492558222	 342944818	 133031.
23:30:22   60 61	 1492558222	 508663217	 165718.
23:30:22   61 62	 1492558222	 670015452	 161352.
23:30:22   62 63	 1492558222	 836008718	 165993.
23:30:22   63 64	 1492558222	 968899250	 132891.
23:30:23   64 65	 1492558223	 134588692	 165689.
23:30:23   65 66	 1492558223	 296235797	 161647.
23:30:23   66 67	 1492558223	 433010166	 136775.
23:30:23   67 68	 1492558223	 594781835	 161772.
23:30:23   68 69	 1492558223	 761087082	 166305.
23:30:23   69 70	 1492558223	 923516644	 162429.
23:30:24   70 71	 1492558224	 80651474	 157135.
23:30:24   71 72	 1492558224	 217818761	 137168.
23:30:24   72 73	 1492558224	 379419495	 161600.
23:30:24   73 74	 1492558224	 545444426	 166025.
23:30:24   74 75	 1492558224	 707171568	 161727.
23:30:24   75 76	 1492558224	 844365620	 137195.
23:30:25   76 77	 1492558225	 5658466	 161292.
23:30:25   77 78	 1492558225	 171201238	 165543.
23:30:25   78 79	 1492558225	 332024288	 160823.
23:30:25   79 80	 1492558225	 464854089	 132830.
23:30:25   80 81	 1492558225	 630270555	 165416.
23:30:25   81 82	 1492558225	 791976640	 161706.
23:30:25   82 83	 1492558225	 957456312	 165480.
23:30:26   83 84	 1492558226	 90540972	 133085.
23:30:26   84 85	 1492558226	 255907445	 165366.
23:30:26   85 86	 1492558226	 417187936	 161281.
23:30:26   86 87	 1492558226	 554053463	 136865.
23:30:26   87 88	 1492558226	 715425072	 161372.
23:30:26   88 89	 1492558226	 881305212	 165880.
23:30:27   89 90	 1492558227	 14197433	 132892.
23:30:27   90 91	 1492558227	 180057491	 165860.
23:30:27   91 92	 1492558227	 341389103	 161332.
23:30:27   92 93	 1492558227	 506901698	 165512.
23:30:27   93 94	 1492558227	 639424010	 132523.
23:30:27   94 95	 1492558227	 805132799	 165708.
23:30:27   95 96	 1492558227	 966652460	 161520.
23:30:28   96 97	 1492558228	 103368207	 136716.
23:30:28   97 98	 1492558228	 265869642	 162501.
23:30:28   98 99	 1492558228	 431541820	 165672.
23:30:28   99 100	 1492558228	 593143102	 161602.
23:30:28  100 101	 1492558228	 725996616	 132853.
23:30:28  101 102	 1492558228	 891965049	 165969.
23:30:29  102 103	 1492558229	 53906326	 161941.
23:30:29  103 104	 1492558229	 219672062	 165766.
23:30:29  104 105	 1492558229	 381330235	 161658.
23:30:29  105 106	 1492558229	 518566625	 137236.
23:30:29  106 107	 1492558229	 680158121	 161592.
23:30:29  107 108	 1492558229	 841585811	 161427.
23:30:30  108 109	 1492558230	 7260420	 165675.
23:30:30  109 110	 1492558230	 169043626	 161783.
23:30:30  110 111	 1492558230	 306201091	 137158.
23:30:30  111 112	 1492558230	 467498732	 161297.
23:30:30  112 113	 1492558230	 628759393	 161261.
23:30:30  113 114	 1492558230	 765864890	 137106.
23:30:30  114 115	 1492558230	 927084065	 161219.
23:30:31  115 116	 1492558231	 93106318	 166022.
23:30:31  116 117	 1492558231	 254957963	 161852.
23:30:31  117 118	 1492558231	 388238590	 133280.
23:30:31  118 119	 1492558231	 554314877	 166077.
23:30:31  119 120	 1492558231	 720302274	 165987.
23:30:31  120 121	 1492558231	 881952403	 161650.
23:30:32  121 122	 1492558232	 18722055	 136770.
23:30:32  122 123	 1492558232	 180854609	 162132.
23:30:32  123 124	 1492558232	 346614893	 165761.
23:30:32  124 125	 1492558232	 508923293	 162308.
23:30:32  125 126	 1492558232	 674742477	 165819.
23:30:32  126 127	 1492558232	 836414111	 161672.
23:30:32  127 128	 1492558232	 973419867	 137006.
23:30:33  128 129	 1492558233	 135760849	 162341.
23:30:33  129 130	 1492558233	 301698455	 165937.
23:30:33  130 131	 1492558233	 463462405	 161764.
23:30:33  131 132	 1492558233	 596642957	 133181.
23:30:33  132 133	 1492558233	 762504815	 165862.
23:30:33  133 134	 1492558233	 924315840	 161811.
23:30:34  134 135	 1492558234	 89734327	 165418.
23:30:34  135 136	 1492558234	 223021449	 133287.
23:30:34  136 137	 1492558234	 388701262	 165680.
23:30:34  137 138	 1492558234	 550352535	 161651.
23:30:34  138 139	 1492558234	 716046120	 165694.
23:30:34  139 140	 1492558234	 849183273	 133137.
23:30:35  140 141	 1492558235	 15615005	 166432.
23:30:35  141 142	 1492558235	 173092757	 157477.
23:30:35  142 143	 1492558235	 338666165	 165574.
23:30:35  143 144	 1492558235	 500812471	 162146.
23:30:35  144 145	 1492558235	 667112100	 166300.
23:30:35  145 146	 1492558235	 800503843	 133392.
23:30:35  146 147	 1492558235	 966717183	 166213.
23:30:36  147 148	 1492558236	 128789420	 162072.
23:30:36  148 149	 1492558236	 295104843	 166316.
23:30:36  149 150	 1492558236	 457078250	 161973.
23:30:36  150 151	 1492558236	 623455712	 166377.
23:30:36  151 152	 1492558236	 785475781	 162020.
23:30:36  152 153	 1492558236	 923095054	 137620.
23:30:37  153 154	 1492558237	 85385318	 162290.
23:30:37  154 155	 1492558237	 246945980	 161561.
23:30:37  155 156	 1492558237	 412592059	 165646.
23:30:37  156 157	 1492558237	 573651597	 161059.
23:30:37  157 158	 1492558237	 706379264	 132728.
23:30:37  158 159	 1492558237	 871972263	 165593.
23:30:38  159 160	 1492558238	 33296759	 161324.
23:30:38  160 161	 1492558238	 199131921	 165836.
23:30:38  161 162	 1492558238	 332068151	 132936.
23:30:38  162 163	 1492558238	 497897800	 165829.
23:30:38  163 164	 1492558238	 659256779	 161359.
23:30:38  164 165	 1492558238	 825281032	 166025.
23:30:38  165 166	 1492558238	 958567127	 133286.
23:30:39  166 167	 1492558239	 120337627	 161770.
23:30:39  167 168	 1492558239	 286157299	 165820.
23:30:39  168 169	 1492558239	 448034448	 161877.
23:30:39  169 170	 1492558239	 585635225	 137601.
23:30:39  170 171	 1492558239	 747582622	 161947.
23:30:39  171 172	 1492558239	 913541759	 165959.
23:30:40  172 173	 1492558240	 75480906	 161940.
23:30:40  173 174	 1492558240	 241538894	 166058.
23:30:40  174 175	 1492558240	 374348677	 132809.
23:30:40  175 176	 1492558240	 539841852	 165494.
23:30:40  176 177	 1492558240	 701404925	 161563.
23:30:40  177 178	 1492558240	 866896368	 165491.
23:30:40  178 179	 1492558240	 999611132	 132715.
23:30:41  179 180	 1492558241	 161197956	 161587.
23:30:41  180 181	 1492558241	 327032270	 165834.
23:30:41  181 182	 1492558241	 488415750	 161383.
23:30:41  182 183	 1492558241	 653939530	 165524.
23:30:41  183 184	 1492558241	 786764267	 132825.
23:30:41  184 185	 1492558241	 947823341	 161059.
23:30:42  185 186	 1492558242	 113486347	 165663.
23:30:42  186 187	 1492558242	 275133928	 161648.
23:30:42  187 188	 1492558242	 408089113	 132955.
23:30:42  188 189	 1492558242	 574235278	 166146.
23:30:42  189 190	 1492558242	 736026371	 161791.
23:30:42  190 191	 1492558242	 901418543	 165392.
23:30:43  191 192	 1492558243	 63016590	 161598.
23:30:43  192 193	 1492558243	 229262844	 166247.
23:30:43  193 194	 1492558243	 362376063	 133113.
23:30:43  194 195	 1492558243	 528561283	 166185.
23:30:43  195 196	 1492558243	 690164332	 161603.
23:30:43  196 197	 1492558243	 851954663	 161790.
23:30:44  197 198	 1492558244	 17797249	 165843.
23:30:44  198 199	 1492558244	 150944451	 133147.
23:30:44  199 200	 1492558244	 313188465	 162244.
23:30:44  200 201	 1492558244	 479392037	 166204.
23:30:44  201 202	 1492558244	 641642750	 162250.
23:30:44  202 203	 1492558244	 807035952	 165394.
23:30:44  203 204	 1492558244	 969006864	 161971.
23:30:45  204 205	 1492558245	 106153857	 137147.
23:30:45  205 206	 1492558245	 267594765	 161440.
23:30:45  206 207	 1492558245	 429333401	 161739.
23:30:45  207 208	 1492558245	 595282113	 165949.
23:30:45  208 209	 1492558245	 756699657	 161417.
23:30:45  209 210	 1492558245	 889769512	 133070.
23:30:46  210 211	 1492558246	 55342022	 165573.
23:30:46  211 212	 1492558246	 216879874	 161538.
23:30:46  212 213	 1492558246	 382902674	 166022.
23:30:46  213 214	 1492558246	 544662845	 161761.
23:30:46  214 215	 1492558246	 710729776	 166066.
23:30:46  215 216	 1492558246	 843963361	 133234.
23:30:47  216 217	 1492558247	 9915376	 165952.
23:30:47  217 218	 1492558247	 171931365	 162016.
23:30:47  218 219	 1492558247	 337646464	 165715.
23:30:47  219 220	 1492558247	 499163416	 161517.
23:30:47  220 221	 1492558247	 631873809	 132711.
23:30:47  221 222	 1492558247	 797383781	 165509.
23:30:47  222 223	 1492558247	 958952709	 161569.
23:30:48  223 224	 1492558248	 120487054	 161535.
23:30:48  224 225	 1492558248	 286252357	 165765.
23:30:48  225 226	 1492558248	 419235297	 132983.
23:30:48  226 227	 1492558248	 584827835	 165593.
23:30:48  227 228	 1492558248	 717149005	 132321.
23:30:48  228 229	 1492558248	 883308618	 166159.
23:30:49  229 230	 1492558249	 45043084	 161735.
23:30:49  230 231	 1492558249	 210790621	 165747.
23:30:49  231 232	 1492558249	 372460261	 161670.
23:30:49  232 233	 1492558249	 505294459	 132834.
23:30:49  233 234	 1492558249	 671060254	 165766.
23:30:49  234 235	 1492558249	 832808191	 161748.
23:30:49  235 236	 1492558249	 998673816	 165866.
23:30:50  236 237	 1492558250	 131740045	 133066.
23:30:50  237 238	 1492558250	 296979337	 165239.
23:30:50  238 239	 1492558250	 458311950	 161333.
23:30:50  239 240	 1492558250	 620035203	 161723.
23:30:50  240 241	 1492558250	 785809860	 165775.
23:30:50  241 242	 1492558250	 918870277	 133060.
23:30:51  242 243	 1492558251	 84533495	 165663.
23:30:51  243 244	 1492558251	 246559551	 162026.
23:30:51  244 245	 1492558251	 412029898	 165471.
23:30:51  245 246	 1492558251	 541157053	 129127.
23:30:51  246 247	 1492558251	 707465344	 166308.
23:30:51  247 248	 1492558251	 864686182	 157221.
23:30:52  248 249	 1492558252	 30356997	 165671.
23:30:52  249 250	 1492558252	 192154096	 161797.
23:30:52  250 251	 1492558252	 387212260	 195058.
23:30:52  251 252	 1492558252	 520248306	 133036.
23:30:52  252 253	 1492558252	 685988015	 165740.
23:30:52  253 254	 1492558252	 847361330	 161373.
23:30:53  254 255	 1492558253	 9084628	 161723.
23:30:53  255 256	 1492558253	 175034012	 165950.
23:30:53  256 257	 1492558253	 336638163	 161604.
23:30:53  257 258	 1492558253	 502167547	 165530.
23:30:53  258 259	 1492558253	 635522539	 133354.
23:30:53  259 260	 1492558253	 797154591	 161632.
23:30:53  260 261	 1492558253	 958710354	 161556.
23:30:54  261 262	 1492558254	 124888788	 166178.
23:30:54  262 263	 1492558254	 286705709	 161817.
23:30:54  263 264	 1492558254	 452636940	 165932.
23:30:54  264 265	 1492558254	 586039685	 133402.
23:30:54  265 266	 1492558254	 751941844	 165903.
23:30:54  266 267	 1492558254	 913701464	 161759.
23:30:55  267 268	 1492558255	 80120810	 166420.
23:30:55  268 269	 1492558255	 242047233	 161926.
23:30:55  269 270	 1492558255	 379274061	 137227.
23:30:55  270 271	 1492558255	 541111505	 161837.
23:30:55  271 272	 1492558255	 706762981	 165652.
23:30:55  272 273	 1492558255	 868546816	 161784.
23:30:56  273 274	 1492558256	 5777230	 137230.
23:30:56  274 275	 1492558256	 167381733	 161605.
23:30:56  275 276	 1492558256	 333500273	 166118.
23:30:56  276 277	 1492558256	 494998389	 161498.
23:30:56  277 278	 1492558256	 632263912	 137266.
23:30:56  278 279	 1492558256	 793710419	 161446.
23:30:56  279 280	 1492558256	 959557785	 165847.
23:30:57  280 281	 1492558257	 121375199	 161818.
23:30:57  281 282	 1492558257	 287062080	 165687.
23:30:57  282 283	 1492558257	 419821277	 132759.
23:30:57  283 284	 1492558257	 581503645	 161682.
23:30:57  284 285	 1492558257	 746629562	 165126.
23:30:57  285 286	 1492558257	 879373176	 132744.
23:30:58  286 287	 1492558258	 44934227	 165561.
23:30:58  287 288	 1492558258	 206693157	 161759.
23:30:58  288 289	 1492558258	 372614605	 165921.
23:30:58  289 290	 1492558258	 505571925	 132958.
23:30:58  290 291	 1492558258	 667422549	 161850.
23:30:58  291 292	 1492558258	 833718567	 166296.
23:30:58  292 293	 1492558258	 995378267	 161660.
23:30:59  293 294	 1492558259	 132054894	 136677.
23:30:59  294 295	 1492558259	 294036378	 161981.
23:30:59  295 296	 1492558259	 459695772	 165659.
23:30:59  296 297	 1492558259	 621406851	 161712.
23:30:59  297 298	 1492558259	 758471901	 137065.
23:30:59  298 299	 1492558259	 920223204	 161751.
23:31:00  299 300	 1492558260	 85845545	 165622.
23:31:00  300 301	 1492558260	 247067666	 161222.
23:31:00  301 302	 1492558260	 408771807	 161705.
23:31:00  302 303	 1492558260	 570279708	 161507.
23:31:00  303 304	 1492558260	 707487859	 137209.
23:31:00  304 305	 1492558260	 869187854	 161700.
23:31:01  305 306	 1492558261	 34764806	 165577.
23:31:01  306 307	 1492558261	 196472961	 161708.
23:31:01  307 308	 1492558261	 358194936	 161722.
23:31:01  308 309	 1492558261	 523997306	 165802.
23:31:01  309 310	 1492558261	 685461641	 161464.
23:31:01  310 311	 1492558261	 846993510	 161532.
23:31:01  311 312	 1492558261	 980229900	 133237.
23:31:02  312 313	 1492558262	 145948630	 165718.
23:31:02  313 314	 1492558262	 307414581	 161466.
23:31:02  314 315	 1492558262	 472987247	 165573.
23:31:02  315 316	 1492558262	 634415062	 161428.
23:31:02  316 317	 1492558262	 796049754	 161634.
23:31:02  317 318	 1492558262	 957570033	 161521.
23:31:03  318 319	 1492558263	 94678154	 137108.
23:31:03  319 320	 1492558263	 256228976	 161551.
23:31:03  320 321	 1492558263	 421594762	 165366.
23:31:03  321 322	 1492558263	 582956407	 161361.
23:31:03  322 323	 1492558263	 744217347	 161261.
23:31:03  323 324	 1492558263	 877214565	 132997.
23:31:04  324 325	 1492558264	 42910768	 165696.
23:31:04  325 326	 1492558264	 204543577	 161633.
23:31:04  326 327	 1492558264	 370123567	 165580.
23:31:04  327 328	 1492558264	 531915236	 161792.
23:31:04  328 329	 1492558264	 727005869	 195091.
23:31:04  329 330	 1492558264	 892342433	 165336.
23:31:05  330 331	 1492558265	 54025216	 161683.
23:31:05  331 332	 1492558265	 190842596	 136817.
23:31:05  332 333	 1492558265	 351933585	 161091.
23:31:05  333 334	 1492558265	 513457950	 161525.
23:31:05  334 335	 1492558265	 678966131	 165508.
23:31:05  335 336	 1492558265	 840527651	 161561.
23:31:05  336 337	 1492558265	 973420036	 132893.
23:31:06  337 338	 1492558266	 139546206	 166126.
23:31:06  338 339	 1492558266	 301040357	 161494.
23:31:06  339 340	 1492558266	 466461288	 165421.
23:31:06  340 341	 1492558266	 628232288	 161771.
23:31:06  341 342	 1492558266	 794077368	 165845.
23:31:06  342 343	 1492558266	 955897474	 161820.
23:31:07  343 344	 1492558267	 88783817	 132887.
23:31:07  344 345	 1492558267	 254555203	 165771.
23:31:07  345 346	 1492558267	 416701939	 162147.
23:31:07  346 347	 1492558267	 582614435	 165912.
23:31:07  347 348	 1492558267	 744012300	 161398.
23:31:07  348 349	 1492558267	 905444497	 161432.
23:31:08  349 350	 1492558268	 42522679	 137078.
23:31:08  350 351	 1492558268	 204370925	 161849.
23:31:08  351 352	 1492558268	 366287976	 161917.
23:31:08  352 353	 1492558268	 532186801	 165898.
23:31:08  353 354	 1492558268	 694048817	 161863.
23:31:08  354 355	 1492558268	 856434877	 162386.
23:31:09  355 356	 1492558269	 22594531	 166159.
23:31:09  356 357	 1492558269	 215644545	 193050.
23:31:09  357 358	 1492558269	 377659664	 162015.
23:31:09  358 359	 1492558269	 543532369	 165873.
23:31:09  359 360	 1492558269	 705302632	 161770.
23:31:09  360 361	 1492558269	 867325078	 162023.
23:31:10  361 362	 1492558270	 4516664	 137191.
23:31:10  362 363	 1492558270	 166464554	 161948.
23:31:10  363 364	 1492558270	 327930621	 161466.
23:31:10  364 365	 1492558270	 494965853	 167036.
23:31:10  365 366	 1492558270	 656568798	 161602.
23:31:10  366 367	 1492558270	 823702679	 167134.
23:31:10  367 368	 1492558270	 985876181	 162174.
23:31:11  368 369	 1492558271	 147218791	 161342.
23:31:11  369 370	 1492558271	 312681639	 165463.
23:31:11  370 371	 1492558271	 473626466	 160945.
23:31:11  371 372	 1492558271	 606284665	 132658.
23:31:11  372 373	 1492558271	 771497515	 165213.
23:31:11  373 374	 1492558271	 932514472	 161017.
23:31:12  374 375	 1492558272	 93576620	 161062.
23:31:12  375 376	 1492558272	 230291258	 136715.
23:31:12  376 377	 1492558272	 391213106	 160922.
23:31:12  377 378	 1492558272	 556402813	 165190.
23:31:12  378 379	 1492558272	 717768460	 161365.
23:31:12  379 380	 1492558272	 850388098	 132620.
23:31:13  380 381	 1492558273	 15459446	 165071.
23:31:13  381 382	 1492558273	 176442172	 160983.
23:31:13  382 383	 1492558273	 337639491	 161197.
23:31:13  383 384	 1492558273	 470345160	 132706.
23:31:13  384 385	 1492558273	 635338584	 164993.
23:31:13  385 386	 1492558273	 796600144	 161262.
23:31:13  386 387	 1492558273	 962126046	 165526.
23:31:14  387 388	 1492558274	 123382555	 161256.
23:31:14  388 389	 1492558274	 256197012	 132815.
23:31:14  389 390	 1492558274	 421111520	 164914.
23:31:14  390 391	 1492558274	 582038072	 160927.
23:31:14  391 392	 1492558274	 743360552	 161322.
23:31:14  392 393	 1492558274	 875815494	 132455.
23:31:15  393 394	 1492558275	 41124518	 165309.
23:31:15  394 395	 1492558275	 202530655	 161406.
23:31:15  395 396	 1492558275	 367871451	 165341.
23:31:15  396 397	 1492558275	 500542065	 132671.
23:31:15  397 398	 1492558275	 661699316	 161157.
23:31:15  398 399	 1492558275	 827615831	 165917.
23:31:15  399 400	 1492558275	 989332761	 161716.
23:31:16  400 401	 1492558276	 155573448	 166241.
23:31:16  401 402	 1492558276	 317249513	 161676.
23:31:16  402 403	 1492558276	 450255495	 133006.
23:31:16  403 404	 1492558276	 616024163	 165769.
23:31:16  404 405	 1492558276	 777721765	 161698.
23:31:16  405 406	 1492558276	 944089795	 166367.
23:31:17  406 407	 1492558277	 106250130	 162161.
23:31:17  407 408	 1492558277	 272041885	 165792.
23:31:17  408 409	 1492558277	 434298971	 162257.
23:31:17  409 410	 1492558277	 599889942	 165591.
23:31:17  410 411	 1492558277	 761682153	 161792.
23:31:17  411 412	 1492558277	 894635648	 132953.
23:31:18  412 413	 1492558278	 60682090	 166047.
23:31:18  413 414	 1492558278	 222175126	 161493.
23:31:18  414 415	 1492558278	 384034910	 161860.
23:31:18  415 416	 1492558278	 549791708	 165756.
23:31:18  416 417	 1492558278	 711524442	 161733.
23:31:18  417 418	 1492558278	 848943710	 137419.
23:31:19  418 419	 1492558279	 11209571	 162266.
23:31:19  419 420	 1492558279	 176895563	 165686.
23:31:19  420 421	 1492558279	 338675289	 161780.
23:31:19  421 422	 1492558279	 500456458	 161781.
23:31:19  422 423	 1492558279	 666097831	 165642.
23:31:19  423 424	 1492558279	 827852328	 161754.
23:31:19  424 425	 1492558279	 960888824	 133037.
23:31:20  425 426	 1492558280	 127038553	 166149.
23:31:20  426 427	 1492558280	 289019996	 161982.
23:31:20  427 428	 1492558280	 454510438	 165490.
23:31:20  428 429	 1492558280	 616329173	 161819.
23:31:20  429 430	 1492558280	 778290082	 161961.
23:31:20  430 431	 1492558280	 944264705	 165974.
23:31:21  431 432	 1492558281	 77130323	 132866.
23:31:21  432 433	 1492558281	 274326063	 197196.
23:31:21  433 434	 1492558281	 436114689	 161789.
23:31:21  434 435	 1492558281	 601923891	 165809.
23:31:21  435 436	 1492558281	 734882534	 132958.
23:31:21  436 437	 1492558281	 896617588	 161735.
23:31:22  437 438	 1492558282	 62249974	 165633.
23:31:22  438 439	 1492558282	 223871492	 161621.
23:31:22  439 440	 1492558282	 391833055	 167962.
23:31:22  440 441	 1492558282	 553497872	 161665.
23:31:22  441 442	 1492558282	 715559980	 162062.
23:31:22  442 443	 1492558282	 881261268	 165701.
23:31:23  443 444	 1492558283	 42996850	 161735.
23:31:23  444 445	 1492558283	 180171858	 137176.
23:31:23  445 446	 1492558283	 341746374	 161574.
23:31:23  446 447	 1492558283	 503068350	 161322.
23:31:23  447 448	 1492558283	 668435301	 165367.
23:31:23  448 449	 1492558283	 801218990	 132784.
23:31:23  449 450	 1492558283	 967226794	 166007.
23:31:24  450 451	 1492558284	 129529172	 162303.
23:31:24  451 452	 1492558284	 291426618	 161897.
23:31:24  452 453	 1492558284	 457745267	 166319.
23:31:24  453 454	 1492558284	 619648305	 161903.
23:31:24  454 455	 1492558284	 785358032	 165710.
23:31:24  455 456	 1492558284	 981113107	 195755.
23:31:25  456 457	 1492558285	 147144096	 166031.
23:31:25  457 458	 1492558285	 308863435	 161719.
23:31:25  458 459	 1492558285	 471494225	 162631.
23:31:25  459 460	 1492558285	 637019726	 165525.
23:31:25  460 461	 1492558285	 770005184	 132986.
23:31:25  461 462	 1492558285	 966153074	 196148.
23:31:26  462 463	 1492558286	 128137156	 161984.
23:31:26  463 464	 1492558286	 290124313	 161987.
23:31:26  464 465	 1492558286	 426873383	 136749.
23:31:26  465 466	 1492558286	 588438666	 161565.
23:31:26  466 467	 1492558286	 754547044	 166109.
23:31:26  467 468	 1492558286	 916145547	 161598.
23:31:27  468 469	 1492558287	 82196491	 166051.
23:31:27  469 470	 1492558287	 245591436	 163395.
23:31:27  470 471	 1492558287	 407133866	 161543.
23:31:27  471 472	 1492558287	 574417565	 167283.
23:31:27  472 473	 1492558287	 736176240	 161759.
23:31:27  473 474	 1492558287	 902032056	 165856.
23:31:28  474 475	 1492558288	 63462525	 161430.
23:31:28  475 476	 1492558288	 196594637	 133132.
23:31:28  476 477	 1492558288	 362757746	 166163.
23:31:28  477 478	 1492558288	 524445605	 161688.
23:31:28  478 479	 1492558288	 690053882	 165609.
23:31:28  479 480	 1492558288	 851776658	 161722.
23:31:29  480 481	 1492558289	 17578218	 165802.
23:31:29  481 482	 1492558289	 179719641	 162141.
23:31:29  482 483	 1492558289	 312710211	 132991.
23:31:29  483 484	 1492558289	 478085533	 165375.
23:31:29  484 485	 1492558289	 639793315	 161708.
23:31:29  485 486	 1492558289	 805348837	 165556.
23:31:29  486 487	 1492558289	 966895486	 161546.
23:31:30  487 488	 1492558290	 100200962	 133306.
23:31:30  488 489	 1492558290	 265897629	 165696.
23:31:30  489 490	 1492558290	 427188176	 161291.
23:31:30  490 491	 1492558290	 592883378	 165695.
23:31:30  491 492	 1492558290	 754968161	 162085.
23:31:30  492 493	 1492558290	 887755619	 132787.
23:31:31  493 494	 1492558291	 53798975	 166044.
23:31:31  494 495	 1492558291	 211653538	 157854.
23:31:31  495 496	 1492558291	 377188099	 165535.
23:31:31  496 497	 1492558291	 538971707	 161783.
23:31:31  497 498	 1492558291	 701404508	 162433.
23:31:31  498 499	 1492558291	 867045383	 165641.
23:31:31  499 500	 1492558291	 999985490	 132940.
23:31:32  500 501	 1492558292	 165519273	 165534.
23:31:32  501 502	 1492558292	 327215901	 161697.
23:31:32  502 503	 1492558292	 488678168	 161462.
23:31:32  503 504	 1492558292	 654376251	 165698.
23:31:32  504 505	 1492558292	 816245704	 161869.
23:31:32  505 506	 1492558292	 953298830	 137054.
23:31:33  506 507	 1492558293	 115119973	 161821.
23:31:33  507 508	 1492558293	 276979860	 161860.
23:31:33  508 509	 1492558293	 442721121	 165741.
23:31:33  509 510	 1492558293	 575038890	 132318.
23:31:33  510 511	 1492558293	 736847752	 161808.
23:31:33  511 512	 1492558293	 902284631	 165438.
23:31:34  512 513	 1492558294	 63576498	 161291.
23:31:34  513 514	 1492558294	 200505948	 136930.
23:31:34  514 515	 1492558294	 361822364	 161316.
23:31:34  515 516	 1492558294	 527339366	 165517.
23:31:34  516 517	 1492558294	 660234700	 132895.
23:31:34  517 518	 1492558294	 826009146	 165775.
23:31:34  518 519	 1492558294	 987688999	 161680.
23:31:35  519 520	 1492558295	 149348225	 161659.
23:31:35  520 521	 1492558295	 314562494	 165214.
23:31:35  521 522	 1492558295	 447597393	 133035.
23:31:35  522 523	 1492558295	 609381442	 161784.
23:31:35  523 524	 1492558295	 775472771	 166091.
23:31:35  524 525	 1492558295	 937331187	 161859.
23:31:36  525 526	 1492558296	 103273927	 165943.
23:31:36  526 527	 1492558296	 265360087	 162086.
23:31:36  527 528	 1492558296	 402526234	 137166.
23:31:36  528 529	 1492558296	 564376386	 161850.
23:31:36  529 530	 1492558296	 730102781	 165726.
23:31:36  530 531	 1492558296	 894183169	 164081.
23:31:37  531 532	 1492558297	 60401717	 166218.
23:31:37  532 533	 1492558297	 222093856	 161693.
23:31:37  533 534	 1492558297	 387765635	 165671.
23:31:37  534 535	 1492558297	 520973310	 133208.
23:31:37  535 536	 1492558297	 682365285	 161392.
23:31:37  536 537	 1492558297	 848106036	 165741.
23:31:38  537 538	 1492558298	 9833305	 161727.
23:31:38  538 539	 1492558298	 146796558	 136963.
23:31:38  539 540	 1492558298	 308761412	 161965.
23:31:38  540 541	 1492558298	 474618893	 165858.
23:31:38  541 542	 1492558298	 636321044	 161702.
23:31:38  542 543	 1492558298	 798095861	 161775.
23:31:38  543 544	 1492558298	 963852329	 165756.
23:31:39  544 545	 1492558299	 97149112	 133297.
23:31:39  545 546	 1492558299	 263206061	 166057.
23:31:39  546 547	 1492558299	 424997772	 161791.
23:31:39  547 548	 1492558299	 591063300	 166066.
23:31:39  548 549	 1492558299	 752700688	 161637.
23:31:39  549 550	 1492558299	 889505103	 136805.
23:31:40  550 551	 1492558300	 51073185	 161568.
23:31:40  551 552	 1492558300	 212617328	 161544.
23:31:40  552 553	 1492558300	 378196646	 165579.
23:31:40  553 554	 1492558300	 539946914	 161751.
23:31:40  554 555	 1492558300	 701391005	 161444.
23:31:40  555 556	 1492558300	 838305127	 136914.
23:31:40  556 557	 1492558300	 999683475	 161378.
23:31:41  557 558	 1492558301	 161062760	 161379.
23:31:41  558 559	 1492558301	 326644009	 165582.
23:31:41  559 560	 1492558301	 459518403	 132874.
23:31:41  560 561	 1492558301	 624914607	 165396.
23:31:41  561 562	 1492558301	 786462800	 161548.
23:31:41  562 563	 1492558301	 923144296	 136682.
23:31:42  563 564	 1492558302	 84964206	 161820.
23:31:42  564 565	 1492558302	 247017815	 162054.
23:31:42  565 566	 1492558302	 413118857	 166101.
23:31:42  566 567	 1492558302	 574991333	 161872.
23:31:42  567 568	 1492558302	 740735631	 165744.
23:31:42  568 569	 1492558302	 903328167	 162593.
23:31:43  569 570	 1492558303	 40475505	 137147.
23:31:43  570 571	 1492558303	 202260530	 161785.
23:31:43  571 572	 1492558303	 364536360	 162276.
23:31:43  572 573	 1492558303	 530702416	 166166.
23:31:43  573 574	 1492558303	 692017807	 161315.
23:31:43  574 575	 1492558303	 828808984	 136792.
23:31:43  575 576	 1492558303	 990828421	 162019.
23:31:44  576 577	 1492558304	 156641535	 165813.
23:31:44  577 578	 1492558304	 318652052	 162011.
23:31:44  578 579	 1492558304	 480293047	 161641.
23:31:44  579 580	 1492558304	 617586599	 137293.
23:31:44  580 581	 1492558304	 779233033	 161647.
23:31:44  581 582	 1492558304	 944888891	 165656.
23:31:45  582 583	 1492558305	 106622412	 161733.
23:31:45  583 584	 1492558305	 239554266	 132932.
23:31:45  584 585	 1492558305	 405105435	 165551.
23:31:45  585 586	 1492558305	 566224975	 161120.
23:31:45  586 587	 1492558305	 731551258	 165326.
23:31:45  587 588	 1492558305	 864286804	 132736.
23:31:46  588 589	 1492558306	 25607522	 161320.
23:31:46  589 590	 1492558306	 190972747	 165365.
23:31:46  590 591	 1492558306	 385382844	 194411.
23:31:46  591 592	 1492558306	 546524066	 161141.
23:31:46  592 593	 1492558306	 711912163	 165388.
23:31:46  593 594	 1492558306	 844786333	 132874.
23:31:47  594 595	 1492558307	 6172404	 161386.
23:31:47  595 596	 1492558307	 171683415	 165511.
23:31:47  596 597	 1492558307	 333340203	 161657.
23:31:47  597 598	 1492558307	 494758802	 161419.
23:31:47  598 599	 1492558307	 632009315	 137250.
23:31:47  599 600	 1492558307	 793838663	 161829.
23:31:47  600 601	 1492558307	 960411831	 166574.
23:31:48  601 602	 1492558308	 117935994	 157524.
23:31:48  602 603	 1492558308	 283828537	 165892.
23:31:48  603 604	 1492558308	 445396051	 161568.
23:31:48  604 605	 1492558308	 578307201	 132911.
23:31:48  605 606	 1492558308	 743848017	 165541.
23:31:48  606 607	 1492558308	 905338087	 161490.
23:31:49  607 608	 1492558309	 66542781	 161204.
23:31:49  608 609	 1492558309	 199027304	 132485.
23:31:49  609 610	 1492558309	 364295922	 165269.
23:31:49  610 611	 1492558309	 525545422	 161249.
23:31:49  611 612	 1492558309	 658375633	 132830.
23:31:49  612 613	 1492558309	 823724109	 165349.
23:31:49  613 614	 1492558309	 985058962	 161335.
23:31:50  614 615	 1492558310	 146358248	 161299.
23:31:50  615 616	 1492558310	 311750745	 165393.
23:31:50  616 617	 1492558310	 444360494	 132609.
23:31:50  617 618	 1492558310	 605605555	 161245.
23:31:50  618 619	 1492558310	 771287078	 165682.
23:31:50  619 620	 1492558310	 932996394	 161709.
23:31:51  620 621	 1492558311	 94618763	 161622.
23:31:51  621 622	 1492558311	 231576059	 136958.
23:31:51  622 623	 1492558311	 393400994	 161825.
23:31:51  623 624	 1492558311	 555091883	 161691.
23:31:51  624 625	 1492558311	 720673682	 165581.
23:31:51  625 626	 1492558311	 882245228	 161572.
23:31:52  626 627	 1492558312	 43985568	 161740.
23:31:52  627 628	 1492558312	 210405511	 166420.
23:31:52  628 629	 1492558312	 343065967	 132661.
23:31:52  629 630	 1492558312	 508475996	 165410.
23:31:52  630 631	 1492558312	 669910889	 161435.
23:31:52  631 632	 1492558312	 835717498	 165806.
23:31:52  632 633	 1492558312	 968528808	 132811.
23:31:53  633 634	 1492558313	 134275050	 165747.
23:31:53  634 635	 1492558313	 296049795	 161774.
23:31:53  635 636	 1492558313	 462268872	 166220.
23:31:53  636 637	 1492558313	 595112386	 132843.
23:31:53  637 638	 1492558313	 756752477	 161640.
23:31:53  638 639	 1492558313	 922299636	 165547.
23:31:54  639 640	 1492558314	 55077691	 132778.
23:31:54  640 641	 1492558314	 221064080	 165987.
23:31:54  641 642	 1492558314	 382751377	 161687.
23:31:54  642 643	 1492558314	 548468273	 165717.
23:31:54  643 644	 1492558314	 681438469	 132970.
23:31:54  644 645	 1492558314	 847137352	 165699.
23:31:55  645 646	 1492558315	 8897439	 161760.
23:31:55  646 647	 1492558315	 174777665	 165880.
23:31:55  647 648	 1492558315	 307820467	 133043.
23:31:55  648 649	 1492558315	 473482235	 165662.
23:31:55  649 650	 1492558315	 668816233	 195334.
23:31:55  650 651	 1492558315	 834897718	 166081.
23:31:55  651 652	 1492558315	 997504016	 162607.
23:31:56  652 653	 1492558316	 163279311	 165775.
23:31:56  653 654	 1492558316	 326875335	 163596.
23:31:56  654 655	 1492558316	 492893814	 166019.
23:31:56  655 656	 1492558316	 654828915	 161935.
23:31:56  656 657	 1492558316	 820471472	 165642.
23:31:56  657 658	 1492558316	 953219634	 132748.
23:31:57  658 659	 1492558317	 112044884	 158826.
23:31:57  659 660	 1492558317	 273979263	 161934.
23:31:57  660 661	 1492558317	 441503500	 167524.
23:31:57  661 662	 1492558317	 602903041	 161400.
23:31:57  662 663	 1492558317	 770062746	 167159.
23:31:57  663 664	 1492558317	 931739352	 161677.
23:31:58  664 665	 1492558318	 97400204	 165661.
23:31:58  665 666	 1492558318	 230627149	 133227.
23:31:58  666 667	 1492558318	 396587518	 165960.
23:31:58  667 668	 1492558318	 557956593	 161370.
23:31:58  668 669	 1492558318	 723835962	 165879.
23:31:58  669 670	 1492558318	 857028192	 133192.
23:31:59  670 671	 1492558319	 19008155	 161980.
23:31:59  671 672	 1492558319	 185750355	 166742.
23:31:59  672 673	 1492558319	 343172483	 157422.
23:31:59  673 674	 1492558319	 504639223	 161467.
23:31:59  674 675	 1492558319	 637516379	 132877.
23:31:59  675 676	 1492558319	 802735763	 165220.
23:31:59  676 677	 1492558319	 964202387	 161466.
23:32:00  677 678	 1492558320	 125804651	 161602.
23:32:00  678 679	 1492558320	 291457158	 165653.
23:32:00  679 680	 1492558320	 424332156	 132875.
23:32:00  680 681	 1492558320	 590262902	 165931.
23:32:00  681 682	 1492558320	 751769864	 161507.
23:32:00  682 683	 1492558320	 913272102	 161502.
23:32:01  683 684	 1492558321	 79013114	 165741.
23:32:01  684 685	 1492558321	 240742237	 161729.
23:32:01  685 686	 1492558321	 402501038	 161759.
23:32:01  686 687	 1492558321	 568363647	 165862.
23:32:01  687 688	 1492558321	 729994235	 161631.
23:32:01  688 689	 1492558321	 863166619	 133172.
23:32:02  689 690	 1492558322	 28915314	 165749.
23:32:02  690 691	 1492558322	 190937471	 162022.
23:32:02  691 692	 1492558322	 356724869	 165788.
23:32:02  692 693	 1492558322	 518611306	 161886.
23:32:02  693 694	 1492558322	 684167487	 165556.
23:32:02  694 695	 1492558322	 845811781	 161644.
23:32:03  695 696	 1492558323	 7292159	 161481.
23:32:03  696 697	 1492558323	 144489405	 137197.
23:32:03  697 698	 1492558323	 306067240	 161578.
23:32:03  698 699	 1492558323	 467655056	 161588.
23:32:03  699 700	 1492558323	 633224274	 165569.
23:32:03  700 701	 1492558323	 794831602	 161607.
23:32:03  701 702	 1492558323	 956535516	 161704.
23:32:04  702 703	 1492558324	 122227087	 165692.
23:32:04  703 704	 1492558324	 284377324	 162150.
23:32:04  704 705	 1492558324	 450046727	 165670.
23:32:04  705 706	 1492558324	 583108264	 133061.
23:32:04  706 707	 1492558324	 744922735	 161814.
23:32:04  707 708	 1492558324	 910775232	 165853.
23:32:05  708 709	 1492558325	 72665940	 161891.
23:32:05  709 710	 1492558325	 234109772	 161444.
23:32:05  710 711	 1492558325	 399746888	 165637.
23:32:05  711 712	 1492558325	 561564333	 161817.
23:32:05  712 713	 1492558325	 723018268	 161454.
23:32:05  713 714	 1492558325	 860122652	 137104.
23:32:06  714 715	 1492558326	 21814825	 161693.
23:32:06  715 716	 1492558326	 183364472	 161549.
23:32:06  716 717	 1492558326	 349152885	 165789.
23:32:06  717 718	 1492558326	 510848236	 161695.
23:32:06  718 719	 1492558326	 672455238	 161607.
23:32:06  719 720	 1492558326	 837938772	 165483.
23:32:06  720 721	 1492558326	 999290383	 161352.
23:32:07  721 722	 1492558327	 136402020	 137112.
23:32:07  722 723	 1492558327	 298071931	 161670.
23:32:07  723 724	 1492558327	 459942854	 161871.
23:32:07  724 725	 1492558327	 625924557	 165981.
23:32:07  725 726	 1492558327	 791818474	 165894.
23:32:07  726 727	 1492558327	 924937306	 133119.
23:32:08  727 728	 1492558328	 86994561	 162057.
23:32:08  728 729	 1492558328	 253271087	 166277.
23:32:08  729 730	 1492558328	 414952578	 161681.
23:32:08  730 731	 1492558328	 580813200	 165861.
23:32:08  731 732	 1492558328	 713734139	 132921.
23:32:08  732 733	 1492558328	 879620782	 165886.
23:32:09  733 734	 1492558329	 41584941	 161965.
23:32:09  734 735	 1492558329	 207696042	 166111.
23:32:09  735 736	 1492558329	 369858095	 162162.
23:32:09  736 737	 1492558329	 507091092	 137233.
23:32:09  737 738	 1492558329	 668436673	 161345.
23:32:09  738 739	 1492558329	 834145171	 165709.
23:32:09  739 740	 1492558329	 995786675	 161641.
23:32:10  740 741	 1492558330	 132918973	 137133.
23:32:10  741 742	 1492558330	 291075671	 158156.
23:32:10  742 743	 1492558330	 456770045	 165695.
23:32:10  743 744	 1492558330	 618683174	 161913.
23:32:10  744 745	 1492558330	 784272116	 165589.
23:32:10  745 746	 1492558330	 945488397	 161216.
23:32:11  746 747	 1492558331	 78623027	 133135.
23:32:11  747 748	 1492558331	 244287333	 165664.
23:32:11  748 749	 1492558331	 406004839	 161718.
23:32:11  749 750	 1492558331	 571892627	 165887.
23:32:11  750 751	 1492558331	 705056085	 133164.
23:32:11  751 752	 1492558331	 870767622	 165711.
23:32:12  752 753	 1492558332	 32409783	 161643.
23:32:12  753 754	 1492558332	 197839684	 165429.
23:32:12  754 755	 1492558332	 352424784	 154586.
23:32:12  755 756	 1492558332	 489660632	 137235.
23:32:12  756 757	 1492558332	 651380435	 161720.
23:32:12  757 758	 1492558332	 813028769	 161649.
23:32:12  758 759	 1492558332	 979210128	 166181.
23:32:13  759 760	 1492558333	 144712509	 165502.
23:32:13  760 761	 1492558333	 278098924	 133387.
23:32:13  761 762	 1492558333	 439947259	 161848.
23:32:13  762 763	 1492558333	 605378951	 165432.
23:32:13  763 764	 1492558333	 767333721	 161954.
23:32:13  764 765	 1492558333	 933117884	 165785.
23:32:14  765 766	 1492558334	 66049886	 132932.
23:32:14  766 767	 1492558334	 227391599	 161341.
23:32:14  767 768	 1492558334	 393224671	 165833.
23:32:14  768 769	 1492558334	 554715162	 161491.
23:32:14  769 770	 1492558334	 691851663	 137136.
23:32:14  770 771	 1492558334	 853573877	 161723.
23:32:15  771 772	 1492558335	 15320833	 161747.
23:32:15  772 773	 1492558335	 181265908	 165945.
23:32:15  773 774	 1492558335	 314063194	 132797.
23:32:15  774 775	 1492558335	 479754837	 165692.
23:32:15  775 776	 1492558335	 641157736	 161402.
23:32:15  776 777	 1492558335	 773586562	 132429.
23:32:15  777 778	 1492558335	 939493323	 165907.
23:32:16  778 779	 1492558336	 100817427	 161324.
23:32:16  779 780	 1492558336	 266756691	 165940.
23:32:16  780 781	 1492558336	 399304389	 132547.
23:32:16  781 782	 1492558336	 564923631	 165619.
23:32:16  782 783	 1492558336	 726424338	 161501.
23:32:16  783 784	 1492558336	 859654711	 133230.
23:32:17  784 785	 1492558337	 25459202	 165805.
23:32:17  785 786	 1492558337	 187290335	 161831.
23:32:17  786 787	 1492558337	 353073179	 165783.
23:32:17  787 788	 1492558337	 519021701	 165948.
23:32:17  788 789	 1492558337	 652181176	 133160.
23:32:17  789 790	 1492558337	 813910702	 161730.
23:32:17  790 791	 1492558337	 979084983	 165174.
23:32:18  791 792	 1492558338	 140727231	 161642.
23:32:18  792 793	 1492558338	 277747263	 137020.
23:32:18  793 794	 1492558338	 439337749	 161590.
23:32:18  794 795	 1492558338	 605211140	 165874.
23:32:18  795 796	 1492558338	 767080871	 161870.
23:32:18  796 797	 1492558338	 928940319	 161859.
23:32:19  797 798	 1492558339	 65671926	 136732.
23:32:19  798 799	 1492558339	 227011964	 161340.
23:32:19  799 800	 1492558339	 392548438	 165536.
23:32:19  800 801	 1492558339	 525530781	 132982.
23:32:19  801 802	 1492558339	 686258000	 160728.
23:32:19  802 803	 1492558339	 851410749	 165152.
23:32:19  803 804	 1492558339	 983881445	 132471.
23:32:20  804 805	 1492558340	 144958243	 161077.
23:32:20  805 806	 1492558340	 310096860	 165139.
23:32:20  806 807	 1492558340	 471051358	 160954.
23:32:20  807 808	 1492558340	 603383453	 132332.
23:32:20  808 809	 1492558340	 768606044	 165223.
23:32:20  809 810	 1492558340	 929822976	 161217.
23:32:21  810 811	 1492558341	 91143907	 161321.
23:32:21  811 812	 1492558341	 256693176	 165549.
23:32:21  812 813	 1492558341	 389385965	 132693.
23:32:21  813 814	 1492558341	 550638999	 161253.
23:32:21  814 815	 1492558341	 715637689	 164998.
23:32:21  815 816	 1492558341	 876888114	 161251.
23:32:22  816 817	 1492558342	 9405698	 132517.
23:32:22  817 818	 1492558342	 174886456	 165481.
23:32:22  818 819	 1492558342	 336222651	 161336.
23:32:22  819 820	 1492558342	 501395182	 165173.
23:32:22  820 821	 1492558342	 662832209	 161437.
23:32:22  821 822	 1492558342	 795551723	 132719.
23:32:22  822 823	 1492558342	 960726642	 165175.
23:32:23  823 824	 1492558343	 122057044	 161331.
23:32:23  824 825	 1492558343	 283314359	 161257.
23:32:23  825 826	 1492558343	 419958754	 136644.
23:32:23  826 827	 1492558343	 581260912	 161303.
23:32:23  827 828	 1492558343	 742124137	 160863.
23:32:23  828 829	 1492558343	 903295786	 161171.
23:32:24  829 830	 1492558344	 40625539	 137330.
23:32:24  830 831	 1492558344	 205884291	 165259.
23:32:24  831 832	 1492558344	 367405909	 161522.
23:32:24  832 833	 1492558344	 500300944	 132895.
23:32:24  833 834	 1492558344	 666097306	 165796.
23:32:24  834 835	 1492558344	 827500779	 161403.
23:32:24  835 836	 1492558344	 992973772	 165473.
23:32:25  836 837	 1492558345	 125995476	 133022.
23:32:25  837 838	 1492558345	 292008616	 166013.
23:32:25  838 839	 1492558345	 453319756	 161311.
23:32:25  839 840	 1492558345	 619464428	 166145.
23:32:25  840 841	 1492558345	 781237969	 161774.
23:32:25  841 842	 1492558345	 918309861	 137072.
23:32:26  842 843	 1492558346	 80249799	 161939.
23:32:26  843 844	 1492558346	 245704256	 165455.
23:32:26  844 845	 1492558346	 407609810	 161906.
23:32:26  845 846	 1492558346	 540171780	 132561.
23:32:26  846 847	 1492558346	 705780579	 165609.
23:32:26  847 848	 1492558346	 867241113	 161461.
23:32:27  848 849	 1492558347	 33428660	 166187.
23:32:27  849 850	 1492558347	 190843684	 157415.
23:32:27  850 851	 1492558347	 323660215	 132817.
23:32:27  851 852	 1492558347	 488975098	 165315.
23:32:27  852 853	 1492558347	 650109087	 161134.
23:32:27  853 854	 1492558347	 811372155	 161263.
23:32:27  854 855	 1492558347	 948231818	 136860.
23:32:28  855 856	 1492558348	 109271163	 161039.
23:32:28  856 857	 1492558348	 275237997	 165967.
23:32:28  857 858	 1492558348	 436952825	 161715.
23:32:28  858 859	 1492558348	 570318641	 133365.
23:32:28  859 860	 1492558348	 736042404	 165724.
23:32:28  860 861	 1492558348	 897566996	 161525.
23:32:29  861 862	 1492558349	 59835953	 162269.
23:32:29  862 863	 1492558349	 225639977	 165804.
23:32:29  863 864	 1492558349	 358493976	 132854.
23:32:29  864 865	 1492558349	 520496071	 162002.
23:32:29  865 866	 1492558349	 686071667	 165575.
23:32:29  866 867	 1492558349	 847869545	 161798.
23:32:30  867 868	 1492558350	 9745626	 161876.
23:32:30  868 869	 1492558350	 146648138	 136903.
23:32:30  869 870	 1492558350	 308147638	 161499.
23:32:30  870 871	 1492558350	 473397364	 165250.
23:32:30  871 872	 1492558350	 634799777	 161402.
23:32:30  872 873	 1492558350	 767605869	 132807.
23:32:30  873 874	 1492558350	 933015623	 165409.
23:32:31  874 875	 1492558351	 94525110	 161510.
23:32:31  875 876	 1492558351	 231483073	 136958.
23:32:31  876 877	 1492558351	 393273407	 161790.
23:32:31  877 878	 1492558351	 559201734	 165928.
23:32:31  878 879	 1492558351	 720674736	 161474.
23:32:31  879 880	 1492558351	 882667816	 161993.
23:32:32  880 881	 1492558352	 19937098	 137269.
23:32:32  881 882	 1492558352	 181694783	 161757.
23:32:32  882 883	 1492558352	 347970777	 166276.
23:32:32  883 884	 1492558352	 509752364	 161782.
23:32:32  884 885	 1492558352	 675709553	 165957.
23:32:32  885 886	 1492558352	 808898154	 133189.
23:32:32  886 887	 1492558352	 974118800	 165220.
23:32:33  887 888	 1492558353	 135701236	 161583.
23:32:33  888 889	 1492558353	 302178915	 166478.
23:32:33  889 890	 1492558353	 463947109	 161768.
23:32:33  890 891	 1492558353	 596791996	 132845.
23:32:33  891 892	 1492558353	 762509383	 165717.
23:32:33  892 893	 1492558353	 924522017	 162013.
23:32:34  893 894	 1492558354	 90305631	 165783.
23:32:34  894 895	 1492558354	 223442205	 133137.
23:32:34  895 896	 1492558354	 385588119	 162146.
23:32:34  896 897	 1492558354	 551015456	 165427.
23:32:34  897 898	 1492558354	 712715482	 161700.
23:32:34  898 899	 1492558354	 849606860	 136892.
23:32:35  899 900	 1492558355	 11314631	 161707.
23:32:35  900 901	 1492558355	 177535052	 166221.
23:32:35  901 902	 1492558355	 339250790	 161716.
23:32:35  902 903	 1492558355	 505252440	 166001.
23:32:35  903 904	 1492558355	 638098355	 132846.
23:32:35  904 905	 1492558355	 799401437	 161303.
23:32:35  905 906	 1492558355	 965734725	 166334.
23:32:36  906 907	 1492558356	 127450429	 161715.
23:32:36  907 908	 1492558356	 293101670	 165651.
23:32:36  908 909	 1492558356	 425693865	 132593.
23:32:36  909 910	 1492558356	 587600023	 161906.
23:32:36  910 911	 1492558356	 752924802	 165324.
23:32:36  911 912	 1492558356	 885173996	 132250.
23:32:37  912 913	 1492558357	 50964097	 165790.
23:32:37  913 914	 1492558357	 212919623	 161956.
23:32:37  914 915	 1492558357	 374432554	 161512.
23:32:37  915 916	 1492558357	 511067601	 136635.
23:32:37  916 917	 1492558357	 672906497	 161839.
23:32:37  917 918	 1492558357	 838217327	 165311.
23:32:37  918 919	 1492558357	 970836972	 132620.
23:32:38  919 920	 1492558358	 137859228	 167022.
23:32:38  920 921	 1492558358	 295830657	 157971.
23:32:38  921 922	 1492558358	 461944478	 166114.
23:32:38  922 923	 1492558358	 624435294	 162491.
23:32:38  923 924	 1492558358	 790707428	 166272.
23:32:38  924 925	 1492558358	 952684106	 161977.
23:32:39  925 926	 1492558359	 114797100	 162113.
23:32:39  926 927	 1492558359	 281129524	 166332.
23:32:39  927 928	 1492558359	 443292260	 162163.
23:32:39  928 929	 1492558359	 580703228	 137411.
23:32:39  929 930	 1492558359	 743058059	 162355.
23:32:39  930 931	 1492558359	 904576080	 161518.
23:32:40  931 932	 1492558360	 70476435	 165900.
23:32:40  932 933	 1492558360	 232038528	 161562.
23:32:40  933 934	 1492558360	 364863597	 132825.
23:32:40  934 935	 1492558360	 530519521	 165656.
23:32:40  935 936	 1492558360	 692376071	 161857.
23:32:40  936 937	 1492558360	 829213743	 136838.
23:32:40  937 938	 1492558360	 990991773	 161778.
23:32:41  938 939	 1492558361	 156468169	 165476.
23:32:41  939 940	 1492558361	 317828731	 161360.
23:32:41  940 941	 1492558361	 450567185	 132739.
23:32:41  941 942	 1492558361	 616200951	 165634.
23:32:41  942 943	 1492558361	 777650407	 161449.
23:32:41  943 944	 1492558361	 943390921	 165741.
23:32:42  944 945	 1492558362	 76466804	 133075.
23:32:42  945 946	 1492558362	 242038556	 165572.
23:32:42  946 947	 1492558362	 403582694	 161545.
23:32:42  947 948	 1492558362	 540324991	 136742.
23:32:42  948 949	 1492558362	 701833498	 161508.
23:32:42  949 950	 1492558362	 867341117	 165508.
23:32:43  950 951	 1492558363	 28976244	 161635.
23:32:43  951 952	 1492558363	 165825424	 136849.
23:32:43  952 953	 1492558363	 327420611	 161595.
23:32:43  953 954	 1492558363	 488917318	 161497.
23:32:43  954 955	 1492558363	 625630022	 136713.
23:32:43  955 956	 1492558363	 787217876	 161588.
23:32:43  956 957	 1492558363	 952965380	 165747.
23:32:44  957 958	 1492558364	 85821335	 132856.
23:32:44  958 959	 1492558364	 247427988	 161607.
23:32:44  959 960	 1492558364	 413549092	 166121.
23:32:44  960 961	 1492558364	 575614088	 162065.
23:32:44  961 962	 1492558364	 741485473	 165871.
23:32:44  962 963	 1492558364	 874244252	 132759.
23:32:45  963 964	 1492558365	 39661232	 165417.
23:32:45  964 965	 1492558365	 201444273	 161783.
23:32:45  965 966	 1492558365	 334426260	 132982.
23:32:45  966 967	 1492558365	 500005647	 165579.
23:32:45  967 968	 1492558365	 661203660	 161198.
23:32:45  968 969	 1492558365	 797733216	 136530.
23:32:45  969 970	 1492558365	 959119137	 161386.
23:32:46  970 971	 1492558366	 124844024	 165725.
23:32:46  971 972	 1492558366	 286184509	 161340.
23:32:46  972 973	 1492558366	 423231369	 137047.
23:32:46  973 974	 1492558366	 585310317	 162079.
23:32:46  974 975	 1492558366	 747521834	 162212.
23:32:46  975 976	 1492558366	 909251958	 161730.
23:32:47  976 977	 1492558367	 46490050	 137238.
23:32:47  977 978	 1492558367	 208108295	 161618.
23:32:47  978 979	 1492558367	 370376422	 162268.
23:32:47  979 980	 1492558367	 536554191	 166178.
23:32:47  980 981	 1492558367	 698282852	 161729.
23:32:47  981 982	 1492558367	 863930912	 165648.
23:32:47  982 983	 1492558367	 997388829	 133457.
23:32:48  983 984	 1492558368	 163027332	 165639.
23:32:48  984 985	 1492558368	 325139643	 162112.
23:32:48  985 986	 1492558368	 490728203	 165589.
23:32:48  986 987	 1492558368	 652545881	 161818.
23:32:48  987 988	 1492558368	 811149253	 158603.
23:32:48  988 989	 1492558368	 948542994	 137394.
23:32:49  989 990	 1492558369	 109840671	 161297.
23:32:49  990 991	 1492558369	 275469618	 165629.
23:32:49  991 992	 1492558369	 408624140	 133155.
23:32:49  992 993	 1492558369	 574703978	 166080.
23:32:49  993 994	 1492558369	 737626826	 162923.
23:32:49  994 995	 1492558369	 898886985	 161260.
23:32:50  995 996	 1492558370	 64398530	 165511.
23:32:50  996 997	 1492558370	 226151831	 161754.
23:32:50  997 998	 1492558370	 458009767	 231857.
23:32:50  998 999	 1492558370	 590901043	 132892.
23:32:50  999 1000	 1492558370	 752207554	 161306.
23:32:50 1000 1001	 1492558370	 917514507	 165307.
23:32:51 1001 1002	 1492558371	 50354002	 132840.
23:32:51 1002 1003	 1492558371	 215987456	 165633.
23:32:51 1003 1004	 1492558371	 377458440	 161471.
23:32:51 1004 1005	 1492558371	 543298485	 165840.
23:32:51 1005 1006	 1492558371	 676252305	 132954.
23:32:51 1006 1007	 1492558371	 837539486	 161287.
23:32:52 1007 1008	 1492558372	 3193903	 165655.
23:32:52 1008 1009	 1492558372	 164558215	 161364.
23:32:52 1009 1010	 1492558372	 297911373	 133353.
23:32:52 1010 1011	 1492558372	 463185151	 165274.
23:32:52 1011 1012	 1492558372	 624620081	 161435.
23:32:52 1012 1013	 1492558372	 761483137	 136863.
23:32:52 1013 1014	 1492558372	 923485675	 162002.
23:32:53 1014 1015	 1492558373	 88971612	 165486.
23:32:53 1015 1016	 1492558373	 254509675	 165538.
23:32:53 1016 1017	 1492558373	 387014953	 132506.
23:32:53 1017 1018	 1492558373	 553093251	 166078.
23:32:53 1018 1019	 1492558373	 714581748	 161488.
23:32:53 1019 1020	 1492558373	 880451189	 165870.
23:32:54 1020 1021	 1492558374	 13258173	 132807.
23:32:54 1021 1022	 1492558374	 175019166	 161761.
23:32:54 1022 1023	 1492558374	 341114798	 166095.
23:32:54 1023 1024	 1492558374	 502792446	 161678.
23:32:54 1024 1025	 1492558374	 639707625	 136915.
23:32:54 1025 1026	 1492558374	 801459388	 161752.
23:32:54 1026 1027	 1492558374	 966948991	 165490.
23:32:55 1027 1028	 1492558375	 128606557	 161657.
23:32:55 1028 1029	 1492558375	 294516618	 165910.
23:32:55 1029 1030	 1492558375	 427490261	 132974.
23:32:55 1030 1031	 1492558375	 593348064	 165858.
23:32:55 1031 1032	 1492558375	 755707817	 162360.
23:32:55 1032 1033	 1492558375	 913191746	 157483.
23:32:56 1033 1034	 1492558376	 74641148	 161450.
23:32:56 1034 1035	 1492558376	 207288764	 132647.
23:32:56 1035 1036	 1492558376	 372286989	 164999.
23:32:56 1036 1037	 1492558376	 533372500	 161085.
23:32:56 1037 1038	 1492558376	 694514750	 161142.
23:32:56 1038 1039	 1492558376	 831326890	 136813.
23:32:56 1039 1040	 1492558376	 992485459	 161158.
23:32:57 1040 1041	 1492558377	 153669375	 161184.
23:32:57 1041 1042	 1492558377	 319197329	 165528.
23:32:57 1042 1043	 1492558377	 451876017	 132679.
23:32:57 1043 1044	 1492558377	 613313466	 161437.
23:32:57 1044 1045	 1492558377	 778417236	 165104.
23:32:57 1045 1046	 1492558377	 939656594	 161239.
23:32:58 1046 1047	 1492558378	 101726610	 162070.
23:32:58 1047 1048	 1492558378	 238607062	 136881.
23:32:58 1048 1049	 1492558378	 400696937	 162090.
23:32:58 1049 1050	 1492558378	 566163474	 165466.
23:32:58 1050 1051	 1492558378	 728156224	 161993.
23:32:58 1051 1052	 1492558378	 861453504	 133297.
23:32:59 1052 1053	 1492558379	 27430936	 165978.
23:32:59 1053 1054	 1492558379	 192982938	 165552.
23:32:59 1054 1055	 1492558379	 354701977	 161719.
23:32:59 1055 1056	 1492558379	 487633848	 132932.
23:32:59 1056 1057	 1492558379	 653527020	 165893.
23:32:59 1057 1058	 1492558379	 815017237	 161490.
23:32:59 1058 1059	 1492558379	 980825776	 165809.
23:33:00 1059 1060	 1492558380	 113670761	 132844.
23:33:00 1060 1061	 1492558380	 275058946	 161389.
23:33:00 1061 1062	 1492558380	 440550939	 165492.
23:33:00 1062 1063	 1492558380	 602269426	 161718.
23:33:00 1063 1064	 1492558380	 763730522	 161461.
23:33:00 1064 1065	 1492558380	 925576918	 161847.
23:33:01 1065 1066	 1492558381	 91054643	 165477.
23:33:01 1066 1067	 1492558381	 252777051	 161723.
23:33:01 1067 1068	 1492558381	 385821815	 133045.
23:33:01 1068 1069	 1492558381	 547475972	 161654.
23:33:01 1069 1070	 1492558381	 713006951	 165531.
23:33:01 1070 1071	 1492558381	 874452698	 161445.
23:33:02 1071 1072	 1492558382	 32715569	 158263.
23:33:02 1072 1073	 1492558382	 198480082	 165765.
23:33:02 1073 1074	 1492558382	 360168949	 161689.
23:33:02 1074 1075	 1492558382	 525747397	 165578.
23:33:02 1075 1076	 1492558382	 680052434	 154305.
23:33:02 1076 1077	 1492558382	 817093370	 137041.
23:33:02 1077 1078	 1492558382	 978577040	 161484.
23:33:03 1078 1079	 1492558383	 139996483	 161419.
23:33:03 1079 1080	 1492558383	 305597829	 165602.
23:33:03 1080 1081	 1492558383	 467004876	 161407.
23:33:03 1081 1082	 1492558383	 632513372	 165508.
23:33:03 1082 1083	 1492558383	 765400397	 132887.
23:33:03 1083 1084	 1492558383	 926683390	 161283.
23:33:04 1084 1085	 1492558384	 92313541	 165630.
23:33:04 1085 1086	 1492558384	 253772903	 161460.
23:33:04 1086 1087	 1492558384	 415121046	 161348.
23:33:04 1087 1088	 1492558384	 551917394	 136796.
23:33:04 1088 1089	 1492558384	 713433849	 161517.
23:33:04 1089 1090	 1492558384	 874835930	 161402.
23:33:05 1090 1091	 1492558385	 40268594	 165432.
23:33:05 1091 1092	 1492558385	 201733554	 161465.
23:33:05 1092 1093	 1492558385	 363204000	 161471.
23:33:05 1093 1094	 1492558385	 528896657	 165692.
23:33:05 1094 1095	 1492558385	 661956396	 133060.
23:33:05 1095 1096	 1492558385	 823246478	 161290.
23:33:05 1096 1097	 1492558385	 984602405	 161356.
23:33:06 1097 1098	 1492558386	 150012890	 165411.
23:33:06 1098 1099	 1492558386	 311102412	 161089.
23:33:06 1099 1100	 1492558386	 447859533	 136757.
23:33:06 1100 1101	 1492558386	 608694923	 160836.
23:33:06 1101 1102	 1492558386	 770008364	 161313.
23:33:06 1102 1103	 1492558386	 931526163	 161518.
23:33:07 1103 1104	 1492558387	 68327829	 136801.
23:33:07 1104 1105	 1492558387	 229647943	 161321.
23:33:07 1105 1106	 1492558387	 392169006	 162521.
23:33:07 1106 1107	 1492558387	 557560906	 165392.
23:33:07 1107 1108	 1492558387	 718657332	 161096.
23:33:07 1108 1109	 1492558387	 851147472	 132490.
23:33:08 1109 1110	 1492558388	 16194114	 165047.
23:33:08 1110 1111	 1492558388	 178133841	 161940.
23:33:08 1111 1112	 1492558388	 339444205	 161310.
23:33:08 1112 1113	 1492558388	 504663106	 165219.
23:33:08 1113 1114	 1492558388	 637409050	 132746.
23:33:08 1114 1115	 1492558388	 798510063	 161101.
23:33:08 1115 1116	 1492558388	 963930072	 165420.
23:33:09 1116 1117	 1492558389	 158626957	 194697.
23:33:09 1117 1118	 1492558389	 323533426	 164906.
23:33:09 1118 1119	 1492558389	 457039264	 133506.
23:33:09 1119 1120	 1492558389	 618471558	 161432.
23:33:09 1120 1121	 1492558389	 780390589	 161919.
23:33:09 1121 1122	 1492558389	 945832548	 165442.
23:33:10 1122 1123	 1492558390	 107080317	 161248.
23:33:10 1123 1124	 1492558390	 268938307	 161858.
23:33:10 1124 1125	 1492558390	 405997721	 137059.
23:33:10 1125 1126	 1492558390	 567153970	 161157.
23:33:10 1126 1127	 1492558390	 728537039	 161383.
23:33:10 1127 1128	 1492558390	 894059896	 165523.
23:33:11 1128 1129	 1492558391	 55315580	 161255.
23:33:11 1129 1130	 1492558391	 217059758	 161744.
23:33:11 1130 1131	 1492558391	 349705499	 132646.
23:33:11 1131 1132	 1492558391	 511666633	 161961.
23:33:11 1132 1133	 1492558391	 672832729	 161166.
23:33:11 1133 1134	 1492558391	 834167476	 161335.
23:33:11 1134 1135	 1492558391	 999642826	 165476.
23:33:12 1135 1136	 1492558392	 132081255	 132438.
23:33:12 1136 1137	 1492558392	 297281633	 165200.
23:33:12 1137 1138	 1492558392	 458746490	 161465.
23:33:12 1138 1139	 1492558392	 620127797	 161381.
23:33:12 1139 1140	 1492558392	 757075157	 136948.
23:33:12 1140 1141	 1492558392	 918932923	 161858.
23:33:13 1141 1142	 1492558393	 80164124	 161231.
23:33:13 1142 1143	 1492558393	 245516055	 165352.
23:33:13 1143 1144	 1492558393	 377866334	 132350.
23:33:13 1144 1145	 1492558393	 542673763	 164807.
23:33:13 1145 1146	 1492558393	 704203162	 161530.
23:33:13 1146 1147	 1492558393	 865435111	 161232.
23:33:13 1147 1148	 1492558394	 2145955	 136711.
23:33:14 1148 1149	 1492558394	 163490774	 161344.
23:33:14 1149 1150	 1492558394	 324615224	 161125.
23:33:14 1150 1151	 1492558394	 490142263	 165527.
23:33:14 1151 1152	 1492558394	 622909082	 132767.
23:33:14 1152 1153	 1492558394	 787822722	 164913.
23:33:14 1153 1154	 1492558394	 949010087	 161188.
23:33:15 1154 1155	 1492558395	 109989207	 160979.
23:33:15 1155 1156	 1492558395	 247144174	 137155.
23:33:15 1156 1157	 1492558395	 408368614	 161224.
23:33:15 1157 1158	 1492558395	 569503603	 161135.
23:33:15 1158 1159	 1492558395	 731325123	 161822.
23:33:15 1159 1160	 1492558395	 896723381	 165398.
23:33:16 1160 1161	 1492558396	 29504222	 132781.
23:33:16 1161 1162	 1492558396	 194450596	 164946.
23:33:16 1162 1163	 1492558396	 355679507	 161229.
23:33:16 1163 1164	 1492558396	 516894688	 161215.
23:33:16 1164 1165	 1492558396	 653612261	 136718.
23:33:16 1165 1166	 1492558396	 814783775	 161171.
23:33:16 1166 1167	 1492558396	 976398554	 161615.
23:33:17 1167 1168	 1492558397	 142073799	 165675.
23:33:17 1168 1169	 1492558397	 303327552	 161254.
23:33:17 1169 1170	 1492558397	 436126194	 132799.
23:33:17 1170 1171	 1492558397	 597827838	 161702.
23:33:17 1171 1172	 1492558397	 763305483	 165477.
23:33:17 1172 1173	 1492558397	 924913010	 161608.
23:33:18 1173 1174	 1492558398	 87120754	 162207.
23:33:18 1174 1175	 1492558398	 244240230	 157120.
23:33:18 1175 1176	 1492558398	 381542873	 137303.
23:33:18 1176 1177	 1492558398	 542771370	 161228.
23:33:18 1177 1178	 1492558398	 704181466	 161410.
23:33:18 1178 1179	 1492558398	 869723352	 165542.
23:33:18 1179 1180	 1492558399	 2238840	 132527.
23:33:19 1180 1181	 1492558399	 167738790	 165488.
23:33:19 1181 1182	 1492558399	 328675744	 160937.
23:33:19 1182 1183	 1492558399	 489970949	 161296.
23:33:19 1183 1184	 1492558399	 655562858	 165592.
23:33:19 1184 1185	 1492558399	 788228734	 132665.
23:33:19 1185 1186	 1492558399	 949395129	 161167.
23:33:20 1186 1187	 1492558400	 114870446	 165475.
23:33:20 1187 1188	 1492558400	 276018657	 161148.
23:33:20 1188 1189	 1492558400	 412745639	 136727.
23:33:20 1189 1190	 1492558400	 574095849	 161351.
23:33:20 1190 1191	 1492558400	 734946463	 160850.
23:33:20 1191 1192	 1492558400	 896280847	 161335.
23:33:21 1192 1193	 1492558401	 33581038	 137300.
23:33:21 1193 1194	 1492558401	 194988943	 161408.
23:33:21 1194 1195	 1492558401	 359932295	 164943.
23:33:21 1195 1196	 1492558401	 492613315	 132681.
23:33:21 1196 1197	 1492558401	 653643092	 161030.
23:33:21 1197 1198	 1492558401	 818978138	 165335.
23:33:21 1198 1199	 1492558401	 979792993	 160815.
23:33:22 1199 1200	 1492558402	 112224837	 132432.
23:33:22 1200 1201	 1492558402	 277414121	 165189.
23:33:22 1201 1202	 1492558402	 438402380	 160988.
23:33:22 1202 1203	 1492558402	 575683184	 137281.
23:33:22 1203 1204	 1492558402	 736908648	 161225.
23:33:22 1204 1205	 1492558402	 897696514	 160788.
23:33:23 1205 1206	 1492558403	 63182344	 165486.
23:33:23 1206 1207	 1492558403	 195601079	 132419.
23:33:23 1207 1208	 1492558403	 360794194	 165193.
23:33:23 1208 1209	 1492558403	 522744324	 161950.
23:33:23 1209 1210	 1492558403	 683878150	 161134.
23:33:23 1210 1211	 1492558403	 816598438	 132720.
23:33:23 1211 1212	 1492558403	 981943501	 165345.
23:33:24 1212 1213	 1492558404	 142885214	 160942.
23:33:24 1213 1214	 1492558404	 308414573	 165529.
23:33:24 1214 1215	 1492558404	 440939418	 132525.
23:33:24 1215 1216	 1492558404	 602627937	 161689.
23:33:24 1216 1217	 1492558404	 764566212	 161938.
23:33:24 1217 1218	 1492558404	 929972575	 165406.
23:33:25 1218 1219	 1492558405	 91586345	 161614.
23:33:25 1219 1220	 1492558405	 257146501	 165560.
23:33:25 1220 1221	 1492558405	 389700891	 132555.
23:33:25 1221 1222	 1492558405	 555738646	 166037.
23:33:25 1222 1223	 1492558405	 716651527	 160913.
23:33:25 1223 1224	 1492558405	 877725177	 161074.
23:33:26 1224 1225	 1492558406	 15047975	 137323.
23:33:26 1225 1226	 1492558406	 176028210	 160980.
23:33:26 1226 1227	 1492558406	 337066902	 161039.
23:33:26 1227 1228	 1492558406	 473578445	 136511.
23:33:26 1228 1229	 1492558406	 634635177	 161057.
23:33:26 1229 1230	 1492558406	 796051611	 161416.
23:33:26 1230 1231	 1492558406	 961328399	 165277.
23:33:27 1231 1232	 1492558407	 93848719	 132520.
23:33:27 1232 1233	 1492558407	 259353357	 165505.
23:33:27 1233 1234	 1492558407	 420811520	 161458.
23:33:27 1234 1235	 1492558407	 582107431	 161296.
23:33:27 1235 1236	 1492558407	 743394083	 161287.
23:33:27 1236 1237	 1492558407	 879749854	 136356.
23:33:28 1237 1238	 1492558408	 41007111	 161257.
23:33:28 1238 1239	 1492558408	 202821184	 161814.
23:33:28 1239 1240	 1492558408	 368235401	 165414.
23:33:28 1240 1241	 1492558408	 529286097	 161051.
23:33:28 1241 1242	 1492558408	 662268418	 132982.
23:33:28 1242 1243	 1492558408	 827153519	 164885.
23:33:28 1243 1244	 1492558408	 989169426	 162016.
23:33:29 1244 1245	 1492558409	 146397262	 157228.
23:33:29 1245 1246	 1492558409	 282914530	 136517.
23:33:29 1246 1247	 1492558409	 444331821	 161418.
23:33:29 1247 1248	 1492558409	 605682601	 161350.
23:33:29 1248 1249	 1492558409	 770513973	 164832.
23:33:29 1249 1250	 1492558409	 903235253	 132721.
23:33:30 1250 1251	 1492558410	 68468887	 165234.
23:33:30 1251 1252	 1492558410	 229720784	 161251.
23:33:30 1252 1253	 1492558410	 391140258	 161420.
23:33:30 1253 1254	 1492558410	 523924426	 132784.
23:33:30 1254 1255	 1492558410	 689044423	 165120.
23:33:30 1255 1256	 1492558410	 850407456	 161363.
23:33:31 1256 1257	 1492558411	 15610029	 165203.
23:33:31 1257 1258	 1492558411	 148246148	 132636.
23:33:31 1258 1259	 1492558411	 310090029	 161844.
23:33:31 1259 1260	 1492558411	 471505499	 161415.
23:33:31 1260 1261	 1492558411	 636972652	 165467.
23:33:31 1261 1262	 1492558411	 770231575	 133259.
23:33:31 1262 1263	 1492558411	 935518215	 165287.
23:33:32 1263 1264	 1492558412	 97035592	 161517.
23:33:32 1264 1265	 1492558412	 263048386	 166013.
23:33:32 1265 1266	 1492558412	 424685140	 161637.
23:33:32 1266 1267	 1492558412	 586764612	 162079.
23:33:32 1267 1268	 1492558412	 752901537	 166137.
23:33:32 1268 1269	 1492558412	 914777595	 161876.
23:33:33 1269 1270	 1492558413	 80532146	 165755.
23:33:33 1270 1271	 1492558413	 213622073	 133090.
23:33:33 1271 1272	 1492558413	 379607100	 165985.
23:33:33 1272 1273	 1492558413	 572607678	 193000.
23:33:33 1273 1274	 1492558413	 709617884	 137011.
23:33:33 1274 1275	 1492558413	 871504661	 161886.
23:33:34 1275 1276	 1492558414	 37100434	 165596.
23:33:34 1276 1277	 1492558414	 198659400	 161559.
23:33:34 1277 1278	 1492558414	 331974915	 133316.
23:33:34 1278 1279	 1492558414	 497277613	 165302.
23:33:34 1279 1280	 1492558414	 658710567	 161433.
23:33:34 1280 1281	 1492558414	 824530203	 165820.
23:33:34 1281 1282	 1492558414	 957249360	 132719.
23:33:35 1282 1283	 1492558415	 122890494	 165641.
23:33:35 1283 1284	 1492558415	 284288470	 161398.
23:33:35 1284 1285	 1492558415	 421328469	 137040.
23:33:35 1285 1286	 1492558415	 575243943	 153916.
23:33:35 1286 1287	 1492558415	 741270401	 166026.
23:33:35 1287 1288	 1492558415	 902899487	 161629.
23:33:36 1288 1289	 1492558416	 68825993	 165927.
23:33:36 1289 1290	 1492558416	 201579486	 132753.
23:33:36 1290 1291	 1492558416	 367101328	 165522.
23:33:36 1291 1292	 1492558416	 528395095	 161294.
23:33:36 1292 1293	 1492558416	 665288001	 136893.
23:33:36 1293 1294	 1492558416	 827100853	 161813.
23:33:36 1294 1295	 1492558416	 989202105	 162101.
23:33:37 1295 1296	 1492558417	 154965817	 165764.
23:33:37 1296 1297	 1492558417	 317063361	 162097.
23:33:37 1297 1298	 1492558417	 450150926	 133088.
23:33:37 1298 1299	 1492558417	 615721710	 165570.
23:33:37 1299 1300	 1492558417	 777073090	 161352.
23:33:37 1300 1301	 1492558417	 913965266	 136892.
23:33:38 1301 1302	 1492558418	 76226240	 162261.
23:33:38 1302 1303	 1492558418	 241897971	 165672.
23:33:38 1303 1304	 1492558418	 403927137	 162029.
23:33:38 1304 1305	 1492558418	 569625468	 165698.
23:33:38 1305 1306	 1492558418	 702313501	 132688.
23:33:38 1306 1307	 1492558418	 868164249	 165851.
23:33:39 1307 1308	 1492558419	 29782363	 161618.
23:33:39 1308 1309	 1492558419	 195617178	 165835.
23:33:39 1309 1310	 1492558419	 328411804	 132794.
23:33:39 1310 1311	 1492558419	 494201090	 165790.
23:33:39 1311 1312	 1492558419	 655617948	 161417.
23:33:39 1312 1313	 1492558419	 817681390	 162063.
23:33:39 1313 1314	 1492558419	 954699760	 137018.
23:33:40 1314 1315	 1492558420	 141597313	 186898.
23:33:40 1315 1316	 1492558420	 278902681	 137305.
23:33:40 1316 1317	 1492558420	 441141000	 162239.
23:33:40 1317 1318	 1492558420	 602891222	 161750.
23:33:40 1318 1319	 1492558420	 764528203	 161637.
23:33:40 1319 1320	 1492558420	 926378948	 161851.
23:33:41 1320 1321	 1492558421	 92351143	 165972.
23:33:41 1321 1322	 1492558421	 253903502	 161552.
23:33:41 1322 1323	 1492558421	 415669187	 161766.
23:33:41 1323 1324	 1492558421	 581716306	 166047.
23:33:41 1324 1325	 1492558421	 743415047	 161699.
23:33:41 1325 1326	 1492558421	 905180016	 161765.
23:33:42 1326 1327	 1492558422	 70910546	 165730.
23:33:42 1327 1328	 1492558422	 203703132	 132793.
23:33:42 1328 1329	 1492558422	 369554565	 165851.
23:33:42 1329 1330	 1492558422	 531032866	 161479.
23:33:42 1330 1331	 1492558422	 692744251	 161711.
23:33:42 1331 1332	 1492558422	 854257407	 161513.
23:33:43 1332 1333	 1492558423	 20187109	 165930.
23:33:43 1333 1334	 1492558423	 153050359	 132863.
23:33:43 1334 1335	 1492558423	 319033371	 165983.
23:33:43 1335 1336	 1492558423	 480782256	 161749.
23:33:43 1336 1337	 1492558423	 646694802	 165912.
23:33:43 1337 1338	 1492558423	 808497124	 161803.
23:33:43 1338 1339	 1492558423	 945520230	 137023.
23:33:44 1339 1340	 1492558424	 107367661	 161847.
23:33:44 1340 1341	 1492558424	 273049504	 165682.
23:33:44 1341 1342	 1492558424	 434421577	 161372.
23:33:44 1342 1343	 1492558424	 596065385	 161644.
23:33:44 1343 1344	 1492558424	 733124268	 137059.
23:33:44 1344 1345	 1492558424	 894340151	 161216.
23:33:45 1345 1346	 1492558425	 59933608	 165593.
23:33:45 1346 1347	 1492558425	 221404059	 161471.
23:33:45 1347 1348	 1492558425	 354410910	 133007.
23:33:45 1348 1349	 1492558425	 519987383	 165576.
23:33:45 1349 1350	 1492558425	 681429500	 161442.
23:33:45 1350 1351	 1492558425	 847120231	 165691.
23:33:45 1351 1352	 1492558425	 979758492	 132638.
23:33:46 1352 1353	 1492558426	 141553427	 161795.
23:33:46 1353 1354	 1492558426	 307235432	 165682.
23:33:46 1354 1355	 1492558426	 468664211	 161429.
23:33:46 1355 1356	 1492558426	 634244420	 165580.
23:33:46 1356 1357	 1492558426	 796185761	 161941.
23:33:46 1357 1358	 1492558426	 933233402	 137048.
23:33:47 1358 1359	 1492558427	 94381255	 161148.
23:33:47 1359 1360	 1492558427	 255822862	 161442.
23:33:47 1360 1361	 1492558427	 421926830	 166104.
23:33:47 1361 1362	 1492558427	 584041215	 162114.
23:33:47 1362 1363	 1492558427	 750101671	 166060.
23:33:47 1363 1364	 1492558427	 883448593	 133347.
23:33:48 1364 1365	 1492558428	 49381480	 165933.
23:33:48 1365 1366	 1492558428	 211360939	 161980.
23:33:48 1366 1367	 1492558428	 373448970	 162088.
23:33:48 1367 1368	 1492558428	 539534866	 166086.
23:33:48 1368 1369	 1492558428	 701255975	 161721.
23:33:48 1369 1370	 1492558428	 834165684	 132909.
23:33:48 1370 1371	 1492558428	 999675398	 165510.
23:33:49 1371 1372	 1492558429	 161014895	 161340.
23:33:49 1372 1373	 1492558429	 326691944	 165677.
23:33:49 1373 1374	 1492558429	 488129644	 161437.
23:33:49 1374 1375	 1492558429	 621087749	 132958.
23:33:49 1375 1376	 1492558429	 782597704	 161510.
23:33:49 1376 1377	 1492558429	 948151456	 165554.
23:33:50 1377 1378	 1492558430	 109829194	 161678.
23:33:50 1378 1379	 1492558430	 275342563	 165513.
23:33:50 1379 1380	 1492558430	 437259484	 161917.
23:33:50 1380 1381	 1492558430	 570294815	 133036.
23:33:50 1381 1382	 1492558430	 735844113	 165549.
23:33:50 1382 1383	 1492558430	 897363679	 161519.
23:33:51 1383 1384	 1492558431	 62779631	 165416.
23:33:51 1384 1385	 1492558431	 224472675	 161693.
23:33:51 1385 1386	 1492558431	 357473433	 133001.
23:33:51 1386 1387	 1492558431	 523328640	 165855.
23:33:51 1387 1388	 1492558431	 684707223	 161379.
23:33:51 1388 1389	 1492558431	 846070902	 161364.
23:33:52 1389 1390	 1492558432	 7860342	 161789.
23:33:52 1390 1391	 1492558432	 169315036	 161455.
23:33:52 1391 1392	 1492558432	 302211682	 132896.
23:33:52 1392 1393	 1492558432	 467995807	 165785.
23:33:52 1393 1394	 1492558432	 629343944	 161348.
23:33:52 1394 1395	 1492558432	 790974496	 161630.
23:33:52 1395 1396	 1492558432	 956644896	 165671.
23:33:53 1396 1397	 1492558433	 114498307	 157853.
23:33:53 1397 1398	 1492558433	 280077195	 165579.
23:33:53 1398 1399	 1492558433	 441672347	 161595.
23:33:53 1399 1400	 1492558433	 574557479	 132885.
23:33:53 1400 1401	 1492558433	 740164804	 165607.
23:33:53 1401 1402	 1492558433	 901771139	 161607.
23:33:54 1402 1403	 1492558434	 67289403	 165518.
23:33:54 1403 1404	 1492558434	 228933772	 161644.
23:33:54 1404 1405	 1492558434	 361723948	 132791.
23:33:54 1405 1406	 1492558434	 527434903	 165711.
23:33:54 1406 1407	 1492558434	 688893739	 161458.
23:33:54 1407 1408	 1492558434	 850815519	 161922.
23:33:55 1408 1409	 1492558435	 16894306	 166079.
23:33:55 1409 1410	 1492558435	 178777384	 161883.
23:33:55 1410 1411	 1492558435	 315792607	 137015.
23:33:55 1411 1412	 1492558435	 477521321	 161729.
23:33:55 1412 1413	 1492558435	 674171146	 196650.
23:33:55 1413 1414	 1492558435	 836013239	 161842.
23:33:55 1414 1415	 1492558435	 968954020	 132941.
23:33:56 1415 1416	 1492558436	 134981586	 166027.
23:33:56 1416 1417	 1492558436	 301433383	 166452.
23:33:56 1417 1418	 1492558436	 462829136	 161396.
23:33:56 1418 1419	 1492558436	 624465247	 161636.
23:33:56 1419 1420	 1492558436	 757261362	 132796.
23:33:56 1420 1421	 1492558436	 923517619	 166256.
23:33:57 1421 1422	 1492558437	 81432510	 157915.
23:33:57 1422 1423	 1492558437	 242833301	 161401.
23:33:57 1423 1424	 1492558437	 408763467	 165930.
23:33:57 1424 1425	 1492558437	 570635141	 161872.
23:33:57 1425 1426	 1492558437	 707325364	 136690.
23:33:57 1426 1427	 1492558437	 868729793	 161404.
23:33:58 1427 1428	 1492558438	 34329908	 165601.
23:33:58 1428 1429	 1492558438	 167257426	 132927.
23:33:58 1429 1430	 1492558438	 328495425	 161238.
23:33:58 1430 1431	 1492558438	 494427558	 165932.
23:33:58 1431 1432	 1492558438	 656066067	 161639.
23:33:58 1432 1433	 1492558438	 821803090	 165737.
23:33:58 1433 1434	 1492558438	 954863418	 133060.
23:33:59 1434 1435	 1492558439	 120736594	 165873.
23:33:59 1435 1436	 1492558439	 312544321	 191808.
23:33:59 1436 1437	 1492558439	 474806699	 162262.
23:33:59 1437 1438	 1492558439	 607632638	 132826.
23:33:59 1438 1439	 1492558439	 769591314	 161959.
23:33:59 1439 1440	 1492558439	 935491021	 165900.
23:34:00 1440 1441	 1492558440	 97480930	 161990.
23:34:00 1441 1442	 1492558440	 262984745	 165503.
23:34:00 1442 1443	 1492558440	 424839351	 161855.
23:34:00 1443 1444	 1492558440	 557895776	 133056.
23:34:00 1444 1445	 1492558440	 723624932	 165730.
23:34:00 1445 1446	 1492558440	 884693689	 161068.
23:34:01 1446 1447	 1492558441	 50063810	 165371.
23:34:01 1447 1448	 1492558441	 211523744	 161459.
23:34:01 1448 1449	 1492558441	 344297261	 132774.
23:34:01 1449 1450	 1492558441	 510073944	 165777.
23:34:01 1450 1451	 1492558441	 671492105	 161418.
23:34:01 1451 1452	 1492558441	 832710666	 161218.
23:34:01 1452 1453	 1492558441	 998480208	 165770.
23:34:02 1453 1454	 1492558442	 160287502	 161807.
23:34:02 1454 1455	 1492558442	 293402025	 133115.
23:34:02 1455 1456	 1492558442	 459201113	 165799.
23:34:02 1456 1457	 1492558442	 620895563	 161694.
23:34:02 1457 1458	 1492558442	 782367267	 161472.
23:34:02 1458 1459	 1492558442	 948218804	 165852.
23:34:03 1459 1460	 1492558443	 109587516	 161368.
23:34:03 1460 1461	 1492558443	 275536168	 165949.
23:34:03 1461 1462	 1492558443	 437107468	 161571.
23:34:03 1462 1463	 1492558443	 570090986	 132984.
23:34:03 1463 1464	 1492558443	 735767832	 165676.
23:34:03 1464 1465	 1492558443	 897040036	 161273.
23:34:04 1465 1466	 1492558444	 62377679	 165337.
23:34:04 1466 1467	 1492558444	 223634282	 161257.
23:34:04 1467 1468	 1492558444	 356181714	 132547.
23:34:04 1468 1469	 1492558444	 517569962	 161389.
23:34:04 1469 1470	 1492558444	 682827034	 165257.
23:34:04 1470 1471	 1492558444	 844029257	 161202.
23:34:04 1471 1472	 1492558444	 980821117	 136792.
23:34:05 1472 1473	 1492558445	 142117933	 161297.
23:34:05 1473 1474	 1492558445	 303430566	 161312.
23:34:05 1474 1475	 1492558445	 464658547	 161228.
23:34:05 1475 1476	 1492558445	 629989553	 165331.
23:34:05 1476 1477	 1492558445	 791656506	 161667.
23:34:05 1477 1478	 1492558445	 924458984	 132803.
23:34:06 1478 1479	 1492558446	 90002336	 165543.
23:34:06 1479 1480	 1492558446	 251667704	 161665.
23:34:06 1480 1481	 1492558446	 417628144	 165961.
23:34:06 1481 1482	 1492558446	 579440440	 161812.
23:34:06 1482 1483	 1492558446	 741278951	 161839.
23:34:06 1483 1484	 1492558446	 907040165	 165761.
23:34:07 1484 1485	 1492558447	 68694110	 161654.
23:34:07 1485 1486	 1492558447	 206417492	 137723.
23:34:07 1486 1487	 1492558447	 368903853	 162487.
23:34:07 1487 1488	 1492558447	 531196439	 162292.
23:34:07 1488 1489	 1492558447	 697351580	 166155.
23:34:07 1489 1490	 1492558447	 859576408	 162225.
23:34:08 1490 1491	 1492558448	 25662081	 166086.
23:34:08 1491 1492	 1492558448	 198279445	 172617.
23:34:08 1492 1493	 1492558448	 335718647	 137439.
23:34:08 1493 1494	 1492558448	 498063835	 162346.
23:34:08 1494 1495	 1492558448	 664498687	 166434.
23:34:08 1495 1496	 1492558448	 826541508	 162043.
23:34:08 1496 1497	 1492558448	 992776223	 166235.
23:34:09 1497 1498	 1492558449	 155099236	 162323.
23:34:09 1498 1499	 1492558449	 321339519	 166240.
23:34:09 1499 1500	 1492558449	 483326508	 161987.
23:34:09 1500 1501	 1492558449	 620909867	 137584.
23:34:09 1501 1502	 1492558449	 783480005	 162570.
23:34:09 1502 1503	 1492558449	 949918354	 166438.
23:34:10 1503 1504	 1492558450	 112228642	 162310.
23:34:10 1504 1505	 1492558450	 274414071	 162186.
23:34:10 1505 1506	 1492558450	 440624141	 166210.
23:34:10 1506 1507	 1492558450	 602668245	 162044.
23:34:10 1507 1508	 1492558450	 765218881	 162551.
23:34:10 1508 1509	 1492558450	 926899589	 161680.
23:34:11 1509 1510	 1492558451	 60137591	 133238.
23:34:11 1510 1511	 1492558451	 226083415	 165946.
23:34:11 1511 1512	 1492558451	 387794083	 161711.
23:34:11 1512 1513	 1492558451	 549544783	 161750.
23:34:11 1513 1514	 1492558451	 711367656	 161823.
23:34:11 1514 1515	 1492558451	 877160846	 165794.
23:34:12 1515 1516	 1492558452	 38728183	 161567.
23:34:12 1516 1517	 1492558452	 200557793	 161829.
23:34:12 1517 1518	 1492558452	 366267969	 165711.
23:34:12 1518 1519	 1492558452	 524268065	 158000.
23:34:12 1519 1520	 1492558452	 661300793	 137033.
23:34:12 1520 1521	 1492558452	 822950872	 161650.
23:34:12 1521 1522	 1492558452	 988837449	 165886.
23:34:13 1522 1523	 1492558453	 150598053	 161761.
23:34:13 1523 1524	 1492558453	 312569568	 161971.
23:34:13 1524 1525	 1492558453	 478137869	 165569.
23:34:13 1525 1526	 1492558453	 639880043	 161742.
23:34:13 1526 1527	 1492558453	 801342768	 161462.
23:34:13 1527 1528	 1492558453	 938248462	 136906.
23:34:14 1528 1529	 1492558454	 99713698	 161465.
23:34:14 1529 1530	 1492558454	 265515612	 165802.
23:34:14 1530 1531	 1492558454	 427453354	 161938.
23:34:14 1531 1532	 1492558454	 589599735	 162146.
23:34:14 1532 1533	 1492558454	 726673854	 137075.
23:34:14 1533 1534	 1492558454	 892733593	 166059.
23:34:15 1534 1535	 1492558455	 54255470	 161522.
23:34:15 1535 1536	 1492558455	 220399989	 166145.
23:34:15 1536 1537	 1492558455	 353347239	 132947.
23:34:15 1537 1538	 1492558455	 515045363	 161698.
23:34:15 1538 1539	 1492558455	 680574188	 165529.
23:34:15 1539 1540	 1492558455	 842500595	 161926.
23:34:15 1540 1541	 1492558455	 979543553	 137043.
23:34:16 1541 1542	 1492558456	 141251192	 161708.
23:34:16 1542 1543	 1492558456	 306899965	 165649.
23:34:16 1543 1544	 1492558456	 468932447	 162032.
23:34:16 1544 1545	 1492558456	 601908778	 132976.
23:34:16 1545 1546	 1492558456	 767879595	 165971.
23:34:16 1546 1547	 1492558456	 933843743	 165964.
23:34:17 1547 1548	 1492558457	 95588564	 161745.
23:34:17 1548 1549	 1492558457	 257433570	 161845.
23:34:17 1549 1550	 1492558457	 423473796	 166041.
23:34:17 1550 1551	 1492558457	 557009228	 133535.
23:34:17 1551 1552	 1492558457	 719400544	 162391.
23:34:17 1552 1553	 1492558457	 885294075	 165894.
23:34:18 1553 1554	 1492558458	 51043511	 165749.
23:34:18 1554 1555	 1492558458	 213122212	 162079.
23:34:18 1555 1556	 1492558458	 378977603	 165855.
23:34:18 1556 1557	 1492558458	 512428795	 133452.
23:34:18 1557 1558	 1492558458	 674403006	 161974.
23:34:18 1558 1559	 1492558458	 840564133	 166161.
23:34:18 1559 1560	 1492558459	 2811878	 162248.
23:34:19 1560 1561	 1492558459	 168816214	 166004.
23:34:19 1561 1562	 1492558459	 331034537	 162218.
23:34:19 1562 1563	 1492558459	 468337952	 137304.
23:34:19 1563 1564	 1492558459	 630256665	 161918.
23:34:19 1564 1565	 1492558459	 796013741	 165757.
23:34:19 1565 1566	 1492558459	 957700454	 161687.
23:34:20 1566 1567	 1492558460	 123592305	 165892.
23:34:20 1567 1568	 1492558460	 256634218	 133042.
23:34:20 1568 1569	 1492558460	 422487568	 165853.
23:34:20 1569 1570	 1492558460	 584233280	 161746.
23:34:20 1570 1571	 1492558460	 750423817	 166191.
23:34:20 1571 1572	 1492558460	 883254080	 132830.
23:34:21 1572 1573	 1492558461	 49481517	 166227.
23:34:21 1573 1574	 1492558461	 210882855	 161402.
23:34:21 1574 1575	 1492558461	 376680556	 165797.
23:34:21 1575 1576	 1492558461	 509553152	 132873.
23:34:21 1576 1577	 1492558461	 671184000	 161631.
23:34:21 1577 1578	 1492558461	 836668904	 165485.
23:34:21 1578 1579	 1492558461	 998535666	 161866.
23:34:22 1579 1580	 1492558462	 135676388	 137141.
23:34:22 1580 1581	 1492558462	 297511158	 161835.
23:34:22 1581 1582	 1492558462	 463045917	 165535.
23:34:22 1582 1583	 1492558462	 624898354	 161852.
23:34:22 1583 1584	 1492558462	 786569134	 161671.
23:34:22 1584 1585	 1492558462	 923707306	 137138.
23:34:23 1585 1586	 1492558463	 85296276	 161589.
23:34:23 1586 1587	 1492558463	 251058746	 165762.
23:34:23 1587 1588	 1492558463	 412900528	 161842.
23:34:23 1588 1589	 1492558463	 550049967	 137150.
23:34:23 1589 1590	 1492558463	 711946867	 161897.
23:34:23 1590 1591	 1492558463	 878065418	 166118.
23:34:24 1591 1592	 1492558464	 39875064	 161810.
23:34:24 1592 1593	 1492558464	 201602028	 161727.
23:34:24 1593 1594	 1492558464	 338772960	 137171.
23:34:24 1594 1595	 1492558464	 500308849	 161536.
23:34:24 1595 1596	 1492558464	 666027217	 165718.
23:34:24 1596 1597	 1492558464	 827449708	 161422.
23:34:24 1597 1598	 1492558464	 989812666	 162363.
23:34:25 1598 1599	 1492558465	 122992823	 133181.
23:34:25 1599 1600	 1492558465	 288793418	 165800.
23:34:25 1600 1601	 1492558465	 450351028	 161558.
23:34:25 1601 1602	 1492558465	 616320547	 165969.
23:34:25 1602 1603	 1492558465	 749755217	 133435.
23:34:25 1603 1604	 1492558465	 911264251	 161509.
23:34:26 1604 1605	 1492558466	 77389102	 166125.
23:34:26 1605 1606	 1492558466	 239270892	 161882.
23:34:26 1606 1607	 1492558466	 405128461	 165857.
23:34:26 1607 1608	 1492558466	 537796416	 132668.
23:34:26 1608 1609	 1492558466	 699125181	 161329.
23:34:26 1609 1610	 1492558466	 864636201	 165511.
23:34:27 1610 1611	 1492558467	 26541523	 161905.
23:34:27 1611 1612	 1492558467	 163040307	 136499.
23:34:27 1612 1613	 1492558467	 324340172	 161300.
23:34:27 1613 1614	 1492558467	 490158468	 165818.
23:34:27 1614 1615	 1492558467	 622910140	 132752.
23:34:27 1615 1616	 1492558467	 788197888	 165288.
23:34:27 1616 1617	 1492558467	 949445945	 161248.
23:34:28 1617 1618	 1492558468	 82449213	 133003.
23:34:28 1618 1619	 1492558468	 248599353	 166150.
23:34:28 1619 1620	 1492558468	 410038080	 161439.
23:34:28 1620 1621	 1492558468	 576074295	 166036.
23:34:28 1621 1622	 1492558468	 737643429	 161569.
23:34:28 1622 1623	 1492558468	 874852302	 137209.
23:34:29 1623 1624	 1492558469	 36706771	 161854.
23:34:29 1624 1625	 1492558469	 202520530	 165814.
23:34:29 1625 1626	 1492558469	 364020597	 161500.
23:34:29 1626 1627	 1492558469	 500704498	 136684.
23:34:29 1627 1628	 1492558469	 662640025	 161936.
23:34:29 1628 1629	 1492558469	 828244800	 165604.
23:34:29 1629 1630	 1492558469	 961315413	 133071.
23:34:30 1630 1631	 1492558470	 126978389	 165663.
23:34:30 1631 1632	 1492558470	 281666662	 154688.
23:34:30 1632 1633	 1492558470	 447153701	 165487.
23:34:30 1633 1634	 1492558470	 609059061	 161906.
23:34:30 1634 1635	 1492558470	 745756006	 136697.
23:34:30 1635 1636	 1492558470	 907175529	 161419.
23:34:31 1636 1637	 1492558471	 72649431	 165474.
23:34:31 1637 1638	 1492558471	 205585079	 132936.
23:34:31 1638 1639	 1492558471	 370757865	 165173.
23:34:31 1639 1640	 1492558471	 532717622	 161959.
23:34:31 1640 1641	 1492558471	 669699863	 136983.
23:34:31 1641 1642	 1492558471	 830669225	 160969.
23:34:31 1642 1643	 1492558471	 996550406	 165881.
23:34:32 1643 1644	 1492558472	 129245350	 132695.
23:34:32 1644 1645	 1492558472	 291056531	 161811.
23:34:32 1645 1646	 1492558472	 456743377	 165687.
23:34:32 1646 1647	 1492558472	 618876737	 162133.
23:34:32 1647 1648	 1492558472	 784769425	 165893.
23:34:32 1648 1649	 1492558472	 917736296	 132967.
23:34:33 1649 1650	 1492558473	 83309647	 165573.
23:34:33 1650 1651	 1492558473	 245151077	 161842.
23:34:33 1651 1652	 1492558473	 410904841	 165754.
23:34:33 1652 1653	 1492558473	 544113324	 133208.
23:34:33 1653 1654	 1492558473	 709675352	 165562.
23:34:33 1654 1655	 1492558473	 871782362	 162107.
23:34:34 1655 1656	 1492558474	 37473423	 165691.
23:34:34 1656 1657	 1492558474	 170213580	 132740.
23:34:34 1657 1658	 1492558474	 331750533	 161537.
23:34:34 1658 1659	 1492558474	 497511690	 165762.
23:34:34 1659 1660	 1492558474	 658950373	 161438.
23:34:34 1660 1661	 1492558474	 791890885	 132941.
23:34:34 1661 1662	 1492558474	 957812151	 165921.
23:34:35 1662 1663	 1492558475	 119371949	 161560.
23:34:35 1663 1664	 1492558475	 285263418	 165891.
23:34:35 1664 1665	 1492558475	 418121050	 132858.
23:34:35 1665 1666	 1492558475	 583649982	 165529.
23:34:35 1666 1667	 1492558475	 745363534	 161713.
23:34:35 1667 1668	 1492558475	 877976654	 132613.
23:34:36 1668 1669	 1492558476	 43737755	 165761.
23:34:36 1669 1670	 1492558476	 205534773	 161797.
23:34:36 1670 1671	 1492558476	 371189759	 165656.
23:34:36 1671 1672	 1492558476	 504495108	 133305.
23:34:36 1672 1673	 1492558476	 669586774	 165091.
23:34:36 1673 1674	 1492558476	 831339382	 161753.
23:34:36 1674 1675	 1492558476	 997067460	 165728.
23:34:37 1675 1676	 1492558477	 130033786	 132966.
23:34:37 1676 1677	 1492558477	 296168762	 166136.
23:34:37 1677 1678	 1492558477	 458245255	 162076.
23:34:37 1678 1679	 1492558477	 620271999	 162027.
23:34:37 1679 1680	 1492558477	 756963496	 136691.
23:34:37 1680 1681	 1492558477	 918474326	 161511.
23:34:38 1681 1682	 1492558478	 84462192	 165988.
23:34:38 1682 1683	 1492558478	 246401610	 161939.
23:34:38 1683 1684	 1492558478	 412275115	 165874.
23:34:38 1684 1685	 1492558478	 545768700	 133493.
23:34:38 1685 1686	 1492558478	 711624456	 165856.
23:34:38 1686 1687	 1492558478	 873378172	 161754.
23:34:39 1687 1688	 1492558479	 38886832	 165509.
23:34:39 1688 1689	 1492558479	 171729806	 132842.
23:34:39 1689 1690	 1492558479	 337249286	 165520.
23:34:39 1690 1691	 1492558479	 499354297	 162105.
23:34:39 1691 1692	 1492558479	 632190443	 132836.
23:34:39 1692 1693	 1492558479	 797762296	 165572.
23:34:39 1693 1694	 1492558479	 959604404	 161842.
23:34:40 1694 1695	 1492558480	 125504359	 165900.
23:34:40 1695 1696	 1492558480	 262494274	 136990.
23:34:40 1696 1697	 1492558480	 424137293	 161643.
23:34:40 1697 1698	 1492558480	 585840622	 161703.
23:34:40 1698 1699	 1492558480	 751730116	 165890.
23:34:40 1699 1700	 1492558480	 884575550	 132845.
23:34:41 1700 1701	 1492558481	 50224282	 165649.
23:34:41 1701 1702	 1492558481	 211860795	 161636.
23:34:41 1702 1703	 1492558481	 377831574	 165971.
23:34:41 1703 1704	 1492558481	 510847007	 133016.
23:34:41 1704 1705	 1492558481	 676355608	 165508.
23:34:41 1705 1706	 1492558481	 838049131	 161694.
23:34:42 1706 1707	 1492558482	 3308911	 165260.
23:34:42 1707 1708	 1492558482	 135933118	 132624.
23:34:42 1708 1709	 1492558482	 301307950	 165375.
23:34:42 1709 1710	 1492558482	 462829647	 161521.
23:34:42 1710 1711	 1492558482	 595698917	 132870.
23:34:42 1711 1712	 1492558482	 761283801	 165584.
23:34:42 1712 1713	 1492558482	 923275785	 161992.
23:34:43 1713 1714	 1492558483	 89094756	 165819.
23:34:43 1714 1715	 1492558483	 222093946	 133000.
23:34:43 1715 1716	 1492558483	 387722952	 165629.
23:34:43 1716 1717	 1492558483	 549450500	 161727.
23:34:43 1717 1718	 1492558483	 715117181	 165667.
23:34:43 1718 1719	 1492558483	 847611639	 132494.
23:34:44 1719 1720	 1492558484	 9332487	 161721.
23:34:44 1720 1721	 1492558484	 174766060	 165434.
23:34:44 1721 1722	 1492558484	 336407186	 161641.
23:34:44 1722 1723	 1492558484	 473626214	 137219.
23:34:44 1723 1724	 1492558484	 635112459	 161486.
23:34:44 1724 1725	 1492558484	 800936758	 165824.
23:34:44 1725 1726	 1492558484	 962679271	 161743.
23:34:45 1726 1727	 1492558485	 99851329	 137172.
23:34:45 1727 1728	 1492558485	 261238999	 161388.
23:34:45 1728 1729	 1492558485	 427320398	 166081.
23:34:45 1729 1730	 1492558485	 588893497	 161573.
23:34:45 1730 1731	 1492558485	 750397518	 161504.
23:34:45 1731 1732	 1492558485	 887098087	 136701.
23:34:46 1732 1733	 1492558486	 48919986	 161822.
23:34:46 1733 1734	 1492558486	 214672003	 165752.
23:34:46 1734 1735	 1492558486	 347640071	 132968.
23:34:46 1735 1736	 1492558486	 508886909	 161247.
23:34:46 1736 1737	 1492558486	 674352910	 165466.
23:34:46 1737 1738	 1492558486	 835656033	 161303.
23:34:46 1738 1739	 1492558486	 972717025	 137061.
23:34:47 1739 1740	 1492558487	 134598535	 161881.
23:34:47 1740 1741	 1492558487	 292343306	 157745.
23:34:47 1741 1742	 1492558487	 458185242	 165842.
23:34:47 1742 1743	 1492558487	 591646866	 133462.
23:34:47 1743 1744	 1492558487	 757159389	 165512.
23:34:47 1744 1745	 1492558487	 919177779	 162018.
23:34:48 1745 1746	 1492558488	 80801836	 161625.
23:34:48 1746 1747	 1492558488	 246619083	 165817.
23:34:48 1747 1748	 1492558488	 379875880	 133257.
23:34:48 1748 1749	 1492558488	 546312856	 166437.
23:34:48 1749 1750	 1492558488	 707903021	 161590.
23:34:48 1750 1751	 1492558488	 873523329	 165620.
23:34:49 1751 1752	 1492558489	 35131786	 161608.
23:34:49 1752 1753	 1492558489	 196337896	 161207.
23:34:49 1753 1754	 1492558489	 329280457	 132942.
23:34:49 1754 1755	 1492558489	 494892236	 165612.
23:34:49 1755 1756	 1492558489	 656430588	 161538.
23:34:49 1756 1757	 1492558489	 818051312	 161621.
23:34:49 1757 1758	 1492558489	 979496066	 161445.
23:34:50 1758 1759	 1492558490	 145152530	 165656.
23:34:50 1759 1760	 1492558490	 307085287	 161933.
23:34:50 1760 1761	 1492558490	 444186798	 137102.
23:34:50 1761 1762	 1492558490	 605775644	 161588.
23:34:50 1762 1763	 1492558490	 767128213	 161353.
23:34:50 1763 1764	 1492558490	 932777834	 165650.
23:34:51 1764 1765	 1492558491	 95029285	 162251.
23:34:51 1765 1766	 1492558491	 227727819	 132699.
23:34:51 1766 1767	 1492558491	 393204115	 165476.
23:34:51 1767 1768	 1492558491	 555103189	 161899.
23:34:51 1768 1769	 1492558491	 720619335	 165516.
23:34:51 1769 1770	 1492558491	 853449413	 132830.
23:34:52 1770 1771	 1492558492	 19244053	 165795.
23:34:52 1771 1772	 1492558492	 181018183	 161774.
23:34:52 1772 1773	 1492558492	 346865489	 165847.
23:34:52 1773 1774	 1492558492	 508658675	 161793.
23:34:52 1774 1775	 1492558492	 641851359	 133193.
23:34:52 1775 1776	 1492558492	 807485157	 165634.
23:34:52 1776 1777	 1492558492	 968996971	 161512.
23:34:53 1777 1778	 1492558493	 134299338	 165302.
23:34:53 1778 1779	 1492558493	 267126705	 132827.
23:34:53 1779 1780	 1492558493	 428799208	 161673.
23:34:53 1780 1781	 1492558493	 594699709	 165900.
23:34:53 1781 1782	 1492558493	 756569078	 161870.
23:34:53 1782 1783	 1492558493	 922093828	 165525.
23:34:54 1783 1784	 1492558494	 55432141	 133338.
23:34:54 1784 1785	 1492558494	 217122269	 161690.
23:34:54 1785 1786	 1492558494	 382896980	 165775.
23:34:54 1786 1787	 1492558494	 545081707	 162184.
23:34:54 1787 1788	 1492558494	 710978993	 165898.
23:34:54 1788 1789	 1492558494	 844205823	 133227.
23:34:55 1789 1790	 1492558495	 9867510	 165661.
23:34:55 1790 1791	 1492558495	 171873277	 162006.
23:34:55 1791 1792	 1492558495	 338217814	 166345.
23:34:55 1792 1793	 1492558495	 495955315	 157737.
23:34:55 1793 1794	 1492558495	 661309998	 165355.
23:34:55 1794 1795	 1492558495	 794234799	 132924.
23:34:55 1795 1796	 1492558495	 960357442	 166123.
23:34:56 1796 1797	 1492558496	 122314916	 161958.
23:34:56 1797 1798	 1492558496	 288065790	 165750.
23:34:56 1798 1799	 1492558496	 449881026	 161816.
23:34:56 1799 1800	 1492558496	 582528942	 132648.
23:34:56 1800 1801	 1492558496	 748283992	 165755.
23:34:56 1801 1802	 1492558496	 909878808	 161594.
23:34:57 1802 1803	 1492558497	 46871144	 136993.
23:34:57 1803 1804	 1492558497	 208388234	 161517.
23:34:57 1804 1805	 1492558497	 373991046	 165603.
23:34:57 1805 1806	 1492558497	 535820769	 161829.
23:34:57 1806 1807	 1492558497	 668907808	 133087.
23:34:57 1807 1808	 1492558497	 834596118	 165689.
23:34:57 1808 1809	 1492558497	 996237173	 161641.
23:34:58 1809 1810	 1492558498	 161935167	 165698.
23:34:58 1810 1811	 1492558498	 294978179	 133043.
23:34:58 1811 1812	 1492558498	 460353423	 165375.
23:34:58 1812 1813	 1492558498	 622340916	 161988.
23:34:58 1813 1814	 1492558498	 788192578	 165851.
23:34:58 1814 1815	 1492558498	 916725569	 128533.
23:34:59 1815 1816	 1492558499	 82396368	 165671.
23:34:59 1816 1817	 1492558499	 243866779	 161471.
23:34:59 1817 1818	 1492558499	 409681147	 165814.
23:34:59 1818 1819	 1492558499	 542755831	 133075.
23:34:59 1819 1820	 1492558499	 708268510	 165512.
23:34:59 1820 1821	 1492558499	 870072516	 161804.
23:35:00 1821 1822	 1492558500	 35285540	 165213.
23:35:00 1822 1823	 1492558500	 168173286	 132888.
23:35:00 1823 1824	 1492558500	 329528774	 161355.
23:35:00 1824 1825	 1492558500	 495103998	 165576.
23:35:00 1825 1826	 1492558500	 656597356	 161493.
23:35:00 1826 1827	 1492558500	 822129304	 165532.
23:35:00 1827 1828	 1492558500	 983894184	 161765.
23:35:01 1828 1829	 1492558501	 145519699	 161625.
23:35:01 1829 1830	 1492558501	 278699459	 133180.
23:35:01 1830 1831	 1492558501	 444428958	 165730.
23:35:01 1831 1832	 1492558501	 606416136	 161987.
23:35:01 1832 1833	 1492558501	 772113791	 165697.
23:35:01 1833 1834	 1492558501	 933635003	 161522.
23:35:02 1834 1835	 1492558502	 95122164	 161487.
23:35:02 1835 1836	 1492558502	 260889069	 165767.
23:35:02 1836 1837	 1492558502	 422559352	 161670.
23:35:02 1837 1838	 1492558502	 584344727	 161785.
23:35:02 1838 1839	 1492558502	 721481391	 137137.
23:35:02 1839 1840	 1492558502	 883303678	 161822.
23:35:03 1840 1841	 1492558503	 45178068	 161875.
23:35:03 1841 1842	 1492558503	 211134374	 165956.
23:35:03 1842 1843	 1492558503	 372899939	 161766.
23:35:03 1843 1844	 1492558503	 534606319	 161706.
23:35:03 1844 1845	 1492558503	 700445146	 165839.
23:35:03 1845 1846	 1492558503	 862795692	 162351.
23:35:04 1846 1847	 1492558504	 20250608	 157454.
23:35:04 1847 1848	 1492558504	 157048800	 136798.
23:35:04 1848 1849	 1492558504	 318582135	 161534.
23:35:04 1849 1850	 1492558504	 480161498	 161579.
23:35:04 1850 1851	 1492558504	 645580693	 165419.
23:35:04 1851 1852	 1492558504	 806948057	 161368.
23:35:04 1852 1853	 1492558504	 968219277	 161271.
23:35:05 1853 1854	 1492558505	 104941748	 136722.
23:35:05 1854 1855	 1492558505	 266504154	 161563.
23:35:05 1855 1856	 1492558505	 427753364	 161249.
23:35:05 1856 1857	 1492558505	 593288656	 165535.
23:35:05 1857 1858	 1492558505	 754873617	 161585.
23:35:05 1858 1859	 1492558505	 920536937	 165664.
23:35:06 1859 1860	 1492558506	 53651030	 133114.
23:35:06 1860 1861	 1492558506	 215339930	 161689.
23:35:06 1861 1862	 1492558506	 381161220	 165821.
23:35:06 1862 1863	 1492558506	 542766842	 161606.
23:35:06 1863 1864	 1492558506	 708737894	 165971.
23:35:06 1864 1865	 1492558506	 870466408	 161728.
23:35:07 1865 1866	 1492558507	 32420324	 161954.
23:35:07 1866 1867	 1492558507	 198034189	 165614.
23:35:07 1867 1868	 1492558507	 330823619	 132789.
23:35:07 1868 1869	 1492558507	 496112174	 165289.
23:35:07 1869 1870	 1492558507	 657598538	 161486.
23:35:07 1870 1871	 1492558507	 790776453	 133178.
23:35:07 1871 1872	 1492558507	 956369919	 165594.
23:35:08 1872 1873	 1492558508	 118099454	 161729.
23:35:08 1873 1874	 1492558508	 284019303	 165920.
23:35:08 1874 1875	 1492558508	 417197042	 133178.
23:35:08 1875 1876	 1492558508	 579030875	 161834.
23:35:08 1876 1877	 1492558508	 744492936	 165462.
23:35:08 1877 1878	 1492558508	 905781191	 161288.
23:35:09 1878 1879	 1492558509	 71625929	 165845.
23:35:09 1879 1880	 1492558509	 204212683	 132586.
23:35:09 1880 1881	 1492558509	 369958919	 165747.
23:35:09 1881 1882	 1492558509	 531347550	 161388.
23:35:09 1882 1883	 1492558509	 668541281	 137194.
23:35:09 1883 1884	 1492558509	 830600766	 162059.
23:35:09 1884 1885	 1492558509	 996313341	 165713.
23:35:10 1885 1886	 1492558510	 158183101	 161870.
23:35:10 1886 1887	 1492558510	 320004830	 161822.
23:35:10 1887 1888	 1492558510	 485555642	 165550.
23:35:10 1888 1889	 1492558510	 618764137	 133209.
23:35:10 1889 1890	 1492558510	 780616139	 161852.
23:35:10 1890 1891	 1492558510	 946410223	 165794.
23:35:11 1891 1892	 1492558511	 107999323	 161589.
23:35:11 1892 1893	 1492558511	 273713816	 165715.
23:35:11 1893 1894	 1492558511	 435019273	 161305.
23:35:11 1894 1895	 1492558511	 568087767	 133068.
23:35:11 1895 1896	 1492558511	 733969055	 165882.
23:35:11 1896 1897	 1492558511	 895542702	 161573.
23:35:12 1897 1898	 1492558512	 60952346	 165410.
23:35:12 1898 1899	 1492558512	 255881220	 194929.
23:35:12 1899 1900	 1492558512	 417105112	 161224.
23:35:12 1900 1901	 1492558512	 578580148	 161475.
23:35:12 1901 1902	 1492558512	 715393323	 136813.
23:35:12 1902 1903	 1492558512	 876813452	 161420.
23:35:13 1903 1904	 1492558513	 42222846	 165410.
23:35:13 1904 1905	 1492558513	 203590411	 161367.
