21:02:59    0 Step	 time(s)	 time(ns)	 delta(ms)
21:02:59    0 1	 1492635779	 549803391	 932.
21:02:59    1 2	 1492635779	 825131657	 275328.
21:03:00    2 3	 1492635780	 43253665	 218122.
21:03:00    3 4	 1492635780	 318522400	 275269.
21:03:00    4 5	 1492635780	 590196127	 271674.
21:03:00    5 6	 1492635780	 861279684	 271083.
21:03:01    6 7	 1492635781	 132072480	 270793.
21:03:01    7 8	 1492635781	 402818444	 270746.
21:03:01    8 9	 1492635781	 673805499	 270987.
21:03:01    9 10	 1492635781	 948726630	 274921.
21:03:02   10 11	 1492635782	 170447499	 221721.
21:03:02   11 12	 1492635782	 441236792	 270790.
21:03:02   12 13	 1492635782	 711928243	 270691.
21:03:02   13 14	 1492635782	 986703894	 274776.
21:03:03   14 15	 1492635783	 208453705	 221749.
21:03:03   15 16	 1492635783	 479061313	 270608.
21:03:03   16 17	 1492635783	 750114106	 271053.
21:03:04   17 18	 1492635784	 24900665	 274786.
21:03:04   18 19	 1492635784	 295666246	 270766.
21:03:04   19 20	 1492635784	 517792231	 222126.
21:03:04   20 21	 1492635784	 788780355	 270988.
21:03:05   21 22	 1492635785	 63868821	 275088.
21:03:05   22 23	 1492635785	 335204947	 271337.
21:03:05   23 24	 1492635785	 607087422	 271882.
21:03:05   24 25	 1492635785	 882086808	 275000.
21:03:06   25 26	 1492635786	 152914214	 270827.
21:03:06   26 27	 1492635786	 374847996	 221934.
21:03:06   27 28	 1492635786	 646013233	 271165.
21:03:06   28 29	 1492635786	 916771678	 270758.
21:03:07   29 30	 1492635787	 192098719	 275327.
21:03:07   30 31	 1492635787	 463445837	 271348.
21:03:07   31 32	 1492635787	 734959910	 271514.
21:03:07   32 33	 1492635787	 957567624	 222607.
21:03:08   33 34	 1492635788	 232805257	 275238.
21:03:08   34 35	 1492635788	 503863021	 271058.
21:03:08   35 36	 1492635788	 779277062	 275414.
21:03:09   36 37	 1492635789	 51006439	 271729.
21:03:09   37 38	 1492635789	 273392296	 222386.
21:03:09   38 39	 1492635789	 548948600	 275556.
21:03:09   39 40	 1492635789	 820611726	 271664.
21:03:10   40 41	 1492635790	 96493993	 275882.
21:03:10   41 42	 1492635790	 367654868	 271161.
21:03:10   42 43	 1492635790	 639096577	 271441.
21:03:10   43 44	 1492635790	 914562381	 275466.
21:03:11   44 45	 1492635791	 185947192	 271385.
21:03:11   45 46	 1492635791	 461023156	 275076.
21:03:11   46 47	 1492635791	 683228583	 222205.
21:03:11   47 48	 1492635791	 954475692	 271247.
21:03:12   48 49	 1492635792	 225317274	 270842.
21:03:12   49 50	 1492635792	 495815177	 270498.
21:03:12   50 51	 1492635792	 770566508	 274751.
21:03:12   51 52	 1492635792	 992677992	 222112.
21:03:13   52 53	 1492635793	 263933912	 271256.
21:03:13   53 54	 1492635793	 539152226	 275218.
21:03:13   54 55	 1492635793	 810596196	 271444.
21:03:14   55 56	 1492635794	 85507635	 274911.
21:03:14   56 57	 1492635794	 303093547	 217586.
21:03:14   57 58	 1492635794	 578194934	 275102.
21:03:14   58 59	 1492635794	 849956140	 271761.
21:03:15   59 60	 1492635795	 124700214	 274744.
21:03:15   60 61	 1492635795	 347180455	 222480.
21:03:15   61 62	 1492635795	 622381498	 275201.
21:03:15   62 63	 1492635795	 893670018	 271289.
21:03:16   63 64	 1492635796	 169685082	 276015.
21:03:16   64 65	 1492635796	 441017337	 271332.
21:03:16   65 66	 1492635796	 712780804	 271764.
21:03:16   66 67	 1492635796	 988543216	 275762.
21:03:17   67 68	 1492635797	 210750996	 222208.
21:03:17   68 69	 1492635797	 482897936	 272147.
21:03:17   69 70	 1492635797	 758830597	 275932.
21:03:18   70 71	 1492635798	 29766177	 270936.
21:03:18   71 72	 1492635798	 300782274	 271016.
21:03:18   72 73	 1492635798	 576049180	 275267.
21:03:18   73 74	 1492635798	 793774977	 217726.
21:03:19   74 75	 1492635799	 69796370	 276021.
21:03:19   75 76	 1492635799	 341111857	 271316.
21:03:19   76 77	 1492635799	 612443762	 271332.
21:03:19   77 78	 1492635799	 887881346	 275437.
21:03:20   78 79	 1492635800	 159605344	 271724.
21:03:20   79 80	 1492635800	 381699599	 222094.
21:03:20   80 81	 1492635800	 653046744	 271348.
21:03:20   81 82	 1492635800	 928227989	 275181.
21:03:21   82 83	 1492635801	 199777581	 271549.
21:03:21   83 84	 1492635801	 426512088	 226735.
21:03:21   84 85	 1492635801	 697895835	 271384.
21:03:21   85 86	 1492635801	 973708634	 275812.
21:03:22   86 87	 1492635802	 249118652	 275410.
21:03:22   87 88	 1492635802	 520245050	 271127.
21:03:22   88 89	 1492635802	 743075011	 222830.
21:03:23   89 90	 1492635803	 14770121	 271695.
21:03:23   90 91	 1492635803	 290137420	 275367.
21:03:23   91 92	 1492635803	 560966354	 270829.
21:03:23   92 93	 1492635803	 832861370	 271895.
21:03:24   93 94	 1492635804	 59627720	 226767.
21:03:24   94 95	 1492635804	 331676101	 272048.
21:03:24   95 96	 1492635804	 607224840	 275549.
21:03:24   96 97	 1492635804	 878514118	 271289.
21:03:25   97 98	 1492635805	 154463467	 275949.
21:03:25   98 99	 1492635805	 426265000	 271802.
21:03:25   99 100	 1492635805	 648948083	 222683.
21:03:25  100 101	 1492635805	 920376941	 271429.
21:03:26  101 102	 1492635806	 196258567	 275881.
21:03:26  102 103	 1492635806	 467923492	 271665.
21:03:26  103 104	 1492635806	 743944974	 276022.
21:03:27  104 105	 1492635807	 15499500	 271554.
21:03:27  105 106	 1492635807	 291541025	 276042.
21:03:27  106 107	 1492635807	 514322363	 222781.
21:03:27  107 108	 1492635807	 786474677	 272153.
21:03:28  108 109	 1492635808	 62464812	 275990.
21:03:28  109 110	 1492635808	 334290316	 271825.
21:03:28  110 111	 1492635808	 609757158	 275467.
21:03:28  111 112	 1492635808	 881230847	 271474.
21:03:29  112 113	 1492635809	 157032092	 275801.
21:03:29  113 114	 1492635809	 428785028	 271753.
21:03:29  114 115	 1492635809	 651884792	 223100.
21:03:29  115 116	 1492635809	 927732818	 275848.
21:03:30  116 117	 1492635810	 199667879	 271935.
21:03:30  117 118	 1492635810	 475505555	 275837.
21:03:30  118 119	 1492635810	 747384311	 271879.
21:03:31  119 120	 1492635811	 19207514	 271823.
21:03:31  120 121	 1492635811	 290808693	 271601.
21:03:31  121 122	 1492635811	 566862946	 276055.
21:03:31  122 123	 1492635811	 838663421	 271800.
21:03:32  123 124	 1492635812	 60967128	 222304.
21:03:32  124 125	 1492635812	 335938618	 274971.
21:03:32  125 126	 1492635812	 607331263	 271393.
21:03:32  126 127	 1492635812	 878723912	 271393.
21:03:33  127 128	 1492635813	 154429659	 275705.
21:03:33  128 129	 1492635813	 376865324	 222436.
21:03:33  129 130	 1492635813	 648779482	 271914.
21:03:33  130 131	 1492635813	 924299680	 275520.
21:03:34  131 132	 1492635814	 196083492	 271784.
21:03:34  132 133	 1492635814	 471024092	 274941.
21:03:34  133 134	 1492635814	 742513755	 271490.
21:03:34  134 135	 1492635814	 965052310	 222538.
21:03:35  135 136	 1492635815	 240591164	 275539.
21:03:35  136 137	 1492635815	 512302959	 271712.
21:03:35  137 138	 1492635815	 783871924	 271569.
21:03:36  138 139	 1492635816	 59371516	 275499.
21:03:36  139 140	 1492635816	 277630366	 218259.
21:03:36  140 141	 1492635816	 553756065	 276126.
21:03:36  141 142	 1492635816	 829353951	 275598.
21:03:37  142 143	 1492635817	 100969154	 271615.
21:03:37  143 144	 1492635817	 372712373	 271743.
21:03:37  144 145	 1492635817	 647985595	 275273.
21:03:37  145 146	 1492635817	 870252462	 222267.
21:03:38  146 147	 1492635818	 141648963	 271397.
21:03:38  147 148	 1492635818	 417165090	 275516.
21:03:38  148 149	 1492635818	 688882897	 271718.
21:03:38  149 150	 1492635818	 960232646	 271349.
21:03:39  150 151	 1492635819	 182777408	 222545.
21:03:39  151 152	 1492635819	 458372734	 275596.
21:03:39  152 153	 1492635819	 730454172	 272081.
21:03:40  153 154	 1492635820	 5956300	 275502.
21:03:40  154 155	 1492635820	 277407992	 271452.
21:03:40  155 156	 1492635820	 500371483	 222963.
21:03:40  156 157	 1492635820	 776260059	 275889.
21:03:41  157 158	 1492635821	 47062563	 270802.
21:03:41  158 159	 1492635821	 318200907	 271139.
21:03:41  159 160	 1492635821	 594116950	 275916.
21:03:41  160 161	 1492635821	 865441904	 271325.
21:03:42  161 162	 1492635822	 88169615	 222727.
21:03:42  162 163	 1492635822	 363700052	 275531.
21:03:42  163 164	 1492635822	 635395547	 271695.
21:03:42  164 165	 1492635822	 910986777	 275592.
21:03:43  165 166	 1492635823	 182575964	 271589.
21:03:43  166 167	 1492635823	 454067874	 271492.
21:03:43  167 168	 1492635823	 730611578	 276543.
21:03:44  168 169	 1492635824	 6891811	 276281.
21:03:44  169 170	 1492635824	 229633174	 222741.
21:03:44  170 171	 1492635824	 501313424	 271680.
21:03:44  171 172	 1492635824	 777056767	 275744.
21:03:45  172 173	 1492635825	 48379826	 271323.
21:03:45  173 174	 1492635825	 319633136	 271253.
21:03:45  174 175	 1492635825	 591210521	 271577.
21:03:45  175 176	 1492635825	 862417968	 271208.
21:03:46  176 177	 1492635826	 84333685	 221916.
21:03:46  177 178	 1492635826	 359872506	 275538.
21:03:46  178 179	 1492635826	 631433100	 271561.
21:03:46  179 180	 1492635826	 902669776	 271237.
21:03:47  180 181	 1492635827	 178491033	 275821.
21:03:47  181 182	 1492635827	 450285480	 271794.
21:03:47  182 183	 1492635827	 721413335	 271128.
21:03:47  183 184	 1492635827	 996867123	 275454.
21:03:48  184 185	 1492635828	 268056333	 271189.
21:03:48  185 186	 1492635828	 539081657	 271025.
21:03:48  186 187	 1492635828	 810158732	 271078.
21:03:49  187 188	 1492635829	 32687576	 222529.
21:03:49  188 189	 1492635829	 308277208	 275589.
21:03:49  189 190	 1492635829	 579981122	 271704.
21:03:49  190 191	 1492635829	 855000091	 275019.
21:03:50  191 192	 1492635830	 125759632	 270760.
21:03:50  192 193	 1492635830	 347916831	 222157.
21:03:50  193 194	 1492635830	 622986903	 275070.
21:03:50  194 195	 1492635830	 894426044	 271439.
21:03:51  195 196	 1492635831	 169583340	 275157.
21:03:51  196 197	 1492635831	 441053468	 271470.
21:03:51  197 198	 1492635831	 712118261	 271065.
21:03:51  198 199	 1492635831	 934208802	 222091.
21:03:52  199 200	 1492635832	 205614501	 271405.
21:03:52  200 201	 1492635832	 480707359	 275093.
21:03:52  201 202	 1492635832	 751713215	 271006.
21:03:53  202 203	 1492635833	 22642526	 270929.
21:03:53  203 204	 1492635833	 244852539	 222210.
21:03:53  204 205	 1492635833	 516045211	 271193.
21:03:53  205 206	 1492635833	 791538037	 275493.
21:03:54  206 207	 1492635834	 63074659	 271536.
21:03:54  207 208	 1492635834	 338167380	 275093.
21:03:54  208 209	 1492635834	 609380328	 271213.
21:03:54  209 210	 1492635834	 831769125	 222389.
21:03:55  210 211	 1492635835	 103278443	 271509.
21:03:55  211 212	 1492635835	 374844319	 271566.
21:03:55  212 213	 1492635835	 650278211	 275434.
21:03:55  213 214	 1492635835	 921900596	 271622.
21:03:56  214 215	 1492635836	 192917525	 271017.
21:03:56  215 216	 1492635836	 468727898	 275811.
21:03:56  216 217	 1492635836	 739754366	 271026.
21:03:56  217 218	 1492635836	 962117297	 222363.
21:03:57  218 219	 1492635837	 233172877	 271056.
21:03:57  219 220	 1492635837	 508310792	 275138.
21:03:57  220 221	 1492635837	 779849567	 271538.
21:03:58  221 222	 1492635838	 55103727	 275255.
21:03:58  222 223	 1492635838	 277596184	 222492.
21:03:58  223 224	 1492635838	 549055039	 271459.
21:03:58  224 225	 1492635838	 820243686	 271189.
21:03:59  225 226	 1492635839	 95597866	 275354.
21:03:59  226 227	 1492635839	 367105135	 271507.
21:03:59  227 228	 1492635839	 638636931	 271532.
21:03:59  228 229	 1492635839	 914383844	 275747.
21:04:00  229 230	 1492635840	 191572045	 277188.
21:04:00  230 231	 1492635840	 442560023	 250988.
21:04:00  231 232	 1492635840	 717918992	 275359.
21:04:00  232 233	 1492635840	 939900560	 221982.
21:04:01  233 234	 1492635841	 211114810	 271214.
21:04:01  234 235	 1492635841	 482161479	 271046.
21:04:01  235 236	 1492635841	 753289514	 271128.
21:04:02  236 237	 1492635842	 28079282	 274790.
21:04:02  237 238	 1492635842	 298698595	 270619.
21:04:02  238 239	 1492635842	 520591888	 221894.
21:04:02  239 240	 1492635842	 791624398	 271032.
21:04:03  240 241	 1492635843	 62197931	 270574.
21:04:03  241 242	 1492635843	 333269371	 271071.
21:04:03  242 243	 1492635843	 604217005	 270948.
21:04:03  243 244	 1492635843	 825924024	 221707.
21:04:04  244 245	 1492635844	 100645496	 274721.
21:04:04  245 246	 1492635844	 371560520	 270915.
21:04:04  246 247	 1492635844	 642551833	 270992.
21:04:04  247 248	 1492635844	 918237779	 275686.
21:04:05  248 249	 1492635845	 189510521	 271272.
21:04:05  249 250	 1492635845	 460647213	 271137.
21:04:05  250 251	 1492635845	 735830852	 275184.
21:04:06  251 252	 1492635846	 6852288	 271021.
21:04:06  252 253	 1492635846	 278738095	 271886.
21:04:06  253 254	 1492635846	 500571537	 221833.
21:04:06  254 255	 1492635846	 772031543	 271460.
21:04:07  255 256	 1492635847	 43496489	 271465.
21:04:07  256 257	 1492635847	 318844940	 275349.
21:04:07  257 258	 1492635847	 590491564	 271658.
21:04:07  258 259	 1492635847	 862331627	 271828.
21:04:08  259 260	 1492635848	 138053482	 275722.
21:04:08  260 261	 1492635848	 360797624	 222744.
21:04:08  261 262	 1492635848	 636427686	 275630.
21:04:08  262 263	 1492635848	 908231142	 271804.
21:04:09  263 264	 1492635849	 184223238	 275992.
21:04:09  264 265	 1492635849	 455578406	 271355.
21:04:09  265 266	 1492635849	 727596473	 272018.
21:04:10  266 267	 1492635850	 3944557	 276348.
21:04:10  267 268	 1492635850	 279068319	 275124.
21:04:10  268 269	 1492635850	 497880750	 218813.
21:04:10  269 270	 1492635850	 773019189	 275138.
21:04:11  270 271	 1492635851	 44482823	 271464.
21:04:11  271 272	 1492635851	 320053347	 275570.
21:04:11  272 273	 1492635851	 591828527	 271775.
21:04:11  273 274	 1492635851	 867749330	 275921.
21:04:12  274 275	 1492635852	 139309214	 271560.
21:04:12  275 276	 1492635852	 410476706	 271167.
21:04:12  276 277	 1492635852	 632852253	 222376.
21:04:12  277 278	 1492635852	 904274031	 271422.
21:04:13  278 279	 1492635853	 179554712	 275280.
21:04:13  279 280	 1492635853	 450731745	 271178.
21:04:13  280 281	 1492635853	 725994873	 275263.
21:04:13  281 282	 1492635853	 944049214	 218054.
21:04:14  282 283	 1492635854	 219119835	 275071.
21:04:14  283 284	 1492635854	 490501411	 271381.
21:04:14  284 285	 1492635854	 766115220	 275614.
21:04:15  285 286	 1492635855	 37603635	 271488.
21:04:15  286 287	 1492635855	 313115121	 275512.
21:04:15  287 288	 1492635855	 531556940	 218442.
21:04:15  288 289	 1492635855	 807306959	 275750.
21:04:16  289 290	 1492635856	 78259469	 270952.
21:04:16  290 291	 1492635856	 350347766	 272089.
21:04:16  291 292	 1492635856	 626128372	 275780.
21:04:16  292 293	 1492635856	 898546697	 272418.
21:04:17  293 294	 1492635857	 174350744	 275805.
21:04:17  294 295	 1492635857	 449898031	 275547.
21:04:17  295 296	 1492635857	 668713078	 218815.
21:04:17  296 297	 1492635857	 944457989	 275745.
21:04:18  297 298	 1492635858	 215775137	 271317.
21:04:18  298 299	 1492635858	 486723539	 270948.
21:04:18  299 300	 1492635858	 762198316	 275475.
21:04:18  300 301	 1492635858	 984782858	 222585.
21:04:19  301 302	 1492635859	 256317875	 271535.
21:04:19  302 303	 1492635859	 527229311	 270911.
21:04:19  303 304	 1492635859	 798665683	 271436.
21:04:20  304 305	 1492635860	 74176386	 275511.
21:04:20  305 306	 1492635860	 344922735	 270747.
21:04:20  306 307	 1492635860	 616171564	 271248.
21:04:20  307 308	 1492635860	 838034311	 221863.
21:04:21  308 309	 1492635861	 109287150	 271253.
21:04:21  309 310	 1492635861	 383969732	 274683.
21:04:21  310 311	 1492635861	 655184504	 271214.
21:04:21  311 312	 1492635861	 926004953	 270821.
21:04:22  312 313	 1492635862	 148225511	 222220.
21:04:22  313 314	 1492635862	 419504564	 271279.
21:04:22  314 315	 1492635862	 695833148	 276329.
21:04:22  315 316	 1492635862	 967971876	 272139.
21:04:23  316 317	 1492635863	 243846410	 275874.
21:04:23  317 318	 1492635863	 515746121	 271900.
21:04:23  318 319	 1492635863	 787493214	 271747.
21:04:24  319 320	 1492635864	 63454579	 275961.
21:04:24  320 321	 1492635864	 335543259	 272089.
21:04:24  321 322	 1492635864	 607303260	 271760.
21:04:24  322 323	 1492635864	 882979377	 275676.
21:04:25  323 324	 1492635865	 154410545	 271432.
21:04:25  324 325	 1492635865	 426189354	 271778.
21:04:25  325 326	 1492635865	 702400350	 276211.
21:04:25  326 327	 1492635865	 973973645	 271573.
21:04:26  327 328	 1492635866	 245690967	 271718.
21:04:26  328 329	 1492635866	 516928433	 271237.
21:04:26  329 330	 1492635866	 787978413	 271050.
21:04:27  330 331	 1492635867	 63303729	 275326.
21:04:27  331 332	 1492635867	 334846251	 271542.
21:04:27  332 333	 1492635867	 606537518	 271691.
21:04:27  333 334	 1492635867	 829141292	 222604.
21:04:28  334 335	 1492635868	 100509913	 271369.
21:04:28  335 336	 1492635868	 376433142	 275923.
21:04:28  336 337	 1492635868	 648141324	 271708.
21:04:28  337 338	 1492635868	 919962127	 271821.
21:04:29  338 339	 1492635869	 195498890	 275537.
21:04:29  339 340	 1492635869	 466867661	 271368.
21:04:29  340 341	 1492635869	 738225367	 271358.
21:04:30  341 342	 1492635870	 13696518	 275471.
21:04:30  342 343	 1492635870	 284753845	 271058.
21:04:30  343 344	 1492635870	 556094826	 271341.
21:04:30  344 345	 1492635870	 827781463	 271686.
21:04:31  345 346	 1492635871	 102929077	 275148.
21:04:31  346 347	 1492635871	 374494181	 271565.
21:04:31  347 348	 1492635871	 645867707	 271373.
21:04:31  348 349	 1492635871	 916889998	 271023.
21:04:32  349 350	 1492635872	 192386060	 275496.
21:04:32  350 351	 1492635872	 410937314	 218551.
21:04:32  351 352	 1492635872	 682034024	 271097.
21:04:32  352 353	 1492635872	 957326080	 275292.
21:04:33  353 354	 1492635873	 228588067	 271262.
21:04:33  354 355	 1492635873	 500024338	 271436.
21:04:33  355 356	 1492635873	 775233624	 275209.
21:04:34  356 357	 1492635874	 46443745	 271211.
21:04:34  357 358	 1492635874	 318062183	 271618.
21:04:34  358 359	 1492635874	 589149539	 271087.
21:04:34  359 360	 1492635874	 864362958	 275214.
21:04:35  360 361	 1492635875	 86086133	 221723.
21:04:35  361 362	 1492635875	 357642240	 271556.
21:04:35  362 363	 1492635875	 629026170	 271384.
21:04:35  363 364	 1492635875	 900846366	 271820.
21:04:36  364 365	 1492635876	 176309114	 275463.
21:04:36  365 366	 1492635876	 447454608	 271145.
21:04:36  366 367	 1492635876	 719301733	 271848.
21:04:36  367 368	 1492635876	 991495415	 272193.
21:04:37  368 369	 1492635877	 267840373	 276345.
21:04:37  369 370	 1492635877	 539992145	 272152.
21:04:37  370 371	 1492635877	 811587126	 271595.
21:04:38  371 372	 1492635878	 82967118	 271380.
21:04:38  372 373	 1492635878	 354176511	 271209.
21:04:38  373 374	 1492635878	 629728102	 275552.
21:04:38  374 375	 1492635878	 900996858	 271269.
21:04:39  375 376	 1492635879	 172285384	 271288.
21:04:39  376 377	 1492635879	 443950198	 271665.
21:04:39  377 378	 1492635879	 715305470	 271355.
21:04:39  378 379	 1492635879	 990711702	 275406.
21:04:40  379 380	 1492635880	 262231148	 271520.
21:04:40  380 381	 1492635880	 533548530	 271317.
21:04:40  381 382	 1492635880	 809013238	 275465.
21:04:41  382 383	 1492635881	 80559503	 271546.
21:04:41  383 384	 1492635881	 351844863	 271286.
21:04:41  384 385	 1492635881	 623054829	 271210.
21:04:41  385 386	 1492635881	 893956902	 270902.
21:04:42  386 387	 1492635882	 169690012	 275733.
21:04:42  387 388	 1492635882	 441173120	 271483.
21:04:42  388 389	 1492635882	 712595218	 271422.
21:04:42  389 390	 1492635882	 984248365	 271653.
21:04:43  390 391	 1492635883	 259569527	 275321.
21:04:43  391 392	 1492635883	 531447889	 271879.
21:04:43  392 393	 1492635883	 807299057	 275851.
21:04:44  393 394	 1492635884	 78900413	 271601.
21:04:44  394 395	 1492635884	 354430153	 275530.
21:04:44  395 396	 1492635884	 625989218	 271559.
21:04:44  396 397	 1492635884	 897218036	 271229.
21:04:45  397 398	 1492635885	 172482386	 275264.
21:04:45  398 399	 1492635885	 394588277	 222106.
21:04:45  399 400	 1492635885	 666039721	 271452.
21:04:45  400 401	 1492635885	 937816712	 271776.
21:04:46  401 402	 1492635886	 213166113	 275350.
21:04:46  402 403	 1492635886	 484147009	 270981.
21:04:46  403 404	 1492635886	 755154131	 271007.
21:04:47  404 405	 1492635887	 26368712	 271214.
21:04:47  405 406	 1492635887	 297498200	 271130.
21:04:47  406 407	 1492635887	 573134144	 275636.
21:04:47  407 408	 1492635887	 843807957	 270674.
21:04:48  408 409	 1492635888	 65947515	 222139.
21:04:48  409 410	 1492635888	 336612140	 270665.
21:04:48  410 411	 1492635888	 607279390	 270667.
21:04:48  411 412	 1492635888	 877945860	 270667.
21:04:49  412 413	 1492635889	 152782531	 274836.
21:04:49  413 414	 1492635889	 374855138	 222073.
21:04:49  414 415	 1492635889	 645843421	 270988.
21:04:49  415 416	 1492635889	 916892446	 271049.
21:04:50  416 417	 1492635890	 192041458	 275149.
21:04:50  417 418	 1492635890	 463430771	 271390.
21:04:50  418 419	 1492635890	 735247839	 271817.
21:04:51  419 420	 1492635891	 10420403	 275172.
21:04:51  420 421	 1492635891	 281284416	 270864.
21:04:51  421 422	 1492635891	 552141726	 270858.
21:04:51  422 423	 1492635891	 822941526	 270799.
21:04:52  423 424	 1492635892	 45010544	 222070.
21:04:52  424 425	 1492635892	 316027634	 271016.
21:04:52  425 426	 1492635892	 591281107	 275254.
21:04:52  426 427	 1492635892	 862514358	 271233.
21:04:53  427 428	 1492635893	 133573842	 271060.
21:04:53  428 429	 1492635893	 404217153	 270643.
21:04:53  429 430	 1492635893	 675514396	 271297.
21:04:53  430 431	 1492635893	 951240610	 275726.
21:04:54  431 432	 1492635894	 222619038	 271379.
21:04:54  432 433	 1492635894	 494293355	 271674.
21:04:54  433 434	 1492635894	 770419088	 276126.
21:04:55  434 435	 1492635895	 42129720	 271711.
21:04:55  435 436	 1492635895	 318686098	 276556.
21:04:55  436 437	 1492635895	 590831681	 272145.
21:04:55  437 438	 1492635895	 867654626	 276823.
21:04:56  438 439	 1492635896	 139651089	 271997.
21:04:56  439 440	 1492635896	 416250881	 276600.
21:04:56  440 441	 1492635896	 638836811	 222586.
21:04:56  441 442	 1492635896	 910943770	 272107.
21:04:57  442 443	 1492635897	 186919239	 275975.
21:04:57  443 444	 1492635897	 462495927	 275577.
21:04:57  444 445	 1492635897	 737777360	 275281.
21:04:58  445 446	 1492635898	 9066320	 271289.
21:04:58  446 447	 1492635898	 231872085	 222806.
21:04:58  447 448	 1492635898	 507529456	 275657.
21:04:58  448 449	 1492635898	 777951604	 270422.
21:04:59  449 450	 1492635899	 48956526	 271005.
21:04:59  450 451	 1492635899	 319922928	 270967.
21:04:59  451 452	 1492635899	 594831753	 274909.
21:04:59  452 453	 1492635899	 812483067	 217651.
21:05:00  453 454	 1492635900	 87042236	 274559.
21:05:00  454 455	 1492635900	 358003890	 270962.
21:05:00  455 456	 1492635900	 633536548	 275532.
21:05:00  456 457	 1492635900	 904110145	 270574.
21:05:01  457 458	 1492635901	 175306813	 271197.
21:05:01  458 459	 1492635901	 446565195	 271258.
21:05:01  459 460	 1492635901	 668761110	 222196.
21:05:01  460 461	 1492635901	 940176024	 271415.
21:05:02  461 462	 1492635902	 215805327	 275629.
21:05:02  462 463	 1492635902	 487164699	 271359.
21:05:02  463 464	 1492635902	 758402381	 271238.
21:05:03  464 465	 1492635903	 29919030	 271517.
21:05:03  465 466	 1492635903	 305428538	 275509.
21:05:03  466 467	 1492635903	 576656727	 271229.
21:05:03  467 468	 1492635903	 848050491	 271393.
21:05:04  468 469	 1492635904	 119694587	 271644.
21:05:04  469 470	 1492635904	 391241653	 271547.
21:05:04  470 471	 1492635904	 662629338	 271388.
21:05:04  471 472	 1492635904	 934074755	 271446.
21:05:05  472 473	 1492635905	 205709996	 271635.
21:05:05  473 474	 1492635905	 481316598	 275606.
21:05:05  474 475	 1492635905	 752661097	 271345.
21:05:06  475 476	 1492635906	 23736374	 271075.
21:05:06  476 477	 1492635906	 294794206	 271058.
21:05:06  477 478	 1492635906	 516896031	 222102.
21:05:06  478 479	 1492635906	 792388043	 275492.
21:05:07  479 480	 1492635907	 63613365	 271225.
21:05:07  480 481	 1492635907	 335022621	 271409.
21:05:07  481 482	 1492635907	 606207259	 271185.
21:05:07  482 483	 1492635907	 881797632	 275590.
21:05:08  483 484	 1492635908	 153135478	 271338.
21:05:08  484 485	 1492635908	 424276046	 271141.
21:05:08  485 486	 1492635908	 695703950	 271428.
21:05:08  486 487	 1492635908	 971611100	 275907.
21:05:09  487 488	 1492635909	 243149024	 271538.
21:05:09  488 489	 1492635909	 514493149	 271344.
21:05:09  489 490	 1492635909	 790185728	 275693.
21:05:10  490 491	 1492635910	 12287323	 222101.
21:05:10  491 492	 1492635910	 283688448	 271401.
21:05:10  492 493	 1492635910	 555107342	 271419.
21:05:10  493 494	 1492635910	 826073615	 270966.
21:05:11  494 495	 1492635911	 101354895	 275282.
21:05:11  495 496	 1492635911	 372487990	 271133.
21:05:11  496 497	 1492635911	 643484115	 270996.
21:05:11  497 498	 1492635911	 918512611	 275028.
21:05:12  498 499	 1492635912	 136518113	 218006.
21:05:12  499 500	 1492635912	 407531740	 271014.
21:05:12  500 501	 1492635912	 682554424	 275022.
21:05:12  501 502	 1492635912	 953924210	 271370.
21:05:13  502 503	 1492635913	 224962332	 271038.
21:05:13  503 504	 1492635913	 500233044	 275271.
21:05:13  504 505	 1492635913	 771305446	 271072.
21:05:14  505 506	 1492635914	 42262932	 270958.
21:05:14  506 507	 1492635914	 264427851	 222165.
21:05:14  507 508	 1492635914	 535537537	 271109.
21:05:14  508 509	 1492635914	 810486399	 274949.
21:05:15  509 510	 1492635915	 81300336	 270814.
21:05:15  510 511	 1492635915	 352460534	 271160.
21:05:15  511 512	 1492635915	 623350602	 270890.
21:05:15  512 513	 1492635915	 845419586	 222069.
21:05:16  513 514	 1492635916	 116357442	 270938.
21:05:16  514 515	 1492635916	 391150291	 274793.
21:05:16  515 516	 1492635916	 661891540	 270741.
21:05:16  516 517	 1492635916	 932104528	 270213.
21:05:17  517 518	 1492635917	 153605704	 221501.
21:05:17  518 519	 1492635917	 424213432	 270608.
21:05:17  519 520	 1492635917	 699012053	 274799.
21:05:17  520 521	 1492635917	 970094708	 271082.
21:05:18  521 522	 1492635918	 241105439	 271011.
21:05:18  522 523	 1492635918	 463725488	 222620.
21:05:18  523 524	 1492635918	 739621390	 275896.
21:05:19  524 525	 1492635919	 10738214	 271117.
21:05:19  525 526	 1492635919	 281649922	 270912.
21:05:19  526 527	 1492635919	 553493019	 271843.
21:05:19  527 528	 1492635919	 776125990	 222633.
21:05:20  528 529	 1492635920	 51897453	 275771.
21:05:20  529 530	 1492635920	 323961519	 272064.
21:05:20  530 531	 1492635920	 599985949	 276025.
21:05:20  531 532	 1492635920	 871851368	 271865.
21:05:21  532 533	 1492635921	 147183643	 275332.
21:05:21  533 534	 1492635921	 418559076	 271376.
21:05:21  534 535	 1492635921	 641069010	 222510.
21:05:21  535 536	 1492635921	 916515689	 275446.
21:05:22  536 537	 1492635922	 188629790	 272114.
21:05:22  537 538	 1492635922	 464727128	 276098.
21:05:22  538 539	 1492635922	 736939409	 272212.
21:05:23  539 540	 1492635923	 8766008	 271827.
21:05:23  540 541	 1492635923	 284754811	 275989.
21:05:23  541 542	 1492635923	 556874006	 272119.
21:05:23  542 543	 1492635923	 783789659	 226916.
21:05:24  543 544	 1492635924	 55409623	 271619.
21:05:24  544 545	 1492635924	 331205709	 275797.
21:05:24  545 546	 1492635924	 602722701	 271516.
21:05:24  546 547	 1492635924	 874175321	 271453.
21:05:25  547 548	 1492635925	 100872011	 226697.
21:05:25  548 549	 1492635925	 372870646	 271998.
21:05:25  549 550	 1492635925	 644182302	 271312.
21:05:25  550 551	 1492635925	 919894239	 275712.
21:05:26  551 552	 1492635926	 191983999	 272090.
21:05:26  552 553	 1492635926	 467357342	 275373.
21:05:26  553 554	 1492635926	 738880176	 271523.
21:05:26  554 555	 1492635926	 961679520	 222799.
21:05:27  555 556	 1492635927	 233098564	 271419.
21:05:27  556 557	 1492635927	 508595808	 275498.
21:05:27  557 558	 1492635927	 780430232	 271834.
21:05:28  558 559	 1492635928	 56583032	 276153.
21:05:28  559 560	 1492635928	 328286416	 271703.
21:05:28  560 561	 1492635928	 550425398	 222139.
21:05:28  561 562	 1492635928	 821932771	 271507.
21:05:29  562 563	 1492635929	 97257829	 275326.
21:05:29  563 564	 1492635929	 368276649	 271018.
21:05:29  564 565	 1492635929	 590329128	 222053.
21:05:29  565 566	 1492635929	 866374507	 276045.
21:05:30  566 567	 1492635930	 137729683	 271355.
21:05:30  567 568	 1492635930	 408945835	 271217.
21:05:30  568 569	 1492635930	 683952426	 275006.
21:05:30  569 570	 1492635930	 906174303	 222222.
21:05:31  570 571	 1492635931	 181529644	 275355.
21:05:31  571 572	 1492635931	 452685557	 271156.
21:05:31  572 573	 1492635931	 723713617	 271028.
21:05:31  573 574	 1492635931	 994058725	 270346.
21:05:32  574 575	 1492635932	 215986668	 221927.
21:05:32  575 576	 1492635932	 486739676	 270753.
21:05:32  576 577	 1492635932	 762448921	 275710.
21:05:33  577 578	 1492635933	 33634552	 271185.
21:05:33  578 579	 1492635933	 308907110	 275273.
21:05:33  579 580	 1492635933	 579948064	 271041.
21:05:33  580 581	 1492635933	 801907562	 221960.
21:05:34  581 582	 1492635934	 73192086	 271284.
21:05:34  582 583	 1492635934	 344821159	 271629.
21:05:34  583 584	 1492635934	 620454914	 275634.
21:05:34  584 585	 1492635934	 891893432	 271438.
21:05:35  585 586	 1492635935	 162925306	 271032.
21:05:35  586 587	 1492635935	 384892810	 221968.
21:05:35  587 588	 1492635935	 660289427	 275396.
21:05:35  588 589	 1492635935	 931892714	 271603.
21:05:36  589 590	 1492635936	 203408165	 271516.
21:05:36  590 591	 1492635936	 479151964	 275744.
21:05:36  591 592	 1492635936	 750229338	 271077.
21:05:37  592 593	 1492635937	 25223636	 274994.
21:05:37  593 594	 1492635937	 247186137	 221963.
21:05:37  594 595	 1492635937	 518319459	 271133.
21:05:37  595 596	 1492635937	 789422365	 271103.
21:05:38  596 597	 1492635938	 64774590	 275352.
21:05:38  597 598	 1492635938	 335794856	 271021.
21:05:38  598 599	 1492635938	 558202092	 222407.
21:05:38  599 600	 1492635938	 829451349	 271249.
21:05:39  600 601	 1492635939	 104576593	 275125.
21:05:39  601 602	 1492635939	 375424652	 270848.
21:05:39  602 603	 1492635939	 646274832	 270851.
21:05:39  603 604	 1492635939	 917071413	 270796.
21:05:40  604 605	 1492635940	 138768538	 221697.
21:05:40  605 606	 1492635940	 413648202	 274880.
21:05:40  606 607	 1492635940	 684794501	 271146.
21:05:40  607 608	 1492635940	 955864674	 271070.
21:05:41  608 609	 1492635941	 178028506	 222164.
21:05:41  609 610	 1492635941	 448606669	 270578.
21:05:41  610 611	 1492635941	 724383671	 275778.
21:05:41  611 612	 1492635941	 995971849	 271588.
21:05:42  612 613	 1492635942	 271904684	 275932.
21:05:42  613 614	 1492635942	 543550101	 271646.
21:05:42  614 615	 1492635942	 819156636	 275606.
21:05:43  615 616	 1492635943	 90671929	 271516.
21:05:43  616 617	 1492635943	 312988871	 222317.
21:05:43  617 618	 1492635943	 584290599	 271301.
21:05:43  618 619	 1492635943	 855135832	 270846.
21:05:44  619 620	 1492635944	 130877283	 275741.
21:05:44  620 621	 1492635944	 402377080	 271500.
21:05:44  621 622	 1492635944	 673872634	 271495.
21:05:44  622 623	 1492635944	 949528237	 275656.
21:05:45  623 624	 1492635945	 221014347	 271486.
21:05:45  624 625	 1492635945	 492172266	 271158.
21:05:45  625 626	 1492635945	 767589897	 275418.
21:05:45  626 627	 1492635945	 985762548	 218173.
21:05:46  627 628	 1492635946	 261565600	 275802.
21:05:46  628 629	 1492635946	 537415847	 275851.
21:05:46  629 630	 1492635946	 809119712	 271703.
21:05:47  630 631	 1492635947	 80793629	 271674.
21:05:47  631 632	 1492635947	 352115653	 271323.
21:05:47  632 633	 1492635947	 627241756	 275126.
21:05:47  633 634	 1492635947	 845520592	 218278.
21:05:48  634 635	 1492635948	 121133432	 275613.
21:05:48  635 636	 1492635948	 392767091	 271634.
21:05:48  636 637	 1492635948	 668247189	 275480.
21:05:48  637 638	 1492635948	 939539554	 271292.
21:05:49  638 639	 1492635949	 210784424	 271245.
21:05:49  639 640	 1492635949	 486190974	 275407.
21:05:49  640 641	 1492635949	 757911018	 271720.
21:05:50  641 642	 1492635950	 29135061	 271224.
21:05:50  642 643	 1492635950	 304499568	 275364.
21:05:50  643 644	 1492635950	 576032165	 271533.
21:05:50  644 645	 1492635950	 847142640	 271110.
21:05:51  645 646	 1492635951	 69320244	 222178.
21:05:51  646 647	 1492635951	 340246104	 270926.
21:05:51  647 648	 1492635951	 611400441	 271154.
21:05:51  648 649	 1492635951	 886774101	 275374.
21:05:52  649 650	 1492635952	 158255575	 271482.
21:05:52  650 651	 1492635952	 430087201	 271831.
21:05:52  651 652	 1492635952	 701484058	 271397.
21:05:52  652 653	 1492635952	 977007786	 275524.
21:05:53  653 654	 1492635953	 248591328	 271583.
21:05:53  654 655	 1492635953	 520618297	 272027.
21:05:53  655 656	 1492635953	 792307102	 271689.
21:05:54  656 657	 1492635954	 68091494	 275784.
21:05:54  657 658	 1492635954	 339847619	 271756.
21:05:54  658 659	 1492635954	 615205200	 275358.
21:05:54  659 660	 1492635954	 886743202	 271538.
21:05:55  660 661	 1492635955	 158254461	 271511.
21:05:55  661 662	 1492635955	 429860956	 271607.
21:05:55  662 663	 1492635955	 705122846	 275262.
21:05:55  663 664	 1492635955	 922963539	 217840.
21:05:56  664 665	 1492635956	 198037480	 275074.
21:05:56  665 666	 1492635956	 469195517	 271158.
21:05:56  666 667	 1492635956	 740377808	 271183.
21:05:57  667 668	 1492635957	 11692900	 271315.
21:05:57  668 669	 1492635957	 287480009	 275787.
21:05:57  669 670	 1492635957	 559102137	 271622.
21:05:57  670 671	 1492635957	 831120600	 272018.
21:05:58  671 672	 1492635958	 102839532	 271719.
21:05:58  672 673	 1492635958	 378423558	 275584.
21:05:58  673 674	 1492635958	 649914278	 271491.
21:05:58  674 675	 1492635958	 925400768	 275487.
21:05:59  675 676	 1492635959	 197091410	 271690.
21:05:59  676 677	 1492635959	 468578686	 271487.
21:05:59  677 678	 1492635959	 740429614	 271851.
21:06:00  678 679	 1492635960	 15907814	 275479.
21:06:00  679 680	 1492635960	 287368213	 271460.
21:06:00  680 681	 1492635960	 558672979	 271305.
21:06:00  681 682	 1492635960	 834265091	 275592.
21:06:01  682 683	 1492635961	 104964339	 270699.
21:06:01  683 684	 1492635961	 375939236	 270975.
21:06:01  684 685	 1492635961	 646965137	 271026.
21:06:01  685 686	 1492635961	 922080957	 275116.
21:06:02  686 687	 1492635962	 140180386	 218099.
21:06:02  687 688	 1492635962	 415231002	 275051.
21:06:02  688 689	 1492635962	 686379534	 271148.
21:06:02  689 690	 1492635962	 957611837	 271233.
21:06:03  690 691	 1492635963	 232829010	 275217.
21:06:03  691 692	 1492635963	 504386991	 271558.
21:06:03  692 693	 1492635963	 775851539	 271464.
21:06:04  693 694	 1492635964	 47126383	 271275.
21:06:04  694 695	 1492635964	 322343055	 275217.
21:06:04  695 696	 1492635964	 593634583	 271291.
21:06:04  696 697	 1492635964	 865023690	 271389.
21:06:05  697 698	 1492635965	 132454607	 267432.
21:06:05  698 699	 1492635965	 354900719	 222446.
21:06:05  699 700	 1492635965	 626075498	 271174.
21:06:05  700 701	 1492635965	 900790487	 274715.
21:06:06  701 702	 1492635966	 171842252	 271052.
21:06:06  702 703	 1492635966	 446696150	 274854.
21:06:06  703 704	 1492635966	 718109452	 271413.
21:06:06  704 705	 1492635966	 989544612	 271436.
21:06:07  705 706	 1492635967	 260825877	 271281.
21:06:07  706 707	 1492635967	 536290737	 275465.
21:06:07  707 708	 1492635967	 807835934	 271545.
21:06:08  708 709	 1492635968	 79249037	 271413.
21:06:08  709 710	 1492635968	 350699589	 271450.
21:06:08  710 711	 1492635968	 621847065	 271148.
21:06:08  711 712	 1492635968	 896996748	 275150.
21:06:09  712 713	 1492635969	 114698711	 217701.
21:06:09  713 714	 1492635969	 389595619	 274897.
21:06:09  714 715	 1492635969	 660491491	 270896.
21:06:09  715 716	 1492635969	 931577706	 271086.
21:06:10  716 717	 1492635970	 206405106	 274828.
21:06:10  717 718	 1492635970	 477375061	 270970.
21:06:10  718 719	 1492635970	 699564276	 222189.
21:06:10  719 720	 1492635970	 967360136	 267796.
21:06:11  720 721	 1492635971	 238539631	 271179.
21:06:11  721 722	 1492635971	 513333904	 274795.
21:06:11  722 723	 1492635971	 784515672	 271181.
21:06:12  723 724	 1492635972	 55735744	 271221.
21:06:12  724 725	 1492635972	 330746339	 275010.
21:06:12  725 726	 1492635972	 601571514	 270825.
21:06:12  726 727	 1492635972	 819488552	 217917.
21:06:13  727 728	 1492635973	 94424353	 274936.
21:06:13  728 729	 1492635973	 365265961	 270842.
21:06:13  729 730	 1492635973	 636081659	 270815.
21:06:13  730 731	 1492635973	 910949670	 274869.
21:06:14  731 732	 1492635974	 181889357	 270939.
21:06:14  732 733	 1492635974	 403741879	 221853.
21:06:14  733 734	 1492635974	 674627463	 270885.
21:06:14  734 735	 1492635974	 945466429	 270839.
21:06:15  735 736	 1492635975	 220525294	 275059.
21:06:15  736 737	 1492635975	 491341447	 270816.
21:06:15  737 738	 1492635975	 762417690	 271076.
21:06:16  738 739	 1492635976	 33399560	 270982.
21:06:16  739 740	 1492635976	 255543062	 222144.
21:06:16  740 741	 1492635976	 526625236	 271082.
21:06:16  741 742	 1492635976	 802002194	 275377.
21:06:17  742 743	 1492635977	 73422406	 271420.
21:06:17  743 744	 1492635977	 344829634	 271407.
21:06:17  744 745	 1492635977	 620044574	 275215.
21:06:17  745 746	 1492635977	 891466185	 271422.
21:06:18  746 747	 1492635978	 162946693	 271480.
21:06:18  747 748	 1492635978	 433986206	 271040.
21:06:18  748 749	 1492635978	 704740590	 270754.
21:06:18  749 750	 1492635978	 926726803	 221987.
21:06:19  750 751	 1492635979	 201754370	 275027.
21:06:19  751 752	 1492635979	 472875030	 271121.
21:06:19  752 753	 1492635979	 743892675	 271017.
21:06:20  753 754	 1492635980	 14809607	 270918.
21:06:20  754 755	 1492635980	 289762863	 274953.
21:06:20  755 756	 1492635980	 560909101	 271146.
21:06:20  756 757	 1492635980	 783332918	 222424.
21:06:21  757 758	 1492635981	 54568199	 271235.
21:06:21  758 759	 1492635981	 326020481	 271452.
21:06:21  759 760	 1492635981	 642993658	 316973.
21:06:21  760 761	 1492635981	 865630958	 222638.
21:06:22  761 762	 1492635982	 136778184	 271147.
21:06:22  762 763	 1492635982	 408069811	 271292.
21:06:22  763 764	 1492635982	 683490864	 275421.
21:06:22  764 765	 1492635982	 954601764	 271111.
21:06:23  765 766	 1492635983	 225572757	 270971.
21:06:23  766 767	 1492635983	 496395260	 270822.
21:06:23  767 768	 1492635983	 771593616	 275198.
21:06:24  768 769	 1492635984	 42536608	 270943.
21:06:24  769 770	 1492635984	 264626395	 222090.
21:06:24  770 771	 1492635984	 535653343	 271027.
21:06:24  771 772	 1492635984	 811150134	 275497.
21:06:25  772 773	 1492635985	 82575588	 271425.
21:06:25  773 774	 1492635985	 353977805	 271403.
21:06:25  774 775	 1492635985	 625404212	 271426.
21:06:25  775 776	 1492635985	 896344660	 270941.
21:06:26  776 777	 1492635986	 171200698	 274855.
21:06:26  777 778	 1492635986	 442243823	 271044.
21:06:26  778 779	 1492635986	 717280700	 275036.
21:06:26  779 780	 1492635986	 939512026	 222232.
21:06:27  780 781	 1492635987	 210344336	 270832.
21:06:27  781 782	 1492635987	 481419344	 271075.
21:06:27  782 783	 1492635987	 756394813	 274976.
21:06:28  783 784	 1492635988	 27292525	 270897.
21:06:28  784 785	 1492635988	 298177927	 270886.
21:06:28  785 786	 1492635988	 520339104	 222161.
21:06:28  786 787	 1492635988	 795511345	 275172.
21:06:29  787 788	 1492635989	 66386378	 270875.
21:06:29  788 789	 1492635989	 337485452	 271099.
21:06:29  789 790	 1492635989	 608933683	 271448.
21:06:29  790 791	 1492635989	 884035761	 275103.
21:06:30  791 792	 1492635990	 155014027	 270978.
21:06:30  792 793	 1492635990	 426526489	 271512.
21:06:30  793 794	 1492635990	 697761498	 271235.
21:06:30  794 795	 1492635990	 973147313	 275386.
21:06:31  795 796	 1492635991	 244697650	 271550.
21:06:31  796 797	 1492635991	 467010930	 222314.
21:06:31  797 798	 1492635991	 738231939	 271221.
21:06:32  798 799	 1492635992	 9777951	 271546.
21:06:32  799 800	 1492635992	 281533679	 271755.
21:06:32  800 801	 1492635992	 556390370	 274857.
21:06:32  801 802	 1492635992	 827177314	 270787.
21:06:33  802 803	 1492635993	 98295378	 271118.
21:06:33  803 804	 1492635993	 369429309	 271134.
21:06:33  804 805	 1492635993	 644879902	 275451.
21:06:33  805 806	 1492635993	 915895171	 271015.
21:06:34  806 807	 1492635994	 187015414	 271120.
21:06:34  807 808	 1492635994	 458412776	 271398.
21:06:34  808 809	 1492635994	 680715782	 222303.
21:06:34  809 810	 1492635994	 951871441	 271155.
21:06:35  810 811	 1492635995	 227009405	 275138.
21:06:35  811 812	 1492635995	 498030984	 271022.
21:06:35  812 813	 1492635995	 769459804	 271429.
21:06:36  813 814	 1492635996	 40524827	 271065.
21:06:36  814 815	 1492635996	 315713721	 275189.
21:06:36  815 816	 1492635996	 587032186	 271318.
21:06:36  816 817	 1492635996	 858556082	 271524.
21:06:37  817 818	 1492635997	 134114219	 275558.
21:06:37  818 819	 1492635997	 406377774	 272264.
21:06:37  819 820	 1492635997	 678402246	 272024.
21:06:37  820 821	 1492635997	 954553584	 276151.
21:06:38  821 822	 1492635998	 226701765	 272149.
21:06:38  822 823	 1492635998	 498811651	 272109.
21:06:38  823 824	 1492635998	 774534013	 275723.
21:06:38  824 825	 1492635998	 996559701	 222025.
21:06:39  825 826	 1492635999	 267716961	 271158.
21:06:39  826 827	 1492635999	 543383305	 275666.
21:06:39  827 828	 1492635999	 765729820	 222346.
21:06:40  828 829	 1492636000	 37486249	 271757.
21:06:40  829 830	 1492636000	 308711125	 271225.
21:06:40  830 831	 1492636000	 583975578	 275264.
21:06:40  831 832	 1492636000	 856404602	 272429.
21:06:41  832 833	 1492636001	 132811056	 276407.
21:06:41  833 834	 1492636001	 404061773	 271251.
21:06:41  834 835	 1492636001	 674940130	 270878.
21:06:41  835 836	 1492636001	 945447429	 270507.
21:06:42  836 837	 1492636002	 167576236	 222129.
21:06:42  837 838	 1492636002	 438088451	 270512.
21:06:42  838 839	 1492636002	 713042730	 274955.
21:06:42  839 840	 1492636002	 983831218	 270788.
21:06:43  840 841	 1492636003	 254928011	 271097.
21:06:43  841 842	 1492636003	 477485104	 222557.
21:06:43  842 843	 1492636003	 753322918	 275838.
21:06:44  843 844	 1492636004	 25191893	 271869.
21:06:44  844 845	 1492636004	 296886610	 271694.
21:06:44  845 846	 1492636004	 572895670	 276009.
21:06:44  846 847	 1492636004	 844264126	 271369.
21:06:45  847 848	 1492636005	 119900446	 275636.
21:06:45  848 849	 1492636005	 338240419	 218340.
21:06:45  849 850	 1492636005	 614197078	 275957.
21:06:45  850 851	 1492636005	 885200838	 271004.
21:06:46  851 852	 1492636006	 160732255	 275531.
21:06:46  852 853	 1492636006	 433223528	 272492.
21:06:46  853 854	 1492636006	 705690986	 272467.
21:06:46  854 855	 1492636006	 982514972	 276824.
21:06:47  855 856	 1492636007	 254742299	 272227.
21:06:47  856 857	 1492636007	 531245083	 276503.
21:06:47  857 858	 1492636007	 803111939	 271867.
21:06:48  858 859	 1492636008	 79501852	 276390.
21:06:48  859 860	 1492636008	 351010841	 271509.
21:06:48  860 861	 1492636008	 622233975	 271223.
21:06:48  861 862	 1492636008	 897716969	 275483.
21:06:49  862 863	 1492636009	 169134961	 271418.
21:06:49  863 864	 1492636009	 395564596	 226429.
21:06:49  864 865	 1492636009	 667081693	 271517.
21:06:49  865 866	 1492636009	 938056832	 270976.
21:06:50  866 867	 1492636010	 213190443	 275133.
21:06:50  867 868	 1492636010	 435601020	 222411.
21:06:50  868 869	 1492636010	 707185202	 271584.
21:06:50  869 870	 1492636010	 978625226	 271440.
21:06:51  870 871	 1492636011	 253956997	 275332.
21:06:51  871 872	 1492636011	 525514661	 271557.
21:06:51  872 873	 1492636011	 751808657	 226294.
21:06:52  873 874	 1492636012	 23010163	 271202.
21:06:52  874 875	 1492636012	 294186266	 271176.
21:06:52  875 876	 1492636012	 570258359	 276072.
21:06:52  876 877	 1492636012	 841905573	 271647.
21:06:53  877 878	 1492636013	 64341864	 222437.
21:06:53  878 879	 1492636013	 339606047	 275264.
21:06:53  879 880	 1492636013	 611480903	 271875.
21:06:53  880 881	 1492636013	 886974164	 275493.
21:06:54  881 882	 1492636014	 158775970	 271802.
21:06:54  882 883	 1492636014	 381412730	 222636.
21:06:54  883 884	 1492636014	 652973137	 271561.
21:06:54  884 885	 1492636014	 928856001	 275883.
21:06:55  885 886	 1492636015	 204250533	 275394.
21:06:55  886 887	 1492636015	 475410646	 271160.
21:06:55  887 888	 1492636015	 702404813	 226994.
21:06:55  888 889	 1492636015	 974156834	 271753.
21:06:56  889 890	 1492636016	 250155000	 275998.
21:06:56  890 891	 1492636016	 522112130	 271957.
21:06:56  891 892	 1492636016	 797397538	 275285.
21:06:57  892 893	 1492636017	 19509392	 222112.
21:06:57  893 894	 1492636017	 290694530	 271185.
21:06:57  894 895	 1492636017	 566448454	 275754.
21:06:57  895 896	 1492636017	 837141818	 270694.
21:06:58  896 897	 1492636018	 111790571	 274660.
21:06:58  897 898	 1492636018	 329791775	 217990.
21:06:58  898 899	 1492636018	 605734365	 275942.
21:06:58  899 900	 1492636018	 876914333	 271180.
21:06:59  900 901	 1492636019	 148488957	 271575.
21:06:59  901 902	 1492636019	 423605975	 275117.
21:06:59  902 903	 1492636019	 695263572	 271657.
21:06:59  903 904	 1492636019	 917747442	 222484.
21:07:00  904 905	 1492636020	 193135178	 275388.
21:07:00  905 906	 1492636020	 464389922	 271255.
21:07:00  906 907	 1492636020	 735035324	 270645.
21:07:01  907 908	 1492636021	 9963023	 274928.
21:07:01  908 909	 1492636021	 280747987	 270785.
21:07:01  909 910	 1492636021	 502662597	 221914.
21:07:01  910 911	 1492636021	 773571206	 270909.
21:07:02  911 912	 1492636022	 44393079	 270822.
21:07:02  912 913	 1492636022	 319771953	 275379.
21:07:02  913 914	 1492636022	 590635516	 270863.
21:07:02  914 915	 1492636022	 808371166	 217736.
21:07:03  915 916	 1492636023	 83453936	 275083.
21:07:03  916 917	 1492636023	 354163301	 270709.
21:07:03  917 918	 1492636023	 625510690	 271348.
21:07:03  918 919	 1492636023	 896544793	 271034.
21:07:04  919 920	 1492636024	 118500795	 221956.
21:07:04  920 921	 1492636024	 393941971	 275441.
21:07:04  921 922	 1492636024	 665179307	 271237.
21:07:04  922 923	 1492636024	 936500307	 271321.
21:07:05  923 924	 1492636025	 212345288	 275845.
21:07:05  924 925	 1492636025	 484418586	 272073.
21:07:05  925 926	 1492636025	 760104293	 275686.
21:07:06  926 927	 1492636026	 32376616	 272272.
21:07:06  927 928	 1492636026	 303528500	 271152.
21:07:06  928 929	 1492636026	 579130658	 275602.
21:07:06  929 930	 1492636026	 850805163	 271675.
21:07:07  930 931	 1492636027	 73386396	 222581.
21:07:07  931 932	 1492636027	 348760206	 275374.
21:07:07  932 933	 1492636027	 619685408	 270925.
21:07:07  933 934	 1492636027	 890824313	 271139.
21:07:08  934 935	 1492636028	 161738009	 270914.
21:07:08  935 936	 1492636028	 436505418	 274767.
21:07:08  936 937	 1492636028	 708004768	 271500.
21:07:08  937 938	 1492636028	 979992877	 271988.
21:07:09  938 939	 1492636029	 256101835	 276109.
21:07:09  939 940	 1492636029	 532243617	 276141.
21:07:09  940 941	 1492636029	 804331955	 272089.
21:07:10  941 942	 1492636030	 76130018	 271798.
21:07:10  942 943	 1492636030	 298266207	 222136.
21:07:10  943 944	 1492636030	 569073240	 270807.
21:07:10  944 945	 1492636030	 839984242	 270911.
21:07:11  945 946	 1492636031	 114421739	 274438.
21:07:11  946 947	 1492636031	 385241671	 270819.
21:07:11  947 948	 1492636031	 656539595	 271298.
21:07:11  948 949	 1492636031	 878969832	 222431.
21:07:12  949 950	 1492636032	 154742038	 275772.
21:07:12  950 951	 1492636032	 426095187	 271353.
21:07:12  951 952	 1492636032	 697736170	 271641.
21:07:12  952 953	 1492636032	 973257030	 275521.
21:07:13  953 954	 1492636033	 244870776	 271614.
21:07:13  954 955	 1492636033	 467608764	 222738.
21:07:13  955 956	 1492636033	 739516461	 271907.
21:07:14  956 957	 1492636034	 15001098	 275485.
21:07:14  957 958	 1492636034	 285593989	 270593.
21:07:14  958 959	 1492636034	 560246282	 274652.
21:07:14  959 960	 1492636034	 830804852	 270559.
21:07:15  960 961	 1492636035	 52632656	 221827.
21:07:15  961 962	 1492636035	 323521972	 270890.
21:07:15  962 963	 1492636035	 599144452	 275622.
21:07:15  963 964	 1492636035	 870613254	 271469.
21:07:16  964 965	 1492636036	 146026561	 275413.
21:07:16  965 966	 1492636036	 368335619	 222309.
21:07:16  966 967	 1492636036	 640010331	 271675.
21:07:16  967 968	 1492636036	 915644440	 275634.
21:07:17  968 969	 1492636037	 187617765	 271973.
21:07:17  969 970	 1492636037	 463173603	 275556.
21:07:17  970 971	 1492636037	 685584972	 222412.
21:07:17  971 972	 1492636037	 957427972	 271843.
21:07:18  972 973	 1492636038	 232886128	 275458.
21:07:18  973 974	 1492636038	 503919832	 271034.
21:07:18  974 975	 1492636038	 779696080	 275776.
21:07:19  975 976	 1492636039	 51697197	 272001.
21:07:19  976 977	 1492636039	 278406196	 226709.
21:07:19  977 978	 1492636039	 550245790	 271840.
21:07:19  978 979	 1492636039	 826516132	 276270.
21:07:20  979 980	 1492636040	 97890774	 271375.
21:07:20  980 981	 1492636040	 373506027	 275615.
21:07:20  981 982	 1492636040	 645217861	 271712.
21:07:20  982 983	 1492636040	 867780750	 222562.
21:07:21  983 984	 1492636041	 143405195	 275625.
21:07:21  984 985	 1492636041	 419164201	 275759.
21:07:21  985 986	 1492636041	 694603653	 275439.
21:07:21  986 987	 1492636041	 912540973	 217938.
21:07:22  987 988	 1492636042	 188170924	 275630.
21:07:22  988 989	 1492636042	 460220111	 272049.
21:07:22  989 990	 1492636042	 735455854	 275236.
21:07:23  990 991	 1492636043	 10729471	 275273.
21:07:23  991 992	 1492636043	 232444531	 221715.
21:07:23  992 993	 1492636043	 503292340	 270848.
21:07:23  993 994	 1492636043	 777908843	 274617.
21:07:24  994 995	 1492636044	 48571482	 270662.
21:07:24  995 996	 1492636044	 323715202	 275144.
21:07:24  996 997	 1492636044	 545592633	 221877.
21:07:24  997 998	 1492636044	 817132778	 271541.
21:07:25  998 999	 1492636045	 91700341	 274567.
21:07:25  999 1000	 1492636045	 362911117	 271211.
21:07:25 1000 1001	 1492636045	 633950485	 271039.
21:07:25 1001 1002	 1492636045	 908654285	 274704.
21:07:26 1002 1003	 1492636046	 126619491	 217965.
21:07:26 1003 1004	 1492636046	 401944560	 275325.
21:07:26 1004 1005	 1492636046	 672755939	 270812.
21:07:26 1005 1006	 1492636046	 894489593	 221733.
21:07:27 1006 1007	 1492636047	 165210342	 270721.
21:07:27 1007 1008	 1492636047	 439981919	 274772.
21:07:27 1008 1009	 1492636047	 710840461	 270858.
21:07:27 1009 1010	 1492636047	 986447178	 275607.
21:07:28 1010 1011	 1492636048	 208581872	 222135.
21:07:28 1011 1012	 1492636048	 479557640	 270975.
21:07:28 1012 1013	 1492636048	 750400727	 270844.
21:07:29 1013 1014	 1492636049	 21291547	 270891.
21:07:29 1014 1015	 1492636049	 295958506	 274666.
21:07:29 1015 1016	 1492636049	 518084328	 222126.
21:07:29 1016 1017	 1492636049	 788875598	 270791.
21:07:30 1017 1018	 1492636050	 60098796	 271224.
21:07:30 1018 1019	 1492636050	 335013777	 274915.
21:07:30 1019 1020	 1492636050	 605709816	 270696.
21:07:30 1020 1021	 1492636050	 828323478	 222613.
21:07:31 1021 1022	 1492636051	 103009020	 274686.
21:07:31 1022 1023	 1492636051	 373717622	 270709.
21:07:31 1023 1024	 1492636051	 648211867	 274494.
21:07:31 1024 1025	 1492636051	 870390358	 222178.
21:07:32 1025 1026	 1492636052	 141425182	 271035.
21:07:32 1026 1027	 1492636052	 416463292	 275038.
21:07:32 1027 1028	 1492636052	 687442771	 270980.
21:07:32 1028 1029	 1492636052	 958761526	 271318.
21:07:33 1029 1030	 1492636053	 230094482	 271333.
21:07:33 1030 1031	 1492636053	 451910851	 221817.
21:07:33 1031 1032	 1492636053	 722770441	 270859.
21:07:33 1032 1033	 1492636053	 997942299	 275172.
21:07:34 1033 1034	 1492636054	 268744956	 270803.
21:07:34 1034 1035	 1492636054	 539684709	 270939.
21:07:34 1035 1036	 1492636054	 762113175	 222429.
21:07:35 1036 1037	 1492636055	 37238534	 275125.
21:07:35 1037 1038	 1492636055	 308221978	 270984.
21:07:35 1038 1039	 1492636055	 579096219	 270874.
21:07:35 1039 1040	 1492636055	 850176293	 271080.
21:07:36 1040 1041	 1492636056	 72167761	 221992.
21:07:36 1041 1042	 1492636056	 347365081	 275197.
21:07:36 1042 1043	 1492636056	 618318869	 270954.
21:07:36 1043 1044	 1492636056	 893750342	 275431.
21:07:37 1044 1045	 1492636057	 164585315	 270835.
21:07:37 1045 1046	 1492636057	 386777035	 222192.
21:07:37 1046 1047	 1492636057	 658478728	 271702.
21:07:37 1047 1048	 1492636057	 934189211	 275710.
21:07:38 1048 1049	 1492636058	 205607215	 271418.
21:07:38 1049 1050	 1492636058	 480617945	 275011.
21:07:38 1050 1051	 1492636058	 752384805	 271767.
21:07:39 1051 1052	 1492636059	 28628221	 276243.
21:07:39 1052 1053	 1492636059	 251054916	 222427.
21:07:39 1053 1054	 1492636059	 526867391	 275812.
21:07:39 1054 1055	 1492636059	 798890625	 272023.
21:07:40 1055 1056	 1492636060	 70313113	 271423.
21:07:40 1056 1057	 1492636060	 345793038	 275480.
21:07:40 1057 1058	 1492636060	 617357105	 271564.
21:07:40 1058 1059	 1492636060	 839262559	 221905.
21:07:41 1059 1060	 1492636061	 110160864	 270899.
21:07:41 1060 1061	 1492636061	 384960574	 274799.
21:07:41 1061 1062	 1492636061	 656195424	 271235.
21:07:41 1062 1063	 1492636061	 931358366	 275163.
21:07:42 1063 1064	 1492636062	 202964059	 271606.
21:07:42 1064 1065	 1492636062	 425124817	 222161.
21:07:42 1065 1066	 1492636062	 700862541	 275737.
21:07:42 1066 1067	 1492636062	 972616942	 271755.
21:07:43 1067 1068	 1492636063	 244105033	 271488.
21:07:43 1068 1069	 1492636063	 519913736	 275809.
21:07:43 1069 1070	 1492636063	 791648775	 271735.
21:07:44 1070 1071	 1492636064	 14277799	 222628.
21:07:44 1071 1072	 1492636064	 289715212	 275438.
21:07:44 1072 1073	 1492636064	 561791938	 272077.
21:07:44 1073 1074	 1492636064	 837031170	 275239.
21:07:45 1074 1075	 1492636065	 108548626	 271517.
21:07:45 1075 1076	 1492636065	 381012163	 272464.
21:07:45 1076 1077	 1492636065	 657401759	 276390.
21:07:45 1077 1078	 1492636065	 929974813	 272573.
21:07:46 1078 1079	 1492636066	 152268888	 222294.
21:07:46 1079 1080	 1492636066	 428030924	 275762.
21:07:46 1080 1081	 1492636066	 699581535	 271550.
21:07:46 1081 1082	 1492636066	 975016749	 275436.
21:07:47 1082 1083	 1492636067	 197272350	 222255.
21:07:47 1083 1084	 1492636067	 468822301	 271550.
21:07:47 1084 1085	 1492636067	 744961982	 276140.
21:07:48 1085 1086	 1492636068	 16817235	 271855.
21:07:48 1086 1087	 1492636068	 292269481	 275452.
21:07:48 1087 1088	 1492636068	 510597430	 218328.
21:07:48 1088 1089	 1492636068	 786208748	 275611.
21:07:49 1089 1090	 1492636069	 61897849	 275690.
21:07:49 1090 1091	 1492636069	 333503574	 271605.
21:07:49 1091 1092	 1492636069	 604935744	 271432.
21:07:49 1092 1093	 1492636069	 831008015	 226073.
21:07:50 1093 1094	 1492636070	 98922035	 267914.
21:07:50 1094 1095	 1492636070	 370742546	 271820.
21:07:50 1095 1096	 1492636070	 646639797	 275898.
21:07:50 1096 1097	 1492636070	 918213684	 271573.
21:07:51 1097 1098	 1492636071	 141013422	 222800.
21:07:51 1098 1099	 1492636071	 416632471	 275619.
21:07:51 1099 1100	 1492636071	 688246047	 271614.
21:07:51 1100 1101	 1492636071	 959824649	 271578.
21:07:52 1101 1102	 1492636072	 235160468	 275336.
21:07:52 1102 1103	 1492636072	 458011544	 222851.
21:07:52 1103 1104	 1492636072	 729357337	 271346.
21:07:53 1104 1105	 1492636073	 5529125	 276172.
21:07:53 1105 1106	 1492636073	 276910935	 271382.
21:07:53 1106 1107	 1492636073	 552667263	 275756.
21:07:53 1107 1108	 1492636073	 824399004	 271732.
21:07:54 1108 1109	 1492636074	 46377998	 221979.
21:07:54 1109 1110	 1492636074	 317696558	 271319.
21:07:54 1110 1111	 1492636074	 593024017	 275327.
21:07:54 1111 1112	 1492636074	 864688366	 271664.
21:07:55 1112 1113	 1492636075	 87396078	 222708.
21:07:55 1113 1114	 1492636075	 362728453	 275332.
21:07:55 1114 1115	 1492636075	 633892282	 271164.
21:07:55 1115 1116	 1492636075	 909706125	 275814.
21:07:56 1116 1117	 1492636076	 127516669	 217810.
21:07:56 1117 1118	 1492636076	 403230496	 275714.
21:07:56 1118 1119	 1492636076	 678795720	 275566.
21:07:56 1119 1120	 1492636076	 950574230	 271778.
21:07:57 1120 1121	 1492636077	 225919055	 275345.
21:07:57 1121 1122	 1492636077	 444440879	 218522.
21:07:57 1122 1123	 1492636077	 720239423	 275798.
21:07:57 1123 1124	 1492636077	 991277275	 271038.
21:07:58 1124 1125	 1492636078	 267331408	 276054.
21:07:58 1125 1126	 1492636078	 538643957	 271313.
21:07:58 1126 1127	 1492636078	 761173910	 222530.
21:07:59 1127 1128	 1492636079	 36375419	 275201.
21:07:59 1128 1129	 1492636079	 307638286	 271263.
21:07:59 1129 1130	 1492636079	 530122568	 222484.
21:07:59 1130 1131	 1492636079	 800607003	 270485.
