15:19:17    0 Step	 time(s)	 time(ns)	 delta(ms)
15:19:17    0 1	 1492787957	 897115408	 984.
15:19:18    1 2	 1492787958	 168263140	 271148.
15:19:18    2 3	 1492787958	 444175147	 275912.
15:19:18    3 4	 1492787958	 719213635	 275038.
15:19:18    4 5	 1492787958	 941232879	 222020.
15:19:19    5 6	 1492787959	 208445672	 267212.
15:19:19    6 7	 1492787959	 484338686	 275893.
15:19:19    7 8	 1492787959	 755766359	 271428.
15:19:20    8 9	 1492787960	 27127330	 271361.
15:19:20    9 10	 1492787960	 303107071	 275980.
15:19:20   10 11	 1492787960	 574575532	 271468.
15:19:20   11 12	 1492787960	 845674370	 271099.
15:19:21   12 13	 1492787961	 116919684	 271245.
15:19:21   13 14	 1492787961	 392203540	 275284.
15:19:21   14 15	 1492787961	 663620234	 271417.
15:19:21   15 16	 1492787961	 935037741	 271418.
15:19:22   16 17	 1492787962	 206476063	 271438.
15:19:22   17 18	 1492787962	 482503099	 276027.
15:19:22   18 19	 1492787962	 753981266	 271478.
15:19:23   19 20	 1492787963	 29030577	 275049.
15:19:23   20 21	 1492787963	 251268410	 222238.
15:19:23   21 22	 1492787963	 522408030	 271140.
15:19:23   22 23	 1492787963	 793707471	 271299.
15:19:24   23 24	 1492787964	 65129217	 271422.
15:19:24   24 25	 1492787964	 336510927	 271382.
15:19:24   25 26	 1492787964	 611618387	 275107.
15:19:24   26 27	 1492787964	 882626481	 271008.
15:19:25   27 28	 1492787965	 104495975	 221870.
15:19:25   28 29	 1492787965	 379646899	 275151.
15:19:25   29 30	 1492787965	 654724033	 275077.
15:19:25   30 31	 1492787965	 926598956	 271875.
15:19:26   31 32	 1492787966	 198486418	 271887.
15:19:26   32 33	 1492787966	 474011708	 275525.
15:19:26   33 34	 1492787966	 745549992	 271539.
15:19:27   34 35	 1492787967	 17324915	 271775.
15:19:27   35 36	 1492787967	 292478169	 275153.
15:19:27   36 37	 1492787967	 563407834	 270930.
15:19:27   37 38	 1492787967	 834490772	 271083.
15:19:28   38 39	 1492787968	 105768021	 271277.
15:19:28   39 40	 1492787968	 328335267	 222567.
15:19:28   40 41	 1492787968	 603666139	 275331.
15:19:28   41 42	 1492787968	 874911132	 271245.
15:19:29   42 43	 1492787969	 146104926	 271194.
15:19:29   43 44	 1492787969	 417482788	 271378.
15:19:29   44 45	 1492787969	 692981345	 275498.
15:19:29   45 46	 1492787969	 964137249	 271156.
15:19:30   46 47	 1492787970	 234986144	 270849.
15:19:30   47 48	 1492787970	 510216021	 275230.
15:19:30   48 49	 1492787970	 781346833	 271131.
15:19:31   49 50	 1492787971	 52620605	 271273.
15:19:31   50 51	 1492787971	 274835012	 222215.
15:19:31   51 52	 1492787971	 546109485	 271274.
15:19:31   52 53	 1492787971	 816989869	 270881.
15:19:32   53 54	 1492787972	 92170812	 275181.
15:19:32   54 55	 1492787972	 363172212	 271001.
15:19:32   55 56	 1492787972	 634615947	 271444.
15:19:32   56 57	 1492787972	 909710099	 275094.
15:19:33   57 58	 1492787973	 180434420	 270724.
15:19:33   58 59	 1492787973	 398325881	 217892.
15:19:33   59 60	 1492787973	 673219489	 274893.
15:19:33   60 61	 1492787973	 944640800	 271422.
15:19:34   61 62	 1492787974	 215459052	 270818.
15:19:34   62 63	 1492787974	 486914603	 271455.
15:19:34   63 64	 1492787974	 762352069	 275438.
15:19:35   64 65	 1492787975	 33092968	 270741.
15:19:35   65 66	 1492787975	 303528292	 270435.
15:19:35   66 67	 1492787975	 578890478	 275362.
15:19:35   67 68	 1492787975	 800818902	 221929.
15:19:36   68 69	 1492787976	 71187674	 270368.
15:19:36   69 70	 1492787976	 342058657	 270871.
15:19:36   70 71	 1492787976	 613096305	 271038.
15:19:36   71 72	 1492787976	 888510390	 275414.
15:19:37   72 73	 1492787977	 159490043	 270980.
15:19:37   73 74	 1492787977	 381036277	 221546.
15:19:37   74 75	 1492787977	 651620334	 270584.
15:19:37   75 76	 1492787977	 922178227	 270558.
15:19:38   76 77	 1492787978	 197112914	 274935.
15:19:38   77 78	 1492787978	 414833998	 217721.
15:19:38   78 79	 1492787978	 690091576	 275257.
15:19:38   79 80	 1492787978	 960652849	 270562.
15:19:39   80 81	 1492787979	 231712001	 271059.
15:19:39   81 82	 1492787979	 453159582	 221447.
15:19:39   82 83	 1492787979	 728129717	 274971.
15:19:39   83 84	 1492787979	 999152280	 271022.
15:19:40   84 85	 1492787980	 269673579	 270521.
15:19:40   85 86	 1492787980	 491939683	 222266.
15:19:40   86 87	 1492787980	 762907334	 270968.
15:19:41   87 88	 1492787981	 33124509	 270217.
15:19:41   88 89	 1492787981	 307799255	 274675.
15:19:41   89 90	 1492787981	 578874075	 271075.
15:19:41   90 91	 1492787981	 800792484	 221918.
15:19:42   91 92	 1492787982	 71458859	 270667.
15:19:42   92 93	 1492787982	 342611373	 271152.
15:19:42   93 94	 1492787982	 617991189	 275380.
15:19:42   94 95	 1492787982	 889134610	 271143.
15:19:43   95 96	 1492787983	 111016272	 221882.
15:19:43   96 97	 1492787983	 382396339	 271380.
15:19:43   97 98	 1492787983	 653354827	 270959.
15:19:43   98 99	 1492787983	 923733650	 270378.
15:19:44   99 100	 1492787984	 198628211	 274895.
15:19:44  100 101	 1492787984	 417029384	 218401.
15:19:44  101 102	 1492787984	 691623564	 274594.
15:19:44  102 103	 1492787984	 962073031	 270450.
15:19:45  103 104	 1492787985	 236960726	 274888.
15:19:45  104 105	 1492787985	 459275712	 222314.
15:19:45  105 106	 1492787985	 729779239	 270504.
15:19:45  106 107	 1492787986	 580693	 270801.
15:19:46  107 108	 1492787986	 271302531	 270722.
15:19:46  108 109	 1492787986	 493446576	 222144.
15:19:46  109 110	 1492787986	 764289756	 270844.
15:19:47  110 111	 1492787987	 39495771	 275206.
15:19:47  111 112	 1492787987	 309950540	 270454.
15:19:47  112 113	 1492787987	 581029436	 271079.
15:19:47  113 114	 1492787987	 852450535	 271421.
15:19:48  114 115	 1492787988	 74766590	 222316.
15:19:48  115 116	 1492787988	 349857884	 275092.
15:19:48  116 117	 1492787988	 620487469	 270629.
15:19:48  117 118	 1492787988	 895515661	 275028.
15:19:49  118 119	 1492787989	 166292274	 270777.
15:19:49  119 120	 1492787989	 437563416	 271271.
15:19:49  120 121	 1492787989	 659776726	 222214.
15:19:49  121 122	 1492787989	 931209653	 271432.
15:19:50  122 123	 1492787990	 206472244	 275263.
15:19:50  123 124	 1492787990	 477168277	 270696.
15:19:50  124 125	 1492787990	 748170007	 271002.
15:19:51  125 126	 1492787991	 22949747	 274780.
15:19:51  126 127	 1492787991	 244908263	 221958.
15:19:51  127 128	 1492787991	 515555823	 270648.
15:19:51  128 129	 1492787991	 786604960	 271049.
15:19:52  129 130	 1492787992	 57674551	 271069.
15:19:52  130 131	 1492787992	 332631420	 274957.
15:19:52  131 132	 1492787992	 603903745	 271273.
15:19:52  132 133	 1492787992	 874959265	 271055.
15:19:53  133 134	 1492787993	 97185979	 222227.
15:19:53  134 135	 1492787993	 409987966	 312802.
15:19:53  135 136	 1492787993	 628420803	 218433.
15:19:53  136 137	 1492787993	 903557393	 275136.
15:19:54  137 138	 1492787994	 174355226	 270798.
15:19:54  138 139	 1492787994	 444811512	 270456.
15:19:54  139 140	 1492787994	 715618182	 270807.
15:19:54  140 141	 1492787994	 991008699	 275390.
15:19:55  141 142	 1492787995	 212882453	 221874.
15:19:55  142 143	 1492787995	 483451010	 270569.
15:19:55  143 144	 1492787995	 753732095	 270281.
15:19:56  144 145	 1492787996	 24030412	 270298.
15:19:56  145 146	 1492787996	 245746310	 221716.
15:19:56  146 147	 1492787996	 516193673	 270447.
15:19:56  147 148	 1492787996	 790862891	 274670.
15:19:57  148 149	 1492787997	 61982751	 271120.
15:19:57  149 150	 1492787997	 333019522	 271036.
15:19:57  150 151	 1492787997	 604883883	 271865.
15:19:57  151 152	 1492787997	 827607035	 222723.
15:19:58  152 153	 1492787998	 103078876	 275472.
15:19:58  153 154	 1492787998	 375004780	 271926.
15:19:58  154 155	 1492787998	 651027107	 276022.
15:19:58  155 156	 1492787998	 922479094	 271452.
15:19:59  156 157	 1492787999	 193984425	 271505.
15:19:59  157 158	 1492787999	 468888024	 274904.
15:19:59  158 159	 1492787999	 740778345	 271890.
15:19:59  159 160	 1492787999	 962892380	 222114.
15:20:00  160 161	 1492788000	 233693287	 270801.
15:20:00  161 162	 1492788000	 504514787	 270822.
15:20:00  162 163	 1492788000	 775239095	 270724.
15:20:01  163 164	 1492788001	 46091329	 270852.
15:20:01  164 165	 1492788001	 268154513	 222063.
15:20:01  165 166	 1492788001	 543369946	 275216.
15:20:01  166 167	 1492788001	 814454933	 271085.
15:20:02  167 168	 1492788002	 85803998	 271349.
15:20:02  168 169	 1492788002	 357322577	 271518.
15:20:02  169 170	 1492788002	 632497146	 275175.
15:20:02  170 171	 1492788002	 903463259	 270966.
15:20:03  171 172	 1492788003	 174562885	 271100.
15:20:03  172 173	 1492788003	 396851697	 222288.
15:20:03  173 174	 1492788003	 668199244	 271348.
15:20:03  174 175	 1492788003	 943881679	 275682.
15:20:04  175 176	 1492788004	 215509173	 271628.
15:20:04  176 177	 1492788004	 491000507	 275491.
15:20:04  177 178	 1492788004	 762280823	 271281.
15:20:05  178 179	 1492788005	 33110247	 270829.
15:20:05  179 180	 1492788005	 304240673	 271130.
15:20:05  180 181	 1492788005	 579486169	 275246.
15:20:05  181 182	 1492788005	 850663001	 271177.
15:20:06  182 183	 1492788006	 121938706	 271275.
15:20:06  183 184	 1492788006	 344050262	 222112.
15:20:06  184 185	 1492788006	 615673458	 271623.
15:20:06  185 186	 1492788006	 891095438	 275422.
15:20:07  186 187	 1492788007	 162864336	 271769.
15:20:07  187 188	 1492788007	 434081652	 271217.
15:20:07  188 189	 1492788007	 710206726	 276125.
15:20:07  189 190	 1492788007	 982168949	 271963.
15:20:08  190 191	 1492788008	 253813935	 271645.
15:20:08  191 192	 1492788008	 529736386	 275922.
15:20:08  192 193	 1492788008	 801689004	 271953.
15:20:09  193 194	 1492788009	 73473340	 271784.
15:20:09  194 195	 1492788009	 345329007	 271856.
15:20:09  195 196	 1492788009	 621403215	 276074.
15:20:09  196 197	 1492788009	 844373225	 222970.
15:20:10  197 198	 1492788010	 116067738	 271695.
15:20:10  198 199	 1492788010	 391842888	 275775.
15:20:10  199 200	 1492788010	 663635021	 271792.
15:20:10  200 201	 1492788010	 938864596	 275229.
15:20:11  201 202	 1492788011	 161219999	 222356.
15:20:11  202 203	 1492788011	 436846729	 275626.
15:20:11  203 204	 1492788011	 708991304	 272145.
15:20:11  204 205	 1492788011	 985161163	 276170.
15:20:12  205 206	 1492788012	 204028757	 218868.
15:20:12  206 207	 1492788012	 480193888	 276165.
15:20:12  207 208	 1492788012	 756336322	 276142.
15:20:13  208 209	 1492788013	 28301573	 271965.
15:20:13  209 210	 1492788013	 304138067	 275837.
15:20:13  210 211	 1492788013	 576135929	 271998.
15:20:13  211 212	 1492788013	 851967914	 275832.
15:20:14  212 213	 1492788014	 74481150	 222513.
15:20:14  213 214	 1492788014	 345538653	 271057.
15:20:14  214 215	 1492788014	 617171248	 271633.
15:20:14  215 216	 1492788014	 893152484	 275981.
15:20:15  216 217	 1492788015	 164863221	 271711.
15:20:15  217 218	 1492788015	 440281324	 275418.
15:20:15  218 219	 1492788015	 711942117	 271661.
15:20:15  219 220	 1492788015	 934615413	 222673.
15:20:16  220 221	 1492788016	 206106412	 271491.
15:20:16  221 222	 1492788016	 481235143	 275129.
15:20:16  222 223	 1492788016	 752583143	 271348.
15:20:17  223 224	 1492788017	 28210220	 275627.
15:20:17  224 225	 1492788017	 298968150	 270758.
15:20:17  225 226	 1492788017	 520782086	 221814.
15:20:17  226 227	 1492788017	 791865716	 271083.
15:20:18  227 228	 1492788018	 66810729	 274946.
15:20:18  228 229	 1492788018	 338123920	 271313.
15:20:18  229 230	 1492788018	 609848966	 271725.
15:20:18  230 231	 1492788018	 832346701	 222497.
15:20:19  231 232	 1492788019	 107817880	 275472.
15:20:19  232 233	 1492788019	 379000366	 271182.
15:20:19  233 234	 1492788019	 649823076	 270823.
15:20:19  234 235	 1492788019	 924498650	 274675.
15:20:20  235 236	 1492788020	 146293099	 221795.
15:20:20  236 237	 1492788020	 416802483	 270509.
15:20:20  237 238	 1492788020	 692396968	 275595.
15:20:20  238 239	 1492788020	 963592585	 271195.
15:20:21  239 240	 1492788021	 186029352	 222437.
15:20:21  240 241	 1492788021	 461905154	 275876.
15:20:21  241 242	 1492788021	 733069082	 271164.
15:20:21  242 243	 1492788021	 955279723	 222211.
15:20:22  243 244	 1492788022	 231552013	 276272.
15:20:22  244 245	 1492788022	 503345993	 271794.
15:20:22  245 246	 1492788022	 779544097	 276198.
15:20:23  246 247	 1492788023	 51714673	 272170.
15:20:23  247 248	 1492788023	 327516479	 275802.
15:20:23  248 249	 1492788023	 550180862	 222664.
15:20:23  249 250	 1492788023	 826224337	 276044.
15:20:24  250 251	 1492788024	 96913992	 270690.
15:20:24  251 252	 1492788024	 367500016	 270586.
15:20:24  252 253	 1492788024	 643871739	 276372.
15:20:24  253 254	 1492788024	 866786748	 222914.
15:20:25  254 255	 1492788025	 138860588	 272074.
15:20:25  255 256	 1492788025	 410582549	 271722.
15:20:25  256 257	 1492788025	 686473993	 275892.
15:20:25  257 258	 1492788025	 962513958	 276040.
15:20:26  258 259	 1492788026	 185243779	 222729.
15:20:26  259 260	 1492788026	 456955641	 271712.
15:20:26  260 261	 1492788026	 732314973	 275360.
15:20:27  261 262	 1492788027	 3960667	 271645.
15:20:27  262 263	 1492788027	 226170382	 222210.
15:20:27  263 264	 1492788027	 502170747	 276000.
15:20:27  264 265	 1492788027	 773380680	 271210.
15:20:28  265 266	 1492788028	 48886935	 275507.
15:20:28  266 267	 1492788028	 271418306	 222531.
15:20:28  267 268	 1492788028	 543188784	 271770.
15:20:28  268 269	 1492788028	 818982732	 275794.
15:20:29  269 270	 1492788029	 91176148	 272194.
15:20:29  270 271	 1492788029	 366616336	 275440.
15:20:29  271 272	 1492788029	 638569012	 271953.
15:20:29  272 273	 1492788029	 861165765	 222596.
15:20:30  273 274	 1492788030	 136289686	 275125.
15:20:30  274 275	 1492788030	 407473405	 271183.
15:20:30  275 276	 1492788030	 683423199	 275950.
15:20:30  276 277	 1492788030	 956090698	 272667.
15:20:31  277 278	 1492788031	 232678470	 276588.
15:20:31  278 279	 1492788031	 505611458	 272933.
15:20:31  279 280	 1492788031	 776538385	 270927.
15:20:31  280 281	 1492788031	 997902946	 221365.
15:20:32  281 282	 1492788032	 268594060	 270691.
15:20:32  282 283	 1492788032	 539419733	 270825.
15:20:32  283 284	 1492788032	 809692253	 270273.
15:20:33  284 285	 1492788033	 32106237	 222414.
15:20:33  285 286	 1492788033	 307970851	 275865.
15:20:33  286 287	 1492788033	 579403521	 271432.
15:20:33  287 288	 1492788033	 855105154	 275702.
15:20:34  288 289	 1492788034	 127059832	 271955.
15:20:34  289 290	 1492788034	 402599756	 275539.
15:20:34  290 291	 1492788034	 620956650	 218357.
15:20:34  291 292	 1492788034	 896184906	 275229.
15:20:35  292 293	 1492788035	 167899448	 271714.
15:20:35  293 294	 1492788035	 443116529	 275217.
15:20:35  294 295	 1492788035	 714682740	 271567.
15:20:35  295 296	 1492788035	 990065990	 275383.
15:20:36  296 297	 1492788036	 261529150	 271463.
15:20:36  297 298	 1492788036	 483579921	 222051.
15:20:36  298 299	 1492788036	 754467695	 270887.
15:20:37  299 300	 1492788037	 30178493	 275711.
15:20:37  300 301	 1492788037	 252067672	 221890.
15:20:37  301 302	 1492788037	 523668286	 271600.
15:20:37  302 303	 1492788037	 799049619	 275381.
15:20:38  303 304	 1492788038	 21224265	 222175.
15:20:38  304 305	 1492788038	 292423242	 271199.
15:20:38  305 306	 1492788038	 567512046	 275089.
15:20:38  306 307	 1492788038	 838782353	 271270.
15:20:39  307 308	 1492788039	 61645144	 222863.
15:20:39  308 309	 1492788039	 337444537	 275799.
15:20:39  309 310	 1492788039	 608950135	 271506.
15:20:39  310 311	 1492788039	 880014776	 271064.
15:20:40  311 312	 1492788040	 101861472	 221847.
15:20:40  312 313	 1492788040	 376785377	 274924.
15:20:40  313 314	 1492788040	 648282438	 271497.
15:20:40  314 315	 1492788040	 919243945	 270962.
15:20:41  315 316	 1492788041	 194145673	 274901.
15:20:41  316 317	 1492788041	 416433370	 222288.
15:20:41  317 318	 1492788041	 687313579	 270880.
15:20:41  318 319	 1492788041	 958387820	 271075.
15:20:42  319 320	 1492788042	 229302679	 270914.
15:20:42  320 321	 1492788042	 504462715	 275160.
15:20:42  321 322	 1492788042	 775319427	 270857.
15:20:42  322 323	 1492788042	 997318033	 221999.
15:20:43  323 324	 1492788043	 268118114	 270800.
15:20:43  324 325	 1492788043	 543694224	 275576.
15:20:43  325 326	 1492788043	 814535979	 270842.
15:20:44  326 327	 1492788044	 85494955	 270959.
15:20:44  327 328	 1492788044	 356170455	 270675.
15:20:44  328 329	 1492788044	 578479696	 222309.
15:20:44  329 330	 1492788044	 849532506	 271053.
15:20:45  330 331	 1492788045	 120663408	 271131.
15:20:45  331 332	 1492788045	 395391350	 274728.
15:20:45  332 333	 1492788045	 666497636	 271107.
15:20:45  333 334	 1492788045	 937534825	 271037.
15:20:46  334 335	 1492788046	 159970655	 222435.
15:20:46  335 336	 1492788046	 431631638	 271661.
15:20:46  336 337	 1492788046	 702784008	 271153.
15:20:46  337 338	 1492788046	 977986885	 275203.
15:20:47  338 339	 1492788047	 249610452	 271623.
15:20:47  339 340	 1492788047	 525511923	 275902.
15:20:47  340 341	 1492788047	 747664436	 222152.
15:20:48  341 342	 1492788048	 18754656	 271090.
15:20:48  342 343	 1492788048	 294484311	 275730.
15:20:48  343 344	 1492788048	 566684271	 272200.
15:20:48  344 345	 1492788048	 842146088	 275462.
15:20:49  345 346	 1492788049	 64617585	 222471.
15:20:49  346 347	 1492788049	 336430451	 271813.
15:20:49  347 348	 1492788049	 612348080	 275918.
15:20:49  348 349	 1492788049	 884194876	 271847.
15:20:50  349 350	 1492788050	 155831833	 271637.
15:20:50  350 351	 1492788050	 378582897	 222751.
15:20:50  351 352	 1492788050	 654187671	 275605.
15:20:50  352 353	 1492788050	 929815789	 275627.
15:20:51  353 354	 1492788051	 201225863	 271411.
15:20:51  354 355	 1492788051	 424118995	 222893.
15:20:51  355 356	 1492788051	 695830610	 271711.
15:20:51  356 357	 1492788051	 970915968	 275086.
15:20:52  357 358	 1492788052	 242843788	 271928.
15:20:52  358 359	 1492788052	 518322699	 275478.
15:20:52  359 360	 1492788052	 740806747	 222484.
15:20:53  360 361	 1492788053	 12929541	 272123.
15:20:53  361 362	 1492788053	 288314750	 275386.
15:20:53  362 363	 1492788053	 559596165	 271281.
15:20:53  363 364	 1492788053	 782059919	 222464.
15:20:54  364 365	 1492788054	 57149970	 275090.
15:20:54  365 366	 1492788054	 328153036	 271003.
15:20:54  366 367	 1492788054	 550724571	 222571.
15:20:54  367 368	 1492788054	 826778220	 276054.
15:20:55  368 369	 1492788055	 98469334	 271691.
15:20:55  369 370	 1492788055	 374141371	 275672.
15:20:55  370 371	 1492788055	 646196128	 272055.
15:20:55  371 372	 1492788055	 921407569	 275211.
15:20:56  372 373	 1492788056	 140090271	 218683.
15:20:56  373 374	 1492788056	 416135518	 276045.
15:20:56  374 375	 1492788056	 688071765	 271937.
15:20:56  375 376	 1492788056	 964277317	 276205.
15:20:57  376 377	 1492788057	 239786795	 275510.
15:20:57  377 378	 1492788057	 458056104	 218269.
15:20:57  378 379	 1492788057	 733454975	 275399.
15:20:58  379 380	 1492788058	 8720804	 275266.
15:20:58  380 381	 1492788058	 230662348	 221941.
15:20:58  381 382	 1492788058	 502282236	 271620.
15:20:58  382 383	 1492788058	 773964445	 271682.
15:20:59  383 384	 1492788059	 49385533	 275421.
15:20:59  384 385	 1492788059	 325309343	 275924.
15:20:59  385 386	 1492788059	 543935873	 218627.
15:20:59  386 387	 1492788059	 819947617	 276011.
15:21:00  387 388	 1492788060	 91477974	 271531.
15:21:00  388 389	 1492788060	 362023907	 270546.
15:21:00  389 390	 1492788060	 637082313	 275058.
15:21:00  390 391	 1492788060	 908374398	 271292.
15:21:01  391 392	 1492788061	 180031135	 271657.
15:21:01  392 393	 1492788061	 454945839	 274915.
15:21:01  393 394	 1492788061	 672981076	 218035.
15:21:01  394 395	 1492788061	 948129036	 275148.
15:21:02  395 396	 1492788062	 219128928	 271000.
15:21:02  396 397	 1492788062	 490012459	 270883.
15:21:02  397 398	 1492788062	 765344975	 275333.
15:21:03  398 399	 1492788063	 36568585	 271223.
15:21:03  399 400	 1492788063	 259089493	 222521.
15:21:03  400 401	 1492788063	 530514564	 271425.
15:21:03  401 402	 1492788063	 802244089	 271730.
15:21:04  402 403	 1492788064	 77654799	 275411.
15:21:04  403 404	 1492788064	 348445416	 270790.
15:21:04  404 405	 1492788064	 623727274	 275282.
15:21:04  405 406	 1492788064	 846055368	 222328.
15:21:05  406 407	 1492788065	 116890082	 270835.
15:21:05  407 408	 1492788065	 387840803	 270951.
15:21:05  408 409	 1492788065	 663537276	 275696.
15:21:05  409 410	 1492788065	 934979233	 271442.
15:21:06  410 411	 1492788066	 157803112	 222824.
15:21:06  411 412	 1492788066	 429658162	 271855.
15:21:06  412 413	 1492788066	 704931678	 275273.
15:21:06  413 414	 1492788066	 980667739	 275736.
15:21:07  414 415	 1492788067	 203175517	 222508.
15:21:07  415 416	 1492788067	 474471841	 271297.
15:21:07  416 417	 1492788067	 750336462	 275864.
15:21:08  417 418	 1492788068	 22583849	 272248.
15:21:08  418 419	 1492788068	 298713563	 276129.
15:21:08  419 420	 1492788068	 681472709	 382759.
15:21:08  420 421	 1492788068	 953690364	 272218.
15:21:09  421 422	 1492788069	 230074504	 276384.
15:21:09  422 423	 1492788069	 501571970	 271498.
15:21:09  423 424	 1492788069	 773237854	 271666.
15:21:09  424 425	 1492788069	 999880959	 226643.
15:21:10  425 426	 1492788070	 271287497	 271406.
15:21:10  426 427	 1492788070	 546496096	 275209.
15:21:10  427 428	 1492788070	 818389446	 271893.
15:21:11  428 429	 1492788071	 94256114	 275867.
15:21:11  429 430	 1492788071	 312727277	 218471.
15:21:11  430 431	 1492788071	 588546125	 275819.
15:21:11  431 432	 1492788071	 864499191	 275953.
15:21:12  432 433	 1492788072	 135967070	 271468.
15:21:12  433 434	 1492788072	 358436832	 222469.
15:21:12  434 435	 1492788072	 630046677	 271610.
15:21:12  435 436	 1492788072	 905397530	 275351.
15:21:13  436 437	 1492788073	 181219793	 275822.
15:21:13  437 438	 1492788073	 453031687	 271812.
15:21:13  438 439	 1492788073	 675997681	 222966.
15:21:13  439 440	 1492788073	 947788674	 271791.
15:21:14  440 441	 1492788074	 223387438	 275599.
15:21:14  441 442	 1492788074	 494475335	 271088.
15:21:14  442 443	 1492788074	 765234525	 270759.
15:21:15  443 444	 1492788075	 40057290	 274823.
15:21:15  444 445	 1492788075	 257681490	 217624.
15:21:15  445 446	 1492788075	 532732429	 275051.
15:21:15  446 447	 1492788075	 804537425	 271805.
15:21:16  447 448	 1492788076	 77034621	 272497.
15:21:16  448 449	 1492788076	 353213653	 276179.
15:21:16  449 450	 1492788076	 625554239	 272341.
15:21:16  450 451	 1492788076	 896260007	 270706.
15:21:17  451 452	 1492788077	 171179563	 274919.
15:21:17  452 453	 1492788077	 442281256	 271102.
15:21:17  453 454	 1492788077	 664108220	 221827.
15:21:17  454 455	 1492788077	 935516108	 271408.
15:21:18  455 456	 1492788078	 206803184	 271287.
15:21:18  456 457	 1492788078	 482019766	 275217.
15:21:18  457 458	 1492788078	 754103628	 272083.
15:21:19  458 459	 1492788079	 29681389	 275578.
15:21:19  459 460	 1492788079	 301178865	 271498.
15:21:19  460 461	 1492788079	 572797967	 271619.
15:21:19  461 462	 1492788079	 799325692	 226527.
15:21:20  462 463	 1492788080	 70704491	 271379.
15:21:20  463 464	 1492788080	 341513641	 270809.
15:21:20  464 465	 1492788080	 617146921	 275634.
15:21:20  465 466	 1492788080	 889688813	 272542.
15:21:21  466 467	 1492788081	 165752979	 276064.
15:21:21  467 468	 1492788081	 437148079	 271395.
15:21:21  468 469	 1492788081	 660197568	 223049.
15:21:21  469 470	 1492788081	 935918005	 275721.
15:21:22  470 471	 1492788082	 207670931	 271753.
15:21:22  471 472	 1492788082	 483758807	 276087.
15:21:22  472 473	 1492788082	 755354040	 271596.
15:21:22  473 474	 1492788082	 977730733	 222376.
15:21:23  474 475	 1492788083	 249125590	 271395.
15:21:23  475 476	 1492788083	 524628921	 275504.
15:21:23  476 477	 1492788083	 799609407	 274980.
15:21:24  477 478	 1492788084	 21785770	 222177.
15:21:24  478 479	 1492788084	 292535357	 270749.
15:21:24  479 480	 1492788084	 514505006	 221970.
15:21:24  480 481	 1492788084	 840407777	 325903.
15:21:25  481 482	 1492788085	 117496238	 277088.
15:21:25  482 483	 1492788085	 340586167	 223090.
15:21:25  483 484	 1492788085	 612431859	 271846.
15:21:25  484 485	 1492788085	 888120047	 275688.
15:21:26  485 486	 1492788086	 159755485	 271635.
15:21:26  486 487	 1492788086	 435685307	 275930.
15:21:26  487 488	 1492788086	 658774409	 223089.
15:21:26  488 489	 1492788086	 930009905	 271236.
15:21:27  489 490	 1492788087	 205494425	 275484.
15:21:27  490 491	 1492788087	 480957764	 275464.
15:21:27  491 492	 1492788087	 752482951	 271525.
15:21:27  492 493	 1492788087	 973987992	 221505.
15:21:28  493 494	 1492788088	 245294880	 271307.
15:21:28  494 495	 1492788088	 521528859	 276234.
15:21:28  495 496	 1492788088	 792698275	 271169.
15:21:29  496 497	 1492788089	 15408203	 222710.
15:21:29  497 498	 1492788089	 291171212	 275763.
15:21:29  498 499	 1492788089	 562534226	 271363.
15:21:29  499 500	 1492788089	 838527202	 275993.
15:21:30  500 501	 1492788090	 110349613	 271822.
15:21:30  501 502	 1492788090	 333164566	 222815.
15:21:30  502 503	 1492788090	 608961665	 275797.
15:21:30  503 504	 1492788090	 880873574	 271912.
15:21:31  504 505	 1492788091	 156569717	 275696.
15:21:31  505 506	 1492788091	 432384537	 275815.
15:21:31  506 507	 1492788091	 651052052	 218668.
15:21:31  507 508	 1492788091	 926315164	 275263.
15:21:32  508 509	 1492788092	 202394230	 276079.
15:21:32  509 510	 1492788092	 474326904	 271933.
15:21:32  510 511	 1492788092	 750460236	 276133.
15:21:32  511 512	 1492788092	 973647626	 223187.
15:21:33  512 513	 1492788093	 245503091	 271856.
15:21:33  513 514	 1492788093	 521664934	 276162.
15:21:33  514 515	 1492788093	 793504967	 271840.
15:21:34  515 516	 1492788094	 69253875	 275749.
15:21:34  516 517	 1492788094	 340849450	 271595.
15:21:34  517 518	 1492788094	 564108529	 223259.
15:21:34  518 519	 1492788094	 839936374	 275828.
15:21:35  519 520	 1492788095	 111531567	 271595.
15:21:35  520 521	 1492788095	 387136482	 275605.
15:21:35  521 522	 1492788095	 658635119	 271499.
15:21:35  522 523	 1492788095	 880795025	 222160.
15:21:36  523 524	 1492788096	 156136276	 275341.
15:21:36  524 525	 1492788096	 427855163	 271719.
15:21:36  525 526	 1492788096	 650676873	 222822.
15:21:36  526 527	 1492788096	 926215812	 275539.
15:21:37  527 528	 1492788097	 197765528	 271549.
15:21:37  528 529	 1492788097	 473430194	 275665.
15:21:37  529 530	 1492788097	 745246512	 271816.
15:21:37  530 531	 1492788097	 967845922	 222600.
15:21:38  531 532	 1492788098	 243643630	 275797.
15:21:38  532 533	 1492788098	 515280939	 271638.
15:21:38  533 534	 1492788098	 791044856	 275764.
15:21:39  534 535	 1492788099	 13523488	 222478.
15:21:39  535 536	 1492788099	 289290515	 275767.
15:21:39  536 537	 1492788099	 561246056	 271956.
15:21:39  537 538	 1492788099	 836896345	 275650.
15:21:40  538 539	 1492788100	 108702312	 271806.
15:21:40  539 540	 1492788100	 331799118	 223097.
15:21:40  540 541	 1492788100	 607527698	 275728.
15:21:40  541 542	 1492788100	 878288968	 270762.
15:21:41  542 543	 1492788101	 149485557	 271196.
15:21:41  543 544	 1492788101	 371702877	 222218.
15:21:41  544 545	 1492788101	 647536365	 275833.
15:21:41  545 546	 1492788101	 919563555	 272027.
15:21:42  546 547	 1492788102	 195259862	 275697.
15:21:42  547 548	 1492788102	 416917457	 221657.
15:21:42  548 549	 1492788102	 688283307	 271366.
15:21:42  549 550	 1492788102	 963644753	 275361.
15:21:43  550 551	 1492788103	 185641741	 221997.
15:21:43  551 552	 1492788103	 457076811	 271435.
15:21:43  552 553	 1492788103	 732506800	 275431.
15:21:44  553 554	 1492788104	 3753192	 271246.
15:21:44  554 555	 1492788104	 279482208	 275729.
15:21:44  555 556	 1492788104	 501899558	 222417.
15:21:44  556 557	 1492788104	 773320053	 271421.
15:21:45  557 558	 1492788105	 48991894	 275672.
15:21:45  558 559	 1492788105	 324808500	 275816.
15:21:45  559 560	 1492788105	 547546615	 222738.
15:21:45  560 561	 1492788105	 819152090	 271606.
15:21:46  561 562	 1492788106	 95244011	 276092.
15:21:46  562 563	 1492788106	 370307876	 275064.
15:21:46  563 564	 1492788106	 642465562	 272157.
15:21:46  564 565	 1492788106	 864904244	 222439.
15:21:47  565 566	 1492788107	 140378808	 275475.
15:21:47  566 567	 1492788107	 411628980	 271250.
15:21:47  567 568	 1492788107	 634058170	 222429.
15:21:47  568 569	 1492788107	 909852898	 275795.
15:21:48  569 570	 1492788108	 181385494	 271532.
15:21:48  570 571	 1492788108	 457099092	 275714.
15:21:48  571 572	 1492788108	 733057011	 275958.
15:21:48  572 573	 1492788108	 951481620	 218424.
15:21:49  573 574	 1492788109	 226824161	 275343.
15:21:49  574 575	 1492788109	 498786641	 271962.
15:21:49  575 576	 1492788109	 774299161	 275513.
15:21:49  576 577	 1492788109	 997018902	 222720.
15:21:50  577 578	 1492788110	 272436191	 275417.
15:21:50  578 579	 1492788110	 544928727	 272492.
15:21:50  579 580	 1492788110	 816336033	 271408.
15:21:51  580 581	 1492788111	 91891310	 275555.
15:21:51  581 582	 1492788111	 313993505	 222102.
15:21:51  582 583	 1492788111	 589628654	 275635.
15:21:51  583 584	 1492788111	 861176560	 271548.
15:21:52  584 585	 1492788112	 132348669	 271172.
15:21:52  585 586	 1492788112	 355259210	 222911.
15:21:52  586 587	 1492788112	 631209606	 275950.
15:21:52  587 588	 1492788112	 902618455	 271409.
15:21:53  588 589	 1492788113	 178476002	 275858.
15:21:53  589 590	 1492788113	 401118583	 222642.
15:21:53  590 591	 1492788113	 672664428	 271546.
15:21:53  591 592	 1492788113	 947931992	 275268.
15:21:54  592 593	 1492788114	 218959182	 271027.
15:21:54  593 594	 1492788114	 441422514	 222463.
15:21:54  594 595	 1492788114	 716934489	 275512.
15:21:54  595 596	 1492788114	 989129230	 272195.
15:21:55  596 597	 1492788115	 264588862	 275460.
15:21:55  597 598	 1492788115	 487124366	 222535.
15:21:55  598 599	 1492788115	 758186314	 271062.
15:21:56  599 600	 1492788116	 33589401	 275403.
15:21:56  600 601	 1492788116	 305064614	 271475.
15:21:56  601 602	 1492788116	 527746956	 222683.
15:21:56  602 603	 1492788116	 803264801	 275517.
15:21:57  603 604	 1492788117	 75076731	 271813.
15:21:57  604 605	 1492788117	 350503367	 275426.
15:21:57  605 606	 1492788117	 573419060	 222916.
15:21:57  606 607	 1492788117	 845510487	 272091.
15:21:58  607 608	 1492788118	 121381426	 275871.
15:21:58  608 609	 1492788118	 393272106	 271891.
15:21:58  609 610	 1492788118	 668856736	 275585.
15:21:58  610 611	 1492788118	 940367756	 271510.
15:21:59  611 612	 1492788119	 162228848	 221862.
15:21:59  612 613	 1492788119	 432613713	 270384.
15:21:59  613 614	 1492788119	 703456024	 270843.
15:21:59  614 615	 1492788119	 974076373	 270620.
15:22:00  615 616	 1492788120	 249121547	 275045.
15:22:00  616 617	 1492788120	 520824792	 271704.
15:22:00  617 618	 1492788120	 792938872	 272114.
15:22:01  618 619	 1492788121	 15590040	 222651.
15:22:01  619 620	 1492788121	 290890395	 275300.
15:22:01  620 621	 1492788121	 561550961	 270661.
15:22:01  621 622	 1492788121	 832641823	 271091.
15:22:02  622 623	 1492788122	 108016256	 275374.
15:22:02  623 624	 1492788122	 378930352	 270914.
15:22:02  624 625	 1492788122	 601092061	 222162.
15:22:02  625 626	 1492788122	 872261453	 271169.
15:22:03  626 627	 1492788123	 143681919	 271421.
15:22:03  627 628	 1492788123	 414642248	 270960.
15:22:03  628 629	 1492788123	 689664020	 275022.
15:22:03  629 630	 1492788123	 960578697	 270914.
15:22:04  630 631	 1492788124	 182870419	 222292.
15:22:04  631 632	 1492788124	 454039568	 271169.
15:22:04  632 633	 1492788124	 729332461	 275293.
15:22:04  633 634	 1492788125	 723925	 271392.
15:22:05  634 635	 1492788125	 271896633	 271172.
15:22:05  635 636	 1492788125	 547186272	 275290.
15:22:05  636 637	 1492788125	 765222075	 218036.
15:22:06  637 638	 1492788126	 41004663	 275782.
15:22:06  638 639	 1492788126	 312504312	 271500.
15:22:06  639 640	 1492788126	 587601561	 275097.
15:22:06  640 641	 1492788126	 809361694	 221760.
15:22:07  641 642	 1492788127	 80016303	 270655.
15:22:07  642 643	 1492788127	 350590484	 270574.
15:22:07  643 644	 1492788127	 625747882	 275158.
15:22:07  644 645	 1492788127	 896936404	 271188.
15:22:08  645 646	 1492788128	 118628862	 221693.
15:22:08  646 647	 1492788128	 389304432	 270675.
15:22:08  647 648	 1492788128	 659365316	 270061.
15:22:08  648 649	 1492788128	 933674260	 274309.
15:22:09  649 650	 1492788129	 155979966	 222306.
15:22:09  650 651	 1492788129	 426777747	 270797.
15:22:09  651 652	 1492788129	 697083830	 270307.
15:22:09  652 653	 1492788129	 971734707	 274651.
15:22:10  653 654	 1492788130	 194088564	 222353.
15:22:10  654 655	 1492788130	 465766165	 271678.
15:22:10  655 656	 1492788130	 740943867	 275178.
15:22:10  656 657	 1492788130	 962971442	 222027.
15:22:11  657 658	 1492788131	 238479074	 275508.
15:22:11  658 659	 1492788131	 509692594	 271213.
15:22:11  659 660	 1492788131	 784661322	 274969.
15:22:11  660 661	 1492788132	 2813558	 218152.
15:22:12  661 662	 1492788132	 278525841	 275713.
15:22:12  662 663	 1492788132	 553809357	 275283.
15:22:12  663 664	 1492788132	 825362209	 271553.
15:22:13  664 665	 1492788133	 47631199	 222269.
15:22:13  665 666	 1492788133	 318567787	 270937.
15:22:13  666 667	 1492788133	 594557685	 275989.
15:22:13  667 668	 1492788133	 866184380	 271627.
15:22:14  668 669	 1492788134	 88993748	 222810.
15:22:14  669 670	 1492788134	 365055772	 276062.
15:22:14  670 671	 1492788134	 636514814	 271459.
15:22:14  671 672	 1492788134	 912731250	 276216.
15:22:15  672 673	 1492788135	 184618786	 271888.
15:22:15  673 674	 1492788135	 460615321	 275996.
15:22:15  674 675	 1492788135	 683346071	 222731.
15:22:15  675 676	 1492788135	 955539420	 272193.
15:22:16  676 677	 1492788136	 231560398	 276021.
15:22:16  677 678	 1492788136	 503466777	 271906.
15:22:16  678 679	 1492788136	 778525074	 275059.
15:22:16  679 680	 1492788137	 956100	 222431.
15:22:17  680 681	 1492788137	 272368894	 271413.
15:22:17  681 682	 1492788137	 548452230	 276083.
15:22:17  682 683	 1492788137	 819952713	 271500.
15:22:18  683 684	 1492788138	 46534721	 226582.
15:22:18  684 685	 1492788138	 318027987	 271494.
15:22:18  685 686	 1492788138	 589495958	 271468.
15:22:18  686 687	 1492788138	 865144860	 275649.
15:22:19  687 688	 1492788139	 87718079	 222585.
15:22:19  688 689	 1492788139	 359797117	 272067.
15:22:19  689 690	 1492788139	 635678282	 275881.
15:22:19  690 691	 1492788139	 907281621	 271603.
15:22:20  691 692	 1492788140	 183316757	 276036.
15:22:20  692 693	 1492788140	 405861641	 222544.
15:22:20  693 694	 1492788140	 677799157	 271938.
15:22:20  694 695	 1492788140	 953583948	 275785.
15:22:21  695 696	 1492788141	 225096003	 271512.
15:22:21  696 697	 1492788141	 451712178	 226616.
15:22:21  697 698	 1492788141	 723577329	 271865.
15:22:21  698 699	 1492788141	 995361058	 271784.
15:22:22  699 700	 1492788142	 271071029	 275710.
15:22:22  700 701	 1492788142	 542723938	 271653.
15:22:22  701 702	 1492788142	 764850761	 222126.
15:22:23  702 703	 1492788143	 36410262	 271560.
15:22:23  703 704	 1492788143	 311946910	 275537.
15:22:23  704 705	 1492788143	 587669317	 275722.
15:22:23  705 706	 1492788143	 810544624	 222875.
15:22:24  706 707	 1492788144	 82558028	 272014.
15:22:24  707 708	 1492788144	 358369391	 275811.
15:22:24  708 709	 1492788144	 630900209	 272531.
15:22:24  709 710	 1492788144	 907448013	 276548.
15:22:25  710 711	 1492788145	 184234773	 276787.
15:22:25  711 712	 1492788145	 455945729	 271710.
15:22:25  712 713	 1492788145	 731647552	 275702.
15:22:26  713 714	 1492788146	 2887911	 271241.
15:22:26  714 715	 1492788146	 225478447	 222590.
15:22:26  715 716	 1492788146	 497154788	 271677.
15:22:26  716 717	 1492788146	 772493921	 275339.
15:22:27  717 718	 1492788147	 43380660	 270886.
15:22:27  718 719	 1492788147	 318379968	 275000.
15:22:27  719 720	 1492788147	 536676994	 218297.
15:22:27  720 721	 1492788147	 812292256	 275615.
15:22:28  721 722	 1492788148	 83483279	 271191.
15:22:28  722 723	 1492788148	 358536876	 275054.
15:22:28  723 724	 1492788148	 580969314	 222432.
15:22:28  724 725	 1492788148	 856855526	 275886.
15:22:29  725 726	 1492788149	 127209439	 270354.
15:22:29  726 727	 1492788149	 345343312	 218134.
15:22:29  727 728	 1492788149	 621224175	 275881.
15:22:29  728 729	 1492788149	 896212621	 274988.
15:22:30  729 730	 1492788150	 114181379	 217969.
15:22:30  730 731	 1492788150	 385562208	 271381.
15:22:30  731 732	 1492788150	 660219881	 274658.
15:22:30  732 733	 1492788150	 934594192	 274374.
15:22:31  733 734	 1492788151	 205586505	 270992.
15:22:31  734 735	 1492788151	 480064903	 274479.
15:22:31  735 736	 1492788151	 698194242	 218129.
15:22:31  736 737	 1492788151	 972474060	 274280.
15:22:32  737 738	 1492788152	 243426009	 270952.
15:22:32  738 739	 1492788152	 519273034	 275847.
15:22:32  739 740	 1492788152	 790866516	 271593.
15:22:33  740 741	 1492788153	 13877333	 223011.
15:22:33  741 742	 1492788153	 285290284	 271413.
15:22:33  742 743	 1492788153	 560553194	 275263.
15:22:33  743 744	 1492788153	 782721645	 222168.
15:22:34  744 745	 1492788154	 54539582	 271818.
15:22:34  745 746	 1492788154	 330040126	 275501.
15:22:34  746 747	 1492788154	 606039441	 275999.
15:22:34  747 748	 1492788154	 877609592	 271570.
15:22:35  748 749	 1492788155	 149275703	 271666.
15:22:35  749 750	 1492788155	 375962840	 226687.
15:22:35  750 751	 1492788155	 647300337	 271338.
15:22:35  751 752	 1492788155	 923179989	 275880.
15:22:36  752 753	 1492788156	 194714936	 271535.
15:22:36  753 754	 1492788156	 417188250	 222473.
15:22:36  754 755	 1492788156	 688889154	 271701.
15:22:36  755 756	 1492788156	 964290944	 275402.
15:22:37  756 757	 1492788157	 235778433	 271487.
15:22:37  757 758	 1492788157	 457604324	 221826.
15:22:37  758 759	 1492788157	 733585512	 275981.
15:22:38  759 760	 1492788158	 5770901	 272186.
15:22:38  760 761	 1492788158	 281308244	 275537.
15:22:38  761 762	 1492788158	 553482614	 272174.
15:22:38  762 763	 1492788158	 829400252	 275918.
15:22:39  763 764	 1492788159	 51857601	 222457.
15:22:39  764 765	 1492788159	 327459349	 275602.
15:22:39  765 766	 1492788159	 599274598	 271815.
15:22:39  766 767	 1492788159	 874632112	 275358.
15:22:40  767 768	 1492788160	 146974767	 272343.
15:22:40  768 769	 1492788160	 369918385	 222943.
15:22:40  769 770	 1492788160	 645480647	 275562.
15:22:40  770 771	 1492788160	 916927709	 271447.
15:22:41  771 772	 1492788161	 192878932	 275952.
15:22:41  772 773	 1492788161	 464337044	 271458.
15:22:41  773 774	 1492788161	 686774279	 222437.
15:22:41  774 775	 1492788161	 962971949	 276198.
15:22:42  775 776	 1492788162	 234555551	 271583.
15:22:42  776 777	 1492788162	 510222383	 275667.
15:22:42  777 778	 1492788162	 733151418	 222929.
15:22:43  778 779	 1492788163	 5313548	 272162.
15:22:43  779 780	 1492788163	 280853737	 275540.
15:22:43  780 781	 1492788163	 552259688	 271406.
15:22:43  781 782	 1492788163	 828095933	 275837.
15:22:44  782 783	 1492788164	 50633431	 222537.
15:22:44  783 784	 1492788164	 322430734	 271798.
15:22:44  784 785	 1492788164	 598529730	 276098.
15:22:44  785 786	 1492788164	 869836485	 271307.
15:22:45  786 787	 1492788165	 145747237	 275911.
15:22:45  787 788	 1492788165	 367803663	 222056.
15:22:45  788 789	 1492788165	 639377680	 271574.
15:22:45  789 790	 1492788165	 915183534	 275806.
15:22:46  790 791	 1492788166	 186727854	 271545.
15:22:46  791 792	 1492788166	 408866059	 222138.
15:22:46  792 793	 1492788166	 679294346	 270428.
15:22:46  793 794	 1492788166	 954747034	 275453.
15:22:47  794 795	 1492788167	 226712567	 271965.
15:22:47  795 796	 1492788167	 449662159	 222950.
15:22:47  796 797	 1492788167	 725790699	 276128.
15:22:47  797 798	 1492788167	 997683454	 271893.
15:22:48  798 799	 1492788168	 273581996	 275899.
15:22:48  799 800	 1492788168	 545195223	 271613.
15:22:48  800 801	 1492788168	 767804750	 222609.
15:22:49  801 802	 1492788169	 43119890	 275316.
15:22:49  802 803	 1492788169	 314339997	 271220.
15:22:49  803 804	 1492788169	 590596416	 276256.
15:22:49  804 805	 1492788169	 866818347	 276222.
15:22:50  805 806	 1492788170	 89128616	 222310.
15:22:50  806 807	 1492788170	 361057886	 271930.
15:22:50  807 808	 1492788170	 633353645	 272295.
15:22:50  808 809	 1492788170	 909312779	 275960.
15:22:51  809 810	 1492788171	 180978565	 271665.
15:22:51  810 811	 1492788171	 403654636	 222676.
15:22:51  811 812	 1492788171	 679569564	 275915.
15:22:51  812 813	 1492788171	 955338806	 275770.
15:22:52  813 814	 1492788172	 226869045	 271530.
15:22:52  814 815	 1492788172	 503440213	 276571.
15:22:52  815 816	 1492788172	 775221451	 271781.
15:22:52  816 817	 1492788172	 997730028	 222509.
15:22:53  817 818	 1492788173	 273596024	 275866.
15:22:53  818 819	 1492788173	 549380332	 275784.
15:22:53  819 820	 1492788173	 821259874	 271880.
15:22:54  820 821	 1492788174	 44010330	 222750.
15:22:54  821 822	 1492788174	 319065350	 275055.
15:22:54  822 823	 1492788174	 590591450	 271526.
15:22:54  823 824	 1492788174	 865853627	 275262.
15:22:55  824 825	 1492788175	 88524293	 222671.
15:22:55  825 826	 1492788175	 364467991	 275944.
15:22:55  826 827	 1492788175	 636332114	 271864.
15:22:55  827 828	 1492788175	 908043630	 271711.
15:22:56  828 829	 1492788176	 134357190	 226314.
15:22:56  829 830	 1492788176	 406266662	 271909.
15:22:56  830 831	 1492788176	 681576794	 275311.
15:22:56  831 832	 1492788176	 953095292	 271518.
15:22:57  832 833	 1492788177	 175810179	 222715.
15:22:57  833 834	 1492788177	 451177647	 275367.
15:22:57  834 835	 1492788177	 722540824	 271363.
15:22:57  835 836	 1492788177	 998027540	 275487.
15:22:58  836 837	 1492788178	 216374682	 218347.
15:22:58  837 838	 1492788178	 491487951	 275114.
15:22:58  838 839	 1492788178	 763272659	 271784.
15:22:59  839 840	 1492788179	 38563860	 275291.
15:22:59  840 841	 1492788179	 260683523	 222120.
15:22:59  841 842	 1492788179	 532293619	 271610.
15:22:59  842 843	 1492788179	 807659102	 275366.
15:23:00  843 844	 1492788180	 30017574	 222358.
15:23:00  844 845	 1492788180	 300684938	 270668.
15:23:00  845 846	 1492788180	 572023183	 271338.
15:23:00  846 847	 1492788180	 842750646	 270727.
15:23:01  847 848	 1492788181	 117469300	 274719.
15:23:01  848 849	 1492788181	 388588836	 271120.
15:23:01  849 850	 1492788181	 659762087	 271173.
15:23:01  850 851	 1492788181	 881922233	 222160.
15:23:02  851 852	 1492788182	 157145505	 275223.
15:23:02  852 853	 1492788182	 427968831	 270824.
15:23:02  853 854	 1492788182	 699218280	 271249.
15:23:02  854 855	 1492788182	 970401398	 271183.
15:23:03  855 856	 1492788183	 245286323	 274885.
15:23:03  856 857	 1492788183	 516422850	 271137.
15:23:03  857 858	 1492788183	 738868716	 222445.
15:23:04  858 859	 1492788184	 10156401	 271288.
15:23:04  859 860	 1492788184	 285339011	 275183.
15:23:04  860 861	 1492788184	 556530708	 271191.
15:23:04  861 862	 1492788184	 827969994	 271440.
15:23:05  862 863	 1492788185	 99639580	 271669.
15:23:05  863 864	 1492788185	 374970677	 275331.
15:23:05  864 865	 1492788185	 645880092	 270910.
15:23:05  865 866	 1492788185	 868635659	 222755.
15:23:06  866 867	 1492788186	 140789429	 272154.
15:23:06  867 868	 1492788186	 417086241	 276297.
15:23:06  868 869	 1492788186	 689011628	 271925.
15:23:06  869 870	 1492788186	 965073786	 276062.
15:23:07  870 871	 1492788187	 236595290	 271522.
15:23:07  871 872	 1492788187	 512082144	 275487.
15:23:07  872 873	 1492788187	 784076790	 271995.
15:23:08  873 874	 1492788188	 59917932	 275841.
15:23:08  874 875	 1492788188	 332039688	 272121.
15:23:08  875 876	 1492788188	 604283544	 272244.
15:23:08  876 877	 1492788188	 827190836	 222908.
15:23:09  877 878	 1492788189	 102287565	 275096.
15:23:09  878 879	 1492788189	 372941076	 270654.
15:23:09  879 880	 1492788189	 643747545	 270806.
15:23:09  880 881	 1492788189	 914626715	 270879.
15:23:10  881 882	 1492788190	 136398330	 221772.
15:23:10  882 883	 1492788190	 407475548	 271077.
15:23:10  883 884	 1492788190	 683410183	 275935.
15:23:10  884 885	 1492788190	 955097153	 271687.
15:23:11  885 886	 1492788191	 230588186	 275491.
15:23:11  886 887	 1492788191	 453053356	 222465.
15:23:11  887 888	 1492788191	 724592553	 271539.
15:23:11  888 889	 1492788192	 992447	 276400.
15:23:12  889 890	 1492788192	 272814100	 271822.
15:23:12  890 891	 1492788192	 548710954	 275897.
15:23:12  891 892	 1492788192	 820196741	 271486.
15:23:13  892 893	 1492788193	 42217631	 222020.
15:23:13  893 894	 1492788193	 317542323	 275325.
15:23:13  894 895	 1492788193	 588812187	 271270.
15:23:13  895 896	 1492788193	 864261074	 275449.
15:23:14  896 897	 1492788194	 82357319	 218096.
15:23:14  897 898	 1492788194	 357213573	 274856.
15:23:14  898 899	 1492788194	 629085157	 271872.
15:23:14  899 900	 1492788194	 905093049	 276008.
15:23:15  900 901	 1492788195	 177495181	 272402.
15:23:15  901 902	 1492788195	 453607136	 276112.
15:23:15  902 903	 1492788195	 676694404	 223087.
15:23:15  903 904	 1492788195	 947753178	 271059.
15:23:16  904 905	 1492788196	 223608023	 275855.
15:23:16  905 906	 1492788196	 495391921	 271784.
15:23:16  906 907	 1492788196	 717780120	 222388.
15:23:16  907 908	 1492788196	 993778921	 275999.
15:23:17  908 909	 1492788197	 265414077	 271635.
15:23:17  909 910	 1492788197	 541656053	 276242.
15:23:17  910 911	 1492788197	 813189438	 271533.
15:23:18  911 912	 1492788198	 88299451	 275110.
15:23:18  912 913	 1492788198	 310225975	 221927.
15:23:18  913 914	 1492788198	 581578900	 271353.
15:23:18  914 915	 1492788198	 857480668	 275901.
15:23:19  915 916	 1492788199	 129157696	 271677.
15:23:19  916 917	 1492788199	 351557735	 222401.
15:23:19  917 918	 1492788199	 623642200	 272084.
15:23:19  918 919	 1492788199	 899630206	 275988.
15:23:20  919 920	 1492788200	 171507969	 271878.
15:23:20  920 921	 1492788200	 446555513	 275047.
15:23:20  921 922	 1492788200	 717981792	 271427.
15:23:20  922 923	 1492788200	 989652723	 271671.
15:23:21  923 924	 1492788201	 261167627	 271514.
15:23:21  924 925	 1492788201	 536819374	 275652.
15:23:21  925 926	 1492788201	 808568452	 271749.
15:23:22  926 927	 1492788202	 84027290	 275459.
15:23:22  927 928	 1492788202	 351232816	 267206.
15:23:22  928 929	 1492788202	 626746690	 275513.
15:23:22  929 930	 1492788202	 898243002	 271497.
15:23:23  930 931	 1492788203	 169278183	 271035.
15:23:23  931 932	 1492788203	 391439818	 222162.
15:23:23  932 933	 1492788203	 662427372	 270987.
15:23:23  933 934	 1492788203	 937384978	 274958.
15:23:24  934 935	 1492788204	 208519385	 271134.
15:23:24  935 936	 1492788204	 479317776	 270799.
15:23:24  936 937	 1492788204	 754180726	 274863.
15:23:25  937 938	 1492788205	 24784970	 270604.
15:23:25  938 939	 1492788205	 246858026	 222073.
15:23:25  939 940	 1492788205	 517814643	 270956.
15:23:25  940 941	 1492788205	 789140151	 271326.
15:23:26  941 942	 1492788206	 60622196	 271482.
15:23:26  942 943	 1492788206	 336271353	 275649.
15:23:26  943 944	 1492788206	 607766214	 271495.
15:23:26  944 945	 1492788206	 879409337	 271643.
15:23:27  945 946	 1492788207	 150371687	 270962.
15:23:27  946 947	 1492788207	 425990352	 275619.
15:23:27  947 948	 1492788207	 697370303	 271380.
15:23:27  948 949	 1492788207	 969140975	 271771.
15:23:28  949 950	 1492788208	 240459981	 271319.
15:23:28  950 951	 1492788208	 515767125	 275307.
15:23:28  951 952	 1492788208	 787208229	 271441.
15:23:29  952 953	 1492788209	 58444567	 271236.
15:23:29  953 954	 1492788209	 329889060	 271445.
15:23:29  954 955	 1492788209	 605289951	 275401.
15:23:29  955 956	 1492788209	 823703443	 218413.
15:23:30  956 957	 1492788210	 94962707	 271259.
15:23:30  957 958	 1492788210	 370454931	 275493.
15:23:30  958 959	 1492788210	 642759921	 272305.
15:23:30  959 960	 1492788210	 914325729	 271566.
15:23:31  960 961	 1492788211	 190496884	 276171.
15:23:31  961 962	 1492788211	 467175034	 276678.
15:23:31  962 963	 1492788211	 739665372	 272490.
15:23:32  963 964	 1492788212	 15484279	 275819.
15:23:32  964 965	 1492788212	 286973754	 271490.
15:23:32  965 966	 1492788212	 558106635	 271132.
15:23:32  966 967	 1492788212	 829326201	 271220.
15:23:33  967 968	 1492788213	 104365163	 275039.
15:23:33  968 969	 1492788213	 375042830	 270678.
15:23:33  969 970	 1492788213	 596922775	 221880.
15:23:33  970 971	 1492788213	 867122361	 270199.
15:23:34  971 972	 1492788214	 137958932	 270837.
15:23:34  972 973	 1492788214	 409448903	 271490.
15:23:34  973 974	 1492788214	 684988715	 275539.
15:23:34  974 975	 1492788214	 956375846	 271388.
15:23:35  975 976	 1492788215	 228111815	 271736.
15:23:35  976 977	 1492788215	 499609559	 271498.
15:23:35  977 978	 1492788215	 774942414	 275332.
15:23:36  978 979	 1492788216	 46068560	 271126.
15:23:36  979 980	 1492788216	 317492455	 271424.
15:23:36  980 981	 1492788216	 593276221	 275784.
15:23:36  981 982	 1492788216	 864810967	 271535.
15:23:37  982 983	 1492788217	 136593081	 271782.
15:23:37  983 984	 1492788217	 412274468	 275681.
15:23:37  984 985	 1492788217	 684141111	 271867.
15:23:37  985 986	 1492788217	 955718012	 271577.
15:23:38  986 987	 1492788218	 227078483	 271360.
15:23:38  987 988	 1492788218	 498041534	 270963.
15:23:38  988 989	 1492788218	 720061814	 222021.
15:23:38  989 990	 1492788218	 994936875	 274875.
15:23:39  990 991	 1492788219	 265834511	 270897.
15:23:39  991 992	 1492788219	 537373230	 271539.
15:23:39  992 993	 1492788219	 813393559	 276020.
15:23:40  993 994	 1492788220	 84998675	 271605.
15:23:40  994 995	 1492788220	 356387192	 271389.
15:23:40  995 996	 1492788220	 627783731	 271397.
15:23:40  996 997	 1492788220	 903311694	 275528.
15:23:41  997 998	 1492788221	 174981635	 271669.
15:23:41  998 999	 1492788221	 446410805	 271430.
15:23:41  999 1000	 1492788221	 717573052	 271162.
15:23:41 1000 1001	 1492788221	 988735887	 271163.
15:23:42 1001 1002	 1492788222	 263978709	 275242.
15:23:42 1002 1003	 1492788222	 486307805	 222330.
15:23:42 1003 1004	 1492788222	 757361162	 271053.
15:23:43 1004 1005	 1492788223	 27897114	 270536.
15:23:43 1005 1006	 1492788223	 302704321	 274807.
15:23:43 1006 1007	 1492788223	 573453392	 270749.
15:23:43 1007 1008	 1492788223	 795343531	 221890.
15:23:44 1008 1009	 1492788224	 65826059	 270483.
15:23:44 1009 1010	 1492788224	 336263037	 270437.
15:23:44 1010 1011	 1492788224	 612094468	 275831.
15:23:44 1011 1012	 1492788224	 834870937	 222777.
15:23:45 1012 1013	 1492788225	 106766100	 271895.
15:23:45 1013 1014	 1492788225	 382589826	 275824.
15:23:45 1014 1015	 1492788225	 654382753	 271793.
15:23:45 1015 1016	 1492788225	 930002811	 275620.
15:23:46 1016 1017	 1492788226	 201066449	 271063.
15:23:46 1017 1018	 1492788226	 472143398	 271077.
15:23:46 1018 1019	 1492788226	 743070352	 270927.
15:23:46 1019 1020	 1492788226	 965133534	 222063.
15:23:47 1020 1021	 1492788227	 240474571	 275341.
15:23:47 1021 1022	 1492788227	 511724057	 271250.
15:23:47 1022 1023	 1492788227	 783179082	 271455.
15:23:48 1023 1024	 1492788228	 54509890	 271331.
15:23:48 1024 1025	 1492788228	 329607326	 275097.
15:23:48 1025 1026	 1492788228	 600497208	 270890.
15:23:48 1026 1027	 1492788228	 822489520	 221992.
15:23:49 1027 1028	 1492788229	 93363826	 270875.
15:23:49 1028 1029	 1492788229	 368624003	 275260.
15:23:49 1029 1030	 1492788229	 639658407	 271034.
15:23:49 1030 1031	 1492788229	 911178836	 271521.
15:23:50 1031 1032	 1492788230	 186716592	 275537.
15:23:50 1032 1033	 1492788230	 458794872	 272079.
15:23:50 1033 1034	 1492788230	 730456582	 271661.
15:23:51 1034 1035	 1492788231	 5921531	 275465.
15:23:51 1035 1036	 1492788231	 277167691	 271246.
15:23:51 1036 1037	 1492788231	 548670100	 271503.
15:23:51 1037 1038	 1492788231	 820385254	 271715.
15:23:52 1038 1039	 1492788232	 47321545	 226936.
15:23:52 1039 1040	 1492788232	 319122321	 271801.
15:23:52 1040 1041	 1492788232	 590913530	 271791.
15:23:52 1041 1042	 1492788232	 866535442	 275622.
15:23:53 1042 1043	 1492788233	 137865151	 271330.
15:23:53 1043 1044	 1492788233	 408992811	 271128.
15:23:53 1044 1045	 1492788233	 680295841	 271303.
15:23:53 1045 1046	 1492788233	 956009015	 275713.
15:23:54 1046 1047	 1492788234	 227891942	 271883.
15:23:54 1047 1048	 1492788234	 499341116	 271449.
15:23:54 1048 1049	 1492788234	 774915785	 275575.
15:23:54 1049 1050	 1492788234	 997180191	 222264.
15:23:55 1050 1051	 1492788235	 268301650	 271121.
15:23:55 1051 1052	 1492788235	 539060922	 270760.
15:23:55 1052 1053	 1492788235	 814184692	 275123.
15:23:56 1053 1054	 1492788236	 85554639	 271370.
15:23:56 1054 1055	 1492788236	 361221473	 275667.
15:23:56 1055 1056	 1492788236	 583613332	 222392.
15:23:56 1056 1057	 1492788236	 855442701	 271829.
15:23:57 1057 1058	 1492788237	 127202650	 271760.
15:23:57 1058 1059	 1492788237	 402729124	 275527.
15:23:57 1059 1060	 1492788237	 673874991	 271146.
15:23:57 1060 1061	 1492788237	 944718044	 270843.
15:23:58 1061 1062	 1492788238	 166372347	 221654.
15:23:58 1062 1063	 1492788238	 436879209	 270507.
15:23:58 1063 1064	 1492788238	 711555403	 274676.
15:23:58 1064 1065	 1492788238	 982374564	 270819.
15:23:59 1065 1066	 1492788239	 204160058	 221786.
15:23:59 1066 1067	 1492788239	 475366776	 271207.
15:23:59 1067 1068	 1492788239	 750515043	 275148.
15:24:00 1068 1069	 1492788240	 21164783	 270649.
15:24:00 1069 1070	 1492788240	 242856135	 221692.
15:24:00 1070 1071	 1492788240	 518522297	 275666.
15:24:00 1071 1072	 1492788240	 789586678	 271064.
15:24:01 1072 1073	 1492788241	 60692580	 271106.
15:24:01 1073 1074	 1492788241	 335284090	 274592.
15:24:01 1074 1075	 1492788241	 606069460	 270785.
15:24:01 1075 1076	 1492788241	 828132636	 222063.
15:24:02 1076 1077	 1492788242	 98917514	 270785.
15:24:02 1077 1078	 1492788242	 369632051	 270715.
15:24:02 1078 1079	 1492788242	 644893420	 275261.
15:24:02 1079 1080	 1492788242	 915640506	 270747.
15:24:03 1080 1081	 1492788243	 137669180	 222029.
15:24:03 1081 1082	 1492788243	 408614426	 270945.
15:24:03 1082 1083	 1492788243	 679678727	 271065.
15:24:03 1083 1084	 1492788243	 954746747	 275067.
15:24:04 1084 1085	 1492788244	 225776436	 271030.
15:24:04 1085 1086	 1492788244	 497067547	 271291.
15:24:04 1086 1087	 1492788244	 768361851	 271295.
15:24:05 1087 1088	 1492788245	 43589332	 275227.
15:24:05 1088 1089	 1492788245	 265542238	 221953.
15:24:05 1089 1090	 1492788245	 536347091	 270805.
15:24:05 1090 1091	 1492788245	 807383071	 271036.
15:24:06 1091 1092	 1492788246	 82333536	 274950.
15:24:06 1092 1093	 1492788246	 357010663	 274677.
15:24:06 1093 1094	 1492788246	 574909593	 217899.
15:24:06 1094 1095	 1492788246	 849925557	 275016.
15:24:07 1095 1096	 1492788247	 121140181	 271215.
15:24:07 1096 1097	 1492788247	 392455002	 271315.
15:24:07 1097 1098	 1492788247	 667360854	 274906.
15:24:07 1098 1099	 1492788247	 938236396	 270875.
15:24:08 1099 1100	 1492788248	 159885484	 221649.
15:24:08 1100 1101	 1492788248	 430539489	 270654.
15:24:08 1101 1102	 1492788248	 701250959	 270712.
15:24:08 1102 1103	 1492788248	 976647517	 275396.
15:24:09 1103 1104	 1492788249	 248158982	 271512.
15:24:09 1104 1105	 1492788249	 470696964	 222538.
15:24:09 1105 1106	 1492788249	 745958812	 275262.
15:24:10 1106 1107	 1492788250	 17088319	 271129.
15:24:10 1107 1108	 1492788250	 288704115	 271616.
15:24:10 1108 1109	 1492788250	 564235342	 275531.
15:24:10 1109 1110	 1492788250	 835439341	 271204.
15:24:11 1110 1111	 1492788251	 57446593	 222007.
15:24:11 1111 1112	 1492788251	 328645247	 271199.
15:24:11 1112 1113	 1492788251	 603810932	 275166.
15:24:11 1113 1114	 1492788251	 875288286	 271477.
15:24:12 1114 1115	 1492788252	 146672573	 271384.
15:24:12 1115 1116	 1492788252	 421895310	 275223.
15:24:12 1116 1117	 1492788252	 644013364	 222118.
15:24:12 1117 1118	 1492788252	 914794541	 270781.
15:24:13 1118 1119	 1492788253	 189965813	 275172.
15:24:13 1119 1120	 1492788253	 460905140	 270939.
15:24:13 1120 1121	 1492788253	 687108962	 226204.
15:24:13 1121 1122	 1492788253	 958104953	 270996.
15:24:14 1122 1123	 1492788254	 229452388	 271347.
15:24:14 1123 1124	 1492788254	 505653242	 276201.
15:24:14 1124 1125	 1492788254	 777171157	 271518.
15:24:14 1125 1126	 1492788254	 999364642	 222193.
15:24:15 1126 1127	 1492788255	 274877798	 275514.
15:24:15 1127 1128	 1492788255	 546489318	 271611.
15:24:15 1128 1129	 1492788255	 817975215	 271486.
15:24:16 1129 1130	 1492788256	 92819099	 274844.
15:24:16 1130 1131	 1492788256	 364591038	 271772.
15:24:16 1131 1132	 1492788256	 587279590	 222688.
15:24:16 1132 1133	 1492788256	 862324142	 275045.
15:24:17 1133 1134	 1492788257	 137536564	 275212.
15:24:17 1134 1135	 1492788257	 359597996	 222062.
15:24:17 1135 1136	 1492788257	 630902571	 271305.
15:24:17 1136 1137	 1492788257	 906268787	 275365.
