08:31:42    0 Step	 time(s)	 time(ns)	 delta(ms)
08:31:42    0 1	 1492590702	 874856753	 961.
08:31:43    1 2	 1492590703	 150241397	 275385.
08:31:43    2 3	 1492590703	 422015841	 271775.
08:31:43    3 4	 1492590703	 644672347	 222656.
08:31:43    4 5	 1492590703	 916401792	 271730.
08:31:44    5 6	 1492590704	 192388418	 275986.
08:31:44    6 7	 1492590704	 463971740	 271583.
08:31:44    7 8	 1492590704	 739440537	 275469.
08:31:45    8 9	 1492590705	 10368570	 270928.
08:31:45    9 10	 1492590705	 232319270	 221951.
08:31:45   10 11	 1492590705	 503838195	 271519.
08:31:45   11 12	 1492590705	 779634459	 275796.
08:31:46   12 13	 1492590706	 50660294	 271026.
08:31:46   13 14	 1492590706	 325645910	 274986.
08:31:46   14 15	 1492590706	 544711016	 219065.
08:31:46   15 16	 1492590706	 820439801	 275729.
08:31:47   16 17	 1492590707	 96106915	 275667.
08:31:47   17 18	 1492590707	 368126564	 272019.
08:31:47   18 19	 1492590707	 644170584	 276044.
08:31:47   19 20	 1492590707	 915586643	 271416.
08:31:48   20 21	 1492590708	 138146754	 222561.
08:31:48   21 22	 1492590708	 409951380	 271804.
08:31:48   22 23	 1492590708	 724060538	 314109.
08:31:48   23 24	 1492590708	 946053834	 221994.
08:31:49   24 25	 1492590709	 217755769	 271702.
08:31:49   25 26	 1492590709	 493465370	 275709.
08:31:49   26 27	 1492590709	 765580877	 272116.
08:31:50   27 28	 1492590710	 41967745	 276387.
08:31:50   28 29	 1492590710	 264393092	 222425.
08:31:50   29 30	 1492590710	 536332790	 271940.
08:31:50   30 31	 1492590710	 812335032	 276002.
08:31:51   31 32	 1492590711	 84133954	 271799.
08:31:51   32 33	 1492590711	 359812989	 275679.
08:31:51   33 34	 1492590711	 582544287	 222731.
08:31:51   34 35	 1492590711	 853968972	 271425.
08:31:52   35 36	 1492590712	 126129030	 272160.
08:31:52   36 37	 1492590712	 402153727	 276025.
08:31:52   37 38	 1492590712	 677906034	 275752.
08:31:52   38 39	 1492590712	 949436941	 271531.
08:31:53   39 40	 1492590713	 172033469	 222596.
08:31:53   40 41	 1492590713	 443540664	 271507.
08:31:53   41 42	 1492590713	 719500303	 275960.
08:31:53   42 43	 1492590713	 991749165	 272249.
08:31:54   43 44	 1492590714	 267835039	 276086.
08:31:54   44 45	 1492590714	 543342294	 275507.
08:31:54   45 46	 1492590714	 761989207	 218647.
08:31:55   46 47	 1492590715	 37084315	 275095.
08:31:55   47 48	 1492590715	 308778730	 271694.
08:31:55   48 49	 1492590715	 584301211	 275523.
08:31:55   49 50	 1492590715	 806395285	 222094.
08:31:56   50 51	 1492590716	 77694254	 271299.
08:31:56   51 52	 1492590716	 353332468	 275638.
08:31:56   52 53	 1492590716	 624777198	 271445.
08:31:56   53 54	 1492590716	 847467988	 222691.
08:31:57   54 55	 1492590717	 119086430	 271618.
08:31:57   55 56	 1492590717	 394912331	 275826.
08:31:57   56 57	 1492590717	 666467471	 271555.
08:31:57   57 58	 1492590717	 941756941	 275290.
08:31:58   58 59	 1492590718	 163778528	 222021.
08:31:58   59 60	 1492590718	 434629459	 270851.
08:31:58   60 61	 1492590718	 709955146	 275326.
08:31:58   61 62	 1492590718	 932651617	 222696.
08:31:59   62 63	 1492590719	 203835389	 271184.
08:31:59   63 64	 1492590719	 479913457	 276078.
08:31:59   64 65	 1492590719	 755661148	 275748.
08:31:59   65 66	 1492590719	 978193078	 222532.
08:32:00   66 67	 1492590720	 250115018	 271922.
08:32:00   67 68	 1492590720	 522095907	 271981.
08:32:00   68 69	 1492590720	 796979510	 274883.
08:32:01   69 70	 1492590721	 67831726	 270853.
08:32:01   70 71	 1492590721	 338760604	 270928.
08:32:01   71 72	 1492590721	 560523381	 221763.
08:32:01   72 73	 1492590721	 835512967	 274990.
08:32:02   73 74	 1492590722	 106141270	 270628.
08:32:02   74 75	 1492590722	 376609638	 270468.
08:32:02   75 76	 1492590722	 598586739	 221978.
08:32:02   76 77	 1492590722	 869581758	 270994.
08:32:03   77 78	 1492590723	 140775678	 271194.
08:32:03   78 79	 1492590723	 412200131	 271425.
08:32:03   79 80	 1492590723	 687634748	 275435.
08:32:03   80 81	 1492590723	 958852659	 271217.
08:32:04   81 82	 1492590724	 230535413	 271683.
08:32:04   82 83	 1492590724	 506168856	 275634.
08:32:04   83 84	 1492590724	 777497707	 271328.
08:32:05   84 85	 1492590725	 49112873	 271616.
08:32:05   85 86	 1492590725	 320702479	 271589.
08:32:05   86 87	 1492590725	 542757437	 222055.
08:32:05   87 88	 1492590725	 813956201	 271201.
08:32:06   88 89	 1492590726	 89682022	 275724.
08:32:06   89 90	 1492590726	 361245799	 271564.
08:32:06   90 91	 1492590726	 636867338	 275621.
08:32:06   91 92	 1492590726	 908725164	 271858.
08:32:07   92 93	 1492590727	 184820418	 276095.
08:32:07   93 94	 1492590727	 406896492	 222076.
08:32:07   94 95	 1492590727	 677862778	 270966.
08:32:07   95 96	 1492590727	 948920658	 271058.
08:32:08   96 97	 1492590728	 224158408	 275238.
08:32:08   97 98	 1492590728	 494940733	 270783.
08:32:08   98 99	 1492590728	 717234040	 222293.
08:32:08   99 100	 1492590728	 993376310	 276142.
08:32:09  100 101	 1492590729	 265218010	 271842.
08:32:09  101 102	 1492590729	 540799705	 275581.
08:32:09  102 103	 1492590729	 812501362	 271702.
08:32:10  103 104	 1492590730	 84248481	 271747.
08:32:10  104 105	 1492590730	 360536181	 276288.
08:32:10  105 106	 1492590730	 636365245	 275829.
08:32:10  106 107	 1492590730	 908528043	 272163.
08:32:11  107 108	 1492590731	 184549180	 276021.
08:32:11  108 109	 1492590731	 406988363	 222439.
08:32:11  109 110	 1492590731	 678580320	 271592.
08:32:11  110 111	 1492590731	 950042002	 271462.
08:32:12  111 112	 1492590732	 225921963	 275880.
08:32:12  112 113	 1492590732	 497522811	 271601.
08:32:12  113 114	 1492590732	 769273792	 271751.
08:32:13  114 115	 1492590733	 44588520	 275314.
08:32:13  115 116	 1492590733	 315711153	 271123.
08:32:13  116 117	 1492590733	 591620877	 275910.
08:32:13  117 118	 1492590733	 814156712	 222535.
08:32:14  118 119	 1492590734	 85905807	 271750.
08:32:14  119 120	 1492590734	 357699791	 271794.
08:32:14  120 121	 1492590734	 633418985	 275719.
08:32:14  121 122	 1492590734	 904890183	 271471.
08:32:15  122 123	 1492590735	 127313212	 222423.
08:32:15  123 124	 1492590735	 402734413	 275421.
08:32:15  124 125	 1492590735	 674374383	 271640.
08:32:15  125 126	 1492590735	 949908570	 275534.
08:32:16  126 127	 1492590736	 167982607	 218074.
08:32:16  127 128	 1492590736	 443377293	 275395.
08:32:16  128 129	 1492590736	 718866163	 275489.
08:32:16  129 130	 1492590736	 990385895	 271520.
08:32:17  130 131	 1492590737	 261572516	 271186.
08:32:17  131 132	 1492590737	 483921979	 222350.
08:32:17  132 133	 1492590737	 759063560	 275141.
08:32:18  133 134	 1492590738	 30013312	 270950.
08:32:18  134 135	 1492590738	 328108854	 298096.
08:32:18  135 136	 1492590738	 550807462	 222698.
08:32:18  136 137	 1492590738	 826295511	 275488.
08:32:19  137 138	 1492590739	 97997695	 271702.
08:32:19  138 139	 1492590739	 369006266	 271009.
08:32:19  139 140	 1492590739	 645165732	 276160.
08:32:19  140 141	 1492590739	 867819428	 222653.
08:32:20  141 142	 1492590740	 144036803	 276218.
08:32:20  142 143	 1492590740	 416542953	 272506.
08:32:20  143 144	 1492590740	 692325255	 275782.
08:32:20  144 145	 1492590740	 963798395	 271473.
08:32:21  145 146	 1492590741	 239745711	 275948.
08:32:21  146 147	 1492590741	 461986130	 222240.
08:32:21  147 148	 1492590741	 733863422	 271877.
08:32:22  148 149	 1492590742	 9218569	 275355.
08:32:22  149 150	 1492590742	 280611729	 271394.
08:32:22  150 151	 1492590742	 552614201	 272002.
08:32:22  151 152	 1492590742	 828822943	 276209.
08:32:23  152 153	 1492590743	 51652563	 222829.
08:32:23  153 154	 1492590743	 323141727	 271489.
08:32:23  154 155	 1492590743	 598804333	 275663.
08:32:23  155 156	 1492590743	 874765612	 275961.
08:32:24  156 157	 1492590744	 145956361	 271191.
08:32:24  157 158	 1492590744	 368601396	 222645.
08:32:24  158 159	 1492590744	 643530593	 274929.
08:32:24  159 160	 1492590744	 914646613	 271116.
08:32:25  160 161	 1492590745	 186550613	 271904.
08:32:25  161 162	 1492590745	 408695295	 222145.
08:32:25  162 163	 1492590745	 684709610	 276014.
08:32:25  163 164	 1492590745	 960016401	 275307.
08:32:26  164 165	 1492590746	 182388220	 222372.
08:32:26  165 166	 1492590746	 457668248	 275280.
08:32:26  166 167	 1492590746	 728871787	 271203.
08:32:27  167 168	 1492590747	 4351551	 275480.
08:32:27  168 169	 1492590747	 226601057	 222250.
08:32:27  169 170	 1492590747	 497810745	 271210.
08:32:27  170 171	 1492590747	 772610769	 274799.
08:32:27  171 172	 1492590747	 990546560	 217936.
08:32:28  172 173	 1492590748	 265648924	 275103.
08:32:28  173 174	 1492590748	 541245347	 275596.
08:32:28  174 175	 1492590748	 812674332	 271429.
08:32:29  175 176	 1492590749	 84304422	 271630.
08:32:29  176 177	 1492590749	 306632000	 222328.
08:32:29  177 178	 1492590749	 582146128	 275514.
08:32:29  178 179	 1492590749	 853786580	 271640.
08:32:30  179 180	 1492590750	 129432161	 275646.
08:32:30  180 181	 1492590750	 351503856	 222072.
08:32:30  181 182	 1492590750	 623277141	 271773.
08:32:30  182 183	 1492590750	 899086194	 275809.
08:32:31  183 184	 1492590751	 170754369	 271668.
08:32:31  184 185	 1492590751	 446512522	 275758.
08:32:31  185 186	 1492590751	 717770342	 271258.
08:32:31  186 187	 1492590751	 940259283	 222489.
08:32:32  187 188	 1492590752	 212026247	 271767.
08:32:32  188 189	 1492590752	 482807227	 270781.
08:32:32  189 190	 1492590752	 757764447	 274957.
08:32:33  190 191	 1492590753	 28660117	 270896.
08:32:33  191 192	 1492590753	 299534718	 270874.
08:32:33  192 193	 1492590753	 521567467	 222033.
08:32:33  193 194	 1492590753	 792257020	 270690.
08:32:34  194 195	 1492590754	 67251795	 274995.
08:32:34  195 196	 1492590754	 338332867	 271081.
08:32:34  196 197	 1492590754	 609424811	 271092.
08:32:34  197 198	 1492590754	 880176487	 270751.
08:32:35  198 199	 1492590755	 102256282	 222080.
08:32:35  199 200	 1492590755	 376885297	 274629.
08:32:35  200 201	 1492590755	 647693362	 270808.
08:32:35  201 202	 1492590755	 918508832	 270816.
08:32:36  202 203	 1492590756	 193437347	 274928.
08:32:36  203 204	 1492590756	 411265134	 217828.
08:32:36  204 205	 1492590756	 686053371	 274788.
08:32:36  205 206	 1492590756	 956774898	 270722.
08:32:37  206 207	 1492590757	 227752051	 270977.
08:32:37  207 208	 1492590757	 449509688	 221757.
08:32:37  208 209	 1492590757	 724800360	 275291.
08:32:37  209 210	 1492590757	 996177040	 271377.
08:32:38  210 211	 1492590758	 271364337	 275187.
08:32:38  211 212	 1492590758	 543006084	 271642.
08:32:38  212 213	 1492590758	 818221649	 275215.
08:32:39  213 214	 1492590759	 88919274	 270698.
08:32:39  214 215	 1492590759	 365000490	 276081.
08:32:39  215 216	 1492590759	 587583510	 222583.
08:32:39  216 217	 1492590759	 863445939	 275863.
08:32:40  217 218	 1492590760	 134997645	 271551.
08:32:40  218 219	 1492590760	 411331466	 276334.
08:32:40  219 220	 1492590760	 633593265	 222262.
08:32:40  220 221	 1492590760	 904986457	 271393.
08:32:41  221 222	 1492590761	 181360136	 276374.
08:32:41  222 223	 1492590761	 453204457	 271844.
08:32:41  223 224	 1492590761	 729477011	 276273.
08:32:42  224 225	 1492590762	 1508541	 272031.
08:32:42  225 226	 1492590762	 277588097	 276080.
08:32:42  226 227	 1492590762	 549334196	 271746.
08:32:42  227 228	 1492590762	 772199421	 222865.
08:32:43  228 229	 1492590763	 44025344	 271826.
08:32:43  229 230	 1492590763	 319807113	 275782.
08:32:43  230 231	 1492590763	 591614067	 271807.
08:32:43  231 232	 1492590763	 867438210	 275824.
08:32:44  232 233	 1492590764	 90391889	 222954.
08:32:44  233 234	 1492590764	 366453163	 276061.
08:32:44  234 235	 1492590764	 638223727	 271771.
08:32:44  235 236	 1492590764	 913868795	 275645.
08:32:45  236 237	 1492590765	 136157627	 222288.
08:32:45  237 238	 1492590765	 407547056	 271390.
08:32:45  238 239	 1492590765	 683310913	 275764.
08:32:45  239 240	 1492590765	 954893077	 271582.
08:32:46  240 241	 1492590766	 177334640	 222441.
08:32:46  241 242	 1492590766	 452456275	 275122.
08:32:46  242 243	 1492590766	 724186959	 271731.
08:32:46  243 244	 1492590766	 999971470	 275784.
08:32:47  244 245	 1492590767	 271824673	 271853.
08:32:47  245 246	 1492590767	 494418641	 222594.
08:32:47  246 247	 1492590767	 770255435	 275837.
08:32:48  247 248	 1492590768	 42168078	 271913.
08:32:48  248 249	 1492590768	 317667378	 275499.
08:32:48  249 250	 1492590768	 589556887	 271890.
08:32:48  250 251	 1492590768	 812471403	 222914.
08:32:49  251 252	 1492590769	 83867348	 271396.
08:32:49  252 253	 1492590769	 359732045	 275865.
08:32:49  253 254	 1492590769	 635773436	 276041.
08:32:49  254 255	 1492590769	 907528876	 271756.
08:32:50  255 256	 1492590770	 129876326	 222347.
08:32:50  256 257	 1492590770	 401448406	 271572.
08:32:50  257 258	 1492590770	 677097943	 275650.
08:32:50  258 259	 1492590770	 952290645	 275192.
08:32:51  259 260	 1492590771	 224439396	 272149.
08:32:51  260 261	 1492590771	 446764358	 222325.
08:32:51  261 262	 1492590771	 718341194	 271577.
08:32:51  262 263	 1492590771	 993314319	 274973.
08:32:52  263 264	 1492590772	 264499640	 271185.
08:32:52  264 265	 1492590772	 487034573	 222535.
08:32:52  265 266	 1492590772	 763035881	 276002.
08:32:53  266 267	 1492590773	 34575451	 271539.
08:32:53  267 268	 1492590773	 310239197	 275664.
08:32:53  268 269	 1492590773	 581658310	 271419.
08:32:53  269 270	 1492590773	 804191837	 222534.
08:32:54  270 271	 1492590774	 80146187	 275954.
08:32:54  271 272	 1492590774	 352071848	 271926.
08:32:54  272 273	 1492590774	 627753876	 275693.
08:32:54  273 274	 1492590774	 899460836	 271696.
08:32:55  274 275	 1492590775	 121715646	 222254.
08:32:55  275 276	 1492590775	 393255537	 271540.
08:32:55  276 277	 1492590775	 668808512	 275553.
08:32:55  277 278	 1492590775	 891211987	 222404.
08:32:56  278 279	 1492590776	 166766020	 275554.
08:32:56  279 280	 1492590776	 438850770	 272085.
08:32:56  280 281	 1492590776	 710298569	 271447.
08:32:56  281 282	 1492590776	 986254477	 275956.
08:32:57  282 283	 1492590777	 257626261	 271372.
08:32:57  283 284	 1492590777	 480411932	 222786.
08:32:57  284 285	 1492590777	 756585956	 276174.
08:32:58  285 286	 1492590778	 32437903	 275852.
08:32:58  286 287	 1492590778	 304425352	 271987.
08:32:58  287 288	 1492590778	 576363507	 271938.
08:32:58  288 289	 1492590778	 852043252	 275680.
08:32:59  289 290	 1492590779	 74646827	 222604.
08:32:59  290 291	 1492590779	 346518004	 271871.
08:32:59  291 292	 1492590779	 622306928	 275789.
08:32:59  292 293	 1492590779	 893506178	 271199.
08:33:00  293 294	 1492590780	 115665640	 222159.
08:33:00  294 295	 1492590780	 390580248	 274915.
08:33:00  295 296	 1492590780	 661858459	 271278.
08:33:00  296 297	 1492590780	 932683336	 270825.
08:33:01  297 298	 1492590781	 203641075	 270958.
08:33:01  298 299	 1492590781	 478813186	 275172.
08:33:01  299 300	 1492590781	 697216936	 218404.
08:33:01  300 301	 1492590781	 972823876	 275607.
08:33:02  301 302	 1492590782	 243709908	 270886.
08:33:02  302 303	 1492590782	 514484034	 270774.
08:33:02  303 304	 1492590782	 785456119	 270972.
08:33:03  304 305	 1492590783	 60545489	 275089.
08:33:03  305 306	 1492590783	 282898521	 222353.
08:33:03  306 307	 1492590783	 554488187	 271590.
08:33:03  307 308	 1492590783	 825952615	 271464.
08:33:04  308 309	 1492590784	 101197404	 275245.
08:33:04  309 310	 1492590784	 372585631	 271388.
08:33:04  310 311	 1492590784	 648221631	 275636.
08:33:04  311 312	 1492590784	 919474452	 271253.
08:33:05  312 313	 1492590785	 190808380	 271334.
08:33:05  313 314	 1492590785	 412930712	 222122.
08:33:05  314 315	 1492590785	 688282776	 275353.
08:33:05  315 316	 1492590785	 960089711	 271806.
08:33:06  316 317	 1492590786	 231713390	 271624.
08:33:06  317 318	 1492590786	 507739034	 276026.
08:33:06  318 319	 1492590786	 729967711	 222228.
08:33:07  319 320	 1492590787	 1524593	 271557.
08:33:07  320 321	 1492590787	 277698948	 276175.
08:33:07  321 322	 1492590787	 549426916	 271728.
08:33:07  322 323	 1492590787	 825319648	 275892.
08:33:08  323 324	 1492590788	 97292851	 271974.
08:33:08  324 325	 1492590788	 323469291	 226176.
08:33:08  325 326	 1492590788	 595112947	 271644.
08:33:08  326 327	 1492590788	 866619655	 271507.
08:33:09  327 328	 1492590789	 142005068	 275385.
08:33:09  328 329	 1492590789	 364203431	 222198.
08:33:09  329 330	 1492590789	 635792416	 271589.
08:33:09  330 331	 1492590789	 911384836	 275593.
08:33:10  331 332	 1492590790	 183376303	 271991.
08:33:10  332 333	 1492590790	 455773763	 272398.
08:33:10  333 334	 1492590790	 731477617	 275703.
08:33:11  334 335	 1492590791	 3380019	 271903.
08:33:11  335 336	 1492590791	 279182273	 275802.
08:33:11  336 337	 1492590791	 497815501	 218633.
08:33:11  337 338	 1492590791	 773868355	 276053.
08:33:12  338 339	 1492590792	 50257316	 276389.
08:33:12  339 340	 1492590792	 321920080	 271663.
08:33:12  340 341	 1492590792	 597367708	 275447.
08:33:12  341 342	 1492590792	 868666964	 271300.
08:33:13  342 343	 1492590793	 140476230	 271809.
08:33:13  343 344	 1492590793	 416045400	 275569.
08:33:13  344 345	 1492590793	 639228003	 223183.
08:33:13  345 346	 1492590793	 911205697	 271977.
08:33:14  346 347	 1492590794	 182407616	 271202.
08:33:14  347 348	 1492590794	 457382597	 274975.
08:33:14  348 349	 1492590794	 728108509	 270726.
08:33:14  349 350	 1492590794	 999230590	 271122.
08:33:15  350 351	 1492590795	 270163827	 270934.
08:33:15  351 352	 1492590795	 492014316	 221850.
08:33:15  352 353	 1492590795	 767907678	 275893.
08:33:16  353 354	 1492590796	 39390392	 271483.
08:33:16  354 355	 1492590796	 315481131	 276091.
08:33:16  355 356	 1492590796	 591243069	 275762.
08:33:16  356 357	 1492590796	 813761794	 222518.
08:33:17  357 358	 1492590797	 85488488	 271727.
08:33:17  358 359	 1492590797	 357159063	 271671.
08:33:17  359 360	 1492590797	 632818072	 275659.
08:33:17  360 361	 1492590797	 908772148	 275954.
08:33:18  361 362	 1492590798	 127615517	 218843.
08:33:18  362 363	 1492590798	 403158965	 275544.
08:33:18  363 364	 1492590798	 679226101	 276067.
08:33:18  364 365	 1492590798	 950245897	 271020.
08:33:19  365 366	 1492590799	 225572584	 275326.
08:33:19  366 367	 1492590799	 448020863	 222449.
08:33:19  367 368	 1492590799	 719917982	 271897.
08:33:19  368 369	 1492590799	 996025705	 276107.
08:33:20  369 370	 1492590800	 267967998	 271943.
08:33:20  370 371	 1492590800	 544192769	 276225.
08:33:20  371 372	 1492590800	 816316584	 272123.
08:33:21  372 373	 1492590801	 39211483	 222895.
08:33:21  373 374	 1492590801	 311212862	 272002.
08:33:21  374 375	 1492590801	 586475031	 275262.
08:33:21  375 376	 1492590801	 857354847	 270880.
08:33:22  376 377	 1492590802	 133952637	 276597.
08:33:22  377 378	 1492590802	 406746421	 272794.
08:33:22  378 379	 1492590802	 679196485	 272450.
08:33:22  379 380	 1492590802	 955020931	 275825.
08:33:23  380 381	 1492590803	 226359546	 271338.
08:33:23  381 382	 1492590803	 497781466	 271422.
08:33:23  382 383	 1492590803	 773280008	 275499.
08:33:24  383 384	 1492590804	 44637778	 271358.
08:33:24  384 385	 1492590804	 316261913	 271624.
08:33:24  385 386	 1492590804	 587740390	 271478.
08:33:24  386 387	 1492590804	 862990582	 275250.
08:33:25  387 388	 1492590805	 134394003	 271404.
08:33:25  388 389	 1492590805	 405871919	 271478.
08:33:25  389 390	 1492590805	 681129357	 275257.
08:33:25  390 391	 1492590805	 952019597	 270890.
08:33:26  391 392	 1492590806	 174125941	 222107.
08:33:26  392 393	 1492590806	 445684893	 271559.
08:33:26  393 394	 1492590806	 720622985	 274938.
08:33:26  394 395	 1492590806	 991779340	 271156.
08:33:27  395 396	 1492590807	 262996166	 271217.
08:33:27  396 397	 1492590807	 534224599	 271228.
08:33:27  397 398	 1492590807	 809401548	 275177.
08:33:28  398 399	 1492590808	 80391664	 270990.
08:33:28  399 400	 1492590808	 302839312	 222448.
08:33:28  400 401	 1492590808	 574144036	 271305.
08:33:28  401 402	 1492590808	 849285473	 275141.
08:33:29  402 403	 1492590809	 120228625	 270943.
08:33:29  403 404	 1492590809	 391203180	 270975.
08:33:29  404 405	 1492590809	 666035272	 274832.
08:33:29  405 406	 1492590809	 937628486	 271593.
08:33:30  406 407	 1492590810	 208658923	 271031.
08:33:30  407 408	 1492590810	 479638810	 270980.
08:33:30  408 409	 1492590810	 701949530	 222310.
08:33:30  409 410	 1492590810	 976873407	 274924.
08:33:31  410 411	 1492590811	 247658964	 270786.
08:33:31  411 412	 1492590811	 518950833	 271292.
08:33:31  412 413	 1492590811	 789460191	 270509.
08:33:32  413 414	 1492590812	 64877789	 275418.
08:33:32  414 415	 1492590812	 336382146	 271504.
08:33:32  415 416	 1492590812	 608145692	 271763.
08:33:32  416 417	 1492590812	 884014479	 275870.
08:33:33  417 418	 1492590813	 155488788	 271474.
08:33:33  418 419	 1492590813	 427222636	 271733.
08:33:33  419 420	 1492590813	 698781917	 271560.
08:33:33  420 421	 1492590813	 974286512	 275504.
08:33:34  421 422	 1492590814	 244771781	 270486.
08:33:34  422 423	 1492590814	 516129001	 271357.
08:33:34  423 424	 1492590814	 787149093	 271020.
08:33:35  424 425	 1492590815	 9545568	 222396.
08:33:35  425 426	 1492590815	 284968273	 275423.
08:33:35  426 427	 1492590815	 556541877	 271574.
08:33:35  427 428	 1492590815	 827578076	 271036.
08:33:36  428 429	 1492590816	 99073243	 271495.
08:33:36  429 430	 1492590816	 374402718	 275329.
08:33:36  430 431	 1492590816	 645340714	 270938.
08:33:36  431 432	 1492590816	 915964287	 270624.
08:33:37  432 433	 1492590817	 137932333	 221968.
08:33:37  433 434	 1492590817	 409031799	 271100.
08:33:37  434 435	 1492590817	 684618008	 275586.
08:33:37  435 436	 1492590817	 955850188	 271232.
08:33:38  436 437	 1492590818	 230921093	 275071.
08:33:38  437 438	 1492590818	 502032520	 271112.
08:33:38  438 439	 1492590818	 724324986	 222292.
08:33:38  439 440	 1492590818	 995805994	 271481.
08:33:39  440 441	 1492590819	 267465583	 271659.
08:33:39  441 442	 1492590819	 538834176	 271369.
08:33:39  442 443	 1492590819	 814173522	 275339.
08:33:40  443 444	 1492590820	 85415352	 271242.
08:33:40  444 445	 1492590820	 356558383	 271143.
08:33:40  445 446	 1492590820	 632126439	 275568.
08:33:40  446 447	 1492590820	 854936870	 222811.
08:33:41  447 448	 1492590821	 130432803	 275496.
08:33:41  448 449	 1492590821	 401160641	 270727.
08:33:41  449 450	 1492590821	 671831721	 270671.
08:33:41  450 451	 1492590821	 942780982	 270950.
08:33:42  451 452	 1492590822	 164886549	 222105.
08:33:42  452 453	 1492590822	 435488827	 270603.
08:33:42  453 454	 1492590822	 710695805	 275207.
08:33:42  454 455	 1492590822	 981419772	 270724.
08:33:43  455 456	 1492590823	 252498584	 271078.
08:33:43  456 457	 1492590823	 474384410	 221886.
08:33:43  457 458	 1492590823	 750352836	 275969.
08:33:44  458 459	 1492590824	 25912857	 275560.
08:33:44  459 460	 1492590824	 248215349	 222302.
08:33:44  460 461	 1492590824	 520329405	 272114.
08:33:44  461 462	 1492590824	 791331476	 271002.
08:33:45  462 463	 1492590825	 66926760	 275596.
08:33:45  463 464	 1492590825	 289342891	 222416.
08:33:45  464 465	 1492590825	 560602767	 271260.
08:33:45  465 466	 1492590825	 836060401	 275457.
08:33:46  466 467	 1492590826	 107256145	 271196.
08:33:46  467 468	 1492590826	 378726002	 271470.
08:33:46  468 469	 1492590826	 654948866	 276223.
08:33:46  469 470	 1492590826	 926626038	 271677.
08:33:47  470 471	 1492590827	 153003792	 226378.
08:33:47  471 472	 1492590827	 424237874	 271234.
08:33:47  472 473	 1492590827	 695054493	 270816.
08:33:47  473 474	 1492590827	 970589293	 275535.
08:33:48  474 475	 1492590828	 241943833	 271355.
08:33:48  475 476	 1492590828	 517666371	 275722.
08:33:48  476 477	 1492590828	 740343948	 222678.
08:33:49  477 478	 1492590829	 11783850	 271440.
08:33:49  478 479	 1492590829	 287565415	 275781.
08:33:49  479 480	 1492590829	 559069245	 271504.
08:33:49  480 481	 1492590829	 781196215	 222127.
08:33:50  481 482	 1492590830	 56706057	 275510.
08:33:50  482 483	 1492590830	 328388967	 271683.
08:33:50  483 484	 1492590830	 550866044	 222477.
08:33:50  484 485	 1492590830	 826929309	 276063.
08:33:51  485 486	 1492590831	 103156046	 276227.
08:33:51  486 487	 1492590831	 375232748	 272077.
08:33:51  487 488	 1492590831	 646075514	 270842.
08:33:51  488 489	 1492590831	 920779203	 274704.
08:33:52  489 490	 1492590832	 192216409	 271437.
08:33:52  490 491	 1492590832	 414640350	 222424.
08:33:52  491 492	 1492590832	 686495672	 271855.
08:33:52  492 493	 1492590832	 961830296	 275335.
08:33:53  493 494	 1492590833	 233438938	 271609.
08:33:53  494 495	 1492590833	 508774472	 275335.
08:33:53  495 496	 1492590833	 780015004	 271241.
08:33:53  496 497	 1492590834	 1963306	 221948.
08:33:54  497 498	 1492590834	 273369940	 271407.
08:33:54  498 499	 1492590834	 545347273	 271977.
08:33:54  499 500	 1492590834	 822434526	 277087.
08:33:55  500 501	 1492590835	 97872102	 275438.
08:33:55  501 502	 1492590835	 369352891	 271481.
08:33:55  502 503	 1492590835	 591709148	 222356.
08:33:55  503 504	 1492590835	 867654623	 275945.
08:33:56  504 505	 1492590836	 139093333	 271439.
08:33:56  505 506	 1492590836	 411000912	 271908.
08:33:56  506 507	 1492590836	 686907404	 275906.
08:33:56  507 508	 1492590836	 958524863	 271618.
08:33:57  508 509	 1492590837	 180639057	 222114.
08:33:57  509 510	 1492590837	 456825649	 276187.
08:33:57  510 511	 1492590837	 727930224	 271104.
08:33:58  511 512	 1492590838	 3114841	 275185.
08:33:58  512 513	 1492590838	 274710450	 271595.
08:33:58  513 514	 1492590838	 546212355	 271502.
08:33:58  514 515	 1492590838	 822110557	 275898.
08:33:59  515 516	 1492590839	 44606890	 222497.
08:33:59  516 517	 1492590839	 316687391	 272080.
08:33:59  517 518	 1492590839	 592738662	 276051.
08:33:59  518 519	 1492590839	 864606583	 271868.
08:34:00  519 520	 1492590840	 136082374	 271476.
08:34:00  520 521	 1492590840	 411174562	 275092.
08:34:00  521 522	 1492590840	 682470351	 271296.
08:34:00  522 523	 1492590840	 953556136	 271086.
08:34:01  523 524	 1492590841	 175762123	 222206.
08:34:01  524 525	 1492590841	 446599379	 270837.
08:34:01  525 526	 1492590841	 717867362	 271268.
08:34:01  526 527	 1492590841	 993405340	 275538.
08:34:02  527 528	 1492590842	 264780181	 271375.
08:34:02  528 529	 1492590842	 536009189	 271229.
08:34:02  529 530	 1492590842	 807146043	 271137.
08:34:03  530 531	 1492590843	 82318918	 275173.
08:34:03  531 532	 1492590843	 353645490	 271326.
08:34:03  532 533	 1492590843	 624880567	 271235.
08:34:03  533 534	 1492590843	 896154583	 271274.
08:34:04  534 535	 1492590844	 171093763	 274940.
08:34:04  535 536	 1492590844	 393171653	 222077.
08:34:04  536 537	 1492590844	 664221603	 271050.
08:34:04  537 538	 1492590844	 935472924	 271252.
08:34:05  538 539	 1492590845	 264447409	 328974.
08:34:05  539 540	 1492590845	 535812098	 271365.
08:34:05  540 541	 1492590845	 861678648	 325866.
08:34:06  541 542	 1492590846	 135084582	 273406.
08:34:06  542 543	 1492590846	 406678278	 271594.
08:34:06  543 544	 1492590846	 677857318	 271179.
08:34:06  544 545	 1492590846	 953382904	 275526.
08:34:07  545 546	 1492590847	 224555827	 271173.
08:34:07  546 547	 1492590847	 495877568	 271321.
08:34:07  547 548	 1492590847	 771064770	 275188.
08:34:07  548 549	 1492590847	 993046827	 221982.
08:34:08  549 550	 1492590848	 314552731	 321506.
08:34:08  550 551	 1492590848	 590445295	 275892.
08:34:08  551 552	 1492590848	 813287524	 222842.
08:34:09  552 553	 1492590849	 84279416	 270992.
08:34:09  553 554	 1492590849	 400929420	 316650.
08:34:09  554 555	 1492590849	 623092780	 222164.
08:34:09  555 556	 1492590849	 894787482	 271694.
08:34:10  556 557	 1492590850	 170000888	 275214.
08:34:10  557 558	 1492590850	 441027888	 271027.
08:34:10  558 559	 1492590850	 762793077	 321765.
08:34:10  559 560	 1492590850	 985485012	 222692.
08:34:11  560 561	 1492590851	 261045688	 275560.
08:34:11  561 562	 1492590851	 532340478	 271295.
08:34:11  562 563	 1492590851	 803706418	 271366.
08:34:12  563 564	 1492590852	 78950259	 275244.
08:34:12  564 565	 1492590852	 349911942	 270962.
08:34:12  565 566	 1492590852	 621122327	 271210.
08:34:12  566 567	 1492590852	 843595362	 222473.
08:34:13  567 568	 1492590853	 115344011	 271749.
08:34:13  568 569	 1492590853	 391281626	 275937.
08:34:13  569 570	 1492590853	 663113911	 271833.
08:34:13  570 571	 1492590853	 938500238	 275386.
08:34:14  571 572	 1492590854	 209602511	 271102.
08:34:14  572 573	 1492590854	 480390773	 270788.
08:34:14  573 574	 1492590854	 756046978	 275657.
08:34:15  574 575	 1492590855	 27488940	 271442.
08:34:15  575 576	 1492590855	 298499342	 271010.
08:34:15  576 577	 1492590855	 520614770	 222116.
08:34:15  577 578	 1492590855	 791749714	 271134.
08:34:16  578 579	 1492590856	 63033174	 271284.
08:34:16  579 580	 1492590856	 338159431	 275126.
08:34:16  580 581	 1492590856	 609543393	 271384.
08:34:16  581 582	 1492590856	 880747711	 271204.
08:34:17  582 583	 1492590857	 156095667	 275348.
08:34:17  583 584	 1492590857	 427325730	 271231.
08:34:17  584 585	 1492590857	 698556866	 271231.
08:34:17  585 586	 1492590857	 970081714	 271524.
08:34:18  586 587	 1492590858	 245556060	 275475.
08:34:18  587 588	 1492590858	 516963915	 271408.
08:34:18  588 589	 1492590858	 788390249	 271426.
08:34:19  589 590	 1492590859	 63874381	 275484.
08:34:19  590 591	 1492590859	 334681138	 270807.
08:34:19  591 592	 1492590859	 556875197	 222194.
08:34:19  592 593	 1492590859	 828435720	 271560.
08:34:20  593 594	 1492590860	 99854171	 271419.
08:34:20  594 595	 1492590860	 413448375	 313594.
08:34:20  595 596	 1492590860	 635989686	 222541.
08:34:20  596 597	 1492590860	 912240171	 276251.
08:34:21  597 598	 1492590861	 183899680	 271659.
08:34:21  598 599	 1492590861	 455671622	 271772.
08:34:21  599 600	 1492590861	 731198072	 275527.
08:34:21  600 601	 1492590862	 3301271	 272103.
08:34:22  601 602	 1492590862	 274905514	 271604.
08:34:22  602 603	 1492590862	 550429212	 275524.
08:34:22  603 604	 1492590862	 821828857	 271400.
08:34:23  604 605	 1492590863	 92687472	 270858.
08:34:23  605 606	 1492590863	 315057129	 222370.
08:34:23  606 607	 1492590863	 586754470	 271697.
08:34:23  607 608	 1492590863	 862224482	 275470.
08:34:24  608 609	 1492590864	 137926433	 275702.
08:34:24  609 610	 1492590864	 409871703	 271945.
08:34:24  610 611	 1492590864	 681419906	 271549.
08:34:24  611 612	 1492590864	 957090429	 275670.
08:34:25  612 613	 1492590865	 229185861	 272096.
08:34:25  613 614	 1492590865	 505138669	 275952.
08:34:25  614 615	 1492590865	 776783425	 271645.
08:34:26  615 616	 1492590866	 48105692	 271322.
08:34:26  616 617	 1492590866	 319483019	 271378.
08:34:26  617 618	 1492590866	 542063042	 222580.
08:34:26  618 619	 1492590866	 817464387	 275401.
08:34:27  619 620	 1492590867	 89116774	 271653.
08:34:27  620 621	 1492590867	 364863110	 275746.
08:34:27  621 622	 1492590867	 637046991	 272184.
08:34:27  622 623	 1492590867	 908598055	 271551.
08:34:28  623 624	 1492590868	 184048689	 275450.
08:34:28  624 625	 1492590868	 455224442	 271176.
08:34:28  625 626	 1492590868	 678385373	 223161.
08:34:28  626 627	 1492590868	 954464451	 276079.
08:34:29  627 628	 1492590869	 226700211	 272236.
08:34:29  628 629	 1492590869	 497789997	 271090.
08:34:29  629 630	 1492590869	 768563584	 270773.
08:34:30  630 631	 1492590870	 43954945	 275392.
08:34:30  631 632	 1492590870	 319370702	 275415.
08:34:30  632 633	 1492590870	 591203457	 271833.
08:34:30  633 634	 1492590870	 813715114	 222512.
08:34:31  634 635	 1492590871	 88891018	 275176.
08:34:31  635 636	 1492590871	 360708931	 271818.
08:34:31  636 637	 1492590871	 636029836	 275321.
08:34:31  637 638	 1492590871	 907680803	 271651.
08:34:32  638 639	 1492590872	 130022756	 222342.
08:34:32  639 640	 1492590872	 401582176	 271559.
08:34:32  640 641	 1492590872	 676797241	 275215.
08:34:32  641 642	 1492590872	 948486238	 271689.
08:34:33  642 643	 1492590873	 170913229	 222427.
08:34:33  643 644	 1492590873	 446016053	 275103.
08:34:33  644 645	 1492590873	 717500410	 271484.
08:34:33  645 646	 1492590873	 992961511	 275461.
08:34:34  646 647	 1492590874	 264856558	 271895.
08:34:34  647 648	 1492590874	 487621306	 222765.
08:34:34  648 649	 1492590874	 758889289	 271268.
08:34:35  649 650	 1492590875	 34059988	 275171.
08:34:35  650 651	 1492590875	 305455423	 271395.
08:34:35  651 652	 1492590875	 527690498	 222235.
08:34:35  652 653	 1492590875	 803190850	 275501.
08:34:36  653 654	 1492590876	 74161908	 270971.
08:34:36  654 655	 1492590876	 349725599	 275563.
08:34:36  655 656	 1492590876	 567783014	 218058.
08:34:36  656 657	 1492590876	 842926076	 275143.
08:34:37  657 658	 1492590877	 118040491	 275114.
08:34:37  658 659	 1492590877	 336221901	 218182.
08:34:37  659 660	 1492590877	 611229836	 275008.
08:34:37  660 661	 1492590877	 882576844	 271347.
08:34:38  661 662	 1492590878	 157634260	 275057.
08:34:38  662 663	 1492590878	 429391485	 271757.
08:34:38  663 664	 1492590878	 651620280	 222229.
08:34:38  664 665	 1492590878	 927227832	 275608.
08:34:39  665 666	 1492590879	 199122978	 271895.
08:34:39  666 667	 1492590879	 474317955	 275195.
08:34:39  667 668	 1492590879	 741365169	 267047.
08:34:39  668 669	 1492590879	 963195378	 221830.
08:34:40  669 670	 1492590880	 238650483	 275455.
08:34:40  670 671	 1492590880	 509552227	 270902.
08:34:40  671 672	 1492590880	 785326817	 275775.
08:34:41  672 673	 1492590881	 57578154	 272251.
08:34:41  673 674	 1492590881	 280406749	 222829.
08:34:41  674 675	 1492590881	 556264102	 275857.
08:34:41  675 676	 1492590881	 827337540	 271073.
08:34:42  676 677	 1492590882	 102896007	 275559.
08:34:42  677 678	 1492590882	 325748555	 222852.
08:34:42  678 679	 1492590882	 597624646	 271877.
08:34:42  679 680	 1492590882	 873308790	 275684.
08:34:43  680 681	 1492590883	 144708731	 271400.
08:34:43  681 682	 1492590883	 416629882	 271921.
08:34:43  682 683	 1492590883	 692767278	 276137.
08:34:43  683 684	 1492590883	 964547176	 271780.
08:34:44  684 685	 1492590884	 235879740	 271333.
08:34:44  685 686	 1492590884	 462415758	 226536.
08:34:44  686 687	 1492590884	 734440993	 272025.
08:34:45  687 688	 1492590885	 5780473	 271339.
08:34:45  688 689	 1492590885	 280978731	 275199.
08:34:45  689 690	 1492590885	 552030460	 271051.
08:34:45  690 691	 1492590885	 822942929	 270913.
08:34:46  691 692	 1492590886	 98426457	 275483.
08:34:46  692 693	 1492590886	 321041231	 222615.
08:34:46  693 694	 1492590886	 592730907	 271690.
08:34:46  694 695	 1492590886	 864619985	 271889.
08:34:47  695 696	 1492590887	 140942756	 276323.
08:34:47  696 697	 1492590887	 412432959	 271490.
08:34:47  697 698	 1492590887	 683687703	 271254.
08:34:47  698 699	 1492590887	 959438625	 275751.
08:34:48  699 700	 1492590888	 182061564	 222623.
08:34:48  700 701	 1492590888	 453685915	 271625.
08:34:48  701 702	 1492590888	 725011863	 271326.
08:34:48  702 703	 1492590889	 751058	 275739.
08:34:49  703 704	 1492590889	 272361714	 271611.
08:34:49  704 705	 1492590889	 547926472	 275564.
08:34:49  705 706	 1492590889	 819462630	 271536.
08:34:50  706 707	 1492590890	 42109378	 222647.
08:34:50  707 708	 1492590890	 313439448	 271330.
08:34:50  708 709	 1492590890	 589139784	 275701.
08:34:50  709 710	 1492590890	 860989976	 271850.
08:34:51  710 711	 1492590891	 136779688	 275789.
08:34:51  711 712	 1492590891	 359359045	 222580.
08:34:51  712 713	 1492590891	 631217359	 271858.
08:34:51  713 714	 1492590891	 902925320	 271708.
08:34:52  714 715	 1492590892	 178920127	 275995.
08:34:52  715 716	 1492590892	 455160750	 276241.
08:34:52  716 717	 1492590892	 725883260	 270722.
08:34:52  717 718	 1492590892	 947990508	 222107.
08:34:53  718 719	 1492590893	 219347217	 271357.
08:34:53  719 720	 1492590893	 495235810	 275889.
08:34:53  720 721	 1492590893	 767537643	 272301.
08:34:54  721 722	 1492590894	 43950179	 276413.
08:34:54  722 723	 1492590894	 320324085	 276374.
08:34:54  723 724	 1492590894	 592136667	 271812.
08:34:54  724 725	 1492590894	 814615689	 222479.
08:34:55  725 726	 1492590895	 85413577	 270798.
08:34:55  726 727	 1492590895	 356511842	 271099.
08:34:55  727 728	 1492590895	 631669912	 275158.
08:34:55  728 729	 1492590895	 902562252	 270892.
08:34:56  729 730	 1492590896	 124385756	 221824.
08:34:56  730 731	 1492590896	 395040800	 270655.
08:34:56  731 732	 1492590896	 666378224	 271337.
08:34:56  732 733	 1492590896	 942171489	 275794.
08:34:57  733 734	 1492590897	 164615532	 222443.
08:34:57  734 735	 1492590897	 436376976	 271762.
08:34:57  735 736	 1492590897	 712379514	 276002.
08:34:57  736 737	 1492590897	 983986380	 271607.
08:34:58  737 738	 1492590898	 259801619	 275815.
08:34:58  738 739	 1492590898	 478549902	 218749.
08:34:58  739 740	 1492590898	 754366271	 275816.
08:34:59  740 741	 1492590899	 26309904	 271944.
08:34:59  741 742	 1492590899	 302819068	 276509.
08:34:59  742 743	 1492590899	 574344816	 271526.
08:34:59  743 744	 1492590899	 800913490	 226568.
08:35:00  744 745	 1492590900	 72876506	 271963.
08:35:00  745 746	 1492590900	 344424986	 271549.
08:35:00  746 747	 1492590900	 615002629	 270578.
08:35:00  747 748	 1492590900	 885924769	 270922.
08:35:01  748 749	 1492590901	 160927817	 275003.
08:35:01  749 750	 1492590901	 432104797	 271177.
08:35:01  750 751	 1492590901	 654229707	 222125.
08:35:01  751 752	 1492590901	 925237158	 271007.
08:35:02  752 753	 1492590902	 200225472	 274988.
08:35:02  753 754	 1492590902	 471165779	 270941.
08:35:02  754 755	 1492590902	 742248033	 271082.
08:35:03  755 756	 1492590903	 13611373	 271363.
08:35:03  756 757	 1492590903	 284941669	 271330.
08:35:03  757 758	 1492590903	 560082609	 275141.
08:35:03  758 759	 1492590903	 831481769	 271400.
08:35:04  759 760	 1492590904	 102869137	 271387.
08:35:04  760 761	 1492590904	 378306828	 275438.
08:35:04  761 762	 1492590904	 649546398	 271239.
08:35:04  762 763	 1492590904	 867986098	 218440.
08:35:05  763 764	 1492590905	 143318941	 275333.
08:35:05  764 765	 1492590905	 414547250	 271228.
08:35:05  765 766	 1492590905	 685845935	 271299.
08:35:05  766 767	 1492590905	 957178300	 271332.
08:35:06  767 768	 1492590906	 232551873	 275374.
08:35:06  768 769	 1492590906	 504212456	 271660.
08:35:06  769 770	 1492590906	 775682762	 271471.
08:35:07  770 771	 1492590907	 50677938	 274995.
08:35:07  771 772	 1492590907	 321942714	 271264.
08:35:07  772 773	 1492590907	 593013557	 271071.
08:35:07  773 774	 1492590907	 815961808	 222949.
08:35:08  774 775	 1492590908	 91837190	 275875.
08:35:08  775 776	 1492590908	 363824364	 271987.
08:35:08  776 777	 1492590908	 639404508	 275580.
08:35:08  777 778	 1492590908	 911174836	 271771.
08:35:09  778 779	 1492590909	 186562054	 275387.
08:35:09  779 780	 1492590909	 409127523	 222565.
08:35:09  780 781	 1492590909	 680363883	 271237.
08:35:09  781 782	 1492590909	 956223731	 275859.
08:35:10  782 783	 1492590910	 227691853	 271469.
08:35:10  783 784	 1492590910	 450404582	 222712.
08:35:10  784 785	 1492590910	 726412418	 276008.
08:35:10  785 786	 1492590910	 998624503	 272212.
08:35:11  786 787	 1492590911	 274480260	 275856.
08:35:11  787 788	 1492590911	 546532456	 272052.
08:35:11  788 789	 1492590911	 822839568	 276307.
08:35:12  789 790	 1492590912	 94908985	 272070.
08:35:12  790 791	 1492590912	 317441588	 222532.
08:35:12  791 792	 1492590912	 589203350	 271762.
08:35:12  792 793	 1492590912	 864969689	 275766.
08:35:13  793 794	 1492590913	 140259046	 275290.
08:35:13  794 795	 1492590913	 412138275	 271879.
08:35:13  795 796	 1492590913	 635121323	 222983.
08:35:13  796 797	 1492590913	 911399146	 276278.
08:35:14  797 798	 1492590914	 183309595	 271910.
08:35:14  798 799	 1492590914	 458792634	 275483.
08:35:14  799 800	 1492590914	 730942523	 272150.
08:35:15  800 801	 1492590915	 2870558	 271928.
08:35:15  801 802	 1492590915	 229732258	 226862.
08:35:15  802 803	 1492590915	 500952037	 271220.
08:35:15  803 804	 1492590915	 776496798	 275545.
08:35:16  804 805	 1492590916	 48328156	 271831.
08:35:16  805 806	 1492590916	 319569529	 271241.
08:35:16  806 807	 1492590916	 541758267	 222189.
08:35:16  807 808	 1492590916	 816821128	 275063.
08:35:17  808 809	 1492590917	 87707494	 270886.
08:35:17  809 810	 1492590917	 358563468	 270856.
08:35:17  810 811	 1492590917	 633720408	 275157.
08:35:17  811 812	 1492590917	 852036938	 218317.
08:35:18  812 813	 1492590918	 127438172	 275401.
08:35:18  813 814	 1492590918	 399010885	 271573.
08:35:18  814 815	 1492590918	 674469862	 275459.
08:35:18  815 816	 1492590918	 945509571	 271039.
08:35:19  816 817	 1492590919	 167450127	 221941.
08:35:19  817 818	 1492590919	 438367781	 270918.
08:35:19  818 819	 1492590919	 713265279	 274897.
08:35:19  819 820	 1492590919	 983716286	 270451.
08:35:20  820 821	 1492590920	 258846542	 275130.
08:35:20  821 822	 1492590920	 477094992	 218260.
08:35:20  822 823	 1492590920	 752713039	 275607.
08:35:21  823 824	 1492590921	 24345776	 271633.
08:35:21  824 825	 1492590921	 295807827	 271462.
08:35:21  825 826	 1492590921	 571723840	 275916.
08:35:21  826 827	 1492590921	 843236473	 271512.
08:35:22  827 828	 1492590922	 114472080	 271236.
08:35:22  828 829	 1492590922	 337399470	 222927.
08:35:22  829 830	 1492590922	 612976493	 275577.
08:35:22  830 831	 1492590922	 884292159	 271316.
08:35:23  831 832	 1492590923	 155541378	 271249.
08:35:23  832 833	 1492590923	 426330322	 270789.
08:35:23  833 834	 1492590923	 701774981	 275445.
08:35:23  834 835	 1492590923	 924367242	 222592.
08:35:24  835 836	 1492590924	 195707153	 271340.
08:35:24  836 837	 1492590924	 471074727	 275368.
08:35:24  837 838	 1492590924	 747268385	 276193.
08:35:25  838 839	 1492590925	 18985645	 271717.
08:35:25  839 840	 1492590925	 241875351	 222890.
08:35:25  840 841	 1492590925	 513524751	 271650.
08:35:25  841 842	 1492590925	 789645827	 276121.
08:35:26  842 843	 1492590926	 65213321	 275567.
08:35:26  843 844	 1492590926	 336990576	 271778.
08:35:26  844 845	 1492590926	 559016781	 222026.
08:35:26  845 846	 1492590926	 829929977	 270913.
08:35:27  846 847	 1492590927	 101478991	 271549.
08:35:27  847 848	 1492590927	 376386705	 274907.
08:35:27  848 849	 1492590927	 647132712	 270746.
08:35:27  849 850	 1492590927	 869139784	 222008.
08:35:28  850 851	 1492590928	 140060308	 270920.
08:35:28  851 852	 1492590928	 410665744	 270606.
08:35:28  852 853	 1492590928	 686496059	 275830.
08:35:28  853 854	 1492590928	 958560912	 272065.
08:35:29  854 855	 1492590929	 234384513	 275823.
08:35:29  855 856	 1492590929	 457028487	 222644.
08:35:29  856 857	 1492590929	 728496841	 271469.
08:35:30  857 858	 1492590930	 4773096	 276276.
08:35:30  858 859	 1492590930	 276799294	 272026.
08:35:30  859 860	 1492590930	 552539891	 275741.
08:35:30  860 861	 1492590930	 824404143	 271864.
08:35:31  861 862	 1492590931	 96063436	 271659.
08:35:31  862 863	 1492590931	 371849260	 275786.
08:35:31  863 864	 1492590931	 593944133	 222095.
08:35:31  864 865	 1492590931	 865677635	 271733.
08:35:32  865 866	 1492590932	 137748015	 272071.
08:35:32  866 867	 1492590932	 409623077	 271875.
08:35:32  867 868	 1492590932	 685164145	 275541.
08:35:32  868 869	 1492590932	 960788714	 275624.
08:35:33  869 870	 1492590933	 183407754	 222620.
08:35:33  870 871	 1492590933	 455036733	 271629.
08:35:33  871 872	 1492590933	 730323994	 275287.
08:35:33  872 873	 1492590934	 1999353	 271675.
08:35:34  873 874	 1492590934	 277713984	 275715.
08:35:34  874 875	 1492590934	 496182017	 218468.
08:35:34  875 876	 1492590934	 771675017	 275493.
08:35:35  876 877	 1492590935	 43107468	 271432.
08:35:35  877 878	 1492590935	 318725942	 275619.
08:35:35  878 879	 1492590935	 590691856	 271966.
08:35:35  879 880	 1492590935	 812456733	 221765.
08:35:36  880 881	 1492590936	 87577718	 275120.
08:35:36  881 882	 1492590936	 359023441	 271446.
08:35:36  882 883	 1492590936	 585313934	 226291.
08:35:36  883 884	 1492590936	 856822598	 271508.
08:35:37  884 885	 1492590937	 132550555	 275728.
08:35:37  885 886	 1492590937	 404524110	 271974.
08:35:37  886 887	 1492590937	 680274074	 275750.
08:35:37  887 888	 1492590937	 903102853	 222829.
08:35:38  888 889	 1492590938	 174748047	 271645.
08:35:38  889 890	 1492590938	 449954813	 275207.
08:35:38  890 891	 1492590938	 725429390	 275474.
08:35:38  891 892	 1492590938	 947835573	 222406.
08:35:39  892 893	 1492590939	 219205283	 271370.
08:35:39  893 894	 1492590939	 494498561	 275293.
08:35:39  894 895	 1492590939	 766180040	 271682.
08:35:39  895 896	 1492590939	 988703207	 222523.
08:35:40  896 897	 1492590940	 264185956	 275483.
08:35:40  897 898	 1492590940	 535933646	 271748.
08:35:40  898 899	 1492590940	 758423400	 222489.
08:35:41  899 900	 1492590941	 34766084	 276343.
08:35:41  900 901	 1492590941	 306259987	 271494.
08:35:41  901 902	 1492590941	 582521031	 276261.
08:35:41  902 903	 1492590941	 858276336	 275755.
08:35:42  903 904	 1492590942	 129899627	 271623.
08:35:42  904 905	 1492590942	 352306608	 222407.
08:35:42  905 906	 1492590942	 627945456	 275639.
08:35:42  906 907	 1492590942	 898697259	 270752.
08:35:43  907 908	 1492590943	 121620710	 222923.
08:35:43  908 909	 1492590943	 397509883	 275890.
08:35:43  909 910	 1492590943	 673360904	 275851.
08:35:43  910 911	 1492590943	 945042201	 271681.
08:35:44  911 912	 1492590944	 167626735	 222585.
08:35:44  912 913	 1492590944	 442978909	 275352.
08:35:44  913 914	 1492590944	 714865835	 271887.
08:35:44  914 915	 1492590944	 990402308	 275536.
08:35:45  915 916	 1492590945	 212644667	 222242.
08:35:45  916 917	 1492590945	 484376597	 271733.
08:35:45  917 918	 1492590945	 759924985	 275548.
08:35:45  918 919	 1492590945	 982225453	 222300.
08:35:46  919 920	 1492590946	 253436516	 271211.
08:35:46  920 921	 1492590946	 529460092	 276024.
08:35:46  921 922	 1492590946	 801422239	 271962.
08:35:47  922 923	 1492590947	 77142541	 275720.
08:35:47  923 924	 1492590947	 300054366	 222912.
08:35:47  924 925	 1492590947	 575604080	 275550.
08:35:47  925 926	 1492590947	 846875612	 271271.
08:35:48  926 927	 1492590948	 122369436	 275494.
08:35:48  927 928	 1492590948	 345233597	 222864.
08:35:48  928 929	 1492590948	 616792964	 271560.
08:35:48  929 930	 1492590948	 892711151	 275918.
08:35:49  930 931	 1492590949	 164185558	 271474.
08:35:49  931 932	 1492590949	 386539550	 222354.
08:35:49  932 933	 1492590949	 662255624	 275716.
08:35:49  933 934	 1492590949	 937974051	 275719.
08:35:50  934 935	 1492590950	 209736843	 271763.
08:35:50  935 936	 1492590950	 431896656	 222159.
08:35:50  936 937	 1492590950	 707661327	 275765.
08:35:50  937 938	 1492590950	 978791516	 271130.
08:35:51  938 939	 1492590951	 254272063	 275481.
08:35:51  939 940	 1492590951	 476852547	 222580.
08:35:51  940 941	 1492590951	 748014824	 271163.
08:35:52  941 942	 1492590952	 23602709	 275587.
08:35:52  942 943	 1492590952	 294854918	 271253.
08:35:52  943 944	 1492590952	 517626145	 222771.
08:35:52  944 945	 1492590952	 793157779	 275532.
08:35:53  945 946	 1492590953	 68764902	 275607.
08:35:53  946 947	 1492590953	 339766228	 271001.
08:35:53  947 948	 1492590953	 561945968	 222180.
08:35:53  948 949	 1492590953	 837286547	 275340.
08:35:54  949 950	 1492590954	 108547227	 271261.
08:35:54  950 951	 1492590954	 330919457	 222372.
08:35:54  951 952	 1492590954	 606320199	 275401.
08:35:54  952 953	 1492590954	 877964309	 271644.
08:35:55  953 954	 1492590955	 153838084	 275874.
08:35:55  954 955	 1492590955	 372215630	 218377.
08:35:55  955 956	 1492590955	 648056195	 275841.
08:35:55  956 957	 1492590955	 923886620	 275830.
08:35:56  957 958	 1492590956	 195720917	 271835.
08:35:56  958 959	 1492590956	 471085166	 275364.
08:35:56  959 960	 1492590956	 689401757	 218317.
08:35:56  960 961	 1492590956	 964998855	 275597.
08:35:57  961 962	 1492590957	 240563853	 275565.
08:35:57  962 963	 1492590957	 463078901	 222515.
08:35:57  963 964	 1492590957	 735407512	 272328.
08:35:58  964 965	 1492590958	 11486242	 276079.
08:35:58  965 966	 1492590958	 283116462	 271630.
08:35:58  966 967	 1492590958	 558657534	 275541.
08:35:58  967 968	 1492590958	 829921545	 271264.
08:35:59  968 969	 1492590959	 51700451	 221779.
08:35:59  969 970	 1492590959	 326873474	 275173.
08:35:59  970 971	 1492590959	 601902734	 275030.
08:35:59  971 972	 1492590959	 824462647	 222559.
08:36:00  972 973	 1492590960	 96410867	 271949.
08:36:00  973 974	 1492590960	 372721391	 276310.
08:36:00  974 975	 1492590960	 644767035	 272046.
08:36:00  975 976	 1492590960	 915721242	 270954.
08:36:01  976 977	 1492590961	 191259727	 275539.
08:36:01  977 978	 1492590961	 462287465	 271027.
08:36:01  978 979	 1492590961	 733061220	 270774.
08:36:02  979 980	 1492590962	 8315682	 275254.
08:36:02  980 981	 1492590962	 279446145	 271131.
08:36:02  981 982	 1492590962	 501692105	 222246.
08:36:02  982 983	 1492590962	 773045891	 271354.
08:36:03  983 984	 1492590963	 48595526	 275549.
08:36:03  984 985	 1492590963	 319456171	 270861.
08:36:03  985 986	 1492590963	 590749702	 271293.
08:36:03  986 987	 1492590963	 861963830	 271215.
08:36:04  987 988	 1492590964	 137135949	 275172.
08:36:04  988 989	 1492590964	 408471159	 271335.
08:36:04  989 990	 1492590964	 683562548	 275091.
08:36:04  990 991	 1492590964	 902108093	 218546.
08:36:05  991 992	 1492590965	 173316331	 271208.
08:36:05  992 993	 1492590965	 448333274	 275017.
08:36:05  993 994	 1492590965	 719581834	 271249.
08:36:05  994 995	 1492590965	 994717806	 275136.
08:36:06  995 996	 1492590966	 265818218	 271100.
08:36:06  996 997	 1492590966	 488480005	 222662.
08:36:06  997 998	 1492590966	 764326505	 275846.
08:36:07  998 999	 1492590967	 37023311	 272697.
08:36:07  999 1000	 1492590967	 313718611	 276695.
08:36:07 1000 1001	 1492590967	 585275598	 271557.
08:36:07 1001 1002	 1492590967	 861027559	 275752.
08:36:08 1002 1003	 1492590968	 132509431	 271482.
08:36:08 1003 1004	 1492590968	 402928975	 270420.
08:36:08 1004 1005	 1492590968	 673992338	 271063.
08:36:08 1005 1006	 1492590968	 944716731	 270725.
08:36:09 1006 1007	 1492590969	 166687195	 221970.
08:36:09 1007 1008	 1492590969	 442699749	 276013.
08:36:09 1008 1009	 1492590969	 714630677	 271930.
08:36:09 1009 1010	 1492590969	 990115965	 275486.
08:36:10 1010 1011	 1492590970	 262261097	 272145.
08:36:10 1011 1012	 1492590970	 537864743	 275604.
08:36:10 1012 1013	 1492590970	 809864289	 271999.
08:36:11 1013 1014	 1492590971	 85928720	 276065.
08:36:11 1014 1015	 1492590971	 308895315	 222966.
08:36:11 1015 1016	 1492590971	 580732776	 271838.
08:36:11 1016 1017	 1492590971	 852386494	 271653.
08:36:12 1017 1018	 1492590972	 127808048	 275422.
08:36:12 1018 1019	 1492590972	 399210685	 271402.
08:36:12 1019 1020	 1492590972	 621574553	 222364.
08:36:12 1020 1021	 1492590972	 897278105	 275704.
08:36:13 1021 1022	 1492590973	 173199594	 275921.
08:36:13 1022 1023	 1492590973	 444128262	 270929.
08:36:13 1023 1024	 1492590973	 716572184	 272444.
08:36:13 1024 1025	 1492590973	 938993391	 222421.
08:36:14 1025 1026	 1492590974	 210685369	 271692.
08:36:14 1026 1027	 1492590974	 486444554	 275759.
08:36:14 1027 1028	 1492590974	 758144686	 271700.
08:36:15 1028 1029	 1492590975	 34092704	 275948.
08:36:15 1029 1030	 1492590975	 256457427	 222365.
08:36:15 1030 1031	 1492590975	 531854747	 275398.
08:36:15 1031 1032	 1492590975	 803454407	 271599.
08:36:16 1032 1033	 1492590976	 78905275	 275451.
08:36:16 1033 1034	 1492590976	 301153586	 222248.
08:36:16 1034 1035	 1492590976	 576290921	 275138.
08:36:16 1035 1036	 1492590976	 847591232	 271300.
08:36:17 1036 1037	 1492590977	 73826137	 226235.
08:36:17 1037 1038	 1492590977	 345037130	 271211.
08:36:17 1038 1039	 1492590977	 616527056	 271490.
08:36:17 1039 1040	 1492590977	 892026140	 275499.
08:36:18 1040 1041	 1492590978	 114603475	 222577.
08:36:18 1041 1042	 1492590978	 385799721	 271196.
08:36:18 1042 1043	 1492590978	 661193938	 275395.
08:36:18 1043 1044	 1492590978	 933128959	 271935.
08:36:19 1044 1045	 1492590979	 208869907	 275741.
08:36:19 1045 1046	 1492590979	 431593788	 222724.
08:36:19 1046 1047	 1492590979	 702621517	 271027.
08:36:19 1047 1048	 1492590979	 978325737	 275705.
08:36:20 1048 1049	 1492590980	 249584536	 271258.
08:36:20 1049 1050	 1492590980	 472383995	 222800.
08:36:20 1050 1051	 1492590980	 743852354	 271468.
08:36:21 1051 1052	 1492590981	 19616045	 275764.
08:36:21 1052 1053	 1492590981	 291769091	 272153.
08:36:21 1053 1054	 1492590981	 567490905	 275722.
08:36:21 1054 1055	 1492590981	 839691569	 272201.
08:36:22 1055 1056	 1492590982	 62646440	 222954.
08:36:22 1056 1057	 1492590982	 338503857	 275858.
08:36:22 1057 1058	 1492590982	 610481237	 271977.
08:36:22 1058 1059	 1492590982	 886312921	 275832.
08:36:23 1059 1060	 1492590983	 162148440	 275835.
08:36:23 1060 1061	 1492590983	 434084487	 271937.
08:36:23 1061 1062	 1492590983	 656709697	 222624.
08:36:23 1062 1063	 1492590983	 928898733	 272189.
08:36:24 1063 1064	 1492590984	 204846939	 275949.
08:36:24 1064 1065	 1492590984	 480353105	 275506.
08:36:24 1065 1066	 1492590984	 752743593	 272390.
08:36:25 1066 1067	 1492590985	 28630416	 275887.
08:36:25 1067 1068	 1492590985	 251353693	 222723.
08:36:25 1068 1069	 1492590985	 523660505	 272307.
08:36:25 1069 1070	 1492590985	 799776634	 276116.
08:36:26 1070 1071	 1492590986	 71086161	 271310.
08:36:26 1071 1072	 1492590986	 346933955	 275848.
08:36:26 1072 1073	 1492590986	 569325307	 222391.
08:36:26 1073 1074	 1492590986	 841215399	 271890.
08:36:27 1074 1075	 1492590987	 117902372	 276687.
08:36:27 1075 1076	 1492590987	 390677432	 272775.
08:36:27 1076 1077	 1492590987	 667285633	 276608.
08:36:27 1077 1078	 1492590987	 938256888	 270972.
08:36:28 1078 1079	 1492590988	 213879153	 275622.
08:36:28 1079 1080	 1492590988	 485031934	 271153.
08:36:28 1080 1081	 1492590988	 760331037	 275299.
08:36:29 1081 1082	 1492590989	 31824751	 271494.
08:36:29 1082 1083	 1492590989	 303307592	 271482.
08:36:29 1083 1084	 1492590989	 525457851	 222151.
08:36:29 1084 1085	 1492590989	 800644464	 275186.
08:36:30 1085 1086	 1492590990	 71655393	 271011.
08:36:30 1086 1087	 1492590990	 342899963	 271245.
08:36:30 1087 1088	 1492590990	 614106529	 271206.
08:36:30 1088 1089	 1492590990	 885237286	 271131.
08:36:31 1089 1090	 1492590991	 160149055	 274912.
08:36:31 1090 1091	 1492590991	 431317146	 271168.
08:36:31 1091 1092	 1492590991	 653587492	 222270.
08:36:31 1092 1093	 1492590991	 925061488	 271474.
08:36:32 1093 1094	 1492590992	 196221409	 271160.
08:36:32 1094 1095	 1492590992	 471415953	 275195.
08:36:32 1095 1096	 1492590992	 743146067	 271730.
08:36:33 1096 1097	 1492590993	 14121059	 270975.
08:36:33 1097 1098	 1492590993	 288889089	 274768.
08:36:33 1098 1099	 1492590993	 506857978	 217969.
08:36:33 1099 1100	 1492590993	 782008732	 275151.
08:36:34 1100 1101	 1492590994	 54054923	 272046.
08:36:34 1101 1102	 1492590994	 326017159	 271962.
08:36:34 1102 1103	 1492590994	 601743998	 275727.
08:36:34 1103 1104	 1492590994	 872748823	 271005.
08:36:35 1104 1105	 1492590995	 148494755	 275746.
08:36:35 1105 1106	 1492590995	 415588367	 267093.
08:36:35 1106 1107	 1492590995	 690574555	 274986.
08:36:35 1107 1108	 1492590995	 961123104	 270549.
08:36:36 1108 1109	 1492590996	 232111953	 270989.
08:36:36 1109 1110	 1492590996	 507781739	 275670.
08:36:36 1110 1111	 1492590996	 726180650	 218398.
08:36:36 1111 1112	 1492590997	 1623888	 275444.
08:36:37 1112 1113	 1492590997	 272918815	 271295.
08:36:37 1113 1114	 1492590997	 548467149	 275548.
08:36:37 1114 1115	 1492590997	 819924040	 271457.
08:36:38 1115 1116	 1492590998	 91204358	 271280.
08:36:38 1116 1117	 1492590998	 362319494	 271115.
08:36:38 1117 1118	 1492590998	 637812287	 275493.
08:36:38 1118 1119	 1492590998	 909055385	 271243.
08:36:39 1119 1120	 1492590999	 179801009	 270746.
08:36:39 1120 1121	 1492590999	 401605834	 221805.
08:36:39 1121 1122	 1492590999	 672469031	 270863.
08:36:39 1122 1123	 1492590999	 943243322	 270774.
08:36:40 1123 1124	 1492591000	 217940396	 274697.
08:36:40 1124 1125	 1492591000	 489234058	 271294.
08:36:40 1125 1126	 1492591000	 711445332	 222211.
08:36:40 1126 1127	 1492591000	 982430420	 270985.
08:36:41 1127 1128	 1492591001	 253313405	 270883.
08:36:41 1128 1129	 1492591001	 528491546	 275178.
08:36:41 1129 1130	 1492591001	 799250795	 270760.
08:36:42 1130 1131	 1492591002	 70777646	 271526.
08:36:42 1131 1132	 1492591002	 346463143	 275686.
08:36:42 1132 1133	 1492591002	 565012703	 218549.
08:36:42 1133 1134	 1492591002	 840461770	 275450.
08:36:43 1134 1135	 1492591003	 111641173	 271179.
