02:35:59    0 Step	 time(s)	 time(ns)	 delta(ms)
02:35:59    0 1	 1492742159	 125082645	 939.
02:35:59    1 2	 1492742159	 396276093	 271194.
02:35:59    2 3	 1492742159	 667435940	 271160.
02:35:59    3 4	 1492742159	 938768497	 271332.
02:36:00    4 5	 1492742160	 213750152	 274982.
02:36:00    5 6	 1492742160	 485296381	 271546.
02:36:00    6 7	 1492742160	 756794758	 271498.
02:36:01    7 8	 1492742161	 31978016	 275184.
02:36:01    8 9	 1492742161	 302935297	 270957.
02:36:01    9 10	 1492742161	 574050475	 271115.
02:36:01   10 11	 1492742161	 796257404	 222207.
02:36:02   11 12	 1492742162	 67483773	 271226.
02:36:02   12 13	 1492742162	 342566162	 275083.
02:36:02   13 14	 1492742162	 613519036	 270953.
02:36:02   14 15	 1492742162	 884536974	 271018.
02:36:03   15 16	 1492742163	 155534918	 270998.
02:36:03   16 17	 1492742163	 430592472	 275057.
02:36:03   17 18	 1492742163	 701821403	 271229.
02:36:03   18 19	 1492742163	 923941832	 222121.
02:36:04   19 20	 1492742164	 195047934	 271106.
02:36:04   20 21	 1492742164	 465989528	 270941.
02:36:04   21 22	 1492742164	 741026245	 275037.
02:36:05   22 23	 1492742165	 12095433	 271069.
02:36:05   23 24	 1492742165	 283204288	 271109.
02:36:05   24 25	 1492742165	 558479897	 275276.
02:36:05   25 26	 1492742165	 829757477	 271277.
02:36:06   26 27	 1492742166	 101050329	 271293.
02:36:06   27 28	 1492742166	 323298130	 222248.
02:36:06   28 29	 1492742166	 594522911	 271225.
02:36:06   29 30	 1492742166	 869617029	 275094.
02:36:07   30 31	 1492742167	 140589855	 270973.
02:36:07   31 32	 1492742167	 411742718	 271152.
02:36:07   32 33	 1492742167	 686807606	 275065.
02:36:07   33 34	 1492742167	 957701037	 270894.
02:36:08   34 35	 1492742168	 179768702	 222067.
02:36:08   35 36	 1492742168	 450781847	 271014.
02:36:08   36 37	 1492742168	 726016462	 275234.
02:36:08   37 38	 1492742168	 997169956	 271154.
02:36:09   38 39	 1492742169	 267969200	 270799.
02:36:09   39 40	 1492742169	 538842607	 270873.
02:36:09   40 41	 1492742169	 809866487	 271024.
02:36:10   41 42	 1492742170	 32089102	 222223.
02:36:10   42 43	 1492742170	 307131990	 275043.
02:36:10   43 44	 1492742170	 578124908	 270993.
02:36:10   44 45	 1492742170	 849095005	 270970.
02:36:11   45 46	 1492742171	 124455221	 275360.
02:36:11   46 47	 1492742171	 395556908	 271102.
02:36:11   47 48	 1492742171	 666800776	 271243.
02:36:11   48 49	 1492742171	 941991640	 275191.
02:36:12   49 50	 1492742172	 164062326	 222071.
02:36:12   50 51	 1492742172	 434877212	 270815.
02:36:12   51 52	 1492742172	 705960175	 271083.
02:36:12   52 53	 1492742172	 977194717	 271234.
02:36:13   53 54	 1492742173	 252418213	 275224.
02:36:13   54 55	 1492742173	 523520079	 271102.
02:36:13   55 56	 1492742173	 795103528	 271583.
02:36:14   56 57	 1492742174	 66676556	 271573.
02:36:14   57 58	 1492742174	 342263029	 275587.
02:36:14   58 59	 1492742174	 613677953	 271415.
02:36:14   59 60	 1492742174	 888601162	 274923.
02:36:15   60 61	 1492742175	 106698935	 218098.
02:36:15   61 62	 1492742175	 381817287	 275118.
02:36:15   62 63	 1492742175	 652873111	 271056.
02:36:15   63 64	 1492742175	 923853259	 270980.
02:36:16   64 65	 1492742176	 198911916	 275059.
02:36:16   65 66	 1492742176	 466073535	 267161.
02:36:16   66 67	 1492742176	 741388392	 275315.
02:36:17   67 68	 1492742177	 12897625	 271509.
02:36:17   68 69	 1492742177	 284419669	 271522.
02:36:17   69 70	 1492742177	 559535724	 275116.
02:36:17   70 71	 1492742177	 830995822	 271461.
02:36:18   71 72	 1492742178	 102107598	 271111.
02:36:18   72 73	 1492742178	 324143665	 222036.
02:36:18   73 74	 1492742178	 594940845	 270798.
02:36:18   74 75	 1492742178	 869974912	 275034.
02:36:19   75 76	 1492742179	 140790434	 270815.
02:36:19   76 77	 1492742179	 411316111	 270526.
02:36:19   77 78	 1492742179	 633290740	 221974.
02:36:19   78 79	 1492742179	 908515293	 275225.
02:36:20   79 80	 1492742180	 179640551	 271125.
02:36:20   80 81	 1492742180	 450751348	 271111.
02:36:20   81 82	 1492742180	 725923981	 275173.
02:36:20   82 83	 1492742180	 997240969	 271317.
02:36:21   83 84	 1492742181	 268253758	 271012.
02:36:21   84 85	 1492742181	 539187054	 270934.
02:36:21   85 86	 1492742181	 761056517	 221869.
02:36:22   86 87	 1492742182	 36024922	 274969.
02:36:22   87 88	 1492742182	 307259803	 271234.
02:36:22   88 89	 1492742182	 578197626	 270939.
02:36:22   89 90	 1492742182	 849183221	 270985.
02:36:23   90 91	 1492742183	 124242744	 275059.
02:36:23   91 92	 1492742183	 395453381	 271211.
02:36:23   92 93	 1492742183	 617581103	 222128.
02:36:23   93 94	 1492742183	 888570709	 270989.
02:36:24   94 95	 1492742184	 159621835	 271052.
02:36:24   95 96	 1492742184	 430512831	 270891.
02:36:24   96 97	 1492742184	 705691742	 275178.
02:36:24   97 98	 1492742184	 976949001	 271258.
02:36:25   98 99	 1492742185	 248661983	 271713.
02:36:25   99 100	 1492742185	 524372349	 275710.
02:36:25  100 101	 1492742185	 795803698	 271431.
02:36:26  101 102	 1492742186	 66919545	 271116.
02:36:26  102 103	 1492742186	 337722904	 270804.
02:36:26  103 104	 1492742186	 559876731	 222153.
02:36:26  104 105	 1492742186	 834913189	 275037.
02:36:27  105 106	 1492742187	 106018366	 271105.
02:36:27  106 107	 1492742187	 376961290	 270943.
02:36:27  107 108	 1492742187	 647773413	 270812.
02:36:27  108 109	 1492742187	 918585699	 270812.
02:36:28  109 110	 1492742188	 193974670	 275389.
02:36:28  110 111	 1492742188	 412029270	 218055.
02:36:28  111 112	 1492742188	 687341615	 275312.
02:36:28  112 113	 1492742188	 958694919	 271354.
02:36:29  113 114	 1492742189	 234316278	 275621.
02:36:29  114 115	 1492742189	 505336808	 271021.
02:36:29  115 116	 1492742189	 776727985	 271391.
02:36:30  116 117	 1492742190	 47698650	 270970.
02:36:30  117 118	 1492742190	 322609815	 274911.
02:36:30  118 119	 1492742190	 594124756	 271515.
02:36:30  119 120	 1492742190	 816411575	 222287.
02:36:31  120 121	 1492742191	 87454491	 271043.
02:36:31  121 122	 1492742191	 358717210	 271263.
02:36:31  122 123	 1492742191	 633454175	 274737.
02:36:31  123 124	 1492742191	 904481094	 271027.
02:36:32  124 125	 1492742192	 175459496	 270978.
02:36:32  125 126	 1492742192	 446402216	 270943.
02:36:32  126 127	 1492742192	 721427538	 275025.
02:36:32  127 128	 1492742192	 943638762	 222211.
02:36:33  128 129	 1492742193	 214962384	 271324.
02:36:33  129 130	 1492742193	 486106519	 271144.
02:36:33  130 131	 1492742193	 761235458	 275129.
02:36:34  131 132	 1492742194	 32311067	 271076.
02:36:34  132 133	 1492742194	 307458429	 275147.
02:36:34  133 134	 1492742194	 578423062	 270965.
02:36:34  134 135	 1492742194	 800639636	 222216.
02:36:35  135 136	 1492742195	 71514965	 270876.
02:36:35  136 137	 1492742195	 342503668	 270988.
02:36:35  137 138	 1492742195	 617444264	 274941.
02:36:35  138 139	 1492742195	 888923359	 271479.
02:36:36  139 140	 1492742196	 159955957	 271033.
02:36:36  140 141	 1492742196	 435070186	 275114.
02:36:36  141 142	 1492742196	 653360229	 218290.
02:36:36  142 143	 1492742196	 928534363	 275174.
02:36:37  143 144	 1492742197	 199545846	 271012.
02:36:37  144 145	 1492742197	 470551367	 271005.
02:36:37  145 146	 1492742197	 741727191	 271176.
02:36:38  146 147	 1492742198	 16568932	 274842.
02:36:38  147 148	 1492742198	 287232474	 270663.
02:36:38  148 149	 1492742198	 505440873	 218209.
02:36:38  149 150	 1492742198	 780355004	 274914.
02:36:39  150 151	 1492742199	 51068096	 270713.
02:36:39  151 152	 1492742199	 326400566	 275333.
02:36:39  152 153	 1492742199	 597422725	 271021.
02:36:39  153 154	 1492742199	 868717148	 271295.
02:36:40  154 155	 1492742200	 90763187	 222046.
02:36:40  155 156	 1492742200	 361558508	 270795.
02:36:40  156 157	 1492742200	 632691052	 271133.
02:36:40  157 158	 1492742200	 907668241	 274977.
02:36:41  158 159	 1492742201	 178468381	 270800.
02:36:41  159 160	 1492742201	 400142210	 221674.
02:36:41  160 161	 1492742201	 671173561	 271031.
02:36:41  161 162	 1492742201	 942006028	 270833.
02:36:42  162 163	 1492742202	 212864555	 270858.
02:36:42  163 164	 1492742202	 487761821	 274898.
02:36:42  164 165	 1492742202	 758768891	 271007.
02:36:42  165 166	 1492742202	 980769952	 222001.
02:36:43  166 167	 1492742203	 251865301	 271095.
02:36:43  167 168	 1492742203	 527286097	 275421.
02:36:43  168 169	 1492742203	 798421170	 271135.
02:36:44  169 170	 1492742204	 69801920	 271381.
02:36:44  170 171	 1492742204	 345293630	 275491.
02:36:44  171 172	 1492742204	 616172650	 270879.
02:36:44  172 173	 1492742204	 838161598	 221989.
02:36:45  173 174	 1492742205	 109197609	 271036.
02:36:45  174 175	 1492742205	 380159395	 270962.
02:36:45  175 176	 1492742205	 650982740	 270823.
02:36:45  176 177	 1492742205	 926143767	 275161.
02:36:46  177 178	 1492742206	 196973420	 270830.
02:36:46  178 179	 1492742206	 418858004	 221885.
02:36:46  179 180	 1492742206	 689520447	 270662.
02:36:46  180 181	 1492742206	 964388664	 274868.
02:36:47  181 182	 1492742207	 235204101	 270816.
02:36:47  182 183	 1492742207	 506317807	 271113.
02:36:47  183 184	 1492742207	 728278620	 221961.
02:36:47  184 185	 1492742207	 999157488	 270879.
02:36:48  185 186	 1492742208	 269699216	 270542.
02:36:48  186 187	 1492742208	 544631382	 274932.
02:36:48  187 188	 1492742208	 815490508	 270859.
02:36:49  188 189	 1492742209	 37485114	 221995.
02:36:49  189 190	 1492742209	 308821261	 271336.
02:36:49  190 191	 1492742209	 580278472	 271457.
02:36:49  191 192	 1492742209	 855255731	 274977.
02:36:50  192 193	 1492742210	 126135593	 270880.
02:36:50  193 194	 1492742210	 396780111	 270645.
02:36:50  194 195	 1492742210	 618699030	 221919.
02:36:50  195 196	 1492742210	 889539933	 270841.
02:36:51  196 197	 1492742211	 164421498	 274881.
02:36:51  197 198	 1492742211	 435647402	 271226.
02:36:51  198 199	 1492742211	 706731535	 271084.
02:36:51  199 200	 1492742211	 978137933	 271407.
02:36:52  200 201	 1492742212	 249443928	 271306.
02:36:52  201 202	 1492742212	 471274710	 221830.
02:36:52  202 203	 1492742212	 746101275	 274827.
02:36:53  203 204	 1492742213	 16778124	 270677.
02:36:53  204 205	 1492742213	 287312429	 270534.
02:36:53  205 206	 1492742213	 509444720	 222132.
02:36:53  206 207	 1492742213	 780238658	 270794.
02:36:54  207 208	 1492742214	 55291675	 275053.
02:36:54  208 209	 1492742214	 326274151	 270983.
02:36:54  209 210	 1492742214	 601670843	 275397.
02:36:54  210 211	 1492742214	 872481515	 270810.
02:36:55  211 212	 1492742215	 94800791	 222319.
02:36:55  212 213	 1492742215	 366129461	 271329.
02:36:55  213 214	 1492742215	 640932251	 274803.
02:36:55  214 215	 1492742215	 911851504	 270919.
02:36:56  215 216	 1492742216	 182542693	 270691.
02:36:56  216 217	 1492742216	 457857671	 275315.
02:36:56  217 218	 1492742216	 679663762	 221807.
02:36:56  218 219	 1492742216	 950567423	 270903.
02:36:57  219 220	 1492742217	 221742242	 271175.
02:36:57  220 221	 1492742217	 492760444	 271018.
02:36:57  221 222	 1492742217	 767645175	 274885.
02:36:57  222 223	 1492742217	 990427201	 222782.
02:36:58  223 224	 1492742218	 261363423	 270936.
02:36:58  224 225	 1492742218	 531794176	 270431.
02:36:58  225 226	 1492742218	 806815641	 275021.
02:36:59  226 227	 1492742219	 77626026	 270811.
02:36:59  227 228	 1492742219	 299458614	 221832.
02:36:59  228 229	 1492742219	 570469437	 271011.
02:36:59  229 230	 1492742219	 841528940	 271060.
02:37:00  230 231	 1492742220	 112360107	 270831.
02:37:00  231 232	 1492742220	 387065059	 274705.
02:37:00  232 233	 1492742220	 608989665	 221924.
02:37:00  233 234	 1492742220	 879953948	 270965.
02:37:01  234 235	 1492742221	 151228235	 271274.
02:37:01  235 236	 1492742221	 422088109	 270860.
02:37:01  236 237	 1492742221	 697101682	 275013.
02:37:01  237 238	 1492742221	 963919174	 266818.
02:37:02  238 239	 1492742222	 238789857	 274871.
02:37:02  239 240	 1492742222	 460731645	 221941.
02:37:02  240 241	 1492742222	 731944752	 271213.
02:37:02  241 242	 1492742223	 3173783	 271229.
02:37:03  242 243	 1492742223	 274068057	 270895.
02:37:03  243 244	 1492742223	 549148786	 275080.
02:37:03  244 245	 1492742223	 820214636	 271066.
02:37:04  245 246	 1492742224	 42216430	 222002.
02:37:04  246 247	 1492742224	 313078691	 270862.
02:37:04  247 248	 1492742224	 583912756	 270834.
02:37:04  248 249	 1492742224	 858993242	 275081.
02:37:05  249 250	 1492742225	 130092347	 271099.
02:37:05  250 251	 1492742225	 351943767	 221851.
02:37:05  251 252	 1492742225	 623007555	 271064.
02:37:05  252 253	 1492742225	 893875252	 270868.
02:37:06  253 254	 1492742226	 168973964	 275099.
02:37:06  254 255	 1492742226	 440008885	 271035.
02:37:06  255 256	 1492742226	 711266919	 271258.
02:37:06  256 257	 1492742226	 986481240	 275214.
02:37:07  257 258	 1492742227	 204395530	 217914.
02:37:07  258 259	 1492742227	 479174851	 274780.
02:37:07  259 260	 1492742227	 750010937	 270836.
02:37:08  260 261	 1492742228	 20672887	 270662.
02:37:08  261 262	 1492742228	 291654275	 270981.
02:37:08  262 263	 1492742228	 513702995	 222049.
02:37:08  263 264	 1492742228	 789099169	 275396.
02:37:09  264 265	 1492742229	 60739447	 271640.
02:37:09  265 266	 1492742229	 332495188	 271756.
02:37:09  266 267	 1492742229	 603646244	 271151.
02:37:09  267 268	 1492742229	 878440276	 274794.
02:37:10  268 269	 1492742230	 149368113	 270928.
02:37:10  269 270	 1492742230	 420489095	 271121.
02:37:10  270 271	 1492742230	 695710006	 275221.
02:37:10  271 272	 1492742230	 966789875	 271080.
02:37:11  272 273	 1492742231	 188974876	 222185.
02:37:11  273 274	 1492742231	 460064349	 271089.
02:37:11  274 275	 1492742231	 735393747	 275329.
02:37:12  275 276	 1492742232	 6320883	 270928.
02:37:12  276 277	 1492742232	 277547348	 271226.
02:37:12  277 278	 1492742232	 548722847	 271176.
02:37:12  278 279	 1492742232	 823835519	 275112.
02:37:13  279 280	 1492742233	 45909123	 222074.
02:37:13  280 281	 1492742233	 316796319	 270887.
02:37:13  281 282	 1492742233	 587794678	 270998.
02:37:13  282 283	 1492742233	 862967646	 275173.
02:37:14  283 284	 1492742234	 134691676	 271724.
02:37:14  284 285	 1492742234	 406253024	 271562.
02:37:14  285 286	 1492742234	 678364075	 272111.
02:37:14  286 287	 1492742234	 954515406	 276151.
02:37:15  287 288	 1492742235	 225672116	 271157.
02:37:15  288 289	 1492742235	 496494751	 270822.
02:37:15  289 290	 1492742235	 771846871	 275353.
02:37:15  290 291	 1492742235	 993555374	 221708.
02:37:16  291 292	 1492742236	 264371473	 270816.
02:37:16  292 293	 1492742236	 539158297	 274787.
02:37:16  293 294	 1492742236	 809790307	 270632.
02:37:17  294 295	 1492742237	 80851452	 271061.
02:37:17  295 296	 1492742237	 302955664	 222104.
02:37:17  296 297	 1492742237	 574047067	 271092.
02:37:17  297 298	 1492742237	 845320665	 271273.
02:37:18  298 299	 1492742238	 120537456	 275217.
02:37:18  299 300	 1492742238	 391629688	 271092.
02:37:18  300 301	 1492742238	 662622387	 270993.
02:37:18  301 302	 1492742238	 937859787	 275237.
02:37:19  302 303	 1492742239	 209045382	 271186.
02:37:19  303 304	 1492742239	 480150223	 271105.
02:37:19  304 305	 1492742239	 751769092	 271619.
02:37:19  305 306	 1492742239	 973978592	 222209.
02:37:20  306 307	 1492742240	 249073239	 275095.
02:37:20  307 308	 1492742240	 520002733	 270929.
02:37:20  308 309	 1492742240	 791073594	 271071.
02:37:21  309 310	 1492742241	 66278577	 275205.
02:37:21  310 311	 1492742241	 337472369	 271194.
02:37:21  311 312	 1492742241	 608671121	 271199.
02:37:21  312 313	 1492742241	 879867063	 271196.
02:37:22  313 314	 1492742242	 102236335	 222369.
02:37:22  314 315	 1492742242	 377768168	 275532.
02:37:22  315 316	 1492742242	 648979114	 271211.
02:37:22  316 317	 1492742242	 919994263	 271015.
02:37:23  317 318	 1492742243	 195038183	 275044.
02:37:23  318 319	 1492742243	 466078213	 271040.
02:37:23  319 320	 1492742243	 737003128	 270925.
02:37:23  320 321	 1492742243	 959014524	 222011.
02:37:24  321 322	 1492742244	 234011586	 274997.
02:37:24  322 323	 1492742244	 505109554	 271098.
02:37:24  323 324	 1492742244	 775905212	 270796.
02:37:25  324 325	 1492742245	 46970791	 271065.
02:37:25  325 326	 1492742245	 322279449	 275309.
02:37:25  326 327	 1492742245	 593805639	 271526.
02:37:25  327 328	 1492742245	 865130016	 271325.
02:37:26  328 329	 1492742246	 86999974	 221870.
02:37:26  329 330	 1492742246	 358282531	 271282.
02:37:26  330 331	 1492742246	 633517079	 275235.
02:37:26  331 332	 1492742246	 904387239	 270870.
02:37:27  332 333	 1492742247	 175439783	 271052.
02:37:27  333 334	 1492742247	 450698671	 275259.
02:37:27  334 335	 1492742247	 721702207	 271004.
02:37:27  335 336	 1492742247	 992743335	 271041.
02:37:28  336 337	 1492742248	 215266959	 222524.
02:37:28  337 338	 1492742248	 486172643	 270905.
02:37:28  338 339	 1492742248	 761336276	 275164.
02:37:29  339 340	 1492742249	 32302353	 270966.
02:37:29  340 341	 1492742249	 303230479	 270928.
02:37:29  341 342	 1492742249	 574517238	 271287.
02:37:29  342 343	 1492742249	 850114690	 275597.
02:37:30  343 344	 1492742250	 121541299	 271427.
02:37:30  344 345	 1492742250	 343862818	 222322.
02:37:30  345 346	 1492742250	 619442244	 275579.
02:37:30  346 347	 1492742250	 890657445	 271215.
02:37:31  347 348	 1492742251	 161612981	 270956.
02:37:31  348 349	 1492742251	 436672945	 275060.
02:37:31  349 350	 1492742251	 707611357	 270938.
02:37:31  350 351	 1492742251	 978710119	 271099.
02:37:32  351 352	 1492742252	 253703444	 274993.
02:37:32  352 353	 1492742252	 471618861	 217916.
02:37:32  353 354	 1492742252	 746733474	 275114.
02:37:33  354 355	 1492742253	 17324121	 270591.
02:37:33  355 356	 1492742253	 288183841	 270860.
02:37:33  356 357	 1492742253	 563195503	 275011.
02:37:33  357 358	 1492742253	 781418548	 218223.
02:37:34  358 359	 1492742254	 52299695	 270881.
02:37:34  359 360	 1492742254	 327194790	 274895.
02:37:34  360 361	 1492742254	 598260972	 271067.
02:37:34  361 362	 1492742254	 869199275	 270938.
02:37:35  362 363	 1492742255	 144077207	 274878.
02:37:35  363 364	 1492742255	 415256414	 271179.
02:37:35  364 365	 1492742255	 637198539	 221943.
02:37:35  365 366	 1492742255	 908933601	 271734.
02:37:36  366 367	 1492742256	 183902135	 274969.
02:37:36  367 368	 1492742256	 455003019	 271101.
02:37:36  368 369	 1492742256	 726062899	 271060.
02:37:36  369 370	 1492742256	 996912392	 270849.
02:37:37  370 371	 1492742257	 218930968	 222019.
02:37:37  371 372	 1492742257	 489826299	 270895.
02:37:37  372 373	 1492742257	 764804354	 274978.
02:37:38  373 374	 1492742258	 36074941	 271271.
02:37:38  374 375	 1492742258	 310995335	 274920.
02:37:38  375 376	 1492742258	 581664760	 270669.
02:37:38  376 377	 1492742258	 803730428	 222066.
02:37:39  377 378	 1492742259	 74506938	 270777.
02:37:39  378 379	 1492742259	 345249849	 270743.
02:37:39  379 380	 1492742259	 620748958	 275499.
02:37:39  380 381	 1492742259	 892108890	 271360.
02:37:40  381 382	 1492742260	 162983695	 270874.
02:37:40  382 383	 1492742260	 384981464	 221998.
02:37:40  383 384	 1492742260	 656270387	 271289.
02:37:40  384 385	 1492742260	 927084762	 270814.
02:37:41  385 386	 1492742261	 201982118	 274898.
02:37:41  386 387	 1492742261	 473084351	 271102.
02:37:41  387 388	 1492742261	 744475119	 271391.
02:37:42  388 389	 1492742262	 16092725	 271617.
02:37:42  389 390	 1492742262	 238447160	 222355.
02:37:42  390 391	 1492742262	 514118146	 275671.
02:37:42  391 392	 1492742262	 785116146	 270998.
02:37:43  392 393	 1492742263	 55796443	 270680.
02:37:43  393 394	 1492742263	 326366412	 270570.
02:37:43  394 395	 1492742263	 601220860	 274855.
02:37:43  395 396	 1492742263	 823015702	 221794.
02:37:44  396 397	 1492742264	 93629611	 270614.
02:37:44  397 398	 1492742264	 364168669	 270539.
02:37:44  398 399	 1492742264	 635099454	 270931.
02:37:44  399 400	 1492742264	 857225918	 222127.
02:37:45  400 401	 1492742265	 132272522	 275046.
02:37:45  401 402	 1492742265	 403766594	 271494.
02:37:45  402 403	 1492742265	 678858696	 275092.
02:37:45  403 404	 1492742265	 949546423	 270688.
02:37:46  404 405	 1492742266	 220374139	 270828.
02:37:46  405 406	 1492742266	 442411567	 222037.
02:37:46  406 407	 1492742266	 713215006	 270804.
02:37:46  407 408	 1492742266	 988061044	 274846.
02:37:47  408 409	 1492742267	 258814048	 270753.
02:37:47  409 410	 1492742267	 530037132	 271223.
02:37:47  410 411	 1492742267	 752468612	 222431.
02:37:48  411 412	 1492742268	 27457157	 274989.
02:37:48  412 413	 1492742268	 298183994	 270727.
02:37:48  413 414	 1492742268	 568784945	 270601.
02:37:48  414 415	 1492742268	 843588416	 274803.
02:37:49  415 416	 1492742269	 65722690	 222134.
02:37:49  416 417	 1492742269	 336329683	 270607.
02:37:49  417 418	 1492742269	 607396109	 271067.
02:37:49  418 419	 1492742269	 878273075	 270877.
02:37:50  419 420	 1492742270	 153358261	 275085.
02:37:50  420 421	 1492742270	 371304893	 217947.
02:37:50  421 422	 1492742270	 646607672	 275302.
02:37:50  422 423	 1492742270	 917774887	 271168.
02:37:51  423 424	 1492742271	 189046150	 271271.
02:37:51  424 425	 1492742271	 464300676	 275254.
02:37:51  425 426	 1492742271	 735047434	 270747.
02:37:52  426 427	 1492742272	 5978269	 270931.
02:37:52  427 428	 1492742272	 227851446	 221873.
02:37:52  428 429	 1492742272	 502609686	 274758.
02:37:52  429 430	 1492742272	 773274433	 270665.
02:37:53  430 431	 1492742273	 44191718	 270917.
02:37:53  431 432	 1492742273	 315594887	 271404.
02:37:53  432 433	 1492742273	 537751675	 222156.
02:37:53  433 434	 1492742273	 812592114	 274841.
02:37:54  434 435	 1492742274	 83701691	 271109.
02:37:54  435 436	 1492742274	 354591400	 270890.
02:37:54  436 437	 1492742274	 629434701	 274843.
02:37:54  437 438	 1492742274	 847317933	 217884.
02:37:55  438 439	 1492742275	 118198229	 270880.
02:37:55  439 440	 1492742275	 393275419	 275077.
02:37:55  440 441	 1492742275	 664301542	 271026.
02:37:55  441 442	 1492742275	 934996590	 270695.
02:37:56  442 443	 1492742276	 209669888	 274674.
02:37:56  443 444	 1492742276	 431682793	 222012.
02:37:56  444 445	 1492742276	 702565082	 270883.
02:37:56  445 446	 1492742276	 973862522	 271297.
02:37:57  446 447	 1492742277	 244927601	 271065.
02:37:57  447 448	 1492742277	 519917890	 274991.
02:37:57  448 449	 1492742277	 790744510	 270826.
02:37:58  449 450	 1492742278	 12606386	 221862.
02:37:58  450 451	 1492742278	 283465443	 270859.
02:37:58  451 452	 1492742278	 558064543	 274599.
02:37:58  452 453	 1492742278	 829092216	 271028.
02:37:59  453 454	 1492742279	 100537157	 271445.
02:37:59  454 455	 1492742279	 375897169	 275360.
02:37:59  455 456	 1492742279	 598428620	 222531.
02:37:59  456 457	 1492742279	 869513606	 271085.
02:38:00  457 458	 1492742280	 140603078	 271090.
02:38:00  458 459	 1492742280	 415541221	 274938.
02:38:00  459 460	 1492742280	 686368842	 270828.
02:38:00  460 461	 1492742280	 908309856	 221941.
02:38:01  461 462	 1492742281	 179082463	 270772.
02:38:01  462 463	 1492742281	 449883854	 270802.
02:38:01  463 464	 1492742281	 725007300	 275123.
02:38:01  464 465	 1492742281	 996035626	 271028.
02:38:02  465 466	 1492742282	 267134396	 271099.
02:38:02  466 467	 1492742282	 489353894	 222220.
02:38:02  467 468	 1492742282	 760897340	 271543.
02:38:03  468 469	 1492742283	 36141552	 275244.
02:38:03  469 470	 1492742283	 306848443	 270707.
02:38:03  470 471	 1492742283	 577931790	 271083.
02:38:03  471 472	 1492742283	 852972290	 275041.
02:38:04  472 473	 1492742284	 123711768	 270739.
02:38:04  473 474	 1492742284	 345614447	 221903.
02:38:04  474 475	 1492742284	 616859825	 271246.
02:38:04  475 476	 1492742284	 887944366	 271084.
02:38:05  476 477	 1492742285	 163257922	 275314.
02:38:05  477 478	 1492742285	 434595920	 271338.
02:38:05  478 479	 1492742285	 706005541	 271409.
02:38:05  479 480	 1492742285	 981349438	 275344.
02:38:06  480 481	 1492742286	 252482297	 271133.
02:38:06  481 482	 1492742286	 523749345	 271267.
02:38:06  482 483	 1492742286	 745819878	 222071.
02:38:07  483 484	 1492742287	 16931519	 271111.
02:38:07  484 485	 1492742287	 292169939	 275239.
02:38:07  485 486	 1492742287	 563329423	 271159.
02:38:07  486 487	 1492742287	 834460241	 271131.
02:38:08  487 488	 1492742288	 110093338	 275633.
02:38:08  488 489	 1492742288	 381459438	 271366.
02:38:08  489 490	 1492742288	 653059106	 271600.
02:38:08  490 491	 1492742288	 924589552	 271530.
02:38:09  491 492	 1492742289	 199753928	 275165.
02:38:09  492 493	 1492742289	 470722295	 270968.
02:38:09  493 494	 1492742289	 693032067	 222310.
02:38:09  494 495	 1492742289	 964283062	 271251.
02:38:10  495 496	 1492742290	 235345637	 271062.
02:38:10  496 497	 1492742290	 510513988	 275169.
02:38:10  497 498	 1492742290	 781711914	 271198.
02:38:11  498 499	 1492742291	 52815487	 271103.
02:38:11  499 500	 1492742291	 324238282	 271423.
02:38:11  500 501	 1492742291	 599557717	 275319.
02:38:11  501 502	 1492742291	 870604239	 271047.
02:38:12  502 503	 1492742292	 92711626	 222107.
02:38:12  503 504	 1492742292	 363880264	 271169.
02:38:12  504 505	 1492742292	 639046752	 275167.
02:38:12  505 506	 1492742292	 910253990	 271207.
02:38:13  506 507	 1492742293	 181328492	 271074.
02:38:13  507 508	 1492742293	 452468375	 271140.
02:38:13  508 509	 1492742293	 727844939	 275377.
02:38:13  509 510	 1492742293	 998904334	 271059.
02:38:14  510 511	 1492742294	 270380962	 271477.
02:38:14  511 512	 1492742294	 493017697	 222636.
02:38:14  512 513	 1492742294	 768286114	 275269.
02:38:15  513 514	 1492742295	 38935658	 270649.
02:38:15  514 515	 1492742295	 309583031	 270648.
02:38:15  515 516	 1492742295	 580409331	 270826.
02:38:15  516 517	 1492742295	 855344352	 274935.
02:38:16  517 518	 1492742296	 73143523	 217799.
02:38:16  518 519	 1492742296	 347903032	 274760.
02:38:16  519 520	 1492742296	 619368513	 271465.
02:38:16  520 521	 1492742296	 890666546	 271298.
02:38:17  521 522	 1492742297	 165527269	 274861.
02:38:17  522 523	 1492742297	 436355189	 270828.
02:38:17  523 524	 1492742297	 654337656	 217982.
02:38:17  524 525	 1492742297	 929423960	 275087.
02:38:18  525 526	 1492742298	 200034866	 270611.
02:38:18  526 527	 1492742298	 474740437	 274705.
02:38:18  527 528	 1492742298	 745638565	 270898.
02:38:18  528 529	 1492742298	 963556348	 217918.
02:38:19  529 530	 1492742299	 238708670	 275152.
02:38:19  530 531	 1492742299	 509986133	 271278.
02:38:19  531 532	 1492742299	 784986255	 275000.
02:38:20  532 533	 1492742300	 56041688	 271056.
02:38:20  533 534	 1492742300	 327066863	 271025.
02:38:20  534 535	 1492742300	 549185619	 222119.
02:38:20  535 536	 1492742300	 820352784	 271166.
02:38:21  536 537	 1492742301	 91019404	 270667.
02:38:21  537 538	 1492742301	 365987112	 274968.
02:38:21  538 539	 1492742301	 637046222	 271059.
02:38:21  539 540	 1492742301	 908296640	 271250.
02:38:22  540 541	 1492742302	 179350603	 271054.
02:38:22  541 542	 1492742302	 401562864	 222213.
02:38:22  542 543	 1492742302	 676525894	 274963.
02:38:22  543 544	 1492742302	 947514351	 270988.
02:38:23  544 545	 1492742303	 218247408	 270733.
02:38:23  545 546	 1492742303	 489188654	 270941.
02:38:23  546 547	 1492742303	 764159135	 274971.
02:38:24  547 548	 1492742304	 35465484	 271306.
02:38:24  548 549	 1492742304	 257724305	 222259.
02:38:24  549 550	 1492742304	 528898526	 271174.
02:38:24  550 551	 1492742304	 800086336	 271188.
02:38:25  551 552	 1492742305	 75139065	 275053.
02:38:25  552 553	 1492742305	 346060763	 270921.
02:38:25  553 554	 1492742305	 617230272	 271170.
02:38:25  554 555	 1492742305	 892224602	 274994.
02:38:26  555 556	 1492742306	 110179480	 217955.
02:38:26  556 557	 1492742306	 385065337	 274886.
02:38:26  557 558	 1492742306	 655924348	 270859.
02:38:26  558 559	 1492742306	 927138777	 271214.
02:38:27  559 560	 1492742307	 202137074	 274999.
02:38:27  560 561	 1492742307	 423959475	 221822.
02:38:27  561 562	 1492742307	 694665686	 270706.
02:38:27  562 563	 1492742307	 965782025	 271117.
02:38:28  563 564	 1492742308	 236892320	 271110.
02:38:28  564 565	 1492742308	 512422796	 275530.
02:38:28  565 566	 1492742308	 783294612	 270872.
02:38:29  566 567	 1492742309	 53971302	 270677.
02:38:29  567 568	 1492742309	 276169130	 222198.
02:38:29  568 569	 1492742309	 551058968	 274890.
02:38:29  569 570	 1492742309	 821641370	 270582.
02:38:30  570 571	 1492742310	 92479840	 270838.
02:38:30  571 572	 1492742310	 363354403	 270875.
02:38:30  572 573	 1492742310	 585487585	 222133.
02:38:30  573 574	 1492742310	 860683653	 275196.
02:38:31  574 575	 1492742311	 131624089	 270941.
02:38:31  575 576	 1492742311	 402202676	 270578.
02:38:31  576 577	 1492742311	 677119816	 274917.
02:38:31  577 578	 1492742311	 947761582	 270642.
02:38:32  578 579	 1492742312	 169831744	 222071.
02:38:32  579 580	 1492742312	 440294435	 270462.
02:38:32  580 581	 1492742312	 711160903	 270867.
02:38:32  581 582	 1492742312	 985944980	 274784.
02:38:33  582 583	 1492742313	 207897373	 221952.
02:38:33  583 584	 1492742313	 479134781	 271237.
02:38:33  584 585	 1492742313	 750336410	 271202.
02:38:34  585 586	 1492742314	 21389646	 271053.
02:38:34  586 587	 1492742314	 292097064	 270708.
02:38:34  587 588	 1492742314	 567118025	 275021.
02:38:34  588 589	 1492742314	 838147180	 271029.
02:38:35  589 590	 1492742315	 60230932	 222084.
02:38:35  590 591	 1492742315	 331188356	 270957.
02:38:35  591 592	 1492742315	 606171524	 274983.
02:38:35  592 593	 1492742315	 876833552	 270662.
02:38:36  593 594	 1492742316	 148972039	 272139.
02:38:36  594 595	 1492742316	 420093611	 271121.
02:38:36  595 596	 1492742316	 690838945	 270746.
02:38:36  596 597	 1492742316	 965667197	 274828.
02:38:37  597 598	 1492742317	 187556958	 221890.
02:38:37  598 599	 1492742317	 458226876	 270670.
02:38:37  599 600	 1492742317	 729226420	 270999.
02:38:37  600 601	 1492742317	 999920343	 270694.
02:38:38  601 602	 1492742318	 274841967	 274922.
02:38:38  602 603	 1492742318	 492945498	 218103.
02:38:38  603 604	 1492742318	 768090692	 275145.
02:38:39  604 605	 1492742319	 38968078	 270878.
02:38:39  605 606	 1492742319	 309875429	 270907.
02:38:39  606 607	 1492742319	 580889675	 271014.
02:38:39  607 608	 1492742319	 856381060	 275492.
02:38:40  608 609	 1492742320	 78414469	 222033.
02:38:40  609 610	 1492742320	 349204630	 270790.
02:38:40  610 611	 1492742320	 620391912	 271188.
02:38:40  611 612	 1492742320	 891824726	 271432.
02:38:41  612 613	 1492742321	 166879284	 275055.
02:38:41  613 614	 1492742321	 437689293	 270810.
02:38:41  614 615	 1492742321	 708763664	 271074.
02:38:41  615 616	 1492742321	 984529605	 275766.
02:38:42  616 617	 1492742322	 206837579	 222308.
02:38:42  617 618	 1492742322	 477773617	 270936.
02:38:42  618 619	 1492742322	 748545718	 270772.
02:38:43  619 620	 1492742323	 19124035	 270579.
02:38:43  620 621	 1492742323	 293980535	 274856.
02:38:43  621 622	 1492742323	 564934534	 270954.
02:38:43  622 623	 1492742323	 787008168	 222074.
02:38:44  623 624	 1492742324	 58040586	 271032.
02:38:44  624 625	 1492742324	 328945938	 270906.
02:38:44  625 626	 1492742324	 603833920	 274888.
02:38:44  626 627	 1492742324	 875283485	 271449.
02:38:45  627 628	 1492742325	 146361292	 271078.
02:38:45  628 629	 1492742325	 421745654	 275384.
02:38:45  629 630	 1492742325	 639829571	 218084.
02:38:45  630 631	 1492742325	 910834998	 271006.
02:38:46  631 632	 1492742326	 186018079	 275183.
02:38:46  632 633	 1492742326	 457143040	 271125.
02:38:46  633 634	 1492742326	 732181483	 275038.
02:38:46  634 635	 1492742327	 3388944	 271208.
02:38:47  635 636	 1492742327	 274645625	 271256.
02:38:47  636 637	 1492742327	 545664115	 271019.
02:38:47  637 638	 1492742327	 767986330	 222322.
02:38:48  638 639	 1492742328	 39111006	 271125.
02:38:48  639 640	 1492742328	 314186829	 275076.
02:38:48  640 641	 1492742328	 585276664	 271089.
02:38:48  641 642	 1492742328	 856298251	 271022.
02:38:49  642 643	 1492742329	 127395573	 271097.
02:38:49  643 644	 1492742329	 402393776	 274998.
02:38:49  644 645	 1492742329	 624558916	 222166.
02:38:49  645 646	 1492742329	 895680827	 271122.
02:38:50  646 647	 1492742330	 166779395	 271098.
02:38:50  647 648	 1492742330	 441653727	 274874.
02:38:50  648 649	 1492742330	 712585136	 270932.
02:38:50  649 650	 1492742330	 983607720	 271022.
02:38:51  650 651	 1492742331	 254639586	 271032.
02:38:51  651 652	 1492742331	 476532639	 221893.
02:38:51  652 653	 1492742331	 751433921	 274902.
02:38:52  653 654	 1492742332	 22185773	 270751.
02:38:52  654 655	 1492742332	 292790543	 270605.
02:38:52  655 656	 1492742332	 567612812	 274823.
02:38:52  656 657	 1492742332	 790133304	 222520.
02:38:53  657 658	 1492742333	 61427739	 271294.
02:38:53  658 659	 1492742333	 332651635	 271224.
02:38:53  659 660	 1492742333	 607634017	 274983.
02:38:53  660 661	 1492742333	 879156202	 271522.
02:38:54  661 662	 1492742334	 150370215	 271214.
02:38:54  662 663	 1492742334	 425352307	 274982.
02:38:54  663 664	 1492742334	 696290006	 270938.
02:38:54  664 665	 1492742334	 967904133	 271614.
02:38:55  665 666	 1492742335	 190392095	 222488.
02:38:55  666 667	 1492742335	 461826939	 271435.
02:38:55  667 668	 1492742335	 737602661	 275775.
02:38:56  668 669	 1492742336	 8972191	 271370.
02:38:56  669 670	 1492742336	 279937274	 270965.
02:38:56  670 671	 1492742336	 554832686	 274895.
02:38:56  671 672	 1492742336	 826003897	 271172.
02:38:57  672 673	 1492742337	 47942651	 221938.
02:38:57  673 674	 1492742337	 318928006	 270986.
02:38:57  674 675	 1492742337	 589939063	 271011.
02:38:57  675 676	 1492742337	 861037577	 271098.
02:38:58  676 677	 1492742338	 136296524	 275259.
02:38:58  677 678	 1492742338	 422355636	 286059.
02:38:58  678 679	 1492742338	 644430794	 222075.
02:38:58  679 680	 1492742338	 919922596	 275492.
02:38:59  680 681	 1492742339	 190937403	 271015.
02:38:59  681 682	 1492742339	 461573427	 270636.
02:38:59  682 683	 1492742339	 732596480	 271023.
02:38:59  683 684	 1492742339	 954736886	 222141.
02:39:00  684 685	 1492742340	 229613737	 274876.
02:39:00  685 686	 1492742340	 500358882	 270746.
02:39:00  686 687	 1492742340	 771005945	 270647.
02:39:01  687 688	 1492742341	 45912934	 274907.
02:39:01  688 689	 1492742341	 263643346	 217730.
02:39:01  689 690	 1492742341	 538497998	 274855.
02:39:01  690 691	 1492742341	 809567345	 271069.
02:39:02  691 692	 1492742342	 80655783	 271088.
02:39:02  692 693	 1492742342	 355709190	 275054.
02:39:02  693 694	 1492742342	 626745077	 271036.
02:39:02  694 695	 1492742342	 848914362	 222169.
02:39:03  695 696	 1492742343	 119760400	 270846.
02:39:03  696 697	 1492742343	 390848277	 271088.
02:39:03  697 698	 1492742343	 665977063	 275129.
02:39:03  698 699	 1492742343	 937103263	 271126.
02:39:04  699 700	 1492742344	 208458382	 271355.
02:39:04  700 701	 1492742344	 479787870	 271330.
02:39:04  701 702	 1492742344	 702203832	 222416.
02:39:04  702 703	 1492742344	 977485192	 275281.
02:39:05  703 704	 1492742345	 248426555	 270941.
02:39:05  704 705	 1492742345	 519624938	 271199.
02:39:05  705 706	 1492742345	 794737077	 275112.
02:39:06  706 707	 1492742346	 66068326	 271331.
02:39:06  707 708	 1492742346	 341429512	 275361.
02:39:06  708 709	 1492742346	 612470372	 271041.
02:39:06  709 710	 1492742346	 835014432	 222544.
02:39:07  710 711	 1492742347	 106037919	 271024.
02:39:07  711 712	 1492742347	 381662665	 275624.
02:39:07  712 713	 1492742347	 652648875	 270987.
02:39:07  713 714	 1492742347	 923324102	 270675.
02:39:08  714 715	 1492742348	 145153863	 221830.
02:39:08  715 716	 1492742348	 420066974	 274913.
02:39:08  716 717	 1492742348	 690953181	 270886.
02:39:08  717 718	 1492742348	 961806656	 270853.
02:39:09  718 719	 1492742349	 232711869	 270906.
02:39:09  719 720	 1492742349	 504231874	 271520.
02:39:09  720 721	 1492742349	 779534343	 275302.
02:39:10  721 722	 1492742350	 51497600	 271963.
02:39:10  722 723	 1492742350	 274602363	 223105.
02:39:10  723 724	 1492742350	 546229923	 271628.
02:39:10  724 725	 1492742350	 817226673	 270996.
02:39:11  725 726	 1492742351	 92255953	 275030.
02:39:11  726 727	 1492742351	 363226566	 270970.
02:39:11  727 728	 1492742351	 638295709	 275069.
02:39:11  728 729	 1492742351	 908990829	 270696.
02:39:12  729 730	 1492742352	 130898801	 221907.
02:39:12  730 731	 1492742352	 402265013	 271367.
02:39:12  731 732	 1492742352	 673517241	 271252.
02:39:12  732 733	 1492742352	 948782850	 275266.
02:39:13  733 734	 1492742353	 219989531	 271206.
02:39:13  734 735	 1492742353	 441463712	 221474.
02:39:13  735 736	 1492742353	 712087763	 270624.
02:39:13  736 737	 1492742353	 982880242	 270793.
02:39:14  737 738	 1492742354	 257799554	 274919.
02:39:14  738 739	 1492742354	 528956690	 271157.
02:39:14  739 740	 1492742354	 751080387	 222124.
02:39:15  740 741	 1492742355	 26624599	 275544.
02:39:15  741 742	 1492742355	 297559020	 270935.
02:39:15  742 743	 1492742355	 568301822	 270743.
02:39:15  743 744	 1492742355	 843884159	 275582.
02:39:16  744 745	 1492742356	 65915014	 222031.
02:39:16  745 746	 1492742356	 336710807	 270796.
02:39:16  746 747	 1492742356	 607688379	 270977.
02:39:16  747 748	 1492742356	 882777546	 275089.
02:39:17  748 749	 1492742357	 153781719	 271004.
02:39:17  749 750	 1492742357	 375798327	 222017.
02:39:17  750 751	 1492742357	 646910276	 271112.
02:39:17  751 752	 1492742357	 922020716	 275110.
02:39:18  752 753	 1492742358	 193162662	 271142.
02:39:18  753 754	 1492742358	 464395385	 271233.
02:39:18  754 755	 1492742358	 739981704	 275586.
02:39:19  755 756	 1492742359	 10889202	 270908.
02:39:19  756 757	 1492742359	 281645994	 270757.
02:39:19  757 758	 1492742359	 503440328	 221794.
02:39:19  758 759	 1492742359	 774799925	 271360.
02:39:20  759 760	 1492742360	 50405829	 275606.
02:39:20  760 761	 1492742360	 321460773	 271054.
02:39:20  761 762	 1492742360	 592881018	 271421.
02:39:20  762 763	 1492742360	 868549509	 275668.
02:39:21  763 764	 1492742361	 90705821	 222157.
02:39:21  764 765	 1492742361	 362039464	 271333.
02:39:21  765 766	 1492742361	 638087447	 276048.
02:39:21  766 767	 1492742361	 908691225	 270604.
02:39:22  767 768	 1492742362	 179397075	 270706.
02:39:22  768 769	 1492742362	 401188833	 221792.
02:39:22  769 770	 1492742362	 671853781	 270664.
02:39:22  770 771	 1492742362	 942628707	 270775.
02:39:23  771 772	 1492742363	 217552294	 274924.
02:39:23  772 773	 1492742363	 488711654	 271159.
02:39:23  773 774	 1492742363	 764425284	 275714.
02:39:23  774 775	 1492742363	 986552827	 222128.
02:39:24  775 776	 1492742364	 257921682	 271368.
02:39:24  776 777	 1492742364	 529826447	 271905.
02:39:24  777 778	 1492742364	 804610523	 274784.
02:39:25  778 779	 1492742365	 75408812	 270798.
02:39:25  779 780	 1492742365	 297364781	 221956.
02:39:25  780 781	 1492742365	 568358635	 270994.
02:39:25  781 782	 1492742365	 843260103	 274902.
02:39:26  782 783	 1492742366	 114062102	 270802.
02:39:26  783 784	 1492742366	 385064468	 271002.
02:39:26  784 785	 1492742366	 607149676	 222085.
02:39:26  785 786	 1492742366	 882969148	 275820.
02:39:27  786 787	 1492742367	 153755871	 270787.
02:39:27  787 788	 1492742367	 424517680	 270761.
02:39:27  788 789	 1492742367	 695051488	 270534.
02:39:27  789 790	 1492742367	 916916406	 221865.
02:39:28  790 791	 1492742368	 187781616	 270865.
02:39:28  791 792	 1492742368	 462435732	 274654.
02:39:28  792 793	 1492742368	 733401809	 270967.
02:39:28  793 794	 1492742368	 955330539	 221928.
02:39:29  794 795	 1492742369	 226115452	 270785.
02:39:29  795 796	 1492742369	 501455497	 275340.
02:39:29  796 797	 1492742369	 772779944	 271325.
02:39:30  797 798	 1492742370	 48188136	 275408.
02:39:30  798 799	 1492742370	 318810962	 270623.
02:39:30  799 800	 1492742370	 540554366	 221743.
02:39:30  800 801	 1492742370	 811308161	 270754.
02:39:31  801 802	 1492742371	 82376818	 271069.
02:39:31  802 803	 1492742371	 357103126	 274726.
02:39:31  803 804	 1492742371	 574871965	 217769.
02:39:31  804 805	 1492742371	 850093094	 275221.
02:39:32  805 806	 1492742372	 121737853	 271645.
02:39:32  806 807	 1492742372	 397036679	 275298.
02:39:32  807 808	 1492742372	 667963880	 270928.
02:39:32  808 809	 1492742372	 938646501	 270682.
02:39:33  809 810	 1492742373	 160495472	 221849.
02:39:33  810 811	 1492742373	 435227246	 274732.
02:39:33  811 812	 1492742373	 706154740	 270927.
02:39:33  812 813	 1492742373	 977687315	 271533.
02:39:34  813 814	 1492742374	 252925462	 275238.
02:39:34  814 815	 1492742374	 475050058	 222125.
02:39:34  815 816	 1492742374	 746861486	 271811.
02:39:35  816 817	 1492742375	 22407221	 275546.
02:39:35  817 818	 1492742375	 293974897	 271568.
02:39:35  818 819	 1492742375	 515902575	 221928.
02:39:35  819 820	 1492742375	 786777389	 270874.
02:39:36  820 821	 1492742376	 57976627	 271199.
02:39:36  821 822	 1492742376	 333018144	 275042.
02:39:36  822 823	 1492742376	 604038821	 271021.
02:39:36  823 824	 1492742376	 874741082	 270702.
02:39:37  824 825	 1492742377	 96695269	 221954.
02:39:37  825 826	 1492742377	 367549965	 270855.
02:39:37  826 827	 1492742377	 639050359	 271500.
02:39:37  827 828	 1492742377	 914747656	 275709.
02:39:38  828 829	 1492742378	 190452712	 275693.
02:39:38  829 830	 1492742378	 412515180	 222063.
02:39:38  830 831	 1492742378	 683286456	 270771.
02:39:38  831 832	 1492742378	 954026956	 270741.
02:39:39  832 833	 1492742379	 224945036	 270918.
02:39:39  833 834	 1492742379	 500026995	 275082.
02:39:39  834 835	 1492742379	 770971826	 270945.
02:39:39  835 836	 1492742379	 993046521	 222074.
02:39:40  836 837	 1492742380	 264238939	 271193.
02:39:40  837 838	 1492742380	 539306729	 275068.
02:39:40  838 839	 1492742380	 811183021	 271876.
02:39:41  839 840	 1492742381	 86894856	 275712.
02:39:41  840 841	 1492742381	 304595225	 217700.
02:39:41  841 842	 1492742381	 579488072	 274893.
02:39:41  842 843	 1492742381	 850238478	 270750.
02:39:42  843 844	 1492742382	 125183715	 274945.
02:39:42  844 845	 1492742382	 342974086	 217791.
02:39:42  845 846	 1492742382	 617904015	 274930.
02:39:42  846 847	 1492742382	 888873516	 270969.
02:39:43  847 848	 1492742383	 160097640	 271224.
02:39:43  848 849	 1492742383	 435221816	 275125.
02:39:43  849 850	 1492742383	 707222657	 272000.
02:39:43  850 851	 1492742383	 982826720	 275604.
02:39:44  851 852	 1492742384	 200808324	 217982.
02:39:44  852 853	 1492742384	 476121960	 275314.
02:39:44  853 854	 1492742384	 747413461	 271291.
02:39:45  854 855	 1492742385	 18241740	 270828.
02:39:45  855 856	 1492742385	 293314752	 275073.
02:39:45  856 857	 1492742385	 564113493	 270799.
02:39:45  857 858	 1492742385	 786857836	 222745.
02:39:46  858 859	 1492742386	 62444117	 275586.
02:39:46  859 860	 1492742386	 333885433	 271441.
02:39:46  860 861	 1492742386	 604825218	 270940.
02:39:46  861 862	 1492742386	 879823238	 274998.
02:39:47  862 863	 1492742387	 101694158	 221871.
02:39:47  863 864	 1492742387	 372754385	 271060.
02:39:47  864 865	 1492742387	 643649241	 270895.
02:39:47  865 866	 1492742387	 914621679	 270972.
02:39:48  866 867	 1492742388	 189604006	 274983.
02:39:48  867 868	 1492742388	 460643064	 271039.
02:39:48  868 869	 1492742388	 682917754	 222274.
02:39:48  869 870	 1492742388	 954436315	 271519.
02:39:49  870 871	 1492742389	 230355347	 275919.
02:39:49  871 872	 1492742389	 501319107	 270964.
02:39:49  872 873	 1492742389	 772357959	 271039.
02:39:50  873 874	 1492742390	 47366263	 275008.
02:39:50  874 875	 1492742390	 269519693	 222153.
02:39:50  875 876	 1492742390	 540493183	 270974.
02:39:50  876 877	 1492742390	 811669106	 271176.
02:39:51  877 878	 1492742391	 87266803	 275597.
02:39:51  878 879	 1492742391	 358573647	 271308.
02:39:51  879 880	 1492742391	 629603151	 271029.
02:39:51  880 881	 1492742391	 905578598	 275975.
02:39:52  881 882	 1492742392	 127616473	 222038.
02:39:52  882 883	 1492742392	 398307722	 270691.
02:39:52  883 884	 1492742392	 669280860	 270974.
02:39:52  884 885	 1492742392	 940145829	 270865.
02:39:53  885 886	 1492742393	 215064177	 274918.
02:39:53  886 887	 1492742393	 433155180	 218091.
02:39:53  887 888	 1492742393	 708083388	 274928.
02:39:53  888 889	 1492742393	 979275200	 271192.
02:39:54  889 890	 1492742394	 250309586	 271034.
02:39:54  890 891	 1492742394	 525571314	 275262.
02:39:54  891 892	 1492742394	 797312004	 271741.
02:39:55  892 893	 1492742395	 68376422	 271064.
02:39:55  893 894	 1492742395	 343380913	 275005.
02:39:55  894 895	 1492742395	 565087553	 221706.
02:39:55  895 896	 1492742395	 832067950	 266981.
02:39:56  896 897	 1492742396	 106963921	 274896.
02:39:56  897 898	 1492742396	 378147909	 271184.
02:39:56  898 899	 1492742396	 653245721	 275097.
02:39:56  899 900	 1492742396	 871386964	 218142.
02:39:57  900 901	 1492742397	 146743352	 275356.
02:39:57  901 902	 1492742397	 417526473	 270783.
02:39:57  902 903	 1492742397	 688459172	 270933.
02:39:57  903 904	 1492742397	 963358933	 274900.
02:39:58  904 905	 1492742398	 185212589	 221853.
02:39:58  905 906	 1492742398	 456152211	 270940.
02:39:58  906 907	 1492742398	 727431995	 271280.
02:39:58  907 908	 1492742399	 2550996	 275119.
02:39:59  908 909	 1492742399	 274526482	 271975.
02:39:59  909 910	 1492742399	 497207015	 222681.
02:39:59  910 911	 1492742399	 772913993	 275707.
02:40:00  911 912	 1492742400	 43794834	 270881.
02:40:00  912 913	 1492742400	 318572708	 274777.
02:40:00  913 914	 1492742400	 589386209	 270814.
02:40:00  914 915	 1492742400	 811337393	 221951.
02:40:01  915 916	 1492742401	 82102624	 270765.
02:40:01  916 917	 1492742401	 353084970	 270983.
02:40:01  917 918	 1492742401	 628151073	 275066.
02:40:01  918 919	 1492742401	 899327702	 271176.
02:40:02  919 920	 1492742402	 170472413	 271145.
02:40:02  920 921	 1492742402	 392654871	 222183.
02:40:02  921 922	 1492742402	 664060197	 271405.
02:40:02  922 923	 1492742402	 939124740	 275064.
02:40:03  923 924	 1492742403	 209980675	 270856.
02:40:03  924 925	 1492742403	 480920601	 270940.
02:40:03  925 926	 1492742403	 756059917	 275140.
02:40:03  926 927	 1492742403	 973951093	 217891.
02:40:04  927 928	 1492742404	 248747499	 274796.
02:40:04  928 929	 1492742404	 519721270	 270974.
02:40:04  929 930	 1492742404	 790878314	 271157.
02:40:05  930 931	 1492742405	 66275695	 275397.
02:40:05  931 932	 1492742405	 337167056	 270892.
02:40:05  932 933	 1492742405	 559343500	 222176.
02:40:05  933 934	 1492742405	 830613015	 271270.
02:40:06  934 935	 1492742406	 101469602	 270856.
02:40:06  935 936	 1492742406	 376585121	 275116.
02:40:06  936 937	 1492742406	 647726868	 271142.
02:40:06  937 938	 1492742406	 918704008	 270977.
02:40:07  938 939	 1492742407	 140889471	 222185.
02:40:07  939 940	 1492742407	 416025994	 275137.
02:40:07  940 941	 1492742407	 687016939	 270991.
02:40:07  941 942	 1492742407	 957886052	 270869.
02:40:08  942 943	 1492742408	 233103910	 275218.
02:40:08  943 944	 1492742408	 505036279	 271932.
02:40:08  944 945	 1492742408	 779995010	 274959.
02:40:08  945 946	 1492742408	 997888819	 217894.
02:40:09  946 947	 1492742409	 273233800	 275345.
02:40:09  947 948	 1492742409	 544260807	 271026.
02:40:09  948 949	 1492742409	 815228341	 270968.
02:40:10  949 950	 1492742410	 90556853	 275329.
02:40:10  950 951	 1492742410	 362261966	 271705.
02:40:10  951 952	 1492742410	 633631110	 271369.
02:40:10  952 953	 1492742410	 856004672	 222373.
02:40:11  953 954	 1492742411	 126986719	 270982.
02:40:11  954 955	 1492742411	 402076246	 275090.
02:40:11  955 956	 1492742411	 673233421	 271157.
02:40:11  956 957	 1492742411	 944085729	 270852.
02:40:12  957 958	 1492742412	 219118408	 275033.
02:40:12  958 959	 1492742412	 490715244	 271597.
02:40:12  959 960	 1492742412	 713229909	 222515.
02:40:12  960 961	 1492742412	 985137203	 271907.
02:40:13  961 962	 1492742413	 261065515	 275928.
02:40:13  962 963	 1492742413	 532303920	 271239.
02:40:13  963 964	 1492742413	 803630739	 271326.
02:40:14  964 965	 1492742414	 74595556	 270965.
02:40:14  965 966	 1492742414	 349579516	 274984.
02:40:14  966 967	 1492742414	 621014136	 271435.
02:40:14  967 968	 1492742414	 842693580	 221679.
02:40:15  968 969	 1492742415	 113785007	 271092.
02:40:15  969 970	 1492742415	 384729450	 270944.
02:40:15  970 971	 1492742415	 659745680	 275016.
02:40:15  971 972	 1492742415	 930955025	 271210.
02:40:16  972 973	 1492742416	 202049539	 271094.
02:40:16  973 974	 1492742416	 477628739	 275579.
02:40:16  974 975	 1492742416	 700098285	 222470.
02:40:16  975 976	 1492742416	 971219621	 271121.
02:40:17  976 977	 1492742417	 242164120	 270945.
02:40:17  977 978	 1492742417	 517330619	 275166.
02:40:17  978 979	 1492742417	 788389500	 271059.
02:40:18  979 980	 1492742418	 59497322	 271108.
02:40:18  980 981	 1492742418	 335379135	 275882.
02:40:18  981 982	 1492742418	 557742848	 222364.
02:40:18  982 983	 1492742418	 829891695	 272148.
02:40:19  983 984	 1492742419	 101599606	 271708.
02:40:19  984 985	 1492742419	 376941884	 275343.
02:40:19  985 986	 1492742419	 647746047	 270804.
02:40:19  986 987	 1492742419	 922621852	 274876.
02:40:20  987 988	 1492742420	 193881208	 271259.
02:40:20  988 989	 1492742420	 415722976	 221842.
02:40:20  989 990	 1492742420	 686528843	 270806.
02:40:20  990 991	 1492742420	 957470910	 270942.
02:40:21  991 992	 1492742421	 233094360	 275623.
02:40:21  992 993	 1492742421	 503847313	 270753.
02:40:21  993 994	 1492742421	 725857285	 222010.
02:40:21  994 995	 1492742421	 997353258	 271496.
02:40:22  995 996	 1492742422	 268459152	 271106.
02:40:22  996 997	 1492742422	 543274460	 274815.
02:40:22  997 998	 1492742422	 814075107	 270801.
02:40:23  998 999	 1492742423	 85106628	 271031.
02:40:23  999 1000	 1492742423	 306954903	 221849.
02:40:23 1000 1001	 1492742423	 577724808	 270769.
02:40:23 1001 1002	 1492742423	 852549130	 274825.
02:40:24 1002 1003	 1492742424	 123998733	 271449.
02:40:24 1003 1004	 1492742424	 345658827	 221661.
02:40:24 1004 1005	 1492742424	 621172402	 275513.
02:40:24 1005 1006	 1492742424	 892303063	 271131.
02:40:25 1006 1007	 1492742425	 162962939	 270660.
02:40:25 1007 1008	 1492742425	 437641433	 274678.
02:40:25 1008 1009	 1492742425	 655816148	 218175.
02:40:25 1009 1010	 1492742425	 930793746	 274977.
02:40:26 1010 1011	 1492742426	 201633036	 270840.
02:40:26 1011 1012	 1492742426	 476670145	 275037.
02:40:26 1012 1013	 1492742426	 747707249	 271037.
02:40:26 1013 1014	 1492742426	 969826929	 222120.
02:40:27 1014 1015	 1492742427	 240614767	 270787.
02:40:27 1015 1016	 1492742427	 511916347	 271302.
02:40:27 1016 1017	 1492742427	 786933389	 275017.
02:40:28 1017 1018	 1492742428	 57728153	 270795.
02:40:28 1018 1019	 1492742428	 328762797	 271034.
02:40:28 1019 1020	 1492742428	 599768150	 271006.
02:40:28 1020 1021	 1492742428	 821759469	 221991.
02:40:29 1021 1022	 1492742429	 92881547	 271123.
02:40:29 1022 1023	 1492742429	 368197745	 275315.
02:40:29 1023 1024	 1492742429	 639445731	 271248.
02:40:29 1024 1025	 1492742429	 910106671	 270661.
02:40:30 1025 1026	 1492742430	 185506294	 275400.
02:40:30 1026 1027	 1492742430	 456518582	 271013.
02:40:30 1027 1028	 1492742430	 678629238	 222110.
02:40:30 1028 1029	 1492742430	 949662248	 271033.
02:40:31 1029 1030	 1492742431	 224775816	 275114.
02:40:31 1030 1031	 1492742431	 491681596	 266905.
02:40:31 1031 1032	 1492742431	 766931504	 275250.
02:40:32 1032 1033	 1492742432	 38191021	 271260.
02:40:32 1033 1034	 1492742432	 313748722	 275557.
02:40:32 1034 1035	 1492742432	 532159278	 218411.
02:40:32 1035 1036	 1492742432	 807765909	 275607.
02:40:33 1036 1037	 1492742433	 78793441	 271027.
02:40:33 1037 1038	 1492742433	 353777275	 274984.
02:40:33 1038 1039	 1492742433	 624602044	 270825.
02:40:33 1039 1040	 1492742433	 895819584	 271217.
02:40:34 1040 1041	 1492742434	 170893433	 275074.
02:40:34 1041 1042	 1492742434	 388993912	 218101.
02:40:34 1042 1043	 1492742434	 663939313	 274945.
02:40:34 1043 1044	 1492742434	 934901349	 270962.
02:40:35 1044 1045	 1492742435	 206479699	 271578.
02:40:35 1045 1046	 1492742435	 481882929	 275404.
02:40:35 1046 1047	 1492742435	 753395212	 271512.
02:40:36 1047 1048	 1492742436	 24881702	 271486.
02:40:36 1048 1049	 1492742436	 295916219	 271035.
02:40:36 1049 1050	 1492742436	 517883470	 221967.
02:40:36 1050 1051	 1492742436	 792822585	 274939.
02:40:37 1051 1052	 1492742437	 63781013	 270959.
02:40:37 1052 1053	 1492742437	 335040276	 271259.
02:40:37 1053 1054	 1492742437	 610825287	 275785.
02:40:37 1054 1055	 1492742437	 882516303	 271691.
02:40:38 1055 1056	 1492742438	 105148564	 222632.
02:40:38 1056 1057	 1492742438	 380753230	 275605.
02:40:38 1057 1058	 1492742438	 651876351	 271123.
02:40:38 1058 1059	 1492742438	 922813439	 270937.
02:40:39 1059 1060	 1492742439	 193669576	 270856.
02:40:39 1060 1061	 1492742439	 469322329	 275653.
02:40:39 1061 1062	 1492742439	 691456008	 222134.
02:40:39 1062 1063	 1492742439	 962565959	 271110.
02:40:40 1063 1064	 1492742440	 233763342	 271197.
02:40:40 1064 1065	 1492742440	 508997344	 275234.
02:40:40 1065 1066	 1492742440	 780717326	 271720.
02:40:41 1066 1067	 1492742441	 52199281	 271482.
02:40:41 1067 1068	 1492742441	 323834964	 271636.
02:40:41 1068 1069	 1492742441	 599176365	 275341.
02:40:41 1069 1070	 1492742441	 870248133	 271072.
02:40:42 1070 1071	 1492742442	 92403595	 222155.
02:40:42 1071 1072	 1492742442	 363721428	 271318.
02:40:42 1072 1073	 1492742442	 634933783	 271212.
02:40:42 1073 1074	 1492742442	 910086487	 275153.
02:40:43 1074 1075	 1492742443	 181240704	 271154.
02:40:43 1075 1076	 1492742443	 452516009	 271276.
02:40:43 1076 1077	 1492742443	 727740818	 275225.
02:40:43 1077 1078	 1492742443	 999554732	 271813.
02:40:44 1078 1079	 1492742444	 221903488	 222349.
02:40:44 1079 1080	 1492742444	 492610576	 270707.
02:40:44 1080 1081	 1492742444	 763643661	 271033.
02:40:45 1081 1082	 1492742445	 38550371	 274907.
02:40:45 1082 1083	 1492742445	 309836349	 271286.
02:40:45 1083 1084	 1492742445	 580910066	 271074.
02:40:45 1084 1085	 1492742445	 856124839	 275215.
02:40:46 1085 1086	 1492742446	 78274941	 222150.
02:40:46 1086 1087	 1492742446	 349085328	 270810.
02:40:46 1087 1088	 1492742446	 620005318	 270920.
02:40:46 1088 1089	 1492742446	 891718221	 271713.
02:40:47 1089 1090	 1492742447	 167274946	 275557.
02:40:47 1090 1091	 1492742447	 389115201	 221840.
02:40:47 1091 1092	 1492742447	 660039725	 270925.
02:40:47 1092 1093	 1492742447	 931140031	 271100.
02:40:48 1093 1094	 1492742448	 202026531	 270886.
02:40:48 1094 1095	 1492742448	 477253690	 275227.
02:40:48 1095 1096	 1492742448	 748436056	 271183.
02:40:49 1096 1097	 1492742449	 19884045	 271448.
02:40:49 1097 1098	 1492742449	 246923541	 227039.
02:40:49 1098 1099	 1492742449	 518741471	 271818.
02:40:49 1099 1100	 1492742449	 789601543	 270860.
02:40:50 1100 1101	 1492742450	 60353390	 270752.
02:40:50 1101 1102	 1492742450	 337504411	 277151.
02:40:50 1102 1103	 1492742450	 579711881	 242208.
02:40:50 1103 1104	 1492742450	 850937767	 271225.
02:40:51 1104 1105	 1492742451	 122139398	 271202.
02:40:51 1105 1106	 1492742451	 398409214	 276270.
02:40:51 1106 1107	 1492742451	 670450241	 272041.
02:40:51 1107 1108	 1492742451	 946673603	 276223.
02:40:52 1108 1109	 1492742452	 169077757	 222404.
02:40:52 1109 1110	 1492742452	 439588405	 270511.
02:40:52 1110 1111	 1492742452	 710737498	 271149.
02:40:52 1111 1112	 1492742452	 981986268	 271249.
02:40:53 1112 1113	 1492742453	 256673097	 274687.
02:40:53 1113 1114	 1492742453	 478436033	 221763.
02:40:53 1114 1115	 1492742453	 749399738	 270963.
02:40:54 1115 1116	 1492742454	 20396559	 270997.
02:40:54 1116 1117	 1492742454	 295556417	 275160.
02:40:54 1117 1118	 1492742454	 566434864	 270879.
02:40:54 1118 1119	 1492742454	 837878103	 271443.
02:40:55 1119 1120	 1492742455	 60332436	 222454.
02:40:55 1120 1121	 1492742455	 330998470	 270666.
02:40:55 1121 1122	 1492742455	 605972085	 274974.
02:40:55 1122 1123	 1492742455	 877192353	 271220.
02:40:56 1123 1124	 1492742456	 152233003	 275041.
02:40:56 1124 1125	 1492742456	 370180364	 217947.
02:40:56 1125 1126	 1492742456	 645896417	 275716.
02:40:56 1126 1127	 1492742456	 918083223	 272187.
02:40:57 1127 1128	 1492742457	 193820720	 275737.
02:40:57 1128 1129	 1492742457	 465618198	 271798.
02:40:57 1129 1130	 1492742457	 737034292	 271416.
02:40:58 1130 1131	 1492742458	 11880336	 274846.
02:40:58 1131 1132	 1492742458	 282863443	 270983.
02:40:58 1132 1133	 1492742458	 554116517	 271253.
02:40:58 1133 1134	 1492742458	 829464879	 275349.
02:40:59 1134 1135	 1492742459	 51955803	 222490.
02:40:59 1135 1136	 1492742459	 323118423	 271163.
