09:30:41    0 Step	 time(s)	 time(ns)	 delta(ms)
09:30:41    0 1	 1492767041	 643111225	 928.
09:30:41    1 2	 1492767041	 915400824	 272290.
09:30:42    2 3	 1492767042	 191489260	 276088.
09:30:42    3 4	 1492767042	 467878439	 276389.
09:30:42    4 5	 1492767042	 740567604	 272689.
09:30:43    5 6	 1492767043	 17406409	 276839.
09:30:43    6 7	 1492767043	 289852012	 272446.
09:30:43    7 8	 1492767043	 562126687	 272274.
09:30:43    8 9	 1492767043	 789010313	 226884.
09:30:44    9 10	 1492767044	 61275697	 272265.
09:30:44   10 11	 1492767044	 337068552	 275793.
09:30:44   11 12	 1492767044	 608923424	 271855.
09:30:44   12 13	 1492767044	 881138561	 272215.
09:30:45   13 14	 1492767045	 157506277	 276368.
09:30:45   14 15	 1492767045	 429813231	 272307.
09:30:45   15 16	 1492767045	 705977123	 276164.
09:30:45   16 17	 1492767045	 929294328	 223317.
09:30:46   17 18	 1492767046	 205731406	 276437.
09:30:46   18 19	 1492767046	 477555767	 271825.
09:30:46   19 20	 1492767046	 753747339	 276191.
09:30:47   20 21	 1492767047	 25856086	 272109.
09:30:47   21 22	 1492767047	 301642548	 275786.
09:30:47   22 23	 1492767047	 573648913	 272007.
09:30:47   23 24	 1492767047	 796420859	 222772.
09:30:48   24 25	 1492767048	 72409942	 275989.
09:30:48   25 26	 1492767048	 343888611	 271478.
09:30:48   26 27	 1492767048	 619797036	 275909.
09:30:48   27 28	 1492767048	 891907221	 272110.
09:30:49   28 29	 1492767049	 168316710	 276409.
09:30:49   29 30	 1492767049	 443986716	 275671.
09:30:49   30 31	 1492767049	 666078215	 222091.
09:30:49   31 32	 1492767049	 941628137	 275550.
09:30:50   32 33	 1492767050	 213002537	 271374.
09:30:50   33 34	 1492767050	 435721596	 222719.
09:30:50   34 35	 1492767050	 707843052	 272122.
09:30:50   35 36	 1492767050	 983164807	 275322.
09:30:51   36 37	 1492767051	 254730007	 271565.
09:30:51   37 38	 1492767051	 531245500	 276515.
09:30:51   38 39	 1492767051	 807624474	 276379.
09:30:52   39 40	 1492767052	 79490649	 271866.
09:30:52   40 41	 1492767052	 302286473	 222796.
09:30:52   41 42	 1492767052	 578274592	 275988.
09:30:52   42 43	 1492767052	 850471727	 272198.
09:30:53   43 44	 1492767053	 126351248	 275879.
09:30:53   44 45	 1492767053	 398462520	 272111.
09:30:53   45 46	 1492767053	 674732079	 276270.
09:30:53   46 47	 1492767053	 947149516	 272417.
09:30:54   47 48	 1492767054	 223154672	 276005.
09:30:54   48 49	 1492767054	 445811963	 222658.
09:30:54   49 50	 1492767054	 721605465	 275793.
09:30:54   50 51	 1492767054	 993416861	 271812.
09:30:55   51 52	 1492767055	 269393196	 275976.
09:30:55   52 53	 1492767055	 541334334	 271941.
09:30:55   53 54	 1492767055	 817531311	 276197.
09:30:56   54 55	 1492767056	 40448724	 222917.
09:30:56   55 56	 1492767056	 312284492	 271836.
09:30:56   56 57	 1492767056	 588194375	 275910.
09:30:56   57 58	 1492767056	 859943812	 271750.
09:30:57   58 59	 1492767057	 136310004	 276366.
09:30:57   59 60	 1492767057	 408195919	 271886.
09:30:57   60 61	 1492767057	 630913602	 222717.
09:30:57   61 62	 1492767057	 907147492	 276234.
09:30:58   62 63	 1492767058	 179247852	 272101.
09:30:58   63 64	 1492767058	 455615418	 276367.
09:30:58   64 65	 1492767058	 731799342	 276184.
09:30:59   65 66	 1492767059	 3810879	 272012.
09:30:59   66 67	 1492767059	 226823221	 223012.
09:30:59   67 68	 1492767059	 503168148	 276345.
09:30:59   68 69	 1492767059	 774994501	 271826.
09:31:00   69 70	 1492767060	 51123032	 276129.
09:31:00   70 71	 1492767060	 323249335	 272126.
09:31:00   71 72	 1492767060	 599359233	 276110.
09:31:00   72 73	 1492767060	 875274668	 275915.
09:31:01   73 74	 1492767061	 92951875	 217678.
09:31:01   74 75	 1492767061	 368088836	 275137.
09:31:01   75 76	 1492767061	 639294724	 271206.
09:31:01   76 77	 1492767061	 914558032	 275263.
09:31:02   77 78	 1492767062	 185766377	 271208.
09:31:02   78 79	 1492767062	 456946529	 271180.
09:31:02   79 80	 1492767062	 732198178	 275252.
09:31:03   80 81	 1492767063	 3647957	 271450.
09:31:03   81 82	 1492767063	 274886977	 271239.
09:31:03   82 83	 1492767063	 546136785	 271250.
09:31:03   83 84	 1492767063	 768611641	 222474.
09:31:04   84 85	 1492767064	 44651377	 276040.
09:31:04   85 86	 1492767064	 316471498	 271820.
09:31:04   86 87	 1492767064	 592414513	 275943.
09:31:04   87 88	 1492767064	 864199012	 271785.
09:31:05   88 89	 1492767065	 135392750	 271194.
09:31:05   89 90	 1492767065	 410795453	 275402.
09:31:05   90 91	 1492767065	 682052904	 271258.
09:31:05   91 92	 1492767065	 958199109	 276146.
09:31:06   92 93	 1492767066	 230060300	 271861.
09:31:06   93 94	 1492767066	 506192229	 276132.
09:31:06   94 95	 1492767066	 778623111	 272431.
09:31:07   95 96	 1492767067	 54453844	 275831.
09:31:07   96 97	 1492767067	 327043442	 272589.
09:31:07   97 98	 1492767067	 603401979	 276359.
09:31:07   98 99	 1492767067	 826877965	 223476.
09:31:08   99 100	 1492767068	 103392967	 276515.
09:31:08  100 101	 1492767068	 375459938	 272067.
09:31:08  101 102	 1492767068	 651892502	 276432.
09:31:08  102 103	 1492767068	 923528681	 271636.
09:31:09  103 104	 1492767069	 199855264	 276327.
09:31:09  104 105	 1492767069	 472297512	 272442.
09:31:09  105 106	 1492767069	 748174717	 275878.
09:31:09  106 107	 1492767069	 970919446	 222744.
09:31:10  107 108	 1492767070	 242601767	 271683.
09:31:10  108 109	 1492767070	 518761106	 276159.
09:31:10  109 110	 1492767070	 794701960	 275941.
09:31:11  110 111	 1492767071	 66349574	 271647.
09:31:11  111 112	 1492767071	 337901185	 271552.
09:31:11  112 113	 1492767071	 613858106	 275957.
09:31:11  113 114	 1492767071	 885548008	 271690.
09:31:12  114 115	 1492767072	 107977448	 222429.
09:31:12  115 116	 1492767072	 379409751	 271433.
09:31:12  116 117	 1492767072	 651041335	 271631.
09:31:12  117 118	 1492767072	 926456865	 275416.
09:31:13  118 119	 1492767073	 202090946	 275634.
09:31:13  119 120	 1492767073	 473654982	 271564.
09:31:13  120 121	 1492767073	 744608124	 270953.
09:31:14  121 122	 1492767074	 16144209	 271536.
09:31:14  122 123	 1492767074	 238900123	 222756.
09:31:14  123 124	 1492767074	 514404259	 275504.
09:31:14  124 125	 1492767074	 785610010	 271206.
09:31:15  125 126	 1492767075	 57005486	 271395.
09:31:15  126 127	 1492767075	 332657566	 275652.
09:31:15  127 128	 1492767075	 604386111	 271729.
09:31:15  128 129	 1492767075	 875980310	 271594.
09:31:16  129 130	 1492767076	 151424849	 275445.
09:31:16  130 131	 1492767076	 374394302	 222969.
09:31:16  131 132	 1492767076	 645832502	 271438.
09:31:16  132 133	 1492767076	 921283520	 275451.
09:31:17  133 134	 1492767077	 192710573	 271427.
09:31:17  134 135	 1492767077	 469121062	 276411.
09:31:17  135 136	 1492767077	 728460785	 259340.
09:31:17  136 137	 1492767078	 525847	 272065.
09:31:18  137 138	 1492767078	 277118165	 276592.
09:31:18  138 139	 1492767078	 552973041	 275855.
09:31:18  139 140	 1492767078	 775766852	 222794.
09:31:19  140 141	 1492767079	 51894734	 276127.
09:31:19  141 142	 1492767079	 323784553	 271890.
09:31:19  142 143	 1492767079	 599698749	 275915.
09:31:19  143 144	 1492767079	 871412554	 271713.
09:31:20  144 145	 1492767080	 146912211	 275500.
09:31:20  145 146	 1492767080	 365289698	 218377.
09:31:20  146 147	 1492767080	 641424482	 276135.
09:31:20  147 148	 1492767080	 917613015	 276189.
09:31:21  148 149	 1492767081	 189401441	 271788.
09:31:21  149 150	 1492767081	 461095791	 271695.
09:31:21  150 151	 1492767081	 737531757	 276436.
09:31:22  151 152	 1492767082	 9896018	 272364.
09:31:22  152 153	 1492767082	 236879172	 226983.
09:31:22  153 154	 1492767082	 508810976	 271932.
09:31:22  154 155	 1492767082	 784667317	 275856.
09:31:23  155 156	 1492767083	 56178253	 271511.
09:31:23  156 157	 1492767083	 331527931	 275350.
09:31:23  157 158	 1492767083	 554362390	 222834.
09:31:23  158 159	 1492767083	 830536107	 276174.
09:31:24  159 160	 1492767084	 102664052	 272128.
09:31:24  160 161	 1492767084	 378396134	 275732.
09:31:24  161 162	 1492767084	 650529171	 272133.
09:31:24  162 163	 1492767084	 926585074	 276056.
09:31:25  163 164	 1492767085	 198078746	 271494.
09:31:25  164 165	 1492767085	 421131553	 223052.
09:31:25  165 166	 1492767085	 697071240	 275940.
09:31:25  166 167	 1492767085	 969124764	 272054.
09:31:26  167 168	 1492767086	 245246710	 276121.
09:31:26  168 169	 1492767086	 517342938	 272097.
09:31:26  169 170	 1492767086	 793387428	 276044.
09:31:27  170 171	 1492767087	 69534059	 276147.
09:31:27  171 172	 1492767087	 341325674	 271791.
09:31:27  172 173	 1492767087	 564293582	 222968.
09:31:27  173 174	 1492767087	 840442137	 276149.
09:31:28  174 175	 1492767088	 112109911	 271668.
09:31:28  175 176	 1492767088	 388141895	 276032.
09:31:28  176 177	 1492767088	 660261086	 272119.
09:31:28  177 178	 1492767088	 883113087	 222852.
09:31:29  178 179	 1492767089	 159200166	 276087.
09:31:29  179 180	 1492767089	 435150831	 275951.
09:31:29  180 181	 1492767089	 707227714	 272076.
09:31:29  181 182	 1492767089	 983274701	 276048.
09:31:30  182 183	 1492767090	 255415252	 272140.
09:31:30  183 184	 1492767090	 478266057	 222851.
09:31:30  184 185	 1492767090	 754181616	 275915.
09:31:31  185 186	 1492767091	 26058132	 271877.
09:31:31  186 187	 1492767091	 302269547	 276211.
09:31:31  187 188	 1492767091	 574256715	 271988.
09:31:31  188 189	 1492767091	 850685156	 276428.
09:31:32  189 190	 1492767092	 73557275	 222872.
09:31:32  190 191	 1492767092	 349253633	 275696.
09:31:32  191 192	 1492767092	 620700847	 271448.
09:31:32  192 193	 1492767092	 897140476	 276439.
09:31:33  193 194	 1492767093	 168595208	 271455.
09:31:33  194 195	 1492767093	 439831846	 271237.
09:31:33  195 196	 1492767093	 714791888	 274960.
09:31:33  196 197	 1492767093	 986040936	 271249.
09:31:34  197 198	 1492767094	 257335018	 271294.
09:31:34  198 199	 1492767094	 479370923	 222036.
09:31:34  199 200	 1492767094	 750858517	 271487.
09:31:35  200 201	 1492767095	 22190934	 271333.
09:31:35  201 202	 1492767095	 297141896	 274951.
09:31:35  202 203	 1492767095	 568257016	 271115.
09:31:35  203 204	 1492767095	 839485301	 271228.
09:31:36  204 205	 1492767096	 61613538	 222128.
09:31:36  205 206	 1492767096	 332862427	 271249.
09:31:36  206 207	 1492767096	 607760003	 274898.
09:31:36  207 208	 1492767096	 878760504	 271000.
09:31:37  208 209	 1492767097	 150358792	 271599.
09:31:37  209 210	 1492767097	 425634120	 275275.
09:31:37  210 211	 1492767097	 697108184	 271474.
09:31:37  211 212	 1492767097	 972721050	 275613.
09:31:38  212 213	 1492767098	 194970258	 222249.
09:31:38  213 214	 1492767098	 466142568	 271172.
09:31:38  214 215	 1492767098	 740991393	 274849.
09:31:39  215 216	 1492767099	 12932326	 271941.
09:31:39  216 217	 1492767099	 289115653	 276183.
09:31:39  217 218	 1492767099	 561610293	 272495.
09:31:39  218 219	 1492767099	 837965185	 276355.
09:31:40  219 220	 1492767100	 109602988	 271638.
09:31:40  220 221	 1492767100	 331882432	 222279.
09:31:40  221 222	 1492767100	 603444217	 271562.
09:31:40  222 223	 1492767100	 879072779	 275629.
09:31:41  223 224	 1492767101	 150541111	 271468.
09:31:41  224 225	 1492767101	 421915669	 271375.
09:31:41  225 226	 1492767101	 697646052	 275730.
09:31:41  226 227	 1492767101	 969768172	 272122.
09:31:42  227 228	 1492767102	 241722430	 271954.
09:31:42  228 229	 1492767102	 516974363	 275252.
09:31:42  229 230	 1492767102	 788033061	 271059.
09:31:43  230 231	 1492767103	 59065762	 271033.
09:31:43  231 232	 1492767103	 281467234	 222401.
09:31:43  232 233	 1492767103	 556648586	 275182.
09:31:43  233 234	 1492767103	 827546126	 270897.
09:31:44  234 235	 1492767104	 102446735	 274901.
09:31:44  235 236	 1492767104	 373574311	 271127.
09:31:44  236 237	 1492767104	 649011968	 275438.
09:31:44  237 238	 1492767104	 920152228	 271140.
09:31:45  238 239	 1492767105	 191675990	 271524.
09:31:45  239 240	 1492767105	 463347463	 271672.
09:31:45  240 241	 1492767105	 685803402	 222455.
09:31:45  241 242	 1492767105	 961453732	 275651.
09:31:46  242 243	 1492767106	 232820641	 271366.
09:31:46  243 244	 1492767106	 504274228	 271454.
09:31:46  244 245	 1492767106	 775392143	 271118.
09:31:47  245 246	 1492767107	 50421464	 275029.
09:31:47  246 247	 1492767107	 321330328	 270909.
09:31:47  247 248	 1492767107	 592640894	 271311.
09:31:47  248 249	 1492767107	 841499215	 248858.
09:31:48  249 250	 1492767108	 116879451	 275380.
09:31:48  250 251	 1492767108	 388319341	 271440.
09:31:48  251 252	 1492767108	 659664795	 271346.
09:31:48  252 253	 1492767108	 930465519	 270800.
09:31:49  253 254	 1492767109	 206184423	 275719.
09:31:49  254 255	 1492767109	 477056946	 270873.
09:31:49  255 256	 1492767109	 748384929	 271328.
09:31:50  256 257	 1492767110	 19696325	 271311.
09:31:50  257 258	 1492767110	 241926306	 222230.
09:31:50  258 259	 1492767110	 517431533	 275505.
09:31:50  259 260	 1492767110	 788708625	 271277.
09:31:51  260 261	 1492767111	 60109501	 271401.
09:31:51  261 262	 1492767111	 331433508	 271324.
09:31:51  262 263	 1492767111	 606870916	 275438.
09:31:51  263 264	 1492767111	 878576494	 271705.
09:31:52  264 265	 1492767112	 153801102	 275225.
09:31:52  265 266	 1492767112	 424661098	 270860.
09:31:52  266 267	 1492767112	 696101528	 271440.
09:31:52  267 268	 1492767112	 967513838	 271413.
09:31:53  268 269	 1492767113	 238661955	 271148.
09:31:53  269 270	 1492767113	 514553188	 275891.
09:31:53  270 271	 1492767113	 786577310	 272024.
09:31:54  271 272	 1492767114	 9138577	 222561.
09:31:54  272 273	 1492767114	 284951711	 275813.
09:31:54  273 274	 1492767114	 556355418	 271404.
09:31:54  274 275	 1492767114	 827931592	 271576.
09:31:55  275 276	 1492767115	 103828251	 275897.
09:31:55  276 277	 1492767115	 375166048	 271338.
09:31:55  277 278	 1492767115	 651302894	 276137.
09:31:55  278 279	 1492767115	 874077488	 222774.
09:31:56  279 280	 1492767116	 145533913	 271457.
09:31:56  280 281	 1492767116	 421307071	 275773.
09:31:56  281 282	 1492767116	 693194313	 271887.
09:31:56  282 283	 1492767116	 964893260	 271699.
09:31:57  283 284	 1492767117	 191137133	 226244.
09:31:57  284 285	 1492767117	 462546740	 271410.
09:31:57  285 286	 1492767117	 733654508	 271107.
09:31:58  286 287	 1492767118	 8805763	 275152.
09:31:58  287 288	 1492767118	 280438298	 271632.
09:31:58  288 289	 1492767118	 556298526	 275860.
09:31:58  289 290	 1492767118	 828224604	 271926.
09:31:59  290 291	 1492767119	 100401256	 272177.
09:31:59  291 292	 1492767119	 376407937	 276007.
09:31:59  292 293	 1492767119	 648010550	 271602.
09:31:59  293 294	 1492767119	 919270094	 271260.
09:32:00  294 295	 1492767120	 190599825	 271330.
09:32:00  295 296	 1492767120	 461986984	 271387.
09:32:00  296 297	 1492767120	 736940997	 274954.
09:32:00  297 298	 1492767120	 958821325	 221880.
09:32:01  298 299	 1492767121	 229856507	 271035.
09:32:01  299 300	 1492767121	 500900917	 271045.
09:32:01  300 301	 1492767121	 772083294	 271182.
09:32:02  301 302	 1492767122	 47279989	 275197.
09:32:02  302 303	 1492767122	 318477253	 271197.
09:32:02  303 304	 1492767122	 589680029	 271203.
09:32:02  304 305	 1492767122	 864914553	 275234.
09:32:03  305 306	 1492767123	 136212077	 271298.
09:32:03  306 307	 1492767123	 407237965	 271026.
09:32:03  307 308	 1492767123	 629415210	 222177.
09:32:03  308 309	 1492767123	 900563010	 271148.
09:32:04  309 310	 1492767124	 171784401	 271221.
09:32:04  310 311	 1492767124	 443307091	 271523.
09:32:04  311 312	 1492767124	 718535484	 275228.
09:32:04  312 313	 1492767124	 989662348	 271127.
09:32:05  313 314	 1492767125	 260947390	 271285.
09:32:05  314 315	 1492767125	 536375654	 275429.
09:32:05  315 316	 1492767125	 807751741	 271376.
09:32:06  316 317	 1492767126	 79004251	 271252.
09:32:06  317 318	 1492767126	 354302234	 275298.
09:32:06  318 319	 1492767126	 572771081	 218469.
09:32:06  319 320	 1492767126	 848172632	 275401.
09:32:07  320 321	 1492767127	 119189623	 271017.
09:32:07  321 322	 1492767127	 390077507	 270888.
09:32:07  322 323	 1492767127	 665107602	 275030.
09:32:07  323 324	 1492767127	 936279027	 271172.
09:32:08  324 325	 1492767128	 207693869	 271415.
09:32:08  325 326	 1492767128	 429731714	 222037.
09:32:08  326 327	 1492767128	 700990108	 271259.
09:32:08  327 328	 1492767128	 975971130	 274981.
09:32:09  328 329	 1492767129	 246695574	 270724.
09:32:09  329 330	 1492767129	 517730452	 271035.
09:32:09  330 331	 1492767129	 788812083	 271082.
09:32:10  331 332	 1492767130	 64074082	 275262.
09:32:10  332 333	 1492767130	 335094051	 271020.
09:32:10  333 334	 1492767130	 557234071	 222140.
09:32:10  334 335	 1492767130	 828095742	 270862.
09:32:11  335 336	 1492767131	 99276479	 271180.
09:32:11  336 337	 1492767131	 374709778	 275434.
09:32:11  337 338	 1492767131	 645996191	 271286.
09:32:11  338 339	 1492767131	 917485958	 271490.
09:32:12  339 340	 1492767132	 189252829	 271767.
09:32:12  340 341	 1492767132	 465148972	 275896.
09:32:12  341 342	 1492767132	 736923877	 271775.
09:32:13  342 343	 1492767133	 8437002	 271513.
09:32:13  343 344	 1492767133	 284058873	 275622.
09:32:13  344 345	 1492767133	 555589013	 271530.
09:32:13  345 346	 1492767133	 827069394	 271480.
09:32:14  346 347	 1492767134	 98441790	 271373.
09:32:14  347 348	 1492767134	 370003671	 271562.
09:32:14  348 349	 1492767134	 645063629	 275059.
09:32:14  349 350	 1492767134	 916224112	 271161.
09:32:15  350 351	 1492767135	 138758743	 222535.
09:32:15  351 352	 1492767135	 414751767	 275992.
09:32:15  352 353	 1492767135	 687479825	 272729.
09:32:15  353 354	 1492767135	 963398511	 275918.
09:32:16  354 355	 1492767136	 235170548	 271772.
09:32:16  355 356	 1492767136	 507587410	 272417.
09:32:16  356 357	 1492767136	 783373338	 275786.
09:32:17  357 358	 1492767137	 54499247	 271126.
09:32:17  358 359	 1492767137	 276901976	 222403.
09:32:17  359 360	 1492767137	 552890992	 275989.
09:32:17  360 361	 1492767137	 828944669	 276053.
09:32:18  361 362	 1492767138	 100803437	 271859.
09:32:18  362 363	 1492767138	 376541362	 275738.
09:32:18  363 364	 1492767138	 648295569	 271754.
09:32:18  364 365	 1492767138	 871185534	 222890.
09:32:19  365 366	 1492767139	 147039555	 275854.
09:32:19  366 367	 1492767139	 419049314	 272010.
09:32:19  367 368	 1492767139	 694849241	 275800.
09:32:19  368 369	 1492767139	 966704811	 271856.
09:32:20  369 370	 1492767140	 238599270	 271894.
09:32:20  370 371	 1492767140	 514789340	 276190.
09:32:20  371 372	 1492767140	 737646471	 222857.
09:32:21  372 373	 1492767141	 13822213	 276176.
09:32:21  373 374	 1492767141	 286212019	 272390.
09:32:21  374 375	 1492767141	 561659122	 275447.
09:32:21  375 376	 1492767141	 833139839	 271481.
09:32:22  376 377	 1492767142	 108958611	 275818.
09:32:22  377 378	 1492767142	 331600518	 222642.
09:32:22  378 379	 1492767142	 603440525	 271840.
09:32:22  379 380	 1492767142	 875337619	 271897.
09:32:23  380 381	 1492767143	 151678679	 276341.
09:32:23  381 382	 1492767143	 423776773	 272099.
09:32:23  382 383	 1492767143	 700108486	 276331.
09:32:23  383 384	 1492767143	 972127939	 272020.
09:32:24  384 385	 1492767144	 198818212	 226690.
09:32:24  385 386	 1492767144	 470517985	 271700.
09:32:24  386 387	 1492767144	 746169386	 275651.
09:32:25  387 388	 1492767145	 18287187	 272118.
09:32:25  388 389	 1492767145	 294527515	 276240.
09:32:25  389 390	 1492767145	 567030075	 272503.
09:32:25  390 391	 1492767145	 843470035	 276440.
09:32:26  391 392	 1492767146	 115552530	 272082.
09:32:26  392 393	 1492767146	 391415137	 275863.
09:32:26  393 394	 1492767146	 613704664	 222289.
09:32:26  394 395	 1492767146	 885035154	 271331.
09:32:27  395 396	 1492767147	 160815017	 275780.
09:32:27  396 397	 1492767147	 432834908	 272020.
09:32:27  397 398	 1492767147	 708267472	 275432.
09:32:27  398 399	 1492767147	 931054265	 222787.
09:32:28  399 400	 1492767148	 202686013	 271632.
09:32:28  400 401	 1492767148	 478628236	 275942.
09:32:28  401 402	 1492767148	 750419044	 271791.
09:32:29  402 403	 1492767149	 26869654	 276450.
09:32:29  403 404	 1492767149	 299020772	 272152.
09:32:29  404 405	 1492767149	 575583904	 276563.
09:32:29  405 406	 1492767149	 847631603	 272047.
09:32:30  406 407	 1492767150	 123235803	 275605.
09:32:30  407 408	 1492767150	 394309671	 271073.
09:32:30  408 409	 1492767150	 665596767	 271288.
09:32:30  409 410	 1492767150	 887572354	 221975.
09:32:31  410 411	 1492767151	 158401058	 270829.
09:32:31  411 412	 1492767151	 429372719	 270971.
09:32:31  412 413	 1492767151	 704246808	 274875.
09:32:31  413 414	 1492767151	 974814822	 270568.
09:32:32  414 415	 1492767152	 196498302	 221683.
09:32:32  415 416	 1492767152	 467473841	 270976.
09:32:32  416 417	 1492767152	 743334120	 275860.
09:32:33  417 418	 1492767153	 14814277	 271480.
09:32:33  418 419	 1492767153	 290427455	 275613.
09:32:33  419 420	 1492767153	 561918794	 271492.
09:32:33  420 421	 1492767153	 784208615	 222289.
09:32:34  421 422	 1492767154	 59683920	 275476.
09:32:34  422 423	 1492767154	 330595326	 270911.
09:32:34  423 424	 1492767154	 601566430	 270971.
09:32:34  424 425	 1492767154	 876902862	 275337.
09:32:35  425 426	 1492767155	 95112388	 218209.
09:32:35  426 427	 1492767155	 370643629	 275531.
09:32:35  427 428	 1492767155	 642688911	 272046.
09:32:35  428 429	 1492767155	 918485161	 275796.
09:32:36  429 430	 1492767156	 190432798	 271948.
09:32:36  430 431	 1492767156	 466204145	 275771.
09:32:36  431 432	 1492767156	 737596406	 271392.
09:32:37  432 433	 1492767157	 12927512	 275331.
09:32:37  433 434	 1492767157	 235214290	 222287.
09:32:37  434 435	 1492767157	 510528357	 275314.
09:32:37  435 436	 1492767157	 781767162	 271239.
09:32:38  436 437	 1492767158	 53091011	 271324.
09:32:38  437 438	 1492767158	 324160549	 271069.
09:32:38  438 439	 1492767158	 599692303	 275532.
09:32:38  439 440	 1492767158	 817889007	 218197.
09:32:39  440 441	 1492767159	 93409111	 275520.
09:32:39  441 442	 1492767159	 369258036	 275849.
09:32:39  442 443	 1492767159	 641268124	 272010.
09:32:39  443 444	 1492767159	 913231172	 271963.
09:32:40  444 445	 1492767160	 188981111	 275750.
09:32:40  445 446	 1492767160	 464549075	 275568.
09:32:40  446 447	 1492767160	 682854009	 218305.
09:32:40  447 448	 1492767160	 959066832	 276213.
09:32:41  448 449	 1492767161	 230814140	 271747.
09:32:41  449 450	 1492767161	 502501181	 271687.
09:32:41  450 451	 1492767161	 778076871	 275576.
09:32:42  451 452	 1492767162	 49692029	 271615.
09:32:42  452 453	 1492767162	 325878543	 276186.
09:32:42  453 454	 1492767162	 598091934	 272214.
09:32:42  454 455	 1492767162	 874087474	 275995.
09:32:43  455 456	 1492767163	 149252400	 275165.
09:32:43  456 457	 1492767163	 371721131	 222469.
09:32:43  457 458	 1492767163	 647377370	 275656.
09:32:43  458 459	 1492767163	 918671310	 271294.
09:32:44  459 460	 1492767164	 194325510	 275654.
09:32:44  460 461	 1492767164	 469866291	 275541.
09:32:44  461 462	 1492767164	 692029314	 222163.
09:32:44  462 463	 1492767164	 963732727	 271703.
09:32:45  463 464	 1492767165	 239197746	 275466.
09:32:45  464 465	 1492767165	 510627015	 271429.
09:32:45  465 466	 1492767165	 781909767	 271283.
09:32:46  466 467	 1492767166	 53452092	 271542.
09:32:46  467 468	 1492767166	 328634963	 275183.
09:32:46  468 469	 1492767166	 547121829	 218487.
09:32:46  469 470	 1492767166	 822281340	 275159.
09:32:47  470 471	 1492767167	 93816553	 271535.
09:32:47  471 472	 1492767167	 369361592	 275545.
09:32:47  472 473	 1492767167	 640970076	 271609.
09:32:47  473 474	 1492767167	 863400602	 222430.
09:32:48  474 475	 1492767168	 138962081	 275562.
09:32:48  475 476	 1492767168	 410440631	 271478.
09:32:48  476 477	 1492767168	 685883254	 275443.
09:32:48  477 478	 1492767168	 908625920	 222743.
09:32:49  478 479	 1492767169	 179958061	 271332.
09:32:49  479 480	 1492767169	 455536423	 275578.
09:32:49  480 481	 1492767169	 731549487	 276013.
09:32:50  481 482	 1492767170	 59945244	 328396.
09:32:50  482 483	 1492767170	 332200841	 272256.
09:32:50  483 484	 1492767170	 603751404	 271550.
09:32:50  484 485	 1492767170	 879052525	 275301.
09:32:51  485 486	 1492767171	 102013224	 222961.
09:32:51  486 487	 1492767171	 373708874	 271696.
09:32:51  487 488	 1492767171	 649666733	 275957.
09:32:51  488 489	 1492767171	 921116944	 271451.
09:32:52  489 490	 1492767172	 196936239	 275819.
09:32:52  490 491	 1492767172	 415607087	 218671.
09:32:52  491 492	 1492767172	 691756078	 276149.
09:32:52  492 493	 1492767172	 963666098	 271910.
09:32:53  493 494	 1492767173	 239739080	 276073.
09:32:53  494 495	 1492767173	 512600105	 272861.
09:32:53  495 496	 1492767173	 788238736	 275639.
09:32:54  496 497	 1492767174	 60686441	 272447.
09:32:54  497 498	 1492767174	 336553479	 275867.
09:32:54  498 499	 1492767174	 559314720	 222761.
09:32:54  499 500	 1492767174	 830901997	 271588.
09:32:55  500 501	 1492767175	 106698003	 275796.
09:32:55  501 502	 1492767175	 378236671	 271538.
09:32:55  502 503	 1492767175	 654339845	 276104.
09:32:55  503 504	 1492767175	 926267200	 271927.
09:32:56  504 505	 1492767176	 202165212	 275898.
09:32:56  505 506	 1492767176	 424799965	 222635.
09:32:56  506 507	 1492767176	 696945712	 272146.
09:32:56  507 508	 1492767176	 972622533	 275676.
09:32:57  508 509	 1492767177	 244539135	 271917.
09:32:57  509 510	 1492767177	 520650251	 276111.
09:32:57  510 511	 1492767177	 792894114	 272244.
09:32:58  511 512	 1492767178	 68316273	 275422.
09:32:58  512 513	 1492767178	 290643851	 222328.
09:32:58  513 514	 1492767178	 566331824	 275688.
09:32:58  514 515	 1492767178	 837685560	 271353.
09:32:59  515 516	 1492767179	 113275181	 275590.
09:32:59  516 517	 1492767179	 335731787	 222457.
09:32:59  517 518	 1492767179	 607915410	 272183.
09:32:59  518 519	 1492767179	 884305047	 276390.
09:33:00  519 520	 1492767180	 155483126	 271178.
09:33:00  520 521	 1492767180	 426257521	 270774.
09:33:00  521 522	 1492767180	 701478512	 275221.
09:33:00  522 523	 1492767180	 972707701	 271229.
09:33:01  523 524	 1492767181	 194976416	 222269.
09:33:01  524 525	 1492767181	 466363740	 271388.
09:33:01  525 526	 1492767181	 741618900	 275255.
09:33:02  526 527	 1492767182	 12650786	 271032.
09:33:02  527 528	 1492767182	 283802085	 271151.
09:33:02  528 529	 1492767182	 558695102	 274893.
09:33:02  529 530	 1492767182	 830138091	 271443.
09:33:03  530 531	 1492767183	 101578083	 271440.
09:33:03  531 532	 1492767183	 323758202	 222180.
09:33:03  532 533	 1492767183	 595346882	 271589.
09:33:03  533 534	 1492767183	 870681328	 275334.
09:33:04  534 535	 1492767184	 141775472	 271094.
09:33:04  535 536	 1492767184	 412741613	 270966.
09:33:04  536 537	 1492767184	 688021730	 275281.
09:33:04  537 538	 1492767184	 959365613	 271343.
09:33:05  538 539	 1492767185	 230522208	 271157.
09:33:05  539 540	 1492767185	 505539700	 275017.
09:33:05  540 541	 1492767185	 723435235	 217896.
09:33:05  541 542	 1492767185	 998576609	 275141.
09:33:06  542 543	 1492767186	 270113109	 271537.
09:33:06  543 544	 1492767186	 545940631	 275827.
09:33:06  544 545	 1492767186	 817740018	 271800.
09:33:07  545 546	 1492767187	 93211613	 275471.
09:33:07  546 547	 1492767187	 364966978	 271756.
09:33:07  547 548	 1492767187	 641873748	 276907.
09:33:07  548 549	 1492767187	 897660799	 255787.
09:33:08  549 550	 1492767188	 172980087	 275319.
09:33:08  550 551	 1492767188	 443821812	 270842.
09:33:08  551 552	 1492767188	 665791561	 221969.
09:33:08  552 553	 1492767188	 936497109	 270706.
09:33:09  553 554	 1492767189	 207512147	 271015.
09:33:09  554 555	 1492767189	 483072295	 275560.
09:33:09  555 556	 1492767189	 754485909	 271414.
09:33:10  556 557	 1492767190	 26091631	 271605.
09:33:10  557 558	 1492767190	 301570684	 275479.
09:33:10  558 559	 1492767190	 572749956	 271180.
09:33:10  559 560	 1492767190	 848544478	 275794.
09:33:11  560 561	 1492767191	 70925604	 222381.
09:33:11  561 562	 1492767191	 342647455	 271722.
09:33:11  562 563	 1492767191	 614498517	 271851.
09:33:11  563 564	 1492767191	 890445209	 275947.
09:33:12  564 565	 1492767192	 161867831	 271423.
09:33:12  565 566	 1492767192	 432807554	 270939.
09:33:12  566 567	 1492767192	 707999287	 275192.
09:33:12  567 568	 1492767192	 930364986	 222366.
09:33:13  568 569	 1492767193	 201390006	 271025.
09:33:13  569 570	 1492767193	 477104476	 275714.
09:33:13  570 571	 1492767193	 748833483	 271729.
09:33:14  571 572	 1492767194	 24524225	 275691.
09:33:14  572 573	 1492767194	 295974009	 271450.
09:33:14  573 574	 1492767194	 518612636	 222638.
09:33:14  574 575	 1492767194	 790011709	 271399.
09:33:15  575 576	 1492767195	 65185019	 275174.
09:33:15  576 577	 1492767195	 336505975	 271321.
09:33:15  577 578	 1492767195	 608424638	 271919.
09:33:15  578 579	 1492767195	 884002679	 275577.
09:33:16  579 580	 1492767196	 155904821	 271903.
09:33:16  580 581	 1492767196	 378971067	 223066.
09:33:16  581 582	 1492767196	 655013245	 276042.
09:33:16  582 583	 1492767196	 926863270	 271850.
09:33:17  583 584	 1492767197	 202634852	 275772.
09:33:17  584 585	 1492767197	 474070697	 271435.
09:33:17  585 586	 1492767197	 749980922	 275911.
09:33:17  586 587	 1492767197	 972724596	 222743.
09:33:18  587 588	 1492767198	 244470479	 271746.
09:33:18  588 589	 1492767198	 520731097	 276261.
09:33:18  589 590	 1492767198	 792526893	 271796.
09:33:19  590 591	 1492767199	 68419779	 275893.
09:33:19  591 592	 1492767199	 340562696	 272142.
09:33:19  592 593	 1492767199	 616816878	 276255.
09:33:19  593 594	 1492767199	 839363791	 222547.
09:33:20  594 595	 1492767200	 110636790	 271273.
09:33:20  595 596	 1492767200	 386038308	 275401.
09:33:20  596 597	 1492767200	 658069279	 272031.
09:33:20  597 598	 1492767200	 929730880	 271662.
09:33:21  598 599	 1492767201	 205967408	 276236.
09:33:21  599 600	 1492767201	 482182797	 276216.
09:33:21  600 601	 1492767201	 705313667	 223130.
09:33:21  601 602	 1492767201	 977287733	 271975.
09:33:22  602 603	 1492767202	 253091380	 275803.
09:33:22  603 604	 1492767202	 528559448	 275468.
09:33:22  604 605	 1492767202	 799949159	 271390.
09:33:23  605 606	 1492767203	 22209274	 222260.
09:33:23  606 607	 1492767203	 297736317	 275527.
09:33:23  607 608	 1492767203	 568854027	 271118.
09:33:23  608 609	 1492767203	 839628786	 270775.
09:33:24  609 610	 1492767204	 115725761	 276097.
09:33:24  610 611	 1492767204	 338472373	 222746.
09:33:24  611 612	 1492767204	 614314046	 275842.
09:33:24  612 613	 1492767204	 885995061	 271681.
09:33:25  613 614	 1492767205	 162001772	 276007.
09:33:25  614 615	 1492767205	 434100858	 272099.
09:33:25  615 616	 1492767205	 656948468	 222847.
09:33:25  616 617	 1492767205	 932970870	 276023.
09:33:26  617 618	 1492767206	 261994664	 329023.
09:33:26  618 619	 1492767206	 592044907	 330051.
09:33:26  619 620	 1492767206	 863573311	 271528.
09:33:27  620 621	 1492767207	 139062999	 275490.
09:33:27  621 622	 1492767207	 410932722	 271870.
09:33:27  622 623	 1492767207	 634016454	 223083.
09:33:27  623 624	 1492767207	 910292940	 276277.
09:33:28  624 625	 1492767208	 182502687	 272209.
09:33:28  625 626	 1492767208	 458768998	 276267.
09:33:28  626 627	 1492767208	 730775605	 272006.
09:33:29  627 628	 1492767209	 7136041	 276361.
09:33:29  628 629	 1492767209	 279113617	 271977.
09:33:29  629 630	 1492767209	 555097391	 275984.
09:33:29  630 631	 1492767209	 826928894	 271832.
09:33:30  631 632	 1492767210	 49550775	 222622.
09:33:30  632 633	 1492767210	 321406585	 271855.
09:33:30  633 634	 1492767210	 597200518	 275794.
09:33:30  634 635	 1492767210	 869084566	 271884.
09:33:31  635 636	 1492767211	 145308463	 276224.
09:33:31  636 637	 1492767211	 421548000	 276240.
09:33:31  637 638	 1492767211	 644593679	 223045.
09:33:31  638 639	 1492767211	 917018208	 272425.
09:33:32  639 640	 1492767212	 192709960	 275692.
09:33:32  640 641	 1492767212	 464289067	 271579.
09:33:32  641 642	 1492767212	 739637293	 275348.
09:33:33  642 643	 1492767213	 14941010	 275304.
09:33:33  643 644	 1492767213	 236911316	 221970.
09:33:33  644 645	 1492767213	 508690266	 271779.
09:33:33  645 646	 1492767213	 784646354	 275956.
09:33:34  646 647	 1492767214	 56608632	 271963.
09:33:34  647 648	 1492767214	 332526770	 275918.
09:33:34  648 649	 1492767214	 555338447	 222811.
09:33:34  649 650	 1492767214	 881016431	 325678.
09:33:35  650 651	 1492767215	 103730115	 222714.
09:33:35  651 652	 1492767215	 375585666	 271855.
09:33:35  652 653	 1492767215	 651647905	 276063.
09:33:35  653 654	 1492767215	 923830405	 272182.
09:33:36  654 655	 1492767216	 200116130	 276286.
09:33:36  655 656	 1492767216	 471943940	 271828.
09:33:36  656 657	 1492767216	 747729208	 275785.
09:33:36  657 658	 1492767216	 970417226	 222688.
09:33:37  658 659	 1492767217	 246066980	 275650.
09:33:37  659 660	 1492767217	 521630039	 275563.
09:33:37  660 661	 1492767217	 793506791	 271877.
09:33:38  661 662	 1492767218	 69071028	 275564.
09:33:38  662 663	 1492767218	 291819392	 222748.
09:33:38  663 664	 1492767218	 564021201	 272202.
09:33:38  664 665	 1492767218	 840227701	 276206.
09:33:39  665 666	 1492767219	 112056020	 271829.
09:33:39  666 667	 1492767219	 387709968	 275654.
09:33:39  667 668	 1492767219	 659861748	 272152.
09:33:39  668 669	 1492767219	 882430498	 222568.
09:33:40  669 670	 1492767220	 158111294	 275681.
09:33:40  670 671	 1492767220	 429698932	 271588.
09:33:40  671 672	 1492767220	 705740469	 276041.
09:33:40  672 673	 1492767220	 977756468	 272016.
09:33:41  673 674	 1492767221	 253875992	 276120.
09:33:41  674 675	 1492767221	 526008209	 272132.
09:33:41  675 676	 1492767221	 748494289	 222486.
09:33:42  676 677	 1492767222	 24129064	 275635.
09:33:42  677 678	 1492767222	 296304576	 272175.
09:33:42  678 679	 1492767222	 568077401	 271773.
09:33:42  679 680	 1492767222	 843679049	 275602.
09:33:43  680 681	 1492767223	 66046118	 222367.
09:33:43  681 682	 1492767223	 341256383	 275210.
09:33:43  682 683	 1492767223	 612682215	 271426.
09:33:43  683 684	 1492767223	 887787285	 275105.
09:33:44  684 685	 1492767224	 159881749	 272095.
09:33:44  685 686	 1492767224	 431750756	 271869.
09:33:44  686 687	 1492767224	 707881905	 276131.
09:33:44  687 688	 1492767224	 931040529	 223158.
09:33:45  688 689	 1492767225	 202996608	 271956.
09:33:45  689 690	 1492767225	 478789239	 275793.
09:33:45  690 691	 1492767225	 754893309	 276104.
09:33:46  691 692	 1492767226	 26961769	 272068.
09:33:46  692 693	 1492767226	 302700249	 275739.
09:33:46  693 694	 1492767226	 575164196	 272464.
09:33:46  694 695	 1492767226	 797684570	 222520.
09:33:47  695 696	 1492767227	 69045994	 271362.
09:33:47  696 697	 1492767227	 344783310	 275737.
09:33:47  697 698	 1492767227	 620793460	 276010.
09:33:47  698 699	 1492767227	 839379242	 218586.
09:33:48  699 700	 1492767228	 114930270	 275551.
09:33:48  700 701	 1492767228	 391006471	 276076.
09:33:48  701 702	 1492767228	 667016130	 276010.
09:33:48  702 703	 1492767228	 943088683	 276072.
09:33:49  703 704	 1492767229	 214855422	 271767.
09:33:49  704 705	 1492767229	 491076094	 276221.
09:33:49  705 706	 1492767229	 713726631	 222650.
09:33:49  706 707	 1492767229	 989926252	 276200.
09:33:50  707 708	 1492767230	 261896359	 271970.
09:33:50  708 709	 1492767230	 537382825	 275487.
09:33:50  709 710	 1492767230	 809795585	 272412.
09:33:51  710 711	 1492767231	 86123842	 276329.
09:33:51  711 712	 1492767231	 358285729	 272162.
09:33:51  712 713	 1492767231	 634854875	 276569.
09:33:51  713 714	 1492767231	 857461148	 222606.
09:33:52  714 715	 1492767232	 133574396	 276113.
09:33:52  715 716	 1492767232	 405505791	 271932.
09:33:52  716 717	 1492767232	 680950526	 275444.
09:33:52  717 718	 1492767232	 903395879	 222446.
09:33:53  718 719	 1492767233	 174557600	 271161.
09:33:53  719 720	 1492767233	 450361735	 275805.
09:33:53  720 721	 1492767233	 722338083	 271976.
09:33:53  721 722	 1492767233	 997981699	 275643.
09:33:54  722 723	 1492767234	 268982968	 271002.
09:33:54  723 724	 1492767234	 544335396	 275352.
09:33:54  724 725	 1492767234	 762427012	 218092.
09:33:55  725 726	 1492767235	 37842457	 275415.
09:33:55  726 727	 1492767235	 308882248	 271040.
09:33:55  727 728	 1492767235	 584523125	 275641.
09:33:55  728 729	 1492767235	 856457439	 271934.
09:33:56  729 730	 1492767236	 127873613	 271416.
09:33:56  730 731	 1492767236	 399265137	 271392.
09:33:56  731 732	 1492767236	 674827853	 275563.
09:33:56  732 733	 1492767236	 897427279	 222599.
09:33:57  733 734	 1492767237	 168509279	 271082.
09:33:57  734 735	 1492767237	 444177339	 275668.
09:33:57  735 736	 1492767237	 715453025	 271276.
09:33:57  736 737	 1492767237	 990786867	 275334.
09:33:58  737 738	 1492767238	 213353420	 222566.
09:33:58  738 739	 1492767238	 485082788	 271729.
09:33:58  739 740	 1492767238	 760363174	 275281.
09:33:59  740 741	 1492767239	 31497871	 271135.
09:33:59  741 742	 1492767239	 303009510	 271511.
09:33:59  742 743	 1492767239	 529686183	 226677.
09:33:59  743 744	 1492767239	 801565053	 271879.
09:34:00  744 745	 1492767240	 72772582	 271207.
09:34:00  745 746	 1492767240	 348568458	 275796.
09:34:00  746 747	 1492767240	 620401274	 271833.
09:34:00  747 748	 1492767240	 891542472	 271141.
09:34:01  748 749	 1492767241	 166681911	 275140.
09:34:01  749 750	 1492767241	 437917555	 271235.
09:34:01  750 751	 1492767241	 660208303	 222291.
09:34:01  751 752	 1492767241	 931108927	 270901.
09:34:02  752 753	 1492767242	 202194221	 271085.
09:34:02  753 754	 1492767242	 472987417	 270793.
09:34:02  754 755	 1492767242	 747990752	 275004.
09:34:03  755 756	 1492767243	 18891579	 270900.
09:34:03  756 757	 1492767243	 241028383	 222137.
09:34:03  757 758	 1492767243	 512296096	 271268.
09:34:03  758 759	 1492767243	 787703114	 275407.
09:34:04  759 760	 1492767244	 58866229	 271163.
09:34:04  760 761	 1492767244	 334026004	 275160.
09:34:04  761 762	 1492767244	 605084008	 271058.
09:34:04  762 763	 1492767244	 875979855	 270896.
09:34:05  763 764	 1492767245	 98139182	 222159.
09:34:05  764 765	 1492767245	 369122249	 270983.
09:34:05  765 766	 1492767245	 640293604	 271171.
09:34:05  766 767	 1492767245	 916100736	 275808.
09:34:06  767 768	 1492767246	 188119372	 272018.
09:34:06  768 769	 1492767246	 464409704	 276290.
09:34:06  769 770	 1492767246	 736588669	 272179.
09:34:07  770 771	 1492767247	 12760020	 276172.
09:34:07  771 772	 1492767247	 288593249	 275833.
09:34:07  772 773	 1492767247	 560572832	 271980.
09:34:07  773 774	 1492767247	 782864881	 222292.
09:34:08  774 775	 1492767248	 59207041	 276342.
09:34:08  775 776	 1492767248	 331452341	 272245.
09:34:08  776 777	 1492767248	 607585513	 276133.
09:34:08  777 778	 1492767248	 879728023	 272143.
09:34:09  778 779	 1492767249	 150818195	 271090.
09:34:09  779 780	 1492767249	 423234572	 272416.
09:34:09  780 781	 1492767249	 698714859	 275481.
09:34:09  781 782	 1492767249	 974378417	 275663.
09:34:10  782 783	 1492767250	 192758766	 218381.
09:34:10  783 784	 1492767250	 469069422	 276310.
09:34:10  784 785	 1492767250	 745253499	 276184.
09:34:11  785 786	 1492767251	 17638434	 272385.
09:34:11  786 787	 1492767251	 293958386	 276320.
09:34:11  787 788	 1492767251	 566256377	 272298.
09:34:11  788 789	 1492767251	 838485816	 272230.
09:34:12  789 790	 1492767252	 114806257	 276320.
09:34:12  790 791	 1492767252	 390761980	 275956.
09:34:12  791 792	 1492767252	 662671157	 271909.
09:34:12  792 793	 1492767252	 885256974	 222586.
09:34:13  793 794	 1492767253	 161651047	 276394.
09:34:13  794 795	 1492767253	 433724852	 272074.
09:34:13  795 796	 1492767253	 710135931	 276411.
09:34:13  796 797	 1492767253	 982158750	 272023.
09:34:14  797 798	 1492767254	 258292756	 276134.
09:34:14  798 799	 1492767254	 529796879	 271504.
09:34:14  799 800	 1492767254	 800855883	 271059.
09:34:15  800 801	 1492767255	 23205770	 222350.
09:34:15  801 802	 1492767255	 294412273	 271206.
09:34:15  802 803	 1492767255	 565488658	 271076.
09:34:15  803 804	 1492767255	 840593100	 275105.
09:34:16  804 805	 1492767256	 112015209	 271422.
09:34:16  805 806	 1492767256	 382509536	 270494.
09:34:16  806 807	 1492767256	 608339620	 225830.
09:34:16  807 808	 1492767256	 878970183	 270631.
09:34:17  808 809	 1492767257	 149370381	 270400.
09:34:17  809 810	 1492767257	 419990718	 270621.
09:34:17  810 811	 1492767257	 642673585	 222682.
09:34:17  811 812	 1492767257	 913710075	 271037.
09:34:18  812 813	 1492767258	 188303369	 274593.
09:34:18  813 814	 1492767258	 458996953	 270694.
09:34:18  814 815	 1492767258	 730095334	 271098.
09:34:18  815 816	 1492767258	 952455725	 222361.
09:34:19  816 817	 1492767259	 223522106	 271066.
09:34:19  817 818	 1492767259	 498779826	 275258.
09:34:19  818 819	 1492767259	 769947816	 271168.
09:34:20  819 820	 1492767260	 41040175	 271092.
09:34:20  820 821	 1492767260	 315978202	 274938.
09:34:20  821 822	 1492767260	 587507181	 271529.
09:34:20  822 823	 1492767260	 863235360	 275728.
09:34:21  823 824	 1492767261	 81279100	 218044.
09:34:21  824 825	 1492767261	 356942237	 275663.
09:34:21  825 826	 1492767261	 628240658	 271298.
09:34:21  826 827	 1492767261	 899355143	 271115.
09:34:22  827 828	 1492767262	 175010446	 275655.
09:34:22  828 829	 1492767262	 446421309	 271411.
09:34:22  829 830	 1492767262	 669759007	 223338.
09:34:22  830 831	 1492767262	 995540088	 325781.
09:34:23  831 832	 1492767263	 218366657	 222826.
09:34:23  832 833	 1492767263	 494201197	 275835.
09:34:23  833 834	 1492767263	 766421126	 272220.
09:34:24  834 835	 1492767264	 42217610	 275796.
09:34:24  835 836	 1492767264	 314180857	 271964.
09:34:24  836 837	 1492767264	 590282927	 276102.
09:34:24  837 838	 1492767264	 813408771	 223125.
09:34:25  838 839	 1492767265	 84814615	 271406.
09:34:25  839 840	 1492767265	 360560507	 275746.
09:34:25  840 841	 1492767265	 632579314	 272019.
09:34:25  841 842	 1492767265	 908598503	 276019.
09:34:26  842 843	 1492767266	 131563096	 222965.
09:34:26  843 844	 1492767266	 403086190	 271523.
09:34:26  844 845	 1492767266	 678697416	 275611.
09:34:26  845 846	 1492767266	 950018364	 271321.
09:34:27  846 847	 1492767267	 226018069	 276000.
09:34:27  847 848	 1492767267	 497740298	 271722.
09:34:27  848 849	 1492767267	 720909469	 223169.
09:34:27  849 850	 1492767267	 996889013	 275980.
09:34:28  850 851	 1492767268	 269171716	 272283.
09:34:28  851 852	 1492767268	 544713227	 275541.
09:34:28  852 853	 1492767268	 816493001	 271780.
09:34:29  853 854	 1492767269	 93034350	 276541.
09:34:29  854 855	 1492767269	 364819479	 271785.
09:34:29  855 856	 1492767269	 587800038	 222981.
09:34:29  856 857	 1492767269	 859469344	 271669.
09:34:30  857 858	 1492767270	 135500400	 276031.
09:34:30  858 859	 1492767270	 407329151	 271829.
09:34:30  859 860	 1492767270	 683340271	 276011.
09:34:30  860 861	 1492767270	 959741705	 276401.
09:34:31  861 862	 1492767271	 231527216	 271786.
09:34:31  862 863	 1492767271	 454392283	 222865.
09:34:31  863 864	 1492767271	 729977096	 275585.
09:34:31  864 865	 1492767272	 1767880	 271791.
09:34:32  865 866	 1492767272	 276904288	 275136.
09:34:32  866 867	 1492767272	 548732856	 271829.
09:34:32  867 868	 1492767272	 771247094	 222514.
09:34:33  868 869	 1492767273	 47352149	 276105.
09:34:33  869 870	 1492767273	 319296461	 271944.
09:34:33  870 871	 1492767273	 595321054	 276025.
09:34:33  871 872	 1492767273	 867566949	 272246.
09:34:34  872 873	 1492767274	 143955128	 276388.
09:34:34  873 874	 1492767274	 415735852	 271781.
09:34:34  874 875	 1492767274	 692077502	 276341.
09:34:34  875 876	 1492767274	 964327008	 272250.
09:34:35  876 877	 1492767275	 240777172	 276450.
09:34:35  877 878	 1492767275	 512955091	 272178.
09:34:35  878 879	 1492767275	 784321483	 271366.
09:34:36  879 880	 1492767276	 7071697	 222750.
09:34:36  880 881	 1492767276	 282993684	 275922.
09:34:36  881 882	 1492767276	 554436558	 271443.
09:34:36  882 883	 1492767276	 829855004	 275419.
09:34:37  883 884	 1492767277	 101129059	 271274.
09:34:37  884 885	 1492767277	 372548986	 271420.
09:34:37  885 886	 1492767277	 648871232	 276322.
09:34:37  886 887	 1492767277	 871673151	 222802.
09:34:38  887 888	 1492767278	 143700891	 272028.
09:34:38  888 889	 1492767278	 420009567	 276308.
09:34:38  889 890	 1492767278	 696039534	 276030.
09:34:38  890 891	 1492767278	 967731469	 271692.
09:34:39  891 892	 1492767279	 239663959	 271933.
09:34:39  892 893	 1492767279	 515608327	 275944.
09:34:39  893 894	 1492767279	 787490077	 271882.
09:34:40  894 895	 1492767280	 63368898	 275879.
09:34:40  895 896	 1492767280	 286211154	 222842.
09:34:40  896 897	 1492767280	 558027989	 271817.
09:34:40  897 898	 1492767280	 834026426	 275998.
09:34:41  898 899	 1492767281	 105685541	 271659.
09:34:41  899 900	 1492767281	 381647373	 275962.
09:34:41  900 901	 1492767281	 653721505	 272074.
09:34:41  901 902	 1492767281	 925152491	 271431.
09:34:42  902 903	 1492767282	 196152953	 271001.
09:34:42  903 904	 1492767282	 467887897	 271735.
09:34:42  904 905	 1492767282	 744284738	 276397.
09:34:42  905 906	 1492767282	 967044059	 222759.
09:34:43  906 907	 1492767283	 238759517	 271715.
09:34:43  907 908	 1492767283	 514340257	 275581.
09:34:43  908 909	 1492767283	 787712840	 273373.
09:34:44  909 910	 1492767284	 114534464	 326821.
09:34:44  910 911	 1492767284	 336796801	 222263.
09:34:44  911 912	 1492767284	 613413449	 276616.
09:34:44  912 913	 1492767284	 884994371	 271581.
09:34:45  913 914	 1492767285	 161976460	 276982.
09:34:45  914 915	 1492767285	 433952436	 271976.
09:34:45  915 916	 1492767285	 709693472	 275741.
09:34:45  916 917	 1492767285	 981688448	 271995.
09:34:46  917 918	 1492767286	 257197784	 275510.
09:34:46  918 919	 1492767286	 476217191	 219019.
09:34:46  919 920	 1492767286	 752172613	 275955.
09:34:47  920 921	 1492767287	 28247118	 276075.
09:34:47  921 922	 1492767287	 300072688	 271825.
09:34:47  922 923	 1492767287	 575812500	 275740.
09:34:47  923 924	 1492767287	 847532531	 271720.
09:34:48  924 925	 1492767288	 70089362	 222557.
09:34:48  925 926	 1492767288	 345676445	 275587.
09:34:48  926 927	 1492767288	 617503028	 271827.
09:34:48  927 928	 1492767288	 892967338	 275464.
09:34:49  928 929	 1492767289	 164677224	 271710.
09:34:49  929 930	 1492767289	 387574289	 222897.
09:34:49  930 931	 1492767289	 664002065	 276428.
09:34:49  931 932	 1492767289	 935880991	 271879.
09:34:50  932 933	 1492767290	 207360562	 271479.
09:34:50  933 934	 1492767290	 483080996	 275721.
09:34:50  934 935	 1492767290	 755061076	 271980.
09:34:50  935 936	 1492767290	 981846126	 226785.
09:34:51  936 937	 1492767291	 253381171	 271535.
09:34:51  937 938	 1492767291	 529170718	 275789.
09:34:51  938 939	 1492767291	 800669521	 271499.
09:34:52  939 940	 1492767292	 71744028	 271075.
09:34:52  940 941	 1492767292	 342916840	 271173.
09:34:52  941 942	 1492767292	 617999229	 275082.
09:34:52  942 943	 1492767292	 836208982	 218210.
09:34:53  943 944	 1492767293	 107245833	 271037.
09:34:53  944 945	 1492767293	 381890552	 274644.
09:34:53  945 946	 1492767293	 652833088	 270943.
09:34:53  946 947	 1492767293	 928077282	 275244.
09:34:54  947 948	 1492767294	 150121622	 222044.
09:34:54  948 949	 1492767294	 421670547	 271549.
09:34:54  949 950	 1492767294	 693631264	 271961.
09:34:54  950 951	 1492767294	 968928965	 275298.
09:34:55  951 952	 1492767295	 240338924	 271410.
09:34:55  952 953	 1492767295	 462588224	 222249.
09:34:55  953 954	 1492767295	 738570290	 275982.
09:34:56  954 955	 1492767296	 10166041	 271596.
09:34:56  955 956	 1492767296	 285545185	 275379.
09:34:56  956 957	 1492767296	 557369940	 271825.
09:34:56  957 958	 1492767296	 829065815	 271696.
09:34:57  958 959	 1492767297	 104599587	 275533.
09:34:57  959 960	 1492767297	 326642056	 222043.
09:34:57  960 961	 1492767297	 601674836	 275033.
09:34:57  961 962	 1492767297	 873286831	 271612.
09:34:58  962 963	 1492767298	 149282260	 275995.
09:34:58  963 964	 1492767298	 421373672	 272091.
09:34:58  964 965	 1492767298	 644174379	 222801.
09:34:58  965 966	 1492767298	 920454698	 276280.
09:34:59  966 967	 1492767299	 192479934	 272026.
09:34:59  967 968	 1492767299	 468195963	 275716.
09:34:59  968 969	 1492767299	 739928787	 271733.
09:35:00  969 970	 1492767300	 16185045	 276256.
09:35:00  970 971	 1492767300	 287823799	 271639.
09:35:00  971 972	 1492767300	 509948340	 222124.
09:35:00  972 973	 1492767300	 780463572	 270515.
09:35:01  973 974	 1492767301	 55214218	 274751.
09:35:01  974 975	 1492767301	 330161140	 274947.
09:35:01  975 976	 1492767301	 601390893	 271230.
09:35:01  976 977	 1492767301	 876804379	 275413.
09:35:02  977 978	 1492767302	 148108300	 271304.
09:35:02  978 979	 1492767302	 370316304	 222208.
09:35:02  979 980	 1492767302	 641282491	 270966.
09:35:02  980 981	 1492767302	 912438718	 271157.
09:35:03  981 982	 1492767303	 187755835	 275317.
09:35:03  982 983	 1492767303	 458951197	 271195.
09:35:03  983 984	 1492767303	 730290903	 271340.
09:35:03  984 985	 1492767304	 1787854	 271497.
09:35:04  985 986	 1492767304	 277606983	 275819.
09:35:04  986 987	 1492767304	 548980601	 271373.
09:35:04  987 988	 1492767304	 819990174	 271010.
09:35:05  988 989	 1492767305	 91388699	 271398.
09:35:05  989 990	 1492767305	 366727338	 275339.
09:35:05  990 991	 1492767305	 585143736	 218417.
09:35:05  991 992	 1492767305	 860400135	 275256.
09:35:06  992 993	 1492767306	 131662556	 271262.
09:35:06  993 994	 1492767306	 403125149	 271463.
09:35:06  994 995	 1492767306	 678708908	 275584.
09:35:06  995 996	 1492767306	 950196402	 271487.
09:35:07  996 997	 1492767307	 221990431	 271794.
09:35:07  997 998	 1492767307	 497547891	 275558.
09:35:07  998 999	 1492767307	 773146484	 275598.
09:35:08  999 1000	 1492767308	 44349731	 271204.
09:35:08 1000 1001	 1492767308	 266686306	 222336.
09:35:08 1001 1002	 1492767308	 542559471	 275873.
09:35:08 1002 1003	 1492767308	 814375082	 271816.
09:35:09 1003 1004	 1492767309	 86269318	 271894.
09:35:09 1004 1005	 1492767309	 362062979	 275794.
09:35:09 1005 1006	 1492767309	 633920725	 271858.
09:35:09 1006 1007	 1492767309	 909962762	 276042.
09:35:10 1007 1008	 1492767310	 181573145	 271610.
09:35:10 1008 1009	 1492767310	 453131627	 271558.
09:35:10 1009 1010	 1492767310	 675304447	 222173.
09:35:10 1010 1011	 1492767310	 946767279	 271463.
09:35:11 1011 1012	 1492767311	 217810924	 271044.
09:35:11 1012 1013	 1492767311	 489135201	 271324.
09:35:11 1013 1014	 1492767311	 764745958	 275611.
09:35:12 1014 1015	 1492767312	 35809975	 271064.
09:35:12 1015 1016	 1492767312	 307201446	 271391.
09:35:12 1016 1017	 1492767312	 582561397	 275360.
09:35:12 1017 1018	 1492767312	 853703326	 271142.
09:35:13 1018 1019	 1492767313	 125335406	 271632.
09:35:13 1019 1020	 1492767313	 396810935	 271476.
09:35:13 1020 1021	 1492767313	 668452410	 271641.
09:35:13 1021 1022	 1492767313	 943894904	 275443.
09:35:14 1022 1023	 1492767314	 166513171	 222618.
09:35:14 1023 1024	 1492767314	 438129332	 271616.
09:35:14 1024 1025	 1492767314	 709683290	 271554.
09:35:14 1025 1026	 1492767314	 980899853	 271217.
09:35:15 1026 1027	 1492767315	 256478948	 275579.
09:35:15 1027 1028	 1492767315	 527631416	 271152.
09:35:15 1028 1029	 1492767315	 798818380	 271187.
09:35:16 1029 1030	 1492767316	 74612337	 275794.
09:35:16 1030 1031	 1492767316	 345974875	 271363.
09:35:16 1031 1032	 1492767316	 617809972	 271835.
09:35:16 1032 1033	 1492767316	 893416013	 275606.
09:35:17 1033 1034	 1492767317	 164820614	 271404.
09:35:17 1034 1035	 1492767317	 435881604	 271061.
09:35:17 1035 1036	 1492767317	 657898675	 222017.
09:35:17 1036 1037	 1492767317	 932722237	 274824.
09:35:18 1037 1038	 1492767318	 203782947	 271061.
09:35:18 1038 1039	 1492767318	 475051093	 271268.
09:35:18 1039 1040	 1492767318	 750718002	 275667.
09:35:19 1040 1041	 1492767319	 21908082	 271190.
09:35:19 1041 1042	 1492767319	 293300347	 271392.
09:35:19 1042 1043	 1492767319	 568927669	 275627.
09:35:19 1043 1044	 1492767319	 839990607	 271063.
09:35:20 1044 1045	 1492767320	 111097973	 271108.
09:35:20 1045 1046	 1492767320	 387155932	 276058.
09:35:20 1046 1047	 1492767320	 658943575	 271787.
09:35:20 1047 1048	 1492767320	 881263747	 222321.
09:35:21 1048 1049	 1492767321	 152395715	 271131.
09:35:21 1049 1050	 1492767321	 424223622	 271828.
09:35:21 1050 1051	 1492767321	 699940018	 275717.
09:35:21 1051 1052	 1492767321	 971476287	 271536.
09:35:22 1052 1053	 1492767322	 242614376	 271138.
09:35:22 1053 1054	 1492767322	 518179708	 275565.
09:35:22 1054 1055	 1492767322	 789940833	 271762.
09:35:23 1055 1056	 1492767323	 60823350	 270882.
09:35:23 1056 1057	 1492767323	 282475839	 221653.
09:35:23 1057 1058	 1492767323	 553701744	 271226.
09:35:23 1058 1059	 1492767323	 824750054	 271048.
09:35:24 1059 1060	 1492767324	 100096823	 275347.
09:35:24 1060 1061	 1492767324	 371135213	 271038.
09:35:24 1061 1062	 1492767324	 646210736	 275075.
09:35:24 1062 1063	 1492767324	 917282228	 271072.
09:35:25 1063 1064	 1492767325	 139509699	 222227.
09:35:25 1064 1065	 1492767325	 410425268	 270916.
09:35:25 1065 1066	 1492767325	 685672089	 275247.
09:35:25 1066 1067	 1492767325	 957213344	 271541.
09:35:26 1067 1068	 1492767326	 228884847	 271672.
09:35:26 1068 1069	 1492767326	 500017956	 271133.
09:35:26 1069 1070	 1492767326	 775517676	 275499.
09:35:27 1070 1071	 1492767327	 47000617	 271483.
09:35:27 1071 1072	 1492767327	 323293181	 276293.
09:35:27 1072 1073	 1492767327	 594749395	 271456.
09:35:27 1073 1074	 1492767327	 866111954	 271369.
09:35:28 1074 1075	 1492767328	 137353335	 271235.
09:35:28 1075 1076	 1492767328	 359879881	 222527.
09:35:28 1076 1077	 1492767328	 631119521	 271239.
09:35:28 1077 1078	 1492767328	 906445915	 275327.
09:35:29 1078 1079	 1492767329	 178047929	 271602.
09:35:29 1079 1080	 1492767329	 449347578	 271299.
09:35:29 1080 1081	 1492767329	 724646489	 275299.
09:35:29 1081 1082	 1492767329	 995813970	 271168.
09:35:30 1082 1083	 1492767330	 267207052	 271393.
09:35:30 1083 1084	 1492767330	 543286678	 276079.
09:35:30 1084 1085	 1492767330	 814779732	 271494.
09:35:31 1085 1086	 1492767331	 86405234	 271625.
09:35:31 1086 1087	 1492767331	 358072779	 271668.
09:35:31 1087 1088	 1492767331	 633826435	 275753.
09:35:31 1088 1089	 1492767331	 905091348	 271265.
09:35:32 1089 1090	 1492767332	 127173174	 222082.
09:35:32 1090 1091	 1492767332	 398702332	 271529.
09:35:32 1091 1092	 1492767332	 674410611	 275708.
09:35:32 1092 1093	 1492767332	 945798914	 271389.
09:35:33 1093 1094	 1492767333	 217309819	 271511.
09:35:33 1094 1095	 1492767333	 492924020	 275614.
09:35:33 1095 1096	 1492767333	 764861952	 271938.
09:35:34 1096 1097	 1492767334	 36142551	 271280.
09:35:34 1097 1098	 1492767334	 307388859	 271247.
09:35:34 1098 1099	 1492767334	 583107231	 275718.
09:35:34 1099 1100	 1492767334	 854330842	 271224.
09:35:35 1100 1101	 1492767335	 125730098	 271399.
09:35:35 1101 1102	 1492767335	 401079751	 275350.
09:35:35 1102 1103	 1492767335	 623189526	 222109.
09:35:35 1103 1104	 1492767335	 898757304	 275568.
09:35:36 1104 1105	 1492767336	 170394440	 271637.
09:35:36 1105 1106	 1492767336	 445779276	 275385.
09:35:36 1106 1107	 1492767336	 722287662	 276508.
09:35:36 1107 1108	 1492767336	 945160019	 222873.
09:35:37 1108 1109	 1492767337	 216875286	 271715.
09:35:37 1109 1110	 1492767337	 488628217	 271753.
09:35:37 1110 1111	 1492767337	 764902908	 276275.
09:35:38 1111 1112	 1492767338	 40962769	 276060.
09:35:38 1112 1113	 1492767338	 313561582	 272598.
09:35:38 1113 1114	 1492767338	 589613333	 276052.
09:35:38 1114 1115	 1492767338	 812420790	 222808.
09:35:39 1115 1116	 1492767339	 84415225	 271994.
09:35:39 1116 1117	 1492767339	 360569113	 276154.
09:35:39 1117 1118	 1492767339	 632550654	 271982.
09:35:39 1118 1119	 1492767339	 908487236	 275936.
09:35:40 1119 1120	 1492767340	 180294803	 271808.
09:35:40 1120 1121	 1492767340	 456293606	 275998.
09:35:40 1121 1122	 1492767340	 679153627	 222860.
09:35:40 1122 1123	 1492767340	 955298546	 276145.
09:35:41 1123 1124	 1492767341	 226998897	 271701.
09:35:41 1124 1125	 1492767341	 502927302	 275928.
09:35:41 1125 1126	 1492767341	 774845501	 271918.
