05:02:20    0 Step	 time(s)	 time(ns)	 delta(ms)
05:02:20    0 1	 1492405340	 296095475	 980.
05:02:20    1 2	 1492405340	 568487482	 272392.
05:02:20    2 3	 1492405340	 844130596	 275643.
05:02:21    3 4	 1492405341	 115735024	 271605.
05:02:21    4 5	 1492405341	 386614819	 270880.
05:02:21    5 6	 1492405341	 661819115	 275204.
05:02:21    6 7	 1492405341	 879344163	 217525.
05:02:22    7 8	 1492405342	 155020294	 275676.
05:02:22    8 9	 1492405342	 427131779	 272111.
05:02:22    9 10	 1492405342	 703232795	 276102.
05:02:22   10 11	 1492405342	 979237341	 276004.
05:02:23   11 12	 1492405343	 201918668	 222681.
05:02:23   12 13	 1492405343	 473181766	 271263.
05:02:23   13 14	 1492405343	 748626035	 275445.
05:02:23   14 15	 1492405343	 970834423	 222208.
05:02:24   15 16	 1492405344	 246378588	 275544.
05:02:24   16 17	 1492405344	 518886023	 272508.
05:02:24   17 18	 1492405344	 790931786	 272046.
05:02:25   18 19	 1492405345	 67055381	 276123.
05:02:25   19 20	 1492405345	 339048133	 271993.
05:02:25   20 21	 1492405345	 565849407	 226801.
05:02:25   21 22	 1492405345	 837411784	 271562.
05:02:26   22 23	 1492405346	 113208763	 275797.
05:02:26   23 24	 1492405346	 384758929	 271551.
05:02:26   24 25	 1492405346	 660428720	 275669.
05:02:26   25 26	 1492405346	 882856977	 222429.
05:02:27   26 27	 1492405347	 154419083	 271562.
05:02:27   27 28	 1492405347	 430323582	 275904.
05:02:27   28 29	 1492405347	 702292673	 271969.
05:02:27   29 30	 1492405347	 924665574	 222373.
05:02:28   30 31	 1492405348	 200784031	 276119.
05:02:28   31 32	 1492405348	 476669192	 275885.
05:02:28   32 33	 1492405348	 748731227	 272062.
05:02:29   33 34	 1492405349	 24741126	 276010.
05:02:29   34 35	 1492405349	 296637622	 271896.
05:02:29   35 36	 1492405349	 519430798	 222794.
05:02:29   36 37	 1492405349	 795686858	 276256.
05:02:30   37 38	 1492405350	 68084057	 272397.
05:02:30   38 39	 1492405350	 344335300	 276251.
05:02:30   39 40	 1492405350	 615979137	 271644.
05:02:30   40 41	 1492405350	 891612510	 275633.
05:02:31   41 42	 1492405351	 114470597	 222858.
05:02:31   42 43	 1492405351	 390806660	 276336.
05:02:31   43 44	 1492405351	 662923685	 272117.
05:02:31   44 45	 1492405351	 934332565	 271409.
05:02:32   45 46	 1492405352	 210345066	 276013.
05:02:32   46 47	 1492405352	 432587637	 222243.
05:02:32   47 48	 1492405352	 708741897	 276154.
05:02:32   48 49	 1492405352	 981003627	 272261.
05:02:33   49 50	 1492405353	 256857596	 275854.
05:02:33   50 51	 1492405353	 528562276	 271705.
05:02:33   51 52	 1492405353	 804481839	 275920.
05:02:34   52 53	 1492405354	 27524486	 223042.
05:02:34   53 54	 1492405354	 299626112	 272102.
05:02:34   54 55	 1492405354	 575514366	 275888.
05:02:34   55 56	 1492405354	 847360562	 271846.
05:02:35   56 57	 1492405355	 123289525	 275929.
05:02:35   57 58	 1492405355	 394888485	 271599.
05:02:35   58 59	 1492405355	 671709517	 276821.
05:02:35   59 60	 1492405355	 944003894	 272295.
05:02:36   60 61	 1492405356	 220910826	 276907.
05:02:36   61 62	 1492405356	 493350006	 272439.
05:02:36   62 63	 1492405356	 769325892	 275976.
05:02:36   63 64	 1492405356	 992010480	 222684.
05:02:37   64 65	 1492405357	 263457624	 271447.
05:02:37   65 66	 1492405357	 538950461	 275493.
05:02:37   66 67	 1492405357	 815205336	 276255.
05:02:38   67 68	 1492405358	 37801008	 222596.
05:02:38   68 69	 1492405358	 309514097	 271713.
05:02:38   69 70	 1492405358	 581523742	 272009.
05:02:38   70 71	 1492405358	 857374006	 275851.
05:02:39   71 72	 1492405359	 129092050	 271718.
05:02:39   72 73	 1492405359	 355779966	 226688.
05:02:39   73 74	 1492405359	 627310745	 271530.
05:02:39   74 75	 1492405359	 903085645	 275775.
05:02:40   75 76	 1492405360	 174081087	 270996.
05:02:40   76 77	 1492405360	 396673018	 222592.
05:02:40   77 78	 1492405360	 667532679	 270859.
05:02:40   78 79	 1492405360	 938325637	 270793.
05:02:41   79 80	 1492405361	 213959571	 275634.
05:02:41   80 81	 1492405361	 485571718	 271612.
05:02:41   81 82	 1492405361	 757226018	 271655.
05:02:42   82 83	 1492405362	 28855006	 271629.
05:02:42   83 84	 1492405362	 305290312	 276435.
05:02:42   84 85	 1492405362	 577362395	 272072.
05:02:42   85 86	 1492405362	 853729390	 276367.
05:02:43   86 87	 1492405363	 125426524	 271697.
05:02:43   87 88	 1492405363	 347987294	 222561.
05:02:43   88 89	 1492405363	 623887408	 275900.
05:02:43   89 90	 1492405363	 896243799	 272357.
05:02:44   90 91	 1492405364	 172495173	 276251.
05:02:44   91 92	 1492405364	 444277956	 271783.
05:02:44   92 93	 1492405364	 716378262	 272100.
05:02:44   93 94	 1492405364	 992550910	 276173.
05:02:45   94 95	 1492405365	 264287881	 271737.
05:02:45   95 96	 1492405365	 539833877	 275546.
05:02:45   96 97	 1492405365	 811158254	 271324.
05:02:46   97 98	 1492405366	 83139177	 271981.
05:02:46   98 99	 1492405366	 359021003	 275882.
05:02:46   99 100	 1492405366	 630518137	 271497.
05:02:46  100 101	 1492405366	 901714021	 271196.
05:02:47  101 102	 1492405367	 176951795	 275238.
05:02:47  102 103	 1492405367	 399315699	 222363.
05:02:47  103 104	 1492405367	 670610136	 271295.
05:02:47  104 105	 1492405367	 942315130	 271705.
05:02:48  105 106	 1492405368	 218068937	 275754.
05:02:48  106 107	 1492405368	 489729128	 271660.
05:02:48  107 108	 1492405368	 761362498	 271633.
05:02:49  108 109	 1492405369	 36421342	 275059.
05:02:49  109 110	 1492405369	 307776614	 271355.
05:02:49  110 111	 1492405369	 578865726	 271089.
05:02:49  111 112	 1492405369	 849962658	 271097.
05:02:50  112 113	 1492405370	 125349987	 275388.
05:02:50  113 114	 1492405370	 347790526	 222440.
05:02:50  114 115	 1492405370	 619311693	 271521.
05:02:50  115 116	 1492405370	 890791411	 271480.
05:02:51  116 117	 1492405371	 162352039	 271561.
05:02:51  117 118	 1492405371	 437944882	 275593.
05:02:51  118 119	 1492405371	 710030348	 272085.
05:02:51  119 120	 1492405371	 985757518	 275727.
05:02:52  120 121	 1492405372	 256988240	 271231.
05:02:52  121 122	 1492405372	 528180912	 271193.
05:02:52  122 123	 1492405372	 799412566	 271231.
05:02:53  123 124	 1492405373	 70458047	 271046.
05:02:53  124 125	 1492405373	 341842929	 271385.
05:02:53  125 126	 1492405373	 617410560	 275567.
05:02:53  126 127	 1492405373	 888975670	 271565.
05:02:54  127 128	 1492405374	 159812294	 270837.
05:02:54  128 129	 1492405374	 381518202	 221706.
05:02:54  129 130	 1492405374	 652670014	 271152.
05:02:54  130 131	 1492405374	 928668355	 275998.
05:02:55  131 132	 1492405375	 200529420	 271861.
05:02:55  132 133	 1492405375	 476477957	 275949.
05:02:55  133 134	 1492405375	 748471074	 271993.
05:02:55  134 135	 1492405375	 971242809	 222772.
05:02:56  135 136	 1492405376	 246844666	 275601.
05:02:56  136 137	 1492405376	 517991798	 271147.
05:02:56  137 138	 1492405376	 789282975	 271292.
05:02:57  138 139	 1492405377	 64505171	 275222.
05:02:57  139 140	 1492405377	 335707946	 271203.
05:02:57  140 141	 1492405377	 607587604	 271879.
05:02:57  141 142	 1492405377	 879585140	 271998.
05:02:58  142 143	 1492405378	 155361724	 275776.
05:02:58  143 144	 1492405378	 426570058	 271209.
05:02:58  144 145	 1492405378	 649035819	 222466.
05:02:58  145 146	 1492405378	 919781587	 270745.
05:02:59  146 147	 1492405379	 190708656	 270928.
05:02:59  147 148	 1492405379	 465442450	 274733.
05:02:59  148 149	 1492405379	 737386200	 271944.
05:02:59  149 150	 1492405379	 960233650	 222847.
05:03:00  150 151	 1492405380	 235889931	 275657.
05:03:00  151 152	 1492405380	 507007509	 271117.
05:03:00  152 153	 1492405380	 778335054	 271328.
05:03:01  153 154	 1492405381	 48935628	 270600.
05:03:01  154 155	 1492405381	 319809075	 270874.
05:03:01  155 156	 1492405381	 595012405	 275203.
05:03:01  156 157	 1492405381	 817331800	 222320.
05:03:02  157 158	 1492405382	 88727166	 271395.
05:03:02  158 159	 1492405382	 364011956	 275285.
05:03:02  159 160	 1492405382	 635272893	 271261.
05:03:02  160 161	 1492405382	 906758431	 271485.
05:03:03  161 162	 1492405383	 177723992	 270966.
05:03:03  162 163	 1492405383	 452736926	 275013.
05:03:03  163 164	 1492405383	 675024573	 222287.
05:03:03  164 165	 1492405383	 946141085	 271117.
05:03:04  165 166	 1492405384	 217367718	 271226.
05:03:04  166 167	 1492405384	 488188640	 270821.
05:03:04  167 168	 1492405384	 763160368	 274972.
05:03:05  168 169	 1492405385	 33979890	 270820.
05:03:05  169 170	 1492405385	 256314044	 222334.
05:03:05  170 171	 1492405385	 527083712	 270769.
05:03:05  171 172	 1492405385	 798034840	 270952.
05:03:06  172 173	 1492405386	 73368517	 275333.
05:03:06  173 174	 1492405386	 348540942	 275173.
05:03:06  174 175	 1492405386	 566857998	 218317.
05:03:06  175 176	 1492405386	 842075704	 275217.
05:03:07  176 177	 1492405387	 113225623	 271150.
05:03:07  177 178	 1492405387	 384046867	 270822.
05:03:07  178 179	 1492405387	 659167247	 275120.
05:03:07  179 180	 1492405387	 877631610	 218464.
05:03:08  180 181	 1492405388	 153715841	 276085.
05:03:08  181 182	 1492405388	 429802744	 276086.
05:03:08  182 183	 1492405388	 701935135	 272133.
05:03:08  183 184	 1492405388	 978152624	 276217.
05:03:09  184 185	 1492405389	 254985101	 276833.
05:03:09  185 186	 1492405389	 527210671	 272225.
05:03:09  186 187	 1492405389	 799518852	 272309.
05:03:10  187 188	 1492405390	 75977582	 276458.
05:03:10  188 189	 1492405390	 348132687	 272155.
05:03:10  189 190	 1492405390	 575377566	 227245.
05:03:10  190 191	 1492405390	 847631513	 272254.
05:03:11  191 192	 1492405391	 123886254	 276255.
05:03:11  192 193	 1492405391	 395854113	 271968.
05:03:11  193 194	 1492405391	 667783581	 271929.
05:03:11  194 195	 1492405391	 944267236	 276484.
05:03:12  195 196	 1492405392	 220566500	 276299.
05:03:12  196 197	 1492405392	 439258256	 218692.
05:03:12  197 198	 1492405392	 715086563	 275828.
05:03:12  198 199	 1492405392	 986859288	 271773.
05:03:13  199 200	 1492405393	 263029073	 276170.
05:03:13  200 201	 1492405393	 539058249	 276029.
05:03:13  201 202	 1492405393	 811295837	 272238.
05:03:14  202 203	 1492405394	 87536149	 276240.
05:03:14  203 204	 1492405394	 359154726	 271618.
05:03:14  204 205	 1492405394	 581132442	 221978.
05:03:14  205 206	 1492405394	 856228199	 275096.
05:03:15  206 207	 1492405395	 127118204	 270890.
05:03:15  207 208	 1492405395	 398119253	 271001.
05:03:15  208 209	 1492405395	 672999208	 274880.
05:03:15  209 210	 1492405395	 944090302	 271091.
05:03:16  210 211	 1492405396	 166761428	 222671.
05:03:16  211 212	 1492405396	 438525263	 271764.
05:03:16  212 213	 1492405396	 713973161	 275448.
05:03:16  213 214	 1492405396	 985403882	 271431.
05:03:17  214 215	 1492405397	 261288668	 275884.
05:03:17  215 216	 1492405397	 532776172	 271488.
05:03:17  216 217	 1492405397	 755241425	 222465.
05:03:18  217 218	 1492405398	 26155822	 270915.
05:03:18  218 219	 1492405398	 297911126	 271755.
05:03:18  219 220	 1492405398	 573898107	 275987.
05:03:18  220 221	 1492405398	 845175135	 271277.
05:03:19  221 222	 1492405399	 121147354	 275972.
05:03:19  222 223	 1492405399	 392722387	 271575.
05:03:19  223 224	 1492405399	 664527934	 271806.
05:03:19  224 225	 1492405399	 887319164	 222791.
05:03:20  225 226	 1492405400	 163164287	 275845.
05:03:20  226 227	 1492405400	 434593754	 271429.
05:03:20  227 228	 1492405400	 710535121	 275942.
05:03:20  228 229	 1492405400	 982100204	 271565.
05:03:21  229 230	 1492405401	 253672705	 271572.
05:03:21  230 231	 1492405401	 529388740	 275716.
05:03:21  231 232	 1492405401	 800927142	 271539.
05:03:22  232 233	 1492405402	 76226583	 275299.
05:03:22  233 234	 1492405402	 294233171	 218007.
05:03:22  234 235	 1492405402	 570181434	 275948.
05:03:22  235 236	 1492405402	 841444950	 271264.
05:03:23  236 237	 1492405403	 117351237	 275906.
05:03:23  237 238	 1492405403	 388956631	 271605.
05:03:23  238 239	 1492405403	 665087845	 276132.
05:03:23  239 240	 1492405403	 887810948	 222723.
05:03:24  240 241	 1492405404	 159473716	 271662.
05:03:24  241 242	 1492405404	 434779240	 275306.
05:03:24  242 243	 1492405404	 707046693	 272267.
05:03:24  243 244	 1492405404	 982550607	 275504.
05:03:25  244 245	 1492405405	 254049466	 271499.
05:03:25  245 246	 1492405405	 476855879	 222807.
05:03:25  246 247	 1492405405	 753018221	 276162.
05:03:26  247 248	 1492405406	 24607387	 271589.
05:03:26  248 249	 1492405406	 296593953	 271987.
05:03:26  249 250	 1492405406	 572600289	 276006.
05:03:26  250 251	 1492405406	 844465794	 271866.
05:03:27  251 252	 1492405407	 120067309	 275601.
05:03:27  252 253	 1492405407	 391678592	 271611.
05:03:27  253 254	 1492405407	 667476359	 275798.
05:03:27  254 255	 1492405407	 943152227	 275676.
05:03:28  255 256	 1492405408	 165722817	 222571.
05:03:28  256 257	 1492405408	 437437895	 271715.
05:03:28  257 258	 1492405408	 713365297	 275927.
05:03:28  258 259	 1492405408	 985244914	 271880.
05:03:29  259 260	 1492405409	 256504322	 271259.
05:03:29  260 261	 1492405409	 532375175	 275871.
05:03:29  261 262	 1492405409	 804387234	 272012.
05:03:30  262 263	 1492405410	 80495382	 276108.
05:03:30  263 264	 1492405410	 466753103	 386258.
05:03:30  264 265	 1492405410	 739625385	 272872.
05:03:31  265 266	 1492405411	 11410267	 271785.
05:03:31  266 267	 1492405411	 286875340	 275465.
05:03:31  267 268	 1492405411	 509066779	 222191.
05:03:31  268 269	 1492405411	 784467276	 275401.
05:03:32  269 270	 1492405412	 56146169	 271679.
05:03:32  270 271	 1492405412	 331797722	 275651.
05:03:32  271 272	 1492405412	 602717410	 270920.
05:03:32  272 273	 1492405412	 825094140	 222377.
05:03:33  273 274	 1492405413	 96029363	 270935.
05:03:33  274 275	 1492405413	 367371024	 271342.
05:03:33  275 276	 1492405413	 642993925	 275623.
05:03:33  276 277	 1492405413	 914796355	 271802.
05:03:34  277 278	 1492405414	 191009907	 276214.
05:03:34  278 279	 1492405414	 413482201	 222472.
05:03:34  279 280	 1492405414	 684979358	 271497.
05:03:34  280 281	 1492405414	 961163129	 276184.
05:03:35  281 282	 1492405415	 236668415	 275505.
05:03:35  282 283	 1492405415	 509383842	 272716.
05:03:35  283 284	 1492405415	 772960323	 263576.
05:03:36  284 285	 1492405416	 44408486	 271448.
05:03:36  285 286	 1492405416	 267140605	 222732.
05:03:36  286 287	 1492405416	 542722639	 275582.
05:03:36  287 288	 1492405416	 813700524	 270978.
05:03:37  288 289	 1492405417	 85065327	 271365.
05:03:37  289 290	 1492405417	 311630830	 226566.
05:03:37  290 291	 1492405417	 582294109	 270663.
05:03:37  291 292	 1492405417	 853459321	 271165.
05:03:38  292 293	 1492405418	 128334360	 274875.
05:03:38  293 294	 1492405418	 400107987	 271774.
05:03:38  294 295	 1492405418	 623063197	 222955.
05:03:38  295 296	 1492405418	 898975934	 275913.
05:03:39  296 297	 1492405419	 170920657	 271944.
05:03:39  297 298	 1492405419	 446599304	 275679.
05:03:39  298 299	 1492405419	 669070577	 222471.
05:03:39  299 300	 1492405419	 944993829	 275924.
05:03:40  300 301	 1492405420	 216908649	 271914.
05:03:40  301 302	 1492405420	 488809548	 271901.
05:03:40  302 303	 1492405420	 764766086	 275957.
05:03:40  303 304	 1492405420	 987526582	 222760.
05:03:41  304 305	 1492405421	 263266576	 275740.
05:03:41  305 306	 1492405421	 534815047	 271549.
05:03:41  306 307	 1492405421	 810802526	 275987.
05:03:42  307 308	 1492405422	 33530464	 222728.
05:03:42  308 309	 1492405422	 305177383	 271647.
05:03:42  309 310	 1492405422	 581333085	 276156.
05:03:42  310 311	 1492405422	 856814547	 275481.
05:03:43  311 312	 1492405423	 78896233	 222082.
05:03:43  312 313	 1492405423	 350084922	 271189.
05:03:43  313 314	 1492405423	 626045108	 275960.
05:03:43  314 315	 1492405423	 897699368	 271654.
05:03:44  315 316	 1492405424	 120525555	 222826.
05:03:44  316 317	 1492405424	 392473375	 271948.
05:03:44  317 318	 1492405424	 668658300	 276185.
05:03:44  318 319	 1492405424	 944472262	 275814.
05:03:45  319 320	 1492405425	 216472594	 272000.
05:03:45  320 321	 1492405425	 438716251	 222244.
05:03:45  321 322	 1492405425	 714564670	 275848.
05:03:45  322 323	 1492405425	 986027610	 271463.
05:03:46  323 324	 1492405426	 261959872	 275933.
05:03:46  324 325	 1492405426	 534026062	 272066.
05:03:46  325 326	 1492405426	 756648111	 222622.
05:03:47  326 327	 1492405427	 32152161	 275504.
05:03:47  327 328	 1492405427	 303455530	 271303.
05:03:47  328 329	 1492405427	 579343583	 275888.
05:03:47  329 330	 1492405427	 801985709	 222642.
05:03:48  330 331	 1492405428	 77768741	 275784.
05:03:48  331 332	 1492405428	 349767740	 271998.
05:03:48  332 333	 1492405428	 625821810	 276055.
05:03:48  333 334	 1492405428	 897545396	 271723.
05:03:49  334 335	 1492405429	 120260904	 222716.
05:03:49  335 336	 1492405429	 396153595	 275892.
05:03:49  336 337	 1492405429	 668081647	 271928.
05:03:49  337 338	 1492405429	 944437259	 276356.
05:03:50  338 339	 1492405430	 216295853	 271859.
05:03:50  339 340	 1492405430	 438972438	 222676.
05:03:50  340 341	 1492405430	 715222798	 276250.
05:03:50  341 342	 1492405430	 990960558	 275738.
05:03:51  342 343	 1492405431	 262395713	 271435.
05:03:51  343 344	 1492405431	 537626896	 275232.
05:03:51  344 345	 1492405431	 760284783	 222657.
05:03:52  345 346	 1492405432	 36175721	 275891.
05:03:52  346 347	 1492405432	 307980382	 271805.
05:03:52  347 348	 1492405432	 583769549	 275789.
05:03:52  348 349	 1492405432	 859849943	 276081.
05:03:53  349 350	 1492405433	 82736052	 222886.
05:03:53  350 351	 1492405433	 354539795	 271804.
05:03:53  351 352	 1492405433	 630380136	 275840.
05:03:53  352 353	 1492405433	 902709485	 272329.
05:03:54  353 354	 1492405434	 178371487	 275662.
05:03:54  354 355	 1492405434	 450176355	 271805.
05:03:54  355 356	 1492405434	 672488053	 222312.
05:03:54  356 357	 1492405434	 948192589	 275704.
05:03:55  357 358	 1492405435	 219759854	 271568.
05:03:55  358 359	 1492405435	 495607319	 275847.
05:03:55  359 360	 1492405435	 767335290	 271728.
05:03:56  360 361	 1492405436	 43082219	 275747.
05:03:56  361 362	 1492405436	 265826809	 222745.
05:03:56  362 363	 1492405436	 537203152	 271376.
05:03:56  363 364	 1492405436	 812135013	 274932.
05:03:57  364 365	 1492405437	 82955181	 270820.
05:03:57  365 366	 1492405437	 353997118	 271042.
05:03:57  366 367	 1492405437	 629371946	 275375.
05:03:57  367 368	 1492405437	 901191111	 271819.
05:03:58  368 369	 1492405438	 123901013	 222710.
05:03:58  369 370	 1492405438	 399262273	 275361.
05:03:58  370 371	 1492405438	 674423787	 275161.
05:03:58  371 372	 1492405438	 945159043	 270736.
05:03:59  372 373	 1492405439	 167329981	 222171.
05:03:59  373 374	 1492405439	 443000756	 275670.
05:03:59  374 375	 1492405439	 714325102	 271325.
05:03:59  375 376	 1492405439	 989852877	 275528.
05:04:00  376 377	 1492405440	 261416611	 271563.
05:04:00  377 378	 1492405440	 533362274	 271946.
05:04:00  378 379	 1492405440	 804784241	 271422.
05:04:01  379 380	 1492405441	 80322162	 275538.
05:04:01  380 381	 1492405441	 351801594	 271479.
05:04:01  381 382	 1492405441	 623354503	 271553.
05:04:01  382 383	 1492405441	 898732358	 275378.
05:04:02  383 384	 1492405442	 170137444	 271405.
05:04:02  384 385	 1492405442	 392347225	 222210.
05:04:02  385 386	 1492405442	 663748821	 271402.
05:04:02  386 387	 1492405442	 934984363	 271235.
05:04:03  387 388	 1492405443	 206268190	 271284.
05:04:03  388 389	 1492405443	 482190114	 275922.
05:04:03  389 390	 1492405443	 753916050	 271726.
05:04:04  390 391	 1492405444	 25863433	 271947.
05:04:04  391 392	 1492405444	 297622456	 271759.
05:04:04  392 393	 1492405444	 573690781	 276068.
05:04:04  393 394	 1492405444	 845485576	 271795.
05:04:05  394 395	 1492405445	 117350913	 271866.
05:04:05  395 396	 1492405445	 392797995	 275447.
05:04:05  396 397	 1492405445	 664258373	 271460.
05:04:05  397 398	 1492405445	 935726291	 271468.
05:04:06  398 399	 1492405446	 210864897	 275139.
05:04:06  399 400	 1492405446	 482593759	 271728.
05:04:06  400 401	 1492405446	 754023965	 271431.
05:04:07  401 402	 1492405447	 25616109	 271592.
05:04:07  402 403	 1492405447	 300929105	 275313.
05:04:07  403 404	 1492405447	 576977892	 276049.
05:04:07  404 405	 1492405447	 799806613	 222828.
05:04:08  405 406	 1492405448	 71788161	 271982.
05:04:08  406 407	 1492405448	 348052807	 276265.
05:04:08  407 408	 1492405448	 620327652	 272274.
05:04:08  408 409	 1492405448	 896508174	 276181.
05:04:09  409 410	 1492405449	 168262231	 271754.
05:04:09  410 411	 1492405449	 440072177	 271810.
05:04:09  411 412	 1492405449	 716528098	 276456.
05:04:09  412 413	 1492405449	 993128509	 276600.
05:04:10  413 414	 1492405450	 212084920	 218957.
05:04:10  414 415	 1492405450	 488297071	 276212.
05:04:10  415 416	 1492405450	 764796515	 276499.
05:04:11  416 417	 1492405451	 37173768	 272377.
05:04:11  417 418	 1492405451	 313413935	 276241.
05:04:11  418 419	 1492405451	 585076373	 271662.
05:04:11  419 420	 1492405451	 856480671	 271404.
05:04:12  420 421	 1492405452	 131735300	 275255.
05:04:12  421 422	 1492405452	 403071417	 271336.
05:04:12  422 423	 1492405452	 678334854	 275264.
05:04:12  423 424	 1492405452	 949641041	 271306.
05:04:13  424 425	 1492405453	 167650262	 218009.
05:04:13  425 426	 1492405453	 442901326	 275251.
05:04:13  426 427	 1492405453	 714564848	 271664.
05:04:13  427 428	 1492405453	 990469945	 275905.
05:04:14  428 429	 1492405454	 262639347	 272169.
05:04:14  429 430	 1492405454	 538952705	 276313.
05:04:14  430 431	 1492405454	 810608280	 271656.
05:04:15  431 432	 1492405455	 33463990	 222856.
05:04:15  432 433	 1492405455	 309530901	 276067.
05:04:15  433 434	 1492405455	 581032277	 271501.
05:04:15  434 435	 1492405455	 852494391	 271462.
05:04:16  435 436	 1492405456	 127832518	 275338.
05:04:16  436 437	 1492405456	 351041480	 223209.
05:04:16  437 438	 1492405456	 622819772	 271778.
05:04:16  438 439	 1492405456	 898680044	 275861.
05:04:17  439 440	 1492405457	 174120063	 275440.
05:04:17  440 441	 1492405457	 445911825	 271792.
05:04:17  441 442	 1492405457	 668116261	 222204.
05:04:17  442 443	 1492405457	 939556346	 271440.
05:04:18  443 444	 1492405458	 215320802	 275765.
05:04:18  444 445	 1492405458	 486977267	 271656.
05:04:18  445 446	 1492405458	 759137383	 272160.
05:04:18  446 447	 1492405458	 981759405	 222622.
05:04:19  447 448	 1492405459	 257934841	 276176.
05:04:19  448 449	 1492405459	 533312564	 275377.
05:04:19  449 450	 1492405459	 804816163	 271504.
05:04:20  450 451	 1492405460	 27315411	 222499.
05:04:20  451 452	 1492405460	 298828065	 271513.
05:04:20  452 453	 1492405460	 574662105	 275834.
05:04:20  453 454	 1492405460	 850512245	 275850.
05:04:21  454 455	 1492405461	 122051424	 271539.
05:04:21  455 456	 1492405461	 344673738	 222622.
05:04:21  456 457	 1492405461	 620192571	 275520.
05:04:21  457 458	 1492405461	 891521916	 271329.
05:04:22  458 459	 1492405462	 162647917	 271126.
05:04:22  459 460	 1492405462	 438153587	 275505.
05:04:22  460 461	 1492405462	 709576846	 271424.
05:04:22  461 462	 1492405462	 931839858	 222263.
05:04:23  462 463	 1492405463	 203286613	 271446.
05:04:23  463 464	 1492405463	 478472402	 275186.
05:04:23  464 465	 1492405463	 749699532	 271227.
05:04:24  465 466	 1492405464	 21169902	 271471.
05:04:24  466 467	 1492405464	 292636569	 271466.
05:04:24  467 468	 1492405464	 567447768	 274811.
05:04:24  468 469	 1492405464	 838800593	 271353.
05:04:25  469 470	 1492405465	 110232007	 271432.
05:04:25  470 471	 1492405465	 381455603	 271223.
05:04:25  471 472	 1492405465	 657059821	 275605.
05:04:25  472 473	 1492405465	 928229803	 271170.
05:04:26  473 474	 1492405466	 199630186	 271400.
05:04:26  474 475	 1492405466	 421971574	 222341.
05:04:26  475 476	 1492405466	 693323326	 271352.
05:04:26  476 477	 1492405466	 968519222	 275196.
05:04:27  477 478	 1492405467	 239784776	 271265.
05:04:27  478 479	 1492405467	 515000121	 275216.
05:04:27  479 480	 1492405467	 786579962	 271580.
05:04:28  480 481	 1492405468	 57923801	 271344.
05:04:28  481 482	 1492405468	 329362136	 271438.
05:04:28  482 483	 1492405468	 604849273	 275487.
05:04:28  483 484	 1492405468	 876410400	 271561.
05:04:29  484 485	 1492405469	 147711408	 271301.
05:04:29  485 486	 1492405469	 423214578	 275503.
05:04:29  486 487	 1492405469	 641622647	 218408.
05:04:29  487 488	 1492405469	 917376808	 275754.
05:04:30  488 489	 1492405470	 188903327	 271527.
05:04:30  489 490	 1492405470	 460136553	 271233.
05:04:30  490 491	 1492405470	 736152302	 276016.
05:04:31  491 492	 1492405471	 11912450	 275760.
05:04:31  492 493	 1492405471	 283474472	 271562.
05:04:31  493 494	 1492405471	 505806860	 222333.
05:04:31  494 495	 1492405471	 777221249	 271414.
05:04:32  495 496	 1492405472	 52896174	 275675.
05:04:32  496 497	 1492405472	 323707822	 270812.
05:04:32  497 498	 1492405472	 594605335	 270897.
05:04:32  498 499	 1492405472	 869892388	 275287.
05:04:33  499 500	 1492405473	 92428041	 222536.
05:04:33  500 501	 1492405473	 364259238	 271831.
05:04:33  501 502	 1492405473	 640488747	 276230.
05:04:33  502 503	 1492405473	 912635781	 272146.
05:04:34  503 504	 1492405474	 188532518	 275897.
05:04:34  504 505	 1492405474	 460054024	 271522.
05:04:34  505 506	 1492405474	 732010334	 271956.
05:04:35  506 507	 1492405475	 7798973	 275789.
05:04:35  507 508	 1492405475	 279132781	 271333.
05:04:35  508 509	 1492405475	 550777562	 271645.
05:04:35  509 510	 1492405475	 826394389	 275617.
05:04:36  510 511	 1492405476	 97910678	 271516.
05:04:36  511 512	 1492405476	 368931641	 271021.
05:04:36  512 513	 1492405476	 659280405	 290349.
05:04:36  513 514	 1492405476	 881467354	 222187.
05:04:37  514 515	 1492405477	 152643676	 271176.
05:04:37  515 516	 1492405477	 424264185	 271621.
05:04:37  516 517	 1492405477	 699813602	 275549.
05:04:37  517 518	 1492405477	 971589051	 271776.
05:04:38  518 519	 1492405478	 246992459	 275403.
05:04:38  519 520	 1492405478	 518392136	 271400.
05:04:38  520 521	 1492405478	 789772629	 271380.
05:04:39  521 522	 1492405479	 65128243	 275356.
05:04:39  522 523	 1492405479	 336493946	 271366.
05:04:39  523 524	 1492405479	 607923471	 271429.
05:04:39  524 525	 1492405479	 879059607	 271136.
05:04:40  525 526	 1492405480	 101041884	 221983.
05:04:40  526 527	 1492405480	 371917142	 270875.
05:04:40  527 528	 1492405480	 647182124	 275265.
05:04:40  528 529	 1492405480	 918532415	 271350.
05:04:41  529 530	 1492405481	 189892766	 271360.
05:04:41  530 531	 1492405481	 465110639	 275218.
05:04:41  531 532	 1492405481	 736378095	 271268.
05:04:42  532 533	 1492405482	 7772443	 271394.
05:04:42  533 534	 1492405482	 230035718	 222263.
05:04:42  534 535	 1492405482	 501544115	 271509.
05:04:42  535 536	 1492405482	 772396360	 270852.
05:04:43  536 537	 1492405483	 47559837	 275164.
05:04:43  537 538	 1492405483	 318896808	 271336.
05:04:43  538 539	 1492405483	 589759064	 270863.
05:04:43  539 540	 1492405483	 864926041	 275167.
05:04:44  540 541	 1492405484	 87436574	 222510.
05:04:44  541 542	 1492405484	 359002080	 271566.
05:04:44  542 543	 1492405484	 634804803	 275803.
05:04:44  543 544	 1492405484	 906037096	 271232.
05:04:45  544 545	 1492405485	 177165314	 271128.
05:04:45  545 546	 1492405485	 452940682	 275775.
05:04:45  546 547	 1492405485	 675747866	 222808.
05:04:45  547 548	 1492405485	 951924601	 276176.
05:04:46  548 549	 1492405486	 223201313	 271277.
05:04:46  549 550	 1492405486	 498547690	 275346.
05:04:46  550 551	 1492405486	 769918806	 271372.
05:04:47  551 552	 1492405487	 45803050	 275884.
05:04:47  552 553	 1492405487	 269034557	 223231.
05:04:47  553 554	 1492405487	 540790506	 271756.
05:04:47  554 555	 1492405487	 816372293	 275582.
05:04:48  555 556	 1492405488	 88197485	 271825.
05:04:48  556 557	 1492405488	 359939787	 271742.
05:04:48  557 558	 1492405488	 582852425	 222913.
05:04:48  558 559	 1492405488	 859146384	 276294.
05:04:49  559 560	 1492405489	 130415082	 271269.
05:04:49  560 561	 1492405489	 405918047	 275503.
05:04:49  561 562	 1492405489	 681838547	 275920.
05:04:49  562 563	 1492405489	 904372714	 222535.
05:04:50  563 564	 1492405490	 175447181	 271074.
05:04:50  564 565	 1492405490	 450881034	 275434.
05:04:50  565 566	 1492405490	 673406731	 222525.
05:04:50  566 567	 1492405490	 945051264	 271645.
05:04:51  567 568	 1492405491	 220295540	 275244.
05:04:51  568 569	 1492405491	 491375604	 271080.
05:04:51  569 570	 1492405491	 713857487	 222482.
05:04:51  570 571	 1492405491	 985250446	 271393.
05:04:52  571 572	 1492405492	 261115589	 275865.
05:04:52  572 573	 1492405492	 483558470	 222443.
05:04:52  573 574	 1492405492	 755571997	 272014.
05:04:53  574 575	 1492405493	 30966607	 275394.
05:04:53  575 576	 1492405493	 306746433	 275780.
05:04:53  576 577	 1492405493	 578768933	 272023.
05:04:53  577 578	 1492405493	 801444145	 222675.
05:04:54  578 579	 1492405494	 77326985	 275883.
05:04:54  579 580	 1492405494	 349472417	 272145.
05:04:54  580 581	 1492405494	 624793762	 275321.
05:04:54  581 582	 1492405494	 896308244	 271515.
05:04:55  582 583	 1492405495	 119117478	 222809.
05:04:55  583 584	 1492405495	 390281625	 271164.
05:04:55  584 585	 1492405495	 666071605	 275790.
05:04:55  585 586	 1492405495	 937796449	 271725.
05:04:56  586 587	 1492405496	 209351648	 271555.
05:04:56  587 588	 1492405496	 432322365	 222971.
05:04:56  588 589	 1492405496	 708088842	 275767.
05:04:56  589 590	 1492405496	 983723965	 275635.
05:04:57  590 591	 1492405497	 254318415	 270594.
05:04:57  591 592	 1492405497	 529652525	 275334.
05:04:57  592 593	 1492405497	 800421777	 270769.
05:04:58  593 594	 1492405498	 22332424	 221911.
05:04:58  594 595	 1492405498	 293196736	 270864.
05:04:58  595 596	 1492405498	 568233586	 275037.
05:04:58  596 597	 1492405498	 840055103	 271822.
05:04:59  597 598	 1492405499	 116005884	 275951.
05:04:59  598 599	 1492405499	 334087115	 218081.
05:04:59  599 600	 1492405499	 609615083	 275528.
05:04:59  600 601	 1492405499	 881347337	 271732.
05:05:00  601 602	 1492405500	 156833297	 275486.
05:05:00  602 603	 1492405500	 428035348	 271202.
05:05:00  603 604	 1492405500	 650380201	 222345.
05:05:00  604 605	 1492405500	 921983165	 271603.
05:05:01  605 606	 1492405501	 193509610	 271526.
05:05:01  606 607	 1492405501	 468935752	 275426.
05:05:01  607 608	 1492405501	 740106118	 271171.
05:05:02  608 609	 1492405502	 11118393	 271012.
05:05:02  609 610	 1492405502	 286179476	 275061.
05:05:02  610 611	 1492405502	 557244084	 271065.
05:05:02  611 612	 1492405502	 828372520	 271128.
05:05:03  612 613	 1492405503	 50438899	 222067.
05:05:03  613 614	 1492405503	 321497536	 271058.
05:05:03  614 615	 1492405503	 596766533	 275269.
05:05:03  615 616	 1492405503	 867933514	 271167.
05:05:04  616 617	 1492405504	 139083747	 271150.
05:05:04  617 618	 1492405504	 414457918	 275375.
05:05:04  618 619	 1492405504	 685987068	 271529.
05:05:04  619 620	 1492405504	 957430922	 271444.
05:05:05  620 621	 1492405505	 229302903	 271872.
05:05:05  621 622	 1492405505	 505366052	 276063.
05:05:05  622 623	 1492405505	 777268413	 271902.
05:05:05  623 624	 1492405505	 999882886	 222615.
05:05:06  624 625	 1492405506	 271276732	 271393.
05:05:06  625 626	 1492405506	 542947517	 271671.
05:05:06  626 627	 1492405506	 817801543	 274854.
05:05:07  627 628	 1492405507	 89001170	 271200.
05:05:07  628 629	 1492405507	 363993508	 274992.
05:05:07  629 630	 1492405507	 635198209	 271205.
05:05:07  630 631	 1492405507	 906428846	 271231.
05:05:08  631 632	 1492405508	 128479644	 222050.
05:05:08  632 633	 1492405508	 399954636	 271475.
05:05:08  633 634	 1492405508	 675496592	 275542.
05:05:08  634 635	 1492405508	 946611615	 271115.
05:05:09  635 636	 1492405509	 218180858	 271570.
05:05:09  636 637	 1492405509	 493887893	 275707.
05:05:09  637 638	 1492405509	 765330296	 271442.
05:05:10  638 639	 1492405510	 36773183	 271443.
05:05:10  639 640	 1492405510	 308054833	 271282.
05:05:10  640 641	 1492405510	 583658103	 275603.
05:05:10  641 642	 1492405510	 855058737	 271401.
05:05:11  642 643	 1492405511	 77249040	 222190.
05:05:11  643 644	 1492405511	 348433601	 271184.
05:05:11  644 645	 1492405511	 619590858	 271158.
05:05:11  645 646	 1492405511	 894649751	 275058.
05:05:12  646 647	 1492405512	 165454135	 270805.
05:05:12  647 648	 1492405512	 436569901	 271116.
05:05:12  648 649	 1492405512	 712163669	 275593.
05:05:12  649 650	 1492405512	 984494528	 272331.
05:05:13  650 651	 1492405513	 256841310	 272347.
05:05:13  651 652	 1492405513	 533040378	 276199.
05:05:13  652 653	 1492405513	 756004027	 222964.
05:05:14  653 654	 1492405514	 31861544	 275857.
05:05:14  654 655	 1492405514	 303668670	 271807.
05:05:14  655 656	 1492405514	 579505867	 275838.
05:05:14  656 657	 1492405514	 851537039	 272031.
05:05:15  657 658	 1492405515	 123645213	 272108.
05:05:15  658 659	 1492405515	 399074926	 275430.
05:05:15  659 660	 1492405515	 670721603	 271646.
05:05:15  660 661	 1492405515	 893000289	 222279.
05:05:16  661 662	 1492405516	 164856212	 271856.
05:05:16  662 663	 1492405516	 440690193	 275834.
05:05:16  663 664	 1492405516	 712168036	 271478.
05:05:16  664 665	 1492405516	 988239528	 276071.
05:05:17  665 666	 1492405517	 259399145	 271160.
05:05:17  666 667	 1492405517	 530518756	 271119.
05:05:17  667 668	 1492405517	 752755553	 222237.
05:05:18  668 669	 1492405518	 24279817	 271525.
05:05:18  669 670	 1492405518	 299980021	 275700.
05:05:18  670 671	 1492405518	 571570343	 271590.
05:05:18  671 672	 1492405518	 847359266	 275789.
05:05:19  672 673	 1492405519	 118847074	 271488.
05:05:19  673 674	 1492405519	 394611191	 275764.
05:05:19  674 675	 1492405519	 666473184	 271862.
05:05:19  675 676	 1492405519	 942263397	 275790.
05:05:20  676 677	 1492405520	 214128958	 271866.
05:05:20  677 678	 1492405520	 485930540	 271801.
05:05:20  678 679	 1492405520	 708495086	 222565.
05:05:20  679 680	 1492405520	 984022786	 275528.
05:05:21  680 681	 1492405521	 255305650	 271282.
05:05:21  681 682	 1492405521	 526513154	 271208.
05:05:21  682 683	 1492405521	 797712304	 271199.
05:05:22  683 684	 1492405522	 73455634	 275743.
05:05:22  684 685	 1492405522	 344420885	 270966.
05:05:22  685 686	 1492405522	 619964861	 275544.
05:05:22  686 687	 1492405522	 891112777	 271147.
05:05:23  687 688	 1492405523	 162344870	 271233.
05:05:23  688 689	 1492405523	 384739479	 222394.
05:05:23  689 690	 1492405523	 656072244	 271333.
05:05:23  690 691	 1492405523	 927541985	 271470.
05:05:24  691 692	 1492405524	 202637641	 275095.
05:05:24  692 693	 1492405524	 473362837	 270726.
05:05:24  693 694	 1492405524	 744207536	 270844.
05:05:25  694 695	 1492405525	 19310667	 275103.
05:05:25  695 696	 1492405525	 290405989	 271096.
05:05:25  696 697	 1492405525	 512683809	 222278.
05:05:25  697 698	 1492405525	 783961045	 271277.
05:05:26  698 699	 1492405526	 55488036	 271527.
05:05:26  699 700	 1492405526	 330702958	 275215.
05:05:26  700 701	 1492405526	 602227030	 271524.
05:05:26  701 702	 1492405526	 873116589	 270889.
05:05:27  702 703	 1492405527	 143879629	 270763.
05:05:27  703 704	 1492405527	 365717187	 221838.
05:05:27  704 705	 1492405527	 636876960	 271160.
05:05:27  705 706	 1492405527	 907739738	 270862.
05:05:28  706 707	 1492405528	 182881554	 275142.
05:05:28  707 708	 1492405528	 454082456	 271201.
05:05:28  708 709	 1492405528	 724886548	 270804.
05:05:28  709 710	 1492405529	 325498	 275439.
05:05:29  710 711	 1492405529	 222638159	 222313.
05:05:29  711 712	 1492405529	 494038276	 271400.
05:05:29  712 713	 1492405529	 765311123	 271273.
05:05:30  713 714	 1492405530	 36361147	 271050.
05:05:30  714 715	 1492405530	 311634031	 275273.
05:05:30  715 716	 1492405530	 583207687	 271573.
05:05:30  716 717	 1492405530	 854380262	 271173.
05:05:31  717 718	 1492405531	 129733007	 275353.
05:05:31  718 719	 1492405531	 347794812	 218062.
05:05:31  719 720	 1492405531	 623071461	 275276.
05:05:31  720 721	 1492405531	 894200265	 271129.
05:05:32  721 722	 1492405532	 169480300	 275280.
05:05:32  722 723	 1492405532	 441210915	 271731.
05:05:32  723 724	 1492405532	 712736994	 271526.
05:05:32  724 725	 1492405532	 988155520	 275418.
05:05:33  725 726	 1492405533	 259573741	 271418.
05:05:33  726 727	 1492405533	 530970603	 271397.
05:05:33  727 728	 1492405533	 806422982	 275453.
05:05:34  728 729	 1492405534	 77963283	 271540.
05:05:34  729 730	 1492405534	 349259417	 271296.
05:05:34  730 731	 1492405534	 571498595	 222239.
05:05:34  731 732	 1492405534	 846568877	 275071.
05:05:35  732 733	 1492405535	 117748487	 271179.
05:05:35  733 734	 1492405535	 388894324	 271146.
05:05:35  734 735	 1492405535	 660470224	 271576.
05:05:35  735 736	 1492405535	 935921638	 275451.
05:05:36  736 737	 1492405536	 207138765	 271217.
05:05:36  737 738	 1492405536	 478152449	 271014.
05:05:36  738 739	 1492405536	 749008719	 270856.
05:05:36  739 740	 1492405536	 971365979	 222358.
05:05:37  740 741	 1492405537	 246584832	 275219.
05:05:37  741 742	 1492405537	 517569010	 270984.
05:05:37  742 743	 1492405537	 788615061	 271046.
05:05:38  743 744	 1492405538	 63782974	 275168.
05:05:38  744 745	 1492405538	 334980531	 271197.
05:05:38  745 746	 1492405538	 557682286	 222702.
05:05:38  746 747	 1492405538	 832728853	 275047.
05:05:39  747 748	 1492405539	 108135102	 275406.
05:05:39  748 749	 1492405539	 379509803	 271375.
05:05:39  749 750	 1492405539	 650417649	 270907.
05:05:39  750 751	 1492405539	 925640962	 275224.
05:05:40  751 752	 1492405540	 147994283	 222353.
05:05:40  752 753	 1492405540	 419322615	 271328.
05:05:40  753 754	 1492405540	 691095325	 271773.
05:05:40  754 755	 1492405540	 966595847	 275501.
05:05:41  755 756	 1492405541	 237344624	 270748.
05:05:41  756 757	 1492405541	 512867440	 275523.
05:05:41  757 758	 1492405541	 784569635	 271702.
05:05:42  758 759	 1492405542	 55624461	 271055.
05:05:42  759 760	 1492405542	 277754037	 222130.
05:05:42  760 761	 1492405542	 549458861	 271705.
05:05:42  761 762	 1492405542	 824822902	 275364.
05:05:43  762 763	 1492405543	 95971741	 271148.
05:05:43  763 764	 1492405543	 371797178	 275826.
05:05:43  764 765	 1492405543	 642910284	 271113.
05:05:43  765 766	 1492405543	 913756146	 270846.
05:05:44  766 767	 1492405544	 136201933	 222446.
05:05:44  767 768	 1492405544	 407145395	 270943.
05:05:44  768 769	 1492405544	 678812615	 271667.
05:05:44  769 770	 1492405544	 954327859	 275516.
05:05:45  770 771	 1492405545	 225219846	 270891.
05:05:45  771 772	 1492405545	 500236052	 275017.
05:05:45  772 773	 1492405545	 770974241	 270738.
05:05:45  773 774	 1492405545	 992809038	 221835.
05:05:46  774 775	 1492405546	 267811299	 275002.
05:05:46  775 776	 1492405546	 539207416	 271396.
05:05:46  776 777	 1492405546	 809931096	 270724.
05:05:47  777 778	 1492405547	 31723185	 221792.
05:05:47  778 779	 1492405547	 306791126	 275068.
05:05:47  779 780	 1492405547	 577691019	 270900.
05:05:47  780 781	 1492405547	 848923874	 271233.
05:05:48  781 782	 1492405548	 120167656	 271243.
05:05:48  782 783	 1492405548	 342065962	 221899.
05:05:48  783 784	 1492405548	 617633025	 275567.
05:05:48  784 785	 1492405548	 888373120	 270740.
05:05:49  785 786	 1492405549	 159155925	 270783.
05:05:49  786 787	 1492405549	 434655622	 275499.
05:05:49  787 788	 1492405549	 656642300	 221987.
05:05:49  788 789	 1492405549	 927384487	 270742.
05:05:50  789 790	 1492405550	 198492663	 271108.
05:05:50  790 791	 1492405550	 473525059	 275033.
05:05:50  791 792	 1492405550	 744760788	 271235.
05:05:51  792 793	 1492405551	 16245509	 271485.
05:05:51  793 794	 1492405551	 238640463	 222395.
05:05:51  794 795	 1492405551	 509606802	 270967.
05:05:51  795 796	 1492405551	 785177235	 275570.
05:05:52  796 797	 1492405552	 56510449	 271333.
05:05:52  797 798	 1492405552	 331038771	 274528.
05:05:52  798 799	 1492405552	 602014854	 270977.
05:05:52  799 800	 1492405552	 828446304	 226431.
05:05:53  800 801	 1492405553	 99456492	 271010.
05:05:53  801 802	 1492405553	 374907384	 275451.
05:05:53  802 803	 1492405553	 646330288	 271423.
05:05:53  803 804	 1492405553	 917538014	 271208.
05:05:54  804 805	 1492405554	 188738135	 271200.
05:05:54  805 806	 1492405554	 464158743	 275420.
05:05:54  806 807	 1492405554	 686405975	 222248.
05:05:54  807 808	 1492405554	 957720964	 271315.
05:05:55  808 809	 1492405555	 228980905	 271260.
05:05:55  809 810	 1492405555	 503993384	 275012.
05:05:55  810 811	 1492405555	 774849286	 270856.
05:05:56  811 812	 1492405556	 46360605	 271511.
05:05:56  812 813	 1492405556	 268396018	 222036.
05:05:56  813 814	 1492405556	 539857708	 271461.
05:05:56  814 815	 1492405556	 815867764	 276010.
05:05:57  815 816	 1492405557	 91370940	 275504.
05:05:57  816 817	 1492405557	 362996697	 271625.
05:05:57  817 818	 1492405557	 585761504	 222765.
05:05:57  818 819	 1492405557	 861007252	 275246.
05:05:58  819 820	 1492405558	 136176304	 275169.
05:05:58  820 821	 1492405558	 407946145	 271770.
05:05:58  821 822	 1492405558	 630773139	 222827.
05:05:58  822 823	 1492405558	 906353188	 275580.
05:05:59  823 824	 1492405559	 178039164	 271686.
05:05:59  824 825	 1492405559	 449245175	 271206.
05:05:59  825 826	 1492405559	 676064010	 226819.
05:05:59  826 827	 1492405559	 947637285	 271573.
05:06:00  827 828	 1492405560	 223965327	 276328.
05:06:00  828 829	 1492405560	 496078155	 272113.
05:06:00  829 830	 1492405560	 772387177	 276309.
05:06:01  830 831	 1492405561	 43752060	 271365.
05:06:01  831 832	 1492405561	 314755596	 271003.
05:06:01  832 833	 1492405561	 536964257	 222209.
05:06:01  833 834	 1492405561	 812061628	 275097.
05:06:02  834 835	 1492405562	 83194589	 271133.
05:06:02  835 836	 1492405562	 354559067	 271365.
05:06:02  836 837	 1492405562	 629865680	 275306.
05:06:02  837 838	 1492405562	 901075590	 271210.
05:06:03  838 839	 1492405563	 172283296	 271208.
05:06:03  839 840	 1492405563	 447566012	 275283.
05:06:03  840 841	 1492405563	 718931927	 271366.
05:06:03  841 842	 1492405563	 941421290	 222489.
05:06:04  842 843	 1492405564	 212545689	 271124.
05:06:04  843 844	 1492405564	 488050173	 275505.
05:06:04  844 845	 1492405564	 759572318	 271522.
05:06:05  845 846	 1492405565	 35031488	 275459.
05:06:05  846 847	 1492405565	 306347718	 271316.
05:06:05  847 848	 1492405565	 528645876	 222299.
05:06:05  848 849	 1492405565	 803756611	 275110.
05:06:06  849 850	 1492405566	 75224834	 271469.
05:06:06  850 851	 1492405566	 346378820	 271154.
05:06:06  851 852	 1492405566	 621616062	 275237.
05:06:06  852 853	 1492405566	 892723870	 271108.
05:06:07  853 854	 1492405567	 168240086	 275516.
05:06:07  854 855	 1492405567	 386350375	 218110.
05:06:07  855 856	 1492405567	 661494235	 275144.
05:06:07  856 857	 1492405567	 932719253	 271225.
05:06:08  857 858	 1492405568	 204245958	 271527.
05:06:08  858 859	 1492405568	 480317448	 276071.
05:06:08  859 860	 1492405568	 751912390	 271595.
05:06:09  860 861	 1492405569	 27659737	 275747.
05:06:09  861 862	 1492405569	 250108438	 222449.
05:06:09  862 863	 1492405569	 522072124	 271964.
05:06:09  863 864	 1492405569	 793733311	 271661.
05:06:10  864 865	 1492405570	 69524857	 275792.
05:06:10  865 866	 1492405570	 341844505	 272319.
05:06:10  866 867	 1492405570	 617826758	 275982.
05:06:10  867 868	 1492405570	 889612960	 271787.
05:06:11  868 869	 1492405571	 161150496	 271537.
05:06:11  869 870	 1492405571	 383186785	 222036.
05:06:11  870 871	 1492405571	 659178518	 275992.
05:06:11  871 872	 1492405571	 930902610	 271724.
05:06:12  872 873	 1492405572	 205889001	 274987.
05:06:12  873 874	 1492405572	 476612897	 270724.
05:06:12  874 875	 1492405572	 747578335	 270965.
05:06:12  875 876	 1492405572	 969853217	 222275.
05:06:13  876 877	 1492405573	 244458057	 274605.
05:06:13  877 878	 1492405573	 515269445	 270811.
05:06:13  878 879	 1492405573	 790380775	 275112.
05:06:14  879 880	 1492405574	 65518963	 275138.
05:06:14  880 881	 1492405574	 287751974	 222233.
05:06:14  881 882	 1492405574	 558977527	 271225.
05:06:14  882 883	 1492405574	 830758634	 271793.
05:06:15  883 884	 1492405575	 106003255	 275233.
05:06:15  884 885	 1492405575	 377146430	 271143.
05:06:15  885 886	 1492405575	 598813804	 221667.
05:06:15  886 887	 1492405575	 869662578	 270849.
05:06:16  887 888	 1492405576	 140333288	 270671.
05:06:16  888 889	 1492405576	 414886071	 274553.
05:06:16  889 890	 1492405576	 637655772	 222769.
05:06:16  890 891	 1492405576	 912990688	 275335.
05:06:17  891 892	 1492405577	 188332979	 275343.
05:06:17  892 893	 1492405577	 464086031	 275753.
05:06:17  893 894	 1492405577	 686669699	 222583.
05:06:17  894 895	 1492405577	 962441500	 275772.
05:06:18  895 896	 1492405578	 233590674	 271149.
05:06:18  896 897	 1492405578	 456009740	 222419.
05:06:18  897 898	 1492405578	 731395618	 275386.
05:06:19  898 899	 1492405579	 3407409	 272012.
05:06:19  899 900	 1492405579	 278620160	 275213.
05:06:19  900 901	 1492405579	 501483369	 222863.
05:06:19  901 902	 1492405579	 777290335	 275807.
05:06:20  902 903	 1492405580	 49630428	 272340.
05:06:20  903 904	 1492405580	 320941718	 271311.
05:06:20  904 905	 1492405580	 596918712	 275978.
05:06:20  905 906	 1492405580	 873002248	 276083.
05:06:21  906 907	 1492405581	 145172103	 272170.
05:06:21  907 908	 1492405581	 367757398	 222585.
05:06:21  908 909	 1492405581	 643598471	 275841.
05:06:21  909 910	 1492405581	 915760425	 272162.
05:06:22  910 911	 1492405582	 187255229	 271495.
05:06:22  911 912	 1492405582	 462981447	 275726.
05:06:22  912 913	 1492405582	 685537514	 222556.
05:06:22  913 914	 1492405582	 957294499	 271764.
05:06:23  914 915	 1492405583	 232826025	 275525.
05:06:23  915 916	 1492405583	 504883555	 272057.
05:06:23  916 917	 1492405583	 780889103	 276006.
05:06:24  917 918	 1492405584	 3460314	 222571.
05:06:24  918 919	 1492405584	 274951302	 271491.
05:06:24  919 920	 1492405584	 546032193	 271081.
05:06:24  920 921	 1492405584	 820568171	 274536.
05:06:25  921 922	 1492405585	 91600382	 271032.
05:06:25  922 923	 1492405585	 313287457	 221687.
05:06:25  923 924	 1492405585	 584087248	 270800.
05:06:25  924 925	 1492405585	 855160978	 271074.
05:06:26  925 926	 1492405586	 131419518	 276258.
05:06:26  926 927	 1492405586	 407586276	 276167.
05:06:26  927 928	 1492405586	 630602988	 223017.
05:06:26  928 929	 1492405586	 903031400	 272428.
05:06:27  929 930	 1492405587	 175093126	 272062.
05:06:27  930 931	 1492405587	 451605546	 276512.
05:06:27  931 932	 1492405587	 723241417	 271636.
05:06:27  932 933	 1492405587	 998892944	 275652.
05:06:28  933 934	 1492405588	 270308282	 271415.
05:06:28  934 935	 1492405588	 538565124	 268257.
05:06:28  935 936	 1492405588	 814606810	 276042.
05:06:29  936 937	 1492405589	 37404618	 222797.
05:06:29  937 938	 1492405589	 309174634	 271770.
05:06:29  938 939	 1492405589	 585062693	 275888.
05:06:29  939 940	 1492405589	 856830222	 271768.
05:06:30  940 941	 1492405590	 128600928	 271771.
05:06:30  941 942	 1492405590	 404188419	 275587.
05:06:30  942 943	 1492405590	 680474358	 276286.
05:06:30  943 944	 1492405590	 898933342	 218459.
05:06:31  944 945	 1492405591	 173970001	 275037.
05:06:31  945 946	 1492405591	 445031474	 271061.
05:06:31  946 947	 1492405591	 716848841	 271818.
05:06:31  947 948	 1492405591	 992633984	 275785.
05:06:32  948 949	 1492405592	 214880061	 222246.
05:06:32  949 950	 1492405592	 486121440	 271241.
05:06:32  950 951	 1492405592	 761861850	 275741.
05:06:33  951 952	 1492405593	 33687024	 271825.
05:06:33  952 953	 1492405593	 309222158	 275535.
05:06:33  953 954	 1492405593	 531532718	 222310.
05:06:33  954 955	 1492405593	 802760056	 271228.
05:06:34  955 956	 1492405594	 78479159	 275719.
05:06:34  956 957	 1492405594	 349964359	 271485.
05:06:34  957 958	 1492405594	 576446167	 226482.
05:06:34  958 959	 1492405594	 848008137	 271562.
05:06:35  959 960	 1492405595	 118815157	 270807.
05:06:35  960 961	 1492405595	 394188829	 275374.
05:06:35  961 962	 1492405595	 616287572	 222098.
05:06:35  962 963	 1492405595	 887023072	 270736.
05:06:36  963 964	 1492405596	 157717020	 270694.
05:06:36  964 965	 1492405596	 432833227	 275116.
05:06:36  965 966	 1492405596	 704718621	 271885.
05:06:36  966 967	 1492405596	 927573522	 222855.
05:06:37  967 968	 1492405597	 203894154	 276321.
05:06:37  968 969	 1492405597	 479768340	 275874.
05:06:37  969 970	 1492405597	 751250101	 271482.
05:06:38  970 971	 1492405598	 26870827	 275621.
05:06:38  971 972	 1492405598	 245439639	 218568.
05:06:38  972 973	 1492405598	 520763202	 275324.
05:06:38  973 974	 1492405598	 796609303	 275846.
05:06:39  974 975	 1492405599	 68330866	 271722.
05:06:39  975 976	 1492405599	 291035003	 222704.
05:06:39  976 977	 1492405599	 566836598	 275801.
05:06:39  977 978	 1492405599	 842940976	 276105.
05:06:40  978 979	 1492405600	 118784064	 275843.
05:06:40  979 980	 1492405600	 341307865	 222524.
05:06:40  980 981	 1492405600	 612999739	 271691.
05:06:40  981 982	 1492405600	 888770442	 275771.
05:06:41  982 983	 1492405601	 160324843	 271555.
05:06:41  983 984	 1492405601	 436092362	 275767.
05:06:41  984 985	 1492405601	 659030570	 222938.
05:06:41  985 986	 1492405601	 930725096	 271695.
05:06:42  986 987	 1492405602	 206151642	 275426.
05:06:42  987 988	 1492405602	 477495395	 271344.
05:06:42  988 989	 1492405602	 753384372	 275889.
05:06:42  989 990	 1492405602	 976023627	 222639.
05:06:43  990 991	 1492405603	 247686127	 271663.
05:06:43  991 992	 1492405603	 523245468	 275559.
05:06:43  992 993	 1492405603	 741596690	 218351.
05:06:44  993 994	 1492405604	 17026193	 275430.
05:06:44  994 995	 1492405604	 292800058	 275774.
05:06:44  995 996	 1492405604	 564182668	 271382.
05:06:44  996 997	 1492405604	 786505093	 222323.
05:06:45  997 998	 1492405605	 62166813	 275662.
05:06:45  998 999	 1492405605	 333753769	 271586.
05:06:45  999 1000	 1492405605	 609143178	 275390.
05:06:45 1000 1001	 1492405605	 831529517	 222386.
05:06:46 1001 1002	 1492405606	 103161320	 271632.
05:06:46 1002 1003	 1492405606	 378825170	 275664.
05:06:46 1003 1004	 1492405606	 650656595	 271831.
05:06:46 1004 1005	 1492405606	 926427013	 275771.
05:06:47 1005 1006	 1492405607	 149343907	 222917.
05:06:47 1006 1007	 1492405607	 420912223	 271568.
05:06:47 1007 1008	 1492405607	 696894275	 275982.
05:06:47 1008 1009	 1492405607	 968771176	 271877.
05:06:48 1009 1010	 1492405608	 244641095	 275870.
05:06:48 1010 1011	 1492405608	 467456804	 222816.
05:06:48 1011 1012	 1492405608	 739261896	 271805.
05:06:49 1012 1013	 1492405609	 14804427	 275542.
05:06:49 1013 1014	 1492405609	 286090411	 271286.
05:06:49 1014 1015	 1492405609	 562532320	 276442.
05:06:49 1015 1016	 1492405609	 784995762	 222463.
05:06:50 1016 1017	 1492405610	 56380875	 271386.
05:06:50 1017 1018	 1492405610	 332044390	 275663.
05:06:50 1018 1019	 1492405610	 604393931	 272350.
05:06:50 1019 1020	 1492405610	 880002358	 275608.
05:06:51 1020 1021	 1492405611	 102707654	 222705.
05:06:51 1021 1022	 1492405611	 374784025	 272077.
05:06:51 1022 1023	 1492405611	 646797461	 272013.
05:06:51 1023 1024	 1492405611	 922815808	 276019.
05:06:52 1024 1025	 1492405612	 194702758	 271886.
05:06:52 1025 1026	 1492405612	 470973905	 276272.
05:06:52 1026 1027	 1492405612	 742892346	 271918.
05:06:52 1027 1028	 1492405612	 965149868	 222258.
05:06:53 1028 1029	 1492405613	 240564388	 275414.
05:06:53 1029 1030	 1492405613	 511893432	 271329.
05:06:53 1030 1031	 1492405613	 734576952	 222684.
05:06:54 1031 1032	 1492405614	 10120730	 275543.
05:06:54 1032 1033	 1492405614	 282085041	 271965.
05:06:54 1033 1034	 1492405614	 553637000	 271552.
05:06:54 1034 1035	 1492405614	 829090099	 275453.
05:06:55 1035 1036	 1492405615	 51380530	 222290.
05:06:55 1036 1037	 1492405615	 326990775	 275610.
05:06:55 1037 1038	 1492405615	 598274353	 271284.
05:06:55 1038 1039	 1492405615	 820853817	 222580.
05:06:56 1039 1040	 1492405616	 96378524	 275524.
05:06:56 1040 1041	 1492405616	 368302801	 271925.
05:06:56 1041 1042	 1492405616	 644293553	 275990.
05:06:56 1042 1043	 1492405616	 920029941	 275737.
05:06:57 1043 1044	 1492405617	 191723082	 271693.
05:06:57 1044 1045	 1492405617	 414305663	 222582.
05:06:57 1045 1046	 1492405617	 689958721	 275653.
05:06:57 1046 1047	 1492405617	 961771683	 271813.
05:06:58 1047 1048	 1492405618	 237411297	 275640.
05:06:58 1048 1049	 1492405618	 459838108	 222427.
05:06:58 1049 1050	 1492405618	 731495813	 271657.
05:06:59 1050 1051	 1492405619	 7587673	 276092.
05:06:59 1051 1052	 1492405619	 279040889	 271454.
05:06:59 1052 1053	 1492405619	 554995934	 275955.
05:06:59 1053 1054	 1492405619	 773674302	 218678.
05:07:00 1054 1055	 1492405620	 49359589	 275685.
05:07:00 1055 1056	 1492405620	 320423040	 271064.
05:07:00 1056 1057	 1492405620	 591727741	 271305.
05:07:00 1057 1058	 1492405620	 866690539	 274962.
05:07:01 1058 1059	 1492405621	 137712566	 271022.
05:07:01 1059 1060	 1492405621	 408655154	 270943.
05:07:01 1060 1061	 1492405621	 631081236	 222426.
05:07:01 1061 1062	 1492405621	 902388975	 271308.
05:07:02 1062 1063	 1492405622	 177890459	 275501.
05:07:02 1063 1064	 1492405622	 449153958	 271264.
05:07:02 1064 1065	 1492405622	 720387018	 271233.
05:07:02 1065 1066	 1492405622	 995775927	 275389.
05:07:03 1066 1067	 1492405623	 267115279	 271339.
05:07:03 1067 1068	 1492405623	 488995611	 221880.
05:07:03 1068 1069	 1492405623	 764395938	 275401.
05:07:04 1069 1070	 1492405624	 35416719	 271020.
05:07:04 1070 1071	 1492405624	 310913421	 275497.
05:07:04 1071 1072	 1492405624	 582250666	 271337.
05:07:04 1072 1073	 1492405624	 853691050	 271441.
05:07:05 1073 1074	 1492405625	 128936546	 275245.
05:07:05 1074 1075	 1492405625	 399939773	 271004.
05:07:05 1075 1076	 1492405625	 622373222	 222433.
05:07:05 1076 1077	 1492405625	 893782141	 271409.
05:07:06 1077 1078	 1492405626	 169149843	 275368.
05:07:06 1078 1079	 1492405626	 440230211	 271080.
05:07:06 1079 1080	 1492405626	 711785723	 271555.
05:07:06 1080 1081	 1492405626	 987471437	 275686.
05:07:07 1081 1082	 1492405627	 258982630	 271511.
05:07:07 1082 1083	 1492405627	 481653241	 222671.
05:07:07 1083 1084	 1492405627	 753185095	 271532.
05:07:08 1084 1085	 1492405628	 29098653	 275913.
05:07:08 1085 1086	 1492405628	 304877026	 275779.
05:07:08 1086 1087	 1492405628	 576854062	 271977.
05:07:08 1087 1088	 1492405628	 799313798	 222460.
05:07:09 1088 1089	 1492405629	 71161637	 271847.
05:07:09 1089 1090	 1492405629	 346855055	 275694.
05:07:09 1090 1091	 1492405629	 619260232	 272405.
05:07:09 1091 1092	 1492405629	 895664997	 276405.
05:07:10 1092 1093	 1492405630	 172120382	 276455.
05:07:10 1093 1094	 1492405630	 443854413	 271734.
05:07:10 1094 1095	 1492405630	 719780387	 275926.
05:07:10 1095 1096	 1492405630	 942482638	 222702.
05:07:11 1096 1097	 1492405631	 213989171	 271507.
05:07:11 1097 1098	 1492405631	 489008563	 275019.
05:07:11 1098 1099	 1492405631	 759971479	 270963.
05:07:12 1099 1100	 1492405632	 31690507	 271719.
05:07:12 1100 1101	 1492405632	 254607342	 222917.
05:07:12 1101 1102	 1492405632	 529973423	 275366.
05:07:12 1102 1103	 1492405632	 801292094	 271319.
05:07:13 1103 1104	 1492405633	 71794295	 270502.
05:07:13 1104 1105	 1492405633	 346419031	 274625.
05:07:13 1105 1106	 1492405633	 564288134	 217869.
05:07:13 1106 1107	 1492405633	 838868680	 274580.
05:07:14 1107 1108	 1492405634	 109813516	 270945.
05:07:14 1108 1109	 1492405634	 381695016	 271882.
05:07:14 1109 1110	 1492405634	 657309102	 275614.
05:07:14 1110 1111	 1492405634	 879711207	 222402.
05:07:15 1111 1112	 1492405635	 155204567	 275493.
05:07:15 1112 1113	 1492405635	 426930694	 271726.
05:07:15 1113 1114	 1492405635	 698503219	 271573.
05:07:15 1114 1115	 1492405635	 920888044	 222385.
05:07:16 1115 1116	 1492405636	 196979288	 276091.
05:07:16 1116 1117	 1492405636	 468752766	 271773.
05:07:16 1117 1118	 1492405636	 740592109	 271840.
05:07:17 1118 1119	 1492405637	 16505059	 275913.
05:07:17 1119 1120	 1492405637	 292264708	 275759.
05:07:17 1120 1121	 1492405637	 514588695	 222324.
05:07:17 1121 1122	 1492405637	 786550435	 271962.
05:07:18 1122 1123	 1492405638	 58065536	 271516.
05:07:18 1123 1124	 1492405638	 333568726	 275502.
05:07:18 1124 1125	 1492405638	 605412146	 271844.
05:07:18 1125 1126	 1492405638	 827615747	 222203.
05:07:19 1126 1127	 1492405639	 103218357	 275603.
05:07:19 1127 1128	 1492405639	 374970080	 271752.
05:07:19 1128 1129	 1492405639	 650492619	 275522.
05:07:19 1129 1130	 1492405639	 872857163	 222365.
05:07:20 1130 1131	 1492405640	 144291955	 271435.
05:07:20 1131 1132	 1492405640	 419935541	 275643.
