09:55:52    0 Step	 time(s)	 time(ns)	 delta(ms)
09:55:52    0 1	 1492595752	 620888910	 50277.
09:55:52    1 2	 1492595752	 893703746	 272814.
09:55:53    2 3	 1492595753	 165562435	 271859.
09:55:53    3 4	 1492595753	 441112232	 275550.
09:55:53    4 5	 1492595753	 712000057	 270888.
09:55:53    5 6	 1492595753	 983159636	 271159.
09:55:54    6 7	 1492595754	 254468149	 271309.
09:55:54    7 8	 1492595754	 525985435	 271517.
09:55:54    8 9	 1492595754	 801463094	 275478.
09:55:55    9 10	 1492595755	 73045602	 271582.
09:55:55   10 11	 1492595755	 348496555	 275451.
09:55:55   11 12	 1492595755	 620181329	 271685.
09:55:55   12 13	 1492595755	 892123622	 271942.
09:55:56   13 14	 1492595756	 114877990	 222755.
09:55:56   14 15	 1492595756	 385948548	 271070.
09:55:56   15 16	 1492595756	 660972865	 275025.
09:55:56   16 17	 1492595756	 931908951	 270936.
09:55:57   17 18	 1492595757	 203444157	 271535.
09:55:57   18 19	 1492595757	 475223924	 271780.
09:55:57   19 20	 1492595757	 751645216	 276421.
09:55:58   20 21	 1492595758	 23611322	 271966.
09:55:58   21 22	 1492595758	 295671377	 272060.
09:55:58   22 23	 1492595758	 571568997	 275898.
09:55:58   23 24	 1492595758	 843282066	 271713.
09:55:59   24 25	 1492595759	 114986333	 271704.
09:55:59   25 26	 1492595759	 390756782	 275771.
09:55:59   26 27	 1492595759	 613489092	 222732.
09:55:59   27 28	 1492595759	 885500445	 272011.
09:56:00   28 29	 1492595760	 156754218	 271254.
09:56:00   29 30	 1492595760	 428141189	 271387.
09:56:00   30 31	 1492595760	 703566047	 275425.
09:56:00   31 32	 1492595760	 974912385	 271346.
09:56:01   32 33	 1492595761	 246395158	 271483.
09:56:01   33 34	 1492595761	 521816785	 275421.
09:56:01   34 35	 1492595761	 793117874	 271302.
09:56:02   35 36	 1492595762	 64341727	 271223.
09:56:02   36 37	 1492595762	 335694995	 271354.
09:56:02   37 38	 1492595762	 610905656	 275210.
09:56:02   38 39	 1492595762	 882260373	 271355.
09:56:03   39 40	 1492595763	 153412110	 271152.
09:56:03   40 41	 1492595763	 375790485	 222378.
09:56:03   41 42	 1492595763	 647024686	 271234.
09:56:03   42 43	 1492595763	 922586977	 275563.
09:56:04   43 44	 1492595764	 193835341	 271248.
09:56:04   44 45	 1492595764	 465151513	 271316.
09:56:04   45 46	 1492595764	 736107566	 270956.
09:56:05   46 47	 1492595765	 7190847	 271084.
09:56:05   47 48	 1492595765	 282424048	 275233.
09:56:05   48 49	 1492595765	 553653158	 271229.
09:56:05   49 50	 1492595765	 824406592	 270753.
09:56:06   50 51	 1492595766	 46525489	 222119.
09:56:06   51 52	 1492595766	 317275546	 270750.
09:56:06   52 53	 1492595766	 588603856	 271329.
09:56:06   53 54	 1492595766	 859703935	 271100.
09:56:07   54 55	 1492595767	 134995703	 275291.
09:56:07   55 56	 1492595767	 406875811	 271881.
09:56:07   56 57	 1492595767	 678766648	 271890.
09:56:07   57 58	 1492595767	 953892935	 275127.
09:56:08   58 59	 1492595768	 225423665	 271530.
09:56:08   59 60	 1492595768	 501391891	 275969.
09:56:08   60 61	 1492595768	 773236143	 271844.
09:56:09   61 62	 1492595769	 44569100	 271333.
09:56:09   62 63	 1492595769	 320534737	 275966.
09:56:09   63 64	 1492595769	 592969528	 272434.
09:56:09   64 65	 1492595769	 865098159	 272129.
09:56:10   65 66	 1492595770	 141092701	 275994.
09:56:10   66 67	 1492595770	 412890592	 271798.
09:56:10   67 68	 1492595770	 684525332	 271635.
09:56:10   68 69	 1492595770	 961262640	 276737.
09:56:11   69 70	 1492595771	 233224245	 271962.
09:56:11   70 71	 1492595771	 509504713	 276280.
09:56:11   71 72	 1492595771	 780913627	 271409.
09:56:12   72 73	 1492595772	 53078523	 272165.
09:56:12   73 74	 1492595772	 328668347	 275590.
09:56:12   74 75	 1492595772	 600192835	 271525.
09:56:12   75 76	 1492595772	 871608778	 271416.
09:56:13   76 77	 1492595773	 94020214	 222411.
09:56:13   77 78	 1492595773	 365511204	 271491.
09:56:13   78 79	 1492595773	 641197918	 275687.
09:56:13   79 80	 1492595773	 913612722	 272415.
09:56:14   80 81	 1492595774	 184947611	 271334.
09:56:14   81 82	 1492595774	 460429702	 275482.
09:56:14   82 83	 1492595774	 731911930	 271483.
09:56:14   83 84	 1492595775	 3460668	 271548.
09:56:15   84 85	 1492595775	 274962295	 271502.
09:56:15   85 86	 1492595775	 550647570	 275685.
09:56:15   86 87	 1492595775	 822595438	 271948.
09:56:16   87 88	 1492595776	 98653472	 276058.
09:56:16   88 89	 1492595776	 369970627	 271317.
09:56:16   89 90	 1492595776	 642343466	 272373.
09:56:16   90 91	 1492595776	 918315272	 275972.
09:56:17   91 92	 1492595777	 189928475	 271613.
09:56:17   92 93	 1492595777	 412923264	 222995.
09:56:17   93 94	 1492595777	 688769691	 275846.
09:56:17   94 95	 1492595777	 960298339	 271529.
09:56:18   95 96	 1492595778	 232194252	 271896.
09:56:18   96 97	 1492595778	 508048480	 275854.
09:56:18   97 98	 1492595778	 779434685	 271386.
09:56:19   98 99	 1492595779	 51443405	 272009.
09:56:19   99 100	 1492595779	 274497133	 223054.
09:56:19  100 101	 1492595779	 550088149	 275591.
09:56:19  101 102	 1492595779	 821715678	 271627.
09:56:20  102 103	 1492595780	 97120623	 275405.
09:56:20  103 104	 1492595780	 368993595	 271873.
09:56:20  104 105	 1492595780	 645160124	 276167.
09:56:20  105 106	 1492595780	 916991825	 271832.
09:56:21  106 107	 1492595781	 139411072	 222419.
09:56:21  107 108	 1492595781	 410932143	 271521.
09:56:21  108 109	 1492595781	 686766642	 275834.
09:56:21  109 110	 1492595781	 958297661	 271531.
09:56:22  110 111	 1492595782	 234346972	 276050.
09:56:22  111 112	 1492595782	 456595494	 222248.
09:56:22  112 113	 1492595782	 728367174	 271772.
09:56:23  113 114	 1492595783	 4238924	 275872.
09:56:23  114 115	 1492595783	 275959685	 271720.
09:56:23  115 116	 1492595783	 551382748	 275423.
09:56:23  116 117	 1492595783	 823323725	 271941.
09:56:24  117 118	 1492595784	 94625075	 271302.
09:56:24  118 119	 1492595784	 317532716	 222907.
09:56:24  119 120	 1492595784	 592918303	 275386.
09:56:24  120 121	 1492595784	 864088632	 271170.
09:56:25  121 122	 1492595785	 140130360	 276042.
09:56:25  122 123	 1492595785	 411526001	 271396.
09:56:25  123 124	 1492595785	 683095455	 271569.
09:56:25  124 125	 1492595785	 909802375	 226707.
09:56:26  125 126	 1492595786	 181192805	 271391.
09:56:26  126 127	 1492595786	 452360231	 271167.
09:56:26  127 128	 1492595786	 728676954	 276317.
09:56:26  128 129	 1492595787	 167663	 271490.
09:56:27  129 130	 1492595787	 223409429	 223242.
09:56:27  130 131	 1492595787	 499412644	 276003.
09:56:27  131 132	 1492595787	 771177559	 271765.
09:56:28  132 133	 1492595788	 46740688	 275563.
09:56:28  133 134	 1492595788	 322749497	 276009.
09:56:28  134 135	 1492595788	 594535202	 271786.
09:56:28  135 136	 1492595788	 865763255	 271228.
09:56:29  136 137	 1492595789	 88447059	 222684.
09:56:29  137 138	 1492595789	 363928031	 275481.
09:56:29  138 139	 1492595789	 639647035	 275719.
09:56:29  139 140	 1492595789	 910931538	 271284.
09:56:30  140 141	 1492595790	 186677313	 275746.
09:56:30  141 142	 1492595790	 405110143	 218433.
09:56:30  142 143	 1492595790	 680642602	 275532.
09:56:30  143 144	 1492595790	 952114632	 271472.
09:56:31  144 145	 1492595791	 227879287	 275765.
09:56:31  145 146	 1492595791	 503367136	 275488.
09:56:31  146 147	 1492595791	 725660207	 222293.
09:56:31  147 148	 1492595791	 997336384	 271676.
09:56:32  148 149	 1492595792	 273076854	 275741.
09:56:32  149 150	 1492595792	 544309248	 271232.
09:56:32  150 151	 1492595792	 815560500	 271251.
09:56:33  151 152	 1492595793	 37460606	 221900.
09:56:33  152 153	 1492595793	 312601402	 275141.
09:56:33  153 154	 1492595793	 583402237	 270801.
09:56:33  154 155	 1492595793	 854345620	 270943.
09:56:34  155 156	 1492595794	 126182035	 271837.
09:56:34  156 157	 1492595794	 401969831	 275788.
09:56:34  157 158	 1492595794	 673442550	 271472.
09:56:34  158 159	 1492595794	 948768750	 275327.
09:56:35  159 160	 1492595795	 167092510	 218323.
09:56:35  160 161	 1492595795	 438219189	 271127.
09:56:35  161 162	 1492595795	 709380308	 271161.
09:56:35  162 163	 1492595795	 985330869	 275951.
09:56:36  163 164	 1492595796	 261053974	 275723.
09:56:36  164 165	 1492595796	 532751045	 271697.
09:56:36  165 166	 1492595796	 804244897	 271494.
09:56:37  166 167	 1492595797	 75637016	 271392.
09:56:37  167 168	 1492595797	 351364070	 275727.
09:56:37  168 169	 1492595797	 623426257	 272062.
09:56:37  169 170	 1492595797	 899406478	 275980.
09:56:38  170 171	 1492595798	 118127460	 218721.
09:56:38  171 172	 1492595798	 393734877	 275608.
09:56:38  172 173	 1492595798	 669232960	 275498.
09:56:38  173 174	 1492595798	 940526647	 271293.
09:56:39  174 175	 1492595799	 211896669	 271370.
09:56:39  175 176	 1492595799	 487335958	 275440.
09:56:39  176 177	 1492595799	 759325100	 271989.
09:56:40  177 178	 1492595800	 30830610	 271505.
09:56:40  178 179	 1492595800	 253058991	 222229.
09:56:40  179 180	 1492595800	 524127635	 271068.
09:56:40  180 181	 1492595800	 800162043	 276035.
09:56:41  181 182	 1492595801	 71891569	 271730.
09:56:41  182 183	 1492595801	 347585973	 275694.
09:56:41  183 184	 1492595801	 619841901	 272256.
09:56:41  184 185	 1492595801	 896039172	 276197.
09:56:42  185 186	 1492595802	 167728386	 271689.
09:56:42  186 187	 1492595802	 443648783	 275920.
09:56:42  187 188	 1492595802	 715425873	 271778.
09:56:42  188 189	 1492595802	 938402850	 222977.
09:56:43  189 190	 1492595803	 209481736	 271078.
09:56:43  190 191	 1492595803	 480973953	 271493.
09:56:43  191 192	 1492595803	 756660760	 275686.
09:56:44  192 193	 1492595804	 27691776	 271031.
09:56:44  193 194	 1492595804	 303047539	 275356.
09:56:44  194 195	 1492595804	 574300022	 271253.
09:56:44  195 196	 1492595804	 846108107	 271808.
09:56:45  196 197	 1492595805	 122041270	 275933.
09:56:45  197 198	 1492595805	 394323031	 272282.
09:56:45  198 199	 1492595805	 617095131	 222772.
09:56:45  199 200	 1492595805	 888509903	 271415.
09:56:46  200 201	 1492595806	 160383292	 271873.
09:56:46  201 202	 1492595806	 435945940	 275563.
09:56:46  202 203	 1492595806	 707530652	 271584.
09:56:46  203 204	 1492595806	 982826010	 275296.
09:56:47  204 205	 1492595807	 254509830	 271683.
09:56:47  205 206	 1492595807	 525719563	 271210.
09:56:47  206 207	 1492595807	 797206122	 271487.
09:56:48  207 208	 1492595808	 72506111	 275300.
09:56:48  208 209	 1492595808	 294983291	 222477.
09:56:48  209 210	 1492595808	 566482263	 271499.
09:56:48  210 211	 1492595808	 837148912	 270667.
09:56:49  211 212	 1492595809	 112338928	 275190.
09:56:49  212 213	 1492595809	 383609860	 271271.
09:56:49  213 214	 1492595809	 654858523	 271248.
09:56:49  214 215	 1492595809	 877599682	 222741.
09:56:50  215 216	 1492595810	 153248624	 275649.
09:56:50  216 217	 1492595810	 425043996	 271796.
09:56:50  217 218	 1492595810	 697469597	 272425.
09:56:50  218 219	 1492595810	 973058533	 275589.
09:56:51  219 220	 1492595811	 244239530	 271181.
09:56:51  220 221	 1492595811	 520236775	 275997.
09:56:51  221 222	 1492595811	 738794948	 218559.
09:56:52  222 223	 1492595812	 15102311	 276307.
09:56:52  223 224	 1492595812	 287092117	 271990.
09:56:52  224 225	 1492595812	 558989309	 271897.
09:56:52  225 226	 1492595812	 835251489	 276262.
09:56:53  226 227	 1492595813	 106002842	 270752.
09:56:53  227 228	 1492595813	 376442911	 270440.
09:56:53  228 229	 1492595813	 652069229	 275626.
09:56:53  229 230	 1492595813	 913785955	 261717.
09:56:54  230 231	 1492595814	 189949121	 276163.
09:56:54  231 232	 1492595814	 461519558	 271570.
09:56:54  232 233	 1492595814	 684277626	 222758.
09:56:54  233 234	 1492595814	 960379449	 276102.
09:56:55  234 235	 1492595815	 232895239	 272516.
09:56:55  235 236	 1492595815	 508544279	 275649.
09:56:55  236 237	 1492595815	 780397204	 271853.
09:56:56  237 238	 1492595816	 55830653	 275433.
09:56:56  238 239	 1492595816	 327947750	 272117.
09:56:56  239 240	 1492595816	 550475155	 222528.
09:56:56  240 241	 1492595816	 826253385	 275778.
09:56:57  241 242	 1492595817	 98139531	 271886.
09:56:57  242 243	 1492595817	 374064589	 275925.
09:56:57  243 244	 1492595817	 645723975	 271660.
09:56:57  244 245	 1492595817	 921971955	 276248.
09:56:58  245 246	 1492595818	 194036016	 272064.
09:56:58  246 247	 1492595818	 416734240	 222698.
09:56:58  247 248	 1492595818	 692517829	 275783.
09:56:58  248 249	 1492595818	 953404680	 260887.
09:56:59  249 250	 1492595819	 225109065	 271705.
09:56:59  250 251	 1492595819	 500425301	 275316.
09:56:59  251 252	 1492595819	 776205669	 275780.
09:57:00  252 253	 1492595820	 47580115	 271375.
09:57:00  253 254	 1492595820	 323539110	 275959.
09:57:00  254 255	 1492595820	 541970643	 218432.
09:57:00  255 256	 1492595820	 817395827	 275425.
09:57:01  256 257	 1492595821	 89101795	 271706.
09:57:01  257 258	 1492595821	 359833499	 270731.
09:57:01  258 259	 1492595821	 635092442	 275259.
09:57:01  259 260	 1492595821	 906378408	 271286.
09:57:02  260 261	 1492595822	 177431302	 271053.
09:57:02  261 262	 1492595822	 448647391	 271216.
09:57:02  262 263	 1492595822	 719940037	 271293.
09:57:02  263 264	 1492595822	 995699408	 275759.
09:57:03  264 265	 1492595823	 267315587	 271616.
09:57:03  265 266	 1492595823	 489682310	 222367.
09:57:03  266 267	 1492595823	 761206057	 271524.
09:57:04  267 268	 1492595824	 32493542	 271287.
09:57:04  268 269	 1492595824	 308017142	 275524.
09:57:04  269 270	 1492595824	 579067824	 271051.
09:57:04  270 271	 1492595824	 850311605	 271243.
09:57:05  271 272	 1492595825	 125678315	 275367.
09:57:05  272 273	 1492595825	 396719953	 271042.
09:57:05  273 274	 1492595825	 619049837	 222330.
09:57:05  274 275	 1492595825	 890208902	 271159.
09:57:06  275 276	 1492595826	 166021350	 275812.
09:57:06  276 277	 1492595826	 438435626	 272414.
09:57:06  277 278	 1492595826	 714931607	 276496.
09:57:06  278 279	 1492595826	 987341624	 272410.
09:57:07  279 280	 1492595827	 263207214	 275866.
09:57:07  280 281	 1492595827	 535191785	 271984.
09:57:07  281 282	 1492595827	 807366301	 272175.
09:57:08  282 283	 1492595828	 84113973	 276748.
09:57:08  283 284	 1492595828	 356516351	 272402.
09:57:08  284 285	 1492595828	 632610832	 276095.
09:57:08  285 286	 1492595828	 904688636	 272077.
09:57:09  286 287	 1492595829	 180683974	 275996.
09:57:09  287 288	 1492595829	 452241197	 271557.
09:57:09  288 289	 1492595829	 727853967	 275613.
09:57:09  289 290	 1492595829	 999641643	 271787.
09:57:10  290 291	 1492595830	 271481300	 271840.
09:57:10  291 292	 1492595830	 494185717	 222704.
09:57:10  292 293	 1492595830	 770286481	 276101.
09:57:11  293 294	 1492595831	 42114092	 271828.
09:57:11  294 295	 1492595831	 317381686	 275267.
09:57:11  295 296	 1492595831	 588774695	 271393.
09:57:11  296 297	 1492595831	 864082553	 275308.
09:57:12  297 298	 1492595832	 83011303	 218929.
09:57:12  298 299	 1492595832	 358745187	 275734.
09:57:12  299 300	 1492595832	 630826517	 272081.
09:57:12  300 301	 1492595832	 906627871	 275802.
09:57:13  301 302	 1492595833	 178144537	 271516.
09:57:13  302 303	 1492595833	 454008714	 275864.
09:57:13  303 304	 1492595833	 672794696	 218786.
09:57:13  304 305	 1492595833	 944524179	 271730.
09:57:14  305 306	 1492595834	 219924300	 275400.
09:57:14  306 307	 1492595834	 491308752	 271384.
09:57:14  307 308	 1492595834	 767067005	 275759.
09:57:14  308 309	 1492595834	 985744606	 218677.
09:57:15  309 310	 1492595835	 260986049	 275242.
09:57:15  310 311	 1492595835	 532541645	 271555.
09:57:15  311 312	 1492595835	 808943268	 276402.
09:57:16  312 313	 1492595836	 84310806	 275368.
09:57:16  313 314	 1492595836	 355708850	 271398.
09:57:16  314 315	 1492595836	 578257303	 222548.
09:57:16  315 316	 1492595836	 854114021	 275857.
09:57:17  316 317	 1492595837	 126024177	 271910.
09:57:17  317 318	 1492595837	 402008981	 275985.
09:57:17  318 319	 1492595837	 674059850	 272051.
09:57:17  319 320	 1492595837	 949944738	 275884.
09:57:18  320 321	 1492595838	 221475661	 271531.
09:57:18  321 322	 1492595838	 444513694	 223038.
09:57:18  322 323	 1492595838	 716105911	 271593.
09:57:18  323 324	 1492595838	 991820297	 275714.
09:57:19  324 325	 1492595839	 263794357	 271974.
09:57:19  325 326	 1492595839	 535213153	 271419.
09:57:19  326 327	 1492595839	 757538549	 222325.
09:57:20  327 328	 1492595840	 33144049	 275606.
09:57:20  328 329	 1492595840	 304851926	 271708.
09:57:20  329 330	 1492595840	 576244411	 271392.
09:57:20  330 331	 1492595840	 851771411	 275527.
09:57:21  331 332	 1492595841	 123465053	 271694.
09:57:21  332 333	 1492595841	 345864428	 222399.
09:57:21  333 334	 1492595841	 617832762	 271968.
09:57:21  334 335	 1492595841	 893297788	 275465.
09:57:22  335 336	 1492595842	 165296357	 271999.
09:57:22  336 337	 1492595842	 441318235	 276022.
09:57:22  337 338	 1492595842	 712898230	 271580.
09:57:22  338 339	 1492595842	 935492126	 222594.
09:57:23  339 340	 1492595843	 207335145	 271843.
09:57:23  340 341	 1492595843	 483289013	 275954.
09:57:23  341 342	 1492595843	 755260190	 271971.
09:57:24  342 343	 1492595844	 31062694	 275802.
09:57:24  343 344	 1492595844	 302756963	 271695.
09:57:24  344 345	 1492595844	 525008292	 222251.
09:57:24  345 346	 1492595844	 797167279	 272159.
09:57:25  346 347	 1492595845	 72264270	 275097.
09:57:25  347 348	 1492595845	 343739431	 271475.
09:57:25  348 349	 1492595845	 614917359	 271178.
09:57:25  349 350	 1492595845	 885840456	 270923.
09:57:26  350 351	 1492595846	 156900501	 271060.
09:57:26  351 352	 1492595846	 432616754	 275716.
09:57:26  352 353	 1492595846	 655341241	 222725.
09:57:26  353 354	 1492595846	 927084578	 271743.
09:57:27  354 355	 1492595847	 202993656	 275909.
09:57:27  355 356	 1492595847	 474922335	 271929.
09:57:27  356 357	 1492595847	 746813849	 271892.
09:57:28  357 358	 1492595848	 22574738	 275760.
09:57:28  358 359	 1492595848	 298125024	 275551.
09:57:28  359 360	 1492595848	 570076200	 271951.
09:57:28  360 361	 1492595848	 841881423	 271805.
09:57:29  361 362	 1492595849	 64897046	 223016.
09:57:29  362 363	 1492595849	 340585195	 275688.
09:57:29  363 364	 1492595849	 612214973	 271630.
09:57:29  364 365	 1492595849	 883622552	 271407.
09:57:30  365 366	 1492595850	 159055802	 275434.
09:57:30  366 367	 1492595850	 430535401	 271479.
09:57:30  367 368	 1492595850	 702320380	 271785.
09:57:30  368 369	 1492595850	 978331180	 276011.
09:57:31  369 370	 1492595851	 249807554	 271476.
09:57:31  370 371	 1492595851	 525286428	 275479.
09:57:31  371 372	 1492595851	 748198141	 222912.
09:57:32  372 373	 1492595852	 19731730	 271533.
09:57:32  373 374	 1492595852	 291343589	 271612.
09:57:32  374 375	 1492595852	 567413599	 276070.
09:57:32  375 376	 1492595852	 838963902	 271551.
09:57:33  376 377	 1492595853	 114952448	 275988.
09:57:33  377 378	 1492595853	 386047072	 271095.
09:57:33  378 379	 1492595853	 657182520	 271135.
09:57:33  379 380	 1492595853	 879897743	 222715.
09:57:34  380 381	 1492595854	 155537516	 275640.
09:57:34  381 382	 1492595854	 426680293	 271143.
09:57:34  382 383	 1492595854	 697651160	 270971.
09:57:34  383 384	 1492595854	 972732669	 275081.
09:57:35  384 385	 1492595855	 195346085	 222614.
09:57:35  385 386	 1492595855	 466911602	 271565.
09:57:35  386 387	 1492595855	 738787037	 271876.
09:57:36  387 388	 1492595856	 15276319	 276489.
09:57:36  388 389	 1492595856	 287163199	 271887.
09:57:36  389 390	 1492595856	 562990952	 275828.
09:57:36  390 391	 1492595856	 834257953	 271267.
09:57:37  391 392	 1492595857	 56858581	 222600.
09:57:37  392 393	 1492595857	 328384390	 271526.
09:57:37  393 394	 1492595857	 604172122	 275788.
09:57:37  394 395	 1492595857	 879688654	 275516.
09:57:38  395 396	 1492595858	 151452564	 271764.
09:57:38  396 397	 1492595858	 423281788	 271829.
09:57:38  397 398	 1492595858	 641644317	 218363.
09:57:38  398 399	 1492595858	 917334810	 275691.
09:57:39  399 400	 1492595859	 192819030	 275484.
09:57:39  400 401	 1492595859	 464465541	 271646.
09:57:39  401 402	 1492595859	 735715380	 271250.
09:57:40  402 403	 1492595860	 11140711	 275425.
09:57:40  403 404	 1492595860	 233558937	 222419.
09:57:40  404 405	 1492595860	 504896627	 271337.
09:57:40  405 406	 1492595860	 776310491	 271414.
09:57:41  406 407	 1492595861	 51668676	 275358.
09:57:41  407 408	 1492595861	 327469777	 275802.
09:57:41  408 409	 1492595861	 550080179	 222610.
09:57:41  409 410	 1492595861	 822354684	 272274.
09:57:42  410 411	 1492595862	 98147007	 275793.
09:57:42  411 412	 1492595862	 370481002	 272334.
09:57:42  412 413	 1492595862	 646425618	 275944.
09:57:42  413 414	 1492595862	 918283805	 271859.
09:57:43  414 415	 1492595863	 194001143	 275717.
09:57:43  415 416	 1492595863	 417228422	 223227.
09:57:43  416 417	 1492595863	 688764419	 271536.
09:57:43  417 418	 1492595863	 964902314	 276138.
09:57:44  418 419	 1492595864	 236358255	 271456.
09:57:44  419 420	 1492595864	 508114602	 271756.
09:57:44  420 421	 1492595864	 783898676	 275784.
09:57:45  421 422	 1492595865	 55334452	 271436.
09:57:45  422 423	 1492595865	 277988388	 222654.
09:57:45  423 424	 1492595865	 553597886	 275610.
09:57:45  424 425	 1492595865	 825414716	 271816.
09:57:46  425 426	 1492595866	 101591142	 276177.
09:57:46  426 427	 1492595866	 372943570	 271352.
09:57:46  427 428	 1492595866	 649120873	 276178.
09:57:46  428 429	 1492595866	 920488590	 271367.
09:57:47  429 430	 1492595867	 143220311	 222732.
09:57:47  430 431	 1492595867	 418483847	 275264.
09:57:47  431 432	 1492595867	 689633113	 271149.
09:57:47  432 433	 1492595867	 961418102	 271785.
09:57:48  433 434	 1492595868	 237419582	 276001.
09:57:48  434 435	 1492595868	 509163330	 271744.
09:57:48  435 436	 1492595868	 784777103	 275614.
09:57:49  436 437	 1492595869	 7654021	 222877.
09:57:49  437 438	 1492595869	 279255404	 271601.
09:57:49  438 439	 1492595869	 550396884	 271142.
09:57:49  439 440	 1492595869	 825727280	 275330.
09:57:50  440 441	 1492595870	 96955525	 271228.
09:57:50  441 442	 1492595870	 368170231	 271215.
09:57:50  442 443	 1492595870	 639662140	 271492.
09:57:50  443 444	 1492595870	 915725901	 276064.
09:57:51  444 445	 1492595871	 187441483	 271715.
09:57:51  445 446	 1492595871	 459284544	 271843.
09:57:51  446 447	 1492595871	 735135219	 275851.
09:57:52  447 448	 1492595872	 7032792	 271897.
09:57:52  448 449	 1492595872	 282760410	 275728.
09:57:52  449 450	 1492595872	 505395931	 222636.
09:57:52  450 451	 1492595872	 776939492	 271543.
09:57:53  451 452	 1492595873	 49286898	 272348.
09:57:53  452 453	 1492595873	 324650814	 275364.
09:57:53  453 454	 1492595873	 596247776	 271596.
09:57:53  454 455	 1492595873	 867749451	 271502.
09:57:54  455 456	 1492595874	 143573825	 275825.
09:57:54  456 457	 1492595874	 415007099	 271433.
09:57:54  457 458	 1492595874	 690865260	 275858.
09:57:54  458 459	 1492595874	 913502687	 222637.
09:57:55  459 460	 1492595875	 185423806	 271922.
09:57:55  460 461	 1492595875	 461097551	 275673.
09:57:55  461 462	 1492595875	 733604740	 272508.
09:57:56  462 463	 1492595876	 9185655	 275580.
09:57:56  463 464	 1492595876	 280722003	 271537.
09:57:56  464 465	 1492595876	 552745406	 272023.
09:57:56  465 466	 1492595876	 828315386	 275570.
09:57:57  466 467	 1492595877	 50717625	 222402.
09:57:57  467 468	 1492595877	 322313793	 271596.
09:57:57  468 469	 1492595877	 598532362	 276219.
09:57:57  469 470	 1492595877	 870611777	 272079.
09:57:58  470 471	 1492595878	 146318401	 275707.
09:57:58  471 472	 1492595878	 368736781	 222418.
09:57:58  472 473	 1492595878	 640466055	 271730.
09:57:58  473 474	 1492595878	 969932059	 329466.
09:57:59  474 475	 1492595879	 246101535	 276169.
09:57:59  475 476	 1492595879	 519211233	 273110.
09:57:59  476 477	 1492595879	 790846352	 271635.
09:58:00  477 478	 1492595880	 66449092	 275603.
09:58:00  478 479	 1492595880	 338391728	 271942.
09:58:00  479 480	 1492595880	 610119980	 271729.
09:58:00  480 481	 1492595880	 881338450	 271218.
09:58:01  481 482	 1492595881	 103399825	 222062.
09:58:01  482 483	 1492595881	 378612482	 275212.
09:58:01  483 484	 1492595881	 650200225	 271588.
09:58:01  484 485	 1492595881	 921298102	 271098.
09:58:02  485 486	 1492595882	 192561838	 271264.
09:58:02  486 487	 1492595882	 467614821	 275053.
09:58:02  487 488	 1492595882	 739066588	 271451.
09:58:03  488 489	 1492595883	 14462248	 275396.
09:58:03  489 490	 1492595883	 285722682	 271260.
09:58:03  490 491	 1492595883	 508323494	 222601.
09:58:03  491 492	 1492595883	 779657508	 271334.
09:58:04  492 493	 1492595884	 50807857	 271151.
09:58:04  493 494	 1492595884	 326537906	 275730.
09:58:04  494 495	 1492595884	 597833457	 271295.
09:58:04  495 496	 1492595884	 869127255	 271294.
09:58:05  496 497	 1492595885	 144059267	 274932.
09:58:05  497 498	 1492595885	 415408045	 271349.
09:58:05  498 499	 1492595885	 686557740	 271150.
09:58:05  499 500	 1492595885	 908631832	 222074.
09:58:06  500 501	 1492595886	 234909731	 326277.
09:58:06  501 502	 1492595886	 510603752	 275695.
09:58:06  502 503	 1492595886	 733416987	 222813.
09:58:07  503 504	 1492595887	 5405419	 271988.
09:58:07  504 505	 1492595887	 280547812	 275143.
09:58:07  505 506	 1492595887	 553736699	 273188.
09:58:07  506 507	 1492595887	 829847162	 276111.
09:58:08  507 508	 1492595888	 101545321	 271698.
09:58:08  508 509	 1492595888	 373691216	 272146.
09:58:08  509 510	 1492595888	 650504046	 276813.
09:58:08  510 511	 1492595888	 922603180	 272099.
09:58:09  511 512	 1492595889	 198978066	 276375.
09:58:09  512 513	 1492595889	 470570418	 271592.
09:58:09  513 514	 1492595889	 746523732	 275953.
09:58:09  514 515	 1492595889	 968973180	 222450.
09:58:10  515 516	 1492595890	 240893704	 271920.
09:58:10  516 517	 1492595890	 517082461	 276189.
09:58:10  517 518	 1492595890	 788863913	 271782.
09:58:11  518 519	 1492595891	 64748572	 275884.
09:58:11  519 520	 1492595891	 336460277	 271712.
09:58:11  520 521	 1492595891	 611915390	 275455.
09:58:11  521 522	 1492595891	 883431966	 271517.
09:58:12  522 523	 1492595892	 154874639	 271442.
09:58:12  523 524	 1492595892	 426297637	 271423.
09:58:12  524 525	 1492595892	 701670514	 275373.
09:58:12  525 526	 1492595892	 965013771	 263343.
09:58:13  526 527	 1492595893	 240227867	 275215.
09:58:13  527 528	 1492595893	 511538678	 271310.
09:58:13  528 529	 1492595893	 733884041	 222346.
09:58:14  529 530	 1492595894	 4939697	 271055.
09:58:14  530 531	 1492595894	 276095043	 271156.
09:58:14  531 532	 1492595894	 551349747	 275254.
09:58:14  532 533	 1492595894	 873541982	 322193.
09:58:15  533 534	 1492595895	 145082190	 271540.
09:58:15  534 535	 1492595895	 367193140	 222111.
09:58:15  535 536	 1492595895	 642323150	 275130.
09:58:15  536 537	 1492595895	 913606172	 271283.
09:58:16  537 538	 1492595896	 188702903	 275097.
09:58:16  538 539	 1492595896	 460095760	 271392.
09:58:16  539 540	 1492595896	 731236537	 271141.
09:58:16  540 541	 1492595897	 2181137	 270945.
09:58:17  541 542	 1492595897	 224355184	 222174.
09:58:17  542 543	 1492595897	 499284012	 274929.
09:58:17  543 544	 1492595897	 770800806	 271517.
09:58:18  544 545	 1492595898	 42366207	 271565.
09:58:18  545 546	 1492595898	 313834826	 271469.
09:58:18  546 547	 1492595898	 589175281	 275340.
09:58:18  547 548	 1492595898	 860652879	 271478.
09:58:19  548 549	 1492595899	 132154798	 271501.
09:58:19  549 550	 1492595899	 407549296	 275395.
09:58:19  550 551	 1492595899	 679036429	 271487.
09:58:19  551 552	 1492595899	 954355870	 275320.
09:58:20  552 553	 1492595900	 225067708	 270711.
09:58:20  553 554	 1492595900	 447612585	 222545.
09:58:20  554 555	 1492595900	 719516826	 271905.
09:58:20  555 556	 1492595900	 990560432	 271043.
09:58:21  556 557	 1492595901	 261881791	 271321.
09:58:21  557 558	 1492595901	 537146511	 275265.
09:58:21  558 559	 1492595901	 808387909	 271242.
09:58:22  559 560	 1492595902	 79506978	 271119.
09:58:22  560 561	 1492595902	 354837964	 275331.
09:58:22  561 562	 1492595902	 626297754	 271459.
09:58:22  562 563	 1492595902	 897181245	 270884.
09:58:23  563 564	 1492595903	 119423344	 222242.
09:58:23  564 565	 1492595903	 394392372	 274969.
09:58:23  565 566	 1492595903	 665652698	 271260.
09:58:23  566 567	 1492595903	 936652735	 271001.
09:58:24  567 568	 1492595904	 208100424	 271447.
09:58:24  568 569	 1492595904	 483293213	 275193.
09:58:24  569 570	 1492595904	 754721221	 271428.
09:58:24  570 571	 1492595904	 976577031	 221856.
09:58:25  571 572	 1492595905	 248080722	 271503.
09:58:25  572 573	 1492595905	 519324566	 271244.
09:58:25  573 574	 1492595905	 794641641	 275317.
09:58:26  574 575	 1492595906	 65875343	 271234.
09:58:26  575 576	 1492595906	 336863316	 270988.
09:58:26  576 577	 1492595906	 608412609	 271549.
09:58:26  577 578	 1492595906	 883248401	 274836.
09:58:27  578 579	 1492595907	 154473476	 271225.
09:58:27  579 580	 1492595907	 377312257	 222839.
09:58:27  580 581	 1492595907	 648546858	 271235.
09:58:27  581 582	 1492595907	 919580760	 271034.
09:58:28  582 583	 1492595908	 195129925	 275549.
09:58:28  583 584	 1492595908	 466375624	 271245.
09:58:28  584 585	 1492595908	 737481263	 271106.
09:58:29  585 586	 1492595909	 8010301	 270529.
09:58:29  586 587	 1492595909	 234351860	 226342.
09:58:29  587 588	 1492595909	 505656747	 271304.
09:58:29  588 589	 1492595909	 776696504	 271040.
09:58:30  589 590	 1492595910	 51805345	 275109.
09:58:30  590 591	 1492595910	 322892370	 271087.
09:58:30  591 592	 1492595910	 594105891	 271214.
09:58:30  592 593	 1492595910	 865169833	 271064.
09:58:31  593 594	 1492595911	 87251837	 222082.
09:58:31  594 595	 1492595911	 362900448	 275648.
09:58:31  595 596	 1492595911	 634490448	 271590.
09:58:31  596 597	 1492595911	 905664481	 271174.
09:58:32  597 598	 1492595912	 181035239	 275371.
09:58:32  598 599	 1492595912	 452393856	 271359.
09:58:32  599 600	 1492595912	 723471979	 271078.
09:58:32  600 601	 1492595912	 998183916	 274712.
09:58:33  601 602	 1492595913	 216515800	 218332.
09:58:33  602 603	 1492595913	 487609537	 271093.
09:58:33  603 604	 1492595913	 763055201	 275446.
09:58:34  604 605	 1492595914	 34659507	 271604.
09:58:34  605 606	 1492595914	 306092531	 271433.
09:58:34  606 607	 1492595914	 581894839	 275803.
09:58:34  607 608	 1492595914	 853132934	 271238.
09:58:35  608 609	 1492595915	 124191962	 271059.
09:58:35  609 610	 1492595915	 395132234	 270940.
09:58:35  610 611	 1492595915	 670368437	 275236.
09:58:35  611 612	 1492595915	 941498298	 271130.
09:58:36  612 613	 1492595916	 212516256	 271018.
09:58:36  613 614	 1492595916	 434672298	 222156.
09:58:36  614 615	 1492595916	 705733717	 271062.
09:58:36  615 616	 1492595916	 981078049	 275344.
09:58:37  616 617	 1492595917	 251947332	 270869.
09:58:37  617 618	 1492595917	 523213019	 271266.
09:58:37  618 619	 1492595917	 794609580	 271396.
09:58:38  619 620	 1492595918	 65795036	 271186.
09:58:38  620 621	 1492595918	 341097573	 275302.
09:58:38  621 622	 1492595918	 612299989	 271203.
09:58:38  622 623	 1492595918	 883637190	 271337.
09:58:39  623 624	 1492595919	 105741008	 222104.
09:58:39  624 625	 1492595919	 377100165	 271359.
09:58:39  625 626	 1492595919	 652301513	 275201.
09:58:39  626 627	 1492595919	 923237571	 270936.
09:58:40  627 628	 1492595920	 194379125	 271142.
09:58:40  628 629	 1492595920	 469591749	 275212.
09:58:40  629 630	 1492595920	 741073537	 271482.
09:58:41  630 631	 1492595921	 12221896	 271149.
09:58:41  631 632	 1492595921	 287537495	 275315.
09:58:41  632 633	 1492595921	 505708741	 218171.
09:58:41  633 634	 1492595921	 781146828	 275439.
09:58:42  634 635	 1492595922	 53184674	 272037.
09:58:42  635 636	 1492595922	 329402713	 276218.
09:58:42  636 637	 1492595922	 601654906	 272253.
09:58:42  637 638	 1492595922	 873606278	 271951.
09:58:43  638 639	 1492595923	 149690437	 276084.
09:58:43  639 640	 1492595923	 421044917	 271355.
09:58:43  640 641	 1492595923	 697178085	 276133.
09:58:43  641 642	 1492595923	 969256857	 272079.
09:58:44  642 643	 1492595924	 192043273	 222786.
09:58:44  643 644	 1492595924	 467871713	 275828.
09:58:44  644 645	 1492595924	 739434586	 271563.
09:58:45  645 646	 1492595925	 10974285	 271540.
09:58:45  646 647	 1492595925	 286633406	 275659.
09:58:45  647 648	 1492595925	 557683706	 271050.
09:58:45  648 649	 1492595925	 834098630	 276415.
09:58:46  649 650	 1492595926	 56917570	 222819.
09:58:46  650 651	 1492595926	 328461780	 271544.
09:58:46  651 652	 1492595926	 604019834	 275559.
09:58:46  652 653	 1492595926	 875697417	 271677.
09:58:47  653 654	 1492595927	 98289062	 222592.
09:58:47  654 655	 1492595927	 374284357	 275995.
09:58:47  655 656	 1492595927	 645772750	 271488.
09:58:47  656 657	 1492595927	 916998551	 271226.
09:58:48  657 658	 1492595928	 192773468	 275775.
09:58:48  658 659	 1492595928	 415402882	 222630.
09:58:48  659 660	 1492595928	 687329420	 271926.
09:58:48  660 661	 1492595928	 963000092	 275671.
09:58:49  661 662	 1492595929	 234180555	 271180.
09:58:49  662 663	 1492595929	 505361100	 271181.
09:58:49  663 664	 1492595929	 781401274	 276040.
09:58:49  664 665	 1492595930	 3619771	 222218.
09:58:50  665 666	 1492595930	 275515986	 271897.
09:58:50  666 667	 1492595930	 551226630	 275710.
09:58:50  667 668	 1492595930	 823329986	 272104.
09:58:51  668 669	 1492595931	 99784311	 276454.
09:58:51  669 670	 1492595931	 371509950	 271726.
09:58:51  670 671	 1492595931	 647399122	 275889.
09:58:51  671 672	 1492595931	 922912431	 275514.
09:58:52  672 673	 1492595932	 145694714	 222781.
09:58:52  673 674	 1492595932	 421676457	 275982.
09:58:52  674 675	 1492595932	 693289535	 271613.
09:58:52  675 676	 1492595932	 968881320	 275592.
09:58:53  676 677	 1492595933	 191411557	 222530.
09:58:53  677 678	 1492595933	 463043629	 271632.
09:58:53  678 679	 1492595933	 735083070	 272040.
09:58:54  679 680	 1492595934	 11127777	 276044.
09:58:54  680 681	 1492595934	 282781051	 271654.
09:58:54  681 682	 1492595934	 558728073	 275947.
09:58:54  682 683	 1492595934	 830402513	 271674.
09:58:55  683 684	 1492595935	 52877646	 222475.
09:58:55  684 685	 1492595935	 328723930	 275847.
09:58:55  685 686	 1492595935	 599994815	 271271.
09:58:55  686 687	 1492595935	 875773648	 275778.
09:58:56  687 688	 1492595936	 147772716	 271999.
09:58:56  688 689	 1492595936	 370437095	 222665.
09:58:56  689 690	 1492595936	 642178153	 271741.
09:58:56  690 691	 1492595936	 917837096	 275659.
09:58:57  691 692	 1492595937	 189848961	 272012.
09:58:57  692 693	 1492595937	 465798761	 275949.
09:58:57  693 694	 1492595937	 737814574	 272016.
09:58:57  694 695	 1492595937	 960713761	 222899.
09:58:58  695 696	 1492595938	 233096003	 272383.
09:58:58  696 697	 1492595938	 508262843	 275167.
09:58:58  697 698	 1492595938	 779769786	 271506.
09:58:59  698 699	 1492595939	 55167610	 275398.
09:58:59  699 700	 1492595939	 278156511	 222989.
09:58:59  700 701	 1492595939	 549870690	 271714.
09:58:59  701 702	 1492595939	 825962030	 276092.
09:59:00  702 703	 1492595940	 97066753	 271104.
09:59:00  703 704	 1492595940	 367843979	 270778.
09:59:00  704 705	 1492595940	 642860124	 275016.
09:59:00  705 706	 1492595940	 860711386	 217851.
09:59:01  706 707	 1492595941	 131545242	 270834.
09:59:01  707 708	 1492595941	 406727813	 275183.
09:59:01  708 709	 1492595941	 677833254	 271105.
09:59:01  709 710	 1492595941	 948767635	 270934.
09:59:02  710 711	 1492595942	 219719540	 270953.
09:59:02  711 712	 1492595942	 441798987	 222079.
09:59:02  712 713	 1492595942	 712979136	 271180.
09:59:02  713 714	 1492595942	 988199230	 275220.
09:59:03  714 715	 1492595943	 259204060	 271005.
09:59:03  715 716	 1492595943	 534705460	 275501.
09:59:03  716 717	 1492595943	 806681294	 271976.
09:59:04  717 718	 1492595944	 77556235	 270875.
09:59:04  718 719	 1492595944	 349091367	 271535.
09:59:04  719 720	 1492595944	 624635610	 275544.
09:59:04  720 721	 1492595944	 846920518	 222285.
09:59:05  721 722	 1492595945	 117999530	 271079.
09:59:05  722 723	 1492595945	 389031529	 271032.
09:59:05  723 724	 1492595945	 664526448	 275495.
09:59:05  724 725	 1492595945	 935829627	 271303.
09:59:06  725 726	 1492595946	 207641838	 271813.
09:59:06  726 727	 1492595946	 482892732	 275250.
09:59:06  727 728	 1492595946	 705503684	 222611.
09:59:06  728 729	 1492595946	 977284397	 271781.
09:59:07  729 730	 1492595947	 252574525	 275290.
09:59:07  730 731	 1492595947	 524593215	 272019.
09:59:07  731 732	 1492595947	 800653122	 276060.
09:59:08  732 733	 1492595948	 23437229	 222784.
09:59:08  733 734	 1492595948	 294686857	 271250.
09:59:08  734 735	 1492595948	 565862684	 271175.
09:59:08  735 736	 1492595948	 840484111	 274622.
09:59:09  736 737	 1492595949	 111087198	 270603.
09:59:09  737 738	 1492595949	 381853890	 270767.
09:59:09  738 739	 1492595949	 603931822	 222078.
09:59:09  739 740	 1492595949	 879990156	 276058.
09:59:10  740 741	 1492595950	 151215015	 271225.
09:59:10  741 742	 1492595950	 427265614	 276050.
09:59:10  742 743	 1492595950	 699316007	 272051.
09:59:10  743 744	 1492595950	 971108120	 271792.
09:59:11  744 745	 1492595951	 246813124	 275705.
09:59:11  745 746	 1492595951	 469700104	 222887.
09:59:11  746 747	 1492595951	 741881665	 272181.
09:59:12  747 748	 1492595952	 18353815	 276473.
09:59:12  748 749	 1492595952	 290759031	 272405.
09:59:12  749 750	 1492595952	 562927639	 272168.
09:59:12  750 751	 1492595952	 838374658	 275447.
09:59:13  751 752	 1492595953	 110433233	 272059.
09:59:13  752 753	 1492595953	 386562542	 276129.
09:59:13  753 754	 1492595953	 658571716	 272009.
09:59:13  754 755	 1492595953	 934736242	 276165.
09:59:14  755 756	 1492595954	 206945863	 272210.
09:59:14  756 757	 1492595954	 478829110	 271883.
09:59:14  757 758	 1492595954	 701536041	 222707.
09:59:14  758 759	 1492595954	 977142284	 275606.
09:59:15  759 760	 1492595955	 275079439	 297937.
09:59:15  760 761	 1492595955	 497926259	 222847.
09:59:15  761 762	 1492595955	 773605108	 275679.
09:59:16  762 763	 1492595956	 45475468	 271870.
09:59:16  763 764	 1492595956	 321227554	 275752.
09:59:16  764 765	 1492595956	 593125794	 271898.
09:59:16  765 766	 1492595956	 869028498	 275903.
09:59:17  766 767	 1492595957	 91356588	 222328.
09:59:17  767 768	 1492595957	 363264021	 271908.
09:59:17  768 769	 1492595957	 639172994	 275909.
09:59:17  769 770	 1492595957	 910874272	 271701.
09:59:18  770 771	 1492595958	 186447380	 275573.
09:59:18  771 772	 1492595958	 409419205	 222972.
09:59:18  772 773	 1492595958	 680994272	 271575.
09:59:18  773 774	 1492595958	 956765871	 275772.
09:59:19  774 775	 1492595959	 228492029	 271726.
09:59:19  775 776	 1492595959	 499828877	 271337.
09:59:19  776 777	 1492595959	 775634912	 275806.
09:59:20  777 778	 1492595960	 47275833	 271641.
09:59:20  778 779	 1492595960	 319122332	 271846.
09:59:20  779 780	 1492595960	 541860363	 222738.
09:59:20  780 781	 1492595960	 817874432	 276014.
09:59:21  781 782	 1492595961	 89652076	 271778.
09:59:21  782 783	 1492595961	 365611219	 275959.
09:59:21  783 784	 1492595961	 637457991	 271847.
09:59:21  784 785	 1492595961	 913304914	 275847.
09:59:22  785 786	 1492595962	 185474541	 272169.
09:59:22  786 787	 1492595962	 461301149	 275827.
09:59:22  787 788	 1492595962	 684216928	 222916.
09:59:22  788 789	 1492595962	 956211899	 271995.
09:59:23  789 790	 1492595963	 231992859	 275781.
09:59:23  790 791	 1492595963	 503727291	 271734.
09:59:23  791 792	 1492595963	 775973218	 272246.
09:59:24  792 793	 1492595964	 52182798	 276209.
09:59:24  793 794	 1492595964	 323809543	 271627.
09:59:24  794 795	 1492595964	 546795069	 222986.
09:59:24  795 796	 1492595964	 822861233	 276066.
09:59:25  796 797	 1492595965	 94803596	 271942.
09:59:25  797 798	 1492595965	 370876472	 276073.
09:59:25  798 799	 1492595965	 642271145	 271395.
09:59:25  799 800	 1492595965	 918070725	 275799.
09:59:26  800 801	 1492595966	 189716190	 271646.
09:59:26  801 802	 1492595966	 465142144	 275426.
09:59:26  802 803	 1492595966	 683130546	 217988.
09:59:26  803 804	 1492595966	 957939606	 274809.
09:59:27  804 805	 1492595967	 228779027	 270840.
09:59:27  805 806	 1492595967	 499891378	 271112.
09:59:27  806 807	 1492595967	 776166996	 276276.
09:59:28  807 808	 1492595968	 52567633	 276400.
09:59:28  808 809	 1492595968	 325194962	 272628.
09:59:28  809 810	 1492595968	 601483465	 276288.
09:59:28  810 811	 1492595968	 824185071	 222702.
09:59:29  811 812	 1492595969	 95782080	 271597.
09:59:29  812 813	 1492595969	 367579672	 271797.
09:59:29  813 814	 1492595969	 639003905	 271425.
09:59:29  814 815	 1492595969	 914707104	 275703.
09:59:30  815 816	 1492595970	 186416240	 271709.
09:59:30  816 817	 1492595970	 458159345	 271743.
09:59:30  817 818	 1492595970	 733297504	 275138.
09:59:30  818 819	 1492595971	 4511977	 271215.
09:59:31  819 820	 1492595971	 226732833	 222221.
09:59:31  820 821	 1492595971	 502566954	 275834.
09:59:31  821 822	 1492595971	 775155517	 272588.
09:59:32  822 823	 1492595972	 51049974	 275895.
09:59:32  823 824	 1492595972	 326510424	 275460.
09:59:32  824 825	 1492595972	 598320042	 271810.
09:59:32  825 826	 1492595972	 870056027	 271736.
09:59:33  826 827	 1492595973	 145955464	 275899.
09:59:33  827 828	 1492595973	 368125422	 222170.
09:59:33  828 829	 1492595973	 643154576	 275029.
09:59:33  829 830	 1492595973	 914823315	 271669.
09:59:34  830 831	 1492595974	 190855057	 276032.
09:59:34  831 832	 1492595974	 413539456	 222684.
09:59:34  832 833	 1492595974	 684938671	 271399.
09:59:34  833 834	 1492595974	 956683567	 271745.
09:59:35  834 835	 1492595975	 232338900	 275656.
09:59:35  835 836	 1492595975	 503993495	 271654.
09:59:35  836 837	 1492595975	 774896765	 270904.
09:59:36  837 838	 1492595976	 45985720	 271088.
09:59:36  838 839	 1492595976	 321861750	 275876.
09:59:36  839 840	 1492595976	 594035163	 272174.
09:59:36  840 841	 1492595976	 816760200	 222725.
09:59:37  841 842	 1492595977	 93144550	 276384.
09:59:37  842 843	 1492595977	 369513008	 276369.
09:59:37  843 844	 1492595977	 641929885	 272417.
09:59:37  844 845	 1492595977	 913444287	 271514.
09:59:38  845 846	 1492595978	 189546304	 276102.
09:59:38  846 847	 1492595978	 461735638	 272189.
09:59:38  847 848	 1492595978	 733065377	 271330.
09:59:39  848 849	 1492595979	 4506723	 271441.
09:59:39  849 850	 1492595979	 231495327	 226989.
09:59:39  850 851	 1492595979	 503108968	 271614.
09:59:39  851 852	 1492595979	 775016180	 271907.
09:59:40  852 853	 1492595980	 50698656	 275682.
09:59:40  853 854	 1492595980	 326636775	 275938.
09:59:40  854 855	 1492595980	 598384017	 271748.
09:59:40  855 856	 1492595980	 821028344	 222644.
09:59:41  856 857	 1492595981	 92949260	 271921.
09:59:41  857 858	 1492595981	 368907119	 275958.
09:59:41  858 859	 1492595981	 640831201	 271924.
09:59:41  859 860	 1492595981	 916428491	 275597.
09:59:42  860 861	 1492595982	 188462022	 272034.
09:59:42  861 862	 1492595982	 464902660	 276440.
09:59:42  862 863	 1492595982	 687670027	 222768.
09:59:42  863 864	 1492595982	 963073085	 275403.
09:59:43  864 865	 1492595983	 234725839	 271653.
09:59:43  865 866	 1492595983	 510674654	 275949.
09:59:43  866 867	 1492595983	 783113982	 272439.
09:59:44  867 868	 1492595984	 59589488	 276475.
09:59:44  868 869	 1492595984	 331578852	 271990.
09:59:44  869 870	 1492595984	 607397356	 275818.
09:59:44  870 871	 1492595984	 830381048	 222984.
09:59:45  871 872	 1492595985	 102415122	 272034.
09:59:45  872 873	 1492595985	 377865925	 275451.
09:59:45  873 874	 1492595985	 649613876	 271748.
09:59:45  874 875	 1492595985	 925566538	 275952.
09:59:46  875 876	 1492595986	 197612246	 272046.
09:59:46  876 877	 1492595986	 419932423	 222320.
09:59:46  877 878	 1492595986	 691374094	 271442.
09:59:46  878 879	 1492595986	 966630186	 275256.
09:59:47  879 880	 1492595987	 242108455	 275478.
09:59:47  880 881	 1492595987	 513605390	 271497.
09:59:47  881 882	 1492595987	 735975430	 222370.
09:59:48  882 883	 1492595988	 11339993	 275365.
09:59:48  883 884	 1492595988	 282726921	 271387.
09:59:48  884 885	 1492595988	 554687947	 271961.
09:59:48  885 886	 1492595988	 777463132	 222775.
09:59:49  886 887	 1492595989	 52964826	 275502.
09:59:49  887 888	 1492595989	 324353778	 271388.
09:59:49  888 889	 1492595989	 600544093	 276191.
09:59:49  889 890	 1492595989	 872533451	 271989.
09:59:50  890 891	 1492595990	 148587553	 276054.
09:59:50  891 892	 1492595990	 371275211	 222688.
09:59:50  892 893	 1492595990	 642837854	 271563.
09:59:50  893 894	 1492595990	 918526108	 275688.
09:59:51  894 895	 1492595991	 190334628	 271808.
09:59:51  895 896	 1492595991	 466059644	 275725.
09:59:51  896 897	 1492595991	 737512469	 271453.
09:59:52  897 898	 1492595992	 9173389	 271661.
09:59:52  898 899	 1492595992	 285076408	 275903.
09:59:52  899 900	 1492595992	 507889857	 222814.
09:59:52  900 901	 1492595992	 779702676	 271812.
09:59:53  901 902	 1492595993	 55372655	 275670.
09:59:53  902 903	 1492595993	 327376742	 272004.
09:59:53  903 904	 1492595993	 603482009	 276106.
09:59:53  904 905	 1492595993	 879415171	 275933.
09:59:54  905 906	 1492595994	 102489263	 223074.
09:59:54  906 907	 1492595994	 374206359	 271717.
09:59:54  907 908	 1492595994	 649924968	 275719.
09:59:54  908 909	 1492595994	 921208377	 271283.
09:59:55  909 910	 1492595995	 197276305	 276068.
09:59:55  910 911	 1492595995	 468798456	 271522.
09:59:55  911 912	 1492595995	 691561904	 222764.
09:59:55  912 913	 1492595995	 963645054	 272083.
09:59:56  913 914	 1492595996	 239175007	 275530.
09:59:56  914 915	 1492595996	 511160479	 271985.
09:59:56  915 916	 1492595996	 787004122	 275844.
09:59:57  916 917	 1492595997	 62909819	 275906.
09:59:57  917 918	 1492595997	 282064359	 219154.
09:59:57  918 919	 1492595997	 558262678	 276198.
09:59:57  919 920	 1492595997	 829638825	 271377.
09:59:58  920 921	 1492595998	 105620750	 275981.
09:59:58  921 922	 1492595998	 381380206	 275760.
09:59:58  922 923	 1492595998	 653360620	 271980.
09:59:58  923 924	 1492595998	 876459487	 223099.
09:59:59  924 925	 1492595999	 148169162	 271710.
09:59:59  925 926	 1492595999	 423828384	 275659.
09:59:59  926 927	 1492595999	 695522235	 271694.
09:59:59  927 928	 1492595999	 971075974	 275554.
10:00:00  928 929	 1492596000	 243235918	 272160.
10:00:00  929 930	 1492596000	 519424328	 276188.
10:00:00  930 931	 1492596000	 791350786	 271926.
10:00:01  931 932	 1492596001	 62700201	 271350.
10:00:01  932 933	 1492596001	 284956680	 222256.
10:00:01  933 934	 1492596001	 556200900	 271245.
10:00:01  934 935	 1492596001	 831635791	 275434.
10:00:02  935 936	 1492596002	 102676944	 271042.
10:00:02  936 937	 1492596002	 373532457	 270855.
10:00:02  937 938	 1492596002	 648901505	 275369.
10:00:02  938 939	 1492596002	 920163102	 271262.
10:00:03  939 940	 1492596003	 191394497	 271231.
10:00:03  940 941	 1492596003	 463207755	 271813.
10:00:03  941 942	 1492596003	 739055586	 275848.
10:00:04  942 943	 1492596004	 10803656	 271748.
10:00:04  943 944	 1492596004	 282293555	 271490.
10:00:04  944 945	 1492596004	 553405859	 271113.
10:00:04  945 946	 1492596004	 829081558	 275675.
10:00:05  946 947	 1492596005	 100397738	 271316.
10:00:05  947 948	 1492596005	 322796376	 222399.
10:00:05  948 949	 1492596005	 594125998	 271330.
10:00:05  949 950	 1492596005	 865535295	 271409.
10:00:06  950 951	 1492596006	 136804618	 271269.
10:00:06  951 952	 1492596006	 412198207	 275394.
10:00:06  952 953	 1492596006	 683607565	 271409.
10:00:06  953 954	 1492596006	 954882097	 271275.
10:00:07  954 955	 1492596007	 226121059	 271239.
10:00:07  955 956	 1492596007	 501569775	 275448.
10:00:07  956 957	 1492596007	 773406786	 271837.
10:00:08  957 958	 1492596008	 49033755	 275628.
10:00:08  958 959	 1492596008	 271977732	 222943.
10:00:08  959 960	 1492596008	 543451737	 271474.
10:00:08  960 961	 1492596008	 814406972	 270956.
10:00:09  961 962	 1492596009	 89375426	 274968.
10:00:09  962 963	 1492596009	 360808203	 271433.
10:00:09  963 964	 1492596009	 631884817	 271077.
10:00:09  964 965	 1492596009	 903332002	 271447.
10:00:10  965 966	 1492596010	 179113331	 275781.
10:00:10  966 967	 1492596010	 451362657	 272249.
10:00:10  967 968	 1492596010	 727231046	 275869.
10:00:10  968 969	 1492596010	 950213748	 222982.
10:00:11  969 970	 1492596011	 222035785	 271822.
10:00:11  970 971	 1492596011	 493644301	 271609.
10:00:11  971 972	 1492596011	 769614206	 275970.
10:00:12  972 973	 1492596012	 40696591	 271082.
10:00:12  973 974	 1492596012	 311690137	 270994.
10:00:12  974 975	 1492596012	 586903631	 275213.
10:00:12  975 976	 1492596012	 858122593	 271219.
10:00:13  976 977	 1492596013	 80152955	 222031.
10:00:13  977 978	 1492596013	 351547897	 271395.
10:00:13  978 979	 1492596013	 623312282	 271764.
10:00:13  979 980	 1492596013	 899648203	 276336.
10:00:14  980 981	 1492596014	 175370151	 275722.
10:00:14  981 982	 1492596014	 503938593	 328568.
10:00:14  982 983	 1492596014	 833109071	 329171.
10:00:15  983 984	 1492596015	 55729554	 222620.
10:00:15  984 985	 1492596015	 326991362	 271262.
10:00:15  985 986	 1492596015	 598879401	 271888.
10:00:15  986 987	 1492596015	 874772825	 275894.
10:00:16  987 988	 1492596016	 146420126	 271647.
10:00:16  988 989	 1492596016	 421943009	 275523.
10:00:16  989 990	 1492596016	 694093599	 272150.
10:00:16  990 991	 1492596016	 916380279	 222287.
10:00:17  991 992	 1492596017	 191616948	 275237.
10:00:17  992 993	 1492596017	 463316296	 271699.
10:00:17  993 994	 1492596017	 739191451	 275875.
10:00:18  994 995	 1492596018	 10848792	 271657.
10:00:18  995 996	 1492596018	 233705013	 222857.
10:00:18  996 997	 1492596018	 509641016	 275936.
10:00:18  997 998	 1492596018	 781339347	 271698.
10:00:19  998 999	 1492596019	 52887626	 271548.
10:00:19  999 1000	 1492596019	 328665379	 275778.
10:00:19 1000 1001	 1492596019	 600456869	 271792.
10:00:19 1001 1002	 1492596019	 823072143	 222615.
10:00:20 1002 1003	 1492596020	 98696901	 275625.
10:00:20 1003 1004	 1492596020	 369862057	 271165.
10:00:20 1004 1005	 1492596020	 645743130	 275881.
10:00:20 1005 1006	 1492596020	 917253267	 271510.
10:00:21 1006 1007	 1492596021	 139770202	 222517.
10:00:21 1007 1008	 1492596021	 411164540	 271394.
10:00:21 1008 1009	 1492596021	 687233800	 276070.
10:00:21 1009 1010	 1492596021	 957970331	 270736.
10:00:22 1010 1011	 1492596022	 228964253	 270994.
10:00:22 1011 1012	 1492596022	 450906139	 221942.
10:00:22 1012 1013	 1492596022	 721283460	 270377.
10:00:22 1013 1014	 1492596022	 992033673	 270750.
10:00:23 1014 1015	 1492596023	 267097328	 275064.
10:00:23 1015 1016	 1492596023	 538279377	 271182.
10:00:23 1016 1017	 1492596023	 809525841	 271247.
10:00:24 1017 1018	 1492596024	 31403335	 221877.
10:00:24 1018 1019	 1492596024	 301989459	 270586.
10:00:24 1019 1020	 1492596024	 573820290	 271831.
10:00:24 1020 1021	 1492596024	 849898225	 276078.
10:00:25 1021 1022	 1492596025	 125894868	 275997.
10:00:25 1022 1023	 1492596025	 397768925	 271874.
10:00:25 1023 1024	 1492596025	 669700116	 271931.
10:00:25 1024 1025	 1492596025	 946112891	 276413.
10:00:26 1025 1026	 1492596026	 218068399	 271955.
10:00:26 1026 1027	 1492596026	 493515224	 275447.
10:00:26 1027 1028	 1492596026	 765368087	 271853.
10:00:26 1028 1029	 1492596026	 988218963	 222851.
10:00:27 1029 1030	 1492596027	 260027147	 271808.
10:00:27 1030 1031	 1492596027	 532082036	 272055.
10:00:27 1031 1032	 1492596027	 807962262	 275880.
10:00:28 1032 1033	 1492596028	 84163037	 276201.
10:00:28 1033 1034	 1492596028	 355844366	 271681.
10:00:28 1034 1035	 1492596028	 631721779	 275877.
10:00:28 1035 1036	 1492596028	 903898702	 272177.
10:00:29 1036 1037	 1492596029	 175787415	 271889.
10:00:29 1037 1038	 1492596029	 398325150	 222538.
10:00:29 1038 1039	 1492596029	 674371246	 276046.
10:00:29 1039 1040	 1492596029	 946201605	 271830.
10:00:30 1040 1041	 1492596030	 217785991	 271585.
10:00:30 1041 1042	 1492596030	 493303817	 275518.
10:00:30 1042 1043	 1492596030	 768742447	 275438.
10:00:31 1043 1044	 1492596031	 40796329	 272054.
10:00:31 1044 1045	 1492596031	 316942008	 276146.
10:00:31 1045 1046	 1492596031	 536031603	 219089.
10:00:31 1046 1047	 1492596031	 812344132	 276313.
10:00:32 1047 1048	 1492596032	 84172198	 271828.
10:00:32 1048 1049	 1492596032	 360238677	 276066.
10:00:32 1049 1050	 1492596032	 632272746	 272034.
10:00:32 1050 1051	 1492596032	 908113331	 275841.
10:00:33 1051 1052	 1492596033	 179780460	 271667.
10:00:33 1052 1053	 1492596033	 402329831	 222550.
10:00:33 1053 1054	 1492596033	 678108849	 275779.
10:00:33 1054 1055	 1492596033	 950164647	 272055.
10:00:34 1055 1056	 1492596034	 225685270	 275521.
10:00:34 1056 1057	 1492596034	 496904654	 271219.
10:00:34 1057 1058	 1492596034	 772763697	 275859.
10:00:34 1058 1059	 1492596034	 995789677	 223026.
10:00:35 1059 1060	 1492596035	 267429045	 271640.
10:00:35 1060 1061	 1492596035	 543055696	 275626.
10:00:35 1061 1062	 1492596035	 814919354	 271864.
10:00:36 1062 1063	 1492596036	 86599069	 271680.
10:00:36 1063 1064	 1492596036	 362256748	 275657.
10:00:36 1064 1065	 1492596036	 584849821	 222594.
10:00:36 1065 1066	 1492596036	 860744803	 275895.
10:00:37 1066 1067	 1492596037	 132355135	 271610.
10:00:37 1067 1068	 1492596037	 408021373	 275666.
10:00:37 1068 1069	 1492596037	 653830671	 245809.
10:00:37 1069 1070	 1492596037	 929340630	 275510.
10:00:38 1070 1071	 1492596038	 201375469	 272035.
10:00:38 1071 1072	 1492596038	 476960331	 275585.
10:00:38 1072 1073	 1492596038	 748499129	 271539.
10:00:38 1073 1074	 1492596038	 971063015	 222564.
10:00:39 1074 1075	 1492596039	 247150395	 276087.
10:00:39 1075 1076	 1492596039	 519115094	 271965.
10:00:39 1076 1077	 1492596039	 794715883	 275601.
10:00:40 1077 1078	 1492596040	 66397702	 271681.
10:00:40 1078 1079	 1492596040	 342279261	 275882.
10:00:40 1079 1080	 1492596040	 613774881	 271496.
10:00:40 1080 1081	 1492596040	 835998374	 222223.
10:00:41 1081 1082	 1492596041	 111766770	 275768.
10:00:41 1082 1083	 1492596041	 383327382	 271561.
10:00:41 1083 1084	 1492596041	 659565983	 276239.
10:00:41 1084 1085	 1492596041	 931040252	 271474.
10:00:42 1085 1086	 1492596042	 207329351	 276290.
10:00:42 1086 1087	 1492596042	 429744392	 222414.
10:00:42 1087 1088	 1492596042	 701515732	 271771.
10:00:42 1088 1089	 1492596042	 977123490	 275608.
10:00:43 1089 1090	 1492596043	 249312956	 272190.
10:00:43 1090 1091	 1492596043	 524959805	 275647.
10:00:43 1091 1092	 1492596043	 743893560	 218933.
10:00:44 1092 1093	 1492596044	 19652031	 275759.
10:00:44 1093 1094	 1492596044	 291036172	 271384.
10:00:44 1094 1095	 1492596044	 566469283	 275433.
10:00:44 1095 1096	 1492596044	 788645525	 222176.
10:00:45 1096 1097	 1492596045	 56473193	 267828.
10:00:45 1097 1098	 1492596045	 332215995	 275743.
10:00:45 1098 1099	 1492596045	 603617457	 271401.
10:00:45 1099 1100	 1492596045	 875458003	 271841.
10:00:46 1100 1101	 1492596046	 151013621	 275555.
10:00:46 1101 1102	 1492596046	 426622908	 275610.
10:00:46 1102 1103	 1492596046	 645450895	 218828.
10:00:46 1103 1104	 1492596046	 920918385	 275467.
10:00:47 1104 1105	 1492596047	 192388871	 271471.
10:00:47 1105 1106	 1492596047	 468045962	 275657.
10:00:47 1106 1107	 1492596047	 744486087	 276440.
10:00:48 1107 1108	 1492596048	 16477400	 271991.
10:00:48 1108 1109	 1492596048	 239197489	 222720.
10:00:48 1109 1110	 1492596048	 510498143	 271301.
10:00:48 1110 1111	 1492596048	 786288999	 275791.
10:00:49 1111 1112	 1492596049	 58712665	 272423.
10:00:49 1112 1113	 1492596049	 330264769	 271553.
10:00:49 1113 1114	 1492596049	 606025436	 275760.
10:00:49 1114 1115	 1492596049	 828301328	 222276.
10:00:50 1115 1116	 1492596050	 99792401	 271491.
10:00:50 1116 1117	 1492596050	 375705559	 275913.
10:00:50 1117 1118	 1492596050	 647623999	 271919.
10:00:50 1118 1119	 1492596050	 923296796	 275672.
10:00:51 1119 1120	 1492596051	 194879839	 271584.
10:00:51 1120 1121	 1492596051	 417405600	 222525.
10:00:51 1121 1122	 1492596051	 689549261	 272144.
10:00:51 1122 1123	 1492596051	 965805374	 276256.
10:00:52 1123 1124	 1492596052	 237878761	 272073.
10:00:52 1124 1125	 1492596052	 510096598	 272218.
10:00:52 1125 1126	 1492596052	 785914004	 275818.
