06:10:53    0 Step	 time(s)	 time(ns)	 delta(ms)
06:10:53    0 1	 1492495853	 208377318	 913.
06:10:53    1 2	 1492495853	 485064187	 276687.
06:10:53    2 3	 1492495853	 761019820	 275956.
06:10:54    3 4	 1492495854	 33001165	 271981.
06:10:54    4 5	 1492495854	 309319804	 276318.
06:10:54    5 6	 1492495854	 581383246	 272064.
06:10:54    6 7	 1492495854	 858109037	 276726.
06:10:55    7 8	 1492495855	 134501761	 276392.
06:10:55    8 9	 1492495855	 406992614	 272491.
06:10:55    9 10	 1492495855	 679293817	 272302.
06:10:55   10 11	 1492495855	 955781860	 276488.
06:10:56   11 12	 1492495856	 228201923	 272420.
06:10:56   12 13	 1492495856	 504319840	 276118.
06:10:56   13 14	 1492495856	 776722118	 272402.
06:10:57   14 15	 1492495857	 52723615	 276001.
06:10:57   15 16	 1492495857	 324091081	 271368.
06:10:57   16 17	 1492495857	 546246448	 222155.
06:10:57   17 18	 1492495857	 821999606	 275753.
06:10:58   18 19	 1492495858	 94341078	 272342.
06:10:58   19 20	 1492495858	 370534990	 276194.
06:10:58   20 21	 1492495858	 643039108	 272504.
06:10:58   21 22	 1492495858	 915535022	 272496.
06:10:59   22 23	 1492495859	 191850290	 276315.
06:10:59   23 24	 1492495859	 463324806	 271475.
06:10:59   24 25	 1492495859	 739302444	 275977.
06:11:00   25 26	 1492495860	 10773114	 271471.
06:11:00   26 27	 1492495860	 233531256	 222758.
06:11:00   27 28	 1492495860	 509154159	 275623.
06:11:00   28 29	 1492495860	 781438885	 272285.
06:11:01   29 30	 1492495861	 53009258	 271570.
06:11:01   30 31	 1492495861	 328197072	 275188.
06:11:01   31 32	 1492495861	 599450826	 271254.
06:11:01   32 33	 1492495861	 874907503	 275456.
06:11:02   33 34	 1492495862	 93465844	 218559.
06:11:02   34 35	 1492495862	 369162257	 275696.
06:11:02   35 36	 1492495862	 640720273	 271558.
06:11:02   36 37	 1492495862	 912260018	 271540.
06:11:03   37 38	 1492495863	 187607735	 275347.
06:11:03   38 39	 1492495863	 458702727	 271095.
06:11:03   39 40	 1492495863	 730144443	 271442.
06:11:04   40 41	 1492495864	 5791406	 275647.
06:11:04   41 42	 1492495864	 277389420	 271598.
06:11:04   42 43	 1492495864	 552481638	 275093.
06:11:04   43 44	 1492495864	 771021007	 218539.
06:11:05   44 45	 1492495865	 46612597	 275591.
06:11:05   45 46	 1492495865	 317858725	 271246.
06:11:05   46 47	 1492495865	 589041053	 271183.
06:11:05   47 48	 1492495865	 864774027	 275733.
06:11:06   48 49	 1492495866	 136505584	 271731.
06:11:06   49 50	 1492495866	 412341697	 275836.
06:11:06   50 51	 1492495866	 683932039	 271591.
06:11:06   51 52	 1492495866	 959144998	 275213.
06:11:07   52 53	 1492495867	 230541586	 271396.
06:11:07   53 54	 1492495867	 453168817	 222628.
06:11:07   54 55	 1492495867	 728812478	 275643.
06:11:07   55 56	 1492495868	 662011	 271850.
06:11:08   56 57	 1492495868	 276037290	 275375.
06:11:08   57 58	 1492495868	 547353915	 271317.
06:11:08   58 59	 1492495868	 819318962	 271965.
06:11:09   59 60	 1492495869	 95483092	 276164.
06:11:09   60 61	 1492495869	 367928717	 272445.
06:11:09   61 62	 1492495869	 644321729	 276393.
06:11:09   62 63	 1492495869	 916290301	 271969.
06:11:10   63 64	 1492495870	 143454890	 227165.
06:11:10   64 65	 1492495870	 414800620	 271345.
06:11:10   65 66	 1492495870	 690454448	 275654.
06:11:10   66 67	 1492495870	 962631987	 272178.
06:11:11   67 68	 1492495871	 238675683	 276044.
06:11:11   68 69	 1492495871	 511100330	 272424.
06:11:11   69 70	 1492495871	 787033394	 275933.
06:11:12   70 71	 1492495872	 9912365	 222879.
06:11:12   71 72	 1492495872	 281599944	 271688.
06:11:12   72 73	 1492495872	 557645068	 276045.
06:11:12   73 74	 1492495872	 829289466	 271644.
06:11:13   74 75	 1492495873	 104817773	 275528.
06:11:13   75 76	 1492495873	 376197522	 271380.
06:11:13   76 77	 1492495873	 647688004	 271491.
06:11:13   77 78	 1492495873	 874155899	 226468.
06:11:14   78 79	 1492495874	 146200153	 272044.
06:11:14   79 80	 1492495874	 422287046	 276087.
06:11:14   80 81	 1492495874	 693530538	 271243.
06:11:14   81 82	 1492495874	 965600901	 272071.
06:11:15   82 83	 1492495875	 241478403	 275877.
06:11:15   83 84	 1492495875	 513047764	 271569.
06:11:15   84 85	 1492495875	 739854706	 226807.
06:11:16   85 86	 1492495876	 11847797	 271994.
06:11:16   86 87	 1492495876	 283907137	 272059.
06:11:16   87 88	 1492495876	 559862959	 275956.
06:11:16   88 89	 1492495876	 831589080	 271726.
06:11:17   89 90	 1492495877	 107429013	 275840.
06:11:17   90 91	 1492495877	 378990481	 271561.
06:11:17   91 92	 1492495877	 605613890	 226624.
06:11:17   92 93	 1492495877	 877902589	 272288.
06:11:18   93 94	 1492495878	 153969975	 276068.
06:11:18   94 95	 1492495878	 425655560	 271685.
06:11:18   95 96	 1492495878	 701519344	 275864.
06:11:18   96 97	 1492495878	 973338995	 271820.
06:11:19   97 98	 1492495879	 195983418	 222644.
06:11:19   98 99	 1492495879	 472211288	 276228.
06:11:19   99 100	 1492495879	 743968444	 271757.
06:11:20  100 101	 1492495880	 19779820	 275812.
06:11:20  101 102	 1492495880	 291466638	 271686.
06:11:20  102 103	 1492495880	 514261146	 222795.
06:11:20  103 104	 1492495880	 790161406	 275900.
06:11:21  104 105	 1492495881	 66081756	 275920.
06:11:21  105 106	 1492495881	 337343272	 271262.
06:11:21  106 107	 1492495881	 613224461	 275881.
06:11:21  107 108	 1492495881	 836146711	 222922.
06:11:22  108 109	 1492495882	 108231953	 272086.
06:11:22  109 110	 1492495882	 384105704	 275873.
06:11:22  110 111	 1492495882	 660175136	 276070.
06:11:22  111 112	 1492495882	 932133024	 271958.
06:11:23  112 113	 1492495883	 208225998	 276093.
06:11:23  113 114	 1492495883	 430968233	 222742.
06:11:23  114 115	 1492495883	 702963033	 271995.
06:11:23  115 116	 1492495883	 978664647	 275701.
06:11:24  116 117	 1492495884	 250217038	 271553.
06:11:24  117 118	 1492495884	 526129873	 275913.
06:11:24  118 119	 1492495884	 748608743	 222478.
06:11:25  119 120	 1492495885	 20517921	 271910.
06:11:25  120 121	 1492495885	 296335415	 275817.
06:11:25  121 122	 1492495885	 568107561	 271772.
06:11:25  122 123	 1492495885	 839749059	 271642.
06:11:26  123 124	 1492495886	 62338683	 222589.
06:11:26  124 125	 1492495886	 338468991	 276131.
06:11:26  125 126	 1492495886	 610499518	 272030.
06:11:26  126 127	 1492495886	 886860412	 276361.
06:11:27  127 128	 1492495887	 158196721	 271337.
06:11:27  128 129	 1492495887	 434248392	 276051.
06:11:27  129 130	 1492495887	 706383526	 272135.
06:11:27  130 131	 1492495887	 929029924	 222647.
06:11:28  131 132	 1492495888	 204752843	 275723.
06:11:28  132 133	 1492495888	 476785004	 272032.
06:11:28  133 134	 1492495888	 748853122	 272068.
06:11:29  134 135	 1492495889	 24543007	 275690.
06:11:29  135 136	 1492495889	 300504473	 275961.
06:11:29  136 137	 1492495889	 576198190	 275694.
06:11:29  137 138	 1492495889	 799082195	 222884.
06:11:30  138 139	 1492495890	 70675760	 271593.
06:11:30  139 140	 1492495890	 346992430	 276317.
06:11:30  140 141	 1492495890	 618808553	 271816.
06:11:30  141 142	 1492495890	 895216194	 276408.
06:11:31  142 143	 1492495891	 167524779	 272308.
06:11:31  143 144	 1492495891	 390222175	 222698.
06:11:31  144 145	 1492495891	 662153684	 271931.
06:11:31  145 146	 1492495891	 934173405	 272020.
06:11:32  146 147	 1492495892	 210596736	 276424.
06:11:32  147 148	 1492495892	 482157274	 271560.
06:11:32  148 149	 1492495892	 758498976	 276342.
06:11:33  149 150	 1492495893	 30602981	 272104.
06:11:33  150 151	 1492495893	 252683870	 222081.
06:11:33  151 152	 1492495893	 529070866	 276387.
06:11:33  152 153	 1492495893	 800882734	 271811.
06:11:34  153 154	 1492495894	 76450855	 275569.
06:11:34  154 155	 1492495894	 348303953	 271853.
06:11:34  155 156	 1492495894	 623885146	 275581.
06:11:34  156 157	 1492495894	 846799460	 222914.
06:11:35  157 158	 1492495895	 118496841	 271698.
06:11:35  158 159	 1492495895	 394399729	 275902.
06:11:35  159 160	 1492495895	 665531180	 271132.
06:11:35  160 161	 1492495895	 936620806	 271090.
06:11:36  161 162	 1492495896	 207484398	 270863.
06:11:36  162 163	 1492495896	 483279865	 275796.
06:11:36  163 164	 1492495896	 754486219	 271206.
06:11:36  164 165	 1492495896	 976341681	 221855.
06:11:37  165 166	 1492495897	 251464700	 275123.
06:11:37  166 167	 1492495897	 522533629	 271069.
06:11:37  167 168	 1492495897	 798436803	 275904.
06:11:38  168 169	 1492495898	 70610858	 272174.
06:11:38  169 170	 1492495898	 346797048	 276186.
06:11:38  170 171	 1492495898	 618997532	 272200.
06:11:38  171 172	 1492495898	 895269594	 276272.
06:11:39  172 173	 1492495899	 167607941	 272339.
06:11:39  173 174	 1492495899	 443894186	 276286.
06:11:39  174 175	 1492495899	 715822198	 271928.
06:11:39  175 176	 1492495899	 987421241	 271599.
06:11:40  176 177	 1492495900	 263306521	 275885.
06:11:40  177 178	 1492495900	 535420149	 272114.
06:11:40  178 179	 1492495900	 811329581	 275909.
06:11:41  179 180	 1492495901	 82882857	 271554.
06:11:41  180 181	 1492495901	 305555095	 222672.
06:11:41  181 182	 1492495901	 577238804	 271684.
06:11:41  182 183	 1492495901	 852813156	 275574.
06:11:42  183 184	 1492495902	 125159193	 272346.
06:11:42  184 185	 1492495902	 397106079	 271947.
06:11:42  185 186	 1492495902	 672872107	 275766.
06:11:42  186 187	 1492495902	 944391125	 271519.
06:11:43  187 188	 1492495903	 216638295	 272247.
06:11:43  188 189	 1492495903	 492442864	 275805.
06:11:43  189 190	 1492495903	 764478616	 272035.
06:11:44  190 191	 1492495904	 40080980	 275603.
06:11:44  191 192	 1492495904	 311446636	 271365.
06:11:44  192 193	 1492495904	 582750749	 271304.
06:11:44  193 194	 1492495904	 805014541	 222264.
06:11:45  194 195	 1492495905	 81202266	 276188.
06:11:45  195 196	 1492495905	 352996686	 271794.
06:11:45  196 197	 1492495905	 628910014	 275914.
06:11:45  197 198	 1492495905	 900770596	 271860.
06:11:46  198 199	 1492495906	 172638789	 271869.
06:11:46  199 200	 1492495906	 448392662	 275753.
06:11:46  200 201	 1492495906	 724064180	 275672.
06:11:46  201 202	 1492495906	 946519890	 222456.
06:11:47  202 203	 1492495907	 218303362	 271783.
06:11:47  203 204	 1492495907	 489566169	 271263.
06:11:47  204 205	 1492495907	 765637065	 276071.
06:11:48  205 206	 1492495908	 37175970	 271539.
06:11:48  206 207	 1492495908	 312924131	 275748.
06:11:48  207 208	 1492495908	 585450318	 272526.
06:11:48  208 209	 1492495908	 861394986	 275945.
06:11:49  209 210	 1492495909	 133561631	 272166.
06:11:49  210 211	 1492495909	 405482225	 271921.
06:11:49  211 212	 1492495909	 628196390	 222714.
06:11:49  212 213	 1492495909	 904231031	 276035.
06:11:50  213 214	 1492495910	 175712754	 271481.
06:11:50  214 215	 1492495910	 447384106	 271672.
06:11:50  215 216	 1492495910	 723065206	 275681.
06:11:50  216 217	 1492495910	 994735617	 271670.
06:11:51  217 218	 1492495911	 266626134	 271891.
06:11:51  218 219	 1492495911	 538428288	 271802.
06:11:51  219 220	 1492495911	 814670245	 276242.
06:11:52  220 221	 1492495912	 86706647	 272036.
06:11:52  221 222	 1492495912	 309859337	 223153.
06:11:52  222 223	 1492495912	 585386705	 275527.
06:11:52  223 224	 1492495912	 857238749	 271852.
06:11:53  224 225	 1492495913	 129221459	 271983.
06:11:53  225 226	 1492495913	 405206047	 275985.
06:11:53  226 227	 1492495913	 677132798	 271927.
06:11:53  227 228	 1492495913	 953767827	 276635.
06:11:54  228 229	 1492495914	 226010630	 272242.
06:11:54  229 230	 1492495914	 498239225	 272229.
06:11:54  230 231	 1492495914	 774313767	 276074.
06:11:55  231 232	 1492495915	 45905826	 271593.
06:11:55  232 233	 1492495915	 321603957	 275698.
06:11:55  233 234	 1492495915	 593368544	 271764.
06:11:55  234 235	 1492495915	 868717961	 275350.
06:11:56  235 236	 1492495916	 91339320	 222621.
06:11:56  236 237	 1492495916	 363347636	 272008.
06:11:56  237 238	 1492495916	 635129165	 271782.
06:11:56  238 239	 1492495916	 910866926	 275738.
06:11:57  239 240	 1492495917	 181779277	 270912.
06:11:57  240 241	 1492495917	 452969950	 271191.
06:11:57  241 242	 1492495917	 724656464	 271686.
06:11:57  242 243	 1492495918	 489121	 275833.
06:11:58  243 244	 1492495918	 271992301	 271503.
06:11:58  244 245	 1492495918	 548057415	 276065.
06:11:58  245 246	 1492495918	 820331634	 272274.
06:11:59  246 247	 1492495919	 43095492	 222764.
06:11:59  247 248	 1492495919	 319220099	 276125.
06:11:59  248 249	 1492495919	 591041759	 271821.
06:11:59  249 250	 1492495919	 867009787	 275969.
06:12:00  250 251	 1492495920	 138864687	 271854.
06:12:00  251 252	 1492495920	 414959820	 276096.
06:12:00  252 253	 1492495920	 686675869	 271716.
06:12:00  253 254	 1492495920	 958201977	 271526.
06:12:01  254 255	 1492495921	 229205639	 271003.
06:12:01  255 256	 1492495921	 451451869	 222247.
06:12:01  256 257	 1492495921	 726843854	 275392.
06:12:01  257 258	 1492495921	 998551437	 271707.
06:12:02  258 259	 1492495922	 269725093	 271174.
06:12:02  259 260	 1492495922	 541026001	 271301.
06:12:02  260 261	 1492495922	 816632230	 275606.
06:12:03  261 262	 1492495923	 87882810	 271251.
06:12:03  262 263	 1492495923	 359244641	 271361.
06:12:03  263 264	 1492495923	 635140392	 275896.
06:12:03  264 265	 1492495923	 907027554	 271887.
06:12:04  265 266	 1492495924	 182587866	 275561.
06:12:04  266 267	 1492495924	 454163991	 271576.
06:12:04  267 268	 1492495924	 725419963	 271256.
06:12:04  268 269	 1492495924	 947841000	 222421.
06:12:05  269 270	 1492495925	 219186241	 271345.
06:12:05  270 271	 1492495925	 494808180	 275622.
06:12:05  271 272	 1492495925	 766194791	 271386.
06:12:06  272 273	 1492495926	 37534658	 271340.
06:12:06  273 274	 1492495926	 309081918	 271548.
06:12:06  274 275	 1492495926	 584465485	 275383.
06:12:06  275 276	 1492495926	 855784198	 271319.
06:12:07  276 277	 1492495927	 131093862	 275310.
06:12:07  277 278	 1492495927	 349549671	 218455.
06:12:07  278 279	 1492495927	 624787544	 275238.
06:12:07  279 280	 1492495927	 896690156	 271903.
06:12:08  280 281	 1492495928	 172540876	 275851.
06:12:08  281 282	 1492495928	 444207030	 271666.
06:12:08  282 283	 1492495928	 716019138	 271812.
06:12:08  283 284	 1492495928	 992089331	 276070.
06:12:09  284 285	 1492495929	 268503408	 276414.
06:12:09  285 286	 1492495929	 540726011	 272223.
06:12:09  286 287	 1492495929	 816988911	 276263.
06:12:10  287 288	 1492495930	 88905692	 271916.
06:12:10  288 289	 1492495930	 311040209	 222135.
06:12:10  289 290	 1492495930	 583001314	 271961.
06:12:10  290 291	 1492495930	 858856520	 275855.
06:12:11  291 292	 1492495931	 130593854	 271738.
06:12:11  292 293	 1492495931	 406382680	 275788.
06:12:11  293 294	 1492495931	 678327835	 271946.
06:12:11  294 295	 1492495931	 900756574	 222428.
06:12:12  295 296	 1492495932	 176596690	 275840.
06:12:12  296 297	 1492495932	 447888144	 271292.
06:12:12  297 298	 1492495932	 723300766	 275412.
06:12:12  298 299	 1492495932	 995081582	 271781.
06:12:13  299 300	 1492495933	 217347332	 222266.
06:12:13  300 301	 1492495933	 488834716	 271487.
06:12:13  301 302	 1492495933	 765209682	 276375.
06:12:14  302 303	 1492495934	 37075038	 271866.
06:12:14  303 304	 1492495934	 308681685	 271606.
06:12:14  304 305	 1492495934	 584279347	 275598.
06:12:14  305 306	 1492495934	 856178482	 271899.
06:12:15  306 307	 1492495935	 78111175	 221933.
06:12:15  307 308	 1492495935	 349649529	 271538.
06:12:15  308 309	 1492495935	 625122001	 275473.
06:12:15  309 310	 1492495935	 897023806	 271902.
06:12:16  310 311	 1492495936	 172795886	 275772.
06:12:16  311 312	 1492495936	 443686555	 270890.
06:12:16  312 313	 1492495936	 666003997	 222318.
06:12:16  313 314	 1492495936	 937483924	 271480.
06:12:17  314 315	 1492495937	 212698687	 275214.
06:12:17  315 316	 1492495937	 488114408	 275416.
06:12:17  316 317	 1492495937	 759406942	 271293.
06:12:17  317 318	 1492495937	 981966682	 222559.
06:12:18  318 319	 1492495938	 253290535	 271324.
06:12:18  319 320	 1492495938	 529010399	 275720.
06:12:18  320 321	 1492495938	 800333821	 271324.
06:12:19  321 322	 1492495939	 76527991	 276194.
06:12:19  322 323	 1492495939	 348600818	 272073.
06:12:19  323 324	 1492495939	 623978724	 275377.
06:12:19  324 325	 1492495939	 895051924	 271074.
06:12:20  325 326	 1492495940	 117138133	 222086.
06:12:20  326 327	 1492495940	 388132687	 270994.
06:12:20  327 328	 1492495940	 659229057	 271097.
06:12:20  328 329	 1492495940	 930478908	 271250.
06:12:21  329 330	 1492495941	 206014356	 275535.
06:12:21  330 331	 1492495941	 477918390	 271904.
06:12:21  331 332	 1492495941	 753727195	 275809.
06:12:22  332 333	 1492495942	 25570672	 271843.
06:12:22  333 334	 1492495942	 297416859	 271847.
06:12:22  334 335	 1492495942	 572958056	 275541.
06:12:22  335 336	 1492495942	 844731119	 271773.
06:12:23  336 337	 1492495943	 120566656	 275835.
06:12:23  337 338	 1492495943	 392273420	 271707.
06:12:23  338 339	 1492495943	 667835065	 275562.
06:12:23  339 340	 1492495943	 890396739	 222561.
06:12:24  340 341	 1492495944	 162008560	 271612.
06:12:24  341 342	 1492495944	 434089352	 272081.
06:12:24  342 343	 1492495944	 710514681	 276425.
06:12:24  343 344	 1492495944	 982445492	 271931.
06:12:25  344 345	 1492495945	 253819644	 271374.
06:12:25  345 346	 1492495945	 525128414	 271309.
06:12:25  346 347	 1492495945	 800290215	 275162.
06:12:26  347 348	 1492495946	 71372837	 271083.
06:12:26  348 349	 1492495946	 342537966	 271165.
06:12:26  349 350	 1492495946	 617739603	 275201.
06:12:26  350 351	 1492495946	 889009810	 271271.
06:12:27  351 352	 1492495947	 160561723	 271551.
06:12:27  352 353	 1492495947	 431882947	 271322.
06:12:27  353 354	 1492495947	 650293085	 218410.
06:12:27  354 355	 1492495947	 926030243	 275737.
06:12:28  355 356	 1492495948	 197588162	 271558.
06:12:28  356 357	 1492495948	 469189946	 271602.
06:12:28  357 358	 1492495948	 740860602	 271670.
06:12:29  358 359	 1492495949	 16388022	 275528.
06:12:29  359 360	 1492495949	 287863733	 271475.
06:12:29  360 361	 1492495949	 559187616	 271324.
06:12:29  361 362	 1492495949	 830708355	 271521.
06:12:30  362 363	 1492495950	 106142739	 275435.
06:12:30  363 364	 1492495950	 377911311	 271768.
06:12:30  364 365	 1492495950	 649286144	 271375.
06:12:30  365 366	 1492495950	 920661602	 271375.
06:12:31  366 367	 1492495951	 196466954	 275806.
06:12:31  367 368	 1492495951	 468228178	 271761.
06:12:31  368 369	 1492495951	 690565255	 222337.
06:12:31  369 370	 1492495951	 961923367	 271358.
06:12:32  370 371	 1492495952	 237357394	 275434.
06:12:32  371 372	 1492495952	 508727170	 271370.
06:12:32  372 373	 1492495952	 780258453	 271531.
06:12:33  373 374	 1492495953	 51776075	 271518.
06:12:33  374 375	 1492495953	 323200930	 271425.
06:12:33  375 376	 1492495953	 598633830	 275433.
06:12:33  376 377	 1492495953	 870691108	 272057.
06:12:34  377 378	 1492495954	 142380640	 271689.
06:12:34  378 379	 1492495954	 418098732	 275718.
06:12:34  379 380	 1492495954	 689425115	 271327.
06:12:34  380 381	 1492495954	 965131882	 275707.
06:12:35  381 382	 1492495955	 236529001	 271397.
06:12:35  382 383	 1492495955	 508255431	 271726.
06:12:35  383 384	 1492495955	 780036335	 271781.
06:12:36  384 385	 1492495956	 55780515	 275744.
06:12:36  385 386	 1492495956	 327063471	 271283.
06:12:36  386 387	 1492495956	 602861395	 275798.
06:12:36  387 388	 1492495956	 825455901	 222595.
06:12:37  388 389	 1492495957	 97088527	 271632.
06:12:37  389 390	 1492495957	 373113231	 276025.
06:12:37  390 391	 1492495957	 644650442	 271537.
06:12:37  391 392	 1492495957	 916039397	 271389.
06:12:38  392 393	 1492495958	 187453887	 271415.
06:12:38  393 394	 1492495958	 463253062	 275799.
06:12:38  394 395	 1492495958	 738879233	 275626.
06:12:39  395 396	 1492495959	 10090243	 271211.
06:12:39  396 397	 1492495959	 281373518	 271283.
06:12:39  397 398	 1492495959	 503367680	 221994.
06:12:39  398 399	 1492495959	 774825780	 271458.
06:12:40  399 400	 1492495960	 49816852	 274992.
06:12:40  400 401	 1492495960	 320980879	 271164.
06:12:40  401 402	 1492495960	 592192108	 271211.
06:12:40  402 403	 1492495960	 867419195	 275227.
06:12:41  403 404	 1492495961	 138547199	 271128.
06:12:41  404 405	 1492495961	 414399430	 275852.
06:12:41  405 406	 1492495961	 685762879	 271364.
06:12:41  406 407	 1492495961	 907853833	 222091.
06:12:42  407 408	 1492495962	 179622253	 271768.
06:12:42  408 409	 1492495962	 450943225	 271321.
06:12:42  409 410	 1492495962	 726750580	 275807.
06:12:42  410 411	 1492495962	 998046228	 271296.
06:12:43  411 412	 1492495963	 273167080	 275121.
06:12:43  412 413	 1492495963	 544585966	 271419.
06:12:43  413 414	 1492495963	 816096097	 271510.
06:12:44  414 415	 1492495964	 87464065	 271368.
06:12:44  415 416	 1492495964	 358388868	 270925.
06:12:44  416 417	 1492495964	 633610283	 275221.
06:12:44  417 418	 1492495964	 904920151	 271310.
06:12:45  418 419	 1492495965	 127204842	 222285.
06:12:45  419 420	 1492495965	 402393021	 275188.
06:12:45  420 421	 1492495965	 669703918	 267311.
06:12:45  421 422	 1492495965	 944739714	 275035.
06:12:46  422 423	 1492495966	 215916116	 271177.
06:12:46  423 424	 1492495966	 487180327	 271264.
06:12:46  424 425	 1492495966	 763200997	 276021.
06:12:46  425 426	 1492495966	 986421017	 223220.
06:12:47  426 427	 1492495967	 257701746	 271280.
06:12:47  427 428	 1492495967	 529130773	 271430.
06:12:47  428 429	 1492495967	 804537442	 275406.
06:12:48  429 430	 1492495968	 75799083	 271262.
06:12:48  430 431	 1492495968	 347111994	 271313.
06:12:48  431 432	 1492495968	 623333503	 276221.
06:12:48  432 433	 1492495968	 845386880	 222054.
06:12:49  433 434	 1492495969	 117267391	 271880.
06:12:49  434 435	 1492495969	 393449432	 276182.
06:12:49  435 436	 1492495969	 665353794	 271905.
06:12:49  436 437	 1492495969	 941474019	 276120.
06:12:50  437 438	 1492495970	 213023975	 271550.
06:12:50  438 439	 1492495970	 484649905	 271626.
06:12:50  439 440	 1492495970	 711690068	 227040.
06:12:50  440 441	 1492495970	 983642445	 271952.
06:12:51  441 442	 1492495971	 255808487	 272166.
06:12:51  442 443	 1492495971	 531653670	 275845.
06:12:51  443 444	 1492495971	 807977730	 276324.
06:12:52  444 445	 1492495972	 80003747	 272027.
06:12:52  445 446	 1492495972	 352154987	 272151.
06:12:52  446 447	 1492495972	 628500925	 276346.
06:12:52  447 448	 1492495972	 900302721	 271801.
06:12:53  448 449	 1492495973	 123256060	 222954.
06:12:53  449 450	 1492495973	 398859486	 275603.
06:12:53  450 451	 1492495973	 670859664	 272000.
06:12:53  451 452	 1492495973	 947254523	 276395.
06:12:54  452 453	 1492495974	 219350570	 272096.
06:12:54  453 454	 1492495974	 495411497	 276061.
06:12:54  454 455	 1492495974	 766910215	 271499.
06:12:55  455 456	 1492495975	 38638669	 271728.
06:12:55  456 457	 1492495975	 260804217	 222166.
06:12:55  457 458	 1492495975	 536661684	 275857.
06:12:55  458 459	 1492495975	 808253247	 271592.
06:12:56  459 460	 1492495976	 84880338	 276627.
06:12:56  460 461	 1492495976	 356332365	 271452.
06:12:56  461 462	 1492495976	 632165978	 275834.
06:12:56  462 463	 1492495976	 904445328	 272279.
06:12:57  463 464	 1492495977	 180809687	 276364.
06:12:57  464 465	 1492495977	 453004344	 272195.
06:12:57  465 466	 1492495977	 724940952	 271937.
06:12:57  466 467	 1492495977	 951266553	 226325.
06:12:58  467 468	 1492495978	 222848684	 271582.
06:12:58  468 469	 1492495978	 498437133	 275589.
06:12:58  469 470	 1492495978	 770546164	 272109.
06:12:59  470 471	 1492495979	 46309468	 275763.
06:12:59  471 472	 1492495979	 318480827	 272172.
06:12:59  472 473	 1492495979	 590710891	 272230.
06:12:59  473 474	 1492495979	 813576112	 222865.
06:13:00  474 475	 1492495980	 89212171	 275636.
06:13:00  475 476	 1492495980	 360816664	 271604.
06:13:00  476 477	 1492495980	 636847345	 276031.
06:13:00  477 478	 1492495980	 908200161	 271353.
06:13:01  478 479	 1492495981	 184054324	 275854.
06:13:01  479 480	 1492495981	 455225397	 271171.
06:13:01  480 481	 1492495981	 677590024	 222365.
06:13:01  481 482	 1492495981	 949268955	 271679.
06:13:02  482 483	 1492495982	 220826226	 271557.
06:13:02  483 484	 1492495982	 496863279	 276037.
06:13:02  484 485	 1492495982	 768690412	 271827.
06:13:03  485 486	 1492495983	 44424203	 275734.
06:13:03  486 487	 1492495983	 315881518	 271457.
06:13:03  487 488	 1492495983	 587250728	 271369.
06:13:03  488 489	 1492495983	 858679309	 271429.
06:13:04  489 490	 1492495984	 133980378	 275301.
06:13:04  490 491	 1492495984	 405220327	 271240.
06:13:04  491 492	 1492495984	 676690513	 271470.
06:13:04  492 493	 1492495984	 947876304	 271186.
06:13:05  493 494	 1492495985	 223262920	 275387.
06:13:05  494 495	 1492495985	 494649326	 271386.
06:13:05  495 496	 1492495985	 766184559	 271535.
06:13:06  496 497	 1492495986	 41512327	 275328.
06:13:06  497 498	 1492495986	 259822026	 218310.
06:13:06  498 499	 1492495986	 535671673	 275849.
06:13:06  499 500	 1492495986	 807003830	 271333.
06:13:07  500 501	 1492495987	 82474546	 275470.
06:13:07  501 502	 1492495987	 353876035	 271402.
06:13:07  502 503	 1492495987	 629860665	 275984.
06:13:07  503 504	 1492495987	 901848095	 271988.
06:13:08  504 505	 1492495988	 177258551	 275410.
06:13:08  505 506	 1492495988	 448810732	 271552.
06:13:08  506 507	 1492495988	 671707329	 222897.
06:13:08  507 508	 1492495988	 943430811	 271724.
06:13:09  508 509	 1492495989	 219585192	 276154.
06:13:09  509 510	 1492495989	 491470826	 271886.
06:13:09  510 511	 1492495989	 767189364	 275718.
06:13:10  511 512	 1492495990	 38839874	 271651.
06:13:10  512 513	 1492495990	 315690870	 276851.
06:13:10  513 514	 1492495990	 570954793	 255263.
06:13:10  514 515	 1492495990	 847010973	 276057.
06:13:11  515 516	 1492495991	 119149248	 272138.
06:13:11  516 517	 1492495991	 395281632	 276132.
06:13:11  517 518	 1492495991	 671712071	 276431.
06:13:11  518 519	 1492495991	 894594034	 222882.
06:13:12  519 520	 1492495992	 167011079	 272417.
06:13:12  520 521	 1492495992	 439514043	 272503.
06:13:12  521 522	 1492495992	 715741898	 276228.
06:13:12  522 523	 1492495992	 987788768	 272046.
06:13:13  523 524	 1492495993	 263429514	 275641.
06:13:13  524 525	 1492495993	 535339314	 271910.
06:13:13  525 526	 1492495993	 811169480	 275830.
06:13:14  526 527	 1492495994	 82855331	 271686.
06:13:14  527 528	 1492495994	 354536033	 271681.
06:13:14  528 529	 1492495994	 630176176	 275640.
06:13:14  529 530	 1492495994	 901582671	 271406.
06:13:15  530 531	 1492495995	 176874442	 275292.
06:13:15  531 532	 1492495995	 448038267	 271164.
06:13:15  532 533	 1492495995	 670245189	 222207.
06:13:15  533 534	 1492495995	 941428882	 271184.
06:13:16  534 535	 1492495996	 212491805	 271063.
06:13:16  535 536	 1492495996	 487838750	 275346.
06:13:16  536 537	 1492495996	 758785475	 270947.
06:13:17  537 538	 1492495997	 29781593	 270996.
06:13:17  538 539	 1492495997	 304863445	 275082.
06:13:17  539 540	 1492495997	 522945814	 218083.
06:13:17  540 541	 1492495997	 798033492	 275087.
06:13:18  541 542	 1492495998	 69184469	 271151.
06:13:18  542 543	 1492495998	 344241706	 275057.
06:13:18  543 544	 1492495998	 615468533	 271227.
06:13:18  544 545	 1492495998	 886908456	 271440.
06:13:19  545 546	 1492495999	 158372595	 271464.
06:13:19  546 547	 1492495999	 433724131	 275352.
06:13:19  547 548	 1492495999	 656211506	 222487.
06:13:19  548 549	 1492495999	 927522816	 271312.
06:13:20  549 550	 1492496000	 199076673	 271553.
06:13:20  550 551	 1492496000	 474936478	 275860.
06:13:20  551 552	 1492496000	 746318626	 271382.
06:13:21  552 553	 1492496001	 18308824	 271991.
06:13:21  553 554	 1492496001	 294065938	 275757.
06:13:21  554 555	 1492496001	 565740837	 271675.
06:13:21  555 556	 1492496001	 837544835	 271804.
06:13:22  556 557	 1492496002	 114101064	 276556.
06:13:22  557 558	 1492496002	 386102142	 272001.
06:13:22  558 559	 1492496002	 662272104	 276170.
06:13:22  559 560	 1492496002	 934069189	 271797.
06:13:23  560 561	 1492496003	 210064474	 275995.
06:13:23  561 562	 1492496003	 481965627	 271901.
06:13:23  562 563	 1492496003	 704610009	 222645.
06:13:23  563 564	 1492496003	 980756483	 276146.
06:13:24  564 565	 1492496004	 252610215	 271854.
06:13:24  565 566	 1492496004	 528487344	 275877.
06:13:24  566 567	 1492496004	 800740672	 272253.
06:13:25  567 568	 1492496005	 72731487	 271991.
06:13:25  568 569	 1492496005	 348986077	 276255.
06:13:25  569 570	 1492496005	 621426362	 272440.
06:13:25  570 571	 1492496005	 897682764	 276256.
06:13:26  571 572	 1492496006	 169854525	 272172.
06:13:26  572 573	 1492496006	 445979782	 276125.
06:13:26  573 574	 1492496006	 717718497	 271739.
06:13:26  574 575	 1492496006	 993771907	 276054.
06:13:27  575 576	 1492496007	 216515134	 222743.
06:13:27  576 577	 1492496007	 492278805	 275764.
06:13:27  577 578	 1492496007	 764155039	 271876.
06:13:28  578 579	 1492496008	 39849605	 275694.
06:13:28  579 580	 1492496008	 316114058	 276265.
06:13:28  580 581	 1492496008	 588125626	 272011.
06:13:28  581 582	 1492496008	 860510794	 272385.
06:13:29  582 583	 1492496009	 132637195	 272127.
06:13:29  583 584	 1492496009	 409007487	 276370.
06:13:29  584 585	 1492496009	 681221018	 272214.
06:13:29  585 586	 1492496009	 957460258	 276239.
06:13:30  586 587	 1492496010	 229466193	 272006.
06:13:30  587 588	 1492496010	 451964587	 222498.
06:13:30  588 589	 1492496010	 727520392	 275556.
06:13:30  589 590	 1492496010	 999484453	 271964.
06:13:31  590 591	 1492496011	 275381362	 275897.
06:13:31  591 592	 1492496011	 547746062	 272365.
06:13:31  592 593	 1492496011	 819776527	 272030.
06:13:32  593 594	 1492496012	 95656243	 275880.
06:13:32  594 595	 1492496012	 367724633	 272068.
06:13:32  595 596	 1492496012	 639646550	 271922.
06:13:32  596 597	 1492496012	 915405605	 275759.
06:13:33  597 598	 1492496013	 190897822	 275493.
06:13:33  598 599	 1492496013	 409090216	 218192.
06:13:33  599 600	 1492496013	 681040312	 271950.
06:13:33  600 601	 1492496013	 956617360	 275577.
06:13:34  601 602	 1492496014	 227982755	 271365.
06:13:34  602 603	 1492496014	 499416413	 271434.
06:13:34  603 604	 1492496014	 770956901	 271541.
06:13:35  604 605	 1492496015	 46775262	 275818.
06:13:35  605 606	 1492496015	 318530623	 271755.
06:13:35  606 607	 1492496015	 589989416	 271459.
06:13:35  607 608	 1492496015	 865889523	 275900.
06:13:36  608 609	 1492496016	 137641108	 271752.
06:13:36  609 610	 1492496016	 360248635	 222607.
06:13:36  610 611	 1492496016	 631705128	 271457.
06:13:36  611 612	 1492496016	 906804105	 275099.
06:13:37  612 613	 1492496017	 177983105	 271179.
06:13:37  613 614	 1492496017	 449297136	 271314.
06:13:37  614 615	 1492496017	 720816913	 271520.
06:13:37  615 616	 1492496017	 996371268	 275554.
06:13:38  616 617	 1492496018	 267565465	 271194.
06:13:38  617 618	 1492496018	 543569368	 276004.
06:13:38  618 619	 1492496018	 815335559	 271766.
06:13:39  619 620	 1492496019	 87204986	 271870.
06:13:39  620 621	 1492496019	 363179398	 275974.
06:13:39  621 622	 1492496019	 585886697	 222707.
06:13:39  622 623	 1492496019	 857672387	 271786.
06:13:40  623 624	 1492496020	 129279217	 271607.
06:13:40  624 625	 1492496020	 405181235	 275902.
06:13:40  625 626	 1492496020	 676799799	 271619.
06:13:40  626 627	 1492496020	 952973343	 276173.
06:13:41  627 628	 1492496021	 224425378	 271452.
06:13:41  628 629	 1492496021	 496113749	 271688.
06:13:41  629 630	 1492496021	 767811129	 271698.
06:13:42  630 631	 1492496022	 43715406	 275904.
06:13:42  631 632	 1492496022	 315282603	 271567.
06:13:42  632 633	 1492496022	 587250906	 271969.
06:13:42  633 634	 1492496022	 863192754	 275941.
06:13:43  634 635	 1492496023	 134999021	 271807.
06:13:43  635 636	 1492496023	 410861491	 275862.
06:13:43  636 637	 1492496023	 683160735	 272299.
06:13:43  637 638	 1492496023	 954975020	 271815.
06:13:44  638 639	 1492496024	 177702747	 222727.
06:13:44  639 640	 1492496024	 453951488	 276249.
06:13:44  640 641	 1492496024	 726382870	 272432.
06:13:44  641 642	 1492496025	 2456227	 276073.
06:13:45  642 643	 1492496025	 273942341	 271486.
06:13:45  643 644	 1492496025	 545472054	 271530.
06:13:45  644 645	 1492496025	 821249400	 275777.
06:13:46  645 646	 1492496026	 97248351	 275999.
06:13:46  646 647	 1492496026	 369013992	 271766.
06:13:46  647 648	 1492496026	 640621466	 271607.
06:13:46  648 649	 1492496026	 863124204	 222503.
06:13:47  649 650	 1492496027	 138830650	 275706.
06:13:47  650 651	 1492496027	 410745730	 271915.
06:13:47  651 652	 1492496027	 686459408	 275714.
06:13:47  652 653	 1492496027	 958121062	 271662.
06:13:48  653 654	 1492496028	 234000017	 275879.
06:13:48  654 655	 1492496028	 505381283	 271381.
06:13:48  655 656	 1492496028	 777089758	 271708.
06:13:49  656 657	 1492496029	 52479198	 275392.
06:13:49  657 658	 1492496029	 324457183	 271976.
06:13:49  658 659	 1492496029	 596698765	 272241.
06:13:49  659 660	 1492496029	 872721167	 276023.
06:13:50  660 661	 1492496030	 148604593	 275883.
06:13:50  661 662	 1492496030	 420360439	 271756.
06:13:50  662 663	 1492496030	 643039728	 222679.
06:13:50  663 664	 1492496030	 919038897	 276000.
06:13:51  664 665	 1492496031	 190811328	 271772.
06:13:51  665 666	 1492496031	 467087470	 276276.
06:13:51  666 667	 1492496031	 738742316	 271655.
06:13:52  667 668	 1492496032	 10502563	 271760.
06:13:52  668 669	 1492496032	 286212122	 275710.
06:13:52  669 670	 1492496032	 557863827	 271652.
06:13:52  670 671	 1492496032	 829749089	 271885.
06:13:53  671 672	 1492496033	 105631531	 275882.
06:13:53  672 673	 1492496033	 376798254	 271167.
06:13:53  673 674	 1492496033	 648137482	 271339.
06:13:53  674 675	 1492496033	 924084247	 275947.
06:13:54  675 676	 1492496034	 195895752	 271811.
06:13:54  676 677	 1492496034	 472135549	 276240.
06:13:54  677 678	 1492496034	 694818145	 222683.
06:13:54  678 679	 1492496034	 966641511	 271823.
06:13:55  679 680	 1492496035	 238653739	 272012.
06:13:55  680 681	 1492496035	 514577023	 275924.
06:13:55  681 682	 1492496035	 786402480	 271825.
06:13:56  682 683	 1492496036	 61990204	 275588.
06:13:56  683 684	 1492496036	 338224490	 276234.
06:13:56  684 685	 1492496036	 610024811	 271801.
06:13:56  685 686	 1492496036	 832607803	 222583.
06:13:57  686 687	 1492496037	 107948448	 275340.
06:13:57  687 688	 1492496037	 379365803	 271418.
06:13:57  688 689	 1492496037	 654751374	 275385.
06:13:57  689 690	 1492496037	 877192549	 222441.
06:13:58  690 691	 1492496038	 148157819	 270966.
06:13:58  691 692	 1492496038	 419119761	 270961.
06:13:58  692 693	 1492496038	 694119446	 275000.
06:13:58  693 694	 1492496038	 965770518	 271651.
06:13:59  694 695	 1492496039	 237664105	 271894.
06:13:59  695 696	 1492496039	 464747572	 227083.
06:13:59  696 697	 1492496039	 736922147	 272175.
06:14:00  697 698	 1492496040	 8778458	 271856.
06:14:00  698 699	 1492496040	 285022975	 276245.
06:14:00  699 700	 1492496040	 561083021	 276060.
06:14:00  700 701	 1492496040	 833568927	 272486.
06:14:01  701 702	 1492496041	 109502205	 275933.
06:14:01  702 703	 1492496041	 380517000	 271015.
06:14:01  703 704	 1492496041	 656370828	 275854.
06:14:01  704 705	 1492496041	 927908070	 271537.
06:14:02  705 706	 1492496042	 199419109	 271511.
06:14:02  706 707	 1492496042	 474738211	 275319.
06:14:02  707 708	 1492496042	 746300441	 271562.
06:14:02  708 709	 1492496042	 968491357	 222191.
06:14:03  709 710	 1492496043	 239840717	 271349.
06:14:03  710 711	 1492496043	 511315325	 271475.
06:14:03  711 712	 1492496043	 786751921	 275437.
06:14:04  712 713	 1492496044	 58154917	 271403.
06:14:04  713 714	 1492496044	 329565100	 271410.
06:14:04  714 715	 1492496044	 605169545	 275604.
06:14:04  715 716	 1492496044	 876370607	 271201.
06:14:05  716 717	 1492496045	 147536109	 271166.
06:14:05  717 718	 1492496045	 423095308	 275559.
06:14:05  718 719	 1492496045	 695237773	 272143.
06:14:05  719 720	 1492496045	 967052278	 271814.
06:14:06  720 721	 1492496046	 189094299	 222042.
06:14:06  721 722	 1492496046	 464521096	 275427.
06:14:06  722 723	 1492496046	 735866199	 271345.
06:14:07  723 724	 1492496047	 7133157	 271267.
06:14:07  724 725	 1492496047	 283111238	 275978.
06:14:07  725 726	 1492496047	 554797010	 271686.
06:14:07  726 727	 1492496047	 830591384	 275794.
06:14:08  727 728	 1492496048	 53447959	 222857.
06:14:08  728 729	 1492496048	 325085022	 271637.
06:14:08  729 730	 1492496048	 601337883	 276253.
06:14:08  730 731	 1492496048	 873395555	 272057.
06:14:09  731 732	 1492496049	 145079456	 271684.
06:14:09  732 733	 1492496049	 416459214	 271380.
06:14:09  733 734	 1492496049	 691964395	 275505.
06:14:09  734 735	 1492496049	 963537487	 271573.
06:14:10  735 736	 1492496050	 234888975	 271352.
06:14:10  736 737	 1492496050	 506170210	 271281.
06:14:10  737 738	 1492496050	 781488386	 275318.
06:14:11  738 739	 1492496051	 52689898	 271202.
06:14:11  739 740	 1492496051	 275392442	 222702.
06:14:11  740 741	 1492496051	 547151202	 271759.
06:14:11  741 742	 1492496051	 818660856	 271510.
06:14:12  742 743	 1492496052	 94007341	 275346.
06:14:12  743 744	 1492496052	 369924750	 275917.
06:14:12  744 745	 1492496052	 641776016	 271852.
06:14:12  745 746	 1492496052	 914224346	 272448.
06:14:13  746 747	 1492496053	 190278737	 276054.
06:14:13  747 748	 1492496053	 461591990	 271314.
06:14:13  748 749	 1492496053	 733188172	 271596.
06:14:14  749 750	 1492496054	 8402541	 275214.
06:14:14  750 751	 1492496054	 279543506	 271141.
06:14:14  751 752	 1492496054	 550673682	 271130.
06:14:14  752 753	 1492496054	 772952733	 222279.
06:14:15  753 754	 1492496055	 44445593	 271493.
06:14:15  754 755	 1492496055	 320012174	 275567.
06:14:15  755 756	 1492496055	 591847079	 271835.
06:14:15  756 757	 1492496055	 868384063	 276537.
06:14:16  757 758	 1492496056	 140873364	 272489.
06:14:16  758 759	 1492496056	 416890644	 276017.
06:14:16  759 760	 1492496056	 688367920	 271478.
06:14:16  760 761	 1492496056	 964060689	 275692.
06:14:17  761 762	 1492496057	 182608162	 218548.
06:14:17  762 763	 1492496057	 458682258	 276074.
06:14:17  763 764	 1492496057	 730810576	 272128.
06:14:18  764 765	 1492496058	 6758578	 275948.
06:14:18  765 766	 1492496058	 283282763	 276524.
06:14:18  766 767	 1492496058	 555561442	 272279.
06:14:18  767 768	 1492496058	 827381027	 271820.
06:14:19  768 769	 1492496059	 99078463	 271697.
06:14:19  769 770	 1492496059	 374743215	 275665.
06:14:19  770 771	 1492496059	 597825034	 223082.
06:14:19  771 772	 1492496059	 870284552	 272459.
06:14:20  772 773	 1492496060	 146498724	 276214.
06:14:20  773 774	 1492496060	 418023715	 271525.
06:14:20  774 775	 1492496060	 694173979	 276151.
06:14:20  775 776	 1492496060	 966003569	 271829.
06:14:21  776 777	 1492496061	 241846638	 275843.
06:14:21  777 778	 1492496061	 513356786	 271511.
06:14:21  778 779	 1492496061	 735818643	 222461.
06:14:22  779 780	 1492496062	 7675806	 271857.
06:14:22  780 781	 1492496062	 283820527	 276145.
06:14:22  781 782	 1492496062	 555693333	 271873.
06:14:22  782 783	 1492496062	 827611991	 271919.
06:14:23  783 784	 1492496063	 103784840	 276173.
06:14:23  784 785	 1492496063	 375409143	 271624.
06:14:23  785 786	 1492496063	 651045290	 275636.
06:14:23  786 787	 1492496063	 873691709	 222646.
06:14:24  787 788	 1492496064	 145487262	 271796.
06:14:24  788 789	 1492496064	 417166311	 271679.
06:14:24  789 790	 1492496064	 693443758	 276277.
06:14:24  790 791	 1492496064	 965623035	 272180.
06:14:25  791 792	 1492496065	 241705630	 276082.
06:14:25  792 793	 1492496065	 513721163	 272016.
06:14:25  793 794	 1492496065	 790027330	 276306.
06:14:26  794 795	 1492496066	 61770964	 271744.
06:14:26  795 796	 1492496066	 337782507	 276011.
06:14:26  796 797	 1492496066	 560717008	 222935.
06:14:26  797 798	 1492496066	 832263438	 271546.
06:14:27  798 799	 1492496067	 107779371	 275516.
06:14:27  799 800	 1492496067	 379690956	 271912.
06:14:27  800 801	 1492496067	 655843303	 276152.
06:14:27  801 802	 1492496067	 924044882	 268202.
06:14:28  802 803	 1492496068	 146686757	 222641.
06:14:28  803 804	 1492496068	 418368424	 271682.
06:14:28  804 805	 1492496068	 694403911	 276036.
06:14:28  805 806	 1492496068	 966040295	 271636.
06:14:29  806 807	 1492496069	 241754617	 275714.
06:14:29  807 808	 1492496069	 512904273	 271150.
06:14:29  808 809	 1492496069	 735580535	 222676.
06:14:30  809 810	 1492496070	 7333764	 271753.
06:14:30  810 811	 1492496070	 282949383	 275616.
06:14:30  811 812	 1492496070	 554862744	 271913.
06:14:30  812 813	 1492496070	 829974578	 275112.
06:14:31  813 814	 1492496071	 52415720	 222441.
06:14:31  814 815	 1492496071	 328102488	 275687.
06:14:31  815 816	 1492496071	 600128469	 272026.
06:14:31  816 817	 1492496071	 871735868	 271608.
06:14:32  817 818	 1492496072	 147775486	 276039.
06:14:32  818 819	 1492496072	 418907723	 271132.
06:14:32  819 820	 1492496072	 694963592	 276056.
06:14:32  820 821	 1492496072	 917210194	 222247.
06:14:33  821 822	 1492496073	 189377591	 272167.
06:14:33  822 823	 1492496073	 465703447	 276326.
06:14:33  823 824	 1492496073	 738155209	 272452.
06:14:34  824 825	 1492496074	 14958332	 276803.
06:14:34  825 826	 1492496074	 287412361	 272454.
06:14:34  826 827	 1492496074	 560021818	 272610.
06:14:34  827 828	 1492496074	 836501398	 276479.
06:14:35  828 829	 1492496075	 112829663	 276328.
06:14:35  829 830	 1492496075	 384943909	 272115.
06:14:35  830 831	 1492496075	 657322900	 272379.
06:14:35  831 832	 1492496075	 933172939	 275850.
06:14:36  832 833	 1492496076	 204754511	 271581.
06:14:36  833 834	 1492496076	 480989316	 276235.
06:14:36  834 835	 1492496076	 752900344	 271911.
06:14:37  835 836	 1492496077	 28454076	 275554.
06:14:37  836 837	 1492496077	 250883291	 222429.
06:14:37  837 838	 1492496077	 522261381	 271378.
06:14:37  838 839	 1492496077	 798554690	 276293.
06:14:38  839 840	 1492496078	 70529277	 271975.
06:14:38  840 841	 1492496078	 346583271	 276054.
06:14:38  841 842	 1492496078	 618014129	 271431.
06:14:38  842 843	 1492496078	 893154215	 275140.
06:14:39  843 844	 1492496079	 164347802	 271194.
06:14:39  844 845	 1492496079	 435658740	 271310.
06:14:39  845 846	 1492496079	 658789113	 223131.
06:14:39  846 847	 1492496079	 935020419	 276231.
06:14:40  847 848	 1492496080	 206889792	 271870.
06:14:40  848 849	 1492496080	 479057101	 272167.
06:14:40  849 850	 1492496080	 755474357	 276417.
06:14:41  850 851	 1492496081	 31397575	 275923.
06:14:41  851 852	 1492496081	 303157596	 271760.
06:14:41  852 853	 1492496081	 579248046	 276091.
06:14:41  853 854	 1492496081	 851455088	 272207.
06:14:42  854 855	 1492496082	 127681992	 276227.
06:14:42  855 856	 1492496082	 399053257	 271371.
06:14:42  856 857	 1492496082	 670221906	 271169.
06:14:42  857 858	 1492496082	 892572342	 222350.
06:14:43  858 859	 1492496083	 168594395	 276022.
06:14:43  859 860	 1492496083	 440434456	 271840.
06:14:43  860 861	 1492496083	 715963622	 275529.
06:14:43  861 862	 1492496083	 987755623	 271792.
06:14:44  862 863	 1492496084	 210242038	 222487.
06:14:44  863 864	 1492496084	 486040718	 275798.
06:14:44  864 865	 1492496084	 757440728	 271400.
06:14:45  865 866	 1492496085	 32955779	 275515.
06:14:45  866 867	 1492496085	 304766860	 271812.
06:14:45  867 868	 1492496085	 527192903	 222426.
06:14:45  868 869	 1492496085	 802470890	 275278.
06:14:46  869 870	 1492496086	 73649113	 271178.
06:14:46  870 871	 1492496086	 345282470	 271633.
06:14:46  871 872	 1492496086	 616723366	 271441.
06:14:46  872 873	 1492496086	 892226034	 275503.
06:14:47  873 874	 1492496087	 167840146	 275614.
06:14:47  874 875	 1492496087	 439979525	 272139.
06:14:47  875 876	 1492496087	 662489497	 222510.
06:14:47  876 877	 1492496087	 938477393	 275988.
06:14:48  877 878	 1492496088	 210285657	 271808.
06:14:48  878 879	 1492496088	 481750878	 271466.
06:14:48  879 880	 1492496088	 757406830	 275656.
06:14:49  880 881	 1492496089	 28701776	 271295.
06:14:49  881 882	 1492496089	 251377657	 222675.
06:14:49  882 883	 1492496089	 523253045	 271876.
06:14:49  883 884	 1492496089	 799029558	 275776.
06:14:50  884 885	 1492496090	 70566857	 271538.
06:14:50  885 886	 1492496090	 346582717	 276015.
06:14:50  886 887	 1492496090	 618286029	 271704.
06:14:50  887 888	 1492496090	 894478889	 276193.
06:14:51  888 889	 1492496091	 166726207	 272247.
06:14:51  889 890	 1492496091	 439199152	 272473.
06:14:51  890 891	 1492496091	 715526765	 276327.
06:14:51  891 892	 1492496091	 987428060	 271902.
06:14:52  892 893	 1492496092	 210288996	 222861.
06:14:52  893 894	 1492496092	 486417598	 276128.
06:14:52  894 895	 1492496092	 758187437	 271770.
06:14:53  895 896	 1492496093	 33497120	 275310.
06:14:53  896 897	 1492496093	 304615535	 271118.
06:14:53  897 898	 1492496093	 576058864	 271444.
06:14:53  898 899	 1492496093	 847560406	 271501.
06:14:54  899 900	 1492496094	 119159401	 271599.
06:14:54  900 901	 1492496094	 394816406	 275657.
06:14:54  901 902	 1492496094	 666318429	 271502.
06:14:54  902 903	 1492496094	 938052175	 271734.
06:14:55  903 904	 1492496095	 214051924	 276000.
06:14:55  904 905	 1492496095	 485879860	 271828.
06:14:55  905 906	 1492496095	 762167017	 276287.
06:14:56  906 907	 1492496096	 34258427	 272091.
06:14:56  907 908	 1492496096	 310196605	 275938.
06:14:56  908 909	 1492496096	 582639326	 272443.
06:14:56  909 910	 1492496096	 854168707	 271530.
06:14:57  910 911	 1492496097	 76540753	 222371.
06:14:57  911 912	 1492496097	 347710202	 271170.
06:14:57  912 913	 1492496097	 618986688	 271276.
06:14:57  913 914	 1492496097	 894542816	 275557.
06:14:58  914 915	 1492496098	 166022296	 271479.
06:14:58  915 916	 1492496098	 437307896	 271286.
06:14:58  916 917	 1492496098	 708523465	 271215.
06:14:58  917 918	 1492496098	 984181943	 275659.
06:14:59  918 919	 1492496099	 255916890	 271735.
06:14:59  919 920	 1492496099	 527655735	 271738.
06:14:59  920 921	 1492496099	 803022262	 275367.
06:15:00  921 922	 1492496100	 74281440	 271259.
06:15:00  922 923	 1492496100	 345331699	 271050.
06:15:00  923 924	 1492496100	 616607301	 271276.
06:15:00  924 925	 1492496100	 888248627	 271641.
06:15:01  925 926	 1492496101	 164039993	 275792.
06:15:01  926 927	 1492496101	 435384001	 271344.
06:15:01  927 928	 1492496101	 653592264	 218208.
06:15:01  928 929	 1492496101	 929176228	 275584.
06:15:02  929 930	 1492496102	 200756197	 271580.
06:15:02  930 931	 1492496102	 476486962	 275731.
06:15:02  931 932	 1492496102	 748134045	 271647.
06:15:03  932 933	 1492496103	 20063405	 271929.
06:15:03  933 934	 1492496103	 291530672	 271467.
06:15:03  934 935	 1492496103	 567155482	 275625.
06:15:03  935 936	 1492496103	 838854743	 271699.
06:15:04  936 937	 1492496104	 110181752	 271327.
06:15:04  937 938	 1492496104	 381712007	 271531.
06:15:04  938 939	 1492496104	 657584625	 275872.
06:15:04  939 940	 1492496104	 929287614	 271703.
06:15:05  940 941	 1492496105	 205099209	 275812.
06:15:05  941 942	 1492496105	 476787181	 271688.
06:15:05  942 943	 1492496105	 752425402	 275638.
06:15:06  943 944	 1492496106	 24287168	 271862.
06:15:06  944 945	 1492496106	 295761024	 271474.
06:15:06  945 946	 1492496106	 571384552	 275623.
06:15:06  946 947	 1492496106	 842964713	 271580.
06:15:07  947 948	 1492496107	 114451127	 271487.
06:15:07  948 949	 1492496107	 336691853	 222241.
06:15:07  949 950	 1492496107	 607890225	 271198.
06:15:07  950 951	 1492496107	 883419658	 275529.
06:15:08  951 952	 1492496108	 154833736	 271414.
06:15:08  952 953	 1492496108	 425907632	 271074.
06:15:08  953 954	 1492496108	 701061943	 275155.
06:15:08  954 955	 1492496108	 972376766	 271314.
06:15:09  955 956	 1492496109	 243688460	 271312.
06:15:09  956 957	 1492496109	 514943291	 271255.
06:15:09  957 958	 1492496109	 790964424	 276021.
06:15:10  958 959	 1492496110	 66986674	 276022.
06:15:10  959 960	 1492496110	 338499387	 271513.
06:15:10  960 961	 1492496110	 610230415	 271731.
06:15:10  961 962	 1492496110	 881554738	 271325.
06:15:11  962 963	 1492496111	 157200205	 275645.
06:15:11  963 964	 1492496111	 379444163	 222244.
06:15:11  964 965	 1492496111	 650572136	 271128.
06:15:11  965 966	 1492496111	 921990465	 271418.
06:15:12  966 967	 1492496112	 193264923	 271275.
06:15:12  967 968	 1492496112	 468643295	 275378.
06:15:12  968 969	 1492496112	 739682398	 271039.
06:15:13  969 970	 1492496113	 3661164	 263979.
06:15:13  970 971	 1492496113	 279166483	 275505.
06:15:13  971 972	 1492496113	 550443804	 271278.
06:15:13  972 973	 1492496113	 825858588	 275414.
06:15:14  973 974	 1492496114	 97071005	 271213.
06:15:14  974 975	 1492496114	 319262936	 222192.
06:15:14  975 976	 1492496114	 590455752	 271192.
06:15:14  976 977	 1492496114	 862068143	 271613.
06:15:15  977 978	 1492496115	 133679210	 271611.
06:15:15  978 979	 1492496115	 409289245	 275610.
06:15:15  979 980	 1492496115	 685096782	 275808.
06:15:15  980 981	 1492496115	 957105756	 272008.
06:15:16  981 982	 1492496116	 233117168	 276012.
06:15:16  982 983	 1492496116	 504519246	 271402.
06:15:16  983 984	 1492496116	 727153505	 222634.
06:15:16  984 985	 1492496117	 2573158	 275420.
06:15:17  985 986	 1492496117	 274191597	 271618.
06:15:17  986 987	 1492496117	 550381655	 276190.
06:15:17  987 988	 1492496117	 821881665	 271500.
06:15:18  988 989	 1492496118	 93874389	 271993.
06:15:18  989 990	 1492496118	 369540670	 275666.
06:15:18  990 991	 1492496118	 641049323	 271509.
06:15:18  991 992	 1492496118	 912765479	 271716.
06:15:19  992 993	 1492496119	 188744361	 275979.
06:15:19  993 994	 1492496119	 460217107	 271473.
06:15:19  994 995	 1492496119	 735800717	 275583.
06:15:20  995 996	 1492496120	 7331645	 271531.
06:15:20  996 997	 1492496120	 229653442	 222322.
06:15:20  997 998	 1492496120	 501400357	 271747.
06:15:20  998 999	 1492496120	 772992342	 271592.
06:15:21  999 1000	 1492496121	 48986901	 275995.
06:15:21 1000 1001	 1492496121	 321093723	 272106.
06:15:21 1001 1002	 1492496121	 597055610	 275962.
06:15:21 1002 1003	 1492496121	 869144079	 272089.
06:15:22 1003 1004	 1492496122	 145129879	 275986.
06:15:22 1004 1005	 1492496122	 416859687	 271729.
06:15:22 1005 1006	 1492496122	 688943311	 272084.
06:15:22 1006 1007	 1492496122	 964601348	 275658.
06:15:23 1007 1008	 1492496123	 186942712	 222341.
06:15:23 1008 1009	 1492496123	 458548324	 271606.
06:15:23 1009 1010	 1492496123	 730052003	 271504.
06:15:24 1010 1011	 1492496124	 5436770	 275384.
06:15:24 1011 1012	 1492496124	 276598515	 271162.
06:15:24 1012 1013	 1492496124	 552147602	 275549.
06:15:24 1013 1014	 1492496124	 823186830	 271040.
06:15:25 1014 1015	 1492496125	 45601286	 222414.
06:15:25 1015 1016	 1492496125	 320806970	 275206.
06:15:25 1016 1017	 1492496125	 592155510	 271348.
06:15:25 1017 1018	 1492496125	 867535223	 275380.
06:15:26 1018 1019	 1492496126	 139076455	 271541.
06:15:26 1019 1020	 1492496126	 410473276	 271397.
06:15:26 1020 1021	 1492496126	 632770051	 222297.
06:15:26 1021 1022	 1492496126	 908381106	 275611.
06:15:27 1022 1023	 1492496127	 179919762	 271538.
06:15:27 1023 1024	 1492496127	 455610285	 275691.
06:15:27 1024 1025	 1492496127	 727224963	 271615.
06:15:28 1025 1026	 1492496128	 2807830	 275583.
06:15:28 1026 1027	 1492496128	 274084168	 271276.
06:15:28 1027 1028	 1492496128	 496375497	 222291.
06:15:28 1028 1029	 1492496128	 767546061	 271171.
06:15:29 1029 1030	 1492496129	 43051223	 275505.
06:15:29 1030 1031	 1492496129	 314506514	 271455.
06:15:29 1031 1032	 1492496129	 590321355	 275815.
06:15:29 1032 1033	 1492496129	 862051563	 271730.
06:15:30 1033 1034	 1492496130	 84553790	 222503.
06:15:30 1034 1035	 1492496130	 360580119	 276026.
06:15:30 1035 1036	 1492496130	 632367532	 271787.
06:15:30 1036 1037	 1492496130	 907987950	 275621.
06:15:31 1037 1038	 1492496131	 180054698	 272066.
06:15:31 1038 1039	 1492496131	 455577888	 275524.
06:15:31 1039 1040	 1492496131	 727190330	 271612.
06:15:31 1040 1041	 1492496131	 999394463	 272204.
06:15:32 1041 1042	 1492496132	 275225054	 275831.
06:15:32 1042 1043	 1492496132	 547106456	 271881.
06:15:32 1043 1044	 1492496132	 819151626	 272045.
06:15:33 1044 1045	 1492496133	 94826694	 275675.
06:15:33 1045 1046	 1492496133	 317787918	 222962.
06:15:33 1046 1047	 1492496133	 589491144	 271703.
06:15:33 1047 1048	 1492496133	 860983283	 271504.
06:15:34 1048 1049	 1492496134	 136566029	 275571.
06:15:34 1049 1050	 1492496134	 408761868	 272196.
06:15:34 1050 1051	 1492496134	 684452314	 275690.
06:15:34 1051 1052	 1492496134	 956433144	 271981.
06:15:35 1052 1053	 1492496135	 227984083	 271551.
06:15:35 1053 1054	 1492496135	 503532164	 275548.
06:15:35 1054 1055	 1492496135	 775261450	 271729.
06:15:36 1055 1056	 1492496136	 51030713	 275769.
06:15:36 1056 1057	 1492496136	 322993910	 271964.
06:15:36 1057 1058	 1492496136	 594783022	 271789.
06:15:36 1058 1059	 1492496136	 870245596	 275462.
06:15:37 1059 1060	 1492496137	 92768410	 222523.
06:15:37 1060 1061	 1492496137	 364543801	 271775.
06:15:37 1061 1062	 1492496137	 640245940	 275703.
06:15:37 1062 1063	 1492496137	 911932183	 271686.
06:15:38 1063 1064	 1492496138	 183853778	 271921.
06:15:38 1064 1065	 1492496138	 459626651	 275773.
06:15:38 1065 1066	 1492496138	 731152416	 271526.
06:15:39 1066 1067	 1492496139	 6754815	 275603.
06:15:39 1067 1068	 1492496139	 278299960	 271545.
06:15:39 1068 1069	 1492496139	 549946818	 271647.
06:15:39 1069 1070	 1492496139	 826411310	 276464.
06:15:40 1070 1071	 1492496140	 98027629	 271616.
06:15:40 1071 1072	 1492496140	 369599908	 271573.
06:15:40 1072 1073	 1492496140	 641000123	 271400.
06:15:40 1073 1074	 1492496140	 863374058	 222374.
06:15:41 1074 1075	 1492496141	 138073372	 274699.
06:15:41 1075 1076	 1492496141	 413105931	 275033.
06:15:41 1076 1077	 1492496141	 684380249	 271274.
06:15:41 1077 1078	 1492496141	 956076650	 271696.
06:15:42 1078 1079	 1492496142	 232088149	 276012.
06:15:42 1079 1080	 1492496142	 504276650	 272188.
06:15:42 1080 1081	 1492496142	 776326444	 272050.
06:15:43 1081 1082	 1492496143	 52495230	 276169.
06:15:43 1082 1083	 1492496143	 275303704	 222809.
06:15:43 1083 1084	 1492496143	 547025971	 271722.
06:15:43 1084 1085	 1492496143	 822778836	 275753.
06:15:44 1085 1086	 1492496144	 94518445	 271739.
06:15:44 1086 1087	 1492496144	 365818867	 271301.
06:15:44 1087 1088	 1492496144	 641842242	 276023.
06:15:44 1088 1089	 1492496144	 913551216	 271709.
06:15:45 1089 1090	 1492496145	 189098982	 275548.
06:15:45 1090 1091	 1492496145	 407668126	 218569.
06:15:45 1091 1092	 1492496145	 683820380	 276152.
06:15:45 1092 1093	 1492496145	 955058184	 271238.
06:15:46 1093 1094	 1492496146	 230349621	 275291.
06:15:46 1094 1095	 1492496146	 502120009	 271771.
06:15:46 1095 1096	 1492496146	 777786526	 275666.
06:15:46 1096 1097	 1492496147	 214385	 222428.
06:15:47 1097 1098	 1492496147	 272006180	 271792.
06:15:47 1098 1099	 1492496147	 548132472	 276126.
06:15:47 1099 1100	 1492496147	 820723424	 272591.
06:15:48 1100 1101	 1492496148	 92598086	 271875.
06:15:48 1101 1102	 1492496148	 368390771	 275792.
06:15:48 1102 1103	 1492496148	 640707655	 272317.
06:15:48 1103 1104	 1492496148	 916680486	 275973.
06:15:49 1104 1105	 1492496149	 139599341	 222919.
06:15:49 1105 1106	 1492496149	 411907085	 272308.
06:15:49 1106 1107	 1492496149	 687794782	 275887.
06:15:49 1107 1108	 1492496149	 959490195	 271696.
06:15:50 1108 1109	 1492496150	 235142823	 275653.
06:15:50 1109 1110	 1492496150	 506986024	 271843.
06:15:50 1110 1111	 1492496150	 778692175	 271706.
06:15:51 1111 1112	 1492496151	 54527712	 275836.
06:15:51 1112 1113	 1492496151	 326092832	 271565.
06:15:51 1113 1114	 1492496151	 601821959	 275729.
06:15:51 1114 1115	 1492496151	 873355637	 271533.
06:15:52 1115 1116	 1492496152	 144555026	 271200.
06:15:52 1116 1117	 1492496152	 367263134	 222708.
06:15:52 1117 1118	 1492496152	 638420258	 271157.
06:15:52 1118 1119	 1492496152	 913772029	 275352.
06:15:53 1119 1120	 1492496153	 185327448	 271555.
06:15:53 1120 1121	 1492496153	 456632768	 271305.
