01:51:28    0 Step	 time(s)	 time(ns)	 delta(ms)
01:51:28    0 1	 1492653088	 145803537	 971.
01:51:28    1 2	 1492653088	 417812296	 272009.
01:51:28    2 3	 1492653088	 693260177	 275448.
01:51:28    3 4	 1492653088	 964713463	 271453.
01:51:29    4 5	 1492653089	 236534832	 271822.
01:51:29    5 6	 1492653089	 512641277	 276106.
01:51:29    6 7	 1492653089	 784151385	 271510.
01:51:30    7 8	 1492653090	 59745833	 275595.
01:51:30    8 9	 1492653090	 281816134	 222070.
01:51:30    9 10	 1492653090	 553144710	 271328.
01:51:30   10 11	 1492653090	 824174991	 271031.
01:51:31   11 12	 1492653091	 99668029	 275493.
01:51:31   12 13	 1492653091	 370939062	 271271.
01:51:31   13 14	 1492653091	 593368458	 222429.
01:51:31   14 15	 1492653091	 868687176	 275319.
01:51:32   15 16	 1492653092	 140570428	 271883.
01:51:32   16 17	 1492653092	 411481821	 270911.
01:51:32   17 18	 1492653092	 686789375	 275308.
01:51:32   18 19	 1492653092	 909177356	 222388.
01:51:33   19 20	 1492653093	 179740438	 270563.
01:51:33   20 21	 1492653093	 454664477	 274924.
01:51:33   21 22	 1492653093	 725799290	 271135.
01:51:33   22 23	 1492653093	 947608492	 221809.
01:51:34   23 24	 1492653094	 218455991	 270848.
01:51:34   24 25	 1492653094	 489311361	 270855.
01:51:34   25 26	 1492653094	 764522730	 275211.
01:51:35   26 27	 1492653095	 35730289	 271208.
01:51:35   27 28	 1492653095	 307375767	 271645.
01:51:35   28 29	 1492653095	 529761107	 222386.
01:51:35   29 30	 1492653095	 805254076	 275493.
01:51:36   30 31	 1492653096	 76495433	 271241.
01:51:36   31 32	 1492653096	 347856197	 271361.
01:51:36   32 33	 1492653096	 623616677	 275760.
01:51:36   33 34	 1492653096	 895256370	 271640.
01:51:37   34 35	 1492653097	 117591976	 222336.
01:51:37   35 36	 1492653097	 388712786	 271120.
01:51:37   36 37	 1492653097	 664148770	 275436.
01:51:37   37 38	 1492653097	 936018133	 271870.
01:51:38   38 39	 1492653098	 207519172	 271501.
01:51:38   39 40	 1492653098	 429260415	 221741.
01:51:38   40 41	 1492653098	 700103307	 270843.
01:51:38   41 42	 1492653098	 975566988	 275464.
01:51:39   42 43	 1492653099	 246687262	 271120.
01:51:39   43 44	 1492653099	 517637355	 270950.
01:51:39   44 45	 1492653099	 793006042	 275369.
01:51:40   45 46	 1492653100	 64414231	 271408.
01:51:40   46 47	 1492653100	 286766591	 222352.
01:51:40   47 48	 1492653100	 557477123	 270711.
01:51:40   48 49	 1492653100	 828334467	 270857.
01:51:41   49 50	 1492653101	 50294614	 221960.
01:51:41   50 51	 1492653101	 321474593	 271180.
01:51:41   51 52	 1492653101	 595951630	 274477.
01:51:41   52 53	 1492653101	 866776520	 270825.
01:51:42   53 54	 1492653102	 142071992	 275296.
01:51:42   54 55	 1492653102	 360159961	 218088.
01:51:42   55 56	 1492653102	 635284528	 275124.
01:51:42   56 57	 1492653102	 906345412	 271061.
01:51:43   57 58	 1492653103	 177601800	 271256.
01:51:43   58 59	 1492653103	 399299005	 221698.
01:51:43   59 60	 1492653103	 673768174	 274469.
01:51:43   60 61	 1492653103	 944305998	 270538.
01:51:44   61 62	 1492653104	 166258215	 221952.
01:51:44   62 63	 1492653104	 437000304	 270742.
01:51:44   63 64	 1492653104	 711761011	 274761.
01:51:44   64 65	 1492653104	 933589876	 221829.
01:51:45   65 66	 1492653105	 205196698	 271606.
01:51:45   66 67	 1492653105	 476201725	 271005.
01:51:45   67 68	 1492653105	 752034930	 275834.
01:51:46   68 69	 1492653106	 23543849	 271509.
01:51:46   69 70	 1492653106	 246089181	 222545.
01:51:46   70 71	 1492653106	 521542375	 275453.
01:51:46   71 72	 1492653106	 793455140	 271913.
01:51:47   72 73	 1492653107	 68702927	 275248.
01:51:47   73 74	 1492653107	 339986885	 271284.
01:51:47   74 75	 1492653107	 611297293	 271310.
01:51:47   75 76	 1492653107	 833726843	 222430.
01:51:48   76 77	 1492653108	 109006163	 275279.
01:51:48   77 78	 1492653108	 380780542	 271774.
01:51:48   78 79	 1492653108	 656341253	 275561.
01:51:48   79 80	 1492653108	 927841275	 271500.
01:51:49   80 81	 1492653109	 150382301	 222541.
01:51:49   81 82	 1492653109	 425583918	 275202.
01:51:49   82 83	 1492653109	 696604482	 271020.
01:51:49   83 84	 1492653109	 971647922	 275044.
01:51:50   84 85	 1492653110	 243283992	 271636.
01:51:50   85 86	 1492653110	 466011726	 222727.
01:51:50   86 87	 1492653110	 736903041	 270892.
01:51:51   87 88	 1492653111	 12626183	 275723.
01:51:51   88 89	 1492653111	 284083358	 271457.
01:51:51   89 90	 1492653111	 613184894	 329102.
01:51:51   90 91	 1492653111	 884429070	 271244.
01:51:52   91 92	 1492653112	 160098517	 275669.
01:51:52   92 93	 1492653112	 433016439	 272918.
01:51:52   93 94	 1492653112	 708777157	 275761.
01:51:52   94 95	 1492653112	 930790114	 222013.
01:51:53   95 96	 1492653113	 201683520	 270893.
01:51:53   96 97	 1492653113	 472517955	 270835.
01:51:53   97 98	 1492653113	 747646304	 275128.
01:51:53   98 99	 1492653113	 969878022	 222232.
01:51:54   99 100	 1492653114	 242320101	 272442.
01:51:54  100 101	 1492653114	 568237841	 325918.
01:51:54  101 102	 1492653114	 790572523	 222334.
01:51:55  102 103	 1492653115	 61920321	 271348.
01:51:55  103 104	 1492653115	 337065971	 275146.
01:51:55  104 105	 1492653115	 608132329	 271066.
01:51:55  105 106	 1492653115	 883821485	 275689.
01:51:56  106 107	 1492653116	 106165848	 222345.
01:51:56  107 108	 1492653116	 377189087	 271023.
01:51:56  108 109	 1492653116	 648499920	 271311.
01:51:56  109 110	 1492653116	 920036897	 271537.
01:51:57  110 111	 1492653117	 196090922	 276054.
01:51:57  111 112	 1492653117	 467837133	 271746.
01:51:57  112 113	 1492653117	 743814139	 275977.
01:51:58  113 114	 1492653118	 15370757	 271557.
01:51:58  114 115	 1492653118	 238005905	 222635.
01:51:58  115 116	 1492653118	 508995815	 270990.
01:51:58  116 117	 1492653118	 784435464	 275439.
01:51:59  117 118	 1492653119	 55773084	 271338.
01:51:59  118 119	 1492653119	 330838262	 275065.
01:51:59  119 120	 1492653119	 553442002	 222604.
01:51:59  120 121	 1492653119	 824386954	 270945.
01:52:00  121 122	 1492653120	 95226749	 270839.
01:52:00  122 123	 1492653120	 370499320	 275273.
01:52:00  123 124	 1492653120	 641440467	 270941.
01:52:00  124 125	 1492653120	 863156815	 221716.
01:52:01  125 126	 1492653121	 186443373	 323287.
01:52:01  126 127	 1492653121	 462219426	 275776.
01:52:01  127 128	 1492653121	 733421126	 271202.
01:52:01  128 129	 1492653122	 4306301	 270885.
01:52:02  129 130	 1492653122	 279376587	 275070.
01:52:02  130 131	 1492653122	 497151612	 217775.
01:52:02  131 132	 1492653122	 771986083	 274835.
01:52:03  132 133	 1492653123	 42691881	 270706.
01:52:03  133 134	 1492653123	 314250874	 271559.
01:52:03  134 135	 1492653123	 586811993	 272561.
01:52:03  135 136	 1492653123	 845388795	 258577.
01:52:04  136 137	 1492653124	 116711464	 271322.
01:52:04  137 138	 1492653124	 391358623	 274647.
01:52:04  138 139	 1492653124	 613357076	 221999.
01:52:04  139 140	 1492653124	 884314993	 270958.
01:52:05  140 141	 1492653125	 155341515	 271026.
01:52:05  141 142	 1492653125	 426645102	 271304.
01:52:05  142 143	 1492653125	 697674576	 271029.
01:52:05  143 144	 1492653125	 972518579	 274844.
01:52:06  144 145	 1492653126	 245307103	 272789.
01:52:06  145 146	 1492653126	 516753835	 271447.
01:52:06  146 147	 1492653126	 791939986	 275186.
01:52:07  147 148	 1492653127	 13991572	 222051.
01:52:07  148 149	 1492653127	 284628981	 270638.
01:52:07  149 150	 1492653127	 555252761	 270623.
01:52:07  150 151	 1492653127	 830058665	 274806.
01:52:08  151 152	 1492653128	 52443884	 222386.
01:52:08  152 153	 1492653128	 324070240	 271626.
01:52:08  153 154	 1492653128	 599128306	 275058.
01:52:08  154 155	 1492653128	 870665587	 271537.
01:52:09  155 156	 1492653129	 142175555	 271510.
01:52:09  156 157	 1492653129	 417928693	 275753.
01:52:09  157 158	 1492653129	 640591405	 222663.
01:52:09  158 159	 1492653129	 912283753	 271692.
01:52:10  159 160	 1492653130	 184327400	 272044.
01:52:10  160 161	 1492653130	 460510725	 276183.
01:52:10  161 162	 1492653130	 732774842	 272265.
01:52:10  162 163	 1492653131	 4708607	 271933.
01:52:11  163 164	 1492653131	 331065066	 326357.
01:52:11  164 165	 1492653131	 606674544	 275609.
01:52:11  165 166	 1492653131	 878224580	 271550.
01:52:12  166 167	 1492653132	 153758527	 275534.
01:52:12  167 168	 1492653132	 425734338	 271976.
01:52:12  168 169	 1492653132	 697362584	 271628.
01:52:12  169 170	 1492653132	 973200150	 275838.
01:52:13  170 171	 1492653133	 191490512	 218290.
01:52:13  171 172	 1492653133	 467014055	 275524.
01:52:13  172 173	 1492653133	 738197991	 271184.
01:52:14  173 174	 1492653134	 10298199	 272100.
01:52:14  174 175	 1492653134	 285943471	 275645.
01:52:14  175 176	 1492653134	 556825505	 270882.
01:52:14  176 177	 1492653134	 831837243	 275012.
01:52:15  177 178	 1492653135	 54422453	 222585.
01:52:15  178 179	 1492653135	 325421113	 270999.
01:52:15  179 180	 1492653135	 600792029	 275371.
01:52:15  180 181	 1492653135	 872324642	 271532.
01:52:16  181 182	 1492653136	 148252496	 275928.
01:52:16  182 183	 1492653136	 419458832	 271207.
01:52:16  183 184	 1492653136	 642160458	 222701.
01:52:16  184 185	 1492653136	 917203904	 275044.
01:52:17  185 186	 1492653137	 188335266	 271131.
01:52:17  186 187	 1492653137	 460024060	 271689.
01:52:17  187 188	 1492653137	 686116820	 226093.
01:52:18  188 189	 1492653138	 11810098	 325693.
01:52:18  189 190	 1492653138	 234268555	 222458.
01:52:18  190 191	 1492653138	 509731039	 275463.
01:52:18  191 192	 1492653138	 781136413	 271405.
01:52:19  192 193	 1492653139	 52608518	 271472.
01:52:19  193 194	 1492653139	 274830509	 222222.
01:52:19  194 195	 1492653139	 550047885	 275218.
01:52:19  195 196	 1492653139	 821278852	 271231.
01:52:20  196 197	 1492653140	 92066846	 270788.
01:52:20  197 198	 1492653140	 367441657	 275374.
01:52:20  198 199	 1492653140	 589928819	 222487.
01:52:20  199 200	 1492653140	 861203563	 271275.
01:52:21  200 201	 1492653141	 132163185	 270960.
01:52:21  201 202	 1492653141	 407088055	 274925.
01:52:21  202 203	 1492653141	 678394345	 271306.
01:52:21  203 204	 1492653141	 900624082	 222230.
01:52:22  204 205	 1492653142	 171468465	 270844.
01:52:22  205 206	 1492653142	 442609713	 271141.
01:52:22  206 207	 1492653142	 669144020	 226535.
01:52:22  207 208	 1492653142	 941129991	 271986.
01:52:23  208 209	 1492653143	 212230053	 271100.
01:52:23  209 210	 1492653143	 487009172	 274779.
01:52:23  210 211	 1492653143	 709141076	 222132.
01:52:23  211 212	 1492653143	 980782481	 271641.
01:52:24  212 213	 1492653144	 251884544	 271102.
01:52:24  213 214	 1492653144	 527424558	 275540.
01:52:24  214 215	 1492653144	 798852223	 271428.
01:52:25  215 216	 1492653145	 74258390	 275406.
01:52:25  216 217	 1492653145	 292431848	 218173.
01:52:25  217 218	 1492653145	 567859778	 275428.
01:52:25  218 219	 1492653145	 838703475	 270844.
01:52:26  219 220	 1492653146	 114374676	 275671.
01:52:26  220 221	 1492653146	 332805082	 218431.
01:52:26  221 222	 1492653146	 608254389	 275449.
01:52:26  222 223	 1492653146	 884114818	 275860.
01:52:27  223 224	 1492653147	 155899519	 271785.
01:52:27  224 225	 1492653147	 431659810	 275761.
01:52:27  225 226	 1492653147	 702960864	 271301.
01:52:27  226 227	 1492653147	 974410173	 271449.
01:52:28  227 228	 1492653148	 249912204	 275502.
01:52:28  228 229	 1492653148	 522046275	 272134.
01:52:28  229 230	 1492653148	 793996781	 271950.
01:52:29  230 231	 1492653149	 69687954	 275692.
01:52:29  231 232	 1492653149	 291767188	 222079.
01:52:29  232 233	 1492653149	 563053864	 271287.
01:52:29  233 234	 1492653149	 838271726	 275217.
01:52:30  234 235	 1492653150	 110216619	 271945.
01:52:30  235 236	 1492653150	 385879538	 275663.
01:52:30  236 237	 1492653150	 657697905	 271819.
01:52:30  237 238	 1492653150	 929048611	 271350.
01:52:31  238 239	 1492653151	 204039745	 274992.
01:52:31  239 240	 1492653151	 422471345	 218431.
01:52:31  240 241	 1492653151	 698174843	 275704.
01:52:31  241 242	 1492653151	 969980789	 271806.
01:52:32  242 243	 1492653152	 241477228	 271496.
01:52:32  243 244	 1492653152	 517119620	 275642.
01:52:32  244 245	 1492653152	 788065549	 270946.
01:52:33  245 246	 1492653153	 10142217	 222077.
01:52:33  246 247	 1492653153	 285485665	 275343.
01:52:33  247 248	 1492653153	 556803621	 271318.
01:52:33  248 249	 1492653153	 828546144	 271743.
01:52:34  249 250	 1492653154	 104131622	 275585.
01:52:34  250 251	 1492653154	 326044507	 221913.
01:52:34  251 252	 1492653154	 597060336	 271016.
01:52:34  252 253	 1492653154	 867881289	 270821.
01:52:35  253 254	 1492653155	 143121015	 275240.
01:52:35  254 255	 1492653155	 365135441	 222014.
01:52:35  255 256	 1492653155	 636616603	 271481.
01:52:35  256 257	 1492653155	 912248035	 275632.
01:52:36  257 258	 1492653156	 183567555	 271319.
01:52:36  258 259	 1492653156	 459505962	 275939.
01:52:36  259 260	 1492653156	 681505439	 221999.
01:52:36  260 261	 1492653156	 952944368	 271439.
01:52:37  261 262	 1492653157	 224362336	 271418.
01:52:37  262 263	 1492653157	 499947084	 275585.
01:52:37  263 264	 1492653157	 771100985	 271154.
01:52:37  264 265	 1492653157	 993587007	 222486.
01:52:38  265 266	 1492653158	 265014831	 271428.
01:52:38  266 267	 1492653158	 540055360	 275040.
01:52:38  267 268	 1492653158	 811628616	 271573.
01:52:39  268 269	 1492653159	 82974345	 271346.
01:52:39  269 270	 1492653159	 305421876	 222448.
01:52:39  270 271	 1492653159	 581042046	 275620.
01:52:39  271 272	 1492653159	 851682125	 270640.
01:52:40  272 273	 1492653160	 122417412	 270735.
01:52:40  273 274	 1492653160	 397570702	 275153.
01:52:40  274 275	 1492653160	 619974950	 222405.
01:52:40  275 276	 1492653160	 891630456	 271655.
01:52:41  276 277	 1492653161	 162849902	 271220.
01:52:41  277 278	 1492653161	 438102063	 275252.
01:52:41  278 279	 1492653161	 709170117	 271068.
01:52:41  279 280	 1492653161	 931032012	 221862.
01:52:42  280 281	 1492653162	 206195645	 275163.
01:52:42  281 282	 1492653162	 477697790	 271502.
01:52:42  282 283	 1492653162	 699461989	 221765.
01:52:42  283 284	 1492653162	 970713876	 271252.
01:52:43  284 285	 1492653163	 245785271	 275071.
01:52:43  285 286	 1492653163	 517357920	 271573.
01:52:43  286 287	 1492653163	 788761461	 271403.
01:52:44  287 288	 1492653164	 63714321	 274953.
01:52:44  288 289	 1492653164	 335182376	 271468.
01:52:44  289 290	 1492653164	 557805760	 222623.
01:52:44  290 291	 1492653164	 829152626	 271347.
01:52:45  291 292	 1492653165	 104042954	 274891.
01:52:45  292 293	 1492653165	 374915645	 270872.
01:52:45  293 294	 1492653165	 645874665	 270959.
01:52:45  294 295	 1492653165	 868084342	 222210.
01:52:46  295 296	 1492653166	 143606040	 275522.
01:52:46  296 297	 1492653166	 414677415	 271071.
01:52:46  297 298	 1492653166	 689901343	 275224.
01:52:46  298 299	 1492653166	 912209848	 222309.
01:52:47  299 300	 1492653167	 183799103	 271589.
01:52:47  300 301	 1492653167	 459534997	 275736.
01:52:47  301 302	 1492653167	 731129251	 271594.
01:52:48  302 303	 1492653168	 6676979	 275548.
01:52:48  303 304	 1492653168	 228827045	 222150.
01:52:48  304 305	 1492653168	 499615760	 270788.
01:52:48  305 306	 1492653168	 774310564	 274695.
01:52:48  306 307	 1492653168	 996182122	 221872.
01:52:49  307 308	 1492653169	 271623556	 275441.
01:52:49  308 309	 1492653169	 542875477	 271252.
01:52:49  309 310	 1492653169	 818502350	 275627.
01:52:50  310 311	 1492653170	 89454756	 270952.
01:52:50  311 312	 1492653170	 311817413	 222363.
01:52:50  312 313	 1492653170	 587359977	 275543.
01:52:50  313 314	 1492653170	 858901506	 271541.
01:52:51  314 315	 1492653171	 135194256	 276293.
01:52:51  315 316	 1492653171	 406663511	 271469.
01:52:51  316 317	 1492653171	 678410162	 271747.
01:52:51  317 318	 1492653171	 900939677	 222529.
01:52:52  318 319	 1492653172	 172224248	 271285.
01:52:52  319 320	 1492653172	 447897770	 275673.
01:52:52  320 321	 1492653172	 718865265	 270968.
01:52:52  321 322	 1492653172	 994182953	 275318.
01:52:53  322 323	 1492653173	 216651722	 222468.
01:52:53  323 324	 1492653173	 487596516	 270945.
01:52:53  324 325	 1492653173	 866618101	 379022.
01:52:54  325 326	 1492653174	 88716353	 222098.
01:52:54  326 327	 1492653174	 363751522	 275035.
01:52:54  327 328	 1492653174	 639286807	 275536.
01:52:54  328 329	 1492653174	 910781971	 271495.
01:52:55  329 330	 1492653175	 183043127	 272261.
01:52:55  330 331	 1492653175	 404961449	 221918.
01:52:55  331 332	 1492653175	 680339194	 275378.
01:52:55  332 333	 1492653175	 951444257	 271105.
01:52:56  333 334	 1492653176	 227279874	 275836.
01:52:56  334 335	 1492653176	 449477563	 222197.
01:52:56  335 336	 1492653176	 721421430	 271944.
01:52:57  336 337	 1492653177	 48378345	 326957.
01:52:57  337 338	 1492653177	 324361342	 275983.
01:52:57  338 339	 1492653177	 546884610	 222523.
01:52:57  339 340	 1492653177	 818462922	 271579.
01:52:58  340 341	 1492653178	 90017420	 271554.
01:52:58  341 342	 1492653178	 365076782	 275059.
01:52:58  342 343	 1492653178	 636168034	 271092.
01:52:58  343 344	 1492653178	 858503439	 222335.
01:52:59  344 345	 1492653179	 133604110	 275101.
01:52:59  345 346	 1492653179	 405204286	 271600.
01:52:59  346 347	 1492653179	 680776320	 275572.
01:52:59  347 348	 1492653179	 953632459	 272856.
01:53:00  348 349	 1492653180	 229080636	 275448.
01:53:00  349 350	 1492653180	 500725832	 271646.
01:53:00  350 351	 1492653180	 723174575	 222448.
01:53:00  351 352	 1492653180	 994442146	 271268.
01:53:01  352 353	 1492653181	 269125634	 274683.
01:53:01  353 354	 1492653181	 540130914	 271006.
01:53:01  354 355	 1492653181	 811344810	 271214.
01:53:02  355 356	 1492653182	 86244560	 274899.
01:53:02  356 357	 1492653182	 308410241	 222166.
01:53:02  357 358	 1492653182	 579573497	 271163.
01:53:02  358 359	 1492653182	 850502445	 270929.
01:53:03  359 360	 1492653183	 125755660	 275253.
01:53:03  360 361	 1492653183	 396925756	 271170.
01:53:03  361 362	 1492653183	 667790301	 270865.
01:53:03  362 363	 1492653183	 889877046	 222087.
01:53:04  363 364	 1492653184	 215115032	 325238.
01:53:04  364 365	 1492653184	 437291247	 222176.
01:53:04  365 366	 1492653184	 708073250	 270782.
01:53:04  366 367	 1492653184	 979213727	 271140.
01:53:05  367 368	 1492653185	 254229744	 275016.
01:53:05  368 369	 1492653185	 525055493	 270826.
01:53:05  369 370	 1492653185	 746999396	 221944.
01:53:06  370 371	 1492653186	 18397589	 271398.
01:53:06  371 372	 1492653186	 289325721	 270928.
01:53:06  372 373	 1492653186	 559918454	 270593.
01:53:06  373 374	 1492653186	 834243237	 274325.
01:53:07  374 375	 1492653187	 55705836	 221462.
01:53:07  375 376	 1492653187	 326457161	 270752.
01:53:07  376 377	 1492653187	 655837073	 329380.
01:53:07  377 378	 1492653187	 927778014	 271941.
01:53:08  378 379	 1492653188	 203511080	 275733.
01:53:08  379 380	 1492653188	 475378489	 271867.
01:53:08  380 381	 1492653188	 746960426	 271582.
01:53:09  381 382	 1492653189	 18716806	 271756.
01:53:09  382 383	 1492653189	 295396435	 276680.
01:53:09  383 384	 1492653189	 554494121	 259098.
01:53:09  384 385	 1492653189	 825507640	 271013.
01:53:10  385 386	 1492653190	 96659426	 271152.
01:53:10  386 387	 1492653190	 369403685	 272744.
01:53:10  387 388	 1492653190	 641109693	 271706.
01:53:10  388 389	 1492653190	 912687021	 271578.
01:53:11  389 390	 1492653191	 184051347	 271364.
01:53:11  390 391	 1492653191	 455366483	 271315.
01:53:11  391 392	 1492653191	 726631833	 271266.
01:53:11  392 393	 1492653191	 998101621	 271469.
01:53:12  393 394	 1492653192	 273368093	 275267.
01:53:12  394 395	 1492653192	 544959807	 271592.
01:53:12  395 396	 1492653192	 816055506	 271095.
01:53:13  396 397	 1492653193	 90917506	 274862.
01:53:13  397 398	 1492653193	 313560218	 222643.
01:53:13  398 399	 1492653193	 585114833	 271554.
01:53:13  399 400	 1492653193	 860822510	 275708.
01:53:14  400 401	 1492653194	 183070734	 322248.
01:53:14  401 402	 1492653194	 405555471	 222485.
01:53:14  402 403	 1492653194	 681086586	 275531.
01:53:14  403 404	 1492653194	 952784928	 271699.
01:53:15  404 405	 1492653195	 228659619	 275874.
01:53:15  405 406	 1492653195	 499807341	 271148.
01:53:15  406 407	 1492653195	 771541509	 271734.
01:53:16  407 408	 1492653196	 47035685	 275494.
01:53:16  408 409	 1492653196	 265641718	 218606.
01:53:16  409 410	 1492653196	 541311800	 275670.
01:53:16  410 411	 1492653196	 816329586	 275018.
01:53:17  411 412	 1492653197	 87405499	 271076.
01:53:17  412 413	 1492653197	 358839226	 271434.
01:53:17  413 414	 1492653197	 581733470	 222894.
01:53:17  414 415	 1492653197	 857524596	 275791.
01:53:18  415 416	 1492653198	 128413964	 270890.
01:53:18  416 417	 1492653198	 404235701	 275821.
01:53:18  417 418	 1492653198	 675389395	 271154.
01:53:18  418 419	 1492653198	 946741713	 271352.
01:53:19  419 420	 1492653199	 169019700	 222278.
01:53:19  420 421	 1492653199	 444503274	 275484.
01:53:19  421 422	 1492653199	 717284881	 272782.
01:53:19  422 423	 1492653199	 988424414	 271139.
01:53:20  423 424	 1492653200	 264314731	 275890.
01:53:20  424 425	 1492653200	 535503151	 271189.
01:53:20  425 426	 1492653200	 811100522	 275597.
01:53:21  426 427	 1492653201	 28947066	 217847.
01:53:21  427 428	 1492653201	 304189022	 275242.
01:53:21  428 429	 1492653201	 579565849	 275377.
01:53:21  429 430	 1492653201	 850824810	 271258.
01:53:22  430 431	 1492653202	 72825665	 222001.
01:53:22  431 432	 1492653202	 343530570	 270705.
01:53:22  432 433	 1492653202	 618341921	 274812.
01:53:22  433 434	 1492653202	 839826771	 221484.
01:53:23  434 435	 1492653203	 110774832	 270949.
01:53:23  435 436	 1492653203	 381415224	 270640.
01:53:23  436 437	 1492653203	 656442948	 275028.
01:53:23  437 438	 1492653203	 878643883	 222201.
01:53:24  438 439	 1492653204	 149407628	 270763.
01:53:24  439 440	 1492653204	 420654601	 271247.
01:53:24  440 441	 1492653204	 696022577	 275368.
01:53:24  441 442	 1492653204	 918873179	 222851.
01:53:25  442 443	 1492653205	 190510571	 271637.
01:53:25  443 444	 1492653205	 462193948	 271684.
01:53:25  444 445	 1492653205	 737802577	 275608.
01:53:26  445 446	 1492653206	 8806965	 271005.
01:53:26  446 447	 1492653206	 280130130	 271323.
01:53:26  447 448	 1492653206	 555396876	 275267.
01:53:26  448 449	 1492653206	 830924275	 275527.
01:53:27  449 450	 1492653207	 156589039	 325665.
01:53:27  450 451	 1492653207	 433242241	 276653.
01:53:27  451 452	 1492653207	 704760564	 271518.
01:53:27  452 453	 1492653207	 976636409	 271876.
01:53:28  453 454	 1492653208	 252307381	 275671.
01:53:28  454 455	 1492653208	 525856644	 273549.
01:53:28  455 456	 1492653208	 797227397	 271371.
01:53:29  456 457	 1492653209	 73097150	 275870.
01:53:29  457 458	 1492653209	 345023409	 271926.
01:53:29  458 459	 1492653209	 621198425	 276175.
01:53:29  459 460	 1492653209	 894042683	 272844.
01:53:30  460 461	 1492653210	 164900183	 270858.
01:53:30  461 462	 1492653210	 436302165	 271402.
01:53:30  462 463	 1492653210	 658967442	 222665.
01:53:30  463 464	 1492653210	 934175557	 275208.
01:53:31  464 465	 1492653211	 205388406	 271213.
01:53:31  465 466	 1492653211	 480546051	 275158.
01:53:31  466 467	 1492653211	 751745709	 271199.
01:53:32  467 468	 1492653212	 27504610	 275759.
01:53:32  468 469	 1492653212	 246510663	 219006.
01:53:32  469 470	 1492653212	 571776722	 325266.
01:53:32  470 471	 1492653212	 794405214	 222629.
01:53:33  471 472	 1492653213	 65636509	 271231.
01:53:33  472 473	 1492653213	 341549980	 275914.
01:53:33  473 474	 1492653213	 612964743	 271414.
01:53:33  474 475	 1492653213	 888848225	 275884.
01:53:34  475 476	 1492653214	 160128980	 271281.
01:53:34  476 477	 1492653214	 378011444	 217882.
01:53:34  477 478	 1492653214	 653812992	 275802.
01:53:34  478 479	 1492653214	 925387837	 271575.
01:53:35  479 480	 1492653215	 202177784	 276789.
01:53:35  480 481	 1492653215	 473257271	 271080.
01:53:35  481 482	 1492653215	 744668160	 271411.
01:53:36  482 483	 1492653216	 20324016	 275656.
01:53:36  483 484	 1492653216	 291775991	 271452.
01:53:36  484 485	 1492653216	 514004457	 222228.
01:53:36  485 486	 1492653216	 789795383	 275791.
01:53:37  486 487	 1492653217	 60940146	 271145.
01:53:37  487 488	 1492653217	 336357195	 275417.
01:53:37  488 489	 1492653217	 607762716	 271405.
01:53:37  489 490	 1492653217	 829984437	 222222.
01:53:38  490 491	 1492653218	 100941777	 270957.
01:53:38  491 492	 1492653218	 376166199	 275225.
01:53:38  492 493	 1492653218	 598565563	 222399.
01:53:38  493 494	 1492653218	 869538002	 270973.
01:53:39  494 495	 1492653219	 144983780	 275445.
01:53:39  495 496	 1492653219	 415554201	 270571.
01:53:39  496 497	 1492653219	 637458881	 221905.
01:53:39  497 498	 1492653219	 908227443	 270768.
01:53:40  498 499	 1492653220	 183077706	 274850.
01:53:40  499 500	 1492653220	 405171884	 222095.
01:53:40  500 501	 1492653220	 676005718	 270833.
01:53:40  501 502	 1492653220	 950985778	 274980.
01:53:41  502 503	 1492653221	 274438436	 323453.
01:53:41  503 504	 1492653221	 550345651	 275907.
01:53:41  504 505	 1492653221	 822372618	 272027.
01:53:42  505 506	 1492653222	 95130320	 272758.
01:53:42  506 507	 1492653222	 370072620	 274942.
01:53:42  507 508	 1492653222	 641347138	 271275.
01:53:42  508 509	 1492653222	 912300096	 270953.
01:53:43  509 510	 1492653223	 134570544	 222270.
01:53:43  510 511	 1492653223	 405379841	 270809.
01:53:43  511 512	 1492653223	 680570395	 275191.
01:53:43  512 513	 1492653223	 951841627	 271271.
01:53:44  513 514	 1492653224	 222932789	 271092.
01:53:44  514 515	 1492653224	 445051588	 222118.
01:53:44  515 516	 1492653224	 716378229	 271327.
01:53:44  516 517	 1492653224	 991189681	 274811.
01:53:45  517 518	 1492653225	 263710795	 272521.
01:53:45  518 519	 1492653225	 534607612	 270897.
01:53:45  519 520	 1492653225	 805596192	 270989.
01:53:46  520 521	 1492653226	 80906489	 275310.
01:53:46  521 522	 1492653226	 351668783	 270762.
01:53:46  522 523	 1492653226	 573451038	 221783.
01:53:46  523 524	 1492653226	 844213430	 270762.
01:53:47  524 525	 1492653227	 119136708	 274923.
01:53:47  525 526	 1492653227	 390310990	 271175.
01:53:47  526 527	 1492653227	 661528355	 271217.
01:53:47  527 528	 1492653227	 888133319	 226605.
01:53:48  528 529	 1492653228	 160185742	 272052.
01:53:48  529 530	 1492653228	 431763920	 271579.
01:53:48  530 531	 1492653228	 707205456	 275441.
01:53:48  531 532	 1492653228	 978388662	 271183.
01:53:49  532 533	 1492653229	 253696802	 275308.
01:53:49  533 534	 1492653229	 526411024	 272715.
01:53:49  534 535	 1492653229	 797739911	 271329.
01:53:50  535 536	 1492653230	 20257621	 222517.
01:53:50  536 537	 1492653230	 295845854	 275589.
01:53:50  537 538	 1492653230	 567125384	 271279.
01:53:50  538 539	 1492653230	 842371359	 275246.
01:53:51  539 540	 1492653231	 113406203	 271035.
01:53:51  540 541	 1492653231	 335619216	 222213.
01:53:51  541 542	 1492653231	 606959999	 271341.
01:53:51  542 543	 1492653231	 881972149	 275012.
01:53:52  543 544	 1492653232	 104063563	 222091.
01:53:52  544 545	 1492653232	 375061980	 270999.
01:53:52  545 546	 1492653232	 650328649	 275266.
01:53:52  546 547	 1492653232	 921866733	 271538.
01:53:53  547 548	 1492653233	 143741146	 221875.
01:53:53  548 549	 1492653233	 414623240	 270882.
01:53:53  549 550	 1492653233	 685820505	 271197.
01:53:53  550 551	 1492653233	 908294812	 222474.
01:53:54  551 552	 1492653234	 184216679	 275922.
01:53:54  552 553	 1492653234	 455345258	 271129.
01:53:54  553 554	 1492653234	 730487336	 275142.
01:53:54  554 555	 1492653235	 1840898	 271354.
01:53:55  555 556	 1492653235	 224140501	 222299.
01:53:55  556 557	 1492653235	 499401055	 275261.
01:53:55  557 558	 1492653235	 770718985	 271318.
01:53:56  558 559	 1492653236	 42568396	 271849.
01:53:56  559 560	 1492653236	 317930279	 275362.
01:53:56  560 561	 1492653236	 536538208	 218608.
01:53:56  561 562	 1492653236	 812531498	 275993.
01:53:57  562 563	 1492653237	 87883887	 275353.
01:53:57  563 564	 1492653237	 359220280	 271336.
01:53:57  564 565	 1492653237	 630232465	 271012.
01:53:57  565 566	 1492653237	 852701986	 222470.
01:53:58  566 567	 1492653238	 128320282	 275618.
01:53:58  567 568	 1492653238	 399520367	 271200.
01:53:58  568 569	 1492653238	 671339116	 271819.
01:53:58  569 570	 1492653238	 946332601	 274993.
01:53:59  570 571	 1492653239	 168469646	 222138.
01:53:59  571 572	 1492653239	 439648544	 271178.
01:53:59  572 573	 1492653239	 715288637	 275640.
01:53:59  573 574	 1492653239	 986525246	 271237.
01:54:00  574 575	 1492653240	 209061190	 222536.
01:54:00  575 576	 1492653240	 481064238	 272003.
01:54:00  576 577	 1492653240	 752923970	 271860.
01:54:01  577 578	 1492653241	 27874704	 274950.
01:54:01  578 579	 1492653241	 298585382	 270711.
01:54:01  579 580	 1492653241	 569626414	 271041.
01:54:01  580 581	 1492653241	 844444717	 274818.
01:54:02  581 582	 1492653242	 66584971	 222141.
01:54:02  582 583	 1492653242	 337514068	 270929.
01:54:02  583 584	 1492653242	 608311130	 270797.
01:54:02  584 585	 1492653242	 878849915	 270539.
01:54:03  585 586	 1492653243	 100966288	 222116.
01:54:03  586 587	 1492653243	 371894230	 270928.
01:54:03  587 588	 1492653243	 647312012	 275418.
01:54:03  588 589	 1492653243	 918490105	 271178.
01:54:04  589 590	 1492653244	 189915540	 271425.
01:54:04  590 591	 1492653244	 465328410	 275413.
01:54:04  591 592	 1492653244	 736794951	 271467.
01:54:05  592 593	 1492653245	 8530558	 271735.
01:54:05  593 594	 1492653245	 283558330	 275028.
01:54:05  594 595	 1492653245	 555051858	 271494.
01:54:05  595 596	 1492653245	 826801600	 271749.
01:54:06  596 597	 1492653246	 102475955	 275675.
01:54:06  597 598	 1492653246	 324488361	 222012.
01:54:06  598 599	 1492653246	 595692381	 271204.
01:54:06  599 600	 1492653246	 871776290	 276084.
01:54:07  600 601	 1492653247	 147280596	 275504.
01:54:07  601 602	 1492653247	 418684556	 271404.
01:54:07  602 603	 1492653247	 694154172	 275470.
01:54:07  603 604	 1492653247	 916879826	 222725.
01:54:08  604 605	 1492653248	 187707865	 270829.
01:54:08  605 606	 1492653248	 463959901	 276252.
01:54:08  606 607	 1492653248	 735871241	 271911.
01:54:09  607 608	 1492653249	 8203012	 272332.
01:54:09  608 609	 1492653249	 338400064	 330197.
01:54:09  609 610	 1492653249	 610394482	 271994.
01:54:09  610 611	 1492653249	 936046396	 325652.
01:54:10  611 612	 1492653250	 208932197	 272886.
01:54:10  612 613	 1492653250	 484224964	 275293.
01:54:10  613 614	 1492653250	 755571142	 271346.
01:54:11  614 615	 1492653251	 26884577	 271313.
01:54:11  615 616	 1492653251	 298191859	 271308.
01:54:11  616 617	 1492653251	 573456759	 275265.
01:54:11  617 618	 1492653251	 845199759	 271742.
01:54:12  618 619	 1492653252	 116903264	 271704.
01:54:12  619 620	 1492653252	 388347549	 271444.
01:54:12  620 621	 1492653252	 610503281	 222156.
01:54:12  621 622	 1492653252	 881731767	 271228.
01:54:13  622 623	 1492653253	 156435456	 274704.
01:54:13  623 624	 1492653253	 427189517	 270754.
01:54:13  624 625	 1492653253	 697599257	 270410.
01:54:13  625 626	 1492653253	 974214402	 276615.
01:54:14  626 627	 1492653254	 245190068	 270976.
01:54:14  627 628	 1492653254	 467460887	 222271.
01:54:14  628 629	 1492653254	 738309646	 270848.
01:54:15  629 630	 1492653255	 9161965	 270862.
01:54:15  630 631	 1492653255	 284432498	 275261.
01:54:15  631 632	 1492653255	 556175120	 271743.
01:54:15  632 633	 1492653255	 831324763	 275149.
01:54:16  633 634	 1492653256	 98848497	 267524.
01:54:16  634 635	 1492653256	 375247633	 276399.
01:54:16  635 636	 1492653256	 646735379	 271488.
01:54:16  636 637	 1492653256	 868908081	 222173.
01:54:17  637 638	 1492653257	 144538089	 275630.
01:54:17  638 639	 1492653257	 416025988	 271488.
01:54:17  639 640	 1492653257	 687253967	 271228.
01:54:17  640 641	 1492653257	 958241059	 270987.
01:54:18  641 642	 1492653258	 232820166	 274579.
01:54:18  642 643	 1492653258	 503960669	 271140.
01:54:18  643 644	 1492653258	 774914491	 270954.
01:54:18  644 645	 1492653258	 996867588	 221953.
01:54:19  645 646	 1492653259	 272114760	 275247.
01:54:19  646 647	 1492653259	 543534034	 271420.
01:54:19  647 648	 1492653259	 815020046	 271486.
01:54:20  648 649	 1492653260	 86272500	 271252.
01:54:20  649 650	 1492653260	 361591835	 275320.
01:54:20  650 651	 1492653260	 632990536	 271398.
01:54:20  651 652	 1492653260	 904742774	 271752.
01:54:21  652 653	 1492653261	 176325758	 271583.
01:54:21  653 654	 1492653261	 452048644	 275723.
01:54:21  654 655	 1492653261	 780484279	 328436.
01:54:22  655 656	 1492653262	 52858655	 272374.
01:54:22  656 657	 1492653262	 323895000	 271037.
01:54:22  657 658	 1492653262	 598826170	 274931.
01:54:22  658 659	 1492653262	 816997452	 218171.
01:54:23  659 660	 1492653263	 93112304	 276115.
01:54:23  660 661	 1492653263	 364979701	 271867.
01:54:23  661 662	 1492653263	 636629683	 271650.
01:54:23  662 663	 1492653263	 912001990	 275373.
01:54:24  663 664	 1492653264	 183261489	 271259.
01:54:24  664 665	 1492653264	 454789051	 271528.
01:54:24  665 666	 1492653264	 726351748	 271562.
01:54:24  666 667	 1492653264	 997863873	 271513.
01:54:25  667 668	 1492653265	 272680782	 274817.
01:54:25  668 669	 1492653265	 543662910	 270982.
01:54:25  669 670	 1492653265	 815017845	 271355.
01:54:26  670 671	 1492653266	 93387379	 278369.
01:54:26  671 672	 1492653266	 364824696	 271437.
01:54:26  672 673	 1492653266	 636450227	 271626.
01:54:26  673 674	 1492653266	 912135071	 275685.
01:54:27  674 675	 1492653267	 183958268	 271823.
01:54:27  675 676	 1492653267	 455335938	 271378.
01:54:27  676 677	 1492653267	 727508726	 272172.
01:54:27  677 678	 1492653268	 3420500	 275912.
01:54:28  678 679	 1492653268	 274550206	 271130.
01:54:28  679 680	 1492653268	 545875180	 271325.
01:54:28  680 681	 1492653268	 817538779	 271663.
01:54:29  681 682	 1492653269	 93315546	 275777.
01:54:29  682 683	 1492653269	 364726671	 271411.
01:54:29  683 684	 1492653269	 636313624	 271587.
01:54:29  684 685	 1492653269	 896808220	 260495.
01:54:30  685 686	 1492653270	 222537920	 325730.
01:54:30  686 687	 1492653270	 492943026	 270405.
01:54:30  687 688	 1492653270	 715273483	 222330.
01:54:30  688 689	 1492653270	 990491774	 275218.
01:54:31  689 690	 1492653271	 261862961	 271372.
01:54:31  690 691	 1492653271	 533857693	 271994.
01:54:31  691 692	 1492653271	 804861173	 271004.
01:54:32  692 693	 1492653272	 79904316	 275043.
01:54:32  693 694	 1492653272	 350977725	 271073.
01:54:32  694 695	 1492653272	 622384232	 271407.
01:54:32  695 696	 1492653272	 897777534	 275393.
01:54:33  696 697	 1492653273	 169188614	 271411.
01:54:33  697 698	 1492653273	 440822196	 271634.
01:54:33  698 699	 1492653273	 712397714	 271575.
01:54:33  699 700	 1492653273	 983915745	 271518.
01:54:34  700 701	 1492653274	 259731672	 275816.
01:54:34  701 702	 1492653274	 531380709	 271649.
01:54:34  702 703	 1492653274	 802542548	 271162.
01:54:35  703 704	 1492653275	 73329449	 270787.
01:54:35  704 705	 1492653275	 348557553	 275228.
01:54:35  705 706	 1492653275	 619656388	 271099.
01:54:35  706 707	 1492653275	 842215866	 222560.
01:54:36  707 708	 1492653276	 167941695	 325725.
01:54:36  708 709	 1492653276	 385816493	 217875.
01:54:36  709 710	 1492653276	 660530921	 274715.
01:54:36  710 711	 1492653276	 931230983	 270700.
01:54:37  711 712	 1492653277	 201657724	 270426.
01:54:37  712 713	 1492653277	 423524095	 221867.
01:54:37  713 714	 1492653277	 694190978	 270667.
01:54:37  714 715	 1492653277	 969735689	 275544.
01:54:38  715 716	 1492653278	 241276288	 271541.
01:54:38  716 717	 1492653278	 513166517	 271890.
01:54:38  717 718	 1492653278	 784978792	 271813.
01:54:39  718 719	 1492653279	 60829025	 275850.
01:54:39  719 720	 1492653279	 332812279	 271983.
01:54:39  720 721	 1492653279	 604205985	 271394.
01:54:39  721 722	 1492653279	 879516436	 275310.
01:54:40  722 723	 1492653280	 151134504	 271618.
01:54:40  723 724	 1492653280	 422705353	 271571.
01:54:40  724 725	 1492653280	 698117641	 275413.
01:54:41  725 726	 1492653281	 22961958	 324844.
01:54:41  726 727	 1492653281	 293900955	 270939.
01:54:41  727 728	 1492653281	 568856566	 274955.
01:54:41  728 729	 1492653281	 839597094	 270741.
01:54:42  729 730	 1492653282	 61310625	 221713.
01:54:42  730 731	 1492653282	 331897529	 270588.
01:54:42  731 732	 1492653282	 602726843	 270829.
01:54:42  732 733	 1492653282	 873680447	 270953.
01:54:43  733 734	 1492653283	 148662669	 274983.
01:54:43  734 735	 1492653283	 419903559	 271240.
01:54:43  735 736	 1492653283	 691234865	 271332.
01:54:43  736 737	 1492653283	 913477418	 222242.
01:54:44  737 738	 1492653284	 184713352	 271236.
01:54:44  738 739	 1492653284	 455206508	 270493.
01:54:44  739 740	 1492653284	 726703588	 271497.
01:54:44  740 741	 1492653285	 1033997	 274331.
01:54:45  741 742	 1492653285	 222738899	 221705.
01:54:45  742 743	 1492653285	 493442994	 270704.
01:54:45  743 744	 1492653285	 819145512	 325702.
01:54:46  744 745	 1492653286	 37148353	 218003.
01:54:46  745 746	 1492653286	 307927872	 270780.
01:54:46  746 747	 1492653286	 583080384	 275152.
01:54:46  747 748	 1492653286	 853583197	 270503.
01:54:47  748 749	 1492653287	 124254216	 270671.
01:54:47  749 750	 1492653287	 346129842	 221876.
01:54:47  750 751	 1492653287	 621110618	 274980.
01:54:47  751 752	 1492653287	 891674184	 270564.
01:54:48  752 753	 1492653288	 162389065	 270715.
01:54:48  753 754	 1492653288	 384280523	 221891.
01:54:48  754 755	 1492653288	 654931939	 270652.
01:54:48  755 756	 1492653288	 926955297	 272023.
01:54:49  756 757	 1492653289	 202236690	 275281.
01:54:49  757 758	 1492653289	 473503766	 271267.
01:54:49  758 759	 1492653289	 744980935	 271478.
01:54:50  759 760	 1492653290	 16422134	 271441.
01:54:50  760 761	 1492653290	 287880279	 271458.
01:54:50  761 762	 1492653290	 563276502	 275396.
01:54:50  762 763	 1492653290	 834338768	 271063.
01:54:51  763 764	 1492653291	 56879869	 222541.
01:54:51  764 765	 1492653291	 328034683	 271154.
01:54:51  765 766	 1492653291	 603047226	 275013.
01:54:51  766 767	 1492653291	 874293603	 271246.
01:54:52  767 768	 1492653292	 145099961	 270807.
01:54:52  768 769	 1492653292	 416824284	 271724.
01:54:52  769 770	 1492653292	 693867738	 277043.
01:54:52  770 771	 1492653292	 964962306	 271095.
01:54:53  771 772	 1492653293	 240328239	 275366.
01:54:53  772 773	 1492653293	 511745678	 271417.
01:54:53  773 774	 1492653293	 733965220	 222220.
01:54:54  774 775	 1492653294	 5749324	 271784.
01:54:54  775 776	 1492653294	 276977316	 271228.
01:54:54  776 777	 1492653294	 551964409	 274987.
01:54:54  777 778	 1492653294	 822271178	 270307.
01:54:55  778 779	 1492653295	 93676110	 271405.
01:54:55  779 780	 1492653295	 364649996	 270974.
01:54:55  780 781	 1492653295	 587228851	 222579.
01:54:55  781 782	 1492653295	 858858573	 271629.
01:54:56  782 783	 1492653296	 134225816	 275367.
01:54:56  783 784	 1492653296	 410097725	 275872.
01:54:56  784 785	 1492653296	 681471597	 271374.
01:54:56  785 786	 1492653296	 956418997	 274948.
01:54:57  786 787	 1492653297	 174318574	 217899.
01:54:57  787 788	 1492653297	 449693419	 275375.
01:54:57  788 789	 1492653297	 724731329	 275038.
01:54:57  789 790	 1492653297	 942571096	 217840.
01:54:58  790 791	 1492653298	 217754095	 275183.
01:54:58  791 792	 1492653298	 488705377	 270951.
01:54:58  792 793	 1492653298	 763766414	 275061.
01:54:59  793 794	 1492653299	 35195876	 271430.
01:54:59  794 795	 1492653299	 257948635	 222752.
01:54:59  795 796	 1492653299	 533559718	 275611.
01:54:59  796 797	 1492653299	 806016517	 272457.
01:55:00  797 798	 1492653300	 77658631	 271642.
01:55:00  798 799	 1492653300	 353606619	 275948.
01:55:00  799 800	 1492653300	 625394719	 271788.
01:55:00  800 801	 1492653300	 896351660	 270957.
01:55:01  801 802	 1492653301	 171377070	 275026.
01:55:01  802 803	 1492653301	 442836791	 271460.
01:55:01  803 804	 1492653301	 714191643	 271355.
01:55:01  804 805	 1492653301	 985185962	 270994.
01:55:02  805 806	 1492653302	 207360577	 222174.
01:55:02  806 807	 1492653302	 478902181	 271542.
01:55:02  807 808	 1492653302	 754259335	 275357.
01:55:03  808 809	 1492653303	 25530401	 271271.
01:55:03  809 810	 1492653303	 296640080	 271110.
01:55:03  810 811	 1492653303	 567619807	 270980.
01:55:03  811 812	 1492653303	 838879348	 271259.
01:55:04  812 813	 1492653304	 114373976	 275495.
01:55:04  813 814	 1492653304	 386199367	 271825.
01:55:04  814 815	 1492653304	 657572772	 271373.
01:55:04  815 816	 1492653304	 928986943	 271415.
01:55:05  816 817	 1492653305	 204370359	 275383.
01:55:05  817 818	 1492653305	 475568319	 271198.
01:55:05  818 819	 1492653305	 746603237	 271035.
01:55:06  819 820	 1492653306	 17864335	 271261.
01:55:06  820 821	 1492653306	 239896601	 222032.
01:55:06  821 822	 1492653306	 514696530	 274800.
01:55:06  822 823	 1492653306	 785794113	 271098.
01:55:07  823 824	 1492653307	 60617173	 274823.
01:55:07  824 825	 1492653307	 282586003	 221969.
01:55:07  825 826	 1492653307	 553551282	 270965.
01:55:07  826 827	 1492653307	 823892958	 270342.
01:55:08  827 828	 1492653308	 94093493	 270200.
01:55:08  828 829	 1492653308	 316348604	 222255.
01:55:08  829 830	 1492653308	 587368450	 271020.
01:55:08  830 831	 1492653308	 862573734	 275205.
01:55:09  831 832	 1492653309	 134083199	 271510.
01:55:09  832 833	 1492653309	 409373674	 275290.
01:55:09  833 834	 1492653309	 631209627	 221836.
01:55:09  834 835	 1492653309	 902255533	 271046.
01:55:10  835 836	 1492653310	 173876701	 271621.
01:55:10  836 837	 1492653310	 448664885	 274789.
01:55:10  837 838	 1492653310	 719539957	 270875.
01:55:10  838 839	 1492653310	 941491420	 221951.
01:55:11  839 840	 1492653311	 212685379	 271194.
01:55:11  840 841	 1492653311	 487979361	 275294.
01:55:11  841 842	 1492653311	 758955663	 270976.
01:55:11  842 843	 1492653311	 981153511	 222198.
01:55:12  843 844	 1492653312	 252525173	 271372.
01:55:12  844 845	 1492653312	 527888922	 275364.
01:55:12  845 846	 1492653312	 798947045	 271058.
01:55:13  846 847	 1492653313	 69578491	 270631.
01:55:13  847 848	 1492653313	 291346816	 221768.
01:55:13  848 849	 1492653313	 562309563	 270963.
01:55:13  849 850	 1492653313	 833718960	 271410.
01:55:14  850 851	 1492653314	 108505043	 274786.
01:55:14  851 852	 1492653314	 379643687	 271138.
01:55:14  852 853	 1492653314	 651148029	 271505.
01:55:14  853 854	 1492653314	 926486946	 275339.
01:55:15  854 855	 1492653315	 148440963	 221954.
01:55:15  855 856	 1492653315	 419726390	 271285.
01:55:15  856 857	 1492653315	 690836643	 271110.
01:55:15  857 858	 1492653315	 966050739	 275214.
01:55:16  858 859	 1492653316	 188430240	 222380.
01:55:16  859 860	 1492653316	 459501203	 271071.
01:55:16  860 861	 1492653316	 731072394	 271571.
01:55:17  861 862	 1492653317	 6352658	 275280.
01:55:17  862 863	 1492653317	 277607743	 271255.
01:55:17  863 864	 1492653317	 552730386	 275123.
01:55:17  864 865	 1492653317	 770976018	 218246.
01:55:18  865 866	 1492653318	 46805966	 275830.
01:55:18  866 867	 1492653318	 318139839	 271334.
01:55:18  867 868	 1492653318	 593726305	 275586.
01:55:18  868 869	 1492653318	 918919524	 325193.
01:55:19  869 870	 1492653319	 194386713	 275467.
01:55:19  870 871	 1492653319	 465829458	 271443.
01:55:19  871 872	 1492653319	 736829291	 271000.
01:55:20  872 873	 1492653320	 7646902	 270818.
01:55:20  873 874	 1492653320	 230247059	 222600.
01:55:20  874 875	 1492653320	 505128212	 274881.
01:55:20  875 876	 1492653320	 775956114	 270828.
01:55:21  876 877	 1492653321	 53010885	 277055.
01:55:21  877 878	 1492653321	 324073497	 271062.
01:55:21  878 879	 1492653321	 599106316	 275033.
01:55:21  879 880	 1492653321	 821052027	 221946.
01:55:22  880 881	 1492653322	 92544570	 271492.
01:55:22  881 882	 1492653322	 364481980	 271938.
01:55:22  882 883	 1492653322	 639703206	 275221.
01:55:22  883 884	 1492653322	 911205105	 271502.
01:55:23  884 885	 1492653323	 186639351	 275434.
01:55:23  885 886	 1492653323	 404752180	 218113.
01:55:23  886 887	 1492653323	 679655806	 274904.
01:55:23  887 888	 1492653323	 951109980	 271454.
01:55:24  888 889	 1492653324	 222290194	 271180.
01:55:24  889 890	 1492653324	 497727559	 275437.
01:55:24  890 891	 1492653324	 770279047	 272552.
01:55:25  891 892	 1492653325	 41916763	 271638.
01:55:25  892 893	 1492653325	 264299575	 222382.
01:55:25  893 894	 1492653325	 535623968	 271325.
01:55:25  894 895	 1492653325	 810807379	 275183.
01:55:26  895 896	 1492653326	 81940115	 271133.
01:55:26  896 897	 1492653326	 357948042	 276008.
01:55:26  897 898	 1492653326	 629849895	 271902.
01:55:26  898 899	 1492653326	 852219657	 222369.
01:55:27  899 900	 1492653327	 127227782	 275008.
01:55:27  900 901	 1492653327	 398209966	 270983.
01:55:27  901 902	 1492653327	 669881712	 271671.
01:55:27  902 903	 1492653327	 945981236	 276100.
01:55:28  903 904	 1492653328	 219004219	 273023.
01:55:28  904 905	 1492653328	 493905590	 274901.
01:55:28  905 906	 1492653328	 765395722	 271490.
01:55:28  906 907	 1492653328	 987504222	 222109.
01:55:29  907 908	 1492653329	 258174106	 270670.
01:55:29  908 909	 1492653329	 533008111	 274834.
01:55:29  909 910	 1492653329	 755030627	 222022.
01:55:30  910 911	 1492653330	 29813970	 274784.
01:55:30  911 912	 1492653330	 300863456	 271049.
01:55:30  912 913	 1492653330	 575603545	 274740.
01:55:30  913 914	 1492653330	 798468965	 222866.
01:55:31  914 915	 1492653331	 69881838	 271413.
01:55:31  915 916	 1492653331	 340642464	 270760.
01:55:31  916 917	 1492653331	 615465543	 274823.
01:55:31  917 918	 1492653331	 837529273	 222064.
01:55:32  918 919	 1492653332	 108882640	 271353.
01:55:32  919 920	 1492653332	 380181282	 271299.
01:55:32  920 921	 1492653332	 655296677	 275115.
01:55:32  921 922	 1492653332	 926486981	 271191.
01:55:33  922 923	 1492653333	 148184705	 221697.
01:55:33  923 924	 1492653333	 423702632	 275518.
01:55:33  924 925	 1492653333	 694578380	 270876.
01:55:33  925 926	 1492653333	 970024909	 275447.
01:55:34  926 927	 1492653334	 192569926	 222545.
01:55:34  927 928	 1492653334	 463208931	 270639.
01:55:34  928 929	 1492653334	 734376529	 271167.
01:55:35  929 930	 1492653335	 9825244	 275449.
01:55:35  930 931	 1492653335	 281559456	 271734.
01:55:35  931 932	 1492653335	 504046032	 222487.
01:55:35  932 933	 1492653335	 779161215	 275115.
01:55:36  933 934	 1492653336	 50247633	 271086.
01:55:36  934 935	 1492653336	 322047204	 271800.
01:55:36  935 936	 1492653336	 544078987	 222032.
01:55:36  936 937	 1492653336	 815600008	 271521.
01:55:37  937 938	 1492653337	 90520863	 274921.
01:55:37  938 939	 1492653337	 361379288	 270858.
01:55:37  939 940	 1492653337	 583076022	 221697.
01:55:37  940 941	 1492653337	 854510054	 271434.
01:55:38  941 942	 1492653338	 129624578	 275114.
01:55:38  942 943	 1492653338	 400840744	 271217.
01:55:38  943 944	 1492653338	 622850533	 222009.
01:55:38  944 945	 1492653338	 898454017	 275604.
01:55:39  945 946	 1492653339	 169340269	 270886.
01:55:39  946 947	 1492653339	 391012117	 221672.
01:55:39  947 948	 1492653339	 666690563	 275678.
01:55:39  948 949	 1492653339	 937672024	 270982.
01:55:40  949 950	 1492653340	 208307154	 270635.
01:55:40  950 951	 1492653340	 430179062	 221872.
01:55:40  951 952	 1492653340	 701204287	 271025.
01:55:40  952 953	 1492653340	 972111113	 270907.
01:55:41  953 954	 1492653341	 242446876	 270336.
01:55:41  954 955	 1492653341	 517395755	 274948.
01:55:41  955 956	 1492653341	 739949852	 222555.
01:55:42  956 957	 1492653342	 11010072	 271060.
01:55:42  957 958	 1492653342	 286295418	 275285.
01:55:42  958 959	 1492653342	 557813575	 271518.
01:55:42  959 960	 1492653342	 828808516	 270995.
01:55:43  960 961	 1492653343	 103662066	 274854.
01:55:43  961 962	 1492653343	 325966136	 222304.
01:55:43  962 963	 1492653343	 597029704	 271063.
01:55:43  963 964	 1492653343	 868109541	 271080.
01:55:44  964 965	 1492653344	 139172881	 271064.
01:55:44  965 966	 1492653344	 414475794	 275303.
01:55:44  966 967	 1492653344	 636562751	 222086.
01:55:44  967 968	 1492653344	 907788097	 271226.
01:55:45  968 969	 1492653345	 178965309	 271177.
01:55:45  969 970	 1492653345	 450453525	 271488.
01:55:45  970 971	 1492653345	 725605544	 275152.
01:55:45  971 972	 1492653345	 996713056	 271108.
01:55:46  972 973	 1492653346	 218739669	 222026.
01:55:46  973 974	 1492653346	 493147995	 274409.
01:55:46  974 975	 1492653346	 763645165	 270497.
01:55:47  975 976	 1492653347	 34252351	 270607.
01:55:47  976 977	 1492653347	 256297492	 222045.
01:55:47  977 978	 1492653347	 527106636	 270809.
01:55:47  978 979	 1492653347	 797840080	 270734.
01:55:48  979 980	 1492653348	 73234673	 275394.
01:55:48  980 981	 1492653348	 344967936	 271734.
01:55:48  981 982	 1492653348	 619969248	 275001.
01:55:48  982 983	 1492653348	 838339707	 218370.
01:55:49  983 984	 1492653349	 113093569	 274754.
01:55:49  984 985	 1492653349	 384117876	 271025.
01:55:49  985 986	 1492653349	 655092699	 270974.
01:55:49  986 987	 1492653349	 930372895	 275281.
01:55:50  987 988	 1492653350	 201474566	 271101.
01:55:50  988 989	 1492653350	 472446324	 270972.
01:55:50  989 990	 1492653350	 694554167	 222108.
01:55:50  990 991	 1492653350	 965350354	 270796.
01:55:51  991 992	 1492653351	 240228254	 274878.
01:55:51  992 993	 1492653351	 511336755	 271108.
01:55:51  993 994	 1492653351	 782261608	 270925.
01:55:52  994 995	 1492653352	 53106572	 270845.
01:55:52  995 996	 1492653352	 275395037	 222289.
01:55:52  996 997	 1492653352	 550256528	 274861.
01:55:52  997 998	 1492653352	 821407424	 271151.
01:55:53  998 999	 1492653353	 92225004	 270818.
01:55:53  999 1000	 1492653353	 363089133	 270864.
01:55:53 1000 1001	 1492653353	 584726025	 221637.
01:55:53 1001 1002	 1492653353	 859218056	 274492.
01:55:54 1002 1003	 1492653354	 129541075	 270323.
01:55:54 1003 1004	 1492653354	 400428512	 270887.
01:55:54 1004 1005	 1492653354	 623014127	 222586.
01:55:54 1005 1006	 1492653354	 898275882	 275262.
01:55:55 1006 1007	 1492653355	 169060022	 270784.
01:55:55 1007 1008	 1492653355	 440487103	 271427.
01:55:55 1008 1009	 1492653355	 715748059	 275261.
01:55:55 1009 1010	 1492653355	 933471625	 217723.
01:55:56 1010 1011	 1492653356	 207903774	 274433.
01:55:56 1011 1012	 1492653356	 479320528	 271416.
01:55:56 1012 1013	 1492653356	 750797429	 271477.
01:55:57 1013 1014	 1492653357	 26152918	 275356.
01:55:57 1014 1015	 1492653357	 248892721	 222739.
01:55:57 1015 1016	 1492653357	 520266791	 271375.
01:55:57 1016 1017	 1492653357	 795633884	 275367.
01:55:58 1017 1018	 1492653358	 67153179	 271519.
01:55:58 1018 1019	 1492653358	 342694336	 275541.
01:55:58 1019 1020	 1492653358	 565228189	 222534.
01:55:58 1020 1021	 1492653358	 836167783	 270939.
01:55:59 1021 1022	 1492653359	 107249210	 271082.
01:55:59 1022 1023	 1492653359	 378327202	 271078.
01:55:59 1023 1024	 1492653359	 600557031	 222230.
01:55:59 1024 1025	 1492653359	 871668573	 271111.
01:56:00 1025 1026	 1492653360	 146818761	 275150.
01:56:00 1026 1027	 1492653360	 418778906	 271961.
01:56:00 1027 1028	 1492653360	 694441412	 275662.
01:56:00 1028 1029	 1492653360	 965803543	 271362.
01:56:01 1029 1030	 1492653361	 187947897	 222145.
01:56:01 1030 1031	 1492653361	 459062257	 271114.
01:56:01 1031 1032	 1492653361	 730079735	 271018.
01:56:02 1032 1033	 1492653362	 843469	 270763.
01:56:02 1033 1034	 1492653362	 276212111	 275369.
01:56:02 1034 1035	 1492653362	 547479451	 271267.
01:56:02 1035 1036	 1492653362	 818476337	 270997.
01:56:03 1036 1037	 1492653363	 40464061	 221988.
01:56:03 1037 1038	 1492653363	 311203209	 270739.
01:56:03 1038 1039	 1492653363	 582315626	 271112.
01:56:03 1039 1040	 1492653363	 853221688	 270906.
01:56:04 1040 1041	 1492653364	 124134942	 270914.
01:56:04 1041 1042	 1492653364	 399527406	 275392.
01:56:04 1042 1043	 1492653364	 670542031	 271015.
01:56:04 1043 1044	 1492653364	 893050935	 222509.
01:56:05 1044 1045	 1492653365	 164659276	 271608.
01:56:05 1045 1046	 1492653365	 436203988	 271545.
01:56:05 1046 1047	 1492653365	 711673743	 275469.
01:56:05 1047 1048	 1492653365	 983152388	 271479.
01:56:06 1048 1049	 1492653366	 254604915	 271453.
01:56:06 1049 1050	 1492653366	 530287117	 275682.
01:56:06 1050 1051	 1492653366	 801837209	 271550.
01:56:07 1051 1052	 1492653367	 73206467	 271369.
01:56:07 1052 1053	 1492653367	 348849949	 275644.
01:56:07 1053 1054	 1492653367	 619945593	 271095.
01:56:07 1054 1055	 1492653367	 890925650	 270980.
01:56:08 1055 1056	 1492653368	 161757015	 270832.
01:56:08 1056 1057	 1492653368	 437134882	 275378.
01:56:08 1057 1058	 1492653368	 655576344	 218441.
01:56:08 1058 1059	 1492653368	 931205881	 275630.
01:56:09 1059 1060	 1492653369	 202177818	 270972.
01:56:09 1060 1061	 1492653369	 473000792	 270822.
01:56:09 1061 1062	 1492653369	 748348096	 275348.
01:56:10 1062 1063	 1492653370	 19451402	 271103.
01:56:10 1063 1064	 1492653370	 240825068	 221374.
01:56:10 1064 1065	 1492653370	 511767586	 270954.
01:56:10 1065 1066	 1492653370	 782586807	 270808.
01:56:11 1066 1067	 1492653371	 56892795	 274305.
01:56:11 1067 1068	 1492653371	 274776058	 217884.
01:56:11 1068 1069	 1492653371	 549843220	 275067.
01:56:11 1069 1070	 1492653371	 820721592	 270878.
01:56:12 1070 1071	 1492653372	 149355551	 328634.
01:56:12 1071 1072	 1492653372	 420948956	 271594.
01:56:12 1072 1073	 1492653372	 691995719	 271046.
01:56:12 1073 1074	 1492653372	 962795756	 270800.
01:56:13 1074 1075	 1492653373	 237900877	 275106.
01:56:13 1075 1076	 1492653373	 509326156	 271425.
01:56:13 1076 1077	 1492653373	 784639848	 275314.
01:56:14 1077 1078	 1492653374	 2584559	 217944.
01:56:14 1078 1079	 1492653374	 277793261	 275209.
01:56:14 1079 1080	 1492653374	 548728482	 270935.
01:56:14 1080 1081	 1492653374	 818993896	 270266.
01:56:15 1081 1082	 1492653375	 91301573	 272307.
01:56:15 1082 1083	 1492653375	 366677383	 275376.
01:56:15 1083 1084	 1492653375	 637215132	 270538.
01:56:15 1084 1085	 1492653375	 859109260	 221894.
01:56:16 1085 1086	 1492653376	 129854304	 270745.
01:56:16 1086 1087	 1492653376	 400407223	 270565.
01:56:16 1087 1088	 1492653376	 671361902	 270943.
01:56:16 1088 1089	 1492653376	 946882440	 275520.
01:56:17 1089 1090	 1492653377	 168986165	 222104.
01:56:17 1090 1091	 1492653377	 440110065	 271124.
01:56:17 1091 1092	 1492653377	 710938507	 270828.
01:56:17 1092 1093	 1492653377	 981693898	 270756.
01:56:18 1093 1094	 1492653378	 256169442	 274475.
01:56:18 1094 1095	 1492653378	 527645733	 271476.
01:56:18 1095 1096	 1492653378	 799226286	 271581.
01:56:19 1096 1097	 1492653379	 71280119	 272054.
01:56:19 1097 1098	 1492653379	 347164516	 275884.
01:56:19 1098 1099	 1492653379	 618339641	 271175.
01:56:19 1099 1100	 1492653379	 889493891	 271155.
01:56:20 1100 1101	 1492653380	 164885111	 275391.
01:56:20 1101 1102	 1492653380	 383055920	 218171.
01:56:20 1102 1103	 1492653380	 658665174	 275609.
01:56:20 1103 1104	 1492653380	 980737689	 322072.
01:56:21 1104 1105	 1492653381	 252134054	 271397.
01:56:21 1105 1106	 1492653381	 527727054	 275593.
01:56:21 1106 1107	 1492653381	 798908448	 271181.
01:56:22 1107 1108	 1492653382	 70215580	 271307.
01:56:22 1108 1109	 1492653382	 292643866	 222429.
01:56:22 1109 1110	 1492653382	 567938874	 275295.
01:56:22 1110 1111	 1492653382	 838885440	 270946.
01:56:23 1111 1112	 1492653383	 110016089	 271131.
01:56:23 1112 1113	 1492653383	 382452524	 272436.
01:56:23 1113 1114	 1492653383	 653653745	 271201.
01:56:23 1114 1115	 1492653383	 928545304	 274892.
01:56:24 1115 1116	 1492653384	 198856676	 270311.
01:56:24 1116 1117	 1492653384	 469666083	 270810.
01:56:24 1117 1118	 1492653384	 691500136	 221834.
01:56:24 1118 1119	 1492653384	 966503713	 275004.
01:56:25 1119 1120	 1492653385	 237784620	 271280.
01:56:25 1120 1121	 1492653385	 508902557	 271118.
01:56:25 1121 1122	 1492653385	 779869282	 270967.
01:56:26 1122 1123	 1492653386	 54996281	 275127.
01:56:26 1123 1124	 1492653386	 276719633	 221723.
01:56:26 1124 1125	 1492653386	 547543249	 270824.
01:56:26 1125 1126	 1492653386	 818741810	 271199.
01:56:27 1126 1127	 1492653387	 89971933	 271230.
01:56:27 1127 1128	 1492653387	 361484353	 271512.
01:56:27 1128 1129	 1492653387	 632427761	 270943.
01:56:27 1129 1130	 1492653387	 907585285	 275158.
01:56:28 1130 1131	 1492653388	 125723621	 218138.
01:56:28 1131 1132	 1492653388	 400922541	 275199.
