21:06:33    0 Step	 time(s)	 time(ns)	 delta(ms)
21:06:33    0 1	 1492549593	 230980731	 921.
21:06:33    1 2	 1492549593	 507068678	 276088.
21:06:33    2 3	 1492549593	 779007540	 271939.
21:06:34    3 4	 1492549594	 50953825	 271947.
21:06:34    4 5	 1492549594	 326250748	 275297.
21:06:34    5 6	 1492549594	 597671726	 271420.
21:06:34    6 7	 1492549594	 868919793	 271248.
21:06:35    7 8	 1492549595	 144168220	 275249.
21:06:35    8 9	 1492549595	 366361376	 222193.
21:06:35    9 10	 1492549595	 637667572	 271306.
21:06:35   10 11	 1492549595	 908913068	 271246.
21:06:36   11 12	 1492549596	 180001768	 271088.
21:06:36   12 13	 1492549596	 455151571	 275150.
21:06:36   13 14	 1492549596	 726271268	 271120.
21:06:36   14 15	 1492549596	 997445626	 271174.
21:06:37   15 16	 1492549597	 272512731	 275067.
21:06:37   16 17	 1492549597	 543636065	 271124.
21:06:37   17 18	 1492549597	 766007487	 222371.
21:06:38   18 19	 1492549598	 36917502	 270910.
21:06:38   19 20	 1492549598	 308127450	 271210.
21:06:38   20 21	 1492549598	 579240493	 271113.
21:06:38   21 22	 1492549598	 854347141	 275107.
21:06:39   22 23	 1492549599	 125279724	 270932.
21:06:39   23 24	 1492549599	 396234663	 270955.
21:06:39   24 25	 1492549599	 667363983	 271130.
21:06:39   25 26	 1492549599	 938278475	 270914.
21:06:40   26 27	 1492549600	 160571006	 222293.
21:06:40   27 28	 1492549600	 435081398	 274510.
21:06:40   28 29	 1492549600	 705722127	 270641.
21:06:40   29 30	 1492549600	 976365793	 270643.
21:06:41   30 31	 1492549601	 197922144	 221557.
21:06:41   31 32	 1492549601	 472592662	 274670.
21:06:41   32 33	 1492549601	 743652467	 271060.
21:06:42   33 34	 1492549602	 14882107	 271230.
21:06:42   34 35	 1492549602	 286082658	 271200.
21:06:42   35 36	 1492549602	 561357187	 275275.
21:06:42   36 37	 1492549602	 832562833	 271206.
21:06:43   37 38	 1492549603	 103503742	 270940.
21:06:43   38 39	 1492549603	 325326571	 221823.
21:06:43   39 40	 1492549603	 596427019	 271101.
21:06:43   40 41	 1492549603	 871457179	 275030.
21:06:44   41 42	 1492549604	 142945087	 271488.
21:06:44   42 43	 1492549604	 414030493	 271085.
21:06:44   43 44	 1492549604	 689226672	 275196.
21:06:44   44 45	 1492549604	 907512689	 218286.
21:06:45   45 46	 1492549605	 182816715	 275304.
21:06:45   46 47	 1492549605	 453674909	 270859.
21:06:45   47 48	 1492549605	 728699609	 275025.
21:06:45   48 49	 1492549605	 950703619	 222003.
21:06:46   49 50	 1492549606	 221107821	 270405.
21:06:46   50 51	 1492549606	 495439483	 274331.
21:06:46   51 52	 1492549606	 713012474	 217573.
21:06:46   52 53	 1492549606	 987464242	 274452.
21:06:47   53 54	 1492549607	 257941910	 270478.
21:06:47   54 55	 1492549607	 528755089	 270813.
21:06:47   55 56	 1492549607	 803900065	 275145.
21:06:48   56 57	 1492549608	 22099698	 218199.
21:06:48   57 58	 1492549608	 298148873	 276050.
21:06:48   58 59	 1492549608	 574182062	 276033.
21:06:48   59 60	 1492549608	 844728492	 270546.
21:06:49   60 61	 1492549609	 115530306	 270802.
21:06:49   61 62	 1492549609	 386966994	 271437.
21:06:49   62 63	 1492549609	 662510090	 275543.
21:06:49   63 64	 1492549609	 933417849	 270908.
21:06:50   64 65	 1492549610	 155318085	 221900.
21:06:50   65 66	 1492549610	 426923528	 271605.
21:06:50   66 67	 1492549610	 697751779	 270828.
21:06:50   67 68	 1492549610	 972999616	 275248.
21:06:51   68 69	 1492549611	 244170526	 271171.
21:06:51   69 70	 1492549611	 515466416	 271296.
21:06:51   70 71	 1492549611	 786843198	 271377.
21:06:52   71 72	 1492549612	 62482739	 275639.
21:06:52   72 73	 1492549612	 334619751	 272138.
21:06:52   73 74	 1492549612	 610452307	 275832.
21:06:52   74 75	 1492549612	 882058150	 271606.
21:06:53   75 76	 1492549613	 103896880	 221839.
21:06:53   76 77	 1492549613	 374877508	 270980.
21:06:53   77 78	 1492549613	 649831464	 274954.
21:06:53   78 79	 1492549613	 925151542	 275320.
21:06:54   79 80	 1492549614	 147340034	 222189.
21:06:54   80 81	 1492549614	 417994935	 270655.
21:06:54   81 82	 1492549614	 693160587	 275165.
21:06:54   82 83	 1492549614	 964827199	 271667.
21:06:55   83 84	 1492549615	 187258459	 222431.
21:06:55   84 85	 1492549615	 462476607	 275218.
21:06:55   85 86	 1492549615	 734674650	 272198.
21:06:56   86 87	 1492549616	 10048667	 275374.
21:06:56   87 88	 1492549616	 232804214	 222756.
21:06:56   88 89	 1492549616	 509174689	 276370.
21:06:56   89 90	 1492549616	 780788885	 271615.
21:06:57   90 91	 1492549617	 56528786	 275739.
21:06:57   91 92	 1492549617	 327628248	 271100.
21:06:57   92 93	 1492549617	 550659510	 223031.
21:06:57   93 94	 1492549617	 826645796	 275986.
21:06:58   94 95	 1492549618	 97919592	 271274.
21:06:58   95 96	 1492549618	 373464784	 275545.
21:06:58   96 97	 1492549618	 595171842	 221707.
21:06:58   97 98	 1492549618	 865451344	 270280.
21:06:59   98 99	 1492549619	 140733021	 275282.
21:06:59   99 100	 1492549619	 363118482	 222385.
21:06:59  100 101	 1492549619	 634488916	 271371.
21:06:59  101 102	 1492549619	 906138336	 271649.
21:07:00  102 103	 1492549620	 177033038	 270895.
21:07:00  103 104	 1492549620	 451357263	 274324.
21:07:00  104 105	 1492549620	 672628527	 221271.
21:07:00  105 106	 1492549620	 943170571	 270542.
21:07:01  106 107	 1492549621	 214228044	 271058.
21:07:01  107 108	 1492549621	 485311628	 271083.
21:07:01  108 109	 1492549621	 756118406	 270807.
21:07:01  109 110	 1492549621	 978335875	 222218.
21:07:02  110 111	 1492549622	 253563334	 275227.
21:07:02  111 112	 1492549622	 524602669	 271039.
21:07:02  112 113	 1492549622	 795594856	 270993.
21:07:03  113 114	 1492549623	 66236444	 270641.
21:07:03  114 115	 1492549623	 288140238	 221904.
21:07:03  115 116	 1492549623	 558472536	 270332.
21:07:03  116 117	 1492549623	 833166844	 274695.
21:07:04  117 118	 1492549624	 103801586	 270634.
21:07:04  118 119	 1492549624	 321445517	 217644.
21:07:04  119 120	 1492549624	 596304960	 274860.
21:07:04  120 121	 1492549624	 867393129	 271088.
21:07:05  121 122	 1492549625	 142744241	 275351.
21:07:05  122 123	 1492549625	 414624950	 271881.
21:07:05  123 124	 1492549625	 685759263	 271134.
21:07:05  124 125	 1492549625	 960895150	 275136.
21:07:06  125 126	 1492549626	 178912572	 218017.
21:07:06  126 127	 1492549626	 453905751	 274993.
21:07:06  127 128	 1492549626	 725842456	 271937.
21:07:06  128 129	 1492549627	 1659966	 275818.
21:07:07  129 130	 1492549627	 224425551	 222765.
21:07:07  130 131	 1492549627	 495769188	 271344.
21:07:07  131 132	 1492549627	 772001947	 276233.
21:07:08  132 133	 1492549628	 47637982	 275636.
21:07:08  133 134	 1492549628	 319242008	 271604.
21:07:08  134 135	 1492549628	 591492537	 272250.
21:07:08  135 136	 1492549628	 818339931	 226848.
21:07:09  136 137	 1492549629	 90089729	 271749.
21:07:09  137 138	 1492549629	 361511274	 271422.
21:07:09  138 139	 1492549629	 637617094	 276106.
21:07:09  139 140	 1492549629	 910597007	 272980.
21:07:10  140 141	 1492549630	 187419631	 276822.
21:07:10  141 142	 1492549630	 459146305	 271727.
21:07:10  142 143	 1492549630	 730644204	 271498.
21:07:11  143 144	 1492549631	 6182415	 275538.
21:07:11  144 145	 1492549631	 277664804	 271483.
21:07:11  145 146	 1492549631	 500291055	 222626.
21:07:11  146 147	 1492549631	 777027613	 276736.
21:07:12  147 148	 1492549632	 48953519	 271926.
21:07:12  148 149	 1492549632	 325625565	 276672.
21:07:12  149 150	 1492549632	 597821597	 272196.
21:07:12  150 151	 1492549632	 874330726	 276510.
21:07:13  151 152	 1492549633	 145894485	 271563.
21:07:13  152 153	 1492549633	 421596516	 275702.
21:07:13  153 154	 1492549633	 692911497	 271315.
21:07:13  154 155	 1492549633	 915159630	 222248.
21:07:14  155 156	 1492549634	 186487373	 271328.
21:07:14  156 157	 1492549634	 460892643	 274405.
21:07:14  157 158	 1492549634	 682885527	 221993.
21:07:14  158 159	 1492549634	 954280825	 271395.
21:07:15  159 160	 1492549635	 229216708	 274936.
21:07:15  160 161	 1492549635	 451552041	 222336.
21:07:15  161 162	 1492549635	 722540840	 270988.
21:07:15  162 163	 1492549635	 998618826	 276079.
21:07:16  163 164	 1492549636	 270207989	 271589.
21:07:16  164 165	 1492549636	 492850558	 222642.
21:07:16  165 166	 1492549636	 768159573	 275309.
21:07:17  166 167	 1492549637	 43392754	 275233.
21:07:17  167 168	 1492549637	 314674296	 271282.
21:07:17  168 169	 1492549637	 541628570	 226954.
21:07:17  169 170	 1492549637	 813883697	 272255.
21:07:18  170 171	 1492549638	 89831142	 275948.
21:07:18  171 172	 1492549638	 361539293	 271708.
21:07:18  172 173	 1492549638	 636641180	 275102.
21:07:18  173 174	 1492549638	 908454204	 271813.
21:07:19  174 175	 1492549639	 131243682	 222789.
21:07:19  175 176	 1492549639	 406702295	 275459.
21:07:19  176 177	 1492549639	 677522185	 270820.
21:07:19  177 178	 1492549639	 949394722	 271872.
21:07:20  178 179	 1492549640	 176283538	 226889.
21:07:20  179 180	 1492549640	 447355316	 271072.
21:07:20  180 181	 1492549640	 718790431	 271435.
21:07:20  181 182	 1492549640	 945153345	 226363.
21:07:21  182 183	 1492549641	 220263979	 275111.
21:07:21  183 184	 1492549641	 491473998	 271210.
21:07:21  184 185	 1492549641	 713881721	 222407.
21:07:21  185 186	 1492549641	 989026618	 275145.
21:07:22  186 187	 1492549642	 260751648	 271725.
21:07:22  187 188	 1492549642	 536586484	 275835.
21:07:22  188 189	 1492549642	 758890675	 222304.
21:07:23  189 190	 1492549643	 30220132	 271330.
21:07:23  190 191	 1492549643	 305760120	 275540.
21:07:23  191 192	 1492549643	 527809020	 222049.
21:07:23  192 193	 1492549643	 798881481	 271072.
21:07:24  193 194	 1492549644	 74122535	 275241.
21:07:24  194 195	 1492549644	 296392084	 222270.
21:07:24  195 196	 1492549644	 568285448	 271893.
21:07:24  196 197	 1492549644	 843565493	 275280.
21:07:25  197 198	 1492549645	 115383251	 271818.
21:07:25  198 199	 1492549645	 338225898	 222843.
21:07:25  199 200	 1492549645	 614602837	 276377.
21:07:25  200 201	 1492549645	 886409020	 271806.
21:07:26  201 202	 1492549646	 162633985	 276225.
21:07:26  202 203	 1492549646	 434556434	 271922.
21:07:26  203 204	 1492549646	 706357612	 271801.
21:07:26  204 205	 1492549646	 982963269	 276606.
21:07:27  205 206	 1492549647	 255268945	 272306.
21:07:27  206 207	 1492549647	 531368403	 276099.
21:07:27  207 208	 1492549647	 803511807	 272144.
21:07:28  208 209	 1492549648	 26291889	 222780.
21:07:28  209 210	 1492549648	 302261462	 275969.
21:07:28  210 211	 1492549648	 574233286	 271972.
21:07:28  211 212	 1492549648	 849964372	 275731.
21:07:29  212 213	 1492549649	 121276054	 271312.
21:07:29  213 214	 1492549649	 392676847	 271401.
21:07:29  214 215	 1492549649	 667617926	 274941.
21:07:29  215 216	 1492549649	 889651320	 222033.
21:07:30  216 217	 1492549650	 160458548	 270807.
21:07:30  217 218	 1492549650	 431884593	 271426.
21:07:30  218 219	 1492549650	 706747065	 274863.
21:07:30  219 220	 1492549650	 977877245	 271130.
21:07:31  220 221	 1492549651	 249433154	 271556.
21:07:31  221 222	 1492549651	 471102376	 221669.
21:07:31  222 223	 1492549651	 741931222	 270829.
21:07:32  223 224	 1492549652	 13369614	 271438.
21:07:32  224 225	 1492549652	 288683481	 275314.
21:07:32  225 226	 1492549652	 559913945	 271231.
21:07:32  226 227	 1492549652	 830672082	 270758.
21:07:33  227 228	 1492549653	 53281892	 222610.
21:07:33  228 229	 1492549653	 329445964	 276164.
21:07:33  229 230	 1492549653	 635073148	 305627.
21:07:33  230 231	 1492549653	 857179891	 222107.
21:07:34  231 232	 1492549654	 128573963	 271394.
21:07:34  232 233	 1492549654	 403783323	 275209.
21:07:34  233 234	 1492549654	 675046498	 271263.
21:07:34  234 235	 1492549654	 897434709	 222388.
21:07:35  235 236	 1492549655	 173172370	 275738.
21:07:35  236 237	 1492549655	 444292799	 271120.
21:07:35  237 238	 1492549655	 720425941	 276134.
21:07:35  238 239	 1492549655	 991889680	 271463.
21:07:36  239 240	 1492549656	 214225776	 222336.
21:07:36  240 241	 1492549656	 489923714	 275698.
21:07:36  241 242	 1492549656	 761550557	 271627.
21:07:37  242 243	 1492549657	 33271273	 271721.
21:07:37  243 244	 1492549657	 309357831	 276087.
21:07:37  244 245	 1492549657	 580853284	 271495.
21:07:37  245 246	 1492549657	 807812344	 226959.
21:07:38  246 247	 1492549658	 79473413	 271661.
21:07:38  247 248	 1492549658	 355171176	 275698.
21:07:38  248 249	 1492549658	 626338281	 271167.
21:07:38  249 250	 1492549658	 898308098	 271970.
21:07:39  250 251	 1492549659	 173575607	 275267.
21:07:39  251 252	 1492549659	 391716064	 218141.
21:07:39  252 253	 1492549659	 667113957	 275398.
21:07:39  253 254	 1492549659	 938568729	 271454.
21:07:40  254 255	 1492549660	 213996976	 275429.
21:07:40  255 256	 1492549660	 485230420	 271233.
21:07:40  256 257	 1492549660	 756654518	 271424.
21:07:41  257 258	 1492549661	 32200340	 275546.
21:07:41  258 259	 1492549661	 250414081	 218214.
21:07:41  259 260	 1492549661	 525443275	 275029.
21:07:41  260 261	 1492549661	 796087980	 270645.
21:07:42  261 262	 1492549662	 66952066	 270864.
21:07:42  262 263	 1492549662	 341886134	 274934.
21:07:42  263 264	 1492549662	 564158776	 222272.
21:07:42  264 265	 1492549662	 835918076	 271760.
21:07:43  265 266	 1492549663	 106614985	 270697.
21:07:43  266 267	 1492549663	 377552543	 270937.
21:07:43  267 268	 1492549663	 648630610	 271078.
21:07:43  268 269	 1492549663	 923847319	 275217.
21:07:44  269 270	 1492549664	 194939059	 271092.
21:07:44  270 271	 1492549664	 465729953	 270791.
21:07:44  271 272	 1492549664	 688609701	 222879.
21:07:44  272 273	 1492549664	 964665907	 276057.
21:07:45  273 274	 1492549665	 235887043	 271221.
21:07:45  274 275	 1492549665	 511702786	 275816.
21:07:45  275 276	 1492549665	 783181255	 271478.
21:07:46  276 277	 1492549666	 54964252	 271783.
21:07:46  277 278	 1492549666	 277251083	 222287.
21:07:46  278 279	 1492549666	 552822744	 275571.
21:07:46  279 280	 1492549666	 824330748	 271508.
21:07:47  280 281	 1492549667	 99948241	 275618.
21:07:47  281 282	 1492549667	 371727539	 271779.
21:07:47  282 283	 1492549667	 643661277	 271934.
21:07:47  283 284	 1492549667	 865939023	 222278.
21:07:48  284 285	 1492549668	 141772439	 275833.
21:07:48  285 286	 1492549668	 416722791	 274950.
21:07:48  286 287	 1492549668	 634448480	 217726.
21:07:48  287 288	 1492549668	 909802142	 275354.
21:07:49  288 289	 1492549669	 181228094	 271426.
21:07:49  289 290	 1492549669	 403645792	 222417.
21:07:49  290 291	 1492549669	 679721474	 276076.
21:07:49  291 292	 1492549669	 954852400	 275131.
21:07:50  292 293	 1492549670	 226396680	 271544.
21:07:50  293 294	 1492549670	 503127372	 276731.
21:07:50  294 295	 1492549670	 775149440	 272022.
21:07:50  295 296	 1492549670	 997799634	 222650.
21:07:51  296 297	 1492549671	 273080314	 275281.
21:07:51  297 298	 1492549671	 545135629	 272055.
21:07:51  298 299	 1492549671	 820680691	 275545.
21:07:52  299 300	 1492549672	 43570662	 222890.
21:07:52  300 301	 1492549672	 315040670	 271470.
21:07:52  301 302	 1492549672	 590937899	 275898.
21:07:52  302 303	 1492549672	 862842338	 271904.
21:07:53  303 304	 1492549673	 84881030	 222039.
21:07:53  304 305	 1492549673	 360133972	 275253.
21:07:53  305 306	 1492549673	 636067022	 275933.
21:07:53  306 307	 1492549673	 907667287	 271600.
21:07:54  307 308	 1492549674	 130282644	 222615.
21:07:54  308 309	 1492549674	 402448213	 272166.
21:07:54  309 310	 1492549674	 678630980	 276183.
21:07:54  310 311	 1492549674	 954506573	 275875.
21:07:55  311 312	 1492549675	 226055610	 271549.
21:07:55  312 313	 1492549675	 448675109	 222620.
21:07:55  313 314	 1492549675	 720523293	 271848.
21:07:55  314 315	 1492549675	 996298299	 275775.
21:07:56  315 316	 1492549676	 268224313	 271926.
21:07:56  316 317	 1492549676	 543523878	 275300.
21:07:56  317 318	 1492549676	 766213711	 222689.
21:07:57  318 319	 1492549677	 36870716	 270657.
21:07:57  319 320	 1492549677	 312529580	 275659.
21:07:57  320 321	 1492549677	 534813550	 222284.
21:07:57  321 322	 1492549677	 805840829	 271027.
21:07:58  322 323	 1492549678	 81442135	 275602.
21:07:58  323 324	 1492549678	 303728549	 222286.
21:07:58  324 325	 1492549678	 575639290	 271911.
21:07:58  325 326	 1492549678	 851083493	 275444.
21:07:59  326 327	 1492549679	 122714215	 271631.
21:07:59  327 328	 1492549679	 344947228	 222233.
21:07:59  328 329	 1492549679	 620277278	 275330.
21:07:59  329 330	 1492549679	 890960760	 270683.
21:08:00  330 331	 1492549680	 112753422	 221793.
21:08:00  331 332	 1492549680	 387602218	 274849.
21:08:00  332 333	 1492549680	 658405669	 270803.
21:08:00  333 334	 1492549680	 929004070	 270599.
21:08:01  334 335	 1492549681	 199942085	 270938.
21:08:01  335 336	 1492549681	 471455188	 271513.
21:08:01  336 337	 1492549681	 746943398	 275488.
21:08:02  337 338	 1492549682	 18664843	 271722.
21:08:02  338 339	 1492549682	 289971348	 271306.
21:08:02  339 340	 1492549682	 561498317	 271527.
21:08:02  340 341	 1492549682	 837330720	 275832.
21:08:03  341 342	 1492549683	 109053563	 271723.
21:08:03  342 343	 1492549683	 331423598	 222370.
21:08:03  343 344	 1492549683	 603035238	 271612.
21:08:03  344 345	 1492549683	 878857743	 275822.
21:08:04  345 346	 1492549684	 150108407	 271251.
21:08:04  346 347	 1492549684	 421220884	 271113.
21:08:04  347 348	 1492549684	 692570417	 271349.
21:08:04  348 349	 1492549684	 968004442	 275434.
21:08:05  349 350	 1492549685	 239182877	 271179.
21:08:05  350 351	 1492549685	 510023364	 270840.
21:08:05  351 352	 1492549685	 785380369	 275357.
21:08:06  352 353	 1492549686	 56782939	 271403.
21:08:06  353 354	 1492549686	 279144425	 222361.
21:08:06  354 355	 1492549686	 550597727	 271453.
21:08:06  355 356	 1492549686	 822227254	 271630.
21:08:07  356 357	 1492549687	 98176260	 275949.
21:08:07  357 358	 1492549687	 369710912	 271535.
21:08:07  358 359	 1492549687	 640907418	 271196.
21:08:07  359 360	 1492549687	 917173060	 276266.
21:08:08  360 361	 1492549688	 189024000	 271851.
21:08:08  361 362	 1492549688	 464962246	 275938.
21:08:08  362 363	 1492549688	 736429209	 271467.
21:08:09  363 364	 1492549689	 7390960	 270962.
21:08:09  364 365	 1492549689	 228645048	 221254.
21:08:09  365 366	 1492549689	 503589008	 274944.
21:08:09  366 367	 1492549689	 774714742	 271125.
21:08:10  367 368	 1492549690	 45890482	 271176.
21:08:10  368 369	 1492549690	 321372827	 275483.
21:08:10  369 370	 1492549690	 543813716	 222440.
21:08:10  370 371	 1492549690	 816067281	 272254.
21:08:11  371 372	 1492549691	 87546557	 271479.
21:08:11  372 373	 1492549691	 363504355	 275958.
21:08:11  373 374	 1492549691	 635807559	 272303.
21:08:11  374 375	 1492549691	 912241176	 276434.
21:08:12  375 376	 1492549692	 183502719	 271261.
21:08:12  376 377	 1492549692	 405938600	 222436.
21:08:12  377 378	 1492549692	 681003855	 275066.
21:08:12  378 379	 1492549692	 953333934	 272330.
21:08:13  379 380	 1492549693	 228986508	 275652.
21:08:13  380 381	 1492549693	 500926616	 271940.
21:08:13  381 382	 1492549693	 723803110	 222877.
21:08:13  382 383	 1492549693	 999898582	 276095.
21:08:14  383 384	 1492549694	 271949932	 272052.
21:08:14  384 385	 1492549694	 543459873	 271510.
21:08:14  385 386	 1492549694	 819123443	 275663.
21:08:15  386 387	 1492549695	 90880205	 271757.
21:08:15  387 388	 1492549695	 366231309	 275351.
21:08:15  388 389	 1492549695	 638194827	 271964.
21:08:15  389 390	 1492549695	 860879473	 222684.
21:08:16  390 391	 1492549696	 132728330	 271849.
21:08:16  391 392	 1492549696	 408162456	 275434.
21:08:16  392 393	 1492549696	 679509350	 271347.
21:08:16  393 394	 1492549696	 954684699	 275175.
21:08:17  394 395	 1492549697	 177410529	 222726.
21:08:17  395 396	 1492549697	 449112119	 271702.
21:08:17  396 397	 1492549697	 724684302	 275572.
21:08:17  397 398	 1492549698	 391012	 275707.
21:08:18  398 399	 1492549698	 271818109	 271427.
21:08:18  399 400	 1492549698	 547345712	 275527.
21:08:18  400 401	 1492549698	 769764253	 222419.
21:08:19  401 402	 1492549699	 41396007	 271632.
21:08:19  402 403	 1492549699	 312884973	 271489.
21:08:19  403 404	 1492549699	 588344799	 275459.
21:08:19  404 405	 1492549699	 859783986	 271440.
21:08:20  405 406	 1492549700	 136109477	 276325.
21:08:20  406 407	 1492549700	 358742386	 222633.
21:08:20  407 408	 1492549700	 630018298	 271276.
21:08:20  408 409	 1492549700	 905509820	 275492.
21:08:21  409 410	 1492549701	 177775448	 272265.
21:08:21  410 411	 1492549701	 449135741	 271360.
21:08:21  411 412	 1492549701	 725324098	 276189.
21:08:21  412 413	 1492549701	 996807111	 271483.
21:08:22  413 414	 1492549702	 219389221	 222582.
21:08:22  414 415	 1492549702	 495257704	 275868.
21:08:22  415 416	 1492549702	 766985358	 271728.
21:08:23  416 417	 1492549703	 38782767	 271797.
21:08:23  417 418	 1492549703	 314659248	 275877.
21:08:23  418 419	 1492549703	 586337244	 271678.
21:08:23  419 420	 1492549703	 809294828	 222958.
21:08:24  420 421	 1492549704	 84359428	 275064.
21:08:24  421 422	 1492549704	 355235191	 270876.
21:08:24  422 423	 1492549704	 626302907	 271068.
21:08:24  423 424	 1492549704	 893593683	 267290.
21:08:25  424 425	 1492549705	 169142181	 275549.
21:08:25  425 426	 1492549705	 440274023	 271132.
21:08:25  426 427	 1492549705	 662837264	 222563.
21:08:25  427 428	 1492549705	 938575240	 275738.
21:08:26  428 429	 1492549706	 213716200	 275141.
21:08:26  429 430	 1492549706	 485275227	 271559.
21:08:26  430 431	 1492549706	 761609121	 276334.
21:08:26  431 432	 1492549706	 983747216	 222138.
21:08:27  432 433	 1492549707	 254126425	 270379.
21:08:27  433 434	 1492549707	 528695789	 274569.
21:08:27  434 435	 1492549707	 746275453	 217580.
21:08:28  435 436	 1492549708	 20776861	 274502.
21:08:28  436 437	 1492549708	 292173677	 271396.
21:08:28  437 438	 1492549708	 568590400	 276417.
21:08:28  438 439	 1492549708	 839999717	 271409.
21:08:29  439 440	 1492549709	 62554668	 222555.
21:08:29  440 441	 1492549709	 337810300	 275256.
21:08:29  441 442	 1492549709	 609188942	 271379.
21:08:29  442 443	 1492549709	 884945058	 275756.
21:08:30  443 444	 1492549710	 107715351	 222770.
21:08:30  444 445	 1492549710	 379358279	 271643.
21:08:30  445 446	 1492549710	 651200113	 271842.
21:08:30  446 447	 1492549710	 926810101	 275610.
21:08:31  447 448	 1492549711	 198153628	 271343.
21:08:31  448 449	 1492549711	 420325778	 222172.
21:08:31  449 450	 1492549711	 695768638	 275443.
21:08:31  450 451	 1492549711	 966934732	 271166.
21:08:32  451 452	 1492549712	 189263520	 222329.
21:08:32  452 453	 1492549712	 464543866	 275281.
21:08:32  453 454	 1492549712	 736004853	 271461.
21:08:33  454 455	 1492549713	 11521235	 275516.
21:08:33  455 456	 1492549713	 233543741	 222022.
21:08:33  456 457	 1492549713	 504757607	 271214.
21:08:33  457 458	 1492549713	 779853970	 275097.
21:08:33  458 459	 1492549714	 2282171	 222428.
21:08:34  459 460	 1492549714	 273908524	 271626.
21:08:34  460 461	 1492549714	 545875644	 271967.
21:08:34  461 462	 1492549714	 821180950	 275306.
21:08:35  462 463	 1492549715	 43802240	 222621.
21:08:35  463 464	 1492549715	 319374323	 275572.
21:08:35  464 465	 1492549715	 591388864	 272015.
21:08:35  465 466	 1492549715	 867370120	 275981.
21:08:36  466 467	 1492549716	 139219854	 271849.
21:08:36  467 468	 1492549716	 362324576	 276033.
21:08:36  468 469	 1492549716	 637933091	 222681.
21:08:36  469 470	 1492549716	 909730079	 271797.
21:08:37  470 471	 1492549717	 185341044	 275611.
21:08:37  471 472	 1492549717	 456339509	 270998.
21:08:37  472 473	 1492549717	 731893988	 275555.
21:08:37  473 474	 1492549717	 949914679	 218020.
21:08:38  474 475	 1492549718	 225272683	 275358.
21:08:38  475 476	 1492549718	 496961663	 271689.
21:08:38  476 477	 1492549718	 776945575	 279984.
21:08:39  477 478	 1492549719	 48394660	 271449.
21:08:39  478 479	 1492549719	 324156757	 275762.
21:08:39  479 480	 1492549719	 547521940	 223366.
21:08:39  480 481	 1492549719	 831247977	 283726.
21:08:40  481 482	 1492549720	 103585989	 272338.
21:08:40  482 483	 1492549720	 379612091	 276026.
21:08:40  483 484	 1492549720	 651716385	 272104.
21:08:40  484 485	 1492549720	 873935419	 222219.
21:08:41  485 486	 1492549721	 149174102	 275239.
21:08:41  486 487	 1492549721	 424472434	 275298.
21:08:41  487 488	 1492549721	 696036833	 271565.
21:08:41  488 489	 1492549721	 919035235	 222998.
21:08:42  489 490	 1492549722	 195565274	 276530.
21:08:42  490 491	 1492549722	 467784660	 272219.
21:08:42  491 492	 1492549722	 743369040	 275585.
21:08:43  492 493	 1492549723	 15238534	 271869.
21:08:43  493 494	 1492549723	 290186694	 274948.
21:08:43  494 495	 1492549723	 509069089	 218883.
21:08:43  495 496	 1492549723	 784296276	 275227.
21:08:44  496 497	 1492549724	 55838823	 271543.
21:08:44  497 498	 1492549724	 331547025	 275708.
21:08:44  498 499	 1492549724	 603485908	 271939.
21:08:44  499 500	 1492549724	 825840943	 222355.
21:08:45  500 501	 1492549725	 97261826	 271421.
21:08:45  501 502	 1492549725	 372703975	 275442.
21:08:45  502 503	 1492549725	 644152186	 271448.
21:08:45  503 504	 1492549725	 916119652	 271967.
21:08:46  504 505	 1492549726	 191781878	 275663.
21:08:46  505 506	 1492549726	 463659334	 271877.
21:08:46  506 507	 1492549726	 739898748	 276240.
21:08:47  507 508	 1492549727	 11808084	 271909.
21:08:47  508 509	 1492549727	 234311968	 222504.
21:08:47  509 510	 1492549727	 508820220	 274508.
21:08:47  510 511	 1492549727	 780252429	 271432.
21:08:48  511 512	 1492549728	 51564845	 271313.
21:08:48  512 513	 1492549728	 322644090	 271079.
21:08:48  513 514	 1492549728	 593724406	 271080.
21:08:48  514 515	 1492549728	 868846102	 275122.
21:08:49  515 516	 1492549729	 90963326	 222117.
21:08:49  516 517	 1492549729	 362229952	 271267.
21:08:49  517 518	 1492549729	 633495920	 271266.
21:08:49  518 519	 1492549729	 905005842	 271510.
21:08:50  519 520	 1492549730	 180562469	 275556.
21:08:50  520 521	 1492549730	 452257856	 271696.
21:08:50  521 522	 1492549730	 723839192	 271581.
21:08:50  522 523	 1492549730	 995704041	 271865.
21:08:51  523 524	 1492549731	 271103255	 275399.
21:08:51  524 525	 1492549731	 542381963	 271279.
21:08:51  525 526	 1492549731	 813926951	 271545.
21:08:52  526 527	 1492549732	 85516163	 271589.
21:08:52  527 528	 1492549732	 360305444	 274789.
21:08:52  528 529	 1492549732	 631775354	 271470.
21:08:52  529 530	 1492549732	 902633831	 270859.
21:08:53  530 531	 1492549733	 124804459	 222170.
21:08:53  531 532	 1492549733	 396163707	 271359.
21:08:53  532 533	 1492549733	 667144191	 270981.
21:08:53  533 534	 1492549733	 943160677	 276016.
21:08:54  534 535	 1492549734	 214938808	 271779.
21:08:54  535 536	 1492549734	 486367843	 271429.
21:08:54  536 537	 1492549734	 757826886	 271459.
21:08:55  537 538	 1492549735	 33338102	 275511.
21:08:55  538 539	 1492549735	 305198463	 271860.
21:08:55  539 540	 1492549735	 577069845	 271872.
21:08:55  540 541	 1492549735	 902278322	 325208.
21:08:56  541 542	 1492549736	 124956015	 222678.
21:08:56  542 543	 1492549736	 401292341	 276336.
21:08:56  543 544	 1492549736	 673404098	 272112.
21:08:56  544 545	 1492549736	 945457994	 272054.
21:08:57  545 546	 1492549737	 221585265	 276127.
21:08:57  546 547	 1492549737	 493463622	 271878.
21:08:57  547 548	 1492549737	 765378331	 271915.
21:08:58  548 549	 1492549738	 41373712	 275995.
21:08:58  549 550	 1492549738	 313022501	 271649.
21:08:58  550 551	 1492549738	 584595267	 271573.
21:08:58  551 552	 1492549738	 860951366	 276356.
21:08:59  552 553	 1492549739	 132982862	 272032.
21:08:59  553 554	 1492549739	 405435029	 272452.
21:08:59  554 555	 1492549739	 663831533	 258396.
21:08:59  555 556	 1492549739	 938810224	 274979.
21:09:00  556 557	 1492549740	 209379909	 270570.
21:09:00  557 558	 1492549740	 427758953	 218379.
21:09:00  558 559	 1492549740	 703154064	 275395.
21:09:00  559 560	 1492549740	 974528665	 271374.
21:09:01  560 561	 1492549741	 245282730	 270754.
21:09:01  561 562	 1492549741	 516213403	 270931.
21:09:01  562 563	 1492549741	 791565910	 275353.
21:09:02  563 564	 1492549742	 62742326	 271176.
21:09:02  564 565	 1492549742	 333685820	 270944.
21:09:02  565 566	 1492549742	 555592493	 221906.
21:09:02  566 567	 1492549742	 826216073	 270624.
21:09:03  567 568	 1492549743	 101731426	 275515.
21:09:03  568 569	 1492549743	 372647009	 270916.
21:09:03  569 570	 1492549743	 643434578	 270787.
21:09:03  570 571	 1492549743	 918927625	 275493.
21:09:04  571 572	 1492549744	 137434028	 218507.
21:09:04  572 573	 1492549744	 412522434	 275088.
21:09:04  573 574	 1492549744	 684083144	 271561.
21:09:04  574 575	 1492549744	 955595562	 271512.
21:09:05  575 576	 1492549745	 230907895	 275313.
21:09:05  576 577	 1492549745	 502362629	 271454.
21:09:05  577 578	 1492549745	 773932754	 271570.
21:09:06  578 579	 1492549746	 50524384	 276592.
21:09:06  579 580	 1492549746	 322449751	 271925.
21:09:06  580 581	 1492549746	 545004343	 222555.
21:09:06  581 582	 1492549746	 820445537	 275441.
21:09:07  582 583	 1492549747	 92017847	 271573.
21:09:07  583 584	 1492549747	 368254599	 276236.
21:09:07  584 585	 1492549747	 644253659	 275999.
21:09:07  585 586	 1492549747	 916445623	 272192.
21:09:08  586 587	 1492549748	 188905562	 272460.
21:09:08  587 588	 1492549748	 415755559	 226850.
21:09:08  588 589	 1492549748	 686951944	 271197.
21:09:08  589 590	 1492549748	 958537289	 271585.
21:09:09  590 591	 1492549749	 184933596	 226396.
21:09:09  591 592	 1492549749	 456203906	 271271.
21:09:09  592 593	 1492549749	 732132187	 275928.
21:09:10  593 594	 1492549750	 3193992	 271062.
21:09:10  594 595	 1492549750	 278819854	 275626.
21:09:10  595 596	 1492549750	 542470619	 263650.
21:09:10  596 597	 1492549750	 765020033	 222550.
21:09:11  597 598	 1492549751	 36738902	 271719.
21:09:11  598 599	 1492549751	 312881987	 276143.
21:09:11  599 600	 1492549751	 584778867	 271897.
21:09:11  600 601	 1492549751	 860953352	 276174.
21:09:12  601 602	 1492549752	 133100294	 272147.
21:09:12  602 603	 1492549752	 409149846	 276050.
21:09:12  603 604	 1492549752	 680239473	 271089.
21:09:12  604 605	 1492549752	 902887751	 222648.
21:09:13  605 606	 1492549753	 178929530	 276042.
21:09:13  606 607	 1492549753	 454281004	 275352.
21:09:13  607 608	 1492549753	 725768971	 271488.
21:09:13  608 609	 1492549754	 900326	 275131.
21:09:14  609 610	 1492549754	 223373412	 222473.
21:09:14  610 611	 1492549754	 494926984	 271554.
21:09:14  611 612	 1492549754	 770888262	 275961.
21:09:15  612 613	 1492549755	 42300509	 271412.
21:09:15  613 614	 1492549755	 314030745	 271730.
21:09:15  614 615	 1492549755	 589622543	 275592.
21:09:15  615 616	 1492549755	 812164366	 222542.
21:09:16  616 617	 1492549756	 83372542	 271208.
21:09:16  617 618	 1492549756	 358434424	 275062.
21:09:16  618 619	 1492549756	 629682217	 271248.
21:09:16  619 620	 1492549756	 905500186	 275818.
21:09:17  620 621	 1492549757	 177933421	 272433.
21:09:17  621 622	 1492549757	 454270261	 276337.
21:09:17  622 623	 1492549757	 676884839	 222614.
21:09:17  623 624	 1492549757	 948612028	 271728.
21:09:18  624 625	 1492549758	 223893857	 275282.
21:09:18  625 626	 1492549758	 495754126	 271860.
21:09:18  626 627	 1492549758	 766923914	 271170.
21:09:19  627 628	 1492549759	 43129084	 276205.
21:09:19  628 629	 1492549759	 266007499	 222878.
21:09:19  629 630	 1492549759	 537583534	 271576.
21:09:19  630 631	 1492549759	 813544606	 275961.
21:09:20  631 632	 1492549760	 84800854	 271257.
21:09:20  632 633	 1492549760	 360549198	 275748.
21:09:20  633 634	 1492549760	 632213696	 271664.
21:09:20  634 635	 1492549760	 855200425	 222987.
21:09:21  635 636	 1492549761	 126850003	 271650.
21:09:21  636 637	 1492549761	 402748003	 275898.
21:09:21  637 638	 1492549761	 674225756	 271477.
21:09:21  638 639	 1492549761	 949950210	 275725.
21:09:22  639 640	 1492549762	 172230182	 222280.
21:09:22  640 641	 1492549762	 447187438	 274957.
21:09:22  641 642	 1492549762	 718771856	 271585.
21:09:22  642 643	 1492549762	 940693178	 221921.
21:09:23  643 644	 1492549763	 215821805	 275128.
21:09:23  644 645	 1492549763	 438454767	 222633.
21:09:23  645 646	 1492549763	 710112337	 271658.
21:09:23  646 647	 1492549763	 985883694	 275771.
21:09:24  647 648	 1492549764	 257344241	 271461.
21:09:24  648 649	 1492549764	 533098446	 275754.
21:09:24  649 650	 1492549764	 755124890	 222027.
21:09:25  650 651	 1492549765	 26869536	 271744.
21:09:25  651 652	 1492549765	 302523362	 275654.
21:09:25  652 653	 1492549765	 574335886	 271813.
21:09:25  653 654	 1492549765	 800557821	 226221.
21:09:26  654 655	 1492549766	 72165986	 271609.
21:09:26  655 656	 1492549766	 347198866	 275033.
21:09:26  656 657	 1492549766	 569602794	 222404.
21:09:26  657 658	 1492549766	 841818782	 272215.
21:09:27  658 659	 1492549767	 117598139	 275780.
21:09:27  659 660	 1492549767	 389723045	 272125.
21:09:27  660 661	 1492549767	 665427471	 275704.
21:09:27  661 662	 1492549767	 888071225	 222644.
21:09:28  662 663	 1492549768	 159833628	 271762.
21:09:28  663 664	 1492549768	 435485532	 275652.
21:09:28  664 665	 1492549768	 706863604	 271378.
21:09:28  665 666	 1492549768	 933466216	 226603.
21:09:29  666 667	 1492549769	 204344084	 270878.
21:09:29  667 668	 1492549769	 476400704	 272056.
21:09:29  668 669	 1492549769	 751956138	 275556.
21:09:29  669 670	 1492549769	 974327306	 222371.
21:09:30  670 671	 1492549770	 245442468	 271115.
21:09:30  671 672	 1492549770	 521387961	 275946.
21:09:30  672 673	 1492549770	 796845432	 275457.
21:09:31  673 674	 1492549771	 19383729	 222538.
21:09:31  674 675	 1492549771	 290704659	 271321.
21:09:31  675 676	 1492549771	 565962491	 275258.
21:09:31  676 677	 1492549771	 788381065	 222419.
21:09:32  677 678	 1492549772	 59778738	 271397.
21:09:32  678 679	 1492549772	 335573626	 275795.
21:09:32  679 680	 1492549772	 606603613	 271030.
21:09:32  680 681	 1492549772	 829100518	 222497.
21:09:33  681 682	 1492549773	 104682576	 275582.
21:09:33  682 683	 1492549773	 380098984	 275417.
21:09:33  683 684	 1492549773	 598761887	 218663.
21:09:33  684 685	 1492549773	 873849397	 275087.
21:09:34  685 686	 1492549774	 145371538	 271522.
21:09:34  686 687	 1492549774	 420874608	 275503.
21:09:34  687 688	 1492549774	 643570514	 222696.
21:09:34  688 689	 1492549774	 918835442	 275265.
21:09:35  689 690	 1492549775	 190291965	 271457.
21:09:35  690 691	 1492549775	 465764949	 275473.
21:09:35  691 692	 1492549775	 687749331	 221984.
21:09:35  692 693	 1492549775	 959085517	 271336.
21:09:36  693 694	 1492549776	 234327916	 275243.
21:09:36  694 695	 1492549776	 456864007	 222536.
21:09:36  695 696	 1492549776	 732633380	 275769.
21:09:37  696 697	 1492549777	 4292146	 271659.
21:09:37  697 698	 1492549777	 226739530	 222447.
21:09:37  698 699	 1492549777	 498648552	 271909.
21:09:37  699 700	 1492549777	 774629952	 275982.
21:09:38  700 701	 1492549778	 50127028	 275497.
21:09:38  701 702	 1492549778	 272937839	 222811.
21:09:38  702 703	 1492549778	 544463145	 271525.
21:09:38  703 704	 1492549778	 820254162	 275791.
21:09:39  704 705	 1492549779	 91569563	 271315.
21:09:39  705 706	 1492549779	 314234780	 222665.
21:09:39  706 707	 1492549779	 589318375	 275084.
21:09:39  707 708	 1492549779	 860108974	 270791.
21:09:40  708 709	 1492549780	 82370716	 222261.
21:09:40  709 710	 1492549780	 353920333	 271550.
21:09:40  710 711	 1492549780	 630750087	 276830.
21:09:40  711 712	 1492549780	 903456063	 272706.
21:09:41  712 713	 1492549781	 180404339	 276948.
21:09:41  713 714	 1492549781	 452919525	 272515.
21:09:41  714 715	 1492549781	 729346997	 276428.
21:09:42  715 716	 1492549782	 5626924	 276280.
21:09:42  716 717	 1492549782	 277823967	 272197.
21:09:42  717 718	 1492549782	 554033887	 276210.
21:09:42  718 719	 1492549782	 826181811	 272147.
21:09:43  719 720	 1492549783	 98077941	 271897.
21:09:43  720 721	 1492549783	 320939731	 222861.
21:09:43  721 722	 1492549783	 596077348	 275138.
21:09:43  722 723	 1492549783	 867565546	 271488.
21:09:44  723 724	 1492549784	 143252470	 275687.
21:09:44  724 725	 1492549784	 414688751	 271436.
21:09:44  725 726	 1492549784	 637155089	 222467.
21:09:44  726 727	 1492549784	 908445179	 271290.
21:09:45  727 728	 1492549785	 183589322	 275144.
21:09:45  728 729	 1492549785	 455223508	 271634.
21:09:45  729 730	 1492549785	 731156947	 275934.
21:09:46  730 731	 1492549786	 3081565	 271924.
21:09:46  731 732	 1492549786	 274128087	 271047.
21:09:46  732 733	 1492549786	 549942363	 275814.
21:09:46  733 734	 1492549786	 772707253	 222765.
21:09:47  734 735	 1492549787	 44174948	 271468.
21:09:47  735 736	 1492549787	 315616010	 271441.
21:09:47  736 737	 1492549787	 591526660	 275910.
21:09:47  737 738	 1492549787	 862880627	 271354.
21:09:48  738 739	 1492549788	 85362157	 222482.
21:09:48  739 740	 1492549788	 356777696	 271415.
21:09:48  740 741	 1492549788	 632056113	 275279.
21:09:48  741 742	 1492549788	 903513385	 271457.
21:09:49  742 743	 1492549789	 175015098	 271502.
21:09:49  743 744	 1492549789	 450172739	 275157.
21:09:49  744 745	 1492549789	 721669477	 271497.
21:09:49  745 746	 1492549789	 944162862	 222494.
21:09:50  746 747	 1492549790	 219720356	 275557.
21:09:50  747 748	 1492549790	 491121629	 271401.
21:09:50  748 749	 1492549790	 762352475	 271231.
21:09:51  749 750	 1492549791	 32826180	 270474.
21:09:51  750 751	 1492549791	 255063863	 222238.
21:09:51  751 752	 1492549791	 529983165	 274919.
21:09:51  752 753	 1492549791	 801110270	 271127.
21:09:52  753 754	 1492549792	 72372687	 271262.
21:09:52  754 755	 1492549792	 299287655	 226915.
21:09:52  755 756	 1492549792	 571077713	 271790.
21:09:52  756 757	 1492549792	 842200986	 271124.
21:09:53  757 758	 1492549793	 117385686	 275184.
21:09:53  758 759	 1492549793	 339989609	 222604.
21:09:53  759 760	 1492549793	 611487465	 271498.
21:09:53  760 761	 1492549793	 887261772	 275774.
21:09:54  761 762	 1492549794	 159682756	 272421.
21:09:54  762 763	 1492549794	 434916442	 275234.
21:09:54  763 764	 1492549794	 707099788	 272183.
21:09:54  764 765	 1492549794	 982503621	 275404.
21:09:55  765 766	 1492549795	 253095326	 270592.
21:09:55  766 767	 1492549795	 524130560	 271035.
21:09:55  767 768	 1492549795	 746797815	 222668.
21:09:56  768 769	 1492549796	 21660093	 274862.
21:09:56  769 770	 1492549796	 293089145	 271429.
21:09:56  770 771	 1492549796	 563621146	 270532.
21:09:56  771 772	 1492549796	 785344159	 221723.
21:09:57  772 773	 1492549797	 55912721	 270568.
21:09:57  773 774	 1492549797	 326072631	 270160.
21:09:57  774 775	 1492549797	 548708378	 222636.
21:09:57  775 776	 1492549797	 824000506	 275292.
21:09:58  776 777	 1492549798	 99580149	 275580.
21:09:58  777 778	 1492549798	 370683428	 271103.
21:09:58  778 779	 1492549798	 593360497	 222677.
21:09:58  779 780	 1492549798	 864853728	 271493.
21:09:59  780 781	 1492549799	 139817361	 274964.
21:09:59  781 782	 1492549799	 362342437	 222525.
21:09:59  782 783	 1492549799	 633663861	 271322.
21:09:59  783 784	 1492549799	 908865163	 275201.
21:10:00  784 785	 1492549800	 180942224	 272077.
21:10:00  785 786	 1492549800	 457412690	 276470.
21:10:00  786 787	 1492549800	 729316790	 271904.
21:10:00  787 788	 1492549800	 951516237	 222200.
21:10:01  788 789	 1492549801	 222311640	 270795.
21:10:01  789 790	 1492549801	 493483466	 271172.
21:10:01  790 791	 1492549801	 764417947	 270935.
21:10:02  791 792	 1492549802	 40108368	 275690.
21:10:02  792 793	 1492549802	 311274970	 271167.
21:10:02  793 794	 1492549802	 582454701	 271179.
21:10:02  794 795	 1492549802	 857352064	 274898.
21:10:03  795 796	 1492549803	 75115932	 217764.
21:10:03  796 797	 1492549803	 350298101	 275182.
21:10:03  797 798	 1492549803	 621261165	 270963.
21:10:03  798 799	 1492549803	 892679999	 271419.
21:10:04  799 800	 1492549804	 164081634	 271401.
21:10:04  800 801	 1492549804	 439423744	 275342.
21:10:04  801 802	 1492549804	 710858995	 271436.
21:10:04  802 803	 1492549804	 982345483	 271486.
21:10:05  803 804	 1492549805	 253622542	 271277.
21:10:05  804 805	 1492549805	 528667612	 275045.
21:10:05  805 806	 1492549805	 800108613	 271441.
21:10:06  806 807	 1492549806	 71403683	 271295.
21:10:06  807 808	 1492549806	 293612961	 222210.
21:10:06  808 809	 1492549806	 564712233	 271099.
21:10:06  809 810	 1492549806	 839856186	 275144.
21:10:07  810 811	 1492549807	 110953720	 271097.
21:10:07  811 812	 1492549807	 386642832	 275690.
21:10:07  812 813	 1492549807	 658234937	 271592.
21:10:07  813 814	 1492549807	 934031115	 275796.
21:10:08  814 815	 1492549808	 205326308	 271295.
21:10:08  815 816	 1492549808	 428027895	 222702.
21:10:08  816 817	 1492549808	 698887848	 270859.
21:10:08  817 818	 1492549808	 974575870	 275689.
21:10:09  818 819	 1492549809	 196506768	 221930.
21:10:09  819 820	 1492549809	 468058780	 271552.
21:10:09  820 821	 1492549809	 743708691	 275650.
21:10:09  821 822	 1492549809	 966039658	 222331.
21:10:10  822 823	 1492549810	 237608047	 271569.
21:10:10  823 824	 1492549810	 514048302	 276440.
21:10:10  824 825	 1492549810	 786625598	 272585.
21:10:11  825 826	 1492549811	 62827400	 276194.
21:10:11  826 827	 1492549811	 334618467	 271791.
21:10:11  827 828	 1492549811	 610179529	 275561.
21:10:11  828 829	 1492549811	 880933104	 270754.
21:10:12  829 830	 1492549812	 151703095	 270770.
21:10:12  830 831	 1492549812	 373586968	 221884.
21:10:12  831 832	 1492549812	 644408438	 270821.
21:10:12  832 833	 1492549812	 915552051	 271155.
21:10:13  833 834	 1492549813	 190271699	 274708.
21:10:13  834 835	 1492549813	 412322730	 222051.
21:10:13  835 836	 1492549813	 683411525	 271089.
21:10:13  836 837	 1492549813	 958463478	 275052.
21:10:14  837 838	 1492549814	 229369390	 270906.
21:10:14  838 839	 1492549814	 500239084	 270870.
21:10:14  839 840	 1492549814	 721921843	 221683.
21:10:14  840 841	 1492549814	 992677367	 270755.
21:10:15  841 842	 1492549815	 263473463	 270796.
21:10:15  842 843	 1492549815	 538765847	 275293.
21:10:15  843 844	 1492549815	 809138581	 270372.
21:10:16  844 845	 1492549816	 30363475	 221225.
21:10:16  845 846	 1492549816	 301083618	 270720.
21:10:16  846 847	 1492549816	 572502136	 271419.
21:10:16  847 848	 1492549816	 847036281	 274534.
21:10:17  848 849	 1492549817	 69032349	 221996.
21:10:17  849 850	 1492549817	 339282609	 270250.
21:10:17  850 851	 1492549817	 610654545	 271372.
21:10:17  851 852	 1492549817	 885689136	 275035.
21:10:18  852 853	 1492549818	 156648451	 270959.
21:10:18  853 854	 1492549818	 378584165	 221936.
21:10:18  854 855	 1492549818	 649547318	 270963.
21:10:18  855 856	 1492549818	 920977656	 271430.
21:10:19  856 857	 1492549819	 196926868	 275950.
21:10:19  857 858	 1492549819	 467918331	 270991.
21:10:19  858 859	 1492549819	 738295207	 270377.
21:10:19  859 860	 1492549819	 959787484	 221492.
21:10:20  860 861	 1492549820	 234569705	 274783.
21:10:20  861 862	 1492549820	 504819150	 270249.
21:10:20  862 863	 1492549820	 722785861	 217967.
21:10:20  863 864	 1492549820	 997142225	 274356.
21:10:21  864 865	 1492549821	 267407113	 270265.
21:10:21  865 866	 1492549821	 489549830	 222142.
21:10:21  866 867	 1492549821	 760494473	 270945.
21:10:22  867 868	 1492549822	 31889038	 271395.
21:10:22  868 869	 1492549822	 306712159	 274823.
21:10:22  869 870	 1492549822	 577401870	 270690.
21:10:22  870 871	 1492549822	 848131978	 270730.
21:10:23  871 872	 1492549823	 70318027	 222186.
21:10:23  872 873	 1492549823	 341609316	 271291.
21:10:23  873 874	 1492549823	 616463767	 274855.
21:10:23  874 875	 1492549823	 887356503	 270892.
21:10:24  875 876	 1492549824	 109053712	 221697.
21:10:24  876 877	 1492549824	 379307734	 270254.
21:10:24  877 878	 1492549824	 650850095	 271543.
21:10:24  878 879	 1492549824	 926374442	 275524.
21:10:25  879 880	 1492549825	 196984301	 270610.
21:10:25  880 881	 1492549825	 419381133	 222397.
21:10:25  881 882	 1492549825	 689961559	 270580.
21:10:25  882 883	 1492549825	 960619723	 270658.
21:10:26  883 884	 1492549826	 235884449	 275265.
21:10:26  884 885	 1492549826	 507248475	 271364.
21:10:26  885 886	 1492549826	 778764349	 271516.
21:10:26  886 887	 1492549826	 999899114	 221135.
21:10:27  887 888	 1492549827	 275017163	 275118.
21:10:27  888 889	 1492549827	 545279582	 270262.
21:10:27  889 890	 1492549827	 766879936	 221601.
21:10:28  890 891	 1492549828	 37833451	 270953.
21:10:28  891 892	 1492549828	 308903837	 271071.
21:10:28  892 893	 1492549828	 583681190	 274777.
21:10:28  893 894	 1492549828	 800863375	 217182.
21:10:29  894 895	 1492549829	 75401011	 274538.
21:10:29  895 896	 1492549829	 346343310	 270942.
21:10:29  896 897	 1492549829	 621404792	 275061.
21:10:29  897 898	 1492549829	 839154252	 217750.
21:10:30  898 899	 1492549830	 114238556	 275084.
21:10:30  899 900	 1492549830	 385016618	 270778.
21:10:30  900 901	 1492549830	 655345413	 270329.
21:10:30  901 902	 1492549830	 877239273	 221894.
21:10:31  902 903	 1492549831	 147988391	 270749.
21:10:31  903 904	 1492549831	 422716775	 274728.
21:10:31  904 905	 1492549831	 693281147	 270565.
21:10:31  905 906	 1492549831	 915106234	 221825.
21:10:32  906 907	 1492549832	 185588283	 270482.
21:10:32  907 908	 1492549832	 456331992	 270744.
21:10:32  908 909	 1492549832	 731541838	 275209.
21:10:32  909 910	 1492549832	 953666220	 222125.
21:10:33  910 911	 1492549833	 224460316	 270794.
21:10:33  911 912	 1492549833	 494996306	 270536.
21:10:33  912 913	 1492549833	 770124036	 275128.
21:10:33  913 914	 1492549833	 992087651	 221963.
21:10:34  914 915	 1492549834	 262879316	 270792.
21:10:34  915 916	 1492549834	 533689255	 270810.
21:10:34  916 917	 1492549834	 804750834	 271062.
21:10:35  917 918	 1492549835	 75498743	 270747.
21:10:35  918 919	 1492549835	 297085606	 221587.
21:10:35  919 920	 1492549835	 571950646	 274865.
21:10:35  920 921	 1492549835	 842588375	 270638.
21:10:36  921 922	 1492549836	 114524433	 271936.
21:10:36  922 923	 1492549836	 336509300	 221985.
21:10:36  923 924	 1492549836	 612313963	 275805.
21:10:36  924 925	 1492549836	 883154166	 270840.
21:10:37  925 926	 1492549837	 154664886	 271511.
21:10:37  926 927	 1492549837	 381312356	 226647.
21:10:37  927 928	 1492549837	 652248427	 270936.
21:10:37  928 929	 1492549837	 922862172	 270614.
21:10:38  929 930	 1492549838	 145563340	 222701.
21:10:38  930 931	 1492549838	 420708955	 275146.
21:10:38  931 932	 1492549838	 692992698	 272283.
21:10:38  932 933	 1492549838	 968653105	 275661.
21:10:39  933 934	 1492549839	 240017775	 271364.
21:10:39  934 935	 1492549839	 462502287	 222485.
21:10:39  935 936	 1492549839	 737688943	 275187.
21:10:40  936 937	 1492549840	 8891485	 271202.
21:10:40  937 938	 1492549840	 280288334	 271397.
21:10:40  938 939	 1492549840	 502506561	 222218.
21:10:40  939 940	 1492549840	 778076999	 275571.
21:10:41  940 941	 1492549841	 49838441	 271761.
21:10:41  941 942	 1492549841	 325029530	 275191.
21:10:41  942 943	 1492549841	 547141383	 222112.
21:10:41  943 944	 1492549841	 819236486	 272095.
21:10:42  944 945	 1492549842	 95348389	 276112.
21:10:42  945 946	 1492549842	 366322533	 270974.
21:10:42  946 947	 1492549842	 588541255	 222219.
21:10:42  947 948	 1492549842	 864302243	 275761.
21:10:43  948 949	 1492549843	 135233006	 270931.
21:10:43  949 950	 1492549843	 357498866	 222265.
21:10:43  950 951	 1492549843	 632546634	 275048.
21:10:43  951 952	 1492549843	 904200505	 271654.
21:10:44  952 953	 1492549844	 179390424	 275190.
21:10:44  953 954	 1492549844	 401562611	 222172.
21:10:44  954 955	 1492549844	 673263295	 271701.
21:10:44  955 956	 1492549844	 949048616	 275785.
21:10:45  956 957	 1492549845	 171098086	 222050.
21:10:45  957 958	 1492549845	 442469493	 271371.
21:10:45  958 959	 1492549845	 717923492	 275454.
21:10:45  959 960	 1492549845	 989652182	 271729.
21:10:46  960 961	 1492549846	 216280988	 226629.
21:10:46  961 962	 1492549846	 488066597	 271785.
21:10:46  962 963	 1492549846	 763195420	 275129.
21:10:47  963 964	 1492549847	 34761951	 271567.
21:10:47  964 965	 1492549847	 257131401	 222369.
21:10:47  965 966	 1492549847	 528345415	 271214.
21:10:47  966 967	 1492549847	 803438160	 275093.
21:10:48  967 968	 1492549848	 25861729	 222423.
21:10:48  968 969	 1492549848	 296903586	 271042.
21:10:48  969 970	 1492549848	 572387256	 275484.
21:10:48  970 971	 1492549848	 843992933	 271606.
21:10:49  971 972	 1492549849	 119941063	 275948.
21:10:49  972 973	 1492549849	 342240293	 222299.
21:10:49  973 974	 1492549849	 613545811	 271305.
21:10:49  974 975	 1492549849	 885084033	 271539.
21:10:50  975 976	 1492549850	 159918110	 274834.
21:10:50  976 977	 1492549850	 430834720	 270916.
21:10:50  977 978	 1492549850	 652804282	 221970.
21:10:50  978 979	 1492549850	 923165515	 270361.
21:10:51  979 980	 1492549851	 197759015	 274594.
21:10:51  980 981	 1492549851	 420004062	 222245.
21:10:51  981 982	 1492549851	 691222070	 271218.
21:10:51  982 983	 1492549851	 966805984	 275584.
21:10:52  983 984	 1492549852	 237817094	 271011.
21:10:52  984 985	 1492549852	 459990015	 222173.
21:10:52  985 986	 1492549852	 734969718	 274979.
21:10:53  986 987	 1492549853	 6379240	 271410.
21:10:53  987 988	 1492549853	 228800041	 222421.
21:10:53  988 989	 1492549853	 504523210	 275723.
21:10:53  989 990	 1492549853	 775590736	 271067.
21:10:53  990 991	 1492549853	 997757560	 222167.
21:10:54  991 992	 1492549854	 272834256	 275077.
21:10:54  992 993	 1492549854	 544403874	 271570.
21:10:54  993 994	 1492549854	 819986187	 275582.
21:10:55  994 995	 1492549855	 42152809	 222166.
21:10:55  995 996	 1492549855	 312976856	 270824.
21:10:55  996 997	 1492549855	 588101162	 275125.
21:10:55  997 998	 1492549855	 810382056	 222281.
21:10:56  998 999	 1492549856	 81755229	 271373.
21:10:56  999 1000	 1492549856	 356811932	 275057.
21:10:56 1000 1001	 1492549856	 578938678	 222126.
21:10:56 1001 1002	 1492549856	 850341244	 271403.
21:10:57 1002 1003	 1492549857	 125656076	 275315.
21:10:57 1003 1004	 1492549857	 348175607	 222519.
21:10:57 1004 1005	 1492549857	 623477133	 275302.
21:10:57 1005 1006	 1492549857	 894903276	 271426.
21:10:58 1006 1007	 1492549858	 117351538	 222448.
21:10:58 1007 1008	 1492549858	 392371935	 275021.
21:10:58 1008 1009	 1492549858	 663983797	 271611.
21:10:58 1009 1010	 1492549858	 886071983	 222089.
21:10:59 1010 1011	 1492549859	 161842673	 275770.
21:10:59 1011 1012	 1492549859	 433998420	 272156.
21:10:59 1012 1013	 1492549859	 709127870	 275130.
21:10:59 1013 1014	 1492549859	 980056141	 270928.
21:11:00 1014 1015	 1492549860	 203256230	 223200.
21:11:00 1015 1016	 1492549860	 528166469	 324910.
21:11:00 1016 1017	 1492549860	 746320422	 218154.
21:11:01 1017 1018	 1492549861	 20810493	 274490.
21:11:01 1018 1019	 1492549861	 292213679	 271403.
21:11:01 1019 1020	 1492549861	 563444437	 271231.
21:11:01 1020 1021	 1492549861	 838530736	 275086.
21:11:02 1021 1022	 1492549862	 109730799	 271201.
21:11:02 1022 1023	 1492549862	 381513990	 271783.
21:11:02 1023 1024	 1492549862	 657336417	 275822.
21:11:02 1024 1025	 1492549862	 929092671	 271756.
21:11:03 1025 1026	 1492549863	 200764905	 271673.
21:11:03 1026 1027	 1492549863	 476756672	 275991.
21:11:03 1027 1028	 1492549863	 748950775	 272194.
21:11:04 1028 1029	 1492549864	 20909954	 271960.
21:11:04 1029 1030	 1492549864	 296805392	 275895.
21:11:04 1030 1031	 1492549864	 567795743	 270990.
21:11:04 1031 1032	 1492549864	 790361839	 222567.
21:11:05 1032 1033	 1492549865	 61970230	 271608.
21:11:05 1033 1034	 1492549865	 337679338	 275709.
21:11:05 1034 1035	 1492549865	 609035546	 271356.
21:11:05 1035 1036	 1492549865	 880464846	 271430.
21:11:06 1036 1037	 1492549866	 152585104	 272120.
21:11:06 1037 1038	 1492549866	 427687746	 275102.
21:11:06 1038 1039	 1492549866	 698437976	 270751.
21:11:06 1039 1040	 1492549866	 969284250	 270846.
21:11:07 1040 1041	 1492549867	 244212810	 274929.
21:11:07 1041 1042	 1492549867	 462700909	 218488.
21:11:07 1042 1043	 1492549867	 737748499	 275047.
21:11:08 1043 1044	 1492549868	 9006930	 271259.
21:11:08 1044 1045	 1492549868	 285188676	 276181.
21:11:08 1045 1046	 1492549868	 557182557	 271994.
21:11:08 1046 1047	 1492549868	 828352702	 271170.
21:11:09 1047 1048	 1492549869	 103582028	 275230.
21:11:09 1048 1049	 1492549869	 324789484	 221207.
21:11:09 1049 1050	 1492549869	 595679093	 270890.
21:11:09 1050 1051	 1492549869	 866105779	 270426.
21:11:10 1051 1052	 1492549870	 137311022	 271206.
21:11:10 1052 1053	 1492549870	 413441818	 276131.
21:11:10 1053 1054	 1492549870	 685918766	 272476.
21:11:10 1054 1055	 1492549870	 962595472	 276677.
21:11:11 1055 1056	 1492549871	 235120521	 272525.
21:11:11 1056 1057	 1492549871	 512025308	 276905.
21:11:11 1057 1058	 1492549871	 784946851	 272922.
21:11:12 1058 1059	 1492549872	 61562727	 276615.
21:11:12 1059 1060	 1492549872	 333578314	 272016.
21:11:12 1060 1061	 1492549872	 609893085	 276315.
21:11:12 1061 1062	 1492549872	 885952288	 276059.
21:11:13 1062 1063	 1492549873	 158303716	 272351.
21:11:13 1063 1064	 1492549873	 381157262	 222854.
21:11:13 1064 1065	 1492549873	 652576125	 271419.
21:11:13 1065 1066	 1492549873	 927703880	 275128.
21:11:14 1066 1067	 1492549874	 198916230	 271212.
21:11:14 1067 1068	 1492549874	 420597519	 221681.
21:11:14 1068 1069	 1492549874	 692118340	 271521.
21:11:14 1069 1070	 1492549874	 967929941	 275812.
21:11:15 1070 1071	 1492549875	 240053664	 272123.
21:11:15 1071 1072	 1492549875	 515849586	 275796.
21:11:15 1072 1073	 1492549875	 787357265	 271508.
21:11:16 1073 1074	 1492549876	 9909264	 222552.
21:11:16 1074 1075	 1492549876	 281280221	 271371.
21:11:16 1075 1076	 1492549876	 556452524	 275172.
21:11:16 1076 1077	 1492549876	 778201516	 221749.
21:11:17 1077 1078	 1492549877	 53407927	 275207.
21:11:17 1078 1079	 1492549877	 324665677	 271257.
21:11:17 1079 1080	 1492549877	 546758145	 222093.
21:11:17 1080 1081	 1492549877	 822021523	 275263.
21:11:18 1081 1082	 1492549878	 93522761	 271501.
21:11:18 1082 1083	 1492549878	 315753444	 222231.
21:11:18 1083 1084	 1492549878	 590969255	 275216.
21:11:18 1084 1085	 1492549878	 862605431	 271636.
21:11:19 1085 1086	 1492549879	 84892290	 222287.
21:11:19 1086 1087	 1492549879	 360398410	 275506.
21:11:19 1087 1088	 1492549879	 632538073	 272140.
21:11:19 1088 1089	 1492549879	 908363550	 275825.
21:11:20 1089 1090	 1492549880	 131007743	 222644.
21:11:20 1090 1091	 1492549880	 402750798	 271744.
21:11:20 1091 1092	 1492549880	 677678158	 274927.
21:11:20 1092 1093	 1492549880	 949159869	 271482.
21:11:21 1093 1094	 1492549881	 225355621	 276195.
21:11:21 1094 1095	 1492549881	 447923250	 222568.
21:11:21 1095 1096	 1492549881	 719320525	 271397.
21:11:21 1096 1097	 1492549881	 994496519	 275176.
21:11:22 1097 1098	 1492549882	 217365433	 222869.
21:11:22 1098 1099	 1492549882	 492913105	 275548.
21:11:22 1099 1100	 1492549882	 764532043	 271619.
21:11:22 1100 1101	 1492549882	 986423822	 221891.
21:11:23 1101 1102	 1492549883	 262108573	 275685.
21:11:23 1102 1103	 1492549883	 533912921	 271805.
21:11:23 1103 1104	 1492549883	 808959352	 275046.
21:11:24 1104 1105	 1492549884	 31306650	 222347.
21:11:24 1105 1106	 1492549884	 303126453	 271820.
21:11:24 1106 1107	 1492549884	 579173867	 276048.
21:11:24 1107 1108	 1492549884	 850584691	 271410.
21:11:25 1108 1109	 1492549885	 126599274	 276015.
21:11:25 1109 1110	 1492549885	 403236740	 276637.
21:11:25 1110 1111	 1492549885	 625756001	 222520.
21:11:25 1111 1112	 1492549885	 897008599	 271252.
21:11:26 1112 1113	 1492549886	 168433063	 271425.
21:11:26 1113 1114	 1492549886	 390150639	 221717.
21:11:26 1114 1115	 1492549886	 665976626	 275826.
21:11:26 1115 1116	 1492549886	 937461618	 271485.
21:11:27 1116 1117	 1492549887	 213073289	 275612.
21:11:27 1117 1118	 1492549887	 484717984	 271645.
21:11:27 1118 1119	 1492549887	 706204699	 221486.
21:11:27 1119 1120	 1492549887	 981758546	 275554.
21:11:28 1120 1121	 1492549888	 252967821	 271209.
21:11:28 1121 1122	 1492549888	 475486977	 222520.
21:11:28 1122 1123	 1492549888	 746973686	 271486.
21:11:29 1123 1124	 1492549889	 21954153	 274981.
21:11:29 1124 1125	 1492549889	 293824448	 271870.
21:11:29 1125 1126	 1492549889	 564886730	 271062.
21:11:29 1126 1127	 1492549889	 839757758	 274872.
21:11:30 1127 1128	 1492549890	 110472761	 270714.
21:11:30 1128 1129	 1492549890	 332475408	 222003.
21:11:30 1129 1130	 1492549890	 603363771	 270888.
21:11:30 1130 1131	 1492549890	 874313814	 270951.
21:11:31 1131 1132	 1492549891	 145007974	 270694.
21:11:31 1132 1133	 1492549891	 420030346	 275022.
21:11:31 1133 1134	 1492549891	 691203607	 271173.
21:11:31 1134 1135	 1492549891	 913294920	 222092.
21:11:32 1135 1136	 1492549892	 184162970	 270868.
21:11:32 1136 1137	 1492549892	 454958306	 270795.
21:11:32 1137 1138	 1492549892	 729763976	 274806.
21:11:32 1138 1139	 1492549893	 510635	 270746.
21:11:33 1139 1140	 1492549893	 222666341	 222156.
21:11:33 1140 1141	 1492549893	 493621688	 270955.
