19:59:19    0 Step	 time(s)	 time(ns)	 delta(ms)
19:59:19    0 1	 1492718359	 606015599	 933.
19:59:19    1 2	 1492718359	 881366569	 275351.
19:59:20    2 3	 1492718360	 151793778	 270428.
19:59:20    3 4	 1492718360	 373858483	 222064.
19:59:20    4 5	 1492718360	 645305338	 271447.
19:59:20    5 6	 1492718360	 916236836	 270932.
19:59:21    6 7	 1492718361	 187421087	 271184.
19:59:21    7 8	 1492718361	 462709193	 275288.
19:59:21    8 9	 1492718361	 733712067	 271003.
19:59:21    9 10	 1492718361	 955967385	 222255.
19:59:22   10 11	 1492718362	 226967764	 271001.
19:59:22   11 12	 1492718362	 502566143	 275598.
19:59:22   12 13	 1492718362	 773972470	 271406.
19:59:23   13 14	 1492718363	 45089396	 271117.
19:59:23   14 15	 1492718363	 319883135	 274794.
19:59:23   15 16	 1492718363	 590416711	 270533.
19:59:23   16 17	 1492718363	 808566215	 218150.
19:59:24   17 18	 1492718364	 83543309	 274977.
19:59:24   18 19	 1492718364	 358502772	 274960.
19:59:24   19 20	 1492718364	 629454945	 270952.
19:59:24   20 21	 1492718364	 851240847	 221786.
19:59:25   21 22	 1492718365	 122036098	 270795.
19:59:25   22 23	 1492718365	 393276430	 271240.
19:59:25   23 24	 1492718365	 668534227	 275258.
19:59:25   24 25	 1492718365	 940129780	 271596.
19:59:26   25 26	 1492718366	 162810019	 222680.
19:59:26   26 27	 1492718366	 438050906	 275241.
19:59:26   27 28	 1492718366	 709390836	 271340.
19:59:26   28 29	 1492718366	 931862049	 222471.
19:59:27   29 30	 1492718367	 207796832	 275935.
19:59:27   30 31	 1492718367	 479518356	 271721.
19:59:27   31 32	 1492718367	 755870554	 276352.
19:59:28   32 33	 1492718368	 27659257	 271789.
19:59:28   33 34	 1492718368	 303949586	 276290.
19:59:28   34 35	 1492718368	 575627739	 271678.
19:59:28   35 36	 1492718368	 797998170	 222371.
19:59:29   36 37	 1492718369	 73447273	 275449.
19:59:29   37 38	 1492718369	 345384722	 271937.
19:59:29   38 39	 1492718369	 620787866	 275404.
19:59:29   39 40	 1492718369	 839375028	 218587.
19:59:30   40 41	 1492718370	 114707346	 275332.
19:59:30   41 42	 1492718370	 385919852	 271213.
19:59:30   42 43	 1492718370	 661077499	 275157.
19:59:30   43 44	 1492718370	 883300136	 222223.
19:59:31   44 45	 1492718371	 155117838	 271818.
19:59:31   45 46	 1492718371	 430710023	 275592.
19:59:31   46 47	 1492718371	 702413695	 271703.
19:59:31   47 48	 1492718371	 978394229	 275981.
19:59:32   48 49	 1492718372	 200909900	 222516.
19:59:32   49 50	 1492718372	 472012128	 271102.
19:59:32   50 51	 1492718372	 747006625	 274994.
19:59:33   51 52	 1492718373	 18093773	 271087.
19:59:33   52 53	 1492718373	 240083202	 221990.
19:59:33   53 54	 1492718373	 510430037	 270347.
19:59:33   54 55	 1492718373	 782011056	 271581.
19:59:34   55 56	 1492718374	 57577358	 275566.
19:59:34   56 57	 1492718374	 279686732	 222110.
19:59:34   57 58	 1492718374	 551688001	 272001.
19:59:34   58 59	 1492718374	 827604533	 275916.
19:59:35   59 60	 1492718375	 99022355	 271418.
19:59:35   60 61	 1492718375	 370158394	 271136.
19:59:35   61 62	 1492718375	 645556148	 275398.
19:59:35   62 63	 1492718375	 867773845	 222218.
19:59:36   63 64	 1492718376	 138937242	 271163.
19:59:36   64 65	 1492718376	 409903278	 270966.
19:59:36   65 66	 1492718376	 686218793	 276316.
19:59:36   66 67	 1492718376	 957694090	 271475.
19:59:37   67 68	 1492718377	 228558053	 270864.
19:59:37   68 69	 1492718377	 504196678	 275638.
19:59:37   69 70	 1492718377	 726414984	 222219.
19:59:37   70 71	 1492718377	 998058071	 271643.
19:59:38   71 72	 1492718378	 273781143	 275723.
19:59:38   72 73	 1492718378	 549832337	 276051.
19:59:38   73 74	 1492718378	 771755204	 221923.
19:59:39   74 75	 1492718379	 47362405	 275607.
19:59:39   75 76	 1492718379	 318964797	 271603.
19:59:39   76 77	 1492718379	 590635411	 271670.
19:59:39   77 78	 1492718379	 813203804	 222568.
19:59:40   78 79	 1492718380	 88664997	 275462.
19:59:40   79 80	 1492718380	 360085085	 271420.
19:59:40   80 81	 1492718380	 635398251	 275313.
19:59:40   81 82	 1492718380	 857732922	 222335.
19:59:41   82 83	 1492718381	 128639888	 270907.
19:59:41   83 84	 1492718381	 403702505	 275062.
19:59:41   84 85	 1492718381	 663835960	 260134.
19:59:41   85 86	 1492718381	 885743157	 221907.
19:59:42   86 87	 1492718382	 157069746	 271327.
19:59:42   87 88	 1492718382	 432527686	 275458.
19:59:42   88 89	 1492718382	 704363199	 271835.
19:59:42   89 90	 1492718382	 980443424	 276080.
19:59:43   90 91	 1492718383	 203920205	 223477.
19:59:43   91 92	 1492718383	 475678435	 271758.
19:59:43   92 93	 1492718383	 752281165	 276603.
19:59:44   93 94	 1492718384	 24337730	 272057.
19:59:44   94 95	 1492718384	 300116653	 275778.
19:59:44   95 96	 1492718384	 572139281	 272023.
19:59:44   96 97	 1492718384	 848310237	 276171.
19:59:45   97 98	 1492718385	 70669595	 222359.
19:59:45   98 99	 1492718385	 342164955	 271496.
19:59:45   99 100	 1492718385	 617977682	 275812.
19:59:45  100 101	 1492718385	 894126507	 276149.
19:59:46  101 102	 1492718386	 166174054	 272048.
19:59:46  102 103	 1492718386	 438122126	 271948.
19:59:46  103 104	 1492718386	 660741067	 222619.
19:59:46  104 105	 1492718386	 936845868	 276105.
19:59:47  105 106	 1492718387	 208514272	 271668.
19:59:47  106 107	 1492718387	 484616298	 276102.
19:59:47  107 108	 1492718387	 756346739	 271730.
19:59:48  108 109	 1492718388	 32098714	 275752.
19:59:48  109 110	 1492718388	 254398746	 222300.
19:59:48  110 111	 1492718388	 526221173	 271823.
19:59:48  111 112	 1492718388	 797308030	 271087.
19:59:49  112 113	 1492718389	 71993523	 274685.
19:59:49  113 114	 1492718389	 293723947	 221731.
19:59:49  114 115	 1492718389	 566000602	 272277.
19:59:49  115 116	 1492718389	 841416261	 275415.
19:59:50  116 117	 1492718390	 112742639	 271326.
19:59:50  117 118	 1492718390	 334587435	 221845.
19:59:50  118 119	 1492718390	 609890801	 275304.
19:59:50  119 120	 1492718390	 832395560	 222504.
19:59:51  120 121	 1492718391	 103996060	 271601.
19:59:51  121 122	 1492718391	 379243101	 275247.
19:59:51  122 123	 1492718391	 654794340	 275551.
19:59:51  123 124	 1492718391	 872979824	 218186.
19:59:52  124 125	 1492718392	 148448312	 275468.
19:59:52  125 126	 1492718392	 424282557	 275834.
19:59:52  126 127	 1492718392	 695778500	 271496.
19:59:52  127 128	 1492718392	 918405182	 222627.
19:59:53  128 129	 1492718393	 189372471	 270967.
19:59:53  129 130	 1492718393	 464787360	 275415.
19:59:53  130 131	 1492718393	 735756304	 270969.
19:59:53  131 132	 1492718393	 957769645	 222014.
19:59:54  132 133	 1492718394	 229174819	 271405.
19:59:54  133 134	 1492718394	 505289691	 276114.
19:59:54  134 135	 1492718394	 777073370	 271784.
19:59:54  135 136	 1492718394	 999326130	 222253.
19:59:55  136 137	 1492718395	 274810977	 275485.
19:59:55  137 138	 1492718395	 546499417	 271688.
19:59:55  138 139	 1492718395	 822293894	 275795.
19:59:56  139 140	 1492718396	 45040213	 222746.
19:59:56  140 141	 1492718396	 316571509	 271531.
19:59:56  141 142	 1492718396	 588440202	 271869.
19:59:56  142 143	 1492718396	 863996385	 275556.
19:59:57  143 144	 1492718397	 86318170	 222322.
19:59:57  144 145	 1492718397	 362013468	 275695.
19:59:57  145 146	 1492718397	 633295839	 271283.
19:59:57  146 147	 1492718397	 909046392	 275750.
19:59:58  147 148	 1492718398	 131258962	 222213.
19:59:58  148 149	 1492718398	 402823455	 271564.
19:59:58  149 150	 1492718398	 678262228	 275439.
19:59:58  150 151	 1492718398	 901008634	 222746.
19:59:59  151 152	 1492718399	 172652416	 271644.
19:59:59  152 153	 1492718399	 448092222	 275440.
19:59:59  153 154	 1492718399	 719951222	 271859.
19:59:59  154 155	 1492718399	 942520673	 222569.
20:00:00  155 156	 1492718400	 214030715	 271511.
20:00:00  156 157	 1492718400	 488899553	 274868.
20:00:00  157 158	 1492718400	 759822385	 270923.
20:00:01  158 159	 1492718401	 30519487	 270698.
20:00:01  159 160	 1492718401	 301333912	 270814.
20:00:01  160 161	 1492718401	 523289010	 221955.
20:00:01  161 162	 1492718401	 794143762	 270855.
20:00:02  162 163	 1492718402	 69063269	 274919.
20:00:02  163 164	 1492718402	 340487087	 271424.
20:00:02  164 165	 1492718402	 616109736	 275622.
20:00:02  165 166	 1492718402	 887492701	 271383.
20:00:03  166 167	 1492718403	 158954662	 271462.
20:00:03  167 168	 1492718403	 430432490	 271478.
20:00:03  168 169	 1492718403	 706261667	 275829.
20:00:03  169 170	 1492718403	 977826297	 271565.
20:00:04  170 171	 1492718404	 249611129	 271785.
20:00:04  171 172	 1492718404	 520957046	 271346.
20:00:04  172 173	 1492718404	 796480881	 275524.
20:00:05  173 174	 1492718405	 67657557	 271176.
20:00:05  174 175	 1492718405	 289683359	 222026.
20:00:05  175 176	 1492718405	 560477457	 270794.
20:00:05  176 177	 1492718405	 835771498	 275294.
20:00:06  177 178	 1492718406	 107816832	 272046.
20:00:06  178 179	 1492718406	 384343539	 276526.
20:00:06  179 180	 1492718406	 656508903	 272166.
20:00:06  180 181	 1492718406	 932676962	 276168.
20:00:07  181 182	 1492718407	 204541566	 271865.
20:00:07  182 183	 1492718407	 480407467	 275865.
20:00:07  183 184	 1492718407	 751969243	 271562.
20:00:08  184 185	 1492718408	 23732373	 271763.
20:00:08  185 186	 1492718408	 246261718	 222529.
20:00:08  186 187	 1492718408	 522477675	 276216.
20:00:08  187 188	 1492718408	 793456316	 270979.
20:00:09  188 189	 1492718409	 69423092	 275967.
20:00:09  189 190	 1492718409	 340867105	 271444.
20:00:09  190 191	 1492718409	 616546728	 275679.
20:00:09  191 192	 1492718409	 838849310	 222303.
20:00:10  192 193	 1492718410	 110064732	 271215.
20:00:10  193 194	 1492718410	 381443495	 271379.
20:00:10  194 195	 1492718410	 653799678	 272356.
20:00:10  195 196	 1492718410	 929113859	 275315.
20:00:11  196 197	 1492718411	 200770044	 271656.
20:00:11  197 198	 1492718411	 476469128	 275699.
20:00:11  198 199	 1492718411	 752404564	 275935.
20:00:11  199 200	 1492718411	 975135585	 222731.
20:00:12  200 201	 1492718412	 246711526	 271576.
20:00:12  201 202	 1492718412	 522191880	 275481.
20:00:12  202 203	 1492718412	 793966886	 271775.
20:00:13  203 204	 1492718413	 69435343	 275468.
20:00:13  204 205	 1492718413	 292188816	 222754.
20:00:13  205 206	 1492718413	 564174471	 271985.
20:00:13  206 207	 1492718413	 839447468	 275273.
20:00:14  207 208	 1492718414	 111183340	 271736.
20:00:14  208 209	 1492718414	 333079802	 221897.
20:00:14  209 210	 1492718414	 608862587	 275782.
20:00:14  210 211	 1492718414	 880860875	 271999.
20:00:15  211 212	 1492718415	 156289644	 275429.
20:00:15  212 213	 1492718415	 427286417	 270996.
20:00:15  213 214	 1492718415	 649137518	 221851.
20:00:15  214 215	 1492718415	 924508733	 275371.
20:00:16  215 216	 1492718416	 196200595	 271692.
20:00:16  216 217	 1492718416	 418831708	 222631.
20:00:16  217 218	 1492718416	 694499397	 275668.
20:00:16  218 219	 1492718416	 965501306	 271002.
20:00:17  219 220	 1492718417	 240792858	 275292.
20:00:17  220 221	 1492718417	 462966145	 222173.
20:00:17  221 222	 1492718417	 734804760	 271839.
20:00:18  222 223	 1492718418	 10362778	 275558.
20:00:18  223 224	 1492718418	 281659281	 271296.
20:00:18  224 225	 1492718418	 504235391	 222576.
20:00:18  225 226	 1492718418	 779828395	 275593.
20:00:19  226 227	 1492718419	 51459977	 271632.
20:00:19  227 228	 1492718419	 327277535	 275817.
20:00:19  228 229	 1492718419	 550083606	 222806.
20:00:19  229 230	 1492718419	 822269790	 272187.
20:00:20  230 231	 1492718420	 97746879	 275477.
20:00:20  231 232	 1492718420	 369370253	 271623.
20:00:20  232 233	 1492718420	 641333992	 271964.
20:00:20  233 234	 1492718420	 867921539	 226587.
20:00:21  234 235	 1492718421	 139228218	 271307.
20:00:21  235 236	 1492718421	 410029319	 270801.
20:00:21  236 237	 1492718421	 684478247	 274449.
20:00:21  237 238	 1492718421	 906145025	 221667.
20:00:22  238 239	 1492718422	 177687685	 271542.
20:00:22  239 240	 1492718422	 453694432	 276007.
20:00:22  240 241	 1492718422	 724910055	 271216.
20:00:22  241 242	 1492718422	 947422332	 222512.
20:00:23  242 243	 1492718423	 222799618	 275377.
20:00:23  243 244	 1492718423	 494220602	 271421.
20:00:23  244 245	 1492718423	 770387532	 276167.
20:00:23  245 246	 1492718423	 993156285	 222769.
20:00:24  246 247	 1492718424	 264551278	 271397.
20:00:24  247 248	 1492718424	 540170678	 275617.
20:00:24  248 249	 1492718424	 811895374	 271725.
20:00:25  249 250	 1492718425	 87975314	 276080.
20:00:25  250 251	 1492718425	 310403908	 222429.
20:00:25  251 252	 1492718425	 586338336	 275934.
20:00:25  252 253	 1492718425	 858202760	 271865.
20:00:26  253 254	 1492718426	 130066694	 271863.
20:00:26  254 255	 1492718426	 405855781	 275790.
20:00:26  255 256	 1492718426	 628613799	 222758.
20:00:26  256 257	 1492718426	 900536003	 271922.
20:00:27  257 258	 1492718427	 175921079	 275385.
20:00:27  258 259	 1492718427	 447543384	 271622.
20:00:27  259 260	 1492718427	 670295655	 222752.
20:00:27  260 261	 1492718427	 946804713	 276509.
20:00:28  261 262	 1492718428	 218068340	 271264.
20:00:28  262 263	 1492718428	 494277502	 276209.
20:00:28  263 264	 1492718428	 766141989	 271865.
20:00:29  264 265	 1492718429	 41526320	 275384.
20:00:29  265 266	 1492718429	 264134146	 222608.
20:00:29  266 267	 1492718429	 535846832	 271712.
20:00:29  267 268	 1492718429	 807223587	 271377.
20:00:30  268 269	 1492718430	 83196983	 275974.
20:00:30  269 270	 1492718430	 354408471	 271211.
20:00:30  270 271	 1492718430	 576932589	 222524.
20:00:30  271 272	 1492718430	 852359524	 275427.
20:00:31  272 273	 1492718431	 123717163	 271358.
20:00:31  273 274	 1492718431	 346041696	 222324.
20:00:31  274 275	 1492718431	 621273198	 275232.
20:00:31  275 276	 1492718431	 892330740	 271058.
20:00:32  276 277	 1492718432	 114747700	 222416.
20:00:32  277 278	 1492718432	 390328885	 275582.
20:00:32  278 279	 1492718432	 661840864	 271512.
20:00:32  279 280	 1492718432	 937201432	 275360.
20:00:33  280 281	 1492718433	 213341567	 276140.
20:00:33  281 282	 1492718433	 436055026	 222714.
20:00:33  282 283	 1492718433	 711428779	 275374.
20:00:33  283 284	 1492718433	 982348710	 270919.
20:00:34  284 285	 1492718434	 204906143	 222558.
20:00:34  285 286	 1492718434	 480393722	 275488.
20:00:34  286 287	 1492718434	 751329520	 270935.
20:00:34  287 288	 1492718434	 973494020	 222165.
20:00:35  288 289	 1492718435	 249010325	 275516.
20:00:35  289 290	 1492718435	 520511474	 271501.
20:00:35  290 291	 1492718435	 792521599	 272010.
20:00:36  291 292	 1492718436	 18994928	 226474.
20:00:36  292 293	 1492718436	 290662778	 271667.
20:00:36  293 294	 1492718436	 566181837	 275520.
20:00:36  294 295	 1492718436	 837938752	 271756.
20:00:37  295 296	 1492718437	 109381099	 271443.
20:00:37  296 297	 1492718437	 331791211	 222410.
20:00:37  297 298	 1492718437	 607433465	 275642.
20:00:37  298 299	 1492718437	 878994418	 271561.
20:00:38  299 300	 1492718438	 101463804	 222470.
20:00:38  300 301	 1492718438	 376791287	 275327.
20:00:38  301 302	 1492718438	 652595137	 275804.
20:00:38  302 303	 1492718438	 924062326	 271467.
20:00:39  303 304	 1492718439	 146708059	 222646.
20:00:39  304 305	 1492718439	 418267551	 271559.
20:00:39  305 306	 1492718439	 693649793	 275383.
20:00:39  306 307	 1492718439	 916568663	 222918.
20:00:40  307 308	 1492718440	 192718920	 276151.
20:00:40  308 309	 1492718440	 464188371	 271469.
20:00:40  309 310	 1492718440	 740559448	 276371.
20:00:41  310 311	 1492718441	 12979553	 272420.
20:00:41  311 312	 1492718441	 285591197	 272612.
20:00:41  312 313	 1492718441	 562000273	 276409.
20:00:41  313 314	 1492718441	 833808516	 271808.
20:00:42  314 315	 1492718442	 109659197	 275851.
20:00:42  315 316	 1492718442	 381460375	 271801.
20:00:42  316 317	 1492718442	 656739414	 275279.
20:00:42  317 318	 1492718442	 928336520	 271597.
20:00:43  318 319	 1492718443	 199519794	 271184.
20:00:43  319 320	 1492718443	 470709797	 271189.
20:00:43  320 321	 1492718443	 745735461	 275026.
20:00:44  321 322	 1492718444	 17147831	 271413.
20:00:44  322 323	 1492718444	 292553989	 275406.
20:00:44  323 324	 1492718444	 563740010	 271186.
20:00:44  324 325	 1492718444	 835723351	 271983.
20:00:45  325 326	 1492718445	 107467786	 271745.
20:00:45  326 327	 1492718445	 382915260	 275447.
20:00:45  327 328	 1492718445	 654514394	 271599.
20:00:45  328 329	 1492718445	 925863093	 271349.
20:00:46  329 330	 1492718446	 197253396	 271390.
20:00:46  330 331	 1492718446	 419558953	 222306.
20:00:46  331 332	 1492718446	 690848366	 271289.
20:00:46  332 333	 1492718446	 966434259	 275586.
20:00:47  333 334	 1492718447	 233325767	 266891.
20:00:47  334 335	 1492718447	 508419870	 275095.
20:00:47  335 336	 1492718447	 780014524	 271594.
20:00:48  336 337	 1492718448	 55975898	 275962.
20:00:48  337 338	 1492718448	 327359921	 271384.
20:00:48  338 339	 1492718448	 598564667	 271205.
20:00:48  339 340	 1492718448	 870541704	 271976.
20:00:49  340 341	 1492718449	 146693529	 276152.
20:00:49  341 342	 1492718449	 368592904	 221900.
20:00:49  342 343	 1492718449	 640201738	 271609.
20:00:49  343 344	 1492718449	 911419795	 271218.
20:00:50  344 345	 1492718450	 182537049	 271117.
20:00:50  345 346	 1492718450	 458437478	 275900.
20:00:50  346 347	 1492718450	 730386795	 271950.
20:00:51  347 348	 1492718451	 5972639	 275585.
20:00:51  348 349	 1492718451	 277672484	 271700.
20:00:51  349 350	 1492718451	 553312486	 275640.
20:00:51  350 351	 1492718451	 824851412	 271539.
20:00:52  351 352	 1492718452	 96345681	 271494.
20:00:52  352 353	 1492718452	 367803427	 271458.
20:00:52  353 354	 1492718452	 590465976	 222663.
20:00:52  354 355	 1492718452	 866272782	 275807.
20:00:53  355 356	 1492718453	 137749652	 271476.
20:00:53  356 357	 1492718453	 409677061	 271928.
20:00:53  357 358	 1492718453	 681679120	 272002.
20:00:53  358 359	 1492718453	 956940663	 275261.
20:00:54  359 360	 1492718454	 227854961	 270915.
20:00:54  360 361	 1492718454	 502946982	 275092.
20:00:54  361 362	 1492718454	 773657441	 270710.
20:00:55  362 363	 1492718455	 48499827	 274843.
20:00:55  363 364	 1492718455	 270515258	 222015.
20:00:55  364 365	 1492718455	 541748699	 271233.
20:00:55  365 366	 1492718455	 817412645	 275664.
20:00:56  366 367	 1492718456	 88565116	 271153.
20:00:56  367 368	 1492718456	 359988317	 271423.
20:00:56  368 369	 1492718456	 631533628	 271545.
20:00:56  369 370	 1492718456	 906848898	 275316.
20:00:57  370 371	 1492718457	 178142543	 271293.
20:00:57  371 372	 1492718457	 449846420	 271704.
20:00:57  372 373	 1492718457	 725606165	 275760.
20:00:57  373 374	 1492718457	 998001580	 272395.
20:00:58  374 375	 1492718458	 274209008	 276208.
20:00:58  375 376	 1492718458	 546218797	 272010.
20:00:58  376 377	 1492718458	 821849828	 275631.
20:00:59  377 378	 1492718459	 89986858	 268137.
20:00:59  378 379	 1492718459	 365973183	 275986.
20:00:59  379 380	 1492718459	 588157603	 222184.
20:00:59  380 381	 1492718459	 859576554	 271419.
20:01:00  381 382	 1492718460	 135048347	 275472.
20:01:00  382 383	 1492718460	 406011106	 270963.
20:01:00  383 384	 1492718460	 676581726	 270571.
20:01:00  384 385	 1492718460	 947446826	 270865.
20:01:01  385 386	 1492718461	 169729401	 222282.
20:01:01  386 387	 1492718461	 440916431	 271187.
20:01:01  387 388	 1492718461	 716199145	 275283.
20:01:01  388 389	 1492718461	 987434762	 271236.
20:01:02  389 390	 1492718462	 258608955	 271174.
20:01:02  390 391	 1492718462	 534505977	 275897.
20:01:02  391 392	 1492718462	 806337415	 271831.
20:01:03  392 393	 1492718463	 77967047	 271630.
20:01:03  393 394	 1492718463	 349870321	 271903.
20:01:03  394 395	 1492718463	 621059944	 271190.
20:01:03  395 396	 1492718463	 896184628	 275124.
20:01:04  396 397	 1492718464	 167085733	 270901.
20:01:04  397 398	 1492718464	 438041088	 270956.
20:01:04  398 399	 1492718464	 660446122	 222405.
20:01:04  399 400	 1492718464	 931571023	 271125.
20:01:05  400 401	 1492718465	 207026856	 275456.
20:01:05  401 402	 1492718465	 478298768	 271271.
20:01:05  402 403	 1492718465	 749477876	 271180.
20:01:06  403 404	 1492718466	 24827647	 275349.
20:01:06  404 405	 1492718466	 296220888	 271394.
20:01:06  405 406	 1492718466	 571987870	 275767.
20:01:06  406 407	 1492718466	 790625040	 218637.
20:01:07  407 408	 1492718467	 66197856	 275573.
20:01:07  408 409	 1492718467	 342367340	 276169.
20:01:07  409 410	 1492718467	 614094131	 271727.
20:01:07  410 411	 1492718467	 885743061	 271649.
20:01:08  411 412	 1492718468	 161009886	 275267.
20:01:08  412 413	 1492718468	 432497260	 271487.
20:01:08  413 414	 1492718468	 708012250	 275515.
20:01:08  414 415	 1492718468	 925942774	 217931.
20:01:09  415 416	 1492718469	 201600552	 275657.
20:01:09  416 417	 1492718469	 473043415	 271443.
20:01:09  417 418	 1492718469	 745083239	 272040.
20:01:10  418 419	 1492718470	 20861697	 275778.
20:01:10  419 420	 1492718470	 292467226	 271606.
20:01:10  420 421	 1492718470	 568086078	 275619.
20:01:10  421 422	 1492718470	 839748994	 271663.
20:01:11  422 423	 1492718471	 110874754	 271126.
20:01:11  423 424	 1492718471	 386895936	 276021.
20:01:11  424 425	 1492718471	 658835807	 271940.
20:01:11  425 426	 1492718471	 881148368	 222312.
20:01:12  426 427	 1492718472	 152373484	 271225.
20:01:12  427 428	 1492718472	 427463134	 275090.
20:01:12  428 429	 1492718472	 698536419	 271073.
20:01:12  429 430	 1492718472	 920737258	 222201.
20:01:13  430 431	 1492718473	 192279349	 271542.
20:01:13  431 432	 1492718473	 468372345	 276093.
20:01:13  432 433	 1492718473	 740963629	 272591.
20:01:14  433 434	 1492718474	 13203995	 272241.
20:01:14  434 435	 1492718474	 288434343	 275230.
20:01:14  435 436	 1492718474	 560134977	 271701.
20:01:14  436 437	 1492718474	 836453739	 276319.
20:01:15  437 438	 1492718475	 108366142	 271912.
20:01:15  438 439	 1492718475	 383718600	 275352.
20:01:15  439 440	 1492718475	 654986671	 271268.
20:01:15  440 441	 1492718475	 925934465	 270948.
20:01:16  441 442	 1492718476	 147991218	 222057.
20:01:16  442 443	 1492718476	 418999612	 271008.
20:01:16  443 444	 1492718476	 694393483	 275394.
20:01:16  444 445	 1492718476	 966155349	 271762.
20:01:17  445 446	 1492718477	 237887383	 271732.
20:01:17  446 447	 1492718477	 513468774	 275582.
20:01:17  447 448	 1492718477	 785071137	 271602.
20:01:18  448 449	 1492718478	 11952648	 226881.
20:01:18  449 450	 1492718478	 283787832	 271835.
20:01:18  450 451	 1492718478	 559671375	 275884.
20:01:18  451 452	 1492718478	 835136551	 275465.
20:01:19  452 453	 1492718479	 110348059	 275212.
20:01:19  453 454	 1492718479	 332994048	 222646.
20:01:19  454 455	 1492718479	 605000019	 272006.
20:01:19  455 456	 1492718479	 881195478	 276195.
20:01:20  456 457	 1492718480	 153040698	 271845.
20:01:20  457 458	 1492718480	 428295604	 275255.
20:01:20  458 459	 1492718480	 703923536	 275628.
20:01:20  459 460	 1492718480	 925906085	 221983.
20:01:21  460 461	 1492718481	 197340492	 271434.
20:01:21  461 462	 1492718481	 473405066	 276065.
20:01:21  462 463	 1492718481	 745846390	 272441.
20:01:22  463 464	 1492718482	 22259263	 276413.
20:01:22  464 465	 1492718482	 293618543	 271359.
20:01:22  465 466	 1492718482	 520151762	 226534.
20:01:22  466 467	 1492718482	 792105921	 271954.
20:01:23  467 468	 1492718483	 64043271	 271937.
20:01:23  468 469	 1492718483	 339537541	 275494.
20:01:23  469 470	 1492718483	 562210806	 222674.
20:01:23  470 471	 1492718483	 833743098	 271532.
20:01:24  471 472	 1492718484	 109282362	 275539.
20:01:24  472 473	 1492718484	 331384810	 222102.
20:01:24  473 474	 1492718484	 607034980	 275651.
20:01:24  474 475	 1492718484	 878787795	 271753.
20:01:25  475 476	 1492718485	 154359325	 275571.
20:01:25  476 477	 1492718485	 377473309	 223114.
20:01:25  477 478	 1492718485	 648854231	 271381.
20:01:25  478 479	 1492718485	 920006025	 271152.
20:01:26  479 480	 1492718486	 195604675	 275598.
20:01:26  480 481	 1492718486	 467330012	 271726.
20:01:26  481 482	 1492718486	 689629657	 222299.
20:01:26  482 483	 1492718486	 964977557	 275348.
20:01:27  483 484	 1492718487	 236512660	 271535.
20:01:27  484 485	 1492718487	 511796681	 275284.
20:01:27  485 486	 1492718487	 783005284	 271209.
20:01:28  486 487	 1492718488	 58133515	 275128.
20:01:28  487 488	 1492718488	 276354520	 218221.
20:01:28  488 489	 1492718488	 551568310	 275214.
20:01:28  489 490	 1492718488	 822871669	 271303.
20:01:29  490 491	 1492718489	 97897266	 275026.
20:01:29  491 492	 1492718489	 319764933	 221868.
20:01:29  492 493	 1492718489	 590957372	 271192.
20:01:29  493 494	 1492718489	 866423917	 275467.
20:01:30  494 495	 1492718490	 137561134	 271137.
20:01:30  495 496	 1492718490	 360144816	 222584.
20:01:30  496 497	 1492718490	 635518741	 275374.
20:01:30  497 498	 1492718490	 907367490	 271848.
20:01:31  498 499	 1492718491	 179044490	 271677.
20:01:31  499 500	 1492718491	 454787220	 275743.
20:01:31  500 501	 1492718491	 677467200	 222680.
20:01:31  501 502	 1492718491	 948763065	 271296.
20:01:32  502 503	 1492718492	 224845417	 276082.
20:01:32  503 504	 1492718492	 496601105	 271756.
20:01:32  504 505	 1492718492	 771946181	 275345.
20:01:32  505 506	 1492718492	 994923327	 222977.
20:01:33  506 507	 1492718493	 266579379	 271656.
20:01:33  507 508	 1492718493	 541915240	 275336.
20:01:33  508 509	 1492718493	 813553573	 271638.
20:01:34  509 510	 1492718494	 89069267	 275516.
20:01:34  510 511	 1492718494	 311140028	 222071.
20:01:34  511 512	 1492718494	 582532068	 271392.
20:01:34  512 513	 1492718494	 858175283	 275643.
20:01:35  513 514	 1492718495	 130018648	 271843.
20:01:35  514 515	 1492718495	 401003182	 270985.
20:01:35  515 516	 1492718495	 672370879	 271368.
20:01:35  516 517	 1492718495	 894632826	 222262.
20:01:36  517 518	 1492718496	 170530454	 275897.
20:01:36  518 519	 1492718496	 442280634	 271750.
20:01:36  519 520	 1492718496	 713610661	 271330.
20:01:36  520 521	 1492718496	 984221706	 270611.
20:01:37  521 522	 1492718497	 258894467	 274673.
20:01:37  522 523	 1492718497	 481135848	 222242.
20:01:37  523 524	 1492718497	 751559566	 270423.
20:01:38  524 525	 1492718498	 23206139	 271647.
20:01:38  525 526	 1492718498	 298262809	 275057.
20:01:38  526 527	 1492718498	 569868585	 271605.
20:01:38  527 528	 1492718498	 792079177	 222211.
20:01:39  528 529	 1492718499	 67699011	 275620.
20:01:39  529 530	 1492718499	 338602815	 270904.
20:01:39  530 531	 1492718499	 608970260	 270367.
20:01:39  531 532	 1492718499	 830591740	 221622.
20:01:40  532 533	 1492718500	 102117031	 271525.
20:01:40  533 534	 1492718500	 377820337	 275703.
20:01:40  534 535	 1492718500	 649117170	 271297.
20:01:40  535 536	 1492718500	 920221743	 271105.
20:01:41  536 537	 1492718501	 195605227	 275383.
20:01:41  537 538	 1492718501	 466699656	 271094.
20:01:41  538 539	 1492718501	 688788403	 222089.
20:01:41  539 540	 1492718501	 959754710	 270967.
20:01:42  540 541	 1492718502	 230975031	 271220.
20:01:42  541 542	 1492718502	 506083171	 275108.
20:01:42  542 543	 1492718502	 777056859	 270974.
20:01:43  543 544	 1492718503	 48597731	 271541.
20:01:43  544 545	 1492718503	 323544222	 274946.
20:01:43  545 546	 1492718503	 542040596	 218496.
20:01:43  546 547	 1492718503	 817273918	 275234.
20:01:44  547 548	 1492718504	 88702103	 271428.
20:01:44  548 549	 1492718504	 360243627	 271541.
20:01:44  549 550	 1492718504	 635944623	 275701.
20:01:44  550 551	 1492718504	 907547335	 271603.
20:01:45  551 552	 1492718505	 179134251	 271587.
20:01:45  552 553	 1492718505	 454424194	 275290.
20:01:45  553 554	 1492718505	 725412528	 270988.
20:01:45  554 555	 1492718505	 997029111	 271617.
20:01:46  555 556	 1492718506	 268147694	 271118.
20:01:46  556 557	 1492718506	 543045133	 274898.
20:01:46  557 558	 1492718506	 765242949	 222198.
20:01:47  558 559	 1492718507	 36677343	 271434.
20:01:47  559 560	 1492718507	 308042412	 271365.
20:01:47  560 561	 1492718507	 579713941	 271672.
20:01:47  561 562	 1492718507	 855477276	 275763.
20:01:48  562 563	 1492718508	 127699967	 272223.
20:01:48  563 564	 1492718508	 403551988	 275852.
20:01:48  564 565	 1492718508	 675211616	 271659.
20:01:48  565 566	 1492718508	 951402834	 276192.
20:01:49  566 567	 1492718509	 227133598	 275730.
20:01:49  567 568	 1492718509	 497933432	 270800.
20:01:49  568 569	 1492718509	 720218955	 222286.
20:01:49  569 570	 1492718509	 992023442	 271804.
20:01:50  570 571	 1492718510	 267866782	 275843.
20:01:50  571 572	 1492718510	 540004249	 272138.
20:01:50  572 573	 1492718510	 815571606	 275567.
20:01:51  573 574	 1492718511	 87674635	 272103.
20:01:51  574 575	 1492718511	 310252765	 222579.
20:01:51  575 576	 1492718511	 582062525	 271809.
20:01:51  576 577	 1492718511	 858003526	 275941.
20:01:52  577 578	 1492718512	 134099656	 276096.
20:01:52  578 579	 1492718512	 405359594	 271260.
20:01:52  579 580	 1492718512	 676647448	 271288.
20:01:52  580 581	 1492718512	 951892949	 275246.
20:01:53  581 582	 1492718513	 169979216	 218086.
20:01:53  582 583	 1492718513	 445360282	 275381.
20:01:53  583 584	 1492718513	 721132744	 275773.
20:01:53  584 585	 1492718513	 993336228	 272203.
20:01:54  585 586	 1492718514	 264560049	 271224.
20:01:54  586 587	 1492718514	 540106837	 275547.
20:01:54  587 588	 1492718514	 762660337	 222553.
20:01:55  588 589	 1492718515	 34068922	 271409.
20:01:55  589 590	 1492718515	 308785052	 274716.
20:01:55  590 591	 1492718515	 580538013	 271753.
20:01:55  591 592	 1492718515	 852418137	 271880.
20:01:56  592 593	 1492718516	 74710380	 222292.
20:01:56  593 594	 1492718516	 350002542	 275292.
20:01:56  594 595	 1492718516	 648517913	 298516.
20:01:56  595 596	 1492718516	 871243561	 222726.
20:01:57  596 597	 1492718517	 142896678	 271652.
20:01:57  597 598	 1492718517	 414524761	 271629.
20:01:57  598 599	 1492718517	 690093455	 275568.
20:01:57  599 600	 1492718517	 961334481	 271241.
20:01:58  600 601	 1492718518	 183662476	 222328.
20:01:58  601 602	 1492718518	 459359035	 275697.
20:01:58  602 603	 1492718518	 731365310	 272006.
20:01:59  603 604	 1492718519	 6845148	 275480.
20:01:59  604 605	 1492718519	 278497415	 271652.
20:01:59  605 606	 1492718519	 553851540	 275354.
20:01:59  606 607	 1492718519	 771705878	 217855.
20:02:00  607 608	 1492718520	 46824649	 275118.
20:02:00  608 609	 1492718520	 318008310	 271184.
20:02:00  609 610	 1492718520	 588891395	 270883.
20:02:00  610 611	 1492718520	 810349205	 221458.
20:02:01  611 612	 1492718521	 80904246	 270555.
20:02:01  612 613	 1492718521	 356067523	 275163.
20:02:01  613 614	 1492718521	 627408749	 271342.
20:02:01  614 615	 1492718521	 898569884	 271161.
20:02:02  615 616	 1492718522	 173809547	 275239.
20:02:02  616 617	 1492718522	 444732674	 270923.
20:02:02  617 618	 1492718522	 666966377	 222234.
20:02:02  618 619	 1492718522	 938425582	 271459.
20:02:03  619 620	 1492718523	 209476018	 271051.
20:02:03  620 621	 1492718523	 480312953	 270837.
20:02:03  621 622	 1492718523	 751427884	 271115.
20:02:04  622 623	 1492718524	 26534862	 275107.
20:02:04  623 624	 1492718524	 245013320	 218478.
20:02:04  624 625	 1492718524	 519890974	 274878.
20:02:04  625 626	 1492718524	 790839237	 270948.
20:02:05  626 627	 1492718525	 61689854	 270851.
20:02:05  627 628	 1492718525	 333118825	 271429.
20:02:05  628 629	 1492718525	 554596570	 221477.
20:02:05  629 630	 1492718525	 825801828	 271206.
20:02:06  630 631	 1492718526	 101195602	 275393.
20:02:06  631 632	 1492718526	 377040385	 275845.
20:02:06  632 633	 1492718526	 649210678	 272170.
20:02:06  633 634	 1492718526	 925390812	 276181.
20:02:07  634 635	 1492718527	 197698841	 272308.
20:02:07  635 636	 1492718527	 473938851	 276240.
20:02:07  636 637	 1492718527	 745975930	 272037.
20:02:07  637 638	 1492718527	 969155125	 223179.
20:02:08  638 639	 1492718528	 240783472	 271628.
20:02:08  639 640	 1492718528	 516958996	 276176.
20:02:08  640 641	 1492718528	 788994091	 272035.
20:02:09  641 642	 1492718529	 64737141	 275743.
20:02:09  642 643	 1492718529	 336797076	 272060.
20:02:09  643 644	 1492718529	 559203114	 222406.
20:02:09  644 645	 1492718529	 835405506	 276202.
20:02:10  645 646	 1492718530	 110595251	 275190.
20:02:10  646 647	 1492718530	 381601520	 271006.
20:02:10  647 648	 1492718530	 604086116	 222485.
20:02:10  648 649	 1492718530	 876006990	 271921.
20:02:11  649 650	 1492718531	 151860266	 275853.
20:02:11  650 651	 1492718531	 423379950	 271520.
20:02:11  651 652	 1492718531	 699519762	 276140.
20:02:11  652 653	 1492718531	 921547260	 222027.
20:02:12  653 654	 1492718532	 193398166	 271851.
20:02:12  654 655	 1492718532	 468696841	 275299.
20:02:12  655 656	 1492718532	 740164205	 271467.
20:02:12  656 657	 1492718532	 967001170	 226837.
20:02:13  657 658	 1492718533	 238921161	 271920.
20:02:13  658 659	 1492718533	 510154748	 271233.
20:02:13  659 660	 1492718533	 786171596	 276017.
20:02:14  660 661	 1492718534	 57892825	 271722.
20:02:14  661 662	 1492718534	 280456555	 222563.
20:02:14  662 663	 1492718534	 552457187	 272001.
20:02:14  663 664	 1492718534	 828154377	 275697.
20:02:15  664 665	 1492718535	 103982813	 275829.
20:02:15  665 666	 1492718535	 326343279	 222360.
20:02:15  666 667	 1492718535	 597548264	 271205.
20:02:15  667 668	 1492718535	 873209612	 275661.
20:02:16  668 669	 1492718536	 144681278	 271472.
20:02:16  669 670	 1492718536	 367606425	 222925.
20:02:16  670 671	 1492718536	 639468207	 271862.
20:02:16  671 672	 1492718536	 915078743	 275611.
20:02:17  672 673	 1492718537	 186378521	 271299.
20:02:17  673 674	 1492718537	 461848225	 275470.
20:02:17  674 675	 1492718537	 684658757	 222811.
20:02:17  675 676	 1492718537	 956698221	 272039.
20:02:18  676 677	 1492718538	 233295177	 276597.
20:02:18  677 678	 1492718538	 504979520	 271684.
20:02:18  678 679	 1492718538	 780626548	 275647.
20:02:19  679 680	 1492718539	 52390424	 271764.
20:02:19  680 681	 1492718539	 274500463	 222110.
20:02:19  681 682	 1492718539	 546409527	 271909.
20:02:19  682 683	 1492718539	 821643004	 275234.
20:02:20  683 684	 1492718540	 93681581	 272038.
20:02:20  684 685	 1492718540	 315923247	 222242.
20:02:20  685 686	 1492718540	 591856634	 275933.
20:02:20  686 687	 1492718540	 864001430	 272145.
20:02:21  687 688	 1492718541	 139478001	 275477.
20:02:21  688 689	 1492718541	 361685244	 222207.
20:02:21  689 690	 1492718541	 633151778	 271467.
20:02:21  690 691	 1492718541	 908594180	 275442.
20:02:22  691 692	 1492718542	 180388034	 271794.
20:02:22  692 693	 1492718542	 456356503	 275968.
20:02:22  693 694	 1492718542	 675439021	 219083.
20:02:22  694 695	 1492718542	 951709049	 276270.
20:02:23  695 696	 1492718543	 227295739	 275586.
20:02:23  696 697	 1492718543	 499070434	 271775.
20:02:23  697 698	 1492718543	 775437146	 276367.
20:02:24  698 699	 1492718544	 51801465	 276364.
20:02:24  699 700	 1492718544	 270067423	 218266.
20:02:24  700 701	 1492718544	 545531942	 275465.
20:02:24  701 702	 1492718544	 820910036	 275378.
20:02:25  702 703	 1492718545	 92661134	 271751.
20:02:25  703 704	 1492718545	 315176832	 222516.
20:02:25  704 705	 1492718545	 591396576	 276219.
20:02:25  705 706	 1492718545	 862976334	 271580.
20:02:26  706 707	 1492718546	 138780735	 275805.
20:02:26  707 708	 1492718546	 361457664	 222676.
20:02:26  708 709	 1492718546	 633206809	 271750.
20:02:26  709 710	 1492718546	 909345197	 276138.
20:02:27  710 711	 1492718547	 185380371	 276035.
20:02:27  711 712	 1492718547	 456832836	 271453.
20:02:27  712 713	 1492718547	 732794814	 275962.
20:02:27  713 714	 1492718547	 955043415	 222248.
20:02:28  714 715	 1492718548	 226508263	 271465.
20:02:28  715 716	 1492718548	 502145181	 275637.
20:02:28  716 717	 1492718548	 774246143	 272101.
20:02:28  717 718	 1492718548	 996587049	 222341.
20:02:29  718 719	 1492718549	 272009023	 275422.
20:02:29  719 720	 1492718549	 543812865	 271804.
20:02:29  720 721	 1492718549	 819501936	 275689.
20:02:30  721 722	 1492718550	 95564909	 276063.
20:02:30  722 723	 1492718550	 318522112	 222957.
20:02:30  723 724	 1492718550	 590554144	 272032.
20:02:30  724 725	 1492718550	 866180005	 275626.
20:02:31  725 726	 1492718551	 137987067	 271807.
20:02:31  726 727	 1492718551	 413765944	 275779.
20:02:31  727 728	 1492718551	 636118155	 222352.
20:02:31  728 729	 1492718551	 907767934	 271650.
20:02:32  729 730	 1492718552	 183668229	 275900.
20:02:32  730 731	 1492718552	 454547789	 270880.
20:02:32  731 732	 1492718552	 725534889	 270987.
20:02:32  732 733	 1492718552	 996360761	 270826.
20:02:33  733 734	 1492718553	 218142180	 221781.
20:02:33  734 735	 1492718553	 494072851	 275931.
20:02:33  735 736	 1492718553	 765317373	 271244.
20:02:34  736 737	 1492718554	 40872766	 275556.
20:02:34  737 738	 1492718554	 263373013	 222500.
20:02:34  738 739	 1492718554	 535210156	 271837.
20:02:34  739 740	 1492718554	 806546760	 271337.
20:02:35  740 741	 1492718555	 82356310	 275809.
20:02:35  741 742	 1492718555	 305117758	 222761.
20:02:35  742 743	 1492718555	 580647347	 275530.
20:02:35  743 744	 1492718555	 852325644	 271678.
20:02:36  744 745	 1492718556	 128216149	 275891.
20:02:36  745 746	 1492718556	 350720454	 222504.
20:02:36  746 747	 1492718556	 621681120	 270961.
20:02:36  747 748	 1492718556	 897555529	 275874.
20:02:37  748 749	 1492718557	 120292257	 222737.
20:02:37  749 750	 1492718557	 395972188	 275680.
20:02:37  750 751	 1492718557	 667373042	 271401.
20:02:37  751 752	 1492718557	 943176245	 275803.
20:02:38  752 753	 1492718558	 165611164	 222435.
20:02:38  753 754	 1492718558	 437172544	 271561.
20:02:38  754 755	 1492718558	 713028129	 275856.
20:02:38  755 756	 1492718558	 984683936	 271656.
20:02:39  756 757	 1492718559	 207449645	 222765.
20:02:39  757 758	 1492718559	 483291013	 275842.
20:02:39  758 759	 1492718559	 754611387	 271320.
20:02:40  759 760	 1492718560	 30021330	 275410.
20:02:40  760 761	 1492718560	 252244842	 222224.
20:02:40  761 762	 1492718560	 523599047	 271354.
20:02:40  762 763	 1492718560	 798831965	 275233.
20:02:41  763 764	 1492718561	 21113180	 222281.
20:02:41  764 765	 1492718561	 292665169	 271552.
20:02:41  765 766	 1492718561	 568812345	 276147.
20:02:41  766 767	 1492718561	 845256907	 276445.
20:02:42  767 768	 1492718562	 117681903	 272425.
20:02:42  768 769	 1492718562	 393424014	 275742.
20:02:42  769 770	 1492718562	 615841976	 222418.
20:02:42  770 771	 1492718562	 891055654	 275213.
20:02:43  771 772	 1492718563	 162616530	 271561.
20:02:43  772 773	 1492718563	 438135892	 275520.
20:02:43  773 774	 1492718563	 661261655	 223125.
20:02:43  774 775	 1492718563	 932895787	 271635.
20:02:44  775 776	 1492718564	 208639128	 275743.
20:02:44  776 777	 1492718564	 480234536	 271595.
20:02:44  777 778	 1492718564	 702381924	 222148.
20:02:44  778 779	 1492718564	 978299960	 275918.
20:02:45  779 780	 1492718565	 250002919	 271703.
20:02:45  780 781	 1492718565	 525696924	 275694.
20:02:45  781 782	 1492718565	 797704015	 272007.
20:02:46  782 783	 1492718566	 20194918	 222491.
20:02:46  783 784	 1492718566	 296071492	 275876.
20:02:46  784 785	 1492718566	 567197257	 271126.
20:02:46  785 786	 1492718566	 842996497	 275799.
20:02:47  786 787	 1492718567	 66001397	 223005.
20:02:47  787 788	 1492718567	 341217074	 275216.
20:02:47  788 789	 1492718567	 613449546	 272232.
20:02:47  789 790	 1492718567	 889298773	 275850.
20:02:48  790 791	 1492718568	 161357373	 272058.
20:02:48  791 792	 1492718568	 437081294	 275724.
20:02:48  792 793	 1492718568	 660405921	 223325.
20:02:48  793 794	 1492718568	 936419343	 276013.
20:02:49  794 795	 1492718569	 208401088	 271982.
20:02:49  795 796	 1492718569	 484232213	 275831.
20:02:49  796 797	 1492718569	 755868775	 271637.
20:02:49  797 798	 1492718569	 978238732	 222369.
20:02:50  798 799	 1492718570	 254055914	 275818.
20:02:50  799 800	 1492718570	 525974470	 271918.
20:02:50  800 801	 1492718570	 801284054	 275310.
20:02:51  801 802	 1492718571	 19493949	 218210.
20:02:51  802 803	 1492718571	 295458528	 275964.
20:02:51  803 804	 1492718571	 571209410	 275751.
20:02:51  804 805	 1492718571	 842952837	 271744.
20:02:52  805 806	 1492718572	 118375700	 275423.
20:02:52  806 807	 1492718572	 341231903	 222856.
20:02:52  807 808	 1492718572	 612570435	 271338.
20:02:52  808 809	 1492718572	 887695419	 275125.
20:02:53  809 810	 1492718573	 109974448	 222279.
20:02:53  810 811	 1492718573	 381486423	 271512.
20:02:53  811 812	 1492718573	 657092986	 275607.
20:02:53  812 813	 1492718573	 879382518	 222289.
20:02:54  813 814	 1492718574	 151357684	 271975.
20:02:54  814 815	 1492718574	 426347325	 274990.
20:02:54  815 816	 1492718574	 698007085	 271660.
20:02:54  816 817	 1492718574	 920402762	 222395.
20:02:55  817 818	 1492718575	 192147613	 271745.
20:02:55  818 819	 1492718575	 468479713	 276332.
20:02:55  819 820	 1492718575	 740035139	 271556.
20:02:56  820 821	 1492718576	 15679621	 275644.
20:02:56  821 822	 1492718576	 238620120	 222941.
20:02:56  822 823	 1492718576	 509797367	 271177.
20:02:56  823 824	 1492718576	 785883723	 276086.
20:02:57  824 825	 1492718577	 57795619	 271912.
20:02:57  825 826	 1492718577	 280366405	 222571.
20:02:57  826 827	 1492718577	 551870425	 271504.
20:02:57  827 828	 1492718577	 827858867	 275989.
20:02:58  828 829	 1492718578	 99438954	 271580.
20:02:58  829 830	 1492718578	 375052520	 275613.
20:02:58  830 831	 1492718578	 597185730	 222134.
20:02:58  831 832	 1492718578	 868585778	 271400.
20:02:59  832 833	 1492718579	 144237849	 275652.
20:02:59  833 834	 1492718579	 366135665	 221897.
20:02:59  834 835	 1492718579	 637903911	 271769.
20:02:59  835 836	 1492718579	 913498692	 275594.
20:03:00  836 837	 1492718580	 184235966	 270738.
20:03:00  837 838	 1492718580	 405905088	 221669.
20:03:00  838 839	 1492718580	 676646723	 270742.
20:03:00  839 840	 1492718580	 951184893	 274538.
20:03:01  840 841	 1492718581	 221843218	 270658.
20:03:01  841 842	 1492718581	 493094243	 271251.
20:03:01  842 843	 1492718581	 764678199	 271584.
20:03:01  843 844	 1492718581	 987076009	 222398.
20:03:02  844 845	 1492718582	 258063958	 270988.
20:03:02  845 846	 1492718582	 529328642	 271265.
20:03:02  846 847	 1492718582	 804730717	 275401.
20:03:03  847 848	 1492718583	 76230416	 271500.
20:03:03  848 849	 1492718583	 351810397	 275580.
20:03:03  849 850	 1492718583	 623365619	 271555.
20:03:03  850 851	 1492718583	 894798348	 271433.
20:03:04  851 852	 1492718584	 166225824	 271428.
20:03:04  852 853	 1492718584	 441924585	 275698.
20:03:04  853 854	 1492718584	 713108698	 271184.
20:03:04  854 855	 1492718584	 984353633	 271245.
20:03:05  855 856	 1492718585	 255685066	 271332.
20:03:05  856 857	 1492718585	 477812259	 222127.
20:03:05  857 858	 1492718585	 753717355	 275905.
20:03:06  858 859	 1492718586	 25350302	 271633.
20:03:06  859 860	 1492718586	 297672851	 272323.
20:03:06  860 861	 1492718586	 573519998	 275847.
20:03:06  861 862	 1492718586	 844982059	 271462.
20:03:07  862 863	 1492718587	 67685092	 222703.
20:03:07  863 864	 1492718587	 343150889	 275466.
20:03:07  864 865	 1492718587	 614553020	 271402.
20:03:07  865 866	 1492718587	 886235898	 271683.
20:03:08  866 867	 1492718588	 108817418	 222581.
20:03:08  867 868	 1492718588	 384315475	 275498.
20:03:08  868 869	 1492718588	 660210730	 275896.
20:03:08  869 870	 1492718588	 931575824	 271365.
20:03:09  870 871	 1492718589	 154476170	 222900.
20:03:09  871 872	 1492718589	 426052754	 271577.
20:03:09  872 873	 1492718589	 702014180	 275961.
20:03:09  873 874	 1492718589	 973148608	 271134.
20:03:10  874 875	 1492718590	 248923660	 275775.
20:03:10  875 876	 1492718590	 470847143	 221924.
20:03:10  876 877	 1492718590	 747081362	 276234.
20:03:11  877 878	 1492718591	 18698682	 271617.
20:03:11  878 879	 1492718591	 291181071	 272483.
20:03:11  879 880	 1492718591	 567214231	 276033.
20:03:11  880 881	 1492718591	 789997372	 222783.
20:03:12  881 882	 1492718592	 62001668	 272004.
20:03:12  882 883	 1492718592	 337852248	 275851.
20:03:12  883 884	 1492718592	 609183218	 271331.
20:03:12  884 885	 1492718592	 885499586	 276316.
20:03:13  885 886	 1492718593	 107972666	 222473.
20:03:13  886 887	 1492718593	 379662481	 271690.
20:03:13  887 888	 1492718593	 655181932	 275520.
20:03:13  888 889	 1492718593	 926590181	 271408.
20:03:14  889 890	 1492718594	 148566916	 221977.
20:03:14  890 891	 1492718594	 423896656	 275329.
20:03:14  891 892	 1492718594	 699731806	 275836.
20:03:14  892 893	 1492718594	 922321435	 222589.
20:03:15  893 894	 1492718595	 194665098	 272344.
20:03:15  894 895	 1492718595	 467001405	 272336.
20:03:15  895 896	 1492718595	 743166755	 276166.
20:03:16  896 897	 1492718596	 19080782	 275914.
20:03:16  897 898	 1492718596	 290797099	 271716.
20:03:16  898 899	 1492718596	 513505499	 222708.
20:03:16  899 900	 1492718596	 789055019	 275550.
20:03:17  900 901	 1492718597	 60798653	 271743.
20:03:17  901 902	 1492718597	 336161168	 275363.
20:03:17  902 903	 1492718597	 554051967	 217891.
20:03:17  903 904	 1492718597	 829012960	 274961.
20:03:18  904 905	 1492718598	 104262293	 275249.
20:03:18  905 906	 1492718598	 375723652	 271461.
20:03:18  906 907	 1492718598	 597869989	 222147.
20:03:18  907 908	 1492718598	 869141672	 271271.
20:03:19  908 909	 1492718599	 144705043	 275564.
20:03:19  909 910	 1492718599	 416829519	 272124.
20:03:19  910 911	 1492718599	 692043407	 275214.
20:03:19  911 912	 1492718599	 909966549	 217923.
20:03:20  912 913	 1492718600	 185210094	 275244.
20:03:20  913 914	 1492718600	 456573158	 271363.
20:03:20  914 915	 1492718600	 732106713	 275533.
20:03:20  915 916	 1492718600	 954837058	 222731.
20:03:21  916 917	 1492718601	 230468968	 275632.
20:03:21  917 918	 1492718601	 501625007	 271156.
20:03:21  918 919	 1492718601	 777579493	 275954.
20:03:22  919 920	 1492718602	 49753109	 272174.
20:03:22  920 921	 1492718602	 272635084	 222882.
20:03:22  921 922	 1492718602	 548819082	 276184.
20:03:22  922 923	 1492718602	 824506243	 275687.
20:03:23  923 924	 1492718603	 96914494	 272408.
20:03:23  924 925	 1492718603	 319056586	 222142.
20:03:23  925 926	 1492718603	 594504772	 275449.
20:03:23  926 927	 1492718603	 866383093	 271878.
20:03:24  927 928	 1492718604	 142760344	 276377.
20:03:24  928 929	 1492718604	 418496445	 275736.
20:03:24  929 930	 1492718604	 641884492	 223388.
20:03:24  930 931	 1492718604	 913561622	 271677.
20:03:25  931 932	 1492718605	 185192943	 271632.
20:03:25  932 933	 1492718605	 460775315	 275582.
20:03:25  933 934	 1492718605	 732238440	 271463.
20:03:25  934 935	 1492718605	 954450187	 222212.
20:03:26  935 936	 1492718606	 230025389	 275575.
20:03:26  936 937	 1492718606	 501946192	 271921.
20:03:26  937 938	 1492718606	 778040026	 276094.
20:03:26  938 939	 1492718607	 449773	 222410.
20:03:27  939 940	 1492718607	 275888362	 275438.
20:03:27  940 941	 1492718607	 547332365	 271444.
20:03:27  941 942	 1492718607	 822983731	 275651.
20:03:28  942 943	 1492718608	 45486081	 222503.
20:03:28  943 944	 1492718608	 316620688	 271134.
20:03:28  944 945	 1492718608	 591855703	 275235.
20:03:28  945 946	 1492718608	 814523161	 222668.
20:03:29  946 947	 1492718609	 86469382	 271946.
20:03:29  947 948	 1492718609	 361802345	 275333.
20:03:29  948 949	 1492718609	 633581671	 271779.
20:03:29  949 950	 1492718609	 909511598	 275930.
20:03:30  950 951	 1492718610	 131622733	 222111.
20:03:30  951 952	 1492718610	 402910804	 271289.
20:03:30  952 953	 1492718610	 679176409	 276265.
20:03:30  953 954	 1492718610	 951258520	 272082.
20:03:31  954 955	 1492718611	 227400061	 276142.
20:03:31  955 956	 1492718611	 450464824	 223065.
20:03:31  956 957	 1492718611	 723033368	 272568.
20:03:31  957 958	 1492718611	 999554183	 276521.
20:03:32  958 959	 1492718612	 270901665	 271347.
20:03:32  959 960	 1492718612	 542856162	 271955.
20:03:32  960 961	 1492718612	 819072831	 276217.
20:03:33  961 962	 1492718613	 91112990	 272040.
20:03:33  962 963	 1492718613	 366384970	 275272.
20:03:33  963 964	 1492718613	 583661637	 217276.
20:03:33  964 965	 1492718613	 858864663	 275203.
20:03:34  965 966	 1492718614	 130075056	 271211.
20:03:34  966 967	 1492718614	 405217410	 275142.
20:03:34  967 968	 1492718614	 676527322	 271310.
20:03:34  968 969	 1492718614	 899065370	 222538.
20:03:35  969 970	 1492718615	 170228971	 271164.
20:03:35  970 971	 1492718615	 445386408	 275157.
20:03:35  971 972	 1492718615	 716934646	 271548.
20:03:35  972 973	 1492718615	 939114356	 222180.
20:03:36  973 974	 1492718616	 214832086	 275718.
20:03:36  974 975	 1492718616	 486428189	 271596.
20:03:36  975 976	 1492718616	 757849376	 271421.
20:03:37  976 977	 1492718617	 28699909	 270851.
20:03:37  977 978	 1492718617	 250831837	 222132.
20:03:37  978 979	 1492718617	 526145703	 275313.
20:03:37  979 980	 1492718617	 797609545	 271464.
20:03:38  980 981	 1492718618	 69172704	 271563.
20:03:38  981 982	 1492718618	 345221481	 276049.
20:03:38  982 983	 1492718618	 568172761	 222952.
20:03:38  983 984	 1492718618	 843430598	 275257.
20:03:39  984 985	 1492718619	 114809022	 271379.
20:03:39  985 986	 1492718619	 386476143	 271667.
20:03:39  986 987	 1492718619	 608970729	 222495.
20:03:39  987 988	 1492718619	 884362448	 275391.
20:03:40  988 989	 1492718620	 155607666	 271245.
20:03:40  989 990	 1492718620	 427288630	 271682.
20:03:40  990 991	 1492718620	 698879144	 271590.
20:03:40  991 992	 1492718620	 974023766	 275145.
20:03:41  992 993	 1492718621	 196546632	 222522.
20:03:41  993 994	 1492718621	 468315738	 271770.
20:03:41  994 995	 1492718621	 744255779	 275940.
20:03:42  995 996	 1492718622	 15804927	 271549.
20:03:42  996 997	 1492718622	 287212794	 271408.
20:03:42  997 998	 1492718622	 514007614	 226794.
20:03:42  998 999	 1492718622	 785779864	 271773.
20:03:43  999 1000	 1492718623	 61387270	 275607.
20:03:43 1000 1001	 1492718623	 333417411	 272030.
20:03:43 1001 1002	 1492718623	 556327134	 222910.
20:03:43 1002 1003	 1492718623	 832242765	 275915.
20:03:44 1003 1004	 1492718624	 103966218	 271724.
20:03:44 1004 1005	 1492718624	 375451969	 271486.
20:03:44 1005 1006	 1492718624	 602330676	 226878.
20:03:44 1006 1007	 1492718624	 873958206	 271628.
20:03:45 1007 1008	 1492718625	 150138516	 276180.
20:03:45 1008 1009	 1492718625	 421652633	 271514.
20:03:45 1009 1010	 1492718625	 697205886	 275554.
20:03:45 1010 1011	 1492718625	 919755392	 222549.
20:03:46 1011 1012	 1492718626	 195201153	 275446.
20:03:46 1012 1013	 1492718626	 467144297	 271943.
20:03:46 1013 1014	 1492718626	 742759306	 275615.
20:03:46 1014 1015	 1492718626	 965271375	 222512.
20:03:47 1015 1016	 1492718627	 240944032	 275673.
20:03:47 1016 1017	 1492718627	 512869655	 271925.
20:03:47 1017 1018	 1492718627	 788822798	 275953.
20:03:48 1018 1019	 1492718628	 60319161	 271497.
20:03:48 1019 1020	 1492718628	 282630004	 222311.
20:03:48 1020 1021	 1492718628	 557996848	 275367.
20:03:48 1021 1022	 1492718628	 829486481	 271489.
20:03:49 1022 1023	 1492718629	 51827634	 222341.
20:03:49 1023 1024	 1492718629	 327914017	 276087.
20:03:49 1024 1025	 1492718629	 604266696	 276352.
20:03:49 1025 1026	 1492718629	 876290848	 272025.
20:03:50 1026 1027	 1492718630	 151986387	 275695.
20:03:50 1027 1028	 1492718630	 423420217	 271434.
20:03:50 1028 1029	 1492718630	 645751179	 222331.
20:03:50 1029 1030	 1492718630	 916988404	 271237.
20:03:51 1030 1031	 1492718631	 193328264	 276340.
20:03:51 1031 1032	 1492718631	 468910724	 275582.
20:03:51 1032 1033	 1492718631	 740600714	 271690.
20:03:51 1033 1034	 1492718631	 963299492	 222699.
20:03:52 1034 1035	 1492718632	 234966121	 271667.
20:03:52 1035 1036	 1492718632	 511441881	 276476.
20:03:52 1036 1037	 1492718632	 787835823	 276394.
20:03:53 1037 1038	 1492718633	 59423123	 271587.
20:03:53 1038 1039	 1492718633	 330574914	 271152.
20:03:53 1039 1040	 1492718633	 552479228	 221904.
20:03:53 1040 1041	 1492718633	 828069580	 275602.
20:03:54 1041 1042	 1492718634	 99562275	 271481.
20:03:54 1042 1043	 1492718634	 375240149	 275678.
20:03:54 1043 1044	 1492718634	 647050575	 271810.
20:03:54 1044 1045	 1492718634	 869724685	 222674.
20:03:55 1045 1046	 1492718635	 145572843	 275849.
20:03:55 1046 1047	 1492718635	 417714597	 272141.
20:03:55 1047 1048	 1492718635	 693608559	 275894.
20:03:55 1048 1049	 1492718635	 965560584	 271952.
20:03:56 1049 1050	 1492718636	 241563430	 276003.
20:03:56 1050 1051	 1492718636	 513446285	 271883.
20:03:56 1051 1052	 1492718636	 736252974	 222807.
20:03:57 1052 1053	 1492718637	 12036468	 275783.
20:03:57 1053 1054	 1492718637	 287514311	 275478.
20:03:57 1054 1055	 1492718637	 563149041	 275635.
20:03:57 1055 1056	 1492718637	 835051192	 271902.
20:03:58 1056 1057	 1492718638	 110925132	 275874.
20:03:58 1057 1058	 1492718638	 333201667	 222276.
20:03:58 1058 1059	 1492718638	 608515775	 275315.
20:03:58 1059 1060	 1492718638	 880466283	 271950.
20:03:59 1060 1061	 1492718639	 156626333	 276160.
20:03:59 1061 1062	 1492718639	 379494195	 222868.
20:03:59 1062 1063	 1492718639	 650978237	 271484.
20:03:59 1063 1064	 1492718639	 926134072	 275156.
20:04:00 1064 1065	 1492718640	 198478404	 272344.
20:04:00 1065 1066	 1492718640	 474277002	 275799.
20:04:00 1066 1067	 1492718640	 696238111	 221961.
20:04:00 1067 1068	 1492718640	 966741266	 270503.
20:04:01 1068 1069	 1492718641	 237401289	 270660.
20:04:01 1069 1070	 1492718641	 512299183	 274898.
20:04:01 1070 1071	 1492718641	 730028103	 217729.
20:04:02 1071 1072	 1492718642	 4684086	 274656.
20:04:02 1072 1073	 1492718642	 275431202	 270747.
20:04:02 1073 1074	 1492718642	 546220434	 270789.
20:04:02 1074 1075	 1492718642	 767866102	 221646.
20:04:03 1075 1076	 1492718643	 42859290	 274993.
20:04:03 1076 1077	 1492718643	 314267091	 271408.
20:04:03 1077 1078	 1492718643	 585313561	 271046.
20:04:03 1078 1079	 1492718643	 860195461	 274882.
20:04:04 1079 1080	 1492718644	 131085790	 270891.
20:04:04 1080 1081	 1492718644	 352750045	 221664.
20:04:04 1081 1082	 1492718644	 619350257	 266600.
20:04:04 1082 1083	 1492718644	 894495065	 275145.
20:04:05 1083 1084	 1492718645	 165399958	 270905.
20:04:05 1084 1085	 1492718645	 436549433	 271149.
20:04:05 1085 1086	 1492718645	 659594945	 223046.
20:04:05 1086 1087	 1492718645	 985356695	 325761.
20:04:06 1087 1088	 1492718646	 261357221	 276001.
20:04:06 1088 1089	 1492718646	 532894634	 271537.
20:04:06 1089 1090	 1492718646	 804240696	 271346.
20:04:07 1090 1091	 1492718647	 75546797	 271307.
20:04:07 1091 1092	 1492718647	 297378892	 221832.
20:04:07 1092 1093	 1492718647	 572798349	 275419.
20:04:07 1093 1094	 1492718647	 844107201	 271309.
20:04:08 1094 1095	 1492718648	 119547963	 275441.
20:04:08 1095 1096	 1492718648	 341912110	 222364.
20:04:08 1096 1097	 1492718648	 616635723	 274724.
20:04:08 1097 1098	 1492718648	 886887181	 270251.
20:04:09 1098 1099	 1492718649	 161219663	 274332.
20:04:09 1099 1100	 1492718649	 382697137	 221478.
20:04:09 1100 1101	 1492718649	 654579201	 271882.
20:04:09 1101 1102	 1492718649	 930761978	 276183.
20:04:10 1102 1103	 1492718650	 202819565	 272057.
20:04:10 1103 1104	 1492718650	 479261858	 276443.
20:04:10 1104 1105	 1492718650	 751365701	 272103.
20:04:11 1105 1106	 1492718651	 27833691	 276468.
20:04:11 1106 1107	 1492718651	 298992383	 271159.
20:04:11 1107 1108	 1492718651	 521140552	 222148.
20:04:11 1108 1109	 1492718651	 796290524	 275151.
20:04:12 1109 1110	 1492718652	 67320431	 271029.
20:04:12 1110 1111	 1492718652	 338880487	 271560.
20:04:12 1111 1112	 1492718652	 614911531	 276031.
20:04:12 1112 1113	 1492718652	 886722666	 271811.
20:04:13 1113 1114	 1492718653	 109291249	 222569.
20:04:13 1114 1115	 1492718653	 380278077	 270987.
20:04:13 1115 1116	 1492718653	 655144714	 274866.
20:04:13 1116 1117	 1492718653	 926148941	 271016.
20:04:14 1117 1118	 1492718654	 197662889	 271503.
20:04:14 1118 1119	 1492718654	 419980233	 222317.
20:04:14 1119 1120	 1492718654	 695776694	 275796.
20:04:14 1120 1121	 1492718654	 967931067	 272155.
20:04:15 1121 1122	 1492718655	 243616954	 275686.
20:04:15 1122 1123	 1492718655	 514593076	 270976.
20:04:15 1123 1124	 1492718655	 785588691	 270995.
20:04:16 1124 1125	 1492718656	 7097082	 221509.
20:04:16 1125 1126	 1492718656	 277532066	 270435.
20:04:16 1126 1127	 1492718656	 552419790	 274888.
20:04:16 1127 1128	 1492718656	 823148185	 270728.
20:04:17 1128 1129	 1492718657	 94071774	 270924.
20:04:17 1129 1130	 1492718657	 316105557	 222033.
20:04:17 1130 1131	 1492718657	 586611480	 270506.
20:04:17 1131 1132	 1492718657	 861821521	 275210.
20:04:18 1132 1133	 1492718658	 133269543	 271448.
20:04:18 1133 1134	 1492718658	 355993928	 222725.
20:04:18 1134 1135	 1492718658	 631605385	 275611.
20:04:18 1135 1136	 1492718658	 903690982	 272086.
20:04:19 1136 1137	 1492718659	 179050765	 275360.
20:04:19 1137 1138	 1492718659	 401825036	 222774.
20:04:19 1138 1139	 1492718659	 673962783	 272138.
