00:09:18    0 Step	 time(s)	 time(ns)	 delta(ms)
00:09:18    0 1	 1492646958	 370655907	 1016.
00:09:18    1 2	 1492646958	 647041587	 276385.
00:09:18    2 3	 1492646958	 918301218	 271260.
00:09:19    3 4	 1492646959	 193791609	 275490.
00:09:19    4 5	 1492646959	 465185464	 271394.
00:09:19    5 6	 1492646959	 687798510	 222613.
00:09:19    6 7	 1492646959	 962702294	 274904.
00:09:20    7 8	 1492646960	 234289129	 271587.
00:09:20    8 9	 1492646960	 510517488	 276228.
00:09:20    9 10	 1492646960	 782074710	 271557.
00:09:21   10 11	 1492646961	 4086538	 222012.
00:09:21   11 12	 1492646961	 279597909	 275512.
00:09:21   12 13	 1492646961	 551439074	 271841.
00:09:21   13 14	 1492646961	 773796715	 222357.
00:09:22   14 15	 1492646962	 49666328	 275870.
00:09:22   15 16	 1492646962	 321335763	 271670.
00:09:22   16 17	 1492646962	 597381640	 276045.
00:09:22   17 18	 1492646962	 820113593	 222732.
00:09:23   18 19	 1492646963	 91285654	 271172.
00:09:23   19 20	 1492646963	 366435476	 275150.
00:09:23   20 21	 1492646963	 588189454	 221754.
00:09:23   21 22	 1492646963	 864288888	 276100.
00:09:24   22 23	 1492646964	 135414093	 271125.
00:09:24   23 24	 1492646964	 357835320	 222421.
00:09:24   24 25	 1492646964	 629537530	 271702.
00:09:24   25 26	 1492646964	 904339953	 274803.
00:09:25   26 27	 1492646965	 126431921	 222092.
00:09:25   27 28	 1492646965	 397257871	 270826.
00:09:25   28 29	 1492646965	 672537719	 275280.
00:09:25   29 30	 1492646965	 894389425	 221851.
00:09:26   30 31	 1492646966	 169787286	 275398.
00:09:26   31 32	 1492646966	 441118744	 271331.
00:09:26   32 33	 1492646966	 663302806	 222185.
00:09:26   33 34	 1492646966	 938550564	 275247.
00:09:27   34 35	 1492646967	 213709137	 275159.
00:09:27   35 36	 1492646967	 436061636	 222352.
00:09:27   36 37	 1492646967	 711465351	 275404.
00:09:27   37 38	 1492646967	 982233217	 270768.
00:09:28   38 39	 1492646968	 208471937	 226239.
00:09:28   39 40	 1492646968	 479944473	 271472.
00:09:28   40 41	 1492646968	 755298532	 275354.
00:09:28   41 42	 1492646968	 977905496	 222607.
00:09:29   42 43	 1492646969	 253446039	 275541.
00:09:29   43 44	 1492646969	 528549981	 275104.
00:09:29   44 45	 1492646969	 800112324	 271562.
00:09:30   45 46	 1492646970	 22486902	 222375.
00:09:30   46 47	 1492646970	 293224501	 270737.
00:09:30   47 48	 1492646970	 568983557	 275759.
00:09:30   48 49	 1492646970	 791247286	 222264.
00:09:31   49 50	 1492646971	 66670436	 275423.
00:09:31   50 51	 1492646971	 338041218	 271371.
00:09:31   51 52	 1492646971	 609479020	 271438.
00:09:31   52 53	 1492646971	 884782528	 275303.
00:09:32   53 54	 1492646972	 106990303	 222208.
00:09:32   54 55	 1492646972	 378441615	 271451.
00:09:32   55 56	 1492646972	 649823758	 271382.
00:09:32   56 57	 1492646972	 925756679	 275933.
00:09:33   57 58	 1492646973	 197100303	 271344.
00:09:33   58 59	 1492646973	 419802176	 222702.
00:09:33   59 60	 1492646973	 694813576	 275011.
00:09:33   60 61	 1492646973	 966085295	 271272.
00:09:34   61 62	 1492646974	 188458493	 222373.
00:09:34   62 63	 1492646974	 463532096	 275074.
00:09:34   63 64	 1492646974	 735131193	 271599.
00:09:35   64 65	 1492646975	 10080306	 274949.
00:09:35   65 66	 1492646975	 232703172	 222623.
00:09:35   66 67	 1492646975	 504470683	 271768.
00:09:35   67 68	 1492646975	 779880270	 275409.
00:09:36   68 69	 1492646976	 50765182	 270885.
00:09:36   69 70	 1492646976	 273010502	 222245.
00:09:36   70 71	 1492646976	 548034485	 275024.
00:09:36   71 72	 1492646976	 823610103	 275576.
00:09:37   72 73	 1492646977	 45590524	 221980.
00:09:37   73 74	 1492646977	 317076328	 271486.
00:09:37   74 75	 1492646977	 592932916	 275857.
00:09:37   75 76	 1492646977	 869066620	 276133.
00:09:38   76 77	 1492646978	 140435316	 271369.
00:09:38   77 78	 1492646978	 362665433	 222230.
00:09:38   78 79	 1492646978	 634004263	 271339.
00:09:38   79 80	 1492646978	 905641947	 271638.
00:09:39   80 81	 1492646979	 176326547	 270684.
00:09:39   81 82	 1492646979	 451682600	 275356.
00:09:39   82 83	 1492646979	 727399260	 275717.
00:09:40   83 84	 1492646980	 3400938	 276002.
00:09:40   84 85	 1492646980	 226002380	 222601.
00:09:40   85 86	 1492646980	 497859098	 271857.
00:09:40   86 87	 1492646980	 773684695	 275825.
00:09:41   87 88	 1492646981	 45012385	 271328.
00:09:41   88 89	 1492646981	 316314944	 271303.
00:09:41   89 90	 1492646981	 587541773	 271226.
00:09:41   90 91	 1492646981	 858891167	 271350.
00:09:42   91 92	 1492646982	 134184420	 275293.
00:09:42   92 93	 1492646982	 405171850	 270988.
00:09:42   93 94	 1492646982	 676493363	 271321.
00:09:42   94 95	 1492646982	 947721061	 271228.
00:09:43   95 96	 1492646983	 169843467	 222122.
00:09:43   96 97	 1492646983	 445060121	 275217.
00:09:43   97 98	 1492646983	 716193035	 271133.
00:09:43   98 99	 1492646983	 987818213	 271625.
00:09:44   99 100	 1492646984	 263838588	 276020.
00:09:44  100 101	 1492646984	 535530902	 271693.
00:09:44  101 102	 1492646984	 807106072	 271575.
00:09:45  102 103	 1492646985	 82334143	 275228.
00:09:45  103 104	 1492646985	 353436433	 271102.
00:09:45  104 105	 1492646985	 624603195	 271167.
00:09:45  105 106	 1492646985	 895528055	 270925.
00:09:46  106 107	 1492646986	 171239621	 275711.
00:09:46  107 108	 1492646986	 393643426	 222404.
00:09:46  108 109	 1492646986	 664752223	 271109.
00:09:46  109 110	 1492646986	 935483676	 270731.
00:09:47  110 111	 1492646987	 210437084	 274954.
00:09:47  111 112	 1492646987	 481154908	 270718.
00:09:47  112 113	 1492646987	 752054473	 270899.
00:09:47  113 114	 1492646987	 974074809	 222021.
00:09:48  114 115	 1492646988	 245161584	 271086.
00:09:48  115 116	 1492646988	 516258678	 271098.
00:09:48  116 117	 1492646988	 791660389	 275401.
00:09:49  117 118	 1492646989	 62623477	 270963.
00:09:49  118 119	 1492646989	 333460728	 270837.
00:09:49  119 120	 1492646989	 604000013	 270540.
00:09:49  120 121	 1492646989	 825776398	 221776.
00:09:50  121 122	 1492646990	 96822644	 271046.
00:09:50  122 123	 1492646990	 372557100	 275735.
00:09:50  123 124	 1492646990	 644661559	 272104.
00:09:50  124 125	 1492646990	 920487212	 275826.
00:09:51  125 126	 1492646991	 191833275	 271346.
00:09:51  126 127	 1492646991	 462968793	 271135.
00:09:51  127 128	 1492646991	 738358720	 275390.
00:09:52  128 129	 1492646992	 10021175	 271663.
00:09:52  129 130	 1492646992	 281478720	 271457.
00:09:52  130 131	 1492646992	 552699077	 271221.
00:09:52  131 132	 1492646992	 828366601	 275667.
00:09:53  132 133	 1492646993	 99950289	 271584.
00:09:53  133 134	 1492646993	 371259959	 271310.
00:09:53  134 135	 1492646993	 642862710	 271602.
00:09:53  135 136	 1492646993	 865205724	 222343.
00:09:54  136 137	 1492646994	 140030688	 274825.
00:09:54  137 138	 1492646994	 411248977	 271219.
00:09:54  138 139	 1492646994	 682389965	 271141.
00:09:54  139 140	 1492646994	 958142761	 275752.
00:09:55  140 141	 1492646995	 180349705	 222207.
00:09:55  141 142	 1492646995	 451977949	 271629.
00:09:55  142 143	 1492646995	 723119080	 271141.
00:09:55  143 144	 1492646995	 998957651	 275838.
00:09:56  144 145	 1492646996	 274222018	 275265.
00:09:56  145 146	 1492646996	 545223151	 271001.
00:09:56  146 147	 1492646996	 767493022	 222270.
00:09:57  147 148	 1492646997	 38931522	 271438.
00:09:57  148 149	 1492646997	 314178541	 275247.
00:09:57  149 150	 1492646997	 585453602	 271275.
00:09:57  150 151	 1492646997	 856933689	 271480.
00:09:58  151 152	 1492646998	 132557282	 275624.
00:09:58  152 153	 1492646998	 350722593	 218165.
00:09:58  153 154	 1492646998	 626569576	 275847.
00:09:58  154 155	 1492646998	 898421121	 271852.
00:09:59  155 156	 1492646999	 169646045	 271225.
00:09:59  156 157	 1492646999	 445014573	 275368.
00:09:59  157 158	 1492646999	 716591260	 271577.
00:09:59  158 159	 1492646999	 938705558	 222114.
00:10:00  159 160	 1492647000	 209136759	 270431.
00:10:00  160 161	 1492647000	 480577383	 271441.
00:10:00  161 162	 1492647000	 756101402	 275524.
00:10:01  162 163	 1492647001	 27043994	 270943.
00:10:01  163 164	 1492647001	 297774367	 270730.
00:10:01  164 165	 1492647001	 568741109	 270967.
00:10:01  165 166	 1492647001	 843932992	 275192.
00:10:02  166 167	 1492647002	 62200984	 218268.
00:10:02  167 168	 1492647002	 337384880	 275184.
00:10:02  168 169	 1492647002	 608592815	 271208.
00:10:02  169 170	 1492647002	 879706655	 271113.
00:10:03  170 171	 1492647003	 154894404	 275188.
00:10:03  171 172	 1492647003	 426133862	 271240.
00:10:03  172 173	 1492647003	 697378971	 271245.
00:10:03  173 174	 1492647003	 968353149	 270974.
00:10:04  174 175	 1492647004	 244056451	 275703.
00:10:04  175 176	 1492647004	 515571498	 271515.
00:10:04  176 177	 1492647004	 787497407	 271926.
00:10:05  177 178	 1492647005	 63164436	 275667.
00:10:05  178 179	 1492647005	 334764979	 271601.
00:10:05  179 180	 1492647005	 610444801	 275679.
00:10:05  180 181	 1492647005	 882424931	 271981.
00:10:06  181 182	 1492647006	 153838832	 271414.
00:10:06  182 183	 1492647006	 429527921	 275689.
00:10:06  183 184	 1492647006	 701329273	 271801.
00:10:06  184 185	 1492647006	 923755837	 222441.
00:10:07  185 186	 1492647007	 194917075	 271147.
00:10:07  186 187	 1492647007	 465870289	 270953.
00:10:07  187 188	 1492647007	 736960964	 271091.
00:10:08  188 189	 1492647008	 12581978	 275621.
00:10:08  189 190	 1492647008	 283592286	 271010.
00:10:08  190 191	 1492647008	 555056458	 271464.
00:10:08  191 192	 1492647008	 829950136	 274894.
00:10:09  192 193	 1492647009	 52790169	 222840.
00:10:09  193 194	 1492647009	 324812860	 272023.
00:10:09  194 195	 1492647009	 596155712	 271342.
00:10:09  195 196	 1492647009	 871963457	 275808.
00:10:10  196 197	 1492647010	 142345515	 270382.
00:10:10  197 198	 1492647010	 413138475	 270793.
00:10:10  198 199	 1492647010	 635027381	 221889.
00:10:10  199 200	 1492647010	 906583058	 271556.
00:10:11  200 201	 1492647011	 182456679	 275874.
00:10:11  201 202	 1492647011	 454439572	 271982.
00:10:11  202 203	 1492647011	 730500681	 276061.
00:10:12  203 204	 1492647012	 2374387	 271874.
00:10:12  204 205	 1492647012	 224917829	 222543.
00:10:12  205 206	 1492647012	 500496974	 275580.
00:10:12  206 207	 1492647012	 776021628	 275525.
00:10:12  207 208	 1492647012	 998575971	 222554.
00:10:13  208 209	 1492647013	 270140489	 271564.
00:10:13  209 210	 1492647013	 545559845	 275420.
00:10:13  210 211	 1492647013	 817304565	 271744.
00:10:14  211 212	 1492647014	 39483399	 222179.
00:10:14  212 213	 1492647014	 310456105	 270973.
00:10:14  213 214	 1492647014	 585977937	 275522.
00:10:14  214 215	 1492647014	 808564718	 222586.
00:10:15  215 216	 1492647015	 83797662	 275233.
00:10:15  216 217	 1492647015	 355410912	 271614.
00:10:15  217 218	 1492647015	 631410147	 275999.
00:10:15  218 219	 1492647015	 854551962	 223142.
00:10:16  219 220	 1492647016	 126196725	 271644.
00:10:16  220 221	 1492647016	 401695613	 275499.
00:10:16  221 222	 1492647016	 672756321	 271061.
00:10:16  222 223	 1492647016	 943870891	 271115.
00:10:17  223 224	 1492647017	 219634177	 275763.
00:10:17  224 225	 1492647017	 441833723	 222199.
00:10:17  225 226	 1492647017	 713482244	 271649.
00:10:17  226 227	 1492647017	 988968357	 275486.
00:10:18  227 228	 1492647018	 261448500	 272480.
00:10:18  228 229	 1492647018	 538219097	 276771.
00:10:18  229 230	 1492647018	 810423067	 272204.
00:10:19  230 231	 1492647019	 82867653	 272444.
00:10:19  231 232	 1492647019	 359544943	 276678.
00:10:19  232 233	 1492647019	 631960884	 272416.
00:10:19  233 234	 1492647019	 904548201	 272587.
00:10:20  234 235	 1492647020	 181004714	 276456.
00:10:20  235 236	 1492647020	 452685527	 271681.
00:10:20  236 237	 1492647020	 724126356	 271441.
00:10:20  237 238	 1492647020	 999809255	 275683.
00:10:21  238 239	 1492647021	 270976109	 271167.
00:10:21  239 240	 1492647021	 542266981	 271291.
00:10:21  240 241	 1492647021	 813698638	 271431.
00:10:22  241 242	 1492647022	 88780733	 275082.
00:10:22  242 243	 1492647022	 359913679	 271133.
00:10:22  243 244	 1492647022	 582152224	 222239.
00:10:22  244 245	 1492647022	 853188264	 271036.
00:10:23  245 246	 1492647023	 124100184	 270912.
00:10:23  246 247	 1492647023	 399690678	 275590.
00:10:23  247 248	 1492647023	 671256184	 271566.
00:10:23  248 249	 1492647023	 943050160	 271794.
00:10:24  249 250	 1492647024	 218413681	 275363.
00:10:24  250 251	 1492647024	 489326003	 270913.
00:10:24  251 252	 1492647024	 760902847	 271577.
00:10:25  252 253	 1492647025	 32751716	 271848.
00:10:25  253 254	 1492647025	 308113457	 275362.
00:10:25  254 255	 1492647025	 579627973	 271515.
00:10:25  255 256	 1492647025	 802021570	 222393.
00:10:26  256 257	 1492647026	 73287937	 271267.
00:10:26  257 258	 1492647026	 344379133	 271091.
00:10:26  258 259	 1492647026	 619790548	 275411.
00:10:26  259 260	 1492647026	 891171831	 271382.
00:10:27  260 261	 1492647027	 162488380	 271316.
00:10:27  261 262	 1492647027	 433449311	 270961.
00:10:27  262 263	 1492647027	 708588259	 275139.
00:10:27  263 264	 1492647027	 979261094	 270673.
00:10:28  264 265	 1492647028	 196940086	 217679.
00:10:28  265 266	 1492647028	 472376279	 275436.
00:10:28  266 267	 1492647028	 743879860	 271504.
00:10:29  267 268	 1492647029	 15256919	 271377.
00:10:29  268 269	 1492647029	 286767860	 271511.
00:10:29  269 270	 1492647029	 562224989	 275457.
00:10:29  270 271	 1492647029	 833498959	 271274.
00:10:30  271 272	 1492647030	 104917795	 271419.
00:10:30  272 273	 1492647030	 376005142	 271087.
00:10:30  273 274	 1492647030	 651405169	 275400.
00:10:30  274 275	 1492647030	 922959668	 271554.
00:10:31  275 276	 1492647031	 145802098	 222843.
00:10:31  276 277	 1492647031	 417196529	 271394.
00:10:31  277 278	 1492647031	 693025822	 275830.
00:10:31  278 279	 1492647031	 964184246	 271158.
00:10:32  279 280	 1492647032	 239632056	 275448.
00:10:32  280 281	 1492647032	 461328251	 221696.
00:10:32  281 282	 1492647032	 732538886	 271211.
00:10:33  282 283	 1492647033	 7941495	 275402.
00:10:33  283 284	 1492647033	 230489052	 222548.
00:10:33  284 285	 1492647033	 501751949	 271263.
00:10:33  285 286	 1492647033	 777138249	 275386.
00:10:34  286 287	 1492647034	 49234523	 272096.
00:10:34  287 288	 1492647034	 276225237	 226991.
00:10:34  288 289	 1492647034	 547761136	 271536.
00:10:34  289 290	 1492647034	 819405360	 271644.
00:10:35  290 291	 1492647035	 90999641	 271594.
00:10:35  291 292	 1492647035	 366735800	 275736.
00:10:35  292 293	 1492647035	 638959603	 272224.
00:10:35  293 294	 1492647035	 862063498	 223104.
00:10:36  294 295	 1492647036	 138373273	 276310.
00:10:36  295 296	 1492647036	 409998924	 271626.
00:10:36  296 297	 1492647036	 685831214	 275832.
00:10:36  297 298	 1492647036	 957747849	 271916.
00:10:37  298 299	 1492647037	 233648153	 275901.
00:10:37  299 300	 1492647037	 455797665	 222149.
00:10:37  300 301	 1492647037	 727454523	 271657.
00:10:37  301 302	 1492647038	 3216334	 275762.
00:10:38  302 303	 1492647038	 279100100	 275884.
00:10:38  303 304	 1492647038	 501719517	 222619.
00:10:38  304 305	 1492647038	 773419808	 271700.
00:10:39  305 306	 1492647039	 49340181	 275921.
00:10:39  306 307	 1492647039	 320700063	 271360.
00:10:39  307 308	 1492647039	 543491164	 222791.
00:10:39  308 309	 1492647039	 819311380	 275820.
00:10:40  309 310	 1492647040	 94378979	 275068.
00:10:40  310 311	 1492647040	 366510372	 272131.
00:10:40  311 312	 1492647040	 588666459	 222156.
00:10:40  312 313	 1492647040	 864502700	 275836.
00:10:41  313 314	 1492647041	 135815183	 271313.
00:10:41  314 315	 1492647041	 358578145	 222763.
00:10:41  315 316	 1492647041	 634533394	 275955.
00:10:41  316 317	 1492647041	 906263409	 271730.
00:10:42  317 318	 1492647042	 181527787	 275264.
00:10:42  318 319	 1492647042	 404130888	 222604.
00:10:42  319 320	 1492647042	 675909722	 271778.
00:10:42  320 321	 1492647042	 951471625	 275562.
00:10:43  321 322	 1492647043	 223281883	 271811.
00:10:43  322 323	 1492647043	 499012539	 275730.
00:10:43  323 324	 1492647043	 721790532	 222778.
00:10:43  324 325	 1492647043	 993042221	 271252.
00:10:44  325 326	 1492647044	 268564948	 275523.
00:10:44  326 327	 1492647044	 490664506	 222099.
00:10:44  327 328	 1492647044	 766250834	 275587.
00:10:44  328 329	 1492647044	 984037731	 217786.
00:10:45  329 330	 1492647045	 259374643	 275337.
00:10:45  330 331	 1492647045	 530824810	 271450.
00:10:45  331 332	 1492647045	 806823223	 275999.
00:10:46  332 333	 1492647046	 78381287	 271558.
00:10:46  333 334	 1492647046	 304539738	 226158.
00:10:46  334 335	 1492647046	 576306727	 271767.
00:10:46  335 336	 1492647046	 848453438	 272147.
00:10:47  336 337	 1492647047	 124424231	 275971.
00:10:47  337 338	 1492647047	 347233305	 222809.
00:10:47  338 339	 1492647047	 622622477	 275389.
00:10:47  339 340	 1492647047	 894272337	 271650.
00:10:48  340 341	 1492647048	 169846495	 275574.
00:10:48  341 342	 1492647048	 392407995	 222562.
00:10:48  342 343	 1492647048	 667855866	 275448.
00:10:48  343 344	 1492647048	 939533066	 271677.
00:10:49  344 345	 1492647049	 161837451	 222304.
00:10:49  345 346	 1492647049	 437414197	 275577.
00:10:49  346 347	 1492647049	 708703790	 271289.
00:10:49  347 348	 1492647049	 984292987	 275590.
00:10:50  348 349	 1492647050	 207305399	 223012.
00:10:50  349 350	 1492647050	 483041042	 275736.
00:10:50  350 351	 1492647050	 753709888	 270669.
00:10:50  351 352	 1492647050	 976048139	 222338.
00:10:51  352 353	 1492647051	 251564835	 275516.
00:10:51  353 354	 1492647051	 522702363	 271138.
00:10:51  354 355	 1492647051	 745483075	 222781.
00:10:52  355 356	 1492647052	 20638348	 275155.
00:10:52  356 357	 1492647052	 291961435	 271323.
00:10:52  357 358	 1492647052	 513910914	 221950.
00:10:52  358 359	 1492647052	 789633338	 275722.
00:10:53  359 360	 1492647053	 60728027	 271095.
00:10:53  360 361	 1492647053	 282998469	 222270.
00:10:53  361 362	 1492647053	 558215313	 275217.
00:10:53  362 363	 1492647053	 829275190	 271060.
00:10:54  363 364	 1492647054	 51841050	 222566.
00:10:54  364 365	 1492647054	 327586131	 275745.
00:10:54  365 366	 1492647054	 598999710	 271413.
00:10:54  366 367	 1492647054	 875056269	 276057.
00:10:55  367 368	 1492647055	 97117902	 222062.
00:10:55  368 369	 1492647055	 372113018	 274995.
00:10:55  369 370	 1492647055	 594205370	 222092.
00:10:55  370 371	 1492647055	 865549239	 271344.
00:10:56  371 372	 1492647056	 140877893	 275329.
00:10:56  372 373	 1492647056	 363057574	 222179.
00:10:56  373 374	 1492647056	 634465152	 271408.
00:10:56  374 375	 1492647056	 909564179	 275099.
00:10:57  375 376	 1492647057	 131444392	 221880.
00:10:57  376 377	 1492647057	 402475723	 271031.
00:10:57  377 378	 1492647057	 678144722	 275669.
00:10:57  378 379	 1492647057	 949608042	 271464.
00:10:58  379 380	 1492647058	 171943574	 222335.
00:10:58  380 381	 1492647058	 447478464	 275535.
00:10:58  381 382	 1492647058	 718765449	 271287.
00:10:58  382 383	 1492647058	 941417801	 222652.
00:10:59  383 384	 1492647059	 216990501	 275573.
00:10:59  384 385	 1492647059	 492832848	 275843.
00:10:59  385 386	 1492647059	 764162278	 271329.
00:10:59  386 387	 1492647059	 986590631	 222428.
00:11:00  387 388	 1492647060	 262389320	 275799.
00:11:00  388 389	 1492647060	 535234769	 272845.
00:11:00  389 390	 1492647060	 807500849	 272266.
00:11:01  390 391	 1492647061	 82423972	 274924.
00:11:01  391 392	 1492647061	 353907509	 271483.
00:11:01  392 393	 1492647061	 629235850	 275329.
00:11:01  393 394	 1492647061	 900863232	 271627.
00:11:02  394 395	 1492647062	 123154793	 222291.
00:11:02  395 396	 1492647062	 394254091	 271100.
00:11:02  396 397	 1492647062	 664845509	 270591.
00:11:02  397 398	 1492647062	 939412867	 274568.
00:11:03  398 399	 1492647063	 210130589	 270717.
00:11:03  399 400	 1492647063	 432378404	 222248.
00:11:03  400 401	 1492647063	 703816484	 271438.
00:11:03  401 402	 1492647063	 975312500	 271496.
00:11:04  402 403	 1492647064	 247249362	 271937.
00:11:04  403 404	 1492647064	 523384200	 276135.
00:11:04  404 405	 1492647064	 795519748	 272135.
00:11:05  405 406	 1492647065	 70675921	 275157.
00:11:05  406 407	 1492647065	 342247415	 271571.
00:11:05  407 408	 1492647065	 614177992	 271931.
00:11:05  408 409	 1492647065	 889970128	 275792.
00:11:06  409 410	 1492647066	 112263485	 222293.
00:11:06  410 411	 1492647066	 383901892	 271639.
00:11:06  411 412	 1492647066	 659089746	 275187.
00:11:06  412 413	 1492647066	 881708353	 222619.
00:11:07  413 414	 1492647067	 152668547	 270960.
00:11:07  414 415	 1492647067	 428100975	 275433.
00:11:07  415 416	 1492647067	 699822559	 271721.
00:11:07  416 417	 1492647067	 926792975	 226971.
00:11:08  417 418	 1492647068	 198285880	 271493.
00:11:08  418 419	 1492647068	 474155278	 275869.
00:11:08  419 420	 1492647068	 746125527	 271970.
00:11:09  420 421	 1492647069	 18223010	 272098.
00:11:09  421 422	 1492647069	 241161890	 222939.
00:11:09  422 423	 1492647069	 516749418	 275587.
00:11:09  423 424	 1492647069	 788310748	 271561.
00:11:10  424 425	 1492647070	 64055776	 275745.
00:11:10  425 426	 1492647070	 286236193	 222181.
00:11:10  426 427	 1492647070	 561778105	 275542.
00:11:10  427 428	 1492647070	 833521579	 271743.
00:11:11  428 429	 1492647071	 56143627	 222622.
00:11:11  429 430	 1492647071	 331283439	 275140.
00:11:11  430 431	 1492647071	 602920489	 271637.
00:11:11  431 432	 1492647071	 825154043	 222234.
00:11:12  432 433	 1492647072	 100996922	 275843.
00:11:12  433 434	 1492647072	 372057158	 271060.
00:11:12  434 435	 1492647072	 593845693	 221788.
00:11:12  435 436	 1492647072	 864974020	 271129.
00:11:13  436 437	 1492647073	 141085740	 276111.
00:11:13  437 438	 1492647073	 413097840	 272013.
00:11:13  438 439	 1492647073	 689365878	 276268.
00:11:13  439 440	 1492647073	 961574811	 272208.
00:11:14  440 441	 1492647074	 237882094	 276308.
00:11:14  441 442	 1492647074	 509779579	 271897.
00:11:14  442 443	 1492647074	 731992983	 222214.
00:11:15  443 444	 1492647075	 7078877	 275086.
00:11:15  444 445	 1492647075	 278176304	 271097.
00:11:15  445 446	 1492647075	 500319839	 222143.
00:11:15  446 447	 1492647075	 772056009	 271737.
00:11:16  447 448	 1492647076	 47572771	 275516.
00:11:16  448 449	 1492647076	 323260563	 275688.
00:11:16  449 450	 1492647076	 545652394	 222392.
00:11:16  450 451	 1492647076	 817054440	 271402.
00:11:17  451 452	 1492647077	 92944333	 275890.
00:11:17  452 453	 1492647077	 364377337	 271433.
00:11:17  453 454	 1492647077	 586913716	 222536.
00:11:17  454 455	 1492647077	 861315011	 274402.
00:11:18  455 456	 1492647078	 132352625	 271037.
00:11:18  456 457	 1492647078	 404515510	 272163.
00:11:18  457 458	 1492647078	 681227831	 276713.
00:11:18  458 459	 1492647078	 953576924	 272349.
00:11:19  459 460	 1492647079	 229807803	 276231.
00:11:19  460 461	 1492647079	 502081522	 272273.
00:11:19  461 462	 1492647079	 778043566	 275962.
00:11:19  462 463	 1492647080	 645004	 222602.
00:11:20  463 464	 1492647080	 271988406	 271343.
00:11:20  464 465	 1492647080	 543625774	 271637.
00:11:20  465 466	 1492647080	 818721694	 275096.
00:11:21  466 467	 1492647081	 89891620	 271170.
00:11:21  467 468	 1492647081	 311833834	 221943.
00:11:21  468 469	 1492647081	 582818058	 270984.
00:11:21  469 470	 1492647081	 854337121	 271519.
00:11:22  470 471	 1492647082	 129907449	 275570.
00:11:22  471 472	 1492647082	 400920467	 271013.
00:11:22  472 473	 1492647082	 622709192	 221789.
00:11:22  473 474	 1492647082	 898365803	 275657.
00:11:23  474 475	 1492647083	 168688222	 270322.
00:11:23  475 476	 1492647083	 389949795	 221261.
00:11:23  476 477	 1492647083	 660921041	 270972.
00:11:23  477 478	 1492647083	 935809234	 274888.
00:11:24  478 479	 1492647084	 158547148	 222738.
00:11:24  479 480	 1492647084	 429559468	 271012.
00:11:24  480 481	 1492647084	 705382134	 275823.
00:11:24  481 482	 1492647084	 976857384	 271475.
00:11:25  482 483	 1492647085	 252294035	 275437.
00:11:25  483 484	 1492647085	 475335175	 223041.
00:11:25  484 485	 1492647085	 746835814	 271500.
00:11:26  485 486	 1492647086	 17813846	 270979.
00:11:26  486 487	 1492647086	 293533192	 275719.
00:11:26  487 488	 1492647086	 565048591	 271515.
00:11:26  488 489	 1492647086	 841180256	 276132.
00:11:27  489 490	 1492647087	 63396618	 222216.
00:11:27  490 491	 1492647087	 334238304	 270842.
00:11:27  491 492	 1492647087	 605845256	 271607.
00:11:27  492 493	 1492647087	 881104657	 275259.
00:11:28  493 494	 1492647088	 103053112	 221949.
00:11:28  494 495	 1492647088	 374339008	 271286.
00:11:28  495 496	 1492647088	 649988511	 275649.
00:11:28  496 497	 1492647088	 921309296	 271321.
00:11:29  497 498	 1492647089	 193062470	 271753.
00:11:29  498 499	 1492647089	 414889530	 221827.
00:11:29  499 500	 1492647089	 690448955	 275560.
00:11:29  500 501	 1492647089	 962435118	 271986.
00:11:30  501 502	 1492647090	 238192716	 275757.
00:11:30  502 503	 1492647090	 509820972	 271629.
00:11:30  503 504	 1492647090	 781158185	 271337.
00:11:30  504 505	 1492647091	 3684229	 222526.
00:11:31  505 506	 1492647091	 279514222	 275830.
00:11:31  506 507	 1492647091	 550610945	 271097.
00:11:31  507 508	 1492647091	 825607537	 274996.
00:11:32  508 509	 1492647092	 47596861	 221990.
00:11:32  509 510	 1492647092	 318545910	 270949.
00:11:32  510 511	 1492647092	 590135793	 271589.
00:11:32  511 512	 1492647092	 866222221	 276087.
00:11:33  512 513	 1492647093	 88785464	 222563.
00:11:33  513 514	 1492647093	 360400851	 271616.
00:11:33  514 515	 1492647093	 631062841	 270661.
00:11:33  515 516	 1492647093	 905155330	 274093.
00:11:34  516 517	 1492647094	 127620942	 222466.
00:11:34  517 518	 1492647094	 399153017	 271532.
00:11:34  518 519	 1492647094	 674965604	 275812.
00:11:34  519 520	 1492647094	 946478163	 271513.
00:11:35  520 521	 1492647095	 217407342	 270929.
00:11:35  521 522	 1492647095	 440050283	 222643.
00:11:35  522 523	 1492647095	 715873241	 275823.
00:11:35  523 524	 1492647095	 991631066	 275758.
00:11:36  524 525	 1492647096	 263153533	 271522.
00:11:36  525 526	 1492647096	 485281061	 222128.
00:11:36  526 527	 1492647096	 756664007	 271383.
00:11:37  527 528	 1492647097	 32516954	 275853.
00:11:37  528 529	 1492647097	 303838223	 271321.
00:11:37  529 530	 1492647097	 526011605	 222173.
00:11:37  530 531	 1492647097	 796695989	 270685.
00:11:38  531 532	 1492647098	 71531861	 274835.
00:11:38  532 533	 1492647098	 343432211	 271901.
00:11:38  533 534	 1492647098	 619100984	 275669.
00:11:38  534 535	 1492647098	 841476477	 222375.
00:11:39  535 536	 1492647099	 116349897	 274874.
00:11:39  536 537	 1492647099	 388742487	 272392.
00:11:39  537 538	 1492647099	 602791231	 214049.
00:11:39  538 539	 1492647099	 874469859	 271679.
00:11:40  539 540	 1492647100	 149698360	 275228.
00:11:40  540 541	 1492647100	 420919305	 271221.
00:11:40  541 542	 1492647100	 647096905	 226178.
00:11:40  542 543	 1492647100	 918537669	 271440.
00:11:41  543 544	 1492647101	 190001789	 271464.
00:11:41  544 545	 1492647101	 412093796	 222092.
00:11:41  545 546	 1492647101	 686960705	 274867.
00:11:41  546 547	 1492647101	 957933023	 270973.
00:11:42  547 548	 1492647102	 228150752	 270217.
00:11:42  548 549	 1492647102	 450338728	 222188.
00:11:42  549 550	 1492647102	 725436109	 275098.
00:11:42  550 551	 1492647102	 996743139	 271307.
00:11:43  551 552	 1492647103	 267505385	 270762.
00:11:43  552 553	 1492647103	 538369511	 270864.
00:11:43  553 554	 1492647103	 813456067	 275087.
00:11:44  554 555	 1492647104	 35753019	 222297.
00:11:44  555 556	 1492647104	 306489581	 270736.
00:11:44  556 557	 1492647104	 577472607	 270983.
00:11:44  557 558	 1492647104	 852737558	 275265.
00:11:45  558 559	 1492647105	 70469533	 217732.
00:11:45  559 560	 1492647105	 345503570	 275034.
00:11:45  560 561	 1492647105	 616273384	 270770.
00:11:45  561 562	 1492647105	 886993665	 270720.
00:11:46  562 563	 1492647106	 161736360	 274743.
00:11:46  563 564	 1492647106	 432807797	 271071.
00:11:46  564 565	 1492647106	 654938799	 222131.
00:11:46  565 566	 1492647106	 925751126	 270813.
00:11:47  566 567	 1492647107	 196102708	 270351.
00:11:47  567 568	 1492647107	 417700603	 221598.
00:11:47  568 569	 1492647107	 692496427	 274796.
00:11:47  569 570	 1492647107	 963669786	 271173.
00:11:48  570 571	 1492647108	 238278930	 274610.
00:11:48  571 572	 1492647108	 456195073	 217916.
00:11:48  572 573	 1492647108	 731208260	 275013.
00:11:49  573 574	 1492647109	 6323007	 275115.
00:11:49  574 575	 1492647109	 228546129	 222223.
00:11:49  575 576	 1492647109	 499793094	 271247.
00:11:49  576 577	 1492647109	 775810814	 276018.
00:11:49  577 578	 1492647109	 998060225	 222249.
00:11:50  578 579	 1492647110	 269692911	 271633.
00:11:50  579 580	 1492647110	 544857485	 275164.
00:11:50  580 581	 1492647110	 767388794	 222531.
00:11:51  581 582	 1492647111	 38593926	 271206.
00:11:51  582 583	 1492647111	 314316619	 275722.
00:11:51  583 584	 1492647111	 536452536	 222136.
00:11:51  584 585	 1492647111	 811943195	 275491.
00:11:52  585 586	 1492647112	 83206463	 271263.
00:11:52  586 587	 1492647112	 359216750	 276010.
00:11:52  587 588	 1492647112	 581349373	 222133.
00:11:52  588 589	 1492647112	 852872068	 271523.
00:11:53  589 590	 1492647113	 75236856	 222364.
00:11:53  590 591	 1492647113	 351041724	 275805.
00:11:53  591 592	 1492647113	 622379984	 271339.
00:11:53  592 593	 1492647113	 898678659	 276298.
00:11:54  593 594	 1492647114	 170568841	 271890.
00:11:54  594 595	 1492647114	 393119407	 222551.
00:11:54  595 596	 1492647114	 669002023	 275883.
00:11:54  596 597	 1492647114	 940802329	 271800.
00:11:55  597 598	 1492647115	 216384742	 275582.
00:11:55  598 599	 1492647115	 438873827	 222490.
00:11:55  599 600	 1492647115	 710324411	 271450.
00:11:55  600 601	 1492647115	 986321291	 275997.
00:11:56  601 602	 1492647116	 262628597	 276307.
00:11:56  602 603	 1492647116	 534578278	 271950.
00:11:56  603 604	 1492647116	 757089733	 222511.
00:11:57  604 605	 1492647117	 33231355	 276142.
00:11:57  605 606	 1492647117	 309198964	 275968.
00:11:57  606 607	 1492647117	 581013503	 271814.
00:11:57  607 608	 1492647117	 857142072	 276129.
00:11:58  608 609	 1492647118	 80111670	 222969.
00:11:58  609 610	 1492647118	 351491492	 271380.
00:11:58  610 611	 1492647118	 627004090	 275513.
00:11:58  611 612	 1492647118	 849477750	 222473.
00:11:59  612 613	 1492647119	 124992908	 275516.
00:11:59  613 614	 1492647119	 396494612	 271501.
00:11:59  614 615	 1492647119	 672432697	 275938.
00:11:59  615 616	 1492647119	 944182843	 271750.
00:12:00  616 617	 1492647120	 166960737	 222778.
00:12:00  617 618	 1492647120	 443781385	 276821.
00:12:00  618 619	 1492647120	 716235466	 272454.
00:12:00  619 620	 1492647120	 992161872	 275927.
00:12:01  620 621	 1492647121	 263162155	 271000.
00:12:01  621 622	 1492647121	 538468241	 275306.
00:12:01  622 623	 1492647121	 809418731	 270950.
00:12:02  623 624	 1492647122	 31482812	 222065.
00:12:02  624 625	 1492647122	 302472777	 270989.
00:12:02  625 626	 1492647122	 573504524	 271032.
00:12:02  626 627	 1492647122	 844676456	 271172.
00:12:03  627 628	 1492647123	 115937051	 271261.
00:12:03  628 629	 1492647123	 391216837	 275279.
00:12:03  629 630	 1492647123	 662230168	 271014.
00:12:03  630 631	 1492647123	 884595603	 222365.
00:12:04  631 632	 1492647124	 155625760	 271030.
00:12:04  632 633	 1492647124	 430679600	 275054.
00:12:04  633 634	 1492647124	 702641894	 271963.
00:12:04  634 635	 1492647124	 973494425	 270852.
00:12:05  635 636	 1492647125	 244469040	 270975.
00:12:05  636 637	 1492647125	 519443907	 274975.
00:12:05  637 638	 1492647125	 741832419	 222388.
00:12:06  638 639	 1492647126	 13156886	 271325.
00:12:06  639 640	 1492647126	 284493566	 271336.
00:12:06  640 641	 1492647126	 559073638	 274580.
00:12:06  641 642	 1492647126	 830161004	 271088.
00:12:07  642 643	 1492647127	 100747675	 270586.
00:12:07  643 644	 1492647127	 322619657	 221872.
00:12:07  644 645	 1492647127	 593807497	 271188.
00:12:07  645 646	 1492647127	 864678445	 270871.
00:12:08  646 647	 1492647128	 139604536	 274926.
00:12:08  647 648	 1492647128	 411066916	 271463.
00:12:08  648 649	 1492647128	 633915011	 222848.
00:12:08  649 650	 1492647128	 910103314	 276188.
00:12:09  650 651	 1492647129	 181359453	 271256.
00:12:09  651 652	 1492647129	 452053667	 270694.
00:12:09  652 653	 1492647129	 722552904	 270500.
00:12:09  653 654	 1492647129	 997581204	 275028.
00:12:10  654 655	 1492647130	 216211710	 218630.
00:12:10  655 656	 1492647130	 491979098	 275768.
00:12:10  656 657	 1492647130	 763612548	 271633.
00:12:11  657 658	 1492647131	 34599777	 270987.
00:12:11  658 659	 1492647131	 309746811	 275148.
00:12:11  659 660	 1492647131	 580354859	 270608.
00:12:11  660 661	 1492647131	 851580459	 271225.
00:12:12  661 662	 1492647132	 122483797	 270903.
00:12:12  662 663	 1492647132	 397255624	 274772.
00:12:12  663 664	 1492647132	 619340398	 222085.
00:12:12  664 665	 1492647132	 890404845	 271065.
00:12:13  665 666	 1492647133	 161288519	 270883.
00:12:13  666 667	 1492647133	 431754222	 270466.
00:12:13  667 668	 1492647133	 706615729	 274861.
00:12:13  668 669	 1492647133	 928217269	 221602.
00:12:14  669 670	 1492647134	 198336462	 270119.
00:12:14  670 671	 1492647134	 469626226	 271290.
00:12:14  671 672	 1492647134	 744862722	 275236.
00:12:14  672 673	 1492647134	 962411899	 217550.
00:12:15  673 674	 1492647135	 237373487	 274961.
00:12:15  674 675	 1492647135	 508817561	 271444.
00:12:15  675 676	 1492647135	 779913338	 271096.
00:12:16  676 677	 1492647136	 54942334	 275029.
00:12:16  677 678	 1492647136	 276950677	 222008.
00:12:16  678 679	 1492647136	 547424108	 270474.
00:12:16  679 680	 1492647136	 818534600	 271110.
00:12:17  680 681	 1492647137	 88933485	 270399.
00:12:17  681 682	 1492647137	 310486355	 221553.
00:12:17  682 683	 1492647137	 585599424	 275113.
00:12:17  683 684	 1492647137	 856448315	 270849.
00:12:18  684 685	 1492647138	 127401133	 270953.
00:12:18  685 686	 1492647138	 348828149	 221427.
00:12:18  686 687	 1492647138	 623638107	 274810.
00:12:18  687 688	 1492647138	 894909797	 271271.
00:12:19  688 689	 1492647139	 169566464	 274657.
00:12:19  689 690	 1492647139	 440565372	 270999.
00:12:19  690 691	 1492647139	 658511840	 217946.
00:12:19  691 692	 1492647139	 933630122	 275119.
00:12:20  692 693	 1492647140	 204690712	 271060.
00:12:20  693 694	 1492647140	 475711477	 271021.
00:12:20  694 695	 1492647140	 751248789	 275538.
00:12:20  695 696	 1492647140	 973553308	 222304.
00:12:21  696 697	 1492647141	 244851881	 271299.
00:12:21  697 698	 1492647141	 519658926	 274807.
00:12:21  698 699	 1492647141	 790852569	 271193.
00:12:22  699 700	 1492647142	 62263155	 271411.
00:12:22  700 701	 1492647142	 337456499	 275193.
00:12:22  701 702	 1492647142	 554774397	 217318.
00:12:22  702 703	 1492647142	 829701094	 274927.
00:12:23  703 704	 1492647143	 101018839	 271318.
00:12:23  704 705	 1492647143	 375984369	 274965.
00:12:23  705 706	 1492647143	 593459463	 217475.
00:12:23  706 707	 1492647143	 864127021	 270668.
00:12:24  707 708	 1492647144	 138460470	 274333.
00:12:24  708 709	 1492647144	 360676355	 222216.
00:12:24  709 710	 1492647144	 631493888	 270818.
00:12:24  710 711	 1492647144	 902442243	 270948.
00:12:25  711 712	 1492647145	 173619437	 271177.
00:12:25  712 713	 1492647145	 448306988	 274688.
00:12:25  713 714	 1492647145	 670593962	 222287.
00:12:25  714 715	 1492647145	 941900939	 271307.
00:12:26  715 716	 1492647146	 213435528	 271534.
00:12:26  716 717	 1492647146	 484355750	 270920.
00:12:26  717 718	 1492647146	 759563510	 275208.
00:12:27  718 719	 1492647147	 30370880	 270808.
00:12:27  719 720	 1492647147	 252073302	 221702.
00:12:27  720 721	 1492647147	 522309222	 270236.
00:12:27  721 722	 1492647147	 792762942	 270454.
00:12:28  722 723	 1492647148	 14268854	 221506.
00:12:28  723 724	 1492647148	 288944909	 274676.
00:12:28  724 725	 1492647148	 560457938	 271513.
00:12:28  725 726	 1492647148	 831454369	 270996.
00:12:29  726 727	 1492647149	 101799202	 270345.
00:12:29  727 728	 1492647149	 376847880	 275049.
00:12:29  728 729	 1492647149	 594617476	 217769.
00:12:29  729 730	 1492647149	 869136794	 274519.
00:12:30  730 731	 1492647150	 139427157	 270291.
00:12:30  731 732	 1492647150	 410600274	 271173.
00:12:30  732 733	 1492647150	 681888037	 271288.
00:12:30  733 734	 1492647150	 957306305	 275418.
00:12:31  734 735	 1492647151	 228658810	 271353.
00:12:31  735 736	 1492647151	 451178001	 222519.
00:12:31  736 737	 1492647151	 722200967	 271023.
00:12:31  737 738	 1492647151	 997554548	 275353.
00:12:32  738 739	 1492647152	 268629950	 271076.
00:12:32  739 740	 1492647152	 539583681	 270953.
00:12:32  740 741	 1492647152	 810581404	 270998.
00:12:33  741 742	 1492647153	 85891324	 275310.
00:12:33  742 743	 1492647153	 357120416	 271229.
00:12:33  743 744	 1492647153	 627948935	 270829.
00:12:33  744 745	 1492647153	 850025510	 222076.
00:12:34  745 746	 1492647154	 120705423	 270680.
00:12:34  746 747	 1492647154	 391717281	 271012.
00:12:34  747 748	 1492647154	 662720073	 271003.
00:12:34  748 749	 1492647154	 937839690	 275119.
00:12:35  749 750	 1492647155	 208861502	 271022.
00:12:35  750 751	 1492647155	 431248169	 222387.
00:12:35  751 752	 1492647155	 702552752	 271304.
00:12:35  752 753	 1492647155	 973517714	 270965.
00:12:36  753 754	 1492647156	 248869813	 275353.
00:12:36  754 755	 1492647156	 520511328	 271641.
00:12:36  755 756	 1492647156	 792996618	 272485.
00:12:37  756 757	 1492647157	 69297266	 276301.
00:12:37  757 758	 1492647157	 340937352	 271640.
00:12:37  758 759	 1492647157	 616898128	 275961.
00:12:37  759 760	 1492647157	 839915472	 223017.
00:12:38  760 761	 1492647158	 115882222	 275967.
00:12:38  761 762	 1492647158	 387306091	 271424.
00:12:38  762 763	 1492647158	 658672910	 271367.
00:12:38  763 764	 1492647158	 934659396	 275986.
00:12:39  764 765	 1492647159	 205976364	 271317.
00:12:39  765 766	 1492647159	 428618202	 222642.
00:12:39  766 767	 1492647159	 699893716	 271275.
00:12:39  767 768	 1492647159	 975253416	 275360.
00:12:40  768 769	 1492647160	 246966140	 271713.
00:12:40  769 770	 1492647160	 523397876	 276432.
00:12:40  770 771	 1492647160	 796040040	 272642.
00:12:41  771 772	 1492647161	 68230870	 272191.
00:12:41  772 773	 1492647161	 344790305	 276559.
00:12:41  773 774	 1492647161	 617194170	 272404.
00:12:41  774 775	 1492647161	 893798652	 276604.
00:12:42  775 776	 1492647162	 165518444	 271720.
00:12:42  776 777	 1492647162	 441606985	 276089.
00:12:42  777 778	 1492647162	 713510280	 271903.
00:12:42  778 779	 1492647162	 936611086	 223101.
00:12:43  779 780	 1492647163	 213079486	 276468.
00:12:43  780 781	 1492647163	 485305950	 272227.
00:12:43  781 782	 1492647163	 761170977	 275865.
00:12:44  782 783	 1492647164	 32812286	 271641.
00:12:44  783 784	 1492647164	 308567619	 275755.
00:12:44  784 785	 1492647164	 531355935	 222789.
00:12:44  785 786	 1492647164	 803131778	 271775.
00:12:45  786 787	 1492647165	 74143686	 271012.
00:12:45  787 788	 1492647165	 349391515	 275248.
00:12:45  788 789	 1492647165	 572084739	 222693.
00:12:45  789 790	 1492647165	 842913848	 270830.
00:12:46  790 791	 1492647166	 118321028	 275407.
00:12:46  791 792	 1492647166	 389861278	 271540.
00:12:46  792 793	 1492647166	 612724075	 222863.
00:12:46  793 794	 1492647166	 888351415	 275627.
00:12:47  794 795	 1492647167	 159865975	 271515.
00:12:47  795 796	 1492647167	 435626222	 275760.
00:12:47  796 797	 1492647167	 658212708	 222586.
00:12:47  797 798	 1492647167	 929831089	 271619.
00:12:48  798 799	 1492647168	 205185233	 275354.
00:12:48  799 800	 1492647168	 476997391	 271812.
00:12:48  800 801	 1492647168	 699815993	 222819.
00:12:48  801 802	 1492647168	 975760812	 275944.
00:12:49  802 803	 1492647169	 247242985	 271483.
00:12:49  803 804	 1492647169	 522819718	 275576.
00:12:49  804 805	 1492647169	 794059968	 271241.
00:12:50  805 806	 1492647170	 65066313	 271006.
00:12:50  806 807	 1492647170	 340072582	 275006.
00:12:50  807 808	 1492647170	 557974264	 217902.
00:12:50  808 809	 1492647170	 832918340	 274944.
00:12:51  809 810	 1492647171	 103486785	 270568.
00:12:51  810 811	 1492647171	 374429498	 270943.
00:12:51  811 812	 1492647171	 649250900	 274822.
00:12:51  812 813	 1492647171	 871486969	 222236.
00:12:52  813 814	 1492647172	 143057076	 271570.
00:12:52  814 815	 1492647172	 413973555	 270916.
00:12:52  815 816	 1492647172	 689386636	 275413.
00:12:52  816 817	 1492647172	 960767750	 271381.
00:12:53  817 818	 1492647173	 236010026	 275243.
00:12:53  818 819	 1492647173	 454047806	 218037.
00:12:53  819 820	 1492647173	 729677003	 275630.
00:12:54  820 821	 1492647174	 1183445	 271506.
00:12:54  821 822	 1492647174	 276286478	 275103.
00:12:54  822 823	 1492647174	 498913246	 222627.
00:12:54  823 824	 1492647174	 770656998	 271744.
00:12:55  824 825	 1492647175	 46635026	 275978.
00:12:55  825 826	 1492647175	 321707111	 275072.
00:12:55  826 827	 1492647175	 543932212	 222225.
00:12:55  827 828	 1492647175	 815106535	 271174.
00:12:56  828 829	 1492647176	 87038542	 271932.
00:12:56  829 830	 1492647176	 362994928	 275957.
00:12:56  830 831	 1492647176	 585206599	 222211.
00:12:56  831 832	 1492647176	 860114926	 274909.
00:12:57  832 833	 1492647177	 130693231	 270578.
00:12:57  833 834	 1492647177	 352863212	 222170.
00:12:57  834 835	 1492647177	 627989767	 275126.
00:12:57  835 836	 1492647177	 899737771	 271748.
00:12:58  836 837	 1492647178	 175296772	 275560.
00:12:58  837 838	 1492647178	 398321934	 223025.
00:12:58  838 839	 1492647178	 669881594	 271559.
00:12:58  839 840	 1492647178	 945469947	 275589.
00:12:59  840 841	 1492647179	 217254810	 271785.
00:12:59  841 842	 1492647179	 439613962	 222359.
00:12:59  842 843	 1492647179	 715154055	 275540.
00:12:59  843 844	 1492647179	 986833295	 271679.
00:13:00  844 845	 1492647180	 257600001	 270767.
00:13:00  845 846	 1492647180	 532557492	 274957.
00:13:00  846 847	 1492647180	 750577882	 218021.
00:13:01  847 848	 1492647181	 25715434	 275137.
00:13:01  848 849	 1492647181	 296829792	 271115.
00:13:01  849 850	 1492647181	 567900576	 271070.
00:13:01  850 851	 1492647181	 843181804	 275281.
00:13:02  851 852	 1492647182	 114466705	 271285.
00:13:02  852 853	 1492647182	 386141924	 271676.
00:13:02  853 854	 1492647182	 657021068	 270879.
00:13:02  854 855	 1492647182	 931966974	 274946.
00:13:03  855 856	 1492647183	 153863513	 221896.
00:13:03  856 857	 1492647183	 425155534	 271292.
00:13:03  857 858	 1492647183	 696169324	 271014.
00:13:03  858 859	 1492647183	 967159188	 270990.
00:13:04  859 860	 1492647184	 238567172	 271408.
00:13:04  860 861	 1492647184	 513856483	 275289.
00:13:04  861 862	 1492647184	 785307002	 271451.
00:13:05  862 863	 1492647185	 56810365	 271503.
00:13:05  863 864	 1492647185	 332170426	 275360.
00:13:05  864 865	 1492647185	 550374571	 218204.
00:13:05  865 866	 1492647185	 825755606	 275381.
00:13:06  866 867	 1492647186	 97688113	 271933.
00:13:06  867 868	 1492647186	 373530585	 275842.
00:13:06  868 869	 1492647186	 645184797	 271654.
00:13:06  869 870	 1492647186	 920747351	 275563.
00:13:07  870 871	 1492647187	 196043320	 275296.
00:13:07  871 872	 1492647187	 413970572	 217927.
00:13:07  872 873	 1492647187	 689355148	 275385.
00:13:07  873 874	 1492647187	 964455054	 275100.
00:13:08  874 875	 1492647188	 235820126	 271365.
00:13:08  875 876	 1492647188	 457897441	 222077.
00:13:08  876 877	 1492647188	 732939698	 275042.
00:13:09  877 878	 1492647189	 4848510	 271909.
00:13:09  878 879	 1492647189	 280513558	 275665.
00:13:09  879 880	 1492647189	 552044599	 271531.
00:13:09  880 881	 1492647189	 775000628	 222956.
00:13:10  881 882	 1492647190	 50717461	 275717.
00:13:10  882 883	 1492647190	 322155677	 271438.
00:13:10  883 884	 1492647190	 597769511	 275614.
00:13:10  884 885	 1492647190	 869901567	 272132.
00:13:11  885 886	 1492647191	 145560861	 275660.
00:13:11  886 887	 1492647191	 367978078	 222417.
00:13:11  887 888	 1492647191	 639733241	 271755.
00:13:11  888 889	 1492647191	 915168310	 275435.
00:13:12  889 890	 1492647192	 186672113	 271504.
00:13:12  890 891	 1492647192	 458230891	 271559.
00:13:12  891 892	 1492647192	 733448201	 275217.
00:13:13  892 893	 1492647193	 5085729	 271637.
00:13:13  893 894	 1492647193	 227654923	 222570.
00:13:13  894 895	 1492647193	 503795218	 276140.
00:13:13  895 896	 1492647193	 776199097	 272404.
00:13:14  896 897	 1492647194	 52828532	 276629.
00:13:14  897 898	 1492647194	 325247731	 272419.
00:13:14  898 899	 1492647194	 601644262	 276397.
00:13:14  899 900	 1492647194	 873925731	 272281.
00:13:15  900 901	 1492647195	 145763178	 271838.
00:13:15  901 902	 1492647195	 421828005	 276065.
00:13:15  902 903	 1492647195	 693963508	 272135.
00:13:15  903 904	 1492647195	 969696010	 275733.
00:13:16  904 905	 1492647196	 241366439	 271670.
00:13:16  905 906	 1492647196	 464139109	 222773.
00:13:16  906 907	 1492647196	 739565380	 275426.
00:13:17  907 908	 1492647197	 10347816	 270783.
00:13:17  908 909	 1492647197	 281393591	 271045.
00:13:17  909 910	 1492647197	 556332510	 274939.
00:13:17  910 911	 1492647197	 778701327	 222369.
00:13:18  911 912	 1492647198	 49660895	 270960.
00:13:18  912 913	 1492647198	 324924560	 275263.
00:13:18  913 914	 1492647198	 546557884	 221634.
00:13:18  914 915	 1492647198	 818018577	 271460.
00:13:19  915 916	 1492647199	 93396307	 275378.
00:13:19  916 917	 1492647199	 364537470	 271141.
00:13:19  917 918	 1492647199	 636290029	 271753.
00:13:19  918 919	 1492647199	 862766314	 226476.
00:13:20  919 920	 1492647200	 134206759	 271440.
00:13:20  920 921	 1492647200	 404649525	 270443.
00:13:20  921 922	 1492647200	 626765287	 222116.
00:13:20  922 923	 1492647200	 902056805	 275292.
00:13:21  923 924	 1492647201	 173398514	 271341.
00:13:21  924 925	 1492647201	 444185108	 270787.
00:13:21  925 926	 1492647201	 670573387	 226388.
00:13:21  926 927	 1492647201	 942207543	 271634.
00:13:22  927 928	 1492647202	 213724443	 271517.
00:13:22  928 929	 1492647202	 488800892	 275077.
00:13:22  929 930	 1492647202	 710912187	 222111.
00:13:22  930 931	 1492647202	 982499019	 271587.
00:13:23  931 932	 1492647203	 257861977	 275363.
00:13:23  932 933	 1492647203	 528934873	 271073.
00:13:23  933 934	 1492647203	 751512806	 222577.
00:13:24  934 935	 1492647204	 27049563	 275537.
00:13:24  935 936	 1492647204	 298482654	 271433.
00:13:24  936 937	 1492647204	 573628924	 275147.
00:13:24  937 938	 1492647204	 844366808	 270738.
00:13:25  938 939	 1492647205	 65978292	 221611.
00:13:25  939 940	 1492647205	 336379500	 270401.
00:13:25  940 941	 1492647205	 606502322	 270123.
00:13:25  941 942	 1492647205	 827921315	 221419.
00:13:26  942 943	 1492647206	 103452395	 275531.
00:13:26  943 944	 1492647206	 374933699	 271481.
00:13:26  944 945	 1492647206	 646344297	 271411.
00:13:26  945 946	 1492647206	 921359597	 275015.
00:13:27  946 947	 1492647207	 139356316	 217997.
00:13:27  947 948	 1492647207	 414245205	 274889.
00:13:27  948 949	 1492647207	 685170369	 270925.
00:13:27  949 950	 1492647207	 907133924	 221964.
00:13:28  950 951	 1492647208	 182228835	 275095.
00:13:28  951 952	 1492647208	 453690785	 271461.
00:13:28  952 953	 1492647208	 729156394	 275466.
00:13:29  953 954	 1492647209	 1027450	 271871.
00:13:29  954 955	 1492647209	 223541478	 222514.
00:13:29  955 956	 1492647209	 499019819	 275478.
00:13:29  956 957	 1492647209	 770131066	 271112.
00:13:30  957 958	 1492647210	 45699472	 275568.
00:13:30  958 959	 1492647210	 264386282	 218687.
00:13:30  959 960	 1492647210	 539734798	 275348.
00:13:30  960 961	 1492647210	 811612892	 271879.
00:13:31  961 962	 1492647211	 82169137	 270556.
00:13:31  962 963	 1492647211	 357481021	 275312.
00:13:31  963 964	 1492647211	 579715032	 222234.
00:13:31  964 965	 1492647211	 851313259	 271598.
00:13:32  965 966	 1492647212	 126584522	 275271.
00:13:32  966 967	 1492647212	 397141557	 270557.
00:13:32  967 968	 1492647212	 619108969	 221968.
00:13:32  968 969	 1492647212	 890641110	 271532.
00:13:33  969 970	 1492647213	 166287643	 275646.
00:13:33  970 971	 1492647213	 438258307	 271971.
00:13:33  971 972	 1492647213	 713677979	 275420.
00:13:33  972 973	 1492647213	 985913154	 272235.
00:13:34  973 974	 1492647214	 208494276	 222581.
00:13:34  974 975	 1492647214	 479525869	 271032.
00:13:34  975 976	 1492647214	 755112368	 275586.
00:13:35  976 977	 1492647215	 26542032	 271430.
00:13:35  977 978	 1492647215	 249098670	 222556.
00:13:35  978 979	 1492647215	 525580775	 276482.
00:13:35  979 980	 1492647215	 796725229	 271145.
00:13:36  980 981	 1492647216	 68348922	 271624.
00:13:36  981 982	 1492647216	 343603010	 275254.
00:13:36  982 983	 1492647216	 615025603	 271422.
00:13:36  983 984	 1492647216	 837401866	 222377.
00:13:37  984 985	 1492647217	 112167921	 274766.
00:13:37  985 986	 1492647217	 382816673	 270648.
00:13:37  986 987	 1492647217	 604493000	 221677.
00:13:37  987 988	 1492647217	 875364423	 270871.
00:13:38  988 989	 1492647218	 150307372	 274943.
00:13:38  989 990	 1492647218	 368457774	 218150.
00:13:38  990 991	 1492647218	 643838868	 275382.
00:13:38  991 992	 1492647218	 914824056	 270985.
00:13:39  992 993	 1492647219	 190547927	 275724.
00:13:39  993 994	 1492647219	 461726172	 271178.
00:13:39  994 995	 1492647219	 683955387	 222229.
00:13:39  995 996	 1492647219	 955143680	 271188.
00:13:40  996 997	 1492647220	 230560779	 275417.
00:13:40  997 998	 1492647220	 501754829	 271194.
00:13:40  998 999	 1492647220	 724549655	 222795.
00:13:40  999 1000	 1492647221	 720906	 276172.
00:13:41 1000 1001	 1492647221	 272308827	 271588.
00:13:41 1001 1002	 1492647221	 548088174	 275779.
00:13:41 1002 1003	 1492647221	 820089097	 272001.
00:13:42 1003 1004	 1492647222	 91560432	 271471.
00:13:42 1004 1005	 1492647222	 313807789	 222247.
00:13:42 1005 1006	 1492647222	 589055227	 275248.
00:13:42 1006 1007	 1492647222	 860622877	 271568.
00:13:43 1007 1008	 1492647223	 136559524	 275936.
00:13:43 1008 1009	 1492647223	 409182290	 272623.
00:13:43 1009 1010	 1492647223	 684756827	 275575.
00:13:43 1010 1011	 1492647223	 956251734	 271494.
00:13:44 1011 1012	 1492647224	 178610559	 222359.
00:13:44 1012 1013	 1492647224	 453515156	 274905.
00:13:44 1013 1014	 1492647224	 724996082	 271481.
00:13:44 1014 1015	 1492647225	 755619	 275759.
00:13:45 1015 1016	 1492647225	 222916120	 222161.
00:13:45 1016 1017	 1492647225	 494581872	 271665.
00:13:45 1017 1018	 1492647225	 770256978	 275676.
00:13:46 1018 1019	 1492647226	 41717360	 271460.
00:13:46 1019 1020	 1492647226	 312894494	 271177.
00:13:46 1020 1021	 1492647226	 589555660	 276661.
00:13:46 1021 1022	 1492647226	 811389566	 221834.
00:13:47 1022 1023	 1492647227	 86552692	 275163.
00:13:47 1023 1024	 1492647227	 358006442	 271454.
00:13:47 1024 1025	 1492647227	 579943442	 221937.
00:13:47 1025 1026	 1492647227	 851271503	 271328.
00:13:48 1026 1027	 1492647228	 126611843	 275341.
00:13:48 1027 1028	 1492647228	 398325530	 271713.
00:13:48 1028 1029	 1492647228	 620898290	 222573.
00:13:48 1029 1030	 1492647228	 895727577	 274829.
00:13:49 1030 1031	 1492647229	 167646804	 271920.
00:13:49 1031 1032	 1492647229	 443172208	 275525.
00:13:49 1032 1033	 1492647229	 714739597	 271567.
00:13:49 1033 1034	 1492647229	 937238074	 222499.
00:13:50 1034 1035	 1492647230	 208560626	 271322.
00:13:50 1035 1036	 1492647230	 484899741	 276340.
00:13:50 1036 1037	 1492647230	 756360222	 271460.
00:13:51 1037 1038	 1492647231	 31707620	 275347.
00:13:51 1038 1039	 1492647231	 254456185	 222749.
00:13:51 1039 1040	 1492647231	 526003692	 271547.
00:13:51 1040 1041	 1492647231	 801240469	 275237.
00:13:52 1041 1042	 1492647232	 23471753	 222231.
00:13:52 1042 1043	 1492647232	 295403085	 271932.
00:13:52 1043 1044	 1492647232	 570892160	 275489.
00:13:52 1044 1045	 1492647232	 842464259	 271572.
00:13:53 1045 1046	 1492647233	 118026689	 275562.
00:13:53 1046 1047	 1492647233	 340574671	 222548.
00:13:53 1047 1048	 1492647233	 612457525	 271883.
00:13:53 1048 1049	 1492647233	 883707651	 271250.
00:13:54 1049 1050	 1492647234	 110128800	 226421.
00:13:54 1050 1051	 1492647234	 381421683	 271293.
00:13:54 1051 1052	 1492647234	 657223101	 275802.
00:13:54 1052 1053	 1492647234	 928707041	 271484.
00:13:55 1053 1054	 1492647235	 150928922	 222222.
00:13:55 1054 1055	 1492647235	 426072690	 275143.
00:13:55 1055 1056	 1492647235	 647901341	 221829.
00:13:55 1056 1057	 1492647235	 919280427	 271379.
00:13:56 1057 1058	 1492647236	 194451120	 275171.
00:13:56 1058 1059	 1492647236	 416937598	 222486.
00:13:56 1059 1060	 1492647236	 692785463	 275848.
00:13:56 1060 1061	 1492647236	 964634239	 271849.
00:13:57 1061 1062	 1492647237	 236243997	 271610.
00:13:57 1062 1063	 1492647237	 511383381	 275139.
00:13:57 1063 1064	 1492647237	 733397512	 222014.
00:13:58 1064 1065	 1492647238	 4532034	 271135.
00:13:58 1065 1066	 1492647238	 280127537	 275595.
00:13:58 1066 1067	 1492647238	 502690325	 222563.
00:13:58 1067 1068	 1492647238	 773793515	 271103.
00:13:59 1068 1069	 1492647239	 49318902	 275526.
00:13:59 1069 1070	 1492647239	 320740855	 271422.
00:13:59 1070 1071	 1492647239	 543275048	 222534.
00:13:59 1071 1072	 1492647239	 814776329	 271501.
00:14:00 1072 1073	 1492647240	 90129579	 275353.
00:14:00 1073 1074	 1492647240	 362235725	 272107.
00:14:00 1074 1075	 1492647240	 638998334	 276762.
00:14:00 1075 1076	 1492647240	 910611245	 271613.
00:14:01 1076 1077	 1492647241	 181590592	 270979.
00:14:01 1077 1078	 1492647241	 407893276	 226303.
00:14:01 1078 1079	 1492647241	 679252925	 271360.
00:14:01 1079 1080	 1492647241	 950157070	 270904.
00:14:02 1080 1081	 1492647242	 221708251	 271551.
00:14:02 1081 1082	 1492647242	 492746893	 271039.
00:14:02 1082 1083	 1492647242	 763572755	 270825.
00:14:02 1083 1084	 1492647242	 985429601	 221857.
00:14:03 1084 1085	 1492647243	 260277126	 274848.
00:14:03 1085 1086	 1492647243	 531261838	 270984.
00:14:03 1086 1087	 1492647243	 802353927	 271093.
00:14:04 1087 1088	 1492647244	 73640841	 271287.
00:14:04 1088 1089	 1492647244	 348684663	 275044.
00:14:04 1089 1090	 1492647244	 571292840	 222608.
00:14:04 1090 1091	 1492647244	 842694317	 271401.
00:14:05 1091 1092	 1492647245	 113881341	 271187.
00:14:05 1092 1093	 1492647245	 385084957	 271204.
00:14:05 1093 1094	 1492647245	 656871909	 271787.
00:14:05 1094 1095	 1492647245	 931934055	 275062.
00:14:06 1095 1096	 1492647246	 203252662	 271318.
00:14:06 1096 1097	 1492647246	 478392526	 275140.
00:14:06 1097 1098	 1492647246	 700448611	 222056.
00:14:06 1098 1099	 1492647246	 971378930	 270931.
00:14:07 1099 1100	 1492647247	 242592470	 271213.
00:14:07 1100 1101	 1492647247	 464528857	 221936.
00:14:07 1101 1102	 1492647247	 740092871	 275565.
00:14:08 1102 1103	 1492647248	 11245650	 271152.
00:14:08 1103 1104	 1492647248	 286845947	 275601.
00:14:08 1104 1105	 1492647248	 509462802	 222617.
00:14:08 1105 1106	 1492647248	 781485306	 272022.
00:14:09 1106 1107	 1492647249	 57186822	 275702.
00:14:09 1107 1108	 1492647249	 329172617	 271985.
00:14:09 1108 1109	 1492647249	 600723236	 271551.
00:14:09 1109 1110	 1492647249	 875659405	 274936.
00:14:10 1110 1111	 1492647250	 146108581	 270449.
00:14:10 1111 1112	 1492647250	 368154120	 222046.
00:14:10 1112 1113	 1492647250	 639377140	 271223.
00:14:10 1113 1114	 1492647250	 911196163	 271819.
00:14:11 1114 1115	 1492647251	 187277426	 276081.
00:14:11 1115 1116	 1492647251	 459293940	 272017.
00:14:11 1116 1117	 1492647251	 735415053	 276121.
00:14:12 1117 1118	 1492647252	 7337735	 271922.
00:14:12 1118 1119	 1492647252	 283150633	 275813.
00:14:12 1119 1120	 1492647252	 555153934	 272004.
00:14:12 1120 1121	 1492647252	 827070608	 271916.
00:14:13 1121 1122	 1492647253	 54381255	 227311.
00:14:13 1122 1123	 1492647253	 326504823	 272124.
00:14:13 1123 1124	 1492647253	 602290757	 275785.
00:14:13 1124 1125	 1492647253	 873841888	 271552.
00:14:14 1125 1126	 1492647254	 145223751	 271381.
00:14:14 1126 1127	 1492647254	 421198151	 275975.
00:14:14 1127 1128	 1492647254	 693205253	 272007.
00:14:14 1128 1129	 1492647254	 916360917	 223156.
00:14:15 1129 1130	 1492647255	 192554702	 276193.
00:14:15 1130 1131	 1492647255	 463178838	 270624.
00:14:15 1131 1132	 1492647255	 738167233	 274989.
00:14:16 1132 1133	 1492647256	 8549028	 270382.
00:14:16 1133 1134	 1492647256	 229905707	 221356.
00:14:16 1134 1135	 1492647256	 500240821	 270335.
00:14:16 1135 1136	 1492647256	 770946287	 270706.
00:14:17 1136 1137	 1492647257	 43194593	 272248.
00:14:17 1137 1138	 1492647257	 319589877	 276396.
00:14:17 1138 1139	 1492647257	 542129739	 222539.
00:14:17 1139 1140	 1492647257	 818160163	 276031.
00:14:18 1140 1141	 1492647258	 90246829	 272086.
00:14:18 1141 1142	 1492647258	 365696948	 275451.
00:14:18 1142 1143	 1492647258	 636422855	 270726.
