13:08:11    0 Step	 time(s)	 time(ns)	 delta(ms)
13:08:11    0 1	 1492607291	 844765839	 922.
13:08:12    1 2	 1492607292	 120448681	 275683.
13:08:12    2 3	 1492607292	 391290790	 270843.
13:08:12    3 4	 1492607292	 662096821	 270805.
13:08:12    4 5	 1492607292	 933202188	 271106.
13:08:13    5 6	 1492607293	 208048004	 274846.
13:08:13    6 7	 1492607293	 479020115	 270972.
13:08:13    7 8	 1492607293	 750317105	 271297.
13:08:13    8 9	 1492607293	 971867380	 221550.
13:08:14    9 10	 1492607294	 242986879	 271120.
13:08:14   10 11	 1492607294	 518582792	 275595.
13:08:14   11 12	 1492607294	 790041290	 271459.
13:08:15   12 13	 1492607295	 61143585	 271102.
13:08:15   13 14	 1492607295	 331705129	 270562.
13:08:15   14 15	 1492607295	 553576174	 221871.
13:08:15   15 16	 1492607295	 827838237	 274262.
13:08:16   16 17	 1492607296	 98514332	 270676.
13:08:16   17 18	 1492607296	 368863821	 270350.
13:08:16   18 19	 1492607296	 590650584	 221786.
13:08:16   19 20	 1492607296	 861357959	 270708.
13:08:17   20 21	 1492607297	 135839034	 274481.
13:08:17   21 22	 1492607297	 406638390	 270799.
13:08:17   22 23	 1492607297	 677556452	 270918.
13:08:17   23 24	 1492607297	 895408043	 217852.
13:08:18   24 25	 1492607298	 170231075	 274823.
13:08:18   25 26	 1492607298	 441408108	 271177.
13:08:18   26 27	 1492607298	 716634275	 275226.
13:08:18   27 28	 1492607298	 934809527	 218175.
13:08:19   28 29	 1492607299	 209662022	 274853.
13:08:19   29 30	 1492607299	 480649335	 270987.
13:08:19   30 31	 1492607299	 755866563	 275217.
13:08:20   31 32	 1492607300	 26937882	 271072.
13:08:20   32 33	 1492607300	 297909230	 270971.
13:08:20   33 34	 1492607300	 520150909	 222242.
13:08:20   34 35	 1492607300	 791665235	 271514.
13:08:21   35 36	 1492607301	 66776453	 275111.
13:08:21   36 37	 1492607301	 338002141	 271226.
13:08:21   37 38	 1492607301	 613028900	 275027.
13:08:21   38 39	 1492607301	 884166168	 271137.
13:08:22   39 40	 1492607302	 155819340	 271653.
13:08:22   40 41	 1492607302	 431199151	 275380.
13:08:22   41 42	 1492607302	 702408131	 271209.
13:08:22   42 43	 1492607302	 974005386	 271597.
13:08:23   43 44	 1492607303	 196217274	 222212.
13:08:23   44 45	 1492607303	 467515852	 271299.
13:08:23   45 46	 1492607303	 742678238	 275162.
13:08:24   46 47	 1492607304	 13935382	 271257.
13:08:24   47 48	 1492607304	 284734498	 270799.
13:08:24   48 49	 1492607304	 559686940	 274953.
13:08:24   49 50	 1492607304	 782148043	 222461.
13:08:25   50 51	 1492607305	 53921346	 271773.
13:08:25   51 52	 1492607305	 324947733	 271026.
13:08:25   52 53	 1492607305	 600406533	 275459.
13:08:25   53 54	 1492607305	 871809321	 271403.
13:08:26   54 55	 1492607306	 146820251	 275011.
13:08:26   55 56	 1492607306	 417904948	 271085.
13:08:26   56 57	 1492607306	 635849827	 217945.
13:08:26   57 58	 1492607306	 906565089	 270715.
13:08:27   58 59	 1492607307	 181425102	 274860.
13:08:27   59 60	 1492607307	 452135219	 270710.
13:08:27   60 61	 1492607307	 723460015	 271325.
13:08:27   61 62	 1492607307	 945402533	 221942.
13:08:28   62 63	 1492607308	 220074636	 274672.
13:08:28   63 64	 1492607308	 491123844	 271049.
13:08:28   64 65	 1492607308	 762558368	 271435.
13:08:29   65 66	 1492607309	 37903698	 275345.
13:08:29   66 67	 1492607309	 255648722	 217745.
13:08:29   67 68	 1492607309	 530083562	 274435.
13:08:29   68 69	 1492607309	 800708349	 270625.
13:08:30   69 70	 1492607310	 71040723	 270332.
13:08:30   70 71	 1492607310	 292802281	 221762.
13:08:30   71 72	 1492607310	 567725843	 274924.
13:08:30   72 73	 1492607310	 838642033	 270916.
13:08:31   73 74	 1492607311	 109445321	 270803.
13:08:31   74 75	 1492607311	 331325028	 221880.
13:08:31   75 76	 1492607311	 602295020	 270970.
13:08:31   76 77	 1492607311	 873445842	 271151.
13:08:32   77 78	 1492607312	 148792972	 275347.
13:08:32   78 79	 1492607312	 420044634	 271251.
13:08:32   79 80	 1492607312	 695256060	 275212.
13:08:32   80 81	 1492607312	 966800777	 271544.
13:08:33   81 82	 1492607313	 237631576	 270831.
13:08:33   82 83	 1492607313	 508817121	 271186.
13:08:33   83 84	 1492607313	 780152819	 271336.
13:08:33   84 85	 1492607314	 2517453	 222364.
13:08:34   85 86	 1492607314	 277809996	 275293.
13:08:34   86 87	 1492607314	 548485264	 270675.
13:08:34   87 88	 1492607314	 819815413	 271330.
13:08:35   88 89	 1492607315	 94891748	 275076.
13:08:35   89 90	 1492607315	 366240205	 271349.
13:08:35   90 91	 1492607315	 637580747	 271341.
13:08:35   91 92	 1492607315	 908702487	 271121.
13:08:36   92 93	 1492607316	 130752571	 222050.
13:08:36   93 94	 1492607316	 405690486	 274938.
13:08:36   94 95	 1492607316	 676715503	 271025.
13:08:36   95 96	 1492607316	 947270974	 270556.
13:08:37   96 97	 1492607317	 169388809	 222117.
13:08:37   97 98	 1492607317	 444131553	 274743.
13:08:37   98 99	 1492607317	 715530227	 271399.
13:08:37   99 100	 1492607317	 986883202	 271353.
13:08:38  100 101	 1492607318	 257834997	 270952.
13:08:38  101 102	 1492607318	 533223750	 275388.
13:08:38  102 103	 1492607318	 804355235	 271132.
13:08:39  103 104	 1492607319	 76191886	 271837.
13:08:39  104 105	 1492607319	 298596230	 222404.
13:08:39  105 106	 1492607319	 569574890	 270979.
13:08:39  106 107	 1492607319	 844606548	 275031.
13:08:40  107 108	 1492607320	 115900490	 271294.
13:08:40  108 109	 1492607320	 387387180	 271487.
13:08:40  109 110	 1492607320	 662212993	 274826.
13:08:40  110 111	 1492607320	 933585490	 271372.
13:08:41  111 112	 1492607321	 204893432	 271308.
13:08:41  112 113	 1492607321	 480081781	 275188.
13:08:41  113 114	 1492607321	 698491162	 218410.
13:08:41  114 115	 1492607321	 973786008	 275295.
13:08:42  115 116	 1492607322	 244575678	 270789.
13:08:42  116 117	 1492607322	 515869502	 271294.
13:08:42  117 118	 1492607322	 786933237	 271064.
13:08:43  118 119	 1492607323	 62368987	 275436.
13:08:43  119 120	 1492607323	 333306210	 270937.
13:08:43  120 121	 1492607323	 554831458	 221525.
13:08:43  121 122	 1492607323	 828956505	 274125.
13:08:44  122 123	 1492607324	 99384727	 270428.
13:08:44  123 124	 1492607324	 321191489	 221807.
13:08:44  124 125	 1492607324	 595975925	 274785.
13:08:44  125 126	 1492607324	 866952829	 270977.
13:08:45  126 127	 1492607325	 137932245	 270979.
13:08:45  127 128	 1492607325	 409817315	 271885.
13:08:45  128 129	 1492607325	 631824152	 222007.
13:08:45  129 130	 1492607325	 903041890	 271218.
13:08:46  130 131	 1492607326	 178156387	 275114.
13:08:46  131 132	 1492607326	 449183645	 271027.
13:08:46  132 133	 1492607326	 724817614	 275634.
13:08:46  133 134	 1492607326	 995932438	 271115.
13:08:47  134 135	 1492607327	 263151324	 267219.
13:08:47  135 136	 1492607327	 485658267	 222507.
13:08:47  136 137	 1492607327	 761071134	 275413.
13:08:48  137 138	 1492607328	 31989900	 270919.
13:08:48  138 139	 1492607328	 303134315	 271144.
13:08:48  139 140	 1492607328	 574603374	 271469.
13:08:48  140 141	 1492607328	 849787091	 275184.
13:08:49  141 142	 1492607329	 120616548	 270829.
13:08:49  142 143	 1492607329	 342690146	 222074.
13:08:49  143 144	 1492607329	 613802195	 271112.
13:08:49  144 145	 1492607329	 885072740	 271270.
13:08:50  145 146	 1492607330	 160233433	 275161.
13:08:50  146 147	 1492607330	 430548709	 270315.
13:08:50  147 148	 1492607330	 652387390	 221839.
13:08:50  148 149	 1492607330	 922755854	 270369.
13:08:51  149 150	 1492607331	 193439115	 270683.
13:08:51  150 151	 1492607331	 468423962	 274985.
13:08:51  151 152	 1492607331	 690406066	 221982.
13:08:51  152 153	 1492607331	 961649084	 271243.
13:08:52  153 154	 1492607332	 232522314	 270873.
13:08:52  154 155	 1492607332	 504113348	 271591.
13:08:52  155 156	 1492607332	 775568946	 271456.
13:08:53  156 157	 1492607333	 50489014	 274920.
13:08:53  157 158	 1492607333	 321640366	 271151.
13:08:53  158 159	 1492607333	 596848693	 275208.
13:08:53  159 160	 1492607333	 868079485	 271231.
13:08:54  160 161	 1492607334	 90131503	 222052.
13:08:54  161 162	 1492607334	 360900326	 270769.
13:08:54  162 163	 1492607334	 636192729	 275292.
13:08:54  163 164	 1492607334	 907412094	 271220.
13:08:55  164 165	 1492607335	 129397252	 221985.
13:08:55  165 166	 1492607335	 400192716	 270795.
13:08:55  166 167	 1492607335	 675699830	 275507.
13:08:55  167 168	 1492607335	 946715521	 271016.
13:08:56  168 169	 1492607336	 217834052	 271119.
13:08:56  169 170	 1492607336	 492803906	 274970.
13:08:56  170 171	 1492607336	 763506711	 270702.
13:08:56  171 172	 1492607336	 981736240	 218230.
13:08:57  172 173	 1492607337	 256424683	 274688.
13:08:57  173 174	 1492607337	 526985768	 270561.
13:08:57  174 175	 1492607337	 801499472	 274514.
13:08:58  175 176	 1492607338	 23203063	 221704.
13:08:58  176 177	 1492607338	 297360458	 274157.
13:08:58  177 178	 1492607338	 568473300	 271113.
13:08:58  178 179	 1492607338	 839802266	 271329.
13:08:59  179 180	 1492607339	 61860847	 222059.
13:08:59  180 181	 1492607339	 333115677	 271254.
13:08:59  181 182	 1492607339	 609028216	 275913.
13:08:59  182 183	 1492607339	 880751459	 271723.
13:09:00  183 184	 1492607340	 152341487	 271590.
13:09:00  184 185	 1492607340	 423389614	 271048.
13:09:00  185 186	 1492607340	 698492728	 275103.
13:09:00  186 187	 1492607340	 969232148	 270740.
13:09:01  187 188	 1492607341	 240390314	 271158.
13:09:01  188 189	 1492607341	 515661956	 275272.
13:09:01  189 190	 1492607341	 786741284	 271079.
13:09:02  190 191	 1492607342	 8782424	 222041.
13:09:02  191 192	 1492607342	 279799111	 271017.
13:09:02  192 193	 1492607342	 550797678	 270998.
13:09:02  193 194	 1492607342	 821498280	 270701.
13:09:03  194 195	 1492607343	 92589071	 271091.
13:09:03  195 196	 1492607343	 367746113	 275157.
13:09:03  196 197	 1492607343	 639120887	 271375.
13:09:03  197 198	 1492607343	 860827103	 221706.
13:09:04  198 199	 1492607344	 131299151	 270472.
13:09:04  199 200	 1492607344	 405900097	 274601.
13:09:04  200 201	 1492607344	 676231966	 270332.
13:09:04  201 202	 1492607344	 897577937	 221346.
13:09:05  202 203	 1492607345	 171870253	 274292.
13:09:05  203 204	 1492607345	 442981300	 271111.
13:09:05  204 205	 1492607345	 714346008	 271365.
13:09:05  205 206	 1492607345	 989818742	 275472.
13:09:06  206 207	 1492607346	 261815926	 271998.
13:09:06  207 208	 1492607346	 529289239	 267473.
13:09:06  208 209	 1492607346	 800810691	 271521.
13:09:07  209 210	 1492607347	 72277846	 271468.
13:09:07  210 211	 1492607347	 343816654	 271538.
13:09:07  211 212	 1492607347	 619688653	 275872.
13:09:07  212 213	 1492607347	 891066660	 271378.
13:09:08  213 214	 1492607348	 162150546	 271084.
13:09:08  214 215	 1492607348	 437340766	 275190.
13:09:08  215 216	 1492607348	 708788456	 271448.
13:09:08  216 217	 1492607348	 980297678	 271509.
13:09:09  217 218	 1492607349	 252003276	 271706.
13:09:09  218 219	 1492607349	 523276709	 271273.
13:09:09  219 220	 1492607349	 794708614	 271432.
13:09:10  220 221	 1492607350	 69529432	 274821.
13:09:10  221 222	 1492607350	 292004714	 222475.
13:09:10  222 223	 1492607350	 562707762	 270703.
13:09:10  223 224	 1492607350	 833967044	 271260.
13:09:11  224 225	 1492607351	 105017382	 271050.
13:09:11  225 226	 1492607351	 379937279	 274920.
13:09:11  226 227	 1492607351	 650484978	 270548.
13:09:11  227 228	 1492607351	 871895404	 221410.
13:09:12  228 229	 1492607352	 203685175	 331790.
13:09:12  229 230	 1492607352	 475465998	 271781.
13:09:12  230 231	 1492607352	 746769259	 271303.
13:09:13  231 232	 1492607353	 17746427	 270977.
13:09:13  232 233	 1492607353	 292991512	 275245.
13:09:13  233 234	 1492607353	 515254773	 222263.
13:09:13  234 235	 1492607353	 786863750	 271609.
13:09:14  235 236	 1492607354	 57834908	 270972.
13:09:14  236 237	 1492607354	 333056708	 275221.
13:09:14  237 238	 1492607354	 603932453	 270876.
13:09:14  238 239	 1492607354	 875083460	 271151.
13:09:15  239 240	 1492607355	 146433526	 271350.
13:09:15  240 241	 1492607355	 368456707	 222023.
13:09:15  241 242	 1492607355	 639190370	 270734.
13:09:15  242 243	 1492607355	 914445271	 275255.
13:09:16  243 244	 1492607356	 185544236	 271099.
13:09:16  244 245	 1492607356	 456417906	 270874.
13:09:16  245 246	 1492607356	 731984664	 275566.
13:09:16  246 247	 1492607357	 2915702	 270931.
13:09:17  247 248	 1492607357	 225441342	 222526.
13:09:17  248 249	 1492607357	 496902018	 271461.
13:09:17  249 250	 1492607357	 767746059	 270844.
13:09:18  250 251	 1492607358	 43058898	 275313.
13:09:18  251 252	 1492607358	 314148682	 271089.
13:09:18  252 253	 1492607358	 588623535	 274475.
13:09:18  253 254	 1492607358	 809991191	 221368.
13:09:19  254 255	 1492607359	 80444069	 270453.
13:09:19  255 256	 1492607359	 355027512	 274583.
13:09:19  256 257	 1492607359	 626206818	 271179.
13:09:19  257 258	 1492607359	 901660600	 275454.
13:09:20  258 259	 1492607360	 123818168	 222158.
13:09:20  259 260	 1492607360	 394789848	 270972.
13:09:20  260 261	 1492607360	 667056984	 272267.
13:09:20  261 262	 1492607360	 938222996	 271166.
13:09:21  262 263	 1492607361	 213588004	 275365.
13:09:21  263 264	 1492607361	 484758290	 271170.
13:09:21  264 265	 1492607361	 755749146	 270991.
13:09:22  265 266	 1492607362	 31533644	 275784.
13:09:22  266 267	 1492607362	 302549605	 271016.
13:09:22  267 268	 1492607362	 574037843	 271489.
13:09:22  268 269	 1492607362	 849230266	 275192.
13:09:23  269 270	 1492607363	 71237351	 222007.
13:09:23  270 271	 1492607363	 342171665	 270934.
13:09:23  271 272	 1492607363	 613768321	 271597.
13:09:23  272 273	 1492607363	 885854254	 272086.
13:09:24  273 274	 1492607364	 157661608	 271807.
13:09:24  274 275	 1492607364	 433572703	 275911.
13:09:24  275 276	 1492607364	 704598890	 271027.
13:09:24  276 277	 1492607364	 975750453	 271151.
13:09:25  277 278	 1492607365	 251352120	 275602.
13:09:25  278 279	 1492607365	 522526471	 271174.
13:09:25  279 280	 1492607365	 793602493	 271076.
13:09:26  280 281	 1492607366	 69077150	 275475.
13:09:26  281 282	 1492607366	 340335477	 271258.
13:09:26  282 283	 1492607366	 612291474	 271956.
13:09:26  283 284	 1492607366	 883435840	 271145.
13:09:27  284 285	 1492607367	 158703728	 275267.
13:09:27  285 286	 1492607367	 429728800	 271026.
13:09:27  286 287	 1492607367	 651919927	 222191.
13:09:27  287 288	 1492607367	 923091809	 271171.
13:09:28  288 289	 1492607368	 194332970	 271242.
13:09:28  289 290	 1492607368	 469592989	 275260.
13:09:28  290 291	 1492607368	 740336029	 270743.
13:09:29  291 292	 1492607369	 10962013	 270626.
13:09:29  292 293	 1492607369	 232797395	 221835.
13:09:29  293 294	 1492607369	 504019849	 271223.
13:09:29  294 295	 1492607369	 775152917	 271133.
13:09:30  295 296	 1492607370	 50310712	 275157.
13:09:30  296 297	 1492607370	 321370123	 271060.
13:09:30  297 298	 1492607370	 593048940	 271679.
13:09:30  298 299	 1492607370	 864239257	 271190.
13:09:31  299 300	 1492607371	 138963917	 274725.
13:09:31  300 301	 1492607371	 409699225	 270735.
13:09:31  301 302	 1492607371	 631799454	 222100.
13:09:31  302 303	 1492607371	 902553652	 270754.
13:09:32  303 304	 1492607372	 173562367	 271009.
13:09:32  304 305	 1492607372	 448802155	 275240.
13:09:32  305 306	 1492607372	 720012963	 271211.
13:09:32  306 307	 1492607372	 991475253	 271462.
13:09:33  307 308	 1492607373	 266798538	 275323.
13:09:33  308 309	 1492607373	 488811077	 222013.
13:09:33  309 310	 1492607373	 759612126	 270801.
13:09:34  310 311	 1492607374	 30479109	 270867.
13:09:34  311 312	 1492607374	 301449790	 270970.
13:09:34  312 313	 1492607374	 576888699	 275439.
13:09:34  313 314	 1492607374	 848015289	 271127.
13:09:35  314 315	 1492607375	 69908908	 221894.
13:09:35  315 316	 1492607375	 341009096	 271100.
13:09:35  316 317	 1492607375	 612340516	 271331.
13:09:35  317 318	 1492607375	 887515737	 275175.
13:09:36  318 319	 1492607376	 162390827	 274876.
13:09:36  319 320	 1492607376	 433753018	 271362.
13:09:36  320 321	 1492607376	 708564379	 274811.
13:09:36  321 322	 1492607376	 979975722	 271412.
13:09:37  322 323	 1492607377	 206157130	 226181.
13:09:37  323 324	 1492607377	 477661311	 271504.
13:09:37  324 325	 1492607377	 749257586	 271596.
13:09:38  325 326	 1492607378	 20428051	 271171.
13:09:38  326 327	 1492607378	 295277905	 274850.
13:09:38  327 328	 1492607378	 566384406	 271106.
13:09:38  328 329	 1492607378	 837454086	 271070.
13:09:39  329 330	 1492607379	 112823634	 275369.
13:09:39  330 331	 1492607379	 384093103	 271270.
13:09:39  331 332	 1492607379	 655294212	 271201.
13:09:39  332 333	 1492607379	 877418932	 222125.
13:09:40  333 334	 1492607380	 148682436	 271263.
13:09:40  334 335	 1492607380	 424043763	 275361.
13:09:40  335 336	 1492607380	 695052791	 271009.
13:09:40  336 337	 1492607380	 966514069	 271473.
13:09:41  337 338	 1492607381	 238094378	 271569.
13:09:41  338 339	 1492607381	 509392890	 271299.
13:09:41  339 340	 1492607381	 780559105	 271166.
13:09:42  340 341	 1492607382	 55833571	 275274.
13:09:42  341 342	 1492607382	 326970195	 271137.
13:09:42  342 343	 1492607382	 548974199	 222004.
13:09:42  343 344	 1492607382	 823670058	 274696.
13:09:43  344 345	 1492607383	 94259195	 270589.
13:09:43  345 346	 1492607383	 369567207	 275308.
13:09:43  346 347	 1492607383	 640004559	 270437.
13:09:43  347 348	 1492607383	 911289321	 271285.
13:09:44  348 349	 1492607384	 133159709	 221870.
13:09:44  349 350	 1492607384	 404007741	 270848.
13:09:44  350 351	 1492607384	 674899712	 270892.
13:09:44  351 352	 1492607384	 950124157	 275225.
13:09:45  352 353	 1492607385	 221053861	 270930.
13:09:45  353 354	 1492607385	 442742006	 221688.
13:09:45  354 355	 1492607385	 713928090	 271186.
13:09:45  355 356	 1492607385	 985532054	 271604.
13:09:46  356 357	 1492607386	 260527458	 274995.
13:09:46  357 358	 1492607386	 531552245	 271025.
13:09:46  358 359	 1492607386	 802885554	 271333.
13:09:47  359 360	 1492607387	 78121068	 275236.
13:09:47  360 361	 1492607387	 349251369	 271130.
13:09:47  361 362	 1492607387	 620441156	 271190.
13:09:47  362 363	 1492607387	 895696822	 275256.
13:09:48  363 364	 1492607388	 113774702	 218077.
13:09:48  364 365	 1492607388	 388807273	 275033.
13:09:48  365 366	 1492607388	 659860111	 271053.
13:09:48  366 367	 1492607388	 931301885	 271442.
13:09:49  367 368	 1492607389	 206379521	 275077.
13:09:49  368 369	 1492607389	 477470394	 271091.
13:09:49  369 370	 1492607389	 748397893	 270928.
13:09:50  370 371	 1492607390	 19382319	 270984.
13:09:50  371 372	 1492607390	 241883399	 222501.
13:09:50  372 373	 1492607390	 516980453	 275097.
13:09:50  373 374	 1492607390	 788683042	 271703.
13:09:51  374 375	 1492607391	 59972804	 271290.
13:09:51  375 376	 1492607391	 331031427	 271058.
13:09:51  376 377	 1492607391	 602206259	 271175.
13:09:51  377 378	 1492607391	 877388436	 275182.
13:09:52  378 379	 1492607392	 148412643	 271024.
13:09:52  379 380	 1492607392	 419243266	 270831.
13:09:52  380 381	 1492607392	 694390892	 275148.
13:09:52  381 382	 1492607392	 912474990	 218084.
13:09:53  382 383	 1492607393	 187703015	 275228.
13:09:53  383 384	 1492607393	 458683516	 270980.
13:09:53  384 385	 1492607393	 729583202	 270900.
13:09:54  385 386	 1492607394	 900506	 271317.
13:09:54  386 387	 1492607394	 275611684	 274711.
13:09:54  387 388	 1492607394	 546773617	 271162.
13:09:54  388 389	 1492607394	 818362153	 271589.
13:09:55  389 390	 1492607395	 93910073	 275548.
13:09:55  390 391	 1492607395	 364731719	 270821.
13:09:55  391 392	 1492607395	 586924368	 222193.
13:09:55  392 393	 1492607395	 857819429	 270895.
13:09:56  393 394	 1492607396	 128691263	 270872.
13:09:56  394 395	 1492607396	 399490715	 270799.
13:09:56  395 396	 1492607396	 670521006	 271031.
13:09:56  396 397	 1492607396	 892598019	 222077.
13:09:57  397 398	 1492607397	 163434887	 270837.
13:09:57  398 399	 1492607397	 438295685	 274860.
13:09:57  399 400	 1492607397	 709739625	 271444.
13:09:57  400 401	 1492607397	 985397194	 275658.
13:09:58  401 402	 1492607398	 257146014	 271749.
13:09:58  402 403	 1492607398	 527699886	 270553.
13:09:58  403 404	 1492607398	 803204217	 275505.
13:09:59  404 405	 1492607399	 73883127	 270679.
13:09:59  405 406	 1492607399	 296102310	 222219.
13:09:59  406 407	 1492607399	 566990850	 270889.
13:09:59  407 408	 1492607399	 838035151	 271044.
13:10:00  408 409	 1492607400	 108825794	 270790.
13:10:00  409 410	 1492607400	 379696028	 270871.
13:10:00  410 411	 1492607400	 654863591	 275167.
13:10:00  411 412	 1492607400	 926104644	 271241.
13:10:01  412 413	 1492607401	 197307368	 271203.
13:10:01  413 414	 1492607401	 472590633	 275283.
13:10:01  414 415	 1492607401	 690867547	 218277.
13:10:01  415 416	 1492607401	 966258817	 275391.
13:10:02  416 417	 1492607402	 237726125	 271468.
13:10:02  417 418	 1492607402	 508945954	 271220.
13:10:02  418 419	 1492607402	 783889784	 274943.
13:10:03  419 420	 1492607403	 54709929	 270821.
13:10:03  420 421	 1492607403	 325743611	 271033.
13:10:03  421 422	 1492607403	 600525033	 274782.
13:10:03  422 423	 1492607403	 822524610	 221999.
13:10:04  423 424	 1492607404	 93125219	 270601.
13:10:04  424 425	 1492607404	 364025975	 270901.
13:10:04  425 426	 1492607404	 635661720	 271635.
13:10:04  426 427	 1492607404	 911014876	 275354.
13:10:05  427 428	 1492607405	 182265190	 271250.
13:10:05  428 429	 1492607405	 453389131	 271124.
13:10:05  429 430	 1492607405	 724416775	 271027.
13:10:05  430 431	 1492607405	 999866530	 275450.
13:10:06  431 432	 1492607406	 218144159	 218278.
13:10:06  432 433	 1492607406	 493771725	 275627.
13:10:06  433 434	 1492607406	 765400086	 271629.
13:10:07  434 435	 1492607407	 36729126	 271329.
13:10:07  435 436	 1492607407	 312151758	 275422.
13:10:07  436 437	 1492607407	 583402490	 271251.
13:10:07  437 438	 1492607407	 854429882	 271028.
13:10:08  438 439	 1492607408	 125219343	 270789.
13:10:08  439 440	 1492607408	 400050861	 274832.
13:10:08  440 441	 1492607408	 670874477	 270823.
13:10:08  441 442	 1492607408	 941904987	 271031.
13:10:09  442 443	 1492607409	 163916564	 222011.
13:10:09  443 444	 1492607409	 434518310	 270602.
13:10:09  444 445	 1492607409	 705195945	 270678.
13:10:09  445 446	 1492607409	 980303344	 275107.
13:10:10  446 447	 1492607410	 251219697	 270916.
13:10:10  447 448	 1492607410	 522189795	 270971.
13:10:10  448 449	 1492607410	 744383255	 222193.
13:10:11  449 450	 1492607411	 15469741	 271086.
13:10:11  450 451	 1492607411	 290871182	 275402.
13:10:11  451 452	 1492607411	 562247527	 271376.
13:10:11  452 453	 1492607411	 833231586	 270984.
13:10:12  453 454	 1492607412	 107729656	 274498.
13:10:12  454 455	 1492607412	 330132344	 222403.
13:10:12  455 456	 1492607412	 600811307	 270679.
13:10:12  456 457	 1492607412	 872147321	 271336.
13:10:13  457 458	 1492607413	 147631227	 275484.
13:10:13  458 459	 1492607413	 419358818	 271727.
13:10:13  459 460	 1492607413	 641658455	 222300.
13:10:13  460 461	 1492607413	 912314967	 270657.
13:10:14  461 462	 1492607414	 183556667	 271241.
13:10:14  462 463	 1492607414	 458588413	 275032.
13:10:14  463 464	 1492607414	 729997576	 271409.
13:10:15  464 465	 1492607415	 1491866	 271495.
13:10:15  465 466	 1492607415	 222938653	 221446.
13:10:15  466 467	 1492607415	 497779666	 274841.
13:10:15  467 468	 1492607415	 769054017	 271275.
13:10:16  468 469	 1492607416	 39532964	 270479.
13:10:16  469 470	 1492607416	 310834120	 271301.
13:10:16  470 471	 1492607416	 536583239	 225749.
13:10:16  471 472	 1492607416	 807548557	 270965.
13:10:17  472 473	 1492607417	 78374365	 270826.
13:10:17  473 474	 1492607417	 349655562	 271281.
13:10:17  474 475	 1492607417	 571701018	 222046.
13:10:17  475 476	 1492607417	 842389431	 270688.
13:10:18  476 477	 1492607418	 117471860	 275083.
13:10:18  477 478	 1492607418	 388259392	 270787.
13:10:18  478 479	 1492607418	 609966017	 221707.
13:10:18  479 480	 1492607418	 880477840	 270511.
13:10:19  480 481	 1492607419	 155044075	 274567.
13:10:19  481 482	 1492607419	 377101347	 222057.
13:10:19  482 483	 1492607419	 648046992	 270946.
13:10:19  483 484	 1492607419	 918454354	 270407.
13:10:20  484 485	 1492607420	 189660402	 271206.
13:10:20  485 486	 1492607420	 411763874	 222103.
13:10:20  486 487	 1492607420	 687390770	 275627.
13:10:20  487 488	 1492607420	 958961458	 271571.
13:10:21  488 489	 1492607421	 233673364	 274712.
13:10:21  489 490	 1492607421	 504625109	 270952.
13:10:21  490 491	 1492607421	 776340820	 271716.
13:10:22  491 492	 1492607422	 47516688	 271175.
13:10:22  492 493	 1492607422	 323035873	 275520.
13:10:22  493 494	 1492607422	 594103663	 271067.
13:10:22  494 495	 1492607422	 816664105	 222561.
13:10:23  495 496	 1492607423	 88047880	 271384.
13:10:23  496 497	 1492607423	 363188916	 275141.
13:10:23  497 498	 1492607423	 634634188	 271445.
13:10:23  498 499	 1492607423	 908872253	 274238.
13:10:24  499 500	 1492607424	 179811339	 270939.
13:10:24  500 501	 1492607424	 397840485	 218029.
13:10:24  501 502	 1492607424	 673150272	 275310.
13:10:24  502 503	 1492607424	 943911343	 270761.
13:10:25  503 504	 1492607425	 215025072	 271114.
13:10:25  504 505	 1492607425	 489948748	 274923.
13:10:25  505 506	 1492607425	 707593793	 217645.
13:10:25  506 507	 1492607425	 982469041	 274876.
13:10:26  507 508	 1492607426	 253572610	 271103.
13:10:26  508 509	 1492607426	 524806838	 271235.
13:10:26  509 510	 1492607426	 800069599	 275262.
13:10:27  510 511	 1492607427	 71766687	 271697.
13:10:27  511 512	 1492607427	 293766217	 222000.
13:10:27  512 513	 1492607427	 568608021	 274842.
13:10:27  513 514	 1492607427	 839277260	 270669.
13:10:28  514 515	 1492607428	 61003163	 221726.
13:10:28  515 516	 1492607428	 331374739	 270371.
13:10:28  516 517	 1492607428	 606480844	 275107.
13:10:28  517 518	 1492607428	 877933686	 271452.
13:10:29  518 519	 1492607429	 149127130	 271194.
13:10:29  519 520	 1492607429	 424791464	 275664.
13:10:29  520 521	 1492607429	 696864536	 272073.
13:10:29  521 522	 1492607429	 968484611	 271620.
13:10:30  522 523	 1492607430	 244440795	 275957.
13:10:30  523 524	 1492607430	 516168814	 271727.
13:10:30  524 525	 1492607430	 787778521	 271610.
13:10:31  525 526	 1492607431	 59541378	 271763.
13:10:31  526 527	 1492607431	 335248108	 275707.
13:10:31  527 528	 1492607431	 606676920	 271429.
13:10:31  528 529	 1492607431	 878173351	 271496.
13:10:32  529 530	 1492607432	 153677093	 275504.
13:10:32  530 531	 1492607432	 425009300	 271332.
13:10:32  531 532	 1492607432	 696510790	 271501.
13:10:32  532 533	 1492607432	 968072265	 271562.
13:10:33  533 534	 1492607433	 243657813	 275586.
13:10:33  534 535	 1492607433	 515327886	 271670.
13:10:33  535 536	 1492607433	 786456224	 271128.
13:10:34  536 537	 1492607434	 57860932	 271405.
13:10:34  537 538	 1492607434	 333084339	 275223.
13:10:34  538 539	 1492607434	 603754693	 270670.
13:10:34  539 540	 1492607434	 825767038	 222013.
13:10:35  540 541	 1492607435	 96526161	 270759.
13:10:35  541 542	 1492607435	 367147804	 270621.
13:10:35  542 543	 1492607435	 638339871	 271193.
13:10:35  543 544	 1492607435	 914007975	 275668.
13:10:36  544 545	 1492607436	 185384278	 271376.
13:10:36  545 546	 1492607436	 456723814	 271340.
13:10:36  546 547	 1492607436	 728387648	 271663.
13:10:37  547 548	 1492607437	 3916254	 275529.
13:10:37  548 549	 1492607437	 275766328	 271850.
13:10:37  549 550	 1492607437	 547253167	 271487.
13:10:37  550 551	 1492607437	 818913974	 271661.
13:10:38  551 552	 1492607438	 94478244	 275564.
13:10:38  552 553	 1492607438	 366262648	 271784.
13:10:38  553 554	 1492607438	 641523630	 275261.
13:10:38  554 555	 1492607438	 912946474	 271423.
13:10:39  555 556	 1492607439	 184237648	 271291.
13:10:39  556 557	 1492607439	 455846517	 271609.
13:10:39  557 558	 1492607439	 731158057	 275312.
13:10:40  558 559	 1492607440	 2305092	 271147.
13:10:40  559 560	 1492607440	 224550160	 222245.
13:10:40  560 561	 1492607440	 545104236	 320554.
13:10:40  561 562	 1492607440	 767538707	 222434.
13:10:41  562 563	 1492607441	 38944661	 271406.
13:10:41  563 564	 1492607441	 314370927	 275427.
13:10:41  564 565	 1492607441	 585647979	 271277.
13:10:41  565 566	 1492607441	 856862004	 271214.
13:10:42  566 567	 1492607442	 131961185	 275099.
13:10:42  567 568	 1492607442	 403056475	 271095.
13:10:42  568 569	 1492607442	 674321321	 271265.
13:10:42  569 570	 1492607442	 945425437	 271104.
13:10:43  570 571	 1492607443	 220700805	 275276.
13:10:43  571 572	 1492607443	 491741590	 271040.
13:10:43  572 573	 1492607443	 714085111	 222344.
13:10:43  573 574	 1492607443	 985538537	 271453.
13:10:44  574 575	 1492607444	 256439859	 270902.
13:10:44  575 576	 1492607444	 527502393	 271062.
13:10:44  576 577	 1492607444	 802878039	 275376.
13:10:45  577 578	 1492607445	 74263805	 271386.
13:10:45  578 579	 1492607445	 345158958	 270895.
13:10:45  579 580	 1492607445	 616296999	 271138.
13:10:45  580 581	 1492607445	 891873412	 275576.
13:10:46  581 582	 1492607446	 163325518	 271452.
13:10:46  582 583	 1492607446	 434648463	 271323.
13:10:46  583 584	 1492607446	 706036504	 271388.
13:10:46  584 585	 1492607446	 981100009	 275064.
13:10:47  585 586	 1492607447	 199176206	 218076.
13:10:47  586 587	 1492607447	 474275528	 275099.
13:10:47  587 588	 1492607447	 745200502	 270925.
13:10:48  588 589	 1492607448	 16085249	 270885.
13:10:48  589 590	 1492607448	 287371481	 271286.
13:10:48  590 591	 1492607448	 557798657	 270427.
13:10:48  591 592	 1492607448	 779461160	 221663.
13:10:49  592 593	 1492607449	 54276953	 274816.
13:10:49  593 594	 1492607449	 325288451	 271011.
13:10:49  594 595	 1492607449	 596780331	 271492.
13:10:49  595 596	 1492607449	 873382919	 276603.
13:10:50  596 597	 1492607450	 132401938	 259019.
13:10:50  597 598	 1492607450	 403609809	 271208.
13:10:50  598 599	 1492607450	 674585050	 270975.
13:10:50  599 600	 1492607450	 945484191	 270899.
13:10:51  600 601	 1492607451	 167739123	 222255.
13:10:51  601 602	 1492607451	 492303366	 324564.
13:10:51  602 603	 1492607451	 714749164	 222446.
13:10:51  603 604	 1492607451	 986030937	 271282.
13:10:52  604 605	 1492607452	 257474541	 271443.
13:10:52  605 606	 1492607452	 533429202	 275955.
13:10:52  606 607	 1492607452	 804974171	 271545.
13:10:53  607 608	 1492607453	 80322053	 275348.
13:10:53  608 609	 1492607453	 351819262	 271497.
13:10:53  609 610	 1492607453	 623512746	 271693.
13:10:53  610 611	 1492607453	 846595390	 223083.
13:10:54  611 612	 1492607454	 122191306	 275596.
13:10:54  612 613	 1492607454	 394080449	 271889.
13:10:54  613 614	 1492607454	 665823844	 271743.
13:10:54  614 615	 1492607454	 941231293	 275408.
13:10:55  615 616	 1492607455	 213032970	 271802.
13:10:55  616 617	 1492607455	 488895418	 275862.
13:10:55  617 618	 1492607455	 711542406	 222647.
13:10:55  618 619	 1492607455	 986978906	 275437.
13:10:56  619 620	 1492607456	 257842467	 270863.
13:10:56  620 621	 1492607456	 529106614	 271264.
13:10:56  621 622	 1492607456	 804267434	 275161.
13:10:57  622 623	 1492607457	 75129614	 270862.
13:10:57  623 624	 1492607457	 345907128	 270778.
13:10:57  624 625	 1492607457	 568247947	 222341.
13:10:57  625 626	 1492607457	 839877681	 271629.
13:10:58  626 627	 1492607458	 115281977	 275405.
13:10:58  627 628	 1492607458	 386139394	 270857.
13:10:58  628 629	 1492607458	 661304598	 275165.
13:10:58  629 630	 1492607458	 932505437	 271201.
13:10:59  630 631	 1492607459	 154457477	 221952.
13:10:59  631 632	 1492607459	 425545542	 271088.
13:10:59  632 633	 1492607459	 696982610	 271437.
13:10:59  633 634	 1492607459	 972796425	 275814.
13:11:00  634 635	 1492607460	 244019216	 271223.
13:11:00  635 636	 1492607460	 514912716	 270893.
13:11:00  636 637	 1492607460	 785941641	 271029.
13:11:01  637 638	 1492607461	 61266771	 275325.
13:11:01  638 639	 1492607461	 332238107	 270972.
13:11:01  639 640	 1492607461	 554036207	 221798.
13:11:01  640 641	 1492607461	 825204943	 271169.
13:11:02  641 642	 1492607462	 95871834	 270666.
13:11:02  642 643	 1492607462	 366864914	 270994.
13:11:02  643 644	 1492607462	 641955072	 275090.
13:11:02  644 645	 1492607462	 912921797	 270967.
13:11:03  645 646	 1492607463	 184148212	 271226.
13:11:03  646 647	 1492607463	 455306917	 271159.
13:11:03  647 648	 1492607463	 677227872	 221921.
13:11:03  648 649	 1492607463	 948199865	 270972.
13:11:04  649 650	 1492607464	 223173397	 274973.
13:11:04  650 651	 1492607464	 493933558	 270760.
13:11:04  651 652	 1492607464	 765070325	 271137.
13:11:04  652 653	 1492607464	 987251671	 222181.
13:11:05  653 654	 1492607465	 258263864	 271013.
13:11:05  654 655	 1492607465	 529099053	 270835.
13:11:05  655 656	 1492607465	 804153061	 275054.
13:11:06  656 657	 1492607466	 74844582	 270691.
13:11:06  657 658	 1492607466	 345682219	 270838.
13:11:06  658 659	 1492607466	 568031228	 222349.
13:11:06  659 660	 1492607466	 839665572	 271634.
13:11:07  660 661	 1492607467	 115367947	 275703.
13:11:07  661 662	 1492607467	 386589930	 271222.
13:11:07  662 663	 1492607467	 657539776	 270949.
13:11:07  663 664	 1492607467	 932614375	 275075.
13:11:08  664 665	 1492607468	 203564446	 270950.
13:11:08  665 666	 1492607468	 475219450	 271655.
13:11:08  666 667	 1492607468	 697733232	 222514.
13:11:08  667 668	 1492607468	 969406913	 271674.
13:11:09  668 669	 1492607469	 245733163	 276326.
13:11:09  669 670	 1492607469	 517988883	 272256.
13:11:09  670 671	 1492607469	 794201442	 276212.
13:11:10  671 672	 1492607470	 66577758	 272376.
13:11:10  672 673	 1492607470	 338367099	 271790.
13:11:10  673 674	 1492607470	 609960590	 271593.
13:11:10  674 675	 1492607470	 885745674	 275785.
13:11:11  675 676	 1492607471	 157457914	 271713.
13:11:11  676 677	 1492607471	 433054565	 275596.
13:11:11  677 678	 1492607471	 704524254	 271470.
13:11:11  678 679	 1492607471	 980000888	 275477.
13:11:12  679 680	 1492607472	 250469202	 270468.
13:11:12  680 681	 1492607472	 468441542	 217972.
13:11:12  681 682	 1492607472	 743377343	 274936.
13:11:13  682 683	 1492607473	 14041260	 270664.
13:11:13  683 684	 1492607473	 284894540	 270853.
13:11:13  684 685	 1492607473	 555743449	 270849.
13:11:13  685 686	 1492607473	 831058491	 275315.
13:11:14  686 687	 1492607474	 49244144	 218186.
13:11:14  687 688	 1492607474	 325324638	 276080.
13:11:14  688 689	 1492607474	 596427577	 271103.
13:11:14  689 690	 1492607474	 867850136	 271423.
13:11:15  690 691	 1492607475	 143230540	 275380.
13:11:15  691 692	 1492607475	 414791148	 271561.
13:11:15  692 693	 1492607475	 685638168	 270847.
13:11:15  693 694	 1492607475	 908180540	 222542.
13:11:16  694 695	 1492607476	 179613709	 271433.
13:11:16  695 696	 1492607476	 454317076	 274704.
13:11:16  696 697	 1492607476	 725208956	 270892.
13:11:16  697 698	 1492607476	 996142038	 270933.
13:11:17  698 699	 1492607477	 271658859	 275517.
13:11:17  699 700	 1492607477	 493869666	 222210.
13:11:17  700 701	 1492607477	 764770743	 270901.
13:11:18  701 702	 1492607478	 35509328	 270739.
13:11:18  702 703	 1492607478	 306264820	 270755.
13:11:18  703 704	 1492607478	 577157957	 270894.
13:11:18  704 705	 1492607478	 905189785	 328031.
13:11:19  705 706	 1492607479	 176852291	 271663.
13:11:19  706 707	 1492607479	 398587840	 221736.
13:11:19  707 708	 1492607479	 669143963	 270556.
13:11:19  708 709	 1492607479	 939923003	 270779.
13:11:20  709 710	 1492607480	 214265869	 274343.
13:11:20  710 711	 1492607480	 432130613	 217864.
13:11:20  711 712	 1492607480	 707198515	 275068.
13:11:20  712 713	 1492607480	 978327850	 271130.
13:11:21  713 714	 1492607481	 248940566	 270612.
13:11:21  714 715	 1492607481	 523658008	 274718.
13:11:21  715 716	 1492607481	 741483370	 217825.
13:11:22  716 717	 1492607482	 16358803	 274876.
13:11:22  717 718	 1492607482	 287141998	 270783.
13:11:22  718 719	 1492607482	 558113001	 270971.
13:11:22  719 720	 1492607482	 828789433	 270676.
13:11:23  720 721	 1492607483	 103595858	 274807.
13:11:23  721 722	 1492607483	 321420947	 217825.
13:11:23  722 723	 1492607483	 596142596	 274721.
13:11:23  723 724	 1492607483	 866570505	 270428.
13:11:24  724 725	 1492607484	 137053418	 270483.
13:11:24  725 726	 1492607484	 358807463	 221754.
13:11:24  726 727	 1492607484	 630087618	 271280.
13:11:24  727 728	 1492607484	 904690778	 274603.
13:11:25  728 729	 1492607485	 175397004	 270707.
13:11:25  729 730	 1492607485	 450031364	 274634.
13:11:25  730 731	 1492607485	 668461275	 218430.
13:11:25  731 732	 1492607485	 944042879	 275582.
13:11:26  732 733	 1492607486	 215421147	 271378.
13:11:26  733 734	 1492607486	 485944904	 270524.
13:11:26  734 735	 1492607486	 760585158	 274640.
13:11:26  735 736	 1492607486	 982316549	 221731.
13:11:27  736 737	 1492607487	 256894588	 274578.
13:11:27  737 738	 1492607487	 527475792	 270582.
13:11:27  738 739	 1492607487	 753241724	 225765.
13:11:28  739 740	 1492607488	 23974260	 270733.
13:11:28  740 741	 1492607488	 300104391	 276130.
13:11:28  741 742	 1492607488	 571737406	 271633.
13:11:28  742 743	 1492607488	 847266658	 275529.
13:11:29  743 744	 1492607489	 69788159	 222522.
13:11:29  744 745	 1492607489	 340760668	 270972.
13:11:29  745 746	 1492607489	 616905253	 276145.
13:11:29  746 747	 1492607489	 888017382	 271112.
13:11:30  747 748	 1492607490	 159386747	 271369.
13:11:30  748 749	 1492607490	 381670140	 222284.
13:11:30  749 750	 1492607490	 657419049	 275749.
13:11:30  750 751	 1492607490	 929031857	 271613.
13:11:31  751 752	 1492607491	 200494243	 271462.
13:11:31  752 753	 1492607491	 475811972	 275318.
13:11:31  753 754	 1492607491	 747089128	 271277.
13:11:32  754 755	 1492607492	 18788387	 271699.
13:11:32  755 756	 1492607492	 241393310	 222605.
13:11:32  756 757	 1492607492	 566704964	 325312.
13:11:32  757 758	 1492607492	 789073649	 222368.
13:11:33  758 759	 1492607493	 65003391	 275930.
13:11:33  759 760	 1492607493	 336629665	 271626.
13:11:33  760 761	 1492607493	 608558249	 271929.
13:11:33  761 762	 1492607493	 883811660	 275253.
13:11:34  762 763	 1492607494	 155834864	 272023.
13:11:34  763 764	 1492607494	 427578002	 271744.
13:11:34  764 765	 1492607494	 698907606	 271329.
13:11:34  765 766	 1492607494	 970826374	 271919.
13:11:35  766 767	 1492607495	 193276252	 222450.
13:11:35  767 768	 1492607495	 469094923	 275819.
13:11:35  768 769	 1492607495	 740861564	 271766.
13:11:36  769 770	 1492607496	 12893361	 272032.
13:11:36  770 771	 1492607496	 288354867	 275462.
13:11:36  771 772	 1492607496	 560632182	 272277.
13:11:36  772 773	 1492607496	 836006268	 275374.
13:11:37  773 774	 1492607497	 107913147	 271907.
13:11:37  774 775	 1492607497	 379717195	 271804.
13:11:37  775 776	 1492607497	 651192768	 271475.
13:11:37  776 777	 1492607497	 873769501	 222577.
13:11:38  777 778	 1492607498	 148825817	 275056.
13:11:38  778 779	 1492607498	 419960549	 271135.
13:11:38  779 780	 1492607498	 695369773	 275409.
13:11:38  780 781	 1492607498	 966907430	 271538.
13:11:39  781 782	 1492607499	 189409770	 222502.
13:11:39  782 783	 1492607499	 465052549	 275643.
13:11:39  783 784	 1492607499	 736637180	 271585.
13:11:40  784 785	 1492607500	 8227908	 271591.
13:11:40  785 786	 1492607500	 283874850	 275646.
13:11:40  786 787	 1492607500	 555061582	 271187.
13:11:40  787 788	 1492607500	 777980415	 222919.
13:11:41  788 789	 1492607501	 53730992	 275751.
13:11:41  789 790	 1492607501	 324751619	 271020.
13:11:41  790 791	 1492607501	 596041957	 271291.
13:11:41  791 792	 1492607501	 871633052	 275591.
13:11:42  792 793	 1492607502	 94129621	 222496.
13:11:42  793 794	 1492607502	 365606171	 271477.
13:11:42  794 795	 1492607502	 637318116	 271712.
13:11:42  795 796	 1492607502	 912673450	 275355.
13:11:43  796 797	 1492607503	 183915478	 271242.
13:11:43  797 798	 1492607503	 459245187	 275330.
13:11:43  798 799	 1492607503	 730334572	 271089.
13:11:43  799 800	 1492607503	 952657889	 222324.
13:11:44  800 801	 1492607504	 223378219	 270720.
13:11:44  801 802	 1492607504	 499015354	 275637.
13:11:44  802 803	 1492607504	 771162282	 272147.
13:11:45  803 804	 1492607505	 42752743	 271590.
13:11:45  804 805	 1492607505	 318271345	 275519.
13:11:45  805 806	 1492607505	 590720073	 272449.
13:11:45  806 807	 1492607505	 862772040	 272052.
13:11:46  807 808	 1492607506	 139257109	 276485.
13:11:46  808 809	 1492607506	 410696241	 271439.
13:11:46  809 810	 1492607506	 632866210	 222170.
13:11:46  810 811	 1492607506	 903778354	 270912.
13:11:47  811 812	 1492607507	 178999821	 275221.
13:11:47  812 813	 1492607507	 449919592	 270920.
13:11:47  813 814	 1492607507	 720883909	 270965.
13:11:47  814 815	 1492607507	 992439088	 271555.
13:11:48  815 816	 1492607508	 267707621	 275268.
13:11:48  816 817	 1492607508	 490073576	 222366.
13:11:48  817 818	 1492607508	 761256440	 271183.
13:11:49  818 819	 1492607509	 32201848	 270946.
13:11:49  819 820	 1492607509	 307768080	 275566.
13:11:49  820 821	 1492607509	 579275549	 271507.
13:11:49  821 822	 1492607509	 850856436	 271581.
13:11:50  822 823	 1492607510	 126073838	 275217.
13:11:50  823 824	 1492607510	 397649465	 271576.
13:11:50  824 825	 1492607510	 669036523	 271387.
13:11:50  825 826	 1492607510	 891561688	 222525.
13:11:51  826 827	 1492607511	 167220963	 275660.
13:11:51  827 828	 1492607511	 438949399	 271728.
13:11:51  828 829	 1492607511	 710404199	 271455.
13:11:51  829 830	 1492607511	 986330300	 275926.
13:11:52  830 831	 1492607512	 257308363	 270978.
13:11:52  831 832	 1492607512	 532820238	 275512.
13:11:52  832 833	 1492607512	 804566479	 271746.
13:11:53  833 834	 1492607513	 75763564	 271197.
13:11:53  834 835	 1492607513	 346990260	 271227.
13:11:53  835 836	 1492607513	 618528131	 271538.
13:11:53  836 837	 1492607513	 894227965	 275700.
13:11:54  837 838	 1492607514	 165574349	 271346.
13:11:54  838 839	 1492607514	 436927802	 271354.
13:11:54  839 840	 1492607514	 708326222	 271398.
13:11:54  840 841	 1492607514	 983948268	 275622.
13:11:55  841 842	 1492607515	 255366566	 271418.
13:11:55  842 843	 1492607515	 526894429	 271528.
13:11:55  843 844	 1492607515	 749162897	 222269.
13:11:56  844 845	 1492607516	 20149557	 270986.
13:11:56  845 846	 1492607516	 295224889	 275076.
13:11:56  846 847	 1492607516	 566632587	 271407.
13:11:56  847 848	 1492607516	 837608803	 270977.
13:11:57  848 849	 1492607517	 108675700	 271066.
13:11:57  849 850	 1492607517	 383751490	 275076.
13:11:57  850 851	 1492607517	 654746553	 270995.
13:11:57  851 852	 1492607517	 876991738	 222245.
13:11:58  852 853	 1492607518	 148201159	 271210.
13:11:58  853 854	 1492607518	 419461318	 271260.
13:11:58  854 855	 1492607518	 690916554	 271455.
13:11:58  855 856	 1492607518	 966386169	 275470.
13:11:59  856 857	 1492607519	 237816313	 271430.
13:11:59  857 858	 1492607519	 509255313	 271439.
13:11:59  858 859	 1492607519	 780299968	 271045.
13:12:00  859 860	 1492607520	 55080380	 274780.
13:12:00  860 861	 1492607520	 325972842	 270893.
13:12:00  861 862	 1492607520	 596921182	 270948.
13:12:00  862 863	 1492607520	 819028967	 222108.
13:12:01  863 864	 1492607521	 89919302	 270890.
13:12:01  864 865	 1492607521	 364873287	 274954.
13:12:01  865 866	 1492607521	 635991283	 271118.
13:12:01  866 867	 1492607521	 910875872	 274885.
13:12:02  867 868	 1492607522	 181907602	 271031.
13:12:02  868 869	 1492607522	 452781842	 270875.
13:12:02  869 870	 1492607522	 674885900	 222104.
13:12:02  870 871	 1492607522	 945837555	 270951.
13:12:03  871 872	 1492607523	 220723191	 274886.
13:12:03  872 873	 1492607523	 491756056	 271033.
13:12:03  873 874	 1492607523	 763033801	 271278.
13:12:04  874 875	 1492607524	 38221973	 275188.
13:12:04  875 876	 1492607524	 309343357	 271121.
13:12:04  876 877	 1492607524	 531949839	 222607.
13:12:04  877 878	 1492607524	 802856834	 270906.
13:12:05  878 879	 1492607525	 77495088	 274639.
13:12:05  879 880	 1492607525	 348486259	 270991.
13:12:05  880 881	 1492607525	 619553115	 271067.
13:12:05  881 882	 1492607525	 890873418	 271320.
13:12:06  882 883	 1492607526	 166133111	 275260.
13:12:06  883 884	 1492607526	 388379903	 222247.
13:12:06  884 885	 1492607526	 659951096	 271571.
13:12:06  885 886	 1492607526	 931570781	 271619.
13:12:07  886 887	 1492607527	 202960367	 271390.
13:12:07  887 888	 1492607527	 474218257	 271258.
13:12:07  888 889	 1492607527	 749477960	 275260.
13:12:08  889 890	 1492607528	 20398496	 270920.
13:12:08  890 891	 1492607528	 291457809	 271059.
13:12:08  891 892	 1492607528	 566341232	 274884.
13:12:08  892 893	 1492607528	 784240700	 217899.
13:12:09  893 894	 1492607529	 59766029	 275526.
13:12:09  894 895	 1492607529	 331065813	 271300.
13:12:09  895 896	 1492607529	 602385471	 271319.
13:12:09  896 897	 1492607529	 873891868	 271507.
13:12:10  897 898	 1492607530	 149930944	 276039.
13:12:10  898 899	 1492607530	 422157244	 272226.
13:12:10  899 900	 1492607530	 697699173	 275542.
13:12:10  900 901	 1492607530	 969468604	 271769.
13:12:11  901 902	 1492607531	 241290750	 271822.
13:12:11  902 903	 1492607531	 517179123	 275889.
13:12:11  903 904	 1492607531	 788606497	 271427.
13:12:12  904 905	 1492607532	 59700012	 271094.
13:12:12  905 906	 1492607532	 282024321	 222324.
13:12:12  906 907	 1492607532	 553143739	 271120.
13:12:12  907 908	 1492607532	 828577025	 275433.
13:12:13  908 909	 1492607533	 99795256	 271218.
13:12:13  909 910	 1492607533	 371035531	 271240.
13:12:13  910 911	 1492607533	 646327071	 275292.
13:12:13  911 912	 1492607533	 917956279	 271629.
13:12:14  912 913	 1492607534	 140749306	 222793.
13:12:14  913 914	 1492607534	 416691928	 275943.
13:12:14  914 915	 1492607534	 688300739	 271608.
13:12:14  915 916	 1492607534	 963324163	 275024.
13:12:15  916 917	 1492607535	 234592850	 271269.
13:12:15  917 918	 1492607535	 505990354	 271397.
13:12:15  918 919	 1492607535	 777720305	 271730.
13:12:16  919 920	 1492607536	 52884697	 275164.
13:12:16  920 921	 1492607536	 324730733	 271846.
13:12:16  921 922	 1492607536	 546938901	 222209.
13:12:16  922 923	 1492607536	 822040870	 275102.
13:12:17  923 924	 1492607537	 93410445	 271369.
13:12:17  924 925	 1492607537	 364978185	 271568.
13:12:17  925 926	 1492607537	 640825422	 275847.
13:12:17  926 927	 1492607537	 912421176	 271596.
13:12:18  927 928	 1492607538	 183667290	 271246.
13:12:18  928 929	 1492607538	 406276336	 222609.
13:12:18  929 930	 1492607538	 681456982	 275181.
13:12:18  930 931	 1492607538	 952252456	 270795.
13:12:19  931 932	 1492607539	 227080421	 274828.
13:12:19  932 933	 1492607539	 444855823	 217776.
13:12:19  933 934	 1492607539	 719624456	 274768.
13:12:19  934 935	 1492607539	 990211814	 270588.
13:12:20  935 936	 1492607540	 212177152	 221965.
13:12:20  936 937	 1492607540	 487296220	 275119.
13:12:20  937 938	 1492607540	 758533738	 271237.
13:12:21  938 939	 1492607541	 29628532	 271095.
13:12:21  939 940	 1492607541	 304960134	 275332.
13:12:21  940 941	 1492607541	 523341392	 218381.
13:12:21  941 942	 1492607541	 798689523	 275348.
13:12:22  942 943	 1492607542	 70609504	 271920.
13:12:22  943 944	 1492607542	 342410477	 271801.
13:12:22  944 945	 1492607542	 617423025	 275013.
13:12:22  945 946	 1492607542	 888286502	 270863.
13:12:23  946 947	 1492607543	 163499646	 275213.
13:12:23  947 948	 1492607543	 385488536	 221990.
13:12:23  948 949	 1492607543	 656564751	 271075.
13:12:23  949 950	 1492607543	 927766968	 271203.
13:12:24  950 951	 1492607544	 202989495	 275222.
13:12:24  951 952	 1492607544	 475089438	 272100.
13:12:24  952 953	 1492607544	 697779732	 222690.
13:12:24  953 954	 1492607544	 973319439	 275540.
13:12:25  954 955	 1492607545	 244969780	 271650.
13:12:25  955 956	 1492607545	 516177724	 271208.
13:12:25  956 957	 1492607545	 792239112	 276062.
13:12:26  957 958	 1492607546	 63425149	 271186.
13:12:26  958 959	 1492607546	 334472794	 271047.
13:12:26  959 960	 1492607546	 556854056	 222382.
13:12:26  960 961	 1492607546	 827906516	 271052.
13:12:27  961 962	 1492607547	 103392712	 275486.
13:12:27  962 963	 1492607547	 375012568	 271620.
13:12:27  963 964	 1492607547	 646400154	 271388.
13:12:27  964 965	 1492607547	 922026746	 275626.
13:12:28  965 966	 1492607548	 193790482	 271764.
13:12:28  966 967	 1492607548	 465291694	 271501.
13:12:28  967 968	 1492607548	 740745079	 275454.
13:12:29  968 969	 1492607549	 12032923	 271288.
13:12:29  969 970	 1492607549	 282875508	 270842.
13:12:29  970 971	 1492607549	 558956749	 276081.
13:12:29  971 972	 1492607549	 830804603	 271848.
13:12:30  972 973	 1492607550	 106644288	 275840.
13:12:30  973 974	 1492607550	 325169539	 218525.
13:12:30  974 975	 1492607550	 600752179	 275583.
13:12:30  975 976	 1492607550	 872097791	 271345.
13:12:31  976 977	 1492607551	 147657693	 275560.
13:12:31  977 978	 1492607551	 419182385	 271525.
13:12:31  978 979	 1492607551	 690588358	 271406.
13:12:31  979 980	 1492607551	 961673184	 271085.
13:12:32  980 981	 1492607552	 237369857	 275697.
13:12:32  981 982	 1492607552	 508734291	 271364.
13:12:32  982 983	 1492607552	 779945070	 271211.
13:12:33  983 984	 1492607553	 55270930	 275326.
13:12:33  984 985	 1492607553	 326749326	 271478.
13:12:33  985 986	 1492607553	 598800787	 272051.
13:12:33  986 987	 1492607553	 870542121	 271742.
13:12:34  987 988	 1492607554	 146086807	 275545.
13:12:34  988 989	 1492607554	 417654002	 271567.
13:12:34  989 990	 1492607554	 689179566	 271525.
13:12:34  990 991	 1492607554	 960780882	 271602.
13:12:35  991 992	 1492607555	 236158453	 275377.
13:12:35  992 993	 1492607555	 507286369	 271128.
13:12:35  993 994	 1492607555	 778555322	 271269.
13:12:36  994 995	 1492607556	 49904692	 271349.
13:12:36  995 996	 1492607556	 325550059	 275646.
13:12:36  996 997	 1492607556	 596865382	 271315.
13:12:36  997 998	 1492607556	 868456010	 271591.
13:12:37  998 999	 1492607557	 140630627	 272175.
13:12:37  999 1000	 1492607557	 416467662	 275836.
13:12:37 1000 1001	 1492607557	 688594598	 272127.
13:12:37 1001 1002	 1492607557	 964953018	 276359.
13:12:38 1002 1003	 1492607558	 187279809	 222327.
13:12:38 1003 1004	 1492607558	 458668420	 271388.
13:12:38 1004 1005	 1492607558	 734119988	 275452.
13:12:39 1005 1006	 1492607559	 4679944	 270560.
13:12:39 1006 1007	 1492607559	 275288225	 270608.
13:12:39 1007 1008	 1492607559	 497188886	 221901.
13:12:39 1008 1009	 1492607559	 767868838	 270680.
13:12:40 1009 1010	 1492607560	 38716024	 270847.
13:12:40 1010 1011	 1492607560	 313222044	 274506.
13:12:40 1011 1012	 1492607560	 531453062	 218231.
13:12:40 1012 1013	 1492607560	 806474058	 275021.
13:12:41 1013 1014	 1492607561	 77678998	 271205.
13:12:41 1014 1015	 1492607561	 348568983	 270890.
13:12:41 1015 1016	 1492607561	 624109994	 275541.
13:12:41 1016 1017	 1492607561	 895508377	 271398.
13:12:42 1017 1018	 1492607562	 166651869	 271144.
13:12:42 1018 1019	 1492607562	 442038302	 275386.
13:12:42 1019 1020	 1492607562	 660567806	 218530.
13:12:42 1020 1021	 1492607562	 936055921	 275488.
13:12:43 1021 1022	 1492607563	 211585481	 275529.
13:12:43 1022 1023	 1492607563	 482696652	 271111.
13:12:43 1023 1024	 1492607563	 754097071	 271401.
13:12:43 1024 1025	 1492607563	 976328531	 222231.
13:12:44 1025 1026	 1492607564	 252415991	 276088.
13:12:44 1026 1027	 1492607564	 524107088	 271691.
13:12:44 1027 1028	 1492607564	 795802354	 271695.
13:12:45 1028 1029	 1492607565	 71448137	 275646.
13:12:45 1029 1030	 1492607565	 343572502	 272124.
13:12:45 1030 1031	 1492607565	 615637706	 272065.
13:12:45 1031 1032	 1492607565	 892126767	 276489.
13:12:46 1032 1033	 1492607566	 163659463	 271533.
13:12:46 1033 1034	 1492607566	 434915621	 271256.
13:12:46 1034 1035	 1492607566	 709791952	 274877.
13:12:46 1035 1036	 1492607566	 981102873	 271311.
13:12:47 1036 1037	 1492607567	 251949904	 270847.
13:12:47 1037 1038	 1492607567	 527566630	 275616.
13:12:47 1038 1039	 1492607567	 750295716	 222729.
13:12:48 1039 1040	 1492607568	 21118485	 270823.
13:12:48 1040 1041	 1492607568	 296762474	 275644.
13:12:48 1041 1042	 1492607568	 567971331	 271209.
13:12:48 1042 1043	 1492607568	 790502096	 222531.
13:12:49 1043 1044	 1492607569	 61295472	 270793.
13:12:49 1044 1045	 1492607569	 336827561	 275532.
13:12:49 1045 1046	 1492607569	 608706247	 271879.
13:12:49 1046 1047	 1492607569	 884696207	 275990.
13:12:50 1047 1048	 1492607570	 107112475	 222416.
13:12:50 1048 1049	 1492607570	 378991510	 271879.
13:12:50 1049 1050	 1492607570	 650272934	 271282.
13:12:50 1050 1051	 1492607570	 924915560	 274642.
13:12:51 1051 1052	 1492607571	 196695378	 271780.
13:12:51 1052 1053	 1492607571	 472690513	 275995.
13:12:51 1053 1054	 1492607571	 690568542	 217878.
13:12:51 1054 1055	 1492607571	 965806261	 275238.
13:12:52 1055 1056	 1492607572	 237821324	 272015.
13:12:52 1056 1057	 1492607572	 513411299	 275590.
13:12:52 1057 1058	 1492607572	 785256556	 271845.
13:12:53 1058 1059	 1492607573	 60928138	 275672.
13:12:53 1059 1060	 1492607573	 332741432	 271813.
13:12:53 1060 1061	 1492607573	 608994802	 276254.
13:12:53 1061 1062	 1492607573	 880273751	 271278.
13:12:54 1062 1063	 1492607574	 102567929	 222295.
13:12:54 1063 1064	 1492607574	 378022486	 275454.
13:12:54 1064 1065	 1492607574	 649090973	 271069.
13:12:54 1065 1066	 1492607574	 924291228	 275200.
13:12:55 1066 1067	 1492607575	 195701413	 271410.
13:12:55 1067 1068	 1492607575	 417926447	 222225.
13:12:55 1068 1069	 1492607575	 693376679	 275450.
13:12:55 1069 1070	 1492607575	 964985826	 271609.
13:12:56 1070 1071	 1492607576	 235820750	 270835.
13:12:56 1071 1072	 1492607576	 511414290	 275594.
13:12:56 1072 1073	 1492607576	 729337006	 217923.
13:12:56 1073 1074	 1492607577	 3896548	 274559.
13:12:57 1074 1075	 1492607577	 275204164	 271308.
13:12:57 1075 1076	 1492607577	 497654090	 222450.
13:12:57 1076 1077	 1492607577	 773200832	 275547.
13:12:58 1077 1078	 1492607578	 44774909	 271574.
13:12:58 1078 1079	 1492607578	 316173281	 271398.
13:12:58 1079 1080	 1492607578	 588574245	 272401.
13:12:58 1080 1081	 1492607578	 860466107	 271892.
13:12:59 1081 1082	 1492607579	 136403728	 275937.
13:12:59 1082 1083	 1492607579	 407521210	 271118.
13:12:59 1083 1084	 1492607579	 679244238	 271723.
13:12:59 1084 1085	 1492607579	 902315676	 223071.
13:13:00 1085 1086	 1492607580	 177237204	 274922.
13:13:00 1086 1087	 1492607580	 448229257	 270992.
13:13:00 1087 1088	 1492607580	 719789991	 271561.
13:13:00 1088 1089	 1492607580	 991233138	 271443.
13:13:01 1089 1090	 1492607581	 266366749	 275133.
13:13:01 1090 1091	 1492607581	 545125259	 278759.
13:13:01 1091 1092	 1492607581	 820528468	 275403.
13:13:02 1092 1093	 1492607582	 91750448	 271222.
13:13:02 1093 1094	 1492607582	 363169643	 271419.
13:13:02 1094 1095	 1492607582	 634435742	 271266.
13:13:02 1095 1096	 1492607582	 905616521	 271181.
13:13:03 1096 1097	 1492607583	 177375790	 271759.
13:13:03 1097 1098	 1492607583	 453074804	 275700.
13:13:03 1098 1099	 1492607583	 724545694	 271470.
13:13:03 1099 1100	 1492607583	 946923811	 222379.
13:13:04 1100 1101	 1492607584	 218016831	 271093.
13:13:04 1101 1102	 1492607584	 489429735	 271412.
13:13:04 1102 1103	 1492607584	 764512258	 275083.
13:13:05 1103 1104	 1492607585	 35370271	 270858.
13:13:05 1104 1105	 1492607585	 306582459	 271212.
13:13:05 1105 1106	 1492607585	 581822410	 275240.
13:13:05 1106 1107	 1492607585	 852884359	 271062.
13:13:06 1107 1108	 1492607586	 124256392	 271372.
13:13:06 1108 1109	 1492607586	 346556416	 222300.
13:13:06 1109 1110	 1492607586	 617834103	 271278.
13:13:06 1110 1111	 1492607586	 889059390	 271225.
13:13:07 1111 1112	 1492607587	 160599081	 271540.
13:13:07 1112 1113	 1492607587	 431616927	 271018.
13:13:07 1113 1114	 1492607587	 707071694	 275454.
13:13:07 1114 1115	 1492607587	 978569042	 271498.
13:13:08 1115 1116	 1492607588	 253865699	 275296.
13:13:08 1116 1117	 1492607588	 524440307	 270575.
13:13:08 1117 1118	 1492607588	 746514827	 222074.
13:13:09 1118 1119	 1492607589	 17567973	 271054.
13:13:09 1119 1120	 1492607589	 288548890	 270981.
13:13:09 1120 1121	 1492607589	 563618479	 275069.
13:13:09 1121 1122	 1492607589	 833985746	 270367.
13:13:10 1122 1123	 1492607590	 104730266	 270745.
13:13:10 1123 1124	 1492607590	 326668260	 221938.
13:13:10 1124 1125	 1492607590	 597810571	 271142.
13:13:10 1125 1126	 1492607590	 869070856	 271261.
13:13:11 1126 1127	 1492607591	 144008680	 274937.
13:13:11 1127 1128	 1492607591	 415301220	 271293.
13:13:11 1128 1129	 1492607591	 686310480	 271009.
13:13:11 1129 1130	 1492607591	 961635457	 275325.
