07:00:26    0 Step	 time(s)	 time(ns)	 delta(ms)
07:00:26    0 1	 1492758026	 756278151	 943.
07:00:27    1 2	 1492758027	 32693203	 276415.
07:00:27    2 3	 1492758027	 304232640	 271539.
07:00:27    3 4	 1492758027	 579276823	 275045.
07:00:27    4 5	 1492758027	 800918266	 221641.
07:00:28    5 6	 1492758028	 71635236	 270717.
07:00:28    6 7	 1492758028	 347198645	 275563.
07:00:28    7 8	 1492758028	 569693566	 222495.
07:00:28    8 9	 1492758028	 840845994	 271153.
07:00:29    9 10	 1492758029	 116905429	 276059.
07:00:29   10 11	 1492758029	 388177919	 271273.
07:00:29   11 12	 1492758029	 610715857	 222538.
07:00:29   12 13	 1492758029	 886235491	 275519.
07:00:30   13 14	 1492758030	 157685595	 271450.
07:00:30   14 15	 1492758030	 379937280	 222252.
07:00:30   15 16	 1492758030	 655468293	 275531.
07:00:30   16 17	 1492758030	 931046982	 275579.
07:00:31   17 18	 1492758031	 202935739	 271888.
07:00:31   18 19	 1492758031	 425482128	 222547.
07:00:31   19 20	 1492758031	 701489706	 276007.
07:00:31   20 21	 1492758031	 973045738	 271556.
07:00:32   21 22	 1492758032	 248472968	 275428.
07:00:32   22 23	 1492758032	 471204786	 222731.
07:00:32   23 24	 1492758032	 742968336	 271764.
07:00:33   24 25	 1492758033	 18451016	 275483.
07:00:33   25 26	 1492758033	 289617530	 271166.
07:00:33   26 27	 1492758033	 511653345	 222036.
07:00:33   27 28	 1492758033	 787041607	 275388.
07:00:34   28 29	 1492758034	 58514580	 271473.
07:00:34   29 30	 1492758034	 280870674	 222357.
07:00:34   30 31	 1492758034	 556273709	 275402.
07:00:34   31 32	 1492758034	 827198285	 270925.
07:00:35   32 33	 1492758035	 49090707	 221892.
07:00:35   33 34	 1492758035	 324325573	 275235.
07:00:35   34 35	 1492758035	 595405433	 271080.
07:00:35   35 36	 1492758035	 817677606	 222272.
07:00:36   36 37	 1492758036	 92677192	 275000.
07:00:36   37 38	 1492758036	 368371805	 275694.
07:00:36   38 39	 1492758036	 591222691	 222851.
07:00:36   39 40	 1492758036	 863017207	 271795.
07:00:37   40 41	 1492758037	 138770234	 275753.
07:00:37   41 42	 1492758037	 410453484	 271683.
07:00:37   42 43	 1492758037	 633020083	 222567.
07:00:37   43 44	 1492758037	 909004420	 275996.
07:00:38   44 45	 1492758038	 180638102	 271622.
07:00:38   45 46	 1492758038	 456365113	 275727.
07:00:38   46 47	 1492758038	 731863619	 275498.
07:00:39   47 48	 1492758039	 8021214	 276158.
07:00:39   48 49	 1492758039	 231399253	 223378.
07:00:39   49 50	 1492758039	 503160634	 271762.
07:00:39   50 51	 1492758039	 779258355	 276097.
07:00:40   51 52	 1492758040	 54607026	 275349.
07:00:40   52 53	 1492758040	 277309356	 222702.
07:00:40   53 54	 1492758040	 549114953	 271806.
07:00:40   54 55	 1492758040	 825151129	 276036.
07:00:41   55 56	 1492758041	 96915491	 271764.
07:00:41   56 57	 1492758041	 319403044	 222488.
07:00:41   57 58	 1492758041	 595117921	 275715.
07:00:41   58 59	 1492758041	 866954974	 271837.
07:00:42   59 60	 1492758042	 142645336	 275690.
07:00:42   60 61	 1492758042	 414937243	 272292.
07:00:42   61 62	 1492758042	 691987884	 277051.
07:00:42   62 63	 1492758042	 964694129	 272706.
07:00:43   63 64	 1492758043	 241649699	 276955.
07:00:43   64 65	 1492758043	 518359362	 276710.
07:00:43   65 66	 1492758043	 790587515	 272228.
07:00:44   66 67	 1492758044	 67029975	 276443.
07:00:44   67 68	 1492758044	 339400390	 272370.
07:00:44   68 69	 1492758044	 612158882	 272759.
07:00:44   69 70	 1492758044	 888687309	 276528.
07:00:45   70 71	 1492758045	 111460900	 222774.
07:00:45   71 72	 1492758045	 382137896	 270677.
07:00:45   72 73	 1492758045	 653018181	 270880.
07:00:45   73 74	 1492758045	 927395481	 274377.
07:00:46   74 75	 1492758046	 149631317	 222236.
07:00:46   75 76	 1492758046	 421328277	 271697.
07:00:46   76 77	 1492758046	 693035783	 271707.
07:00:46   77 78	 1492758046	 968657674	 275622.
07:00:47   78 79	 1492758047	 239948626	 271291.
07:00:47   79 80	 1492758047	 461546811	 221599.
07:00:47   80 81	 1492758047	 732799306	 271252.
07:00:48   81 82	 1492758048	 8553737	 275754.
07:00:48   82 83	 1492758048	 281123823	 272570.
07:00:48   83 84	 1492758048	 557752174	 276629.
07:00:48   84 85	 1492758048	 829944464	 272192.
07:00:49   85 86	 1492758049	 105570821	 275627.
07:00:49   86 87	 1492758049	 328052056	 222481.
07:00:49   87 88	 1492758049	 599727330	 271675.
07:00:49   88 89	 1492758049	 875225065	 275498.
07:00:50   89 90	 1492758050	 146473288	 271248.
07:00:50   90 91	 1492758050	 368566867	 222093.
07:00:50   91 92	 1492758050	 644319912	 275754.
07:00:50   92 93	 1492758050	 920328303	 276008.
07:00:51   93 94	 1492758051	 191106801	 270778.
07:00:51   94 95	 1492758051	 412519082	 221413.
07:00:51   95 96	 1492758051	 687771672	 275252.
07:00:51   96 97	 1492758051	 959299159	 271528.
07:00:52   97 98	 1492758052	 185333796	 226034.
07:00:52   98 99	 1492758052	 456715257	 271382.
07:00:52   99 100	 1492758052	 732297528	 275582.
07:00:53  100 101	 1492758053	 7997401	 275700.
07:00:53  101 102	 1492758053	 229777195	 221780.
07:00:53  102 103	 1492758053	 505710579	 275933.
07:00:53  103 104	 1492758053	 776788092	 271078.
07:00:53  104 105	 1492758053	 999213380	 222425.
07:00:54  105 106	 1492758054	 275088783	 275875.
07:00:54  106 107	 1492758054	 546678110	 271590.
07:00:54  107 108	 1492758054	 822742503	 276064.
07:00:55  108 109	 1492758055	 44981567	 222239.
07:00:55  109 110	 1492758055	 316394820	 271414.
07:00:55  110 111	 1492758055	 591456860	 275062.
07:00:55  111 112	 1492758055	 863049402	 271592.
07:00:56  112 113	 1492758056	 86005058	 222956.
07:00:56  113 114	 1492758056	 357715087	 271710.
07:00:56  114 115	 1492758056	 633399480	 275684.
07:00:56  115 116	 1492758056	 909142576	 275743.
07:00:57  116 117	 1492758057	 131226642	 222084.
07:00:57  117 118	 1492758057	 402272532	 271046.
07:00:57  118 119	 1492758057	 677545313	 275273.
07:00:57  119 120	 1492758057	 899731680	 222186.
07:00:58  120 121	 1492758058	 171413716	 271682.
07:00:58  121 122	 1492758058	 447706263	 276293.
07:00:58  122 123	 1492758058	 719681936	 271976.
07:00:58  123 124	 1492758058	 942292486	 222610.
07:00:59  124 125	 1492758059	 217792169	 275500.
07:00:59  125 126	 1492758059	 489336221	 271544.
07:00:59  126 127	 1492758059	 711842159	 222506.
07:00:59  127 128	 1492758059	 987480212	 275638.
07:01:00  128 129	 1492758060	 257803637	 270323.
07:01:00  129 130	 1492758060	 529048024	 271245.
07:01:00  130 131	 1492758060	 755132065	 226084.
07:01:01  131 132	 1492758061	 25483785	 270351.
07:01:01  132 133	 1492758061	 296357281	 270874.
07:01:01  133 134	 1492758061	 567471727	 271114.
07:01:01  134 135	 1492758061	 838291803	 270821.
07:01:02  135 136	 1492758062	 60410355	 222118.
07:01:02  136 137	 1492758062	 335113863	 274704.
07:01:02  137 138	 1492758062	 606430571	 271316.
07:01:02  138 139	 1492758062	 878123983	 271694.
07:01:03  139 140	 1492758063	 149853278	 271729.
07:01:03  140 141	 1492758063	 425646597	 275793.
07:01:03  141 142	 1492758063	 697076290	 271430.
07:01:03  142 143	 1492758063	 968198096	 271122.
07:01:04  143 144	 1492758064	 243354984	 275157.
07:01:04  144 145	 1492758064	 514291380	 270936.
07:01:04  145 146	 1492758064	 736640499	 222349.
07:01:05  146 147	 1492758065	 7681745	 271041.
07:01:05  147 148	 1492758065	 278742336	 271061.
07:01:05  148 149	 1492758065	 553910479	 275168.
07:01:05  149 150	 1492758065	 825300895	 271391.
07:01:06  150 151	 1492758066	 96494317	 271193.
07:01:06  151 152	 1492758066	 319324430	 222830.
07:01:06  152 153	 1492758066	 595188660	 275864.
07:01:06  153 154	 1492758066	 865912290	 270724.
07:01:07  154 155	 1492758067	 137110314	 271198.
07:01:07  155 156	 1492758067	 413210112	 276100.
07:01:07  156 157	 1492758067	 685055047	 271845.
07:01:07  157 158	 1492758067	 956819667	 271764.
07:01:08  158 159	 1492758068	 232965945	 276147.
07:01:08  159 160	 1492758068	 503865540	 270899.
07:01:08  160 161	 1492758068	 774831193	 270966.
07:01:09  161 162	 1492758069	 45901580	 271070.
07:01:09  162 163	 1492758069	 320996659	 275095.
07:01:09  163 164	 1492758069	 539186903	 218191.
07:01:09  164 165	 1492758069	 814459643	 275272.
07:01:10  165 166	 1492758070	 85885752	 271426.
07:01:10  166 167	 1492758070	 362183194	 276298.
07:01:10  167 168	 1492758070	 633372902	 271190.
07:01:10  168 169	 1492758070	 905054456	 271681.
07:01:11  169 170	 1492758071	 180967962	 275914.
07:01:11  170 171	 1492758071	 452619118	 271651.
07:01:11  171 172	 1492758071	 728390490	 275771.
07:01:11  172 173	 1492758071	 946585018	 218195.
07:01:12  173 174	 1492758072	 221953550	 275368.
07:01:12  174 175	 1492758072	 492993352	 271040.
07:01:12  175 176	 1492758072	 764254488	 271261.
07:01:13  176 177	 1492758073	 39840741	 275586.
07:01:13  177 178	 1492758073	 261958611	 222118.
07:01:13  178 179	 1492758073	 533283366	 271325.
07:01:13  179 180	 1492758073	 808488573	 275205.
07:01:14  180 181	 1492758074	 80454568	 271966.
07:01:14  181 182	 1492758074	 302914501	 222460.
07:01:14  182 183	 1492758074	 578177961	 275264.
07:01:14  183 184	 1492758074	 849356315	 271178.
07:01:15  184 185	 1492758075	 120645771	 271289.
07:01:15  185 186	 1492758075	 396129194	 275484.
07:01:15  186 187	 1492758075	 613962581	 217833.
07:01:15  187 188	 1492758075	 889914031	 275952.
07:01:16  188 189	 1492758076	 161582279	 271668.
07:01:16  189 190	 1492758076	 432998140	 271416.
07:01:16  190 191	 1492758076	 708483348	 275485.
07:01:16  191 192	 1492758076	 979787184	 271304.
07:01:17  192 193	 1492758077	 201598046	 221811.
07:01:17  193 194	 1492758077	 472112425	 270514.
07:01:17  194 195	 1492758077	 747108429	 274996.
07:01:17  195 196	 1492758077	 969113841	 222006.
07:01:18  196 197	 1492758078	 240822342	 271708.
07:01:18  197 198	 1492758078	 512381690	 271559.
07:01:18  198 199	 1492758078	 788458122	 276077.
07:01:19  199 200	 1492758079	 59579384	 271121.
07:01:19  200 201	 1492758079	 281091826	 221512.
07:01:19  201 202	 1492758079	 551247524	 270156.
07:01:19  202 203	 1492758079	 825209083	 273962.
07:01:20  203 204	 1492758080	 42915513	 217706.
07:01:20  204 205	 1492758080	 318395430	 275480.
07:01:20  205 206	 1492758080	 590103062	 271708.
07:01:20  206 207	 1492758080	 865650006	 275547.
07:01:21  207 208	 1492758081	 141780252	 276130.
07:01:21  208 209	 1492758081	 414204511	 272424.
07:01:21  209 210	 1492758081	 686546571	 272342.
07:01:21  210 211	 1492758081	 962999250	 276453.
07:01:22  211 212	 1492758082	 185261204	 222262.
07:01:22  212 213	 1492758082	 456387147	 271126.
07:01:22  213 214	 1492758082	 731562156	 275175.
07:01:22  214 215	 1492758083	 2647617	 271085.
07:01:23  215 216	 1492758083	 273575121	 270928.
07:01:23  216 217	 1492758083	 548809470	 275234.
07:01:23  217 218	 1492758083	 770860511	 222051.
07:01:24  218 219	 1492758084	 41637577	 270777.
07:01:24  219 220	 1492758084	 312608798	 270972.
07:01:24  220 221	 1492758084	 583730029	 271121.
07:01:24  221 222	 1492758084	 858947766	 275217.
07:01:25  222 223	 1492758085	 81828002	 222881.
07:01:25  223 224	 1492758085	 353403348	 271575.
07:01:25  224 225	 1492758085	 628992554	 275589.
07:01:25  225 226	 1492758085	 900316481	 271324.
07:01:26  226 227	 1492758086	 171480965	 271165.
07:01:26  227 228	 1492758086	 393862367	 222381.
07:01:26  228 229	 1492758086	 665286892	 271425.
07:01:26  229 230	 1492758086	 940743563	 275456.
07:01:27  230 231	 1492758087	 212112878	 271370.
07:01:27  231 232	 1492758087	 487383277	 275270.
07:01:27  232 233	 1492758087	 709591032	 222208.
07:01:27  233 234	 1492758087	 980746696	 271155.
07:01:28  234 235	 1492758088	 256243184	 275497.
07:01:28  235 236	 1492758088	 528220319	 271977.
07:01:28  236 237	 1492758088	 804286330	 276066.
07:01:29  237 238	 1492758089	 26998056	 222712.
07:01:29  238 239	 1492758089	 297961131	 270963.
07:01:29  239 240	 1492758089	 573618025	 275657.
07:01:29  240 241	 1492758089	 796148611	 222530.
07:01:30  241 242	 1492758090	 71244888	 275097.
07:01:30  242 243	 1492758090	 342193169	 270948.
07:01:30  243 244	 1492758090	 564691240	 222498.
07:01:30  244 245	 1492758090	 840371869	 275681.
07:01:31  245 246	 1492758091	 111986682	 271614.
07:01:31  246 247	 1492758091	 387741216	 275755.
07:01:31  247 248	 1492758091	 610253515	 222512.
07:01:31  248 249	 1492758091	 881558411	 271305.
07:01:32  249 250	 1492758092	 157674137	 276116.
07:01:32  250 251	 1492758092	 380040407	 222366.
07:01:32  251 252	 1492758092	 651389740	 271349.
07:01:32  252 253	 1492758092	 927025930	 275637.
07:01:33  253 254	 1492758093	 199302061	 272276.
07:01:33  254 255	 1492758093	 474955840	 275653.
07:01:33  255 256	 1492758093	 697880303	 222925.
07:01:33  256 257	 1492758093	 969987692	 272107.
07:01:34  257 258	 1492758094	 241251902	 271265.
07:01:34  258 259	 1492758094	 516351745	 275099.
07:01:34  259 260	 1492758094	 787235189	 270884.
07:01:35  260 261	 1492758095	 13234538	 225999.
07:01:35  261 262	 1492758095	 284415172	 271181.
07:01:35  262 263	 1492758095	 506914941	 222500.
07:01:35  263 264	 1492758095	 781847896	 274933.
07:01:36  264 265	 1492758096	 53430996	 271583.
07:01:36  265 266	 1492758096	 275734202	 222303.
07:01:36  266 267	 1492758096	 551178882	 275445.
07:01:36  267 268	 1492758096	 822278793	 271099.
07:01:37  268 269	 1492758097	 44280970	 222003.
07:01:37  269 270	 1492758097	 319557670	 275276.
07:01:37  270 271	 1492758097	 590615903	 271059.
07:01:37  271 272	 1492758097	 817154758	 226538.
07:01:38  272 273	 1492758098	 88088196	 270934.
07:01:38  273 274	 1492758098	 363630421	 275542.
07:01:38  274 275	 1492758098	 581969948	 218340.
07:01:38  275 276	 1492758098	 857261682	 275291.
07:01:39  276 277	 1492758099	 132896380	 275635.
07:01:39  277 278	 1492758099	 404435149	 271539.
07:01:39  278 279	 1492758099	 627076076	 222641.
07:01:39  279 280	 1492758099	 898326800	 271251.
07:01:40  280 281	 1492758100	 169670503	 271343.
07:01:40  281 282	 1492758100	 444565726	 274895.
07:01:40  282 283	 1492758100	 667215438	 222650.
07:01:40  283 284	 1492758100	 939038679	 271823.
07:01:41  284 285	 1492758101	 214626444	 275588.
07:01:41  285 286	 1492758101	 485753925	 271128.
07:01:41  286 287	 1492758101	 761435357	 275681.
07:01:41  287 288	 1492758101	 984522010	 223087.
07:01:42  288 289	 1492758102	 255984524	 271462.
07:01:42  289 290	 1492758102	 530503383	 274519.
07:01:42  290 291	 1492758102	 751800705	 221297.
07:01:43  291 292	 1492758103	 22131552	 270331.
07:01:43  292 293	 1492758103	 292382059	 270251.
07:01:43  293 294	 1492758103	 563254106	 270872.
07:01:43  294 295	 1492758103	 784963668	 221709.
07:01:44  295 296	 1492758104	 60132808	 275170.
07:01:44  296 297	 1492758104	 330377778	 270244.
07:01:44  297 298	 1492758104	 551395174	 221018.
07:01:44  298 299	 1492758104	 822461786	 271066.
07:01:45  299 300	 1492758105	 92880354	 270419.
07:01:45  300 301	 1492758105	 314322439	 221442.
07:01:45  301 302	 1492758105	 584914189	 270592.
07:01:45  302 303	 1492758105	 859926166	 275012.
07:01:46  303 304	 1492758106	 130500933	 270575.
07:01:46  304 305	 1492758106	 401552620	 271052.
07:01:46  305 306	 1492758106	 623362010	 221809.
07:01:46  306 307	 1492758106	 894246353	 270884.
07:01:47  307 308	 1492758107	 169143258	 274897.
07:01:47  308 309	 1492758107	 439858982	 270716.
07:01:47  309 310	 1492758107	 661945005	 222086.
07:01:47  310 311	 1492758107	 932910452	 270965.
07:01:48  311 312	 1492758108	 203635384	 270725.
07:01:48  312 313	 1492758108	 474138512	 270503.
07:01:48  313 314	 1492758108	 695684811	 221546.
07:01:48  314 315	 1492758108	 970656273	 274972.
07:01:49  315 316	 1492758109	 241772127	 271116.
07:01:49  316 317	 1492758109	 512315921	 270544.
07:01:49  317 318	 1492758109	 733920687	 221604.
07:01:49  318 319	 1492758110	 4596158	 270676.
07:01:50  319 320	 1492758110	 279378141	 274782.
07:01:50  320 321	 1492758110	 500928415	 221550.
07:01:50  321 322	 1492758110	 771871265	 270943.
07:01:51  322 323	 1492758111	 42455316	 270584.
07:01:51  323 324	 1492758111	 317259952	 274805.
07:01:51  324 325	 1492758111	 534994499	 217734.
07:01:51  325 326	 1492758111	 806039772	 271045.
07:01:52  326 327	 1492758112	 81463406	 275424.
07:01:52  327 328	 1492758112	 351888853	 270426.
07:01:52  328 329	 1492758112	 573843205	 221954.
07:01:52  329 330	 1492758112	 844922403	 271079.
07:01:53  330 331	 1492758113	 119793556	 274871.
07:01:53  331 332	 1492758113	 390220876	 270428.
07:01:53  332 333	 1492758113	 611686244	 221465.
07:01:53  333 334	 1492758113	 882473969	 270788.
07:01:54  334 335	 1492758114	 157649147	 275175.
07:01:54  335 336	 1492758114	 379365763	 221716.
07:01:54  336 337	 1492758114	 650185709	 270821.
07:01:54  337 338	 1492758114	 920994176	 270808.
07:01:55  338 339	 1492758115	 195246720	 274252.
07:01:55  339 340	 1492758115	 417133083	 221887.
07:01:55  340 341	 1492758115	 688992647	 271859.
07:01:55  341 342	 1492758115	 960290730	 271298.
07:01:56  342 343	 1492758116	 288616266	 328326.
07:01:56  343 344	 1492758116	 559035989	 270420.
07:01:56  344 345	 1492758116	 829755312	 270719.
07:01:57  345 346	 1492758117	 106539476	 276784.
07:01:57  346 347	 1492758117	 379483196	 272944.
07:01:57  347 348	 1492758117	 654697270	 275214.
07:01:57  348 349	 1492758117	 925527419	 270830.
07:01:58  349 350	 1492758118	 147721863	 222195.
07:01:58  350 351	 1492758118	 469688820	 321967.
07:01:58  351 352	 1492758118	 744867000	 275178.
07:01:59  352 353	 1492758119	 73580969	 328714.
07:01:59  353 354	 1492758119	 344574079	 270993.
07:01:59  354 355	 1492758119	 615704818	 271131.
07:01:59  355 356	 1492758119	 888300663	 272595.
07:02:00  356 357	 1492758120	 166475682	 278175.
07:02:00  357 358	 1492758120	 437631954	 271157.
07:02:00  358 359	 1492758120	 708587445	 270955.
07:02:00  359 360	 1492758120	 980769302	 272182.
07:02:01  360 361	 1492758121	 255592240	 274823.
07:02:01  361 362	 1492758121	 526613143	 271021.
07:02:01  362 363	 1492758121	 797973272	 271360.
07:02:02  363 364	 1492758122	 70481640	 272508.
07:02:02  364 365	 1492758122	 345659439	 275178.
07:02:02  365 366	 1492758122	 616502264	 270843.
07:02:02  366 367	 1492758122	 887709187	 271207.
07:02:03  367 368	 1492758123	 162832352	 275123.
07:02:03  368 369	 1492758123	 384992573	 222160.
07:02:03  369 370	 1492758123	 656119062	 271127.
07:02:03  370 371	 1492758123	 927161726	 271042.
07:02:04  371 372	 1492758124	 197932106	 270771.
07:02:04  372 373	 1492758124	 473014302	 275082.
07:02:04  373 374	 1492758124	 744099523	 271085.
07:02:05  374 375	 1492758125	 15519725	 271420.
07:02:05  375 376	 1492758125	 237634910	 222116.
07:02:05  376 377	 1492758125	 508449920	 270815.
07:02:05  377 378	 1492758125	 783131094	 274681.
07:02:06  378 379	 1492758126	 53943691	 270812.
07:02:06  379 380	 1492758126	 324650570	 270707.
07:02:06  380 381	 1492758126	 546819142	 222169.
07:02:06  381 382	 1492758126	 817960822	 271142.
07:02:07  382 383	 1492758127	 92922022	 274961.
07:02:07  383 384	 1492758127	 364154813	 271232.
07:02:07  384 385	 1492758127	 634961007	 270807.
07:02:07  385 386	 1492758127	 910185672	 275224.
07:02:08  386 387	 1492758128	 177362723	 267177.
07:02:08  387 388	 1492758128	 452498008	 275136.
07:02:08  388 389	 1492758128	 674637995	 222140.
07:02:08  389 390	 1492758128	 945520822	 270883.
07:02:09  390 391	 1492758129	 216755538	 271234.
07:02:09  391 392	 1492758129	 492480470	 275725.
07:02:09  392 393	 1492758129	 763973142	 271493.
07:02:10  393 394	 1492758130	 35788009	 271815.
07:02:10  394 395	 1492758130	 308013237	 272225.
07:02:10  395 396	 1492758130	 583451864	 275439.
07:02:10  396 397	 1492758130	 854496383	 271044.
07:02:11  397 398	 1492758131	 128862149	 274366.
07:02:11  398 399	 1492758131	 350436594	 221574.
07:02:11  399 400	 1492758131	 621202914	 270767.
07:02:11  400 401	 1492758131	 892294306	 271091.
07:02:12  401 402	 1492758132	 163163658	 270869.
07:02:12  402 403	 1492758132	 384981220	 221818.
07:02:12  403 404	 1492758132	 655257380	 270276.
07:02:12  404 405	 1492758132	 929912545	 274655.
07:02:13  405 406	 1492758133	 201743139	 271831.
07:02:13  406 407	 1492758133	 423988301	 222245.
07:02:13  407 408	 1492758133	 699829567	 275841.
07:02:13  408 409	 1492758133	 971372157	 271543.
07:02:14  409 410	 1492758134	 243285863	 271914.
07:02:14  410 411	 1492758134	 465899559	 222613.
07:02:14  411 412	 1492758134	 741801142	 275902.
07:02:15  412 413	 1492758135	 13461463	 271660.
07:02:15  413 414	 1492758135	 289090905	 275630.
07:02:15  414 415	 1492758135	 560344543	 271253.
07:02:15  415 416	 1492758135	 786670728	 226338.
07:02:16  416 417	 1492758136	 58309972	 271628.
07:02:16  417 418	 1492758136	 334071302	 275761.
07:02:16  418 419	 1492758136	 551976231	 217905.
07:02:16  419 420	 1492758136	 828293597	 276317.
07:02:17  420 421	 1492758137	 104104428	 275811.
07:02:17  421 422	 1492758137	 375782682	 271678.
07:02:17  422 423	 1492758137	 602015580	 226233.
07:02:17  423 424	 1492758137	 873466142	 271451.
07:02:18  424 425	 1492758138	 144646831	 271180.
07:02:18  425 426	 1492758138	 366681760	 222035.
07:02:18  426 427	 1492758138	 641731886	 275051.
07:02:18  427 428	 1492758138	 916875322	 275143.
07:02:19  428 429	 1492758139	 139027333	 222152.
07:02:19  429 430	 1492758139	 410398163	 271371.
07:02:19  430 431	 1492758139	 685940026	 275542.
07:02:19  431 432	 1492758139	 908080364	 222140.
07:02:20  432 433	 1492758140	 179093372	 271013.
07:02:20  433 434	 1492758140	 454459784	 275366.
07:02:20  434 435	 1492758140	 676664460	 222205.
07:02:20  435 436	 1492758140	 948428472	 271764.
07:02:21  436 437	 1492758141	 223499696	 275071.
07:02:21  437 438	 1492758141	 495347077	 271848.
07:02:21  438 439	 1492758141	 717994934	 222648.
07:02:21  439 440	 1492758141	 993512858	 275517.
07:02:22  440 441	 1492758142	 264941768	 271429.
07:02:22  441 442	 1492758142	 541482683	 276541.
07:02:22  442 443	 1492758142	 763722684	 222240.
07:02:23  443 444	 1492758143	 35313112	 271591.
07:02:23  444 445	 1492758143	 311200181	 275887.
07:02:23  445 446	 1492758143	 586882266	 275682.
07:02:23  446 447	 1492758143	 809412284	 222530.
07:02:24  447 448	 1492758144	 80879072	 271467.
07:02:24  448 449	 1492758144	 356613464	 275734.
07:02:24  449 450	 1492758144	 628559287	 271946.
07:02:24  450 451	 1492758144	 851002020	 222443.
07:02:25  451 452	 1492758145	 126603303	 275601.
07:02:25  452 453	 1492758145	 398212288	 271609.
07:02:25  453 454	 1492758145	 674549960	 276338.
07:02:25  454 455	 1492758145	 947030378	 272480.
07:02:26  455 456	 1492758146	 169853407	 222823.
07:02:26  456 457	 1492758146	 445107646	 275254.
07:02:26  457 458	 1492758146	 716164631	 271057.
07:02:26  458 459	 1492758146	 991929806	 275765.
07:02:27  459 460	 1492758147	 214807437	 222878.
07:02:27  460 461	 1492758147	 486980241	 272173.
07:02:27  461 462	 1492758147	 758793340	 271813.
07:02:28  462 463	 1492758148	 34538619	 275745.
07:02:28  463 464	 1492758148	 305998757	 271460.
07:02:28  464 465	 1492758148	 582004461	 276006.
07:02:28  465 466	 1492758148	 804889845	 222886.
07:02:29  466 467	 1492758149	 76344792	 271454.
07:02:29  467 468	 1492758149	 352630092	 276286.
07:02:29  468 469	 1492758149	 624357161	 271727.
07:02:29  469 470	 1492758149	 900181302	 275824.
07:02:30  470 471	 1492758150	 122581212	 222400.
07:02:30  471 472	 1492758150	 398264696	 275683.
07:02:30  472 473	 1492758150	 669810984	 271547.
07:02:30  473 474	 1492758150	 892221753	 222410.
07:02:31  474 475	 1492758151	 167876306	 275655.
07:02:31  475 476	 1492758151	 439402497	 271526.
07:02:31  476 477	 1492758151	 715230930	 275829.
07:02:31  477 478	 1492758151	 937818265	 222587.
07:02:32  478 479	 1492758152	 209783707	 271965.
07:02:32  479 480	 1492758152	 485754654	 275971.
07:02:32  480 481	 1492758152	 757816781	 272062.
07:02:33  481 482	 1492758153	 34201194	 276385.
07:02:33  482 483	 1492758153	 306878032	 272677.
07:02:33  483 484	 1492758153	 582685991	 275808.
07:02:33  484 485	 1492758153	 853664650	 270978.
07:02:34  485 486	 1492758154	 75484966	 221821.
07:02:34  486 487	 1492758154	 346200084	 270715.
07:02:34  487 488	 1492758154	 622136662	 275936.
07:02:34  488 489	 1492758154	 893775299	 271639.
07:02:35  489 490	 1492758155	 165250646	 271475.
07:02:35  490 491	 1492758155	 440446052	 275196.
07:02:35  491 492	 1492758155	 663429392	 222983.
07:02:35  492 493	 1492758155	 939757675	 276328.
07:02:36  493 494	 1492758156	 211850048	 272093.
07:02:36  494 495	 1492758156	 488424912	 276575.
07:02:36  495 496	 1492758156	 760120386	 271695.
07:02:37  496 497	 1492758157	 35736053	 275616.
07:02:37  497 498	 1492758157	 257859295	 222123.
07:02:37  498 499	 1492758157	 529135955	 271277.
07:02:37  499 500	 1492758157	 805321948	 276186.
07:02:38  500 501	 1492758158	 77074597	 271752.
07:02:38  501 502	 1492758158	 348481094	 271407.
07:02:38  502 503	 1492758158	 624511788	 276030.
07:02:38  503 504	 1492758158	 896351158	 271840.
07:02:39  504 505	 1492758159	 119333957	 222983.
07:02:39  505 506	 1492758159	 395339906	 276006.
07:02:39  506 507	 1492758159	 666606076	 271266.
07:02:39  507 508	 1492758159	 942892898	 276287.
07:02:40  508 509	 1492758160	 214048154	 271155.
07:02:40  509 510	 1492758160	 436550563	 222502.
07:02:40  510 511	 1492758160	 712105376	 275555.
07:02:40  511 512	 1492758160	 984131055	 272026.
07:02:41  512 513	 1492758161	 260326937	 276196.
07:02:41  513 514	 1492758161	 519738039	 259411.
07:02:41  514 515	 1492758161	 795740312	 276002.
07:02:42  515 516	 1492758162	 18608025	 222868.
07:02:42  516 517	 1492758162	 289711081	 271103.
07:02:42  517 518	 1492758162	 565128001	 275417.
07:02:42  518 519	 1492758162	 787902001	 222774.
07:02:43  519 520	 1492758163	 63034451	 275132.
07:02:43  520 521	 1492758163	 334917892	 271884.
07:02:43  521 522	 1492758163	 610688988	 275771.
07:02:43  522 523	 1492758163	 833080289	 222391.
07:02:44  523 524	 1492758164	 104303199	 271223.
07:02:44  524 525	 1492758164	 380373198	 276070.
07:02:44  525 526	 1492758164	 652036269	 271663.
07:02:44  526 527	 1492758164	 874525764	 222489.
07:02:45  527 528	 1492758165	 149710722	 275185.
07:02:45  528 529	 1492758165	 421262477	 271552.
07:02:45  529 530	 1492758165	 643752713	 222490.
07:02:45  530 531	 1492758165	 918988672	 275236.
07:02:46  531 532	 1492758166	 190681366	 271693.
07:02:46  532 533	 1492758166	 465979883	 275299.
07:02:46  533 534	 1492758166	 688236496	 222256.
07:02:46  534 535	 1492758166	 959831947	 271596.
07:02:47  535 536	 1492758167	 235460600	 275628.
07:02:47  536 537	 1492758167	 507014974	 271555.
07:02:47  537 538	 1492758167	 729855132	 222840.
07:02:48  538 539	 1492758168	 5883153	 276028.
07:02:48  539 540	 1492758168	 277011673	 271128.
07:02:48  540 541	 1492758168	 552499343	 275488.
07:02:48  541 542	 1492758168	 774924739	 222425.
07:02:49  542 543	 1492758169	 46106647	 271182.
07:02:49  543 544	 1492758169	 321317742	 275211.
07:02:49  544 545	 1492758169	 543788704	 222471.
07:02:49  545 546	 1492758169	 815314048	 271526.
07:02:50  546 547	 1492758170	 90647153	 275333.
07:02:50  547 548	 1492758170	 362495207	 271848.
07:02:50  548 549	 1492758170	 585592085	 223097.
07:02:50  549 550	 1492758170	 861262800	 275670.
07:02:51  550 551	 1492758171	 132311009	 271049.
07:02:51  551 552	 1492758171	 358712082	 226401.
07:02:51  552 553	 1492758171	 629956162	 271244.
07:02:51  553 554	 1492758171	 905508625	 275552.
07:02:52  554 555	 1492758172	 177253193	 271745.
07:02:52  555 556	 1492758172	 400282831	 223029.
07:02:52  556 557	 1492758172	 676298250	 276016.
07:02:52  557 558	 1492758172	 952942999	 276645.
07:02:53  558 559	 1492758173	 224607813	 271664.
07:02:53  559 560	 1492758173	 496364747	 271757.
07:02:53  560 561	 1492758173	 718894973	 222531.
07:02:53  561 562	 1492758173	 994394991	 275500.
07:02:54  562 563	 1492758174	 270512107	 276117.
07:02:54  563 564	 1492758174	 542273744	 271761.
07:02:54  564 565	 1492758174	 764628809	 222355.
07:02:55  565 566	 1492758175	 39643750	 275015.
07:02:55  566 567	 1492758175	 310750503	 271107.
07:02:55  567 568	 1492758175	 532777310	 222027.
07:02:55  568 569	 1492758175	 807974283	 275197.
07:02:56  569 570	 1492758176	 79352657	 271378.
07:02:56  570 571	 1492758176	 301347999	 221996.
07:02:56  571 572	 1492758176	 572473770	 271125.
07:02:56  572 573	 1492758176	 848302159	 275829.
07:02:57  573 574	 1492758177	 123544797	 275242.
07:02:57  574 575	 1492758177	 346183269	 222639.
07:02:57  575 576	 1492758177	 617242111	 271059.
07:02:57  576 577	 1492758177	 893229723	 275987.
07:02:58  577 578	 1492758178	 115457221	 222228.
07:02:58  578 579	 1492758178	 386985330	 271528.
07:02:58  579 580	 1492758178	 663031692	 276046.
07:02:58  580 581	 1492758178	 934936697	 271905.
07:02:59  581 582	 1492758179	 210357047	 275421.
07:02:59  582 583	 1492758179	 432817036	 222460.
07:02:59  583 584	 1492758179	 704297817	 271481.
07:02:59  584 585	 1492758179	 979583319	 275285.
07:03:00  585 586	 1492758180	 252199967	 272617.
07:03:00  586 587	 1492758180	 528850845	 276651.
07:03:00  587 588	 1492758180	 801021776	 272170.
07:03:01  588 589	 1492758181	 23085063	 222064.
07:03:01  589 590	 1492758181	 298387142	 275302.
07:03:01  590 591	 1492758181	 569480315	 271093.
07:03:01  591 592	 1492758181	 840967934	 271488.
07:03:02  592 593	 1492758182	 111993974	 271026.
07:03:02  593 594	 1492758182	 386392453	 274398.
07:03:02  594 595	 1492758182	 603800122	 217408.
07:03:02  595 596	 1492758182	 878142097	 274342.
07:03:03  596 597	 1492758183	 149135905	 270994.
07:03:03  597 598	 1492758183	 420798814	 271663.
07:03:03  598 599	 1492758183	 696273504	 275474.
07:03:03  599 600	 1492758183	 967364019	 271091.
07:03:04  600 601	 1492758184	 189374298	 222010.
07:03:04  601 602	 1492758184	 460157831	 270784.
07:03:04  602 603	 1492758184	 735525184	 275367.
07:03:05  603 604	 1492758185	 7141685	 271616.
07:03:05  604 605	 1492758185	 282030839	 274890.
07:03:05  605 606	 1492758185	 504503130	 222472.
07:03:05  606 607	 1492758185	 776033363	 271530.
07:03:06  607 608	 1492758186	 51954978	 275922.
07:03:06  608 609	 1492758186	 324259930	 272305.
07:03:06  609 610	 1492758186	 546506324	 222246.
07:03:06  610 611	 1492758186	 822362725	 275856.
07:03:07  611 612	 1492758187	 98325793	 275963.
07:03:07  612 613	 1492758187	 370687086	 272362.
07:03:07  613 614	 1492758187	 646752053	 276065.
07:03:07  614 615	 1492758187	 918947916	 272196.
07:03:08  615 616	 1492758188	 141589978	 222642.
07:03:08  616 617	 1492758188	 413673814	 272083.
07:03:08  617 618	 1492758188	 689853628	 276180.
07:03:08  618 619	 1492758188	 962041398	 272188.
07:03:09  619 620	 1492758189	 238055064	 276014.
07:03:09  620 621	 1492758189	 509963969	 271909.
07:03:09  621 622	 1492758189	 786257641	 276293.
07:03:10  622 623	 1492758190	 57168997	 270912.
07:03:10  623 624	 1492758190	 328332469	 271163.
07:03:10  624 625	 1492758190	 599732247	 271400.
07:03:10  625 626	 1492758190	 826237078	 226505.
07:03:11  626 627	 1492758191	 97081786	 270844.
07:03:11  627 628	 1492758191	 368010282	 270929.
07:03:11  628 629	 1492758191	 638841032	 270831.
07:03:11  629 630	 1492758191	 913958092	 275117.
07:03:12  630 631	 1492758192	 184942508	 270984.
07:03:12  631 632	 1492758192	 407180497	 222238.
07:03:12  632 633	 1492758192	 678019430	 270839.
07:03:12  633 634	 1492758192	 949857306	 271838.
07:03:13  634 635	 1492758193	 225954802	 276098.
07:03:13  635 636	 1492758193	 498483724	 272528.
07:03:13  636 637	 1492758193	 775305472	 276822.
07:03:14  637 638	 1492758194	 47631954	 272327.
07:03:14  638 639	 1492758194	 323363357	 275731.
07:03:14  639 640	 1492758194	 595052811	 271690.
07:03:14  640 641	 1492758194	 817921115	 222868.
07:03:15  641 642	 1492758195	 93686325	 275765.
07:03:15  642 643	 1492758195	 365485087	 271799.
07:03:15  643 644	 1492758195	 640599687	 275114.
07:03:15  644 645	 1492758195	 862763794	 222164.
07:03:16  645 646	 1492758196	 134721082	 271958.
07:03:16  646 647	 1492758196	 410875274	 276154.
07:03:16  647 648	 1492758196	 686802593	 275927.
07:03:16  648 649	 1492758196	 958465794	 271664.
07:03:17  649 650	 1492758197	 181164000	 222698.
07:03:17  650 651	 1492758197	 452732378	 271568.
07:03:17  651 652	 1492758197	 728277132	 275545.
07:03:17  652 653	 1492758197	 999980990	 271704.
07:03:18  653 654	 1492758198	 276236318	 276255.
07:03:18  654 655	 1492758198	 499257011	 223021.
07:03:18  655 656	 1492758198	 771660269	 272403.
07:03:19  656 657	 1492758199	 47809496	 276149.
07:03:19  657 658	 1492758199	 319362820	 271553.
07:03:19  658 659	 1492758199	 594890606	 275528.
07:03:19  659 660	 1492758199	 866658163	 271768.
07:03:20  660 661	 1492758200	 89237995	 222580.
07:03:20  661 662	 1492758200	 364720305	 275482.
07:03:20  662 663	 1492758200	 635676733	 270956.
07:03:20  663 664	 1492758200	 857884257	 222208.
07:03:21  664 665	 1492758201	 133668520	 275784.
07:03:21  665 666	 1492758201	 404902169	 271234.
07:03:21  666 667	 1492758201	 627384071	 222482.
07:03:21  667 668	 1492758201	 903019059	 275635.
07:03:22  668 669	 1492758202	 179059330	 276040.
07:03:22  669 670	 1492758202	 450996635	 271937.
07:03:22  670 671	 1492758202	 722480029	 271484.
07:03:22  671 672	 1492758202	 945307827	 222828.
07:03:23  672 673	 1492758203	 258847723	 313539.
07:03:23  673 674	 1492758203	 480435201	 221588.
07:03:23  674 675	 1492758203	 755999176	 275564.
07:03:24  675 676	 1492758204	 27565135	 271566.
07:03:24  676 677	 1492758204	 250592804	 223028.
07:03:24  677 678	 1492758204	 527154639	 276561.
07:03:24  678 679	 1492758204	 799778657	 272624.
07:03:25  679 680	 1492758205	 76418030	 276640.
07:03:25  680 681	 1492758205	 348352984	 271935.
07:03:25  681 682	 1492758205	 620000682	 271647.
07:03:25  682 683	 1492758205	 896186821	 276186.
07:03:26  683 684	 1492758206	 168391618	 272205.
07:03:26  684 685	 1492758206	 444425459	 276034.
07:03:26  685 686	 1492758206	 716452583	 272027.
07:03:26  686 687	 1492758206	 991507695	 275055.
07:03:27  687 688	 1492758207	 262977346	 271470.
07:03:27  688 689	 1492758207	 534469142	 271492.
07:03:27  689 690	 1492758207	 809958151	 275489.
07:03:28  690 691	 1492758208	 32041259	 222083.
07:03:28  691 692	 1492758208	 303202522	 271161.
07:03:28  692 693	 1492758208	 574678802	 271477.
07:03:28  693 694	 1492758208	 846032648	 271353.
07:03:29  694 695	 1492758209	 121176921	 275145.
07:03:29  695 696	 1492758209	 392129135	 270952.
07:03:29  696 697	 1492758209	 667713105	 275584.
07:03:29  697 698	 1492758209	 889714490	 222001.
07:03:30  698 699	 1492758210	 160434888	 270721.
07:03:30  699 700	 1492758210	 431906015	 271471.
07:03:30  700 701	 1492758210	 703746012	 271840.
07:03:30  701 702	 1492758210	 979242451	 275496.
07:03:31  702 703	 1492758211	 250742960	 271501.
07:03:31  703 704	 1492758211	 522169947	 271427.
07:03:31  704 705	 1492758211	 793285022	 271115.
07:03:32  705 706	 1492758212	 68487997	 275203.
07:03:32  706 707	 1492758212	 339657674	 271169.
07:03:32  707 708	 1492758212	 611389965	 271733.
07:03:32  708 709	 1492758212	 886821290	 275431.
07:03:33  709 710	 1492758213	 158417566	 271596.
07:03:33  710 711	 1492758213	 429291962	 270875.
07:03:33  711 712	 1492758213	 700032864	 270741.
07:03:33  712 713	 1492758213	 922094670	 222061.
07:03:34  713 714	 1492758214	 193261918	 271168.
07:03:34  714 715	 1492758214	 467953098	 274691.
07:03:34  715 716	 1492758214	 738796817	 270843.
07:03:35  716 717	 1492758215	 9906367	 271110.
07:03:35  717 718	 1492758215	 281234416	 271328.
07:03:35  718 719	 1492758215	 552519047	 271285.
07:03:35  719 720	 1492758215	 827804659	 275285.
07:03:36  720 721	 1492758216	 50204456	 222400.
07:03:36  721 722	 1492758216	 320925999	 270722.
07:03:36  722 723	 1492758216	 592005915	 271080.
07:03:36  723 724	 1492758216	 867722925	 275717.
07:03:37  724 725	 1492758217	 138899694	 271176.
07:03:37  725 726	 1492758217	 409492437	 270593.
07:03:37  726 727	 1492758217	 684590537	 275098.
07:03:37  727 728	 1492758217	 955985232	 271395.
07:03:38  728 729	 1492758218	 227209099	 271224.
07:03:38  729 730	 1492758218	 449484301	 222275.
07:03:38  730 731	 1492758218	 721070005	 271586.
07:03:38  731 732	 1492758218	 992495996	 271426.
07:03:39  732 733	 1492758219	 267828237	 275332.
07:03:39  733 734	 1492758219	 538929149	 271101.
07:03:39  734 735	 1492758219	 810463627	 271534.
07:03:40  735 736	 1492758220	 82013872	 271551.
07:03:40  736 737	 1492758220	 357191029	 275177.
07:03:40  737 738	 1492758220	 628432890	 271242.
07:03:40  738 739	 1492758220	 899820347	 271387.
07:03:41  739 740	 1492758221	 175423916	 275604.
07:03:41  740 741	 1492758221	 447439008	 272015.
07:03:41  741 742	 1492758221	 703840079	 256401.
07:03:41  742 743	 1492758221	 975099949	 271260.
07:03:42  743 744	 1492758222	 246171489	 271071.
07:03:42  744 745	 1492758222	 521374134	 275203.
07:03:42  745 746	 1492758222	 792962329	 271588.
07:03:43  746 747	 1492758223	 63945796	 270983.
07:03:43  747 748	 1492758223	 285768629	 221823.
07:03:43  748 749	 1492758223	 556962775	 271194.
07:03:43  749 750	 1492758223	 831828621	 274866.
07:03:44  750 751	 1492758224	 102868521	 271040.
07:03:44  751 752	 1492758224	 378177510	 275309.
07:03:44  752 753	 1492758224	 596394660	 218217.
07:03:44  753 754	 1492758224	 871929926	 275536.
07:03:45  754 755	 1492758225	 142738310	 270808.
07:03:45  755 756	 1492758225	 418104326	 275366.
07:03:45  756 757	 1492758225	 689315187	 271211.
07:03:45  757 758	 1492758225	 911648037	 222333.
07:03:46  758 759	 1492758226	 182279144	 270631.
07:03:46  759 760	 1492758226	 452991467	 270712.
07:03:46  760 761	 1492758226	 725220465	 272229.
07:03:46  761 762	 1492758226	 984012196	 258792.
07:03:47  762 763	 1492758227	 254700140	 270688.
07:03:47  763 764	 1492758227	 530284600	 275584.
07:03:47  764 765	 1492758227	 751680722	 221396.
07:03:48  765 766	 1492758228	 22232366	 270552.
07:03:48  766 767	 1492758228	 296762128	 274530.
07:03:48  767 768	 1492758228	 514395397	 217633.
07:03:48  768 769	 1492758228	 788773086	 274378.
07:03:49  769 770	 1492758229	 59569517	 270796.
07:03:49  770 771	 1492758229	 281121679	 221552.
07:03:49  771 772	 1492758229	 551822696	 270701.
07:03:49  772 773	 1492758229	 826496101	 274674.
07:03:50  773 774	 1492758230	 47974056	 221478.
07:03:50  774 775	 1492758230	 318496377	 270522.
07:03:50  775 776	 1492758230	 593339564	 274843.
07:03:50  776 777	 1492758230	 865084475	 271745.
07:03:51  777 778	 1492758231	 86944020	 221860.
07:03:51  778 779	 1492758231	 357817010	 270873.
07:03:51  779 780	 1492758231	 633367901	 275551.
07:03:51  780 781	 1492758231	 855739922	 222372.
07:03:52  781 782	 1492758232	 127224458	 271484.
07:03:52  782 783	 1492758232	 402040600	 274816.
07:03:52  783 784	 1492758232	 673726004	 271686.
07:03:52  784 785	 1492758232	 895941506	 222215.
07:03:53  785 786	 1492758233	 171695020	 275754.
07:03:53  786 787	 1492758233	 443167469	 271472.
07:03:53  787 788	 1492758233	 718344794	 275177.
07:03:53  788 789	 1492758233	 936634824	 218290.
07:03:54  789 790	 1492758234	 211841015	 275207.
07:03:54  790 791	 1492758234	 483068233	 271227.
07:03:54  791 792	 1492758234	 754003065	 270935.
07:03:55  792 793	 1492758235	 30079763	 276076.
07:03:55  793 794	 1492758235	 252170720	 222091.
07:03:55  794 795	 1492758235	 523146757	 270976.
07:03:55  795 796	 1492758235	 798509154	 275363.
07:03:56  796 797	 1492758236	 69835346	 271326.
07:03:56  797 798	 1492758236	 292025179	 222190.
07:03:56  798 799	 1492758236	 562727117	 270702.
07:03:56  799 800	 1492758236	 838285021	 275558.
07:03:57  800 801	 1492758237	 56760655	 218475.
07:03:57  801 802	 1492758237	 332456870	 275697.
07:03:57  802 803	 1492758237	 603748259	 271291.
07:03:57  803 804	 1492758237	 878616848	 274869.
07:03:58  804 805	 1492758238	 149697921	 271081.
07:03:58  805 806	 1492758238	 372291432	 222593.
07:03:58  806 807	 1492758238	 648200685	 275910.
07:03:58  807 808	 1492758238	 920115345	 271914.
07:03:59  808 809	 1492758239	 191850978	 271736.
07:03:59  809 810	 1492758239	 467206730	 275355.
07:03:59  810 811	 1492758239	 689577670	 222372.
07:03:59  811 812	 1492758239	 960388268	 270810.
07:04:00  812 813	 1492758240	 235946879	 275559.
07:04:00  813 814	 1492758240	 507804812	 271858.
07:04:00  814 815	 1492758240	 730450317	 222645.
07:04:01  815 816	 1492758241	 5291641	 274841.
07:04:01  816 817	 1492758241	 276353018	 271062.
07:04:01  817 818	 1492758241	 547107969	 270755.
07:04:01  818 819	 1492758241	 769291169	 222183.
07:04:02  819 820	 1492758242	 40936680	 271645.
07:04:02  820 821	 1492758242	 316008089	 275072.
07:04:02  821 822	 1492758242	 586684933	 270677.
07:04:02  822 823	 1492758242	 857407708	 270722.
07:04:03  823 824	 1492758243	 132460478	 275053.
07:04:03  824 825	 1492758243	 350276741	 217817.
07:04:03  825 826	 1492758243	 625175396	 274898.
07:04:03  826 827	 1492758243	 896331275	 271156.
07:04:04  827 828	 1492758244	 171147767	 274816.
07:04:04  828 829	 1492758244	 441475776	 270328.
07:04:04  829 830	 1492758244	 658987541	 217512.
07:04:04  830 831	 1492758244	 933793266	 274806.
07:04:05  831 832	 1492758245	 205045798	 271253.
07:04:05  832 833	 1492758245	 480016764	 274970.
07:04:05  833 834	 1492758245	 751171557	 271155.
07:04:05  834 835	 1492758245	 973807111	 222636.
07:04:06  835 836	 1492758246	 245669152	 271862.
07:04:06  836 837	 1492758246	 521190824	 275522.
07:04:06  837 838	 1492758246	 793008587	 271817.
07:04:07  838 839	 1492758247	 68589202	 275581.
07:04:07  839 840	 1492758247	 291303387	 222714.
07:04:07  840 841	 1492758247	 562772251	 271469.
07:04:07  841 842	 1492758247	 838576976	 275805.
07:04:08  842 843	 1492758248	 110277688	 271700.
07:04:08  843 844	 1492758248	 332561753	 222284.
07:04:08  844 845	 1492758248	 608131074	 275570.
07:04:08  845 846	 1492758248	 879873929	 271743.
07:04:09  846 847	 1492758249	 155504795	 275630.
07:04:09  847 848	 1492758249	 426407783	 270903.
07:04:09  848 849	 1492758249	 648762428	 222355.
07:04:09  849 850	 1492758249	 920143391	 271381.
07:04:10  850 851	 1492758250	 190739382	 270596.
07:04:10  851 852	 1492758250	 465771198	 275032.
07:04:10  852 853	 1492758250	 737675168	 271904.
07:04:11  853 854	 1492758251	 13591013	 275916.
07:04:11  854 855	 1492758251	 285802159	 272211.
07:04:11  855 856	 1492758251	 509222130	 223420.
07:04:11  856 857	 1492758251	 785614970	 276393.
07:04:12  857 858	 1492758252	 57710414	 272095.
07:04:12  858 859	 1492758252	 332936746	 275226.
07:04:12  859 860	 1492758252	 604250455	 271314.
07:04:12  860 861	 1492758252	 874801452	 270551.
07:04:13  861 862	 1492758253	 96963324	 222162.
07:04:13  862 863	 1492758253	 372521511	 275558.
07:04:13  863 864	 1492758253	 643722410	 271201.
07:04:13  864 865	 1492758253	 919114811	 275393.
07:04:14  865 866	 1492758254	 141601597	 222486.
07:04:14  866 867	 1492758254	 413230339	 271629.
07:04:14  867 868	 1492758254	 684328343	 271098.
07:04:14  868 869	 1492758254	 960171902	 275844.
07:04:15  869 870	 1492758255	 231587452	 271415.
07:04:15  870 871	 1492758255	 453973485	 222386.
07:04:15  871 872	 1492758255	 729240109	 275267.
07:04:15  872 873	 1492758256	 826932	 271587.
07:04:16  873 874	 1492758256	 272230021	 271403.
07:04:16  874 875	 1492758256	 547478896	 275249.
07:04:16  875 876	 1492758256	 769113916	 221635.
07:04:17  876 877	 1492758257	 40031012	 270917.
07:04:17  877 878	 1492758257	 314634953	 274604.
07:04:17  878 879	 1492758257	 532239853	 217605.
07:04:17  879 880	 1492758257	 807040728	 274800.
07:04:18  880 881	 1492758258	 78323232	 271283.
07:04:18  881 882	 1492758258	 300346027	 222023.
07:04:18  882 883	 1492758258	 575714295	 275368.
07:04:18  883 884	 1492758258	 846983509	 271269.
07:04:19  884 885	 1492758259	 122438956	 275456.
07:04:19  885 886	 1492758259	 340788685	 218349.
07:04:19  886 887	 1492758259	 616457606	 275669.
07:04:19  887 888	 1492758259	 887604731	 271147.
07:04:20  888 889	 1492758260	 163368799	 275764.
07:04:20  889 890	 1492758260	 385509029	 222141.
07:04:20  890 891	 1492758260	 657489528	 271980.
07:04:20  891 892	 1492758260	 932813312	 275324.
07:04:21  892 893	 1492758261	 203939813	 271126.
07:04:21  893 894	 1492758261	 426884074	 222945.
07:04:21  894 895	 1492758261	 702940581	 276056.
07:04:21  895 896	 1492758261	 974400458	 271460.
07:04:22  896 897	 1492758262	 249867101	 275467.
07:04:22  897 898	 1492758262	 472909793	 223042.
07:04:22  898 899	 1492758262	 744989899	 272081.
07:04:23  899 900	 1492758263	 17110517	 272120.
07:04:23  900 901	 1492758263	 292334146	 275224.
07:04:23  901 902	 1492758263	 568112790	 275778.
07:04:23  902 903	 1492758263	 786240831	 218129.
07:04:24  903 904	 1492758264	 62027677	 275786.
07:04:24  904 905	 1492758264	 337820419	 275793.
07:04:24  905 906	 1492758264	 609782718	 271962.
07:04:24  906 907	 1492758264	 832186146	 222404.
07:04:25  907 908	 1492758265	 107867145	 275681.
07:04:25  908 909	 1492758265	 379260309	 271393.
07:04:25  909 910	 1492758265	 655003632	 275743.
07:04:25  910 911	 1492758265	 926591300	 271588.
07:04:26  911 912	 1492758266	 197682241	 271091.
07:04:26  912 913	 1492758266	 420561293	 222879.
07:04:26  913 914	 1492758266	 695890738	 275329.
07:04:26  914 915	 1492758266	 967083113	 271193.
07:04:27  915 916	 1492758267	 242256407	 275173.
07:04:27  916 917	 1492758267	 513088841	 270833.
07:04:27  917 918	 1492758267	 735628810	 222540.
07:04:28  918 919	 1492758268	 11523176	 275894.
07:04:28  919 920	 1492758268	 283542486	 272019.
07:04:28  920 921	 1492758268	 555650251	 272108.
07:04:28  921 922	 1492758268	 831092595	 275442.
07:04:29  922 923	 1492758269	 102087275	 270995.
07:04:29  923 924	 1492758269	 324538079	 222451.
07:04:29  924 925	 1492758269	 600302805	 275765.
07:04:29  925 926	 1492758269	 871669468	 271366.
07:04:30  926 927	 1492758270	 142442263	 270773.
07:04:30  927 928	 1492758270	 414009463	 271567.
07:04:30  928 929	 1492758270	 689610134	 275601.
07:04:30  929 930	 1492758270	 911860977	 222251.
07:04:31  930 931	 1492758271	 183082576	 271221.
07:04:31  931 932	 1492758271	 459670738	 276588.
07:04:31  932 933	 1492758271	 731978373	 272308.
07:04:32  933 934	 1492758272	 7953560	 275975.
07:04:32  934 935	 1492758272	 279682918	 271730.
07:04:32  935 936	 1492758272	 555464720	 275781.
07:04:32  936 937	 1492758272	 827044467	 271580.
07:04:33  937 938	 1492758273	 49472186	 222428.
07:04:33  938 939	 1492758273	 320774085	 271302.
07:04:33  939 940	 1492758273	 596308573	 275534.
07:04:33  940 941	 1492758273	 818458825	 222151.
07:04:34  941 942	 1492758274	 94338980	 275880.
07:04:34  942 943	 1492758274	 365362442	 271023.
07:04:34  943 944	 1492758274	 641124415	 275762.
07:04:34  944 945	 1492758274	 863330686	 222206.
07:04:35  945 946	 1492758275	 134440867	 271111.
07:04:35  946 947	 1492758275	 360471754	 226030.
07:04:35  947 948	 1492758275	 631787699	 271316.
07:04:35  948 949	 1492758275	 903145582	 271358.
07:04:36  949 950	 1492758276	 178324562	 275179.
07:04:36  950 951	 1492758276	 399892389	 221568.
07:04:36  951 952	 1492758276	 675646999	 275755.
07:04:36  952 953	 1492758276	 947114122	 271467.
07:04:37  953 954	 1492758277	 169722568	 222608.
07:04:37  954 955	 1492758277	 444706516	 274984.
07:04:37  955 956	 1492758277	 715718523	 271012.
07:04:37  956 957	 1492758277	 937990636	 222272.
07:04:38  957 958	 1492758278	 213994257	 276004.
07:04:38  958 959	 1492758278	 485168004	 271174.
07:04:38  959 960	 1492758278	 707390035	 222222.
07:04:38  960 961	 1492758278	 979204281	 271814.
07:04:39  961 962	 1492758279	 254432266	 275228.
07:04:39  962 963	 1492758279	 530187576	 275755.
07:04:39  963 964	 1492758279	 801470450	 271283.
07:04:40  964 965	 1492758280	 23800405	 222330.
07:04:40  965 966	 1492758280	 299662386	 275862.
07:04:40  966 967	 1492758280	 571974922	 272313.
07:04:40  967 968	 1492758280	 844641465	 272666.
07:04:41  968 969	 1492758281	 121315442	 276674.
07:04:41  969 970	 1492758281	 393493069	 272178.
07:04:41  970 971	 1492758281	 668666588	 275173.
07:04:41  971 972	 1492758281	 940548045	 271882.
07:04:42  972 973	 1492758282	 216165004	 275617.
07:04:42  973 974	 1492758282	 438587161	 222422.
07:04:42  974 975	 1492758282	 710015090	 271428.
07:04:42  975 976	 1492758282	 985409222	 275394.
07:04:43  976 977	 1492758283	 256181953	 270773.
07:04:43  977 978	 1492758283	 527645312	 271463.
07:04:43  978 979	 1492758283	 749953156	 222308.
07:04:44  979 980	 1492758284	 25636940	 275684.
07:04:44  980 981	 1492758284	 297377220	 271740.
07:04:44  981 982	 1492758284	 569423135	 272046.
07:04:44  982 983	 1492758284	 845203119	 275780.
07:04:45  983 984	 1492758285	 67202290	 221999.
07:04:45  984 985	 1492758285	 337600414	 270398.
07:04:45  985 986	 1492758285	 607685615	 270085.
07:04:45  986 987	 1492758285	 829791205	 222106.
07:04:46  987 988	 1492758286	 105600416	 275809.
07:04:46  988 989	 1492758286	 377571494	 271971.
07:04:46  989 990	 1492758286	 653552155	 275981.
07:04:46  990 991	 1492758286	 924700616	 271148.
07:04:47  991 992	 1492758287	 196385222	 271685.
07:04:47  992 993	 1492758287	 472372888	 275988.
07:04:47  993 994	 1492758287	 694948898	 222576.
07:04:47  994 995	 1492758287	 967015987	 272067.
07:04:48  995 996	 1492758288	 242725187	 275709.
07:04:48  996 997	 1492758288	 513433066	 270708.
07:04:48  997 998	 1492758288	 784730624	 271297.
07:04:49  998 999	 1492758289	 60119927	 275390.
07:04:49  999 1000	 1492758289	 278590542	 218470.
07:04:49 1000 1001	 1492758289	 553857519	 275267.
07:04:49 1001 1002	 1492758289	 824972469	 271115.
07:04:50 1002 1003	 1492758290	 100564139	 275592.
07:04:50 1003 1004	 1492758290	 371890279	 271326.
07:04:50 1004 1005	 1492758290	 643456015	 271566.
07:04:50 1005 1006	 1492758290	 865949405	 222493.
07:04:51 1006 1007	 1492758291	 141699963	 275751.
07:04:51 1007 1008	 1492758291	 413176939	 271477.
07:04:51 1008 1009	 1492758291	 688018072	 274841.
07:04:51 1009 1010	 1492758291	 959211648	 271193.
07:04:52 1010 1011	 1492758292	 181408667	 222197.
07:04:52 1011 1012	 1492758292	 452412005	 271004.
07:04:52 1012 1013	 1492758292	 727710819	 275299.
07:04:52 1013 1014	 1492758292	 950569908	 222859.
07:04:53 1014 1015	 1492758293	 221748650	 271178.
07:04:53 1015 1016	 1492758293	 497403297	 275655.
07:04:53 1016 1017	 1492758293	 769303205	 271900.
07:04:54 1017 1018	 1492758294	 45805303	 276502.
07:04:54 1018 1019	 1492758294	 268207160	 222402.
07:04:54 1019 1020	 1492758294	 539904005	 271697.
07:04:54 1020 1021	 1492758294	 815707887	 275804.
07:04:55 1021 1022	 1492758295	 87619152	 271911.
07:04:55 1022 1023	 1492758295	 362888998	 275270.
07:04:55 1023 1024	 1492758295	 634145835	 271257.
07:04:55 1024 1025	 1492758295	 905504945	 271359.
07:04:56 1025 1026	 1492758296	 127032951	 221528.
07:04:56 1026 1027	 1492758296	 397603071	 270570.
07:04:56 1027 1028	 1492758296	 672193258	 274590.
07:04:56 1028 1029	 1492758296	 890194459	 218001.
07:04:57 1029 1030	 1492758297	 165567947	 275374.
07:04:57 1030 1031	 1492758297	 441170314	 275602.
07:04:57 1031 1032	 1492758297	 659406297	 218236.
07:04:57 1032 1033	 1492758297	 935041050	 275635.
07:04:58 1033 1034	 1492758298	 206357772	 271316.
07:04:58 1034 1035	 1492758298	 481611621	 275254.
07:04:58 1035 1036	 1492758298	 703836546	 222225.
07:04:58 1036 1037	 1492758298	 975196573	 271360.
07:04:59 1037 1038	 1492758299	 250397485	 275201.
07:04:59 1038 1039	 1492758299	 473171566	 222774.
07:04:59 1039 1040	 1492758299	 744369015	 271198.
07:05:00 1040 1041	 1492758300	 19572555	 275203.
07:05:00 1041 1042	 1492758300	 290109599	 270537.
07:05:00 1042 1043	 1492758300	 512010285	 221901.
07:05:00 1043 1044	 1492758300	 783178347	 271168.
07:05:01 1044 1045	 1492758301	 54126045	 270948.
07:05:01 1045 1046	 1492758301	 329116954	 274991.
07:05:01 1046 1047	 1492758301	 600136983	 271020.
07:05:01 1047 1048	 1492758301	 871239696	 271102.
07:05:02 1048 1049	 1492758302	 93823396	 222584.
07:05:02 1049 1050	 1492758302	 365011083	 271188.
07:05:02 1050 1051	 1492758302	 640764213	 275753.
07:05:02 1051 1052	 1492758302	 908029361	 267265.
07:05:03 1052 1053	 1492758303	 183518811	 275490.
07:05:03 1053 1054	 1492758303	 455134950	 271616.
07:05:03 1054 1055	 1492758303	 727327929	 272193.
07:05:03 1055 1056	 1492758304	 2875682	 275547.
07:05:04 1056 1057	 1492758304	 274625362	 271750.
07:05:04 1057 1058	 1492758304	 546290570	 271665.
07:05:04 1058 1059	 1492758304	 821396930	 275107.
07:05:05 1059 1060	 1492758305	 43232446	 221835.
07:05:05 1060 1061	 1492758305	 314040822	 270808.
07:05:05 1061 1062	 1492758305	 585191574	 271151.
07:05:05 1062 1063	 1492758305	 856233264	 271042.
07:05:06 1063 1064	 1492758306	 130931110	 274698.
07:05:06 1064 1065	 1492758306	 353065409	 222134.
07:05:06 1065 1066	 1492758306	 624109201	 271044.
07:05:06 1066 1067	 1492758306	 898850757	 274741.
07:05:07 1067 1068	 1492758307	 169709165	 270859.
07:05:07 1068 1069	 1492758307	 391613180	 221904.
07:05:07 1069 1070	 1492758307	 662463305	 270850.
07:05:07 1070 1071	 1492758307	 934000701	 271537.
07:05:08 1071 1072	 1492758308	 209682411	 275682.
07:05:08 1072 1073	 1492758308	 481785602	 272103.
07:05:08 1073 1074	 1492758308	 758054247	 276269.
07:05:08 1074 1075	 1492758308	 980441330	 222387.
07:05:09 1075 1076	 1492758309	 252157387	 271716.
07:05:09 1076 1077	 1492758309	 528024794	 275867.
07:05:09 1077 1078	 1492758309	 799628598	 271604.
07:05:10 1078 1079	 1492758310	 75605577	 275977.
07:05:10 1079 1080	 1492758310	 298585563	 222980.
07:05:10 1080 1081	 1492758310	 570330404	 271745.
07:05:10 1081 1082	 1492758310	 842187291	 271857.
07:05:11 1082 1083	 1492758311	 118436380	 276249.
07:05:11 1083 1084	 1492758311	 390431719	 271995.
07:05:11 1084 1085	 1492758311	 666553765	 276122.
07:05:11 1085 1086	 1492758311	 938691902	 272139.
07:05:12 1086 1087	 1492758312	 210697944	 272006.
07:05:12 1087 1088	 1492758312	 433118397	 222420.
07:05:12 1088 1089	 1492758312	 708444014	 275326.
07:05:12 1089 1090	 1492758312	 984122564	 275678.
07:05:13 1090 1091	 1492758313	 256024171	 271902.
07:05:13 1091 1092	 1492758313	 532112296	 276088.
07:05:13 1092 1093	 1492758313	 754795296	 222683.
07:05:14 1093 1094	 1492758314	 25796142	 271001.
07:05:14 1094 1095	 1492758314	 301199600	 275403.
07:05:14 1095 1096	 1492758314	 573056108	 271857.
07:05:14 1096 1097	 1492758314	 796154780	 223098.
07:05:15 1097 1098	 1492758315	 71854769	 275700.
07:05:15 1098 1099	 1492758315	 343355631	 271501.
07:05:15 1099 1100	 1492758315	 618780884	 275426.
07:05:15 1100 1101	 1492758315	 840807275	 222026.
07:05:16 1101 1102	 1492758316	 112541974	 271735.
07:05:16 1102 1103	 1492758316	 387691615	 275149.
07:05:16 1103 1104	 1492758316	 657920533	 270229.
07:05:16 1104 1105	 1492758316	 879826643	 221906.
07:05:17 1105 1106	 1492758317	 150215478	 270389.
07:05:17 1106 1107	 1492758317	 420215310	 270000.
07:05:17 1107 1108	 1492758317	 641939739	 221724.
07:05:17 1108 1109	 1492758317	 917109480	 275170.
07:05:18 1109 1110	 1492758318	 188435554	 271326.
07:05:18 1110 1111	 1492758318	 410349696	 221914.
07:05:18 1111 1112	 1492758318	 686323995	 275975.
07:05:18 1112 1113	 1492758318	 957877529	 271553.
07:05:19 1113 1114	 1492758319	 184291872	 226415.
07:05:19 1114 1115	 1492758319	 455961314	 271669.
07:05:19 1115 1116	 1492758319	 731692179	 275731.
07:05:19 1116 1117	 1492758319	 953953422	 222261.
07:05:20 1117 1118	 1492758320	 225066303	 271113.
07:05:20 1118 1119	 1492758320	 500072446	 275006.
07:05:20 1119 1120	 1492758320	 722195981	 222124.
07:05:20 1120 1121	 1492758320	 994099111	 271903.
07:05:21 1121 1122	 1492758321	 269791881	 275693.
07:05:21 1122 1123	 1492758321	 541675384	 271883.
07:05:21 1123 1124	 1492758321	 817579024	 275904.
07:05:22 1124 1125	 1492758322	 36087517	 218508.
07:05:22 1125 1126	 1492758322	 311240429	 275153.
07:05:22 1126 1127	 1492758322	 586813666	 275573.
07:05:22 1127 1128	 1492758322	 808995963	 222183.
07:05:23 1128 1129	 1492758323	 80724143	 271728.
07:05:23 1129 1130	 1492758323	 356235755	 275511.
07:05:23 1130 1131	 1492758323	 578947012	 222712.
07:05:23 1131 1132	 1492758323	 854162137	 275215.
07:05:24 1132 1133	 1492758324	 125595807	 271433.
07:05:24 1133 1134	 1492758324	 347726692	 222131.
07:05:24 1134 1135	 1492758324	 623282619	 275556.
07:05:24 1135 1136	 1492758324	 894807593	 271525.
07:05:25 1136 1137	 1492758325	 117538965	 222732.
07:05:25 1137 1138	 1492758325	 393133524	 275594.
07:05:25 1138 1139	 1492758325	 665272682	 272139.
07:05:25 1139 1140	 1492758325	 940374173	 275102.
07:05:26 1140 1141	 1492758326	 162485701	 222111.
07:05:26 1141 1142	 1492758326	 433966232	 271481.
07:05:26 1142 1143	 1492758326	 709471284	 275505.
07:05:26 1143 1144	 1492758326	 931748225	 222277.
