14:25:11    0 Step	 time(s)	 time(ns)	 delta(ms)
14:25:11    0 1	 1492784711	 949276566	 1001.
14:25:12    1 2	 1492784712	 224673089	 275397.
14:25:12    2 3	 1492784712	 495876774	 271203.
14:25:12    3 4	 1492784712	 770831734	 274955.
14:25:13    4 5	 1492784713	 41344977	 270514.
14:25:13    5 6	 1492784713	 312218969	 270874.
14:25:13    6 7	 1492784713	 538413151	 226194.
14:25:13    7 8	 1492784713	 809831455	 271418.
14:25:14    8 9	 1492784714	 81861400	 272030.
14:25:14    9 10	 1492784714	 357677788	 275816.
14:25:14   10 11	 1492784714	 633923425	 276246.
14:25:14   11 12	 1492784714	 910437540	 276514.
14:25:15   12 13	 1492784715	 182480208	 272043.
14:25:15   13 14	 1492784715	 458319258	 275839.
14:25:15   14 15	 1492784715	 681374425	 223055.
14:25:15   15 16	 1492784715	 956819550	 275445.
14:25:16   16 17	 1492784716	 228247581	 271428.
14:25:16   17 18	 1492784716	 499892719	 271645.
14:25:16   18 19	 1492784716	 775532419	 275640.
14:25:17   19 20	 1492784717	 47026537	 271494.
14:25:17   20 21	 1492784717	 273496770	 226470.
14:25:17   21 22	 1492784717	 545107131	 271611.
14:25:17   22 23	 1492784717	 820881783	 275774.
14:25:18   23 24	 1492784718	 92358528	 271477.
14:25:18   24 25	 1492784718	 363826405	 271468.
14:25:18   25 26	 1492784718	 586117877	 222292.
14:25:18   26 27	 1492784718	 861825178	 275707.
14:25:19   27 28	 1492784719	 133548436	 271723.
14:25:19   28 29	 1492784719	 409009951	 275462.
14:25:19   29 30	 1492784719	 631868727	 222858.
14:25:19   30 31	 1492784719	 903519569	 271651.
14:25:20   31 32	 1492784720	 174907896	 271389.
14:25:20   32 33	 1492784720	 451276366	 276368.
14:25:20   33 34	 1492784720	 726912043	 275636.
14:25:20   34 35	 1492784720	 945287646	 218375.
14:25:21   35 36	 1492784721	 329082379	 383795.
14:25:21   36 37	 1492784721	 601324031	 272242.
14:25:21   37 38	 1492784721	 823530490	 222206.
14:25:22   38 39	 1492784722	 99326046	 275796.
14:25:22   39 40	 1492784722	 375009617	 275683.
14:25:22   40 41	 1492784722	 646607332	 271598.
14:25:22   41 42	 1492784722	 924758935	 278152.
14:25:23   42 43	 1492784723	 196263754	 271504.
14:25:23   43 44	 1492784723	 467696602	 271433.
14:25:23   44 45	 1492784723	 743894214	 276198.
14:25:23   45 46	 1492784723	 965843996	 221950.
14:25:24   46 47	 1492784724	 241681275	 275837.
14:25:24   47 48	 1492784724	 567991460	 326310.
14:25:24   48 49	 1492784724	 785849503	 217858.
14:25:25   49 50	 1492784725	 111297841	 325449.
14:25:25   50 51	 1492784725	 333078515	 221780.
14:25:25   51 52	 1492784725	 607979481	 274901.
14:25:25   52 53	 1492784725	 879408951	 271430.
14:25:26   53 54	 1492784726	 150501981	 271093.
14:25:26   54 55	 1492784726	 372793504	 222291.
14:25:26   55 56	 1492784726	 647840838	 275048.
14:25:26   56 57	 1492784726	 918869891	 271029.
14:25:27   57 58	 1492784727	 190121371	 271251.
14:25:27   58 59	 1492784727	 465690612	 275569.
14:25:27   59 60	 1492784727	 736737672	 271047.
14:25:27   60 61	 1492784727	 958329702	 221592.
14:25:28   61 62	 1492784728	 229194764	 270865.
14:25:28   62 63	 1492784728	 504342295	 275148.
14:25:28   63 64	 1492784728	 726369038	 222027.
14:25:28   64 65	 1492784728	 997609574	 271240.
14:25:29   65 66	 1492784729	 269073125	 271464.
14:25:29   66 67	 1492784729	 544933827	 275861.
14:25:29   67 68	 1492784729	 766708557	 221774.
14:25:30   68 69	 1492784730	 38219451	 271511.
14:25:30   69 70	 1492784730	 313527579	 275308.
14:25:30   70 71	 1492784730	 585337937	 271811.
14:25:30   71 72	 1492784730	 860912855	 275575.
14:25:31   72 73	 1492784731	 132655291	 271742.
14:25:31   73 74	 1492784731	 355502129	 222847.
14:25:31   74 75	 1492784731	 630731915	 275230.
14:25:31   75 76	 1492784731	 902457456	 271725.
14:25:32   76 77	 1492784732	 178171910	 275715.
14:25:32   77 78	 1492784732	 400748342	 222576.
14:25:32   78 79	 1492784732	 672485714	 271737.
14:25:32   79 80	 1492784732	 948035365	 275550.
14:25:33   80 81	 1492784733	 219400465	 271365.
14:25:33   81 82	 1492784733	 490333297	 270933.
14:25:33   82 83	 1492784733	 717417772	 227084.
14:25:33   83 84	 1492784733	 988809583	 271392.
14:25:34   84 85	 1492784734	 263833137	 275024.
14:25:34   85 86	 1492784734	 535564660	 271731.
14:25:34   86 87	 1492784734	 758214747	 222650.
14:25:35   87 88	 1492784735	 33645317	 275431.
14:25:35   88 89	 1492784735	 304674805	 271030.
14:25:35   89 90	 1492784735	 576597009	 271922.
14:25:35   90 91	 1492784735	 852531379	 275934.
14:25:36   91 92	 1492784736	 124451741	 271920.
14:25:36   92 93	 1492784736	 396313487	 271862.
14:25:36   93 94	 1492784736	 671587882	 275275.
14:25:36   94 95	 1492784736	 893527449	 221939.
14:25:37   95 96	 1492784737	 169019468	 275492.
14:25:37   96 97	 1492784737	 440580435	 271561.
14:25:37   97 98	 1492784737	 716165280	 275585.
14:25:37   98 99	 1492784737	 933979592	 217814.
14:25:38   99 100	 1492784738	 209163248	 275184.
14:25:38  100 101	 1492784738	 480781811	 271619.
14:25:38  101 102	 1492784738	 753039211	 272257.
14:25:39  102 103	 1492784739	 28629949	 275591.
14:25:39  103 104	 1492784739	 300068969	 271439.
14:25:39  104 105	 1492784739	 571180538	 271111.
14:25:39  105 106	 1492784739	 846377737	 275197.
14:25:40  106 107	 1492784740	 68808777	 222431.
14:25:40  107 108	 1492784740	 340192448	 271384.
14:25:40  108 109	 1492784740	 616116047	 275924.
14:25:40  109 110	 1492784740	 887544305	 271428.
14:25:41  110 111	 1492784741	 159022169	 271478.
14:25:41  111 112	 1492784741	 434421405	 275399.
14:25:41  112 113	 1492784741	 657531022	 223110.
14:25:41  113 114	 1492784741	 928973508	 271442.
14:25:42  114 115	 1492784742	 204152501	 275179.
14:25:42  115 116	 1492784742	 474962698	 270810.
14:25:42  116 117	 1492784742	 749890800	 274929.
14:25:42  117 118	 1492784742	 971983743	 222092.
14:25:43  118 119	 1492784743	 244004453	 272021.
14:25:43  119 120	 1492784743	 519664345	 275660.
14:25:43  120 121	 1492784743	 790257979	 270594.
14:25:44  121 122	 1492784744	 61255594	 270997.
14:25:44  122 123	 1492784744	 283075528	 221820.
14:25:44  123 124	 1492784744	 554023203	 270948.
14:25:44  124 125	 1492784744	 829714256	 275691.
14:25:45  125 126	 1492784745	 100964030	 271250.
14:25:45  126 127	 1492784745	 376819341	 275855.
14:25:45  127 128	 1492784745	 648681688	 271862.
14:25:45  128 129	 1492784745	 924268692	 275587.
14:25:46  129 130	 1492784746	 146995664	 222727.
14:25:46  130 131	 1492784746	 418476286	 271481.
14:25:46  131 132	 1492784746	 694158058	 275682.
14:25:46  132 133	 1492784746	 965309620	 271151.
14:25:47  133 134	 1492784747	 236654678	 271345.
14:25:47  134 135	 1492784747	 511924539	 275270.
14:25:47  135 136	 1492784747	 734141310	 222217.
14:25:48  136 137	 1492784748	 5197459	 271056.
14:25:48  137 138	 1492784748	 281117050	 275920.
14:25:48  138 139	 1492784748	 552963434	 271846.
14:25:48  139 140	 1492784748	 824571632	 271608.
14:25:49  140 141	 1492784749	 100369240	 275798.
14:25:49  141 142	 1492784749	 372423959	 272055.
14:25:49  142 143	 1492784749	 643999292	 271575.
14:25:49  143 144	 1492784749	 866753297	 222754.
14:25:50  144 145	 1492784750	 138710438	 271957.
14:25:50  145 146	 1492784750	 414125831	 275415.
14:25:50  146 147	 1492784750	 689380548	 275255.
14:25:50  147 148	 1492784750	 960600167	 271220.
14:25:51  148 149	 1492784751	 232243200	 271643.
14:25:51  149 150	 1492784751	 507418948	 275176.
14:25:51  150 151	 1492784751	 725552232	 218133.
14:25:51  151 152	 1492784752	 224547	 274672.
14:25:52  152 153	 1492784752	 271640462	 271416.
14:25:52  153 154	 1492784752	 542501872	 270862.
14:25:52  154 155	 1492784752	 818069554	 275567.
14:25:53  155 156	 1492784753	 89509087	 271440.
14:25:53  156 157	 1492784753	 311833130	 222324.
14:25:53  157 158	 1492784753	 587526634	 275693.
14:25:53  158 159	 1492784753	 859504255	 271978.
14:25:54  159 160	 1492784754	 130325303	 270821.
14:25:54  160 161	 1492784754	 404885649	 274560.
14:25:54  161 162	 1492784754	 675421729	 270536.
14:25:54  162 163	 1492784754	 897779127	 222358.
14:25:55  163 164	 1492784755	 169023162	 271244.
14:25:55  164 165	 1492784755	 444698479	 275675.
14:25:55  165 166	 1492784755	 716177734	 271479.
14:25:55  166 167	 1492784755	 938090808	 221913.
14:25:56  167 168	 1492784756	 213881975	 275792.
14:25:56  168 169	 1492784756	 484433114	 270551.
14:25:56  169 170	 1492784756	 755133431	 270700.
14:25:57  170 171	 1492784757	 26549849	 271417.
14:25:57  171 172	 1492784757	 248884962	 222335.
14:25:57  172 173	 1492784757	 524055054	 275170.
14:25:57  173 174	 1492784757	 795469545	 271414.
14:25:58  174 175	 1492784758	 70687361	 275218.
14:25:58  175 176	 1492784758	 341636690	 270949.
14:25:58  176 177	 1492784758	 616608765	 274972.
14:25:58  177 178	 1492784758	 838712557	 222104.
14:25:59  178 179	 1492784759	 110226164	 271514.
14:25:59  179 180	 1492784759	 385719919	 275494.
14:25:59  180 181	 1492784759	 657323926	 271604.
14:25:59  181 182	 1492784759	 879509498	 222185.
14:26:00  182 183	 1492784760	 154690520	 275181.
14:26:00  183 184	 1492784760	 425296859	 270607.
14:26:00  184 185	 1492784760	 695790930	 270494.
14:26:00  185 186	 1492784760	 967027294	 271236.
14:26:01  186 187	 1492784761	 189296379	 222269.
14:26:01  187 188	 1492784761	 460706352	 271410.
14:26:01  188 189	 1492784761	 731377257	 270671.
14:26:02  189 190	 1492784762	 6358621	 274981.
14:26:02  190 191	 1492784762	 277166151	 270808.
14:26:02  191 192	 1492784762	 547534621	 270368.
14:26:02  192 193	 1492784762	 769256254	 221722.
14:26:03  193 194	 1492784763	 39908451	 270652.
14:26:03  194 195	 1492784763	 310576489	 270668.
14:26:03  195 196	 1492784763	 585440847	 274865.
14:26:03  196 197	 1492784763	 807740725	 222299.
14:26:04  197 198	 1492784764	 79497466	 271757.
14:26:04  198 199	 1492784764	 351250607	 271753.
14:26:04  199 200	 1492784764	 626980357	 275730.
14:26:04  200 201	 1492784764	 898613511	 271633.
14:26:05  201 202	 1492784765	 170213413	 271600.
14:26:05  202 203	 1492784765	 445661217	 275448.
14:26:05  203 204	 1492784765	 717218477	 271557.
14:26:05  204 205	 1492784765	 988680007	 271462.
14:26:06  205 206	 1492784766	 263659748	 274979.
14:26:06  206 207	 1492784766	 482385170	 218726.
14:26:06  207 208	 1492784766	 758150899	 275766.
14:26:07  208 209	 1492784767	 29345265	 271194.
14:26:07  209 210	 1492784767	 304805902	 275461.
14:26:07  210 211	 1492784767	 576220694	 271414.
14:26:07  211 212	 1492784767	 798441206	 222221.
14:26:08  212 213	 1492784768	 74297497	 275856.
14:26:08  213 214	 1492784768	 345304930	 271008.
14:26:08  214 215	 1492784768	 571350360	 226045.
14:26:08  215 216	 1492784768	 842166511	 270816.
14:26:09  216 217	 1492784769	 117378859	 275212.
14:26:09  217 218	 1492784769	 339482156	 222104.
14:26:09  218 219	 1492784769	 614267021	 274785.
14:26:09  219 220	 1492784769	 884798511	 270531.
14:26:10  220 221	 1492784770	 159876042	 275078.
14:26:10  221 222	 1492784770	 382353150	 222477.
14:26:10  222 223	 1492784770	 657176954	 274824.
14:26:10  223 224	 1492784770	 928994330	 271817.
14:26:11  224 225	 1492784771	 204642197	 275648.
14:26:11  225 226	 1492784771	 475904579	 271262.
14:26:11  226 227	 1492784771	 751154365	 275250.
14:26:11  227 228	 1492784771	 969593700	 218439.
14:26:12  228 229	 1492784772	 244695054	 275102.
14:26:12  229 230	 1492784772	 516275154	 271580.
14:26:12  230 231	 1492784772	 791608272	 275333.
14:26:13  231 232	 1492784773	 13930969	 222323.
14:26:13  232 233	 1492784773	 285082197	 271151.
14:26:13  233 234	 1492784773	 560665859	 275584.
14:26:13  234 235	 1492784773	 782559326	 221893.
14:26:14  235 236	 1492784774	 54305763	 271746.
14:26:14  236 237	 1492784774	 330002534	 275697.
14:26:14  237 238	 1492784774	 600704029	 270702.
14:26:14  238 239	 1492784774	 871827660	 271123.
14:26:15  239 240	 1492784775	 93477205	 221650.
14:26:15  240 241	 1492784775	 364188552	 270711.
14:26:15  241 242	 1492784775	 635157299	 270969.
14:26:15  242 243	 1492784775	 910258322	 275101.
14:26:16  243 244	 1492784776	 182115969	 271858.
14:26:16  244 245	 1492784776	 457587129	 275471.
14:26:16  245 246	 1492784776	 679931382	 222344.
14:26:16  246 247	 1492784776	 951693765	 271762.
14:26:17  247 248	 1492784777	 223189168	 271496.
14:26:17  248 249	 1492784777	 498794395	 275605.
14:26:17  249 250	 1492784777	 770257532	 271463.
14:26:17  250 251	 1492784777	 992466318	 222209.
14:26:18  251 252	 1492784778	 267782419	 275316.
14:26:18  252 253	 1492784778	 539140735	 271358.
14:26:18  253 254	 1492784778	 810433022	 271293.
14:26:19  254 255	 1492784779	 86485736	 276053.
14:26:19  255 256	 1492784779	 308547248	 222061.
14:26:19  256 257	 1492784779	 579372271	 270825.
14:26:19  257 258	 1492784779	 854092946	 274721.
14:26:20  258 259	 1492784780	 76170864	 222078.
14:26:20  259 260	 1492784780	 347367365	 271196.
14:26:20  260 261	 1492784780	 623242652	 275876.
14:26:20  261 262	 1492784780	 894632302	 271389.
14:26:21  262 263	 1492784781	 165770886	 271139.
14:26:21  263 264	 1492784781	 392724574	 226953.
14:26:21  264 265	 1492784781	 664989679	 272265.
14:26:21  265 266	 1492784781	 936233180	 271244.
14:26:22  266 267	 1492784782	 211961561	 275728.
14:26:22  267 268	 1492784782	 487124593	 275163.
14:26:22  268 269	 1492784782	 710117602	 222993.
14:26:22  269 270	 1492784782	 981616840	 271500.
14:26:23  270 271	 1492784783	 257085938	 275469.
14:26:23  271 272	 1492784783	 528728834	 271643.
14:26:23  272 273	 1492784783	 800498752	 271770.
14:26:24  273 274	 1492784784	 22597163	 222098.
14:26:24  274 275	 1492784784	 298528176	 275931.
14:26:24  275 276	 1492784784	 570148000	 271620.
14:26:24  276 277	 1492784784	 845738504	 275590.
14:26:25  277 278	 1492784785	 68248390	 222510.
14:26:25  278 279	 1492784785	 339861087	 271613.
14:26:25  279 280	 1492784785	 615434293	 275573.
14:26:25  280 281	 1492784785	 886555366	 271121.
14:26:26  281 282	 1492784786	 109092995	 222538.
14:26:26  282 283	 1492784786	 385002258	 275909.
14:26:26  283 284	 1492784786	 655811037	 270809.
14:26:26  284 285	 1492784786	 927589123	 271778.
14:26:27  285 286	 1492784787	 203383690	 275794.
14:26:27  286 287	 1492784787	 425856645	 222473.
14:26:27  287 288	 1492784787	 697393730	 271537.
14:26:27  288 289	 1492784787	 972631307	 275238.
14:26:28  289 290	 1492784788	 244027404	 271396.
14:26:28  290 291	 1492784788	 515059482	 271032.
14:26:28  291 292	 1492784788	 785984272	 270925.
14:26:29  292 293	 1492784789	 8241052	 222257.
14:26:29  293 294	 1492784789	 279134981	 270894.
14:26:29  294 295	 1492784789	 554378932	 275244.
14:26:29  295 296	 1492784789	 825497982	 271119.
14:26:30  296 297	 1492784790	 96580209	 271082.
14:26:30  297 298	 1492784790	 367631774	 271051.
14:26:30  298 299	 1492784790	 638971561	 271340.
14:26:30  299 300	 1492784790	 914497038	 275526.
14:26:31  300 301	 1492784791	 185752563	 271255.
14:26:31  301 302	 1492784791	 453448534	 267696.
14:26:31  302 303	 1492784791	 728997713	 275549.
14:26:31  303 304	 1492784792	 572199	 271575.
14:26:32  304 305	 1492784792	 271805263	 271233.
14:26:32  305 306	 1492784792	 542980471	 271175.
14:26:32  306 307	 1492784792	 765598539	 222618.
14:26:33  307 308	 1492784793	 36780361	 271182.
14:26:33  308 309	 1492784793	 311701179	 274921.
14:26:33  309 310	 1492784793	 582974358	 271273.
14:26:33  310 311	 1492784793	 853842187	 270868.
14:26:34  311 312	 1492784794	 124796106	 270954.
14:26:34  312 313	 1492784794	 400014863	 275219.
14:26:34  313 314	 1492784794	 671489535	 271474.
14:26:34  314 315	 1492784794	 893544543	 222055.
14:26:35  315 316	 1492784795	 164390326	 270846.
14:26:35  316 317	 1492784795	 435634172	 271244.
14:26:35  317 318	 1492784795	 710923353	 275289.
14:26:35  318 319	 1492784795	 982361084	 271438.
14:26:36  319 320	 1492784796	 253207436	 270846.
14:26:36  320 321	 1492784796	 528579231	 275372.
14:26:36  321 322	 1492784796	 800501190	 271922.
14:26:37  322 323	 1492784797	 72742503	 272241.
14:26:37  323 324	 1492784797	 348215011	 275473.
14:26:37  324 325	 1492784797	 570706193	 222491.
14:26:37  325 326	 1492784797	 842181462	 271475.
14:26:38  326 327	 1492784798	 118100999	 275920.
14:26:38  327 328	 1492784798	 393253921	 275153.
14:26:38  328 329	 1492784798	 611532001	 218278.
14:26:38  329 330	 1492784798	 886920513	 275388.
14:26:39  330 331	 1492784799	 158175738	 271255.
14:26:39  331 332	 1492784799	 433810943	 275636.
14:26:39  332 333	 1492784799	 656498130	 222687.
14:26:39  333 334	 1492784799	 928212162	 271714.
14:26:40  334 335	 1492784800	 204021085	 275809.
14:26:40  335 336	 1492784800	 475673990	 271653.
14:26:40  336 337	 1492784800	 746796636	 271122.
14:26:41  337 338	 1492784801	 21743582	 274947.
14:26:41  338 339	 1492784801	 239316214	 217573.
14:26:41  339 340	 1492784801	 514737621	 275421.
14:26:41  340 341	 1492784801	 790272818	 275536.
14:26:42  341 342	 1492784802	 62378252	 272105.
14:26:42  342 343	 1492784802	 338319685	 275941.
14:26:42  343 344	 1492784802	 560905446	 222586.
14:26:42  344 345	 1492784802	 832759598	 271854.
14:26:43  345 346	 1492784803	 104296788	 271537.
14:26:43  346 347	 1492784803	 379553606	 275257.
14:26:43  347 348	 1492784803	 601674778	 222121.
14:26:43  348 349	 1492784803	 873424534	 271750.
14:26:44  349 350	 1492784804	 149091336	 275667.
14:26:44  350 351	 1492784804	 421038773	 271947.
14:26:44  351 352	 1492784804	 692461004	 271423.
14:26:44  352 353	 1492784804	 972083045	 279622.
14:26:45  353 354	 1492784805	 247399258	 275316.
14:26:45  354 355	 1492784805	 518246726	 270847.
14:26:45  355 356	 1492784805	 740307892	 222062.
14:26:46  356 357	 1492784806	 11208212	 270900.
14:26:46  357 358	 1492784806	 286467853	 275260.
14:26:46  358 359	 1492784806	 558277300	 271809.
14:26:46  359 360	 1492784806	 781060498	 222783.
14:26:47  360 361	 1492784807	 57609851	 276550.
14:26:47  361 362	 1492784807	 333026397	 275416.
14:26:47  362 363	 1492784807	 605170328	 272144.
14:26:47  363 364	 1492784807	 881469272	 276299.
14:26:48  364 365	 1492784808	 153696413	 272227.
14:26:48  365 366	 1492784808	 429684029	 275988.
14:26:48  366 367	 1492784808	 652316246	 222632.
14:26:48  367 368	 1492784808	 924110019	 271794.
14:26:49  368 369	 1492784809	 200671074	 276561.
14:26:49  369 370	 1492784809	 472225420	 271554.
14:26:49  370 371	 1492784809	 744275164	 272050.
14:26:50  371 372	 1492784810	 20163320	 275888.
14:26:50  372 373	 1492784810	 242738337	 222575.
14:26:50  373 374	 1492784810	 514061379	 271323.
14:26:50  374 375	 1492784810	 790106446	 276045.
14:26:51  375 376	 1492784811	 61431037	 271325.
14:26:51  376 377	 1492784811	 337056158	 275625.
14:26:51  377 378	 1492784811	 559795923	 222740.
14:26:51  378 379	 1492784811	 886256927	 326461.
14:26:52  379 380	 1492784812	 157922929	 271666.
14:26:52  380 381	 1492784812	 381204512	 223281.
14:26:52  381 382	 1492784812	 652368207	 271164.
14:26:52  382 383	 1492784812	 927805246	 275437.
14:26:53  383 384	 1492784813	 199690597	 271885.
14:26:53  384 385	 1492784813	 475876100	 276186.
14:26:53  385 386	 1492784813	 698557668	 222681.
14:26:53  386 387	 1492784813	 970210447	 271653.
14:26:54  387 388	 1492784814	 245591970	 275382.
14:26:54  388 389	 1492784814	 516960677	 271369.
14:26:54  389 390	 1492784814	 792281862	 275321.
14:26:55  390 391	 1492784815	 14622814	 222340.
14:26:55  391 392	 1492784815	 286112604	 271490.
14:26:55  392 393	 1492784815	 561872644	 275760.
14:26:55  393 394	 1492784815	 833767348	 271895.
14:26:56  394 395	 1492784816	 105833575	 272066.
14:26:56  395 396	 1492784816	 381199967	 275367.
14:26:56  396 397	 1492784816	 604046588	 222846.
14:26:56  397 398	 1492784816	 875423310	 271377.
14:26:57  398 399	 1492784817	 150960775	 275537.
14:26:57  399 400	 1492784817	 422726086	 271766.
14:26:57  400 401	 1492784817	 694469256	 271743.
14:26:57  401 402	 1492784817	 969611788	 275142.
14:26:58  402 403	 1492784818	 192018262	 222407.
14:26:58  403 404	 1492784818	 463572283	 271554.
14:26:58  404 405	 1492784818	 738967480	 275395.
14:26:59  405 406	 1492784819	 10070550	 271103.
14:26:59  406 407	 1492784819	 232441255	 222371.
14:26:59  407 408	 1492784819	 508148262	 275707.
14:26:59  408 409	 1492784819	 779646043	 271498.
14:27:00  409 410	 1492784820	 50836962	 271191.
14:27:00  410 411	 1492784820	 325721855	 274885.
14:27:00  411 412	 1492784820	 547696497	 221974.
14:27:00  412 413	 1492784820	 818404354	 270708.
14:27:01  413 414	 1492784821	 88991862	 270588.
14:27:01  414 415	 1492784821	 360143424	 271151.
14:27:01  415 416	 1492784821	 635717652	 275574.
14:27:01  416 417	 1492784821	 858028770	 222311.
14:27:02  417 418	 1492784822	 129090682	 271062.
14:27:02  418 419	 1492784822	 400440096	 271350.
14:27:02  419 420	 1492784822	 671358255	 270918.
14:27:02  420 421	 1492784822	 946640564	 275282.
14:27:03  421 422	 1492784823	 217975547	 271335.
14:27:03  422 423	 1492784823	 489641179	 271666.
14:27:03  423 424	 1492784823	 761013921	 271373.
14:27:04  424 425	 1492784824	 35938305	 274924.
14:27:04  425 426	 1492784824	 258356079	 222418.
14:27:04  426 427	 1492784824	 529592548	 271236.
14:27:04  427 428	 1492784824	 800718048	 271126.
14:27:05  428 429	 1492784825	 72380552	 271662.
14:27:05  429 430	 1492784825	 347911257	 275531.
14:27:05  430 431	 1492784825	 619377585	 271466.
14:27:05  431 432	 1492784825	 890150207	 270773.
14:27:06  432 433	 1492784826	 165503223	 275353.
14:27:06  433 434	 1492784826	 384043962	 218541.
14:27:06  434 435	 1492784826	 660008612	 275964.
14:27:06  435 436	 1492784826	 931994393	 271986.
14:27:07  436 437	 1492784827	 203207215	 271213.
14:27:07  437 438	 1492784827	 478688429	 275481.
14:27:07  438 439	 1492784827	 749415371	 270727.
14:27:08  439 440	 1492784828	 23859474	 274444.
14:27:08  440 441	 1492784828	 245781652	 221922.
14:27:08  441 442	 1492784828	 516499976	 270719.
14:27:08  442 443	 1492784828	 787311669	 270811.
14:27:09  443 444	 1492784829	 58711646	 271400.
14:27:09  444 445	 1492784829	 334324392	 275613.
14:27:09  445 446	 1492784829	 606325590	 272001.
14:27:09  446 447	 1492784829	 877907785	 271582.
14:27:10  447 448	 1492784830	 153053049	 275146.
14:27:10  448 449	 1492784830	 423972368	 270919.
14:27:10  449 450	 1492784830	 645954179	 221982.
14:27:10  450 451	 1492784830	 917311321	 271357.
14:27:11  451 452	 1492784831	 192658753	 275347.
14:27:11  452 453	 1492784831	 464166970	 271509.
14:27:11  453 454	 1492784831	 735544761	 271377.
14:27:12  454 455	 1492784832	 7351555	 271807.
14:27:12  455 456	 1492784832	 283106563	 275755.
14:27:12  456 457	 1492784832	 554332627	 271226.
14:27:12  457 458	 1492784832	 825387200	 271055.
14:27:13  458 459	 1492784833	 96597358	 271210.
14:27:13  459 460	 1492784833	 372435128	 275838.
14:27:13  460 461	 1492784833	 644127905	 271693.
14:27:13  461 462	 1492784833	 915806699	 271678.
14:27:14  462 463	 1492784834	 191425889	 275620.
14:27:14  463 464	 1492784834	 463253191	 271827.
14:27:14  464 465	 1492784834	 734792563	 271539.
14:27:15  465 466	 1492784835	 10726397	 275934.
14:27:15  466 467	 1492784835	 282495869	 271770.
14:27:15  467 468	 1492784835	 553841647	 271345.
14:27:15  468 469	 1492784835	 825025026	 271184.
14:27:16  469 470	 1492784836	 96448855	 271424.
14:27:16  470 471	 1492784836	 368457455	 272008.
14:27:16  471 472	 1492784836	 644797585	 276340.
14:27:16  472 473	 1492784836	 916827744	 272030.
14:27:17  473 474	 1492784837	 188969888	 272143.
14:27:17  474 475	 1492784837	 465000500	 276030.
14:27:17  475 476	 1492784837	 736592827	 271593.
14:27:18  476 477	 1492784838	 12830664	 276237.
14:27:18  477 478	 1492784838	 235633067	 222803.
14:27:18  478 479	 1492784838	 507354383	 271721.
14:27:18  479 480	 1492784838	 783353444	 275999.
14:27:19  480 481	 1492784839	 55028568	 271675.
14:27:19  481 482	 1492784839	 326112822	 271085.
14:27:19  482 483	 1492784839	 597560159	 271447.
14:27:19  483 484	 1492784839	 872873152	 275313.
14:27:20  484 485	 1492784840	 143883270	 271010.
14:27:20  485 486	 1492784840	 414739148	 270856.
14:27:20  486 487	 1492784840	 689936508	 275197.
14:27:20  487 488	 1492784840	 961899742	 271964.
14:27:21  488 489	 1492784841	 184165087	 222265.
14:27:21  489 490	 1492784841	 459027663	 274862.
14:27:21  490 491	 1492784841	 729351026	 270324.
14:27:21  491 492	 1492784841	 950748471	 221397.
14:27:22  492 493	 1492784842	 225775721	 275027.
14:27:22  493 494	 1492784842	 496963468	 271188.
14:27:22  494 495	 1492784842	 768467584	 271505.
14:27:23  495 496	 1492784843	 43228172	 274760.
14:27:23  496 497	 1492784843	 314516192	 271288.
14:27:23  497 498	 1492784843	 585412830	 270897.
14:27:23  498 499	 1492784843	 856351571	 270938.
14:27:24  499 500	 1492784844	 131913430	 275562.
14:27:24  500 501	 1492784844	 403416047	 271503.
14:27:24  501 502	 1492784844	 674856454	 271440.
14:27:24  502 503	 1492784844	 946159894	 271304.
14:27:25  503 504	 1492784845	 221675396	 275515.
14:27:25  504 505	 1492784845	 440530252	 218855.
14:27:25  505 506	 1492784845	 716125989	 275596.
14:27:25  506 507	 1492784845	 987723426	 271597.
14:27:26  507 508	 1492784846	 259103487	 271380.
14:27:26  508 509	 1492784846	 530105855	 271002.
14:27:26  509 510	 1492784846	 805123098	 275018.
14:27:27  510 511	 1492784847	 76385791	 271262.
14:27:27  511 512	 1492784847	 347266217	 270881.
14:27:27  512 513	 1492784847	 622766172	 275500.
14:27:27  513 514	 1492784847	 894106049	 271340.
14:27:28  514 515	 1492784848	 165183102	 271077.
14:27:28  515 516	 1492784848	 387654075	 222471.
14:27:28  516 517	 1492784848	 658947784	 271293.
14:27:28  517 518	 1492784848	 930057800	 271110.
14:27:29  518 519	 1492784849	 205355404	 275298.
14:27:29  519 520	 1492784849	 476793074	 271438.
14:27:29  520 521	 1492784849	 751590977	 274798.
14:27:29  521 522	 1492784849	 969667782	 218076.
14:27:30  522 523	 1492784850	 245069799	 275402.
14:27:30  523 524	 1492784850	 515860067	 270791.
14:27:30  524 525	 1492784850	 786848808	 270989.
14:27:31  525 526	 1492784851	 61947569	 275099.
14:27:31  526 527	 1492784851	 333730961	 271783.
14:27:31  527 528	 1492784851	 556423715	 222692.
14:27:31  528 529	 1492784851	 827791152	 271368.
14:27:32  529 530	 1492784852	 102885086	 275094.
14:27:32  530 531	 1492784852	 373893149	 271008.
14:27:32  531 532	 1492784852	 649319428	 275426.
14:27:32  532 533	 1492784852	 921013964	 271695.
14:27:33  533 534	 1492784853	 192484540	 271470.
14:27:33  534 535	 1492784853	 414694596	 222210.
14:27:33  535 536	 1492784853	 690500864	 275807.
14:27:33  536 537	 1492784853	 961888597	 271387.
14:27:34  537 538	 1492784854	 233140437	 271252.
14:27:34  538 539	 1492784854	 508345995	 275206.
14:27:34  539 540	 1492784854	 886055899	 377710.
14:27:35  540 541	 1492784855	 161373624	 275317.
14:27:35  541 542	 1492784855	 431875208	 270502.
14:27:35  542 543	 1492784855	 707326050	 275451.
14:27:35  543 544	 1492784855	 979077253	 271751.
14:27:36  544 545	 1492784856	 201636753	 222559.
14:27:36  545 546	 1492784856	 473520640	 271885.
14:27:36  546 547	 1492784856	 748938982	 275418.
14:27:37  547 548	 1492784857	 19889718	 270950.
14:27:37  548 549	 1492784857	 294552236	 274663.
14:27:37  549 550	 1492784857	 512479054	 217927.
14:27:37  550 551	 1492784857	 787355677	 274876.
14:27:38  551 552	 1492784858	 58095525	 270740.
14:27:38  552 553	 1492784858	 332984303	 274889.
14:27:38  553 554	 1492784858	 550922649	 217939.
14:27:38  554 555	 1492784858	 825877827	 274954.
14:27:39  555 556	 1492784859	 96741009	 270864.
14:27:39  556 557	 1492784859	 372232105	 275491.
14:27:39  557 558	 1492784859	 643616028	 271384.
14:27:39  558 559	 1492784859	 866291859	 222676.
14:27:40  559 560	 1492784860	 179315915	 313024.
14:27:40  560 561	 1492784860	 402034818	 222719.
14:27:40  561 562	 1492784860	 672999166	 270964.
14:27:40  562 563	 1492784860	 944094503	 271095.
14:27:41  563 564	 1492784861	 219671179	 275577.
14:27:41  564 565	 1492784861	 491050018	 271379.
14:27:41  565 566	 1492784861	 766811689	 275761.
14:27:42  566 567	 1492784862	 37931521	 271120.
14:27:42  567 568	 1492784862	 260106058	 222175.
14:27:42  568 569	 1492784862	 530949311	 270843.
14:27:42  569 570	 1492784862	 801433485	 270484.
14:27:43  570 571	 1492784863	 77432420	 275999.
14:27:43  571 572	 1492784863	 348952926	 271521.
14:27:43  572 573	 1492784863	 624595808	 275642.
14:27:43  573 574	 1492784863	 847194468	 222599.
14:27:44  574 575	 1492784864	 118329757	 271135.
14:27:44  575 576	 1492784864	 390294140	 271965.
14:27:44  576 577	 1492784864	 665625625	 275331.
14:27:44  577 578	 1492784864	 936716581	 271091.
14:27:45  578 579	 1492784865	 207627760	 270911.
14:27:45  579 580	 1492784865	 430122149	 222495.
14:27:45  580 581	 1492784865	 705214006	 275092.
14:27:45  581 582	 1492784865	 976766915	 271553.
14:27:46  582 583	 1492784866	 252013758	 275246.
14:27:46  583 584	 1492784866	 523023075	 271010.
14:27:46  584 585	 1492784866	 745413508	 222390.
14:27:47  585 586	 1492784867	 16696976	 271284.
14:27:47  586 587	 1492784867	 291608099	 274911.
14:27:47  587 588	 1492784867	 562586002	 270978.
14:27:47  588 589	 1492784867	 784606662	 222020.
14:27:48  589 590	 1492784868	 56164146	 271558.
14:27:48  590 591	 1492784868	 331795506	 275631.
14:27:48  591 592	 1492784868	 603122416	 271327.
14:27:48  592 593	 1492784868	 874605695	 271483.
14:27:49  593 594	 1492784869	 149630411	 275025.
14:27:49  594 595	 1492784869	 421682969	 272053.
14:27:49  595 596	 1492784869	 643716785	 222034.
14:27:49  596 597	 1492784869	 919373719	 275656.
14:27:50  597 598	 1492784870	 190911285	 271538.
14:27:50  598 599	 1492784870	 462002804	 271091.
14:27:50  599 600	 1492784870	 737285625	 275284.
14:27:50  600 601	 1492784870	 955419716	 218133.
14:27:51  601 602	 1492784871	 230275952	 274857.
14:27:51  602 603	 1492784871	 501506810	 271231.
14:27:51  603 604	 1492784871	 773264631	 271757.
14:27:52  604 605	 1492784872	 48620531	 275356.
14:27:52  605 606	 1492784872	 270818695	 222198.
14:27:52  606 607	 1492784872	 541805981	 270988.
14:27:52  607 608	 1492784872	 816623352	 274817.
14:27:53  608 609	 1492784873	 87733531	 271110.
14:27:53  609 610	 1492784873	 310452094	 222719.
14:27:53  610 611	 1492784873	 582238718	 271786.
14:27:53  611 612	 1492784873	 857518119	 275280.
14:27:54  612 613	 1492784874	 129090758	 271572.
14:27:54  613 614	 1492784874	 401284168	 272194.
14:27:54  614 615	 1492784874	 673150667	 271866.
14:27:54  615 616	 1492784874	 948621663	 275471.
14:27:55  616 617	 1492784875	 219810968	 271190.
14:27:55  617 618	 1492784875	 490361195	 270550.
14:27:55  618 619	 1492784875	 712486796	 222125.
14:27:55  619 620	 1492784875	 988153435	 275667.
14:27:56  620 621	 1492784876	 259580495	 271427.
14:27:56  621 622	 1492784876	 530637077	 271057.
14:27:56  622 623	 1492784876	 806063044	 275426.
14:27:57  623 624	 1492784877	 77681277	 271618.
14:27:57  624 625	 1492784877	 300208764	 222527.
14:27:57  625 626	 1492784877	 576309367	 276101.
14:27:57  626 627	 1492784877	 848547351	 272238.
14:27:58  627 628	 1492784878	 119437768	 270890.
14:27:58  628 629	 1492784878	 395039754	 275602.
14:27:58  629 630	 1492784878	 666578501	 271539.
14:27:58  630 631	 1492784878	 942460088	 275882.
14:27:59  631 632	 1492784879	 214226550	 271766.
14:27:59  632 633	 1492784879	 490179315	 275953.
14:27:59  633 634	 1492784879	 712872914	 222694.
14:27:59  634 635	 1492784879	 985110830	 272238.
14:28:00  635 636	 1492784880	 256903352	 271792.
14:28:00  636 637	 1492784880	 533239058	 276336.
14:28:00  637 638	 1492784880	 804983829	 271745.
14:28:01  638 639	 1492784881	 76085125	 271101.
14:28:01  639 640	 1492784881	 351312339	 275227.
14:28:01  640 641	 1492784881	 622628736	 271316.
14:28:01  641 642	 1492784881	 893718493	 271090.
14:28:02  642 643	 1492784882	 169170764	 275452.
14:28:02  643 644	 1492784882	 387209108	 218039.
14:28:02  644 645	 1492784882	 662156963	 274948.
14:28:02  645 646	 1492784882	 933391724	 271234.
14:28:03  646 647	 1492784883	 204004999	 270614.
14:28:03  647 648	 1492784883	 478867946	 274863.
14:28:03  648 649	 1492784883	 749957042	 271089.
14:28:03  649 650	 1492784883	 972145671	 222188.
14:28:04  650 651	 1492784884	 243222104	 271077.
14:28:04  651 652	 1492784884	 514396101	 271174.
14:28:04  652 653	 1492784884	 789638730	 275242.
14:28:05  653 654	 1492784885	 60967897	 271330.
14:28:05  654 655	 1492784885	 332552284	 271584.
14:28:05  655 656	 1492784885	 607701459	 275149.
14:28:05  656 657	 1492784885	 826035877	 218334.
14:28:06  657 658	 1492784886	 101606796	 275572.
14:28:06  658 659	 1492784886	 373159223	 271552.
14:28:06  659 660	 1492784886	 702824415	 329665.
14:28:06  660 661	 1492784886	 975393553	 272569.
14:28:07  661 662	 1492784887	 306209325	 330816.
14:28:07  662 663	 1492784887	 578160254	 271951.
14:28:07  663 664	 1492784887	 800690553	 222530.
14:28:08  664 665	 1492784888	 77307294	 276617.
14:28:08  665 666	 1492784888	 348866544	 271559.
14:28:08  666 667	 1492784888	 624275134	 275409.
14:28:08  667 668	 1492784888	 895534196	 271259.
14:28:09  668 669	 1492784889	 168597475	 273063.
14:28:09  669 670	 1492784889	 445501414	 276904.
14:28:09  670 671	 1492784889	 717183211	 271682.
14:28:09  671 672	 1492784889	 992986210	 275803.
14:28:10  672 673	 1492784890	 215722534	 222736.
14:28:10  673 674	 1492784890	 487196124	 271474.
14:28:10  674 675	 1492784890	 763056560	 275860.
14:28:11  675 676	 1492784891	 35377241	 272321.
14:28:11  676 677	 1492784891	 312214212	 276837.
14:28:11  677 678	 1492784891	 584525268	 272311.
14:28:11  678 679	 1492784891	 860968304	 276443.
14:28:12  679 680	 1492784892	 132357796	 271389.
14:28:12  680 681	 1492784892	 403306350	 270949.
14:28:12  681 682	 1492784892	 678523713	 275217.
14:28:12  682 683	 1492784892	 901004390	 222481.
14:28:13  683 684	 1492784893	 172595199	 271591.
14:28:13  684 685	 1492784893	 447862109	 275267.
14:28:13  685 686	 1492784893	 719224808	 271363.
14:28:13  686 687	 1492784893	 990651877	 271427.
14:28:14  687 688	 1492784894	 213266806	 222614.
14:28:14  688 689	 1492784894	 488575795	 275309.
14:28:14  689 690	 1492784894	 759785067	 271210.
14:28:15  690 691	 1492784895	 35375788	 275590.
14:28:15  691 692	 1492784895	 306973304	 271598.
14:28:15  692 693	 1492784895	 529657643	 222684.
14:28:15  693 694	 1492784895	 805114944	 275458.
14:28:16  694 695	 1492784896	 76986807	 271872.
14:28:16  695 696	 1492784896	 352419322	 275432.
14:28:16  696 697	 1492784896	 624318916	 271900.
14:28:16  697 698	 1492784896	 846763008	 222444.
14:28:17  698 699	 1492784897	 121922943	 275160.
14:28:17  699 700	 1492784897	 393759619	 271836.
14:28:17  700 701	 1492784897	 669394348	 275635.
14:28:17  701 702	 1492784897	 941135920	 271742.
14:28:18  702 703	 1492784898	 213302637	 272166.
14:28:18  703 704	 1492784898	 435671424	 222369.
14:28:18  704 705	 1492784898	 711786772	 276115.
14:28:18  705 706	 1492784898	 983465232	 271679.
14:28:19  706 707	 1492784899	 259890236	 276425.
14:28:19  707 708	 1492784899	 532365740	 272475.
14:28:19  708 709	 1492784899	 808680159	 276315.
14:28:20  709 710	 1492784900	 81043418	 272363.
14:28:20  710 711	 1492784900	 357341862	 276299.
14:28:20  711 712	 1492784900	 629632084	 272290.
14:28:20  712 713	 1492784900	 901455471	 271823.
14:28:21  713 714	 1492784901	 177532493	 276077.
14:28:21  714 715	 1492784901	 450045665	 272513.
14:28:21  715 716	 1492784901	 780251266	 330206.
14:28:22  716 717	 1492784902	 52639148	 272388.
14:28:22  717 718	 1492784902	 378735706	 326096.
14:28:22  718 719	 1492784902	 601024557	 222289.
14:28:22  719 720	 1492784902	 876011845	 274988.
14:28:23  720 721	 1492784903	 146823751	 270811.
14:28:23  721 722	 1492784903	 418197175	 271374.
14:28:23  722 723	 1492784903	 695328776	 277132.
14:28:23  723 724	 1492784903	 968176398	 272847.
14:28:24  724 725	 1492784904	 243667020	 275491.
14:28:24  725 726	 1492784904	 514800691	 271133.
14:28:24  726 727	 1492784904	 785335493	 270535.
14:28:25  727 728	 1492784905	 60036221	 274701.
14:28:25  728 729	 1492784905	 282460845	 222424.
14:28:25  729 730	 1492784905	 553611651	 271151.
14:28:25  730 731	 1492784905	 829654173	 276043.
14:28:26  731 732	 1492784906	 101668513	 272014.
14:28:26  732 733	 1492784906	 377237391	 275569.
14:28:26  733 734	 1492784906	 599683278	 222446.
14:28:26  734 735	 1492784906	 871148521	 271465.
14:28:27  735 736	 1492784907	 146740044	 275592.
14:28:27  736 737	 1492784907	 417967788	 271227.
14:28:27  737 738	 1492784907	 640239722	 222272.
14:28:27  738 739	 1492784907	 915340692	 275101.
14:28:28  739 740	 1492784908	 186367746	 271027.
14:28:28  740 741	 1492784908	 408585096	 222218.
14:28:28  741 742	 1492784908	 679511069	 270926.
14:28:28  742 743	 1492784908	 950895079	 271384.
14:28:29  743 744	 1492784909	 209433967	 258539.
14:28:29  744 745	 1492784909	 484654225	 275220.
14:28:29  745 746	 1492784909	 706655909	 222002.
14:28:29  746 747	 1492784909	 978478088	 271822.
14:28:30  747 748	 1492784910	 254144202	 275666.
14:28:30  748 749	 1492784910	 525473267	 271329.
14:28:30  749 750	 1492784910	 747300534	 221827.
14:28:31  750 751	 1492784911	 17773547	 270473.
14:28:31  751 752	 1492784911	 292902412	 275129.
14:28:31  752 753	 1492784911	 515128985	 222227.
14:28:31  753 754	 1492784911	 786034760	 270905.
14:28:32  754 755	 1492784912	 61161687	 275127.
14:28:32  755 756	 1492784912	 336764426	 275603.
14:28:32  756 757	 1492784912	 559077739	 222313.
14:28:32  757 758	 1492784912	 830266550	 271189.
14:28:33  758 759	 1492784913	 106151486	 275885.
14:28:33  759 760	 1492784913	 376972078	 270821.
14:28:33  760 761	 1492784913	 599467647	 222495.
14:28:33  761 762	 1492784913	 874649725	 275182.
14:28:34  762 763	 1492784914	 145850868	 271202.
14:28:34  763 764	 1492784914	 367908283	 222057.
14:28:34  764 765	 1492784914	 643572844	 275665.
14:28:34  765 766	 1492784914	 919202138	 275629.
14:28:35  766 767	 1492784915	 190570581	 271368.
14:28:35  767 768	 1492784915	 413238494	 222668.
14:28:35  768 769	 1492784915	 688466109	 275228.
14:28:35  769 770	 1492784915	 959987295	 271521.
14:28:36  770 771	 1492784916	 182338186	 222351.
14:28:36  771 772	 1492784916	 457985982	 275648.
14:28:36  772 773	 1492784916	 729562558	 271576.
14:28:36  773 774	 1492784917	 651531	 271089.
14:28:37  774 775	 1492784917	 276581014	 275930.
14:28:37  775 776	 1492784917	 548806664	 272225.
14:28:37  776 777	 1492784917	 771722058	 222916.
14:28:38  777 778	 1492784918	 47487862	 275766.
14:28:38  778 779	 1492784918	 319416312	 271928.
14:28:38  779 780	 1492784918	 595233426	 275817.
14:28:38  780 781	 1492784918	 866399238	 271166.
14:28:39  781 782	 1492784919	 141907192	 275508.
14:28:39  782 783	 1492784919	 364335764	 222428.
14:28:39  783 784	 1492784919	 636173823	 271839.
14:28:39  784 785	 1492784919	 911722880	 275548.
14:28:40  785 786	 1492784920	 186982008	 275260.
14:28:40  786 787	 1492784920	 405288287	 218306.
14:28:40  787 788	 1492784920	 680912102	 275624.
14:28:40  788 789	 1492784920	 953082004	 272170.
14:28:41  789 790	 1492784921	 228876249	 275794.
14:28:41  790 791	 1492784921	 500304983	 271429.
14:28:41  791 792	 1492784921	 776082977	 275778.
14:28:42  792 793	 1492784922	 48068665	 271985.
14:28:42  793 794	 1492784922	 270454403	 222386.
14:28:42  794 795	 1492784922	 541993228	 271539.
14:28:42  795 796	 1492784922	 818132219	 276139.
14:28:43  796 797	 1492784923	 94340537	 276208.
14:28:43  797 798	 1492784923	 365781551	 271441.
14:28:43  798 799	 1492784923	 641232833	 275452.
14:28:43  799 800	 1492784923	 863527827	 222295.
14:28:44  800 801	 1492784924	 134316595	 270788.
14:28:44  801 802	 1492784924	 405831071	 271515.
14:28:44  802 803	 1492784924	 681546829	 275716.
14:28:44  803 804	 1492784924	 952894023	 271347.
14:28:45  804 805	 1492784925	 175587212	 222693.
14:28:45  805 806	 1492784925	 447761939	 272175.
14:28:45  806 807	 1492784925	 722719929	 274958.
14:28:45  807 808	 1492784925	 993915120	 271195.
14:28:46  808 809	 1492784926	 268952041	 275037.
14:28:46  809 810	 1492784926	 539855062	 270903.
14:28:46  810 811	 1492784926	 810602907	 270748.
14:28:47  811 812	 1492784927	 32528501	 221925.
14:28:47  812 813	 1492784927	 303918677	 271390.
14:28:47  813 814	 1492784927	 579427542	 275509.
14:28:47  814 815	 1492784927	 850956557	 271529.
14:28:48  815 816	 1492784928	 121976244	 271020.
14:28:48  816 817	 1492784928	 393576175	 271600.
14:28:48  817 818	 1492784928	 669698606	 276122.
14:28:48  818 819	 1492784928	 940973888	 271276.
14:28:49  819 820	 1492784929	 163367780	 222393.
14:28:49  820 821	 1492784929	 434631368	 271264.
14:28:49  821 822	 1492784929	 709976739	 275345.
14:28:49  822 823	 1492784929	 981259939	 271284.
14:28:50  823 824	 1492784930	 256899831	 275640.
14:28:50  824 825	 1492784930	 528332479	 271432.
14:28:50  825 826	 1492784930	 750948710	 222617.
14:28:51  826 827	 1492784931	 22136167	 271187.
14:28:51  827 828	 1492784931	 297558974	 275423.
14:28:51  828 829	 1492784931	 568706021	 271147.
14:28:51  829 830	 1492784931	 791192823	 222486.
14:28:52  830 831	 1492784932	 66416212	 275224.
14:28:52  831 832	 1492784932	 337691454	 271275.
14:28:52  832 833	 1492784932	 560003073	 222312.
14:28:52  833 834	 1492784932	 836162023	 276159.
14:28:53  834 835	 1492784933	 107369867	 271207.
14:28:53  835 836	 1492784933	 382510171	 275141.
14:28:53  836 837	 1492784933	 605146011	 222636.
14:28:53  837 838	 1492784933	 876557991	 271412.
14:28:54  838 839	 1492784934	 152511617	 275953.
14:28:54  839 840	 1492784934	 374589451	 222078.
14:28:54  840 841	 1492784934	 646019695	 271430.
14:28:54  841 842	 1492784934	 920924606	 274905.
14:28:55  842 843	 1492784935	 192476397	 271552.
14:28:55  843 844	 1492784935	 414653129	 222177.
14:28:55  844 845	 1492784935	 690147241	 275494.
14:28:55  845 846	 1492784935	 961936173	 271789.
14:28:56  846 847	 1492784936	 237235363	 275299.
14:28:56  847 848	 1492784936	 459480039	 222245.
14:28:56  848 849	 1492784936	 730624895	 271145.
14:28:57  849 850	 1492784937	 5904355	 275279.
14:28:57  850 851	 1492784937	 277898779	 271994.
14:28:57  851 852	 1492784937	 554279686	 276381.
14:28:57  852 853	 1492784937	 826192421	 271913.
14:28:58  853 854	 1492784938	 49271927	 223080.
14:28:58  854 855	 1492784938	 324674470	 275402.
14:28:58  855 856	 1492784938	 596224909	 271551.
14:28:58  856 857	 1492784938	 867809865	 271585.
14:28:59  857 858	 1492784939	 94307097	 226497.
14:28:59  858 859	 1492784939	 366171701	 271864.
14:28:59  859 860	 1492784939	 642488634	 276317.
14:28:59  860 861	 1492784939	 914702304	 272214.
14:29:00  861 862	 1492784940	 190406249	 275704.
14:29:00  862 863	 1492784940	 462226972	 271821.
14:29:00  863 864	 1492784940	 733683850	 271457.
14:29:01  864 865	 1492784941	 4768858	 271085.
14:29:01  865 866	 1492784941	 279598839	 274830.
14:29:01  866 867	 1492784941	 501898077	 222299.
14:29:01  867 868	 1492784941	 772661383	 270763.
14:29:02  868 869	 1492784942	 43636553	 270975.
14:29:02  869 870	 1492784942	 314926408	 271290.
14:29:02  870 871	 1492784942	 590565693	 275639.
14:29:02  871 872	 1492784942	 862296305	 271731.
14:29:03  872 873	 1492784943	 137765406	 275469.
14:29:03  873 874	 1492784943	 408675370	 270910.
14:29:03  874 875	 1492784943	 631109045	 222434.
14:29:03  875 876	 1492784943	 902189574	 271081.
14:29:04  876 877	 1492784944	 173618464	 271428.
14:29:04  877 878	 1492784944	 449037376	 275419.
14:29:04  878 879	 1492784944	 720215972	 271179.
14:29:04  879 880	 1492784944	 990798753	 270582.
14:29:05  880 881	 1492784945	 212602329	 221804.
14:29:05  881 882	 1492784945	 487445526	 274843.
14:29:05  882 883	 1492784945	 758664238	 271219.
14:29:06  883 884	 1492784946	 30374025	 271710.
14:29:06  884 885	 1492784946	 306104989	 275731.
14:29:06  885 886	 1492784946	 577492267	 271387.
14:29:06  886 887	 1492784946	 849037654	 271545.
14:29:07  887 888	 1492784947	 71825309	 222788.
14:29:07  888 889	 1492784947	 347650463	 275825.
14:29:07  889 890	 1492784947	 619668462	 272018.
14:29:07  890 891	 1492784947	 896018848	 276351.
14:29:08  891 892	 1492784948	 167733439	 271714.
14:29:08  892 893	 1492784948	 443044108	 275311.
14:29:08  893 894	 1492784948	 714947151	 271903.
14:29:08  894 895	 1492784948	 937466242	 222519.
14:29:09  895 896	 1492784949	 209649458	 272183.
14:29:09  896 897	 1492784949	 485728523	 276079.
14:29:09  897 898	 1492784949	 757986301	 272258.
14:29:10  898 899	 1492784950	 30117426	 272131.
14:29:10  899 900	 1492784950	 306658050	 276541.
14:29:10  900 901	 1492784950	 578900509	 272242.
14:29:10  901 902	 1492784950	 854121624	 275221.
14:29:11  902 903	 1492784951	 125670080	 271549.
14:29:11  903 904	 1492784951	 396804379	 271134.
14:29:11  904 905	 1492784951	 668025931	 271222.
14:29:11  905 906	 1492784951	 928288054	 260262.
14:29:12  906 907	 1492784952	 203793597	 275505.
14:29:12  907 908	 1492784952	 475558698	 271765.
14:29:12  908 909	 1492784952	 746943287	 271385.
14:29:13  909 910	 1492784953	 18537025	 271594.
14:29:13  910 911	 1492784953	 293792378	 275255.
14:29:13  911 912	 1492784953	 515799896	 222008.
14:29:13  912 913	 1492784953	 786602163	 270802.
14:29:14  913 914	 1492784954	 61277741	 274675.
14:29:14  914 915	 1492784954	 333012028	 271735.
14:29:14  915 916	 1492784954	 605176799	 272164.
14:29:14  916 917	 1492784954	 876748996	 271573.
14:29:15  917 918	 1492784955	 151379521	 274630.
14:29:15  918 919	 1492784955	 422216399	 270837.
14:29:15  919 920	 1492784955	 693563827	 271348.
14:29:15  920 921	 1492784955	 915932324	 222368.
14:29:16  921 922	 1492784956	 187319617	 271387.
14:29:16  922 923	 1492784956	 463339712	 276020.
14:29:16  923 924	 1492784956	 739311065	 275972.
14:29:17  924 925	 1492784957	 10734106	 271423.
14:29:17  925 926	 1492784957	 233290216	 222556.
14:29:17  926 927	 1492784957	 509008805	 275718.
14:29:17  927 928	 1492784957	 780905937	 271898.
14:29:18  928 929	 1492784958	 52445989	 271540.
14:29:18  929 930	 1492784958	 328567301	 276121.
14:29:18  930 931	 1492784958	 604868078	 276301.
14:29:18  931 932	 1492784958	 827389200	 222521.
14:29:19  932 933	 1492784959	 98800906	 271412.
14:29:19  933 934	 1492784959	 370350715	 271549.
14:29:19  934 935	 1492784959	 646540324	 276190.
14:29:19  935 936	 1492784959	 917853324	 271313.
14:29:20  936 937	 1492784960	 140127075	 222274.
14:29:20  937 938	 1492784960	 415496480	 275369.
14:29:20  938 939	 1492784960	 686518613	 271022.
14:29:20  939 940	 1492784960	 908984694	 222466.
14:29:21  940 941	 1492784961	 184751497	 275767.
14:29:21  941 942	 1492784961	 456119007	 271368.
14:29:21  942 943	 1492784961	 731878936	 275760.
14:29:22  943 944	 1492784962	 3646064	 271767.
14:29:22  944 945	 1492784962	 226263942	 222618.
14:29:22  945 946	 1492784962	 502082889	 275819.
14:29:22  946 947	 1492784962	 773574611	 271491.
14:29:23  947 948	 1492784963	 45209177	 271635.
14:29:23  948 949	 1492784963	 320822393	 275613.
14:29:23  949 950	 1492784963	 542976166	 222154.
14:29:23  950 951	 1492784963	 818014790	 275038.
14:29:24  951 952	 1492784964	 89008224	 270994.
14:29:24  952 953	 1492784964	 365113755	 276106.
14:29:24  953 954	 1492784964	 587668255	 222554.
14:29:24  954 955	 1492784964	 862657279	 274989.
14:29:25  955 956	 1492784965	 133852792	 271196.
14:29:25  956 957	 1492784965	 356482348	 222629.
14:29:25  957 958	 1492784965	 631900240	 275418.
14:29:25  958 959	 1492784965	 904077350	 272177.
14:29:26  959 960	 1492784966	 180011485	 275934.
14:29:26  960 961	 1492784966	 451762304	 271751.
14:29:26  961 962	 1492784966	 678437535	 226675.
14:29:26  962 963	 1492784966	 950333871	 271897.
14:29:27  963 964	 1492784967	 226179664	 275845.
14:29:27  964 965	 1492784967	 497806842	 271628.
14:29:27  965 966	 1492784967	 769629440	 271822.
14:29:28  966 967	 1492784968	 45603393	 275974.
14:29:28  967 968	 1492784968	 267842142	 222239.
14:29:28  968 969	 1492784968	 539610036	 271768.
14:29:28  969 970	 1492784968	 815174268	 275564.
14:29:29  970 971	 1492784969	 87095035	 271921.
14:29:29  971 972	 1492784969	 358805613	 271710.
14:29:29  972 973	 1492784969	 634545533	 275740.
14:29:29  973 974	 1492784969	 856593233	 222048.
14:29:30  974 975	 1492784970	 127810732	 271217.
14:29:30  975 976	 1492784970	 402544371	 274734.
14:29:30  976 977	 1492784970	 624804119	 222260.
14:29:30  977 978	 1492784970	 895874221	 271070.
14:29:31  978 979	 1492784971	 171136837	 275263.
14:29:31  979 980	 1492784971	 442834201	 271697.
14:29:31  980 981	 1492784971	 665724268	 222890.
14:29:31  981 982	 1492784971	 940981872	 275258.
14:29:32  982 983	 1492784972	 212702040	 271720.
14:29:32  983 984	 1492784972	 484598565	 271896.
14:29:32  984 985	 1492784972	 760744175	 276146.
14:29:32  985 986	 1492784972	 983432761	 222688.
14:29:33  986 987	 1492784973	 258538100	 275106.
14:29:33  987 988	 1492784973	 529832302	 271294.
14:29:33  988 989	 1492784973	 805196587	 275364.
14:29:34  989 990	 1492784974	 27862829	 222666.
14:29:34  990 991	 1492784974	 303687096	 275825.
14:29:34  991 992	 1492784974	 579407555	 275720.
14:29:34  992 993	 1492784974	 851372962	 271966.
14:29:35  993 994	 1492784975	 126775885	 275403.
14:29:35  994 995	 1492784975	 345364159	 218588.
14:29:35  995 996	 1492784975	 620970523	 275606.
14:29:35  996 997	 1492784975	 892537846	 271568.
14:29:36  997 998	 1492784976	 168416086	 275878.
14:29:36  998 999	 1492784976	 440058246	 271642.
14:29:36  999 1000	 1492784976	 715763879	 275706.
14:29:36 1000 1001	 1492784976	 938633998	 222870.
14:29:37 1001 1002	 1492784977	 214627126	 275993.
14:29:37 1002 1003	 1492784977	 490215237	 275588.
14:29:37 1003 1004	 1492784977	 761888204	 271673.
14:29:38 1004 1005	 1492784978	 33447096	 271559.
14:29:38 1005 1006	 1492784978	 259642223	 226195.
14:29:38 1006 1007	 1492784978	 531447775	 271805.
14:29:38 1007 1008	 1492784978	 803005444	 271558.
14:29:39 1008 1009	 1492784979	 79398929	 276394.
14:29:39 1009 1010	 1492784979	 351110857	 271712.
14:29:39 1010 1011	 1492784979	 626610544	 275499.
14:29:39 1011 1012	 1492784979	 849234802	 222625.
14:29:40 1012 1013	 1492784980	 120472054	 271237.
14:29:40 1013 1014	 1492784980	 396215543	 275743.
14:29:40 1014 1015	 1492784980	 667620764	 271405.
14:29:40 1015 1016	 1492784980	 890059775	 222439.
14:29:41 1016 1017	 1492784981	 165875765	 275816.
14:29:41 1017 1018	 1492784981	 437510759	 271635.
14:29:41 1018 1019	 1492784981	 712997641	 275487.
14:29:41 1019 1020	 1492784981	 935698262	 222701.
14:29:42 1020 1021	 1492784982	 207540283	 271842.
14:29:42 1021 1022	 1492784982	 483063524	 275523.
14:29:42 1022 1023	 1492784982	 754764295	 271701.
14:29:43 1023 1024	 1492784983	 30232026	 275468.
14:29:43 1024 1025	 1492784983	 252726499	 222494.
14:29:43 1025 1026	 1492784983	 524127019	 271401.
14:29:43 1026 1027	 1492784983	 800155233	 276028.
14:29:44 1027 1028	 1492784984	 71441735	 271286.
14:29:44 1028 1029	 1492784984	 294066836	 222626.
14:29:44 1029 1030	 1492784984	 570044108	 275977.
14:29:44 1030 1031	 1492784984	 841289544	 271245.
14:29:45 1031 1032	 1492784985	 116792964	 275504.
14:29:45 1032 1033	 1492784985	 388294938	 271502.
14:29:45 1033 1034	 1492784985	 664118500	 275823.
14:29:45 1034 1035	 1492784985	 886703337	 222585.
14:29:46 1035 1036	 1492784986	 158245125	 271542.
14:29:46 1036 1037	 1492784986	 429560395	 271315.
14:29:46 1037 1038	 1492784986	 703938811	 274379.
14:29:46 1038 1039	 1492784986	 922213304	 218274.
14:29:47 1039 1040	 1492784987	 197800099	 275587.
14:29:47 1040 1041	 1492784987	 473370214	 275570.
14:29:47 1041 1042	 1492784987	 745255458	 271885.
14:29:47 1042 1043	 1492784987	 967617741	 222362.
14:29:48 1043 1044	 1492784988	 243113378	 275496.
14:29:48 1044 1045	 1492784988	 514443689	 271330.
14:29:48 1045 1046	 1492784988	 785564270	 271121.
14:29:49 1046 1047	 1492784989	 61196691	 275632.
14:29:49 1047 1048	 1492784989	 283645594	 222449.
14:29:49 1048 1049	 1492784989	 554721376	 271076.
14:29:49 1049 1050	 1492784989	 829607463	 274886.
14:29:50 1050 1051	 1492784990	 101282283	 271675.
14:29:50 1051 1052	 1492784990	 323532449	 222250.
14:29:50 1052 1053	 1492784990	 594350972	 270819.
14:29:50 1053 1054	 1492784990	 869481205	 275130.
14:29:51 1054 1055	 1492784991	 140532376	 271051.
14:29:51 1055 1056	 1492784991	 411752665	 271220.
14:29:51 1056 1057	 1492784991	 687296895	 275545.
14:29:51 1057 1058	 1492784991	 905497750	 218201.
14:29:52 1058 1059	 1492784992	 180395109	 274897.
14:29:52 1059 1060	 1492784992	 451471930	 271077.
14:29:52 1060 1061	 1492784992	 722512203	 271040.
14:29:52 1061 1062	 1492784992	 996992425	 274480.
14:29:53 1062 1063	 1492784993	 219236007	 222244.
14:29:53 1063 1064	 1492784993	 490333674	 271097.
14:29:53 1064 1065	 1492784993	 761723035	 271390.
14:29:54 1065 1066	 1492784994	 36721032	 274998.
14:29:54 1066 1067	 1492784994	 307307999	 270587.
14:29:54 1067 1068	 1492784994	 578547774	 271239.
14:29:54 1068 1069	 1492784994	 853821942	 275275.
14:29:55 1069 1070	 1492784995	 124621047	 270799.
14:29:55 1070 1071	 1492784995	 346374193	 221753.
14:29:55 1071 1072	 1492784995	 617187450	 270813.
14:29:55 1072 1073	 1492784995	 887849234	 270662.
14:29:56 1073 1074	 1492784996	 162665602	 274816.
14:29:56 1074 1075	 1492784996	 433880912	 271216.
14:29:56 1075 1076	 1492784996	 656611802	 222731.
14:29:56 1076 1077	 1492784996	 927501387	 270889.
14:29:57 1077 1078	 1492784997	 198967286	 271466.
14:29:57 1078 1079	 1492784997	 474267290	 275300.
14:29:57 1079 1080	 1492784997	 745578945	 271312.
14:29:58 1080 1081	 1492784998	 16858181	 271279.
14:29:58 1081 1082	 1492784998	 288107425	 271249.
14:29:58 1082 1083	 1492784998	 563020594	 274913.
14:29:58 1083 1084	 1492784998	 833871084	 270851.
14:29:59 1084 1085	 1492784999	 55916442	 222045.
14:29:59 1085 1086	 1492784999	 326667803	 270752.
14:29:59 1086 1087	 1492784999	 597102389	 270434.
14:29:59 1087 1088	 1492784999	 868452591	 271350.
14:30:00 1088 1089	 1492785000	 140235516	 271783.
14:30:00 1089 1090	 1492785000	 415659283	 275424.
14:30:00 1090 1091	 1492785000	 687017494	 271358.
14:30:00 1091 1092	 1492785000	 958458964	 271442.
14:30:01 1092 1093	 1492785001	 233563108	 275104.
14:30:01 1093 1094	 1492785001	 504632099	 271069.
14:30:01 1094 1095	 1492785001	 776034727	 271402.
14:30:02 1095 1096	 1492785002	 47112127	 271078.
14:30:02 1096 1097	 1492785002	 269475865	 222364.
14:30:02 1097 1098	 1492785002	 545154197	 275678.
14:30:02 1098 1099	 1492785002	 816630569	 271476.
14:30:03 1099 1100	 1492785003	 88024296	 271394.
14:30:03 1100 1101	 1492785003	 359221960	 271198.
14:30:03 1101 1102	 1492785003	 634566844	 275345.
14:30:03 1102 1103	 1492785003	 906010070	 271443.
14:30:04 1103 1104	 1492785004	 177765165	 271755.
14:30:04 1104 1105	 1492785004	 452801459	 275036.
14:30:04 1105 1106	 1492785004	 724089985	 271289.
14:30:04 1106 1107	 1492785004	 995265512	 271175.
14:30:05 1107 1108	 1492785005	 266286998	 271022.
14:30:05 1108 1109	 1492785005	 542010887	 275724.
14:30:05 1109 1110	 1492785005	 813548428	 271537.
14:30:06 1110 1111	 1492785006	 84789659	 271241.
14:30:06 1111 1112	 1492785006	 356007569	 271218.
14:30:06 1112 1113	 1492785006	 627196227	 271189.
14:30:06 1113 1114	 1492785006	 853856964	 226661.
14:30:07 1114 1115	 1492785007	 125029203	 271172.
14:30:07 1115 1116	 1492785007	 396472540	 271443.
14:30:07 1116 1117	 1492785007	 668036223	 271564.
14:30:07 1117 1118	 1492785007	 939532417	 271496.
14:30:08 1118 1119	 1492785008	 214601403	 275069.
14:30:08 1119 1120	 1492785008	 485309397	 270708.
14:30:08 1120 1121	 1492785008	 756077085	 270768.
14:30:09 1121 1122	 1492785009	 27005983	 270929.
14:30:09 1122 1123	 1492785009	 248966436	 221960.
14:30:09 1123 1124	 1492785009	 519473343	 270507.
14:30:09 1124 1125	 1492785009	 794463362	 274990.
14:30:10 1125 1126	 1492785010	 65578259	 271115.
14:30:10 1126 1127	 1492785010	 336980930	 271403.
14:30:10 1127 1128	 1492785010	 608330460	 271349.
14:30:10 1128 1129	 1492785010	 883596554	 275266.
14:30:11 1129 1130	 1492785011	 155259036	 271663.
14:30:11 1130 1131	 1492785011	 430317835	 275059.
14:30:11 1131 1132	 1492785011	 648219062	 217901.
14:30:11 1132 1133	 1492785011	 922706899	 274488.
14:30:12 1133 1134	 1492785012	 193511975	 270805.
