08:54:38    0 Step	 time(s)	 time(ns)	 delta(ms)
08:54:38    0 1	 1492764878	 229287857	 54146.
08:54:38    1 2	 1492764878	 452162469	 222875.
08:54:38    2 3	 1492764878	 724305814	 272144.
08:54:38    3 4	 1492764878	 995862055	 271556.
08:54:39    4 5	 1492764879	 271581277	 275719.
08:54:39    5 6	 1492764879	 543757771	 272177.
08:54:39    6 7	 1492764879	 819848740	 276090.
08:54:40    7 8	 1492764880	 92152035	 272304.
08:54:40    8 9	 1492764880	 367867185	 275715.
08:54:40    9 10	 1492764880	 590650885	 222784.
08:54:40   10 11	 1492764880	 862682850	 272032.
08:54:41   11 12	 1492764881	 138438389	 275755.
08:54:41   12 13	 1492764881	 409924811	 271487.
08:54:41   13 14	 1492764881	 685615121	 275690.
08:54:41   14 15	 1492764881	 908121391	 222506.
08:54:42   15 16	 1492764882	 179586164	 271465.
08:54:42   16 17	 1492764882	 454749502	 275163.
08:54:42   17 18	 1492764882	 726551971	 271803.
08:54:42   18 19	 1492764883	 2232251	 275680.
08:54:43   19 20	 1492764883	 274430716	 272198.
08:54:43   20 21	 1492764883	 497054490	 222624.
08:54:43   21 22	 1492764883	 769161153	 272107.
08:54:44   22 23	 1492764884	 45047290	 275886.
08:54:44   23 24	 1492764884	 316795395	 271748.
08:54:44   24 25	 1492764884	 592487973	 275693.
08:54:44   25 26	 1492764884	 864715359	 272227.
08:54:45   26 27	 1492764885	 141037060	 276322.
08:54:45   27 28	 1492764885	 412794524	 271757.
08:54:45   28 29	 1492764885	 635293284	 222499.
08:54:45   29 30	 1492764885	 911658729	 276365.
08:54:46   30 31	 1492764886	 183927888	 272270.
08:54:46   31 32	 1492764886	 455673249	 271745.
08:54:46   32 33	 1492764886	 731267472	 275594.
08:54:46   33 34	 1492764887	 2301638	 271034.
08:54:47   34 35	 1492764887	 224829804	 222528.
08:54:47   35 36	 1492764887	 500097571	 275268.
08:54:47   36 37	 1492764887	 771478151	 271381.
08:54:48   37 38	 1492764888	 46765669	 275287.
08:54:48   38 39	 1492764888	 268632513	 221867.
08:54:48   39 40	 1492764888	 539928091	 271296.
08:54:48   40 41	 1492764888	 815015479	 275087.
08:54:49   41 42	 1492764889	 86383312	 271368.
08:54:49   42 43	 1492764889	 358409559	 272026.
08:54:49   43 44	 1492764889	 581457484	 223048.
08:54:49   44 45	 1492764889	 857901159	 276444.
08:54:50   45 46	 1492764890	 133702351	 275801.
08:54:50   46 47	 1492764890	 406304535	 272602.
08:54:50   47 48	 1492764890	 682394572	 276090.
08:54:50   48 49	 1492764890	 954540071	 272146.
08:54:51   49 50	 1492764891	 230309691	 275769.
08:54:51   50 51	 1492764891	 502100937	 271792.
08:54:51   51 52	 1492764891	 724815389	 222714.
08:54:51   52 53	 1492764892	 621852	 275807.
08:54:52   53 54	 1492764892	 272915647	 272293.
08:54:52   54 55	 1492764892	 548716073	 275801.
08:54:52   55 56	 1492764892	 820264422	 271548.
08:54:53   56 57	 1492764893	 42555320	 222291.
08:54:53   57 58	 1492764893	 318095005	 275540.
08:54:53   58 59	 1492764893	 590261263	 272166.
08:54:53   59 60	 1492764893	 866101584	 275840.
08:54:54   60 61	 1492764894	 138010461	 271909.
08:54:54   61 62	 1492764894	 413775033	 275765.
08:54:54   62 63	 1492764894	 636269217	 222494.
08:54:54   63 64	 1492764894	 908725871	 272457.
08:54:55   64 65	 1492764895	 184769766	 276043.
08:54:55   65 66	 1492764895	 461016546	 276247.
08:54:55   66 67	 1492764895	 732300232	 271284.
08:54:56   67 68	 1492764896	 4693663	 272393.
08:54:56   68 69	 1492764896	 280914435	 276221.
08:54:56   69 70	 1492764896	 503130089	 222216.
08:54:56   70 71	 1492764896	 774819327	 271689.
08:54:57   71 72	 1492764897	 46662706	 271843.
08:54:57   72 73	 1492764897	 322184695	 275522.
08:54:57   73 74	 1492764897	 598536074	 276352.
08:54:57   74 75	 1492764897	 870290522	 271754.
08:54:58   75 76	 1492764898	 141443904	 271154.
08:54:58   76 77	 1492764898	 367356867	 225913.
08:54:58   77 78	 1492764898	 638437019	 271080.
08:54:58   78 79	 1492764898	 913814775	 275378.
08:54:59   79 80	 1492764899	 189822175	 276007.
08:54:59   80 81	 1492764899	 412582769	 222760.
08:54:59   81 82	 1492764899	 684631267	 272049.
08:54:59   82 83	 1492764899	 956659777	 272028.
08:55:00   83 84	 1492764900	 231521047	 274862.
08:55:00   84 85	 1492764900	 502656577	 271135.
08:55:00   85 86	 1492764900	 774017862	 271362.
08:55:01   86 87	 1492764901	 49220586	 275202.
08:55:01   87 88	 1492764901	 319992134	 270772.
08:55:01   88 89	 1492764901	 542056079	 222064.
08:55:01   89 90	 1492764901	 813106379	 271050.
08:55:02   90 91	 1492764902	 88213598	 275107.
08:55:02   91 92	 1492764902	 359300444	 271087.
08:55:02   92 93	 1492764902	 630293412	 270993.
08:55:02   93 94	 1492764902	 901491184	 271198.
08:55:03   94 95	 1492764903	 176848995	 275358.
08:55:03   95 96	 1492764903	 398690308	 221841.
08:55:03   96 97	 1492764903	 669515475	 270825.
08:55:03   97 98	 1492764903	 940636558	 271121.
08:55:04   98 99	 1492764904	 215954590	 275318.
08:55:04   99 100	 1492764904	 487421584	 271467.
08:55:04  100 101	 1492764904	 758863280	 271442.
08:55:05  101 102	 1492764905	 30259316	 271396.
08:55:05  102 103	 1492764905	 305385848	 275127.
08:55:05  103 104	 1492764905	 576437459	 271051.
08:55:05  104 105	 1492764905	 847471803	 271035.
08:55:06  105 106	 1492764906	 69714038	 222242.
08:55:06  106 107	 1492764906	 341112267	 271398.
08:55:06  107 108	 1492764906	 612626929	 271515.
08:55:06  108 109	 1492764906	 887906321	 275279.
08:55:07  109 110	 1492764907	 159074941	 271169.
08:55:07  110 111	 1492764907	 430460565	 271385.
08:55:07  111 112	 1492764907	 705704363	 275244.
08:55:07  112 113	 1492764907	 976783474	 271079.
08:55:08  113 114	 1492764908	 248137288	 271354.
08:55:08  114 115	 1492764908	 524291052	 276154.
08:55:08  115 116	 1492764908	 746820030	 222529.
08:55:09  116 117	 1492764909	 18301060	 271481.
08:55:09  117 118	 1492764909	 294004669	 275703.
08:55:09  118 119	 1492764909	 566153413	 272149.
08:55:09  119 120	 1492764909	 842258297	 276105.
08:55:10  120 121	 1492764910	 113970706	 271712.
08:55:10  121 122	 1492764910	 336442936	 222473.
08:55:10  122 123	 1492764910	 607654225	 271211.
08:55:10  123 124	 1492764910	 882834078	 275180.
08:55:11  124 125	 1492764911	 154682476	 271848.
08:55:11  125 126	 1492764911	 377407883	 222726.
08:55:11  126 127	 1492764911	 653574924	 276167.
08:55:11  127 128	 1492764911	 926017100	 272442.
08:55:12  128 129	 1492764912	 202336950	 276320.
08:55:12  129 130	 1492764912	 474446388	 272109.
08:55:12  130 131	 1492764912	 750516379	 276070.
08:55:13  131 132	 1492764913	 22767485	 272251.
08:55:13  132 133	 1492764913	 298433749	 275666.
08:55:13  133 134	 1492764913	 521287557	 222854.
08:55:13  134 135	 1492764913	 797122315	 275835.
08:55:14  135 136	 1492764914	 69080018	 271958.
08:55:14  136 137	 1492764914	 344743796	 275663.
08:55:14  137 138	 1492764914	 616533672	 271790.
08:55:14  138 139	 1492764914	 893007886	 276475.
08:55:15  139 140	 1492764915	 115787547	 222779.
08:55:15  140 141	 1492764915	 386939793	 271153.
08:55:15  141 142	 1492764915	 662121824	 275182.
08:55:15  142 143	 1492764915	 932988328	 270866.
08:55:16  143 144	 1492764916	 155346510	 222358.
08:55:16  144 145	 1492764916	 427122663	 271776.
08:55:16  145 146	 1492764916	 698517344	 271395.
08:55:16  146 147	 1492764916	 974038873	 275522.
08:55:17  147 148	 1492764917	 245450609	 271411.
08:55:17  148 149	 1492764917	 520714157	 275264.
08:55:17  149 150	 1492764917	 791733634	 271019.
08:55:18  150 151	 1492764918	 62908868	 271176.
08:55:18  151 152	 1492764918	 334176674	 271267.
08:55:18  152 153	 1492764918	 609335541	 275159.
08:55:18  153 154	 1492764918	 880205435	 270870.
08:55:19  154 155	 1492764919	 102158302	 221953.
08:55:19  155 156	 1492764919	 372958921	 270801.
08:55:19  156 157	 1492764919	 644292251	 271333.
08:55:19  157 158	 1492764919	 919261069	 274969.
08:55:20  158 159	 1492764920	 190269284	 271008.
08:55:20  159 160	 1492764920	 461325116	 271056.
08:55:20  160 161	 1492764920	 683448380	 222123.
08:55:20  161 162	 1492764920	 954814213	 271366.
08:55:21  162 163	 1492764921	 226128295	 271314.
08:55:21  163 164	 1492764921	 501000205	 274872.
08:55:21  164 165	 1492764921	 772030964	 271031.
08:55:22  165 166	 1492764922	 42979719	 270948.
08:55:22  166 167	 1492764922	 317636984	 274658.
08:55:22  167 168	 1492764922	 539552458	 221915.
08:55:22  168 169	 1492764922	 810929600	 271377.
08:55:23  169 170	 1492764923	 86129687	 275200.
08:55:23  170 171	 1492764923	 308725690	 222596.
08:55:23  171 172	 1492764923	 580309686	 271584.
08:55:23  172 173	 1492764923	 856822147	 276513.
08:55:24  173 174	 1492764924	 128726678	 271904.
08:55:24  174 175	 1492764924	 404056447	 275330.
08:55:24  175 176	 1492764924	 675762306	 271706.
08:55:24  176 177	 1492764924	 898806141	 223044.
08:55:25  177 178	 1492764925	 174311079	 275505.
08:55:25  178 179	 1492764925	 446150965	 271840.
08:55:25  179 180	 1492764925	 721833099	 275682.
08:55:25  180 181	 1492764925	 993206968	 271374.
08:55:26  181 182	 1492764926	 215551960	 222345.
08:55:26  182 183	 1492764926	 491436643	 275884.
08:55:26  183 184	 1492764926	 762969246	 271533.
08:55:27  184 185	 1492764927	 38630507	 275661.
08:55:27  185 186	 1492764927	 260827971	 222198.
08:55:27  186 187	 1492764927	 532787181	 271959.
08:55:27  187 188	 1492764927	 808404227	 275617.
08:55:28  188 189	 1492764928	 80189106	 271785.
08:55:28  189 190	 1492764928	 356233892	 276045.
08:55:28  190 191	 1492764928	 628421916	 272188.
08:55:28  191 192	 1492764928	 850795989	 222374.
08:55:29  192 193	 1492764929	 122185579	 271389.
08:55:29  193 194	 1492764929	 398301967	 276117.
08:55:29  194 195	 1492764929	 674166457	 275864.
08:55:29  195 196	 1492764929	 946329686	 272163.
08:55:30  196 197	 1492764930	 218137205	 271808.
08:55:30  197 198	 1492764930	 441034671	 222897.
08:55:30  198 199	 1492764930	 716991381	 275957.
08:55:30  199 200	 1492764930	 989188314	 272197.
08:55:31  200 201	 1492764931	 265124626	 275936.
08:55:31  201 202	 1492764931	 536860622	 271736.
08:55:31  202 203	 1492764931	 813076005	 276216.
08:55:32  203 204	 1492764932	 89660829	 276585.
08:55:32  204 205	 1492764932	 361596806	 271936.
08:55:32  205 206	 1492764932	 584326043	 222729.
08:55:32  206 207	 1492764932	 860802383	 276476.
08:55:33  207 208	 1492764933	 132666972	 271865.
08:55:33  208 209	 1492764933	 408498612	 275831.
08:55:33  209 210	 1492764933	 680805452	 272307.
08:55:33  210 211	 1492764933	 952724715	 271919.
08:55:34  211 212	 1492764934	 228904621	 276180.
08:55:34  212 213	 1492764934	 500145538	 271241.
08:55:34  213 214	 1492764934	 776041978	 275897.
08:55:35  214 215	 1492764935	 47201851	 271160.
08:55:35  215 216	 1492764935	 269723007	 222521.
08:55:35  216 217	 1492764935	 545609382	 275886.
08:55:35  217 218	 1492764935	 817549307	 271940.
08:55:36  218 219	 1492764936	 93310417	 275761.
08:55:36  219 220	 1492764936	 364981384	 271671.
08:55:36  220 221	 1492764936	 640563221	 275582.
08:55:36  221 222	 1492764936	 863178013	 222615.
08:55:37  222 223	 1492764937	 134632838	 271455.
08:55:37  223 224	 1492764937	 410276709	 275643.
08:55:37  224 225	 1492764937	 681984534	 271708.
08:55:37  225 226	 1492764937	 904637221	 222653.
08:55:38  226 227	 1492764938	 179939027	 275302.
08:55:38  227 228	 1492764938	 451529402	 271590.
08:55:38  228 229	 1492764938	 727471773	 275942.
08:55:38  229 230	 1492764938	 998816768	 271345.
08:55:39  230 231	 1492764939	 274724846	 275909.
08:55:39  231 232	 1492764939	 497311323	 222586.
08:55:39  232 233	 1492764939	 769149559	 271838.
08:55:40  233 234	 1492764940	 44722038	 275573.
08:55:40  234 235	 1492764940	 316536072	 271814.
08:55:40  235 236	 1492764940	 538996159	 222460.
08:55:40  236 237	 1492764940	 815053899	 276058.
08:55:41  237 238	 1492764941	 86677406	 271623.
08:55:41  238 239	 1492764941	 362217625	 275540.
08:55:41  239 240	 1492764941	 637711668	 275494.
08:55:41  240 241	 1492764941	 909578490	 271867.
08:55:42  241 242	 1492764942	 132498900	 222921.
08:55:42  242 243	 1492764942	 403836399	 271337.
08:55:42  243 244	 1492764942	 679473472	 275637.
08:55:42  244 245	 1492764942	 951008348	 271535.
08:55:43  245 246	 1492764943	 173446245	 222438.
08:55:43  246 247	 1492764943	 448985590	 275539.
08:55:43  247 248	 1492764943	 725095772	 276110.
08:55:43  248 249	 1492764943	 996272097	 271177.
08:55:44  249 250	 1492764944	 267821560	 271549.
08:55:44  250 251	 1492764944	 542993295	 275172.
08:55:44  251 252	 1492764944	 814097566	 271104.
08:55:45  252 253	 1492764945	 35936745	 221839.
08:55:45  253 254	 1492764945	 306587648	 270651.
08:55:45  254 255	 1492764945	 577760081	 271173.
08:55:45  255 256	 1492764945	 849020226	 271260.
08:55:46  256 257	 1492764946	 124749787	 275730.
08:55:46  257 258	 1492764946	 396747002	 271997.
08:55:46  258 259	 1492764946	 673017884	 276271.
08:55:46  259 260	 1492764946	 945122485	 272104.
08:55:47  260 261	 1492764947	 216855540	 271733.
08:55:47  261 262	 1492764947	 439300890	 222446.
08:55:47  262 263	 1492764947	 714893761	 275592.
08:55:47  263 264	 1492764947	 986083788	 271190.
08:55:48  264 265	 1492764948	 256988288	 270905.
08:55:48  265 266	 1492764948	 528325868	 271338.
08:55:48  266 267	 1492764948	 803630934	 275305.
08:55:49  267 268	 1492764949	 74984062	 271353.
08:55:49  268 269	 1492764949	 346227655	 271243.
08:55:49  269 270	 1492764949	 617506012	 271279.
08:55:49  270 271	 1492764949	 892716867	 275211.
08:55:50  271 272	 1492764950	 163999455	 271282.
08:55:50  272 273	 1492764950	 386364721	 222365.
08:55:50  273 274	 1492764950	 657719543	 271355.
08:55:50  274 275	 1492764950	 929004227	 271285.
08:55:51  275 276	 1492764951	 204721243	 275717.
08:55:51  276 277	 1492764951	 475830861	 271110.
08:55:51  277 278	 1492764951	 747008781	 271177.
08:55:52  278 279	 1492764952	 18238837	 271231.
08:55:52  279 280	 1492764952	 289804190	 271565.
08:55:52  280 281	 1492764952	 565263896	 275460.
08:55:52  281 282	 1492764952	 836378335	 271114.
08:55:53  282 283	 1492764953	 107610572	 271232.
08:55:53  283 284	 1492764953	 379000166	 271390.
08:55:53  284 285	 1492764953	 650320644	 271320.
08:55:53  285 286	 1492764953	 872460461	 222140.
08:55:54  286 287	 1492764954	 143749835	 271290.
08:55:54  287 288	 1492764954	 419144386	 275394.
08:55:54  288 289	 1492764954	 690257739	 271113.
08:55:54  289 290	 1492764954	 961305482	 271048.
08:55:55  290 291	 1492764955	 237031766	 275726.
08:55:55  291 292	 1492764955	 508722137	 271691.
08:55:55  292 293	 1492764955	 784921051	 276199.
08:55:56  293 294	 1492764956	 7725363	 222804.
08:55:56  294 295	 1492764956	 279685910	 271961.
08:55:56  295 296	 1492764956	 555107581	 275421.
08:55:56  296 297	 1492764956	 826524740	 271417.
08:55:57  297 298	 1492764957	 101806383	 275282.
08:55:57  298 299	 1492764957	 373024472	 271218.
08:55:57  299 300	 1492764957	 595091448	 222067.
08:55:57  300 301	 1492764957	 865945862	 270855.
08:55:58  301 302	 1492764958	 137148034	 271202.
08:55:58  302 303	 1492764958	 411811094	 274663.
08:55:58  303 304	 1492764958	 682989098	 271178.
08:55:58  304 305	 1492764958	 954041379	 271052.
08:55:59  305 306	 1492764959	 229014832	 274973.
08:55:59  306 307	 1492764959	 500131003	 271117.
08:55:59  307 308	 1492764959	 771087157	 270956.
08:55:59  308 309	 1492764959	 994368213	 223281.
08:56:00  309 310	 1492764960	 270859818	 276492.
08:56:00  310 311	 1492764960	 542337406	 271477.
08:56:00  311 312	 1492764960	 813416943	 271080.
08:56:01  312 313	 1492764961	 84759192	 271342.
08:56:01  313 314	 1492764961	 360109507	 275350.
08:56:01  314 315	 1492764961	 631119444	 271010.
08:56:01  315 316	 1492764961	 906097151	 274978.
08:56:02  316 317	 1492764962	 176973851	 270877.
08:56:02  317 318	 1492764962	 451825559	 274851.
08:56:02  318 319	 1492764962	 674030507	 222205.
08:56:02  319 320	 1492764962	 944998987	 270969.
08:56:03  320 321	 1492764963	 216055847	 271056.
08:56:03  321 322	 1492764963	 491245549	 275190.
08:56:03  322 323	 1492764963	 762340109	 271095.
08:56:04  323 324	 1492764964	 33459213	 271119.
08:56:04  324 325	 1492764964	 308530941	 275072.
08:56:04  325 326	 1492764964	 530753761	 222222.
08:56:04  326 327	 1492764964	 802291248	 271538.
08:56:05  327 328	 1492764965	 73313459	 271022.
08:56:05  328 329	 1492764965	 348604406	 275291.
08:56:05  329 330	 1492764965	 619927906	 271324.
08:56:05  330 331	 1492764965	 891125204	 271197.
08:56:06  331 332	 1492764966	 162171284	 271046.
08:56:06  332 333	 1492764966	 433240962	 271070.
08:56:06  333 334	 1492764966	 708442564	 275201.
08:56:06  334 335	 1492764966	 979522980	 271081.
08:56:07  335 336	 1492764967	 202113626	 222590.
08:56:07  336 337	 1492764967	 473875376	 271762.
08:56:07  337 338	 1492764967	 745369131	 271494.
08:56:08  338 339	 1492764968	 20564936	 275196.
08:56:08  339 340	 1492764968	 291608514	 271043.
08:56:08  340 341	 1492764968	 562133556	 270525.
08:56:08  341 342	 1492764968	 783811394	 221678.
08:56:09  342 343	 1492764969	 54966835	 271156.
08:56:09  343 344	 1492764969	 330128842	 275162.
08:56:09  344 345	 1492764969	 601691966	 271563.
08:56:09  345 346	 1492764969	 877715852	 276024.
08:56:10  346 347	 1492764970	 149559383	 271843.
08:56:10  347 348	 1492764970	 421542231	 271983.
08:56:10  348 349	 1492764970	 697697451	 276155.
08:56:10  349 350	 1492764970	 969532560	 271835.
08:56:11  350 351	 1492764971	 245220533	 275688.
08:56:11  351 352	 1492764971	 467731252	 222511.
08:56:11  352 353	 1492764971	 739103838	 271373.
08:56:12  353 354	 1492764972	 14096558	 274992.
08:56:12  354 355	 1492764972	 285017683	 270921.
08:56:12  355 356	 1492764972	 556107081	 271090.
08:56:12  356 357	 1492764972	 827861637	 271754.
08:56:13  357 358	 1492764973	 103160496	 275299.
08:56:13  358 359	 1492764973	 374156660	 270996.
08:56:13  359 360	 1492764973	 600747521	 226591.
08:56:13  360 361	 1492764973	 872155153	 271408.
08:56:14  361 362	 1492764974	 147950825	 275796.
08:56:14  362 363	 1492764974	 419720621	 271769.
08:56:14  363 364	 1492764974	 695274194	 275554.
08:56:14  364 365	 1492764974	 967292496	 272018.
08:56:15  365 366	 1492764975	 243764339	 276472.
08:56:15  366 367	 1492764975	 466520084	 222756.
08:56:15  367 368	 1492764975	 738457579	 271937.
08:56:16  368 369	 1492764976	 9730819	 271274.
08:56:16  369 370	 1492764976	 285453019	 275722.
08:56:16  370 371	 1492764976	 557395907	 271943.
08:56:16  371 372	 1492764976	 833260308	 275864.
08:56:17  372 373	 1492764977	 104245018	 270985.
08:56:17  373 374	 1492764977	 375459009	 271214.
08:56:17  374 375	 1492764977	 597629725	 222170.
08:56:17  375 376	 1492764977	 868745713	 271116.
08:56:18  376 377	 1492764978	 144102945	 275358.
08:56:18  377 378	 1492764978	 415961004	 271858.
08:56:18  378 379	 1492764978	 691508210	 275547.
08:56:18  379 380	 1492764978	 963193992	 271686.
08:56:19  380 381	 1492764979	 238170910	 274977.
08:56:19  381 382	 1492764979	 460442331	 222271.
08:56:19  382 383	 1492764979	 732137158	 271695.
08:56:20  383 384	 1492764980	 7720596	 275583.
08:56:20  384 385	 1492764980	 279263780	 271543.
08:56:20  385 386	 1492764980	 550285858	 271023.
08:56:20  386 387	 1492764980	 772250394	 221964.
08:56:21  387 388	 1492764981	 47385326	 275135.
08:56:21  388 389	 1492764981	 319049116	 271664.
08:56:21  389 390	 1492764981	 590942660	 271893.
08:56:21  390 391	 1492764981	 862507276	 271565.
08:56:22  391 392	 1492764982	 138065206	 275558.
08:56:22  392 393	 1492764982	 410081234	 272016.
08:56:22  393 394	 1492764982	 686174873	 276094.
08:56:22  394 395	 1492764982	 958467191	 272292.
08:56:23  395 396	 1492764983	 234796579	 276329.
08:56:23  396 397	 1492764983	 506960704	 272164.
08:56:23  397 398	 1492764983	 783351225	 276391.
08:56:24  398 399	 1492764984	 55500326	 272149.
08:56:24  399 400	 1492764984	 277888303	 222388.
08:56:24  400 401	 1492764984	 549017696	 271129.
08:56:24  401 402	 1492764984	 824111205	 275094.
08:56:25  402 403	 1492764985	 95279834	 271169.
08:56:25  403 404	 1492764985	 370560277	 275280.
08:56:25  404 405	 1492764985	 641880428	 271320.
08:56:25  405 406	 1492764985	 913400638	 271520.
08:56:26  406 407	 1492764986	 136169591	 222769.
08:56:26  407 408	 1492764986	 411658814	 275490.
08:56:26  408 409	 1492764986	 683729080	 272070.
08:56:26  409 410	 1492764986	 959201558	 275472.
08:56:27  410 411	 1492764987	 235052478	 275851.
08:56:27  411 412	 1492764987	 457534425	 222482.
08:56:27  412 413	 1492764987	 728809841	 271276.
08:56:27  413 414	 1492764988	 4364945	 275555.
08:56:28  414 415	 1492764988	 275849135	 271484.
08:56:28  415 416	 1492764988	 498325580	 222476.
08:56:28  416 417	 1492764988	 774043477	 275718.
08:56:29  417 418	 1492764989	 46010917	 271968.
08:56:29  418 419	 1492764989	 322197327	 276186.
08:56:29  419 420	 1492764989	 594071357	 271874.
08:56:29  420 421	 1492764989	 869934898	 275864.
08:56:30  421 422	 1492764990	 92340340	 222405.
08:56:30  422 423	 1492764990	 364127328	 271787.
08:56:30  423 424	 1492764990	 640134977	 276008.
08:56:30  424 425	 1492764990	 915451510	 275316.
08:56:31  425 426	 1492764991	 191524644	 276073.
08:56:31  426 427	 1492764991	 414041706	 222517.
08:56:31  427 428	 1492764991	 686276090	 272235.
08:56:31  428 429	 1492764991	 962213646	 275937.
08:56:32  429 430	 1492764992	 234153664	 271940.
08:56:32  430 431	 1492764992	 510234953	 276082.
08:56:32  431 432	 1492764992	 786353794	 276118.
08:56:33  432 433	 1492764993	 58259023	 271906.
08:56:33  433 434	 1492764993	 280819720	 222560.
08:56:33  434 435	 1492764993	 556884179	 276065.
08:56:33  435 436	 1492764993	 828977145	 272093.
08:56:34  436 437	 1492764994	 104301570	 275324.
08:56:34  437 438	 1492764994	 375234560	 270933.
08:56:34  438 439	 1492764994	 646850046	 271616.
08:56:34  439 440	 1492764994	 869586242	 222736.
08:56:35  440 441	 1492764995	 145412765	 275826.
08:56:35  441 442	 1492764995	 421310992	 275899.
08:56:35  442 443	 1492764995	 693455509	 272144.
08:56:35  443 444	 1492764995	 970042835	 276588.
08:56:36  444 445	 1492764996	 241947683	 271904.
08:56:36  445 446	 1492764996	 517853295	 275906.
08:56:36  446 447	 1492764996	 789809096	 271956.
08:56:37  447 448	 1492764997	 16854311	 227045.
08:56:37  448 449	 1492764997	 288905592	 272051.
08:56:37  449 450	 1492764997	 564500553	 275595.
08:56:37  450 451	 1492764997	 836358841	 271859.
08:56:38  451 452	 1492764998	 111809135	 275450.
08:56:38  452 453	 1492764998	 383130352	 271321.
08:56:38  453 454	 1492764998	 605785779	 222655.
08:56:38  454 455	 1492764998	 881370719	 275585.
08:56:39  455 456	 1492764999	 152943675	 271573.
08:56:39  456 457	 1492764999	 425030200	 272087.
08:56:39  457 458	 1492764999	 700893136	 275863.
08:56:39  458 459	 1492764999	 972618199	 271725.
08:56:40  459 460	 1492765000	 248127262	 275509.
08:56:40  460 461	 1492765000	 519770189	 271643.
08:56:40  461 462	 1492765000	 795358677	 275588.
08:56:41  462 463	 1492765001	 18149406	 222791.
08:56:41  463 464	 1492765001	 290049458	 271900.
08:56:41  464 465	 1492765001	 566100248	 276051.
08:56:41  465 466	 1492765001	 838029016	 271929.
08:56:42  466 467	 1492765002	 113839142	 275810.
08:56:42  467 468	 1492765002	 384859526	 271020.
08:56:42  468 469	 1492765002	 655899290	 271040.
08:56:42  469 470	 1492765002	 931963623	 276064.
08:56:43  470 471	 1492765003	 203729690	 271766.
08:56:43  471 472	 1492765003	 475487174	 271758.
08:56:43  472 473	 1492765003	 698243328	 222756.
08:56:43  473 474	 1492765003	 974086816	 275844.
08:56:44  474 475	 1492765004	 246248603	 272161.
08:56:44  475 476	 1492765004	 518056914	 271809.
08:56:44  476 477	 1492765004	 793697741	 275640.
08:56:45  477 478	 1492765005	 65534541	 271837.
08:56:45  478 479	 1492765005	 337490288	 271956.
08:56:45  479 480	 1492765005	 613174718	 275684.
08:56:45  480 481	 1492765005	 884957292	 271783.
08:56:46  481 482	 1492765006	 160965529	 276008.
08:56:46  482 483	 1492765006	 432390081	 271425.
08:56:46  483 484	 1492765006	 654779208	 222389.
08:56:46  484 485	 1492765006	 930462946	 275684.
08:56:47  485 486	 1492765007	 201499588	 271036.
08:56:47  486 487	 1492765007	 476898336	 275399.
08:56:47  487 488	 1492765007	 748224978	 271327.
08:56:48  488 489	 1492765008	 23666071	 275441.
08:56:48  489 490	 1492765008	 246103127	 222437.
08:56:48  490 491	 1492765008	 517524280	 271421.
08:56:48  491 492	 1492765008	 793096365	 275572.
08:56:49  492 493	 1492765009	 64569349	 271473.
08:56:49  493 494	 1492765009	 339971213	 275402.
08:56:49  494 495	 1492765009	 562442127	 222471.
08:56:49  495 496	 1492765009	 833821183	 271379.
08:56:50  496 497	 1492765010	 105114840	 271294.
08:56:50  497 498	 1492765010	 380424787	 275309.
08:56:50  498 499	 1492765010	 655924036	 275500.
08:56:50  499 500	 1492765010	 927394241	 271470.
08:56:51  500 501	 1492765011	 150071260	 222677.
08:56:51  501 502	 1492765011	 421651834	 271581.
08:56:51  502 503	 1492765011	 692786127	 271134.
08:56:51  503 504	 1492765011	 967579520	 274793.
08:56:52  504 505	 1492765012	 238353030	 270774.
08:56:52  505 506	 1492765012	 513843249	 275490.
08:56:52  506 507	 1492765012	 736238149	 222395.
08:56:53  507 508	 1492765013	 7303117	 271065.
08:56:53  508 509	 1492765013	 282239004	 274936.
08:56:53  509 510	 1492765013	 500409748	 218170.
08:56:53  510 511	 1492765013	 775450390	 275041.
08:56:54  511 512	 1492765014	 47161334	 271711.
08:56:54  512 513	 1492765014	 322554413	 275393.
08:56:54  513 514	 1492765014	 544876993	 222323.
08:56:54  514 515	 1492765014	 815896474	 271019.
08:56:55  515 516	 1492765015	 90973898	 275078.
08:56:55  516 517	 1492765015	 361641853	 270668.
08:56:55  517 518	 1492765015	 583662232	 222020.
08:56:55  518 519	 1492765015	 858575876	 274914.
08:56:56  519 520	 1492765016	 129591892	 271016.
08:56:56  520 521	 1492765016	 404545004	 274953.
08:56:56  521 522	 1492765016	 675291505	 270746.
08:56:56  522 523	 1492765016	 896909370	 221618.
08:56:57  523 524	 1492765017	 172242452	 275333.
08:56:57  524 525	 1492765017	 443237174	 270995.
08:56:57  525 526	 1492765017	 718184241	 274947.
08:56:57  526 527	 1492765017	 988571833	 270388.
08:56:58  527 528	 1492765018	 210352762	 221780.
08:56:58  528 529	 1492765018	 485370454	 275018.
08:56:58  529 530	 1492765018	 760083070	 274713.
08:56:59  530 531	 1492765019	 30596703	 270513.
08:56:59  531 532	 1492765019	 252757477	 222161.
08:56:59  532 533	 1492765019	 527135756	 274378.
08:56:59  533 534	 1492765019	 797788947	 270654.
08:57:00  534 535	 1492765020	 68967045	 271178.
08:57:00  535 536	 1492765020	 290938575	 221971.
08:57:00  536 537	 1492765020	 566217312	 275279.
08:57:00  537 538	 1492765020	 837254799	 271037.
08:57:01  538 539	 1492765021	 108054259	 270800.
08:57:01  539 540	 1492765021	 383078923	 275025.
08:57:01  540 541	 1492765021	 654099454	 271020.
08:57:01  541 542	 1492765021	 929304064	 275205.
08:57:02  542 543	 1492765022	 151617398	 222313.
08:57:02  543 544	 1492765022	 422475157	 270858.
08:57:02  544 545	 1492765022	 693456217	 270981.
08:57:02  545 546	 1492765022	 964437784	 270981.
08:57:03  546 547	 1492765023	 239846806	 275409.
08:57:03  547 548	 1492765023	 506993967	 267148.
08:57:03  548 549	 1492765023	 782029270	 275035.
08:57:04  549 550	 1492765024	 53001250	 270972.
08:57:04  550 551	 1492765024	 275053221	 222052.
08:57:04  551 552	 1492765024	 545670602	 270617.
08:57:04  552 553	 1492765024	 820446264	 274776.
08:57:05  553 554	 1492765025	 91331571	 270885.
08:57:05  554 555	 1492765025	 362212548	 270881.
08:57:05  555 556	 1492765025	 633401526	 271189.
08:57:05  556 557	 1492765025	 855621410	 222220.
08:57:06  557 558	 1492765026	 127337321	 271716.
08:57:06  558 559	 1492765026	 402953726	 275616.
08:57:06  559 560	 1492765026	 674475913	 271523.
08:57:06  560 561	 1492765026	 945459278	 270983.
08:57:07  561 562	 1492765027	 220683228	 275224.
08:57:07  562 563	 1492765027	 491712007	 271029.
08:57:07  563 564	 1492765027	 762455132	 270743.
08:57:08  564 565	 1492765028	 37481520	 275026.
08:57:08  565 566	 1492765028	 255643326	 218162.
08:57:08  566 567	 1492765028	 526901470	 271258.
08:57:08  567 568	 1492765028	 802361358	 275460.
08:57:09  568 569	 1492765029	 73989085	 271628.
08:57:09  569 570	 1492765029	 349752664	 275763.
08:57:09  570 571	 1492765029	 621310058	 271558.
08:57:09  571 572	 1492765029	 892440474	 271130.
08:57:10  572 573	 1492765030	 167683558	 275243.
08:57:10  573 574	 1492765030	 438880145	 271197.
08:57:10  574 575	 1492765030	 709935651	 271055.
08:57:10  575 576	 1492765030	 985499917	 275565.
08:57:11  576 577	 1492765031	 256583213	 271083.
08:57:11  577 578	 1492765031	 479020366	 222437.
08:57:11  578 579	 1492765031	 750178834	 271159.
08:57:12  579 580	 1492765032	 21511986	 271333.
08:57:12  580 581	 1492765032	 296832688	 275320.
08:57:12  581 582	 1492765032	 567693964	 270862.
08:57:12  582 583	 1492765032	 839049345	 271355.
08:57:13  583 584	 1492765033	 114644609	 275595.
08:57:13  584 585	 1492765033	 386021867	 271378.
08:57:13  585 586	 1492765033	 657395503	 271373.
08:57:13  586 587	 1492765033	 928562761	 271167.
08:57:14  587 588	 1492765034	 151013120	 222451.
08:57:14  588 589	 1492765034	 426205861	 275193.
08:57:14  589 590	 1492765034	 697340463	 271134.
08:57:14  590 591	 1492765034	 968465129	 271125.
08:57:15  591 592	 1492765035	 243685360	 275220.
08:57:15  592 593	 1492765035	 515242537	 271557.
08:57:15  593 594	 1492765035	 786338729	 271096.
08:57:16  594 595	 1492765036	 61332519	 274994.
08:57:16  595 596	 1492765036	 283686715	 222354.
08:57:16  596 597	 1492765036	 554538128	 270852.
08:57:16  597 598	 1492765036	 825736838	 271199.
08:57:17  598 599	 1492765037	 100959747	 275222.
08:57:17  599 600	 1492765037	 372328133	 271369.
08:57:17  600 601	 1492765037	 644042308	 271714.
08:57:17  601 602	 1492765037	 919301093	 275259.
08:57:18  602 603	 1492765038	 141116124	 221815.
08:57:18  603 604	 1492765038	 412013566	 270897.
08:57:18  604 605	 1492765038	 682907270	 270894.
08:57:18  605 606	 1492765038	 953673381	 270766.
08:57:19  606 607	 1492765039	 228780527	 275107.
08:57:19  607 608	 1492765039	 499933307	 271153.
08:57:19  608 609	 1492765039	 771116148	 271183.
08:57:19  609 610	 1492765039	 993310404	 222194.
08:57:20  610 611	 1492765040	 264486820	 271177.
08:57:20  611 612	 1492765040	 539731595	 275244.
08:57:20  612 613	 1492765040	 811138792	 271407.
08:57:21  613 614	 1492765041	 82227303	 271089.
08:57:21  614 615	 1492765041	 357501734	 275274.
08:57:21  615 616	 1492765041	 628880296	 271379.
08:57:21  616 617	 1492765041	 900031444	 271151.
08:57:22  617 618	 1492765042	 122396009	 222365.
08:57:22  618 619	 1492765042	 397613867	 275218.
08:57:22  619 620	 1492765042	 668769288	 271155.
08:57:22  620 621	 1492765042	 940195912	 271427.
08:57:23  621 622	 1492765043	 211536708	 271340.
08:57:23  622 623	 1492765043	 486323095	 274787.
08:57:23  623 624	 1492765043	 757717870	 271395.
08:57:24  624 625	 1492765044	 33775457	 276057.
08:57:24  625 626	 1492765044	 252552589	 218777.
08:57:24  626 627	 1492765044	 528633022	 276081.
08:57:24  627 628	 1492765044	 800794295	 272161.
08:57:25  628 629	 1492765045	 77093035	 276299.
08:57:25  629 630	 1492765045	 347792282	 270699.
08:57:25  630 631	 1492765045	 619604056	 271812.
08:57:25  631 632	 1492765045	 895079844	 275476.
08:57:26  632 633	 1492765046	 166968857	 271889.
08:57:26  633 634	 1492765046	 389595339	 222626.
08:57:26  634 635	 1492765046	 665200530	 275605.
08:57:26  635 636	 1492765046	 941455260	 276255.
08:57:27  636 637	 1492765047	 213280092	 271825.
08:57:27  637 638	 1492765047	 485254894	 271975.
08:57:27  638 639	 1492765047	 761559836	 276305.
08:57:28  639 640	 1492765048	 33454403	 271894.
08:57:28  640 641	 1492765048	 304891999	 271438.
08:57:28  641 642	 1492765048	 527943099	 223051.
08:57:28  642 643	 1492765048	 803624368	 275681.
08:57:29  643 644	 1492765049	 74753491	 271129.
08:57:29  644 645	 1492765049	 351301061	 276548.
08:57:29  645 646	 1492765049	 622923632	 271622.
08:57:29  646 647	 1492765049	 894968800	 272045.
08:57:30  647 648	 1492765050	 170748882	 275781.
08:57:30  648 649	 1492765050	 442189595	 271440.
08:57:30  649 650	 1492765050	 665094401	 222905.
08:57:30  650 651	 1492765050	 941137937	 276044.
08:57:31  651 652	 1492765051	 212326856	 271189.
08:57:31  652 653	 1492765051	 487288533	 274961.
08:57:31  653 654	 1492765051	 758540884	 271253.
08:57:31  654 655	 1492765051	 980877364	 222336.
08:57:32  655 656	 1492765052	 256796273	 275919.
08:57:32  656 657	 1492765052	 528587831	 271791.
08:57:32  657 658	 1492765052	 800669095	 272082.
08:57:33  658 659	 1492765053	 76544793	 275875.
08:57:33  659 660	 1492765053	 348060322	 271516.
08:57:33  660 661	 1492765053	 570554053	 222494.
08:57:33  661 662	 1492765053	 846446797	 275892.
08:57:34  662 663	 1492765054	 118332990	 271887.
08:57:34  663 664	 1492765054	 390483440	 272150.
08:57:34  664 665	 1492765054	 666617487	 276134.
08:57:34  665 666	 1492765054	 937832344	 271215.
08:57:35  666 667	 1492765055	 212958610	 275126.
08:57:35  667 668	 1492765055	 435322235	 222364.
08:57:35  668 669	 1492765055	 706723939	 271402.
08:57:35  669 670	 1492765055	 982166022	 275442.
08:57:36  670 671	 1492765056	 253405707	 271239.
08:57:36  671 672	 1492765056	 528905210	 275500.
08:57:36  672 673	 1492765056	 751230154	 222325.
08:57:37  673 674	 1492765057	 22414584	 271184.
08:57:37  674 675	 1492765057	 297697723	 275283.
08:57:37  675 676	 1492765057	 573446520	 275749.
08:57:37  676 677	 1492765057	 845124126	 271678.
08:57:38  677 678	 1492765058	 122953385	 277829.
08:57:38  678 679	 1492765058	 353397457	 230444.
08:57:38  679 680	 1492765058	 628746635	 275349.
08:57:38  680 681	 1492765058	 904115179	 275369.
08:57:39  681 682	 1492765059	 175425274	 271310.
08:57:39  682 683	 1492765059	 397773868	 222349.
08:57:39  683 684	 1492765059	 669268375	 271494.
08:57:39  684 685	 1492765059	 944494742	 275226.
08:57:40  685 686	 1492765060	 219420781	 274926.
08:57:40  686 687	 1492765060	 490640999	 271221.
08:57:40  687 688	 1492765060	 712689529	 222048.
08:57:40  688 689	 1492765060	 983759631	 271070.
08:57:41  689 690	 1492765061	 259303262	 275544.
08:57:41  690 691	 1492765061	 530413626	 271110.
08:57:41  691 692	 1492765061	 801174262	 270761.
08:57:42  692 693	 1492765062	 27597875	 226424.
08:57:42  693 694	 1492765062	 298585223	 270987.
08:57:42  694 695	 1492765062	 573842571	 275257.
08:57:42  695 696	 1492765062	 844805373	 270963.
08:57:43  696 697	 1492765063	 119784386	 274979.
08:57:43  697 698	 1492765063	 337898865	 218115.
08:57:43  698 699	 1492765063	 613404903	 275506.
08:57:43  699 700	 1492765063	 884603654	 271198.
08:57:44  700 701	 1492765064	 159702709	 275099.
08:57:44  701 702	 1492765064	 381742896	 222041.
08:57:44  702 703	 1492765064	 657082318	 275339.
08:57:44  703 704	 1492765064	 928138951	 271057.
08:57:45  704 705	 1492765065	 203214095	 275075.
08:57:45  705 706	 1492765065	 474297752	 271083.
08:57:45  706 707	 1492765065	 696474186	 222177.
08:57:45  707 708	 1492765065	 967597850	 271124.
08:57:46  708 709	 1492765066	 242821666	 275224.
08:57:46  709 710	 1492765066	 517838370	 275016.
08:57:46  710 711	 1492765066	 740189590	 222351.
08:57:47  711 712	 1492765067	 11225117	 271036.
08:57:47  712 713	 1492765067	 286229104	 275004.
08:57:47  713 714	 1492765067	 557317710	 271088.
08:57:47  714 715	 1492765067	 783413889	 226097.
08:57:48  715 716	 1492765068	 54580237	 271166.
08:57:48  716 717	 1492765068	 329505002	 274925.
08:57:48  717 718	 1492765068	 600483615	 270978.
08:57:48  718 719	 1492765068	 822598594	 222115.
08:57:49  719 720	 1492765069	 97681553	 275083.
08:57:49  720 721	 1492765069	 372895209	 275214.
08:57:49  721 722	 1492765069	 644011814	 271117.
08:57:49  722 723	 1492765069	 866364335	 222352.
08:57:50  723 724	 1492765070	 141558378	 275194.
08:57:50  724 725	 1492765070	 412574639	 271016.
08:57:50  725 726	 1492765070	 683839848	 271266.
08:57:50  726 727	 1492765070	 959042458	 275202.
08:57:51  727 728	 1492765071	 181453684	 222411.
08:57:51  728 729	 1492765071	 452744460	 271291.
08:57:51  729 730	 1492765071	 727519438	 274775.
08:57:51  730 731	 1492765071	 998908575	 271389.
08:57:52  731 732	 1492765072	 225232618	 226324.
08:57:52  732 733	 1492765072	 496677093	 271445.
08:57:52  733 734	 1492765072	 772003716	 275326.
08:57:53  734 735	 1492765073	 47173773	 275170.
08:57:53  735 736	 1492765073	 269587842	 222415.
08:57:53  736 737	 1492765073	 541362703	 271774.
08:57:53  737 738	 1492765073	 817433701	 276073.
08:57:54  738 739	 1492765074	 88717989	 271283.
08:57:54  739 740	 1492765074	 364811133	 276093.
08:57:54  740 741	 1492765074	 636654117	 271843.
08:57:54  741 742	 1492765074	 863561225	 226907.
08:57:55  742 743	 1492765075	 134798707	 271237.
08:57:55  743 744	 1492765075	 410165050	 275367.
08:57:55  744 745	 1492765075	 681190064	 271025.
08:57:55  745 746	 1492765075	 956633939	 275444.
08:57:56  746 747	 1492765076	 178742404	 222108.
08:57:56  747 748	 1492765076	 454250079	 275508.
08:57:56  748 749	 1492765076	 725424843	 271175.
08:57:56  749 750	 1492765077	 955643	 275530.
08:57:57  750 751	 1492765077	 223117502	 222162.
08:57:57  751 752	 1492765077	 494250023	 271133.
08:57:57  752 753	 1492765077	 769649347	 275399.
08:57:58  753 754	 1492765078	 45416131	 275767.
08:57:58  754 755	 1492765078	 267733275	 222317.
08:57:58  755 756	 1492765078	 539492879	 271760.
08:57:58  756 757	 1492765078	 811224654	 271731.
08:57:59  757 758	 1492765079	 86745223	 275521.
08:57:59  758 759	 1492765079	 363040466	 276295.
08:57:59  759 760	 1492765079	 634784297	 271744.
08:57:59  760 761	 1492765079	 857297331	 222513.
08:58:00  761 762	 1492765080	 133224868	 275928.
08:58:00  762 763	 1492765080	 404909822	 271685.
08:58:00  763 764	 1492765080	 680049825	 275140.
08:58:00  764 765	 1492765080	 950910878	 270861.
08:58:01  765 766	 1492765081	 222279775	 271368.
08:58:01  766 767	 1492765081	 497343896	 275065.
08:58:01  767 768	 1492765081	 719445668	 222101.
08:58:01  768 769	 1492765081	 990534580	 271089.
08:58:02  769 770	 1492765082	 261756432	 271222.
08:58:02  770 771	 1492765082	 536756471	 275000.
08:58:02  771 772	 1492765082	 807622286	 270866.
08:58:03  772 773	 1492765083	 78859584	 271237.
08:58:03  773 774	 1492765083	 353761505	 274902.
08:58:03  774 775	 1492765083	 575789599	 222028.
08:58:03  775 776	 1492765083	 850554663	 274765.
08:58:04  776 777	 1492765084	 121485308	 270931.
08:58:04  777 778	 1492765084	 396456261	 274971.
08:58:04  778 779	 1492765084	 618660618	 222204.
08:58:04  779 780	 1492765084	 893269379	 274609.
08:58:05  780 781	 1492765085	 164429082	 271160.
08:58:05  781 782	 1492765085	 435977010	 271548.
08:58:05  782 783	 1492765085	 707078141	 271101.
08:58:05  783 784	 1492765085	 982445474	 275367.
08:58:06  784 785	 1492765086	 253568870	 271124.
08:58:06  785 786	 1492765086	 475525896	 221957.
08:58:06  786 787	 1492765086	 746706638	 271180.
08:58:07  787 788	 1492765087	 17661402	 270955.
08:58:07  788 789	 1492765087	 292820104	 275159.
08:58:07  789 790	 1492765087	 564094410	 271274.
08:58:07  790 791	 1492765087	 835682385	 271588.
08:58:08  791 792	 1492765088	 111675572	 275993.
08:58:08  792 793	 1492765088	 383479229	 271804.
08:58:08  793 794	 1492765088	 659027851	 275549.
08:58:08  794 795	 1492765088	 877653438	 218625.
08:58:09  795 796	 1492765089	 152660629	 275007.
08:58:09  796 797	 1492765089	 423460654	 270800.
08:58:09  797 798	 1492765089	 698459810	 274999.
08:58:09  798 799	 1492765089	 969159293	 270700.
08:58:10  799 800	 1492765090	 240885572	 271726.
08:58:10  800 801	 1492765090	 463228654	 222343.
08:58:10  801 802	 1492765090	 734206679	 270978.
08:58:11  802 803	 1492765091	 10074906	 275869.
08:58:11  803 804	 1492765091	 281855665	 271780.
08:58:11  804 805	 1492765091	 557285300	 275430.
08:58:11  805 806	 1492765091	 829233944	 271949.
08:58:12  806 807	 1492765092	 52187186	 222953.
08:58:12  807 808	 1492765092	 327942542	 275755.
08:58:12  808 809	 1492765092	 599472972	 271531.
08:58:12  809 810	 1492765092	 875199231	 275726.
08:58:13  810 811	 1492765093	 146957727	 271758.
08:58:13  811 812	 1492765093	 422621037	 275664.
08:58:13  812 813	 1492765093	 645316785	 222695.
08:58:13  813 814	 1492765093	 916808301	 271492.
08:58:14  814 815	 1492765094	 192391488	 275583.
08:58:14  815 816	 1492765094	 464040138	 271649.
08:58:14  816 817	 1492765094	 736149962	 272110.
08:58:15  817 818	 1492765095	 12256456	 276106.
08:58:15  818 819	 1492765095	 235105579	 222849.
08:58:15  819 820	 1492765095	 506803102	 271698.
08:58:15  820 821	 1492765095	 782575864	 275773.
08:58:16  821 822	 1492765096	 54398671	 271822.
08:58:16  822 823	 1492765096	 330322847	 275925.
08:58:16  823 824	 1492765096	 601914933	 271592.
08:58:16  824 825	 1492765096	 872819829	 270905.
08:58:17  825 826	 1492765097	 147674229	 274854.
08:58:17  826 827	 1492765097	 365856372	 218182.
08:58:17  827 828	 1492765097	 640985736	 275129.
08:58:17  828 829	 1492765097	 912257090	 271272.
08:58:18  829 830	 1492765098	 187254932	 274998.
08:58:18  830 831	 1492765098	 457817614	 270562.
08:58:18  831 832	 1492765098	 728248847	 270432.
08:58:18  832 833	 1492765098	 950555109	 222306.
08:58:19  833 834	 1492765099	 221361322	 270806.
08:58:19  834 835	 1492765099	 492789042	 271428.
08:58:19  835 836	 1492765099	 768014285	 275225.
08:58:20  836 837	 1492765100	 39092314	 271078.
08:58:20  837 838	 1492765100	 310630191	 271538.
08:58:20  838 839	 1492765100	 582134542	 271504.
08:58:20  839 840	 1492765100	 857649619	 275515.
08:58:21  840 841	 1492765101	 129394444	 271745.
08:58:21  841 842	 1492765101	 400787637	 271393.
08:58:21  842 843	 1492765101	 676145348	 275358.
08:58:21  843 844	 1492765101	 947473690	 271328.
08:58:22  844 845	 1492765102	 218506234	 271033.
08:58:22  845 846	 1492765102	 489792790	 271286.
08:58:22  846 847	 1492765102	 765693324	 275901.
08:58:23  847 848	 1492765103	 36799988	 271107.
08:58:23  848 849	 1492765103	 259386141	 222586.
08:58:23  849 850	 1492765103	 531326105	 271940.
08:58:23  850 851	 1492765103	 807098661	 275772.
08:58:24  851 852	 1492765104	 79383211	 272285.
08:58:24  852 853	 1492765104	 351111591	 271728.
08:58:24  853 854	 1492765104	 622363739	 271252.
08:58:24  854 855	 1492765104	 893348874	 270986.
08:58:25  855 856	 1492765105	 168362912	 275014.
08:58:25  856 857	 1492765105	 439447489	 271084.
08:58:25  857 858	 1492765105	 710495918	 271049.
08:58:25  858 859	 1492765105	 981387140	 270891.
08:58:26  859 860	 1492765106	 203653229	 222266.
08:58:26  860 861	 1492765106	 474923092	 271270.
08:58:26  861 862	 1492765106	 746417592	 271494.
08:58:27  862 863	 1492765107	 22654464	 276237.
08:58:27  863 864	 1492765107	 294378244	 271724.
08:58:27  864 865	 1492765107	 569957668	 275579.
08:58:27  865 866	 1492765107	 841561184	 271604.
08:58:28  866 867	 1492765108	 112962145	 271401.
08:58:28  867 868	 1492765108	 388467897	 275506.
08:58:28  868 869	 1492765108	 660065399	 271597.
08:58:28  869 870	 1492765108	 882519907	 222455.
08:58:29  870 871	 1492765109	 153835799	 271316.
08:58:29  871 872	 1492765109	 429311522	 275475.
08:58:29  872 873	 1492765109	 701004429	 271693.
08:58:29  873 874	 1492765109	 972861622	 271857.
08:58:30  874 875	 1492765110	 248430063	 275569.
08:58:30  875 876	 1492765110	 520164159	 271734.
08:58:30  876 877	 1492765110	 792226622	 272063.
08:58:31  877 878	 1492765111	 68243106	 276016.
08:58:31  878 879	 1492765111	 339854788	 271611.
08:58:31  879 880	 1492765111	 615302856	 275449.
08:58:31  880 881	 1492765111	 834151910	 218849.
08:58:32  881 882	 1492765112	 109892659	 275740.
08:58:32  882 883	 1492765112	 381898992	 272007.
08:58:32  883 884	 1492765112	 657840631	 275941.
08:58:32  884 885	 1492765112	 929828462	 271988.
08:58:33  885 886	 1492765113	 205391569	 275563.
08:58:33  886 887	 1492765113	 476732871	 271342.
08:58:33  887 888	 1492765113	 748789565	 272056.
08:58:34  888 889	 1492765114	 24976854	 276188.
08:58:34  889 890	 1492765114	 296879550	 271902.
08:58:34  890 891	 1492765114	 572611783	 275732.
08:58:34  891 892	 1492765114	 795394744	 222783.
08:58:35  892 893	 1492765115	 67471394	 272077.
08:58:35  893 894	 1492765115	 343931940	 276461.
08:58:35  894 895	 1492765115	 616257641	 272325.
08:58:35  895 896	 1492765115	 892849307	 276592.
08:58:36  896 897	 1492765116	 165603821	 272755.
08:58:36  897 898	 1492765116	 441963508	 276359.
08:58:36  898 899	 1492765116	 714568925	 272606.
08:58:36  899 900	 1492765116	 991226779	 276657.
08:58:37  900 901	 1492765117	 263835482	 272609.
08:58:37  901 902	 1492765117	 540325848	 276491.
08:58:37  902 903	 1492765117	 811967291	 271641.
08:58:38  903 904	 1492765118	 83682902	 271716.
08:58:38  904 905	 1492765118	 359539385	 275856.
08:58:38  905 906	 1492765118	 631630275	 272091.
08:58:38  906 907	 1492765118	 854434973	 222805.
08:58:39  907 908	 1492765119	 129521509	 275086.
08:58:39  908 909	 1492765119	 401117911	 271597.
08:58:39  909 910	 1492765119	 676947886	 275830.
08:58:39  910 911	 1492765119	 949299223	 272351.
08:58:40  911 912	 1492765120	 225248255	 275949.
08:58:40  912 913	 1492765120	 447863378	 222615.
08:58:40  913 914	 1492765120	 719615032	 271752.
08:58:40  914 915	 1492765120	 995492729	 275877.
08:58:41  915 916	 1492765121	 267603920	 272112.
08:58:41  916 917	 1492765121	 543417014	 275813.
08:58:41  917 918	 1492765121	 766364287	 222947.
08:58:42  918 919	 1492765122	 38088181	 271724.
08:58:42  919 920	 1492765122	 314191201	 276103.
08:58:42  920 921	 1492765122	 586429909	 272239.
08:58:42  921 922	 1492765122	 862338119	 275908.
08:58:43  922 923	 1492765123	 134418849	 272081.
08:58:43  923 924	 1492765123	 410100413	 275681.
08:58:43  924 925	 1492765123	 632707203	 222607.
08:58:43  925 926	 1492765123	 904310503	 271603.
08:58:44  926 927	 1492765124	 180224495	 275914.
08:58:44  927 928	 1492765124	 456291585	 276067.
08:58:44  928 929	 1492765124	 727810556	 271519.
08:58:44  929 930	 1492765124	 950685496	 222875.
08:58:45  930 931	 1492765125	 268364435	 317679.
08:58:45  931 932	 1492765125	 491598575	 223234.
08:58:45  932 933	 1492765125	 763741007	 272143.
08:58:46  933 934	 1492765126	 40534461	 276793.
08:58:46  934 935	 1492765126	 312766887	 272233.
08:58:46  935 936	 1492765126	 589158117	 276391.
08:58:46  936 937	 1492765126	 861298058	 272140.
08:58:47  937 938	 1492765127	 137397430	 276099.
08:58:47  938 939	 1492765127	 409220087	 271823.
08:58:47  939 940	 1492765127	 685179707	 275959.
08:58:47  940 941	 1492765127	 957188548	 272009.
08:58:48  941 942	 1492765128	 233228041	 276040.
08:58:48  942 943	 1492765128	 505491167	 272263.
08:58:48  943 944	 1492765128	 781617899	 276127.
08:58:49  944 945	 1492765129	 53356322	 271738.
08:58:49  945 946	 1492765129	 275940199	 222584.
08:58:49  946 947	 1492765129	 547861009	 271921.
08:58:49  947 948	 1492765129	 824130340	 276269.
08:58:50  948 949	 1492765130	 96524939	 272395.
08:58:50  949 950	 1492765130	 372376393	 275851.
08:58:50  950 951	 1492765130	 644667673	 272291.
08:58:50  951 952	 1492765130	 920889282	 276222.
08:58:51  952 953	 1492765131	 192703906	 271815.
08:58:51  953 954	 1492765131	 469244308	 276540.
08:58:51  954 955	 1492765131	 740912471	 271668.
08:58:52  955 956	 1492765132	 12404568	 271492.
08:58:52  956 957	 1492765132	 287951154	 275547.
08:58:52  957 958	 1492765132	 559755716	 271804.
08:58:52  958 959	 1492765132	 835611660	 275856.
08:58:53  959 960	 1492765133	 107409197	 271798.
08:58:53  960 961	 1492765133	 329884678	 222476.
08:58:53  961 962	 1492765133	 601568375	 271683.
08:58:53  962 963	 1492765133	 877490800	 275923.
08:58:54  963 964	 1492765134	 148882896	 271392.
08:58:54  964 965	 1492765134	 420811780	 271928.
08:58:54  965 966	 1492765134	 695951003	 275140.
08:58:54  966 967	 1492765134	 967139784	 271188.
08:58:55  967 968	 1492765135	 238140607	 271001.
08:58:55  968 969	 1492765135	 509494825	 271355.
08:58:55  969 970	 1492765135	 785202724	 275707.
08:58:56  970 971	 1492765136	 7078505	 221876.
08:58:56  971 972	 1492765136	 278399841	 271322.
08:58:56  972 973	 1492765136	 550168370	 271768.
08:58:56  973 974	 1492765136	 825458551	 275290.
08:58:57  974 975	 1492765137	 96582265	 271124.
08:58:57  975 976	 1492765137	 367386571	 270804.
08:58:57  976 977	 1492765137	 642855153	 275469.
08:58:57  977 978	 1492765137	 865099560	 222244.
08:58:58  978 979	 1492765138	 136200984	 271102.
08:58:58  979 980	 1492765138	 407393788	 271193.
08:58:58  980 981	 1492765138	 679065468	 271671.
08:58:58  981 982	 1492765138	 955241062	 276176.
08:58:59  982 983	 1492765139	 226834076	 271593.
08:58:59  983 984	 1492765139	 498504129	 271670.
08:58:59  984 985	 1492765139	 770677244	 272173.
08:58:59  985 986	 1492765139	 993238064	 222561.
08:59:00  986 987	 1492765140	 264851603	 271613.
08:59:00  987 988	 1492765140	 536187307	 271336.
08:59:00  988 989	 1492765140	 807671795	 271484.
08:59:01  989 990	 1492765141	 83032761	 275361.
08:59:01  990 991	 1492765141	 353915267	 270883.
08:59:01  991 992	 1492765141	 624974099	 271059.
08:59:01  992 993	 1492765141	 900015593	 275041.
08:59:02  993 994	 1492765142	 171199752	 271184.
08:59:02  994 995	 1492765142	 393428862	 222230.
08:59:02  995 996	 1492765142	 664559841	 271131.
08:59:02  996 997	 1492765142	 935504525	 270944.
08:59:03  997 998	 1492765143	 210772278	 275268.
08:59:03  998 999	 1492765143	 481694877	 270923.
08:59:03  999 1000	 1492765143	 753233527	 271538.
08:59:04 1000 1001	 1492765144	 24963922	 271731.
08:59:04 1001 1002	 1492765144	 300228322	 275264.
08:59:04 1002 1003	 1492765144	 571277158	 271049.
08:59:04 1003 1004	 1492765144	 842862082	 271585.
08:59:05 1004 1005	 1492765145	 114182359	 271320.
08:59:05 1005 1006	 1492765145	 389575927	 275394.
08:59:05 1006 1007	 1492765145	 661141469	 271565.
08:59:05 1007 1008	 1492765145	 883385881	 222245.
08:59:06 1008 1009	 1492765146	 154558526	 271172.
08:59:06 1009 1010	 1492765146	 430382752	 275824.
08:59:06 1010 1011	 1492765146	 702496493	 272114.
08:59:06 1011 1012	 1492765146	 973668615	 271172.
08:59:07 1012 1013	 1492765147	 244738894	 271071.
08:59:07 1013 1014	 1492765147	 520666508	 275927.
08:59:07 1014 1015	 1492765147	 792831255	 272165.
08:59:08 1015 1016	 1492765148	 69336897	 276506.
08:59:08 1016 1017	 1492765148	 341154908	 271818.
08:59:08 1017 1018	 1492765148	 617307048	 276152.
08:59:08 1018 1019	 1492765148	 840000196	 222693.
08:59:09 1019 1020	 1492765149	 112045901	 272046.
08:59:09 1020 1021	 1492765149	 387202362	 275156.
08:59:09 1021 1022	 1492765149	 659297276	 272095.
08:59:09 1022 1023	 1492765149	 935122379	 275825.
08:59:10 1023 1024	 1492765150	 206476565	 271354.
08:59:10 1024 1025	 1492765150	 429384560	 222908.
08:59:10 1025 1026	 1492765150	 705733060	 276349.
08:59:10 1026 1027	 1492765150	 977645281	 271912.
08:59:11 1027 1028	 1492765151	 253241251	 275596.
08:59:11 1028 1029	 1492765151	 525226907	 271986.
08:59:11 1029 1030	 1492765151	 801492376	 276265.
08:59:12 1030 1031	 1492765152	 24290730	 222798.
08:59:12 1031 1032	 1492765152	 295861525	 271571.
08:59:12 1032 1033	 1492765152	 571941620	 276080.
08:59:12 1033 1034	 1492765152	 843433027	 271492.
08:59:13 1034 1035	 1492765153	 119288119	 275855.
08:59:13 1035 1036	 1492765153	 341699685	 222411.
08:59:13 1036 1037	 1492765153	 612774983	 271076.
08:59:13 1037 1038	 1492765153	 888361196	 275586.
08:59:14 1038 1039	 1492765154	 159827007	 271466.
08:59:14 1039 1040	 1492765154	 382326345	 222499.
08:59:14 1040 1041	 1492765154	 658400806	 276075.
08:59:14 1041 1042	 1492765154	 929975614	 271574.
08:59:15 1042 1043	 1492765155	 206441048	 276466.
08:59:15 1043 1044	 1492765155	 477796570	 271355.
08:59:15 1044 1045	 1492765155	 753971576	 276175.
08:59:15 1045 1046	 1492765155	 972248150	 218277.
08:59:16 1046 1047	 1492765156	 248485108	 276237.
08:59:16 1047 1048	 1492765156	 524274063	 275789.
08:59:16 1048 1049	 1492765156	 796239385	 271965.
08:59:17 1049 1050	 1492765157	 67931145	 271692.
08:59:17 1050 1051	 1492765157	 343831123	 275900.
08:59:17 1051 1052	 1492765157	 615783720	 271953.
08:59:17 1052 1053	 1492765157	 838717463	 222933.
08:59:18 1053 1054	 1492765158	 115120152	 276403.
08:59:18 1054 1055	 1492765158	 386657174	 271537.
08:59:18 1055 1056	 1492765158	 662343964	 275687.
08:59:18 1056 1057	 1492765158	 934140090	 271796.
08:59:19 1057 1058	 1492765159	 210064566	 275924.
08:59:19 1058 1059	 1492765159	 481794047	 271730.
08:59:19 1059 1060	 1492765159	 705167422	 223373.
08:59:19 1060 1061	 1492765159	 981004340	 275837.
08:59:20 1061 1062	 1492765160	 252420835	 271417.
08:59:20 1062 1063	 1492765160	 528429435	 276008.
08:59:20 1063 1064	 1492765160	 800058773	 271629.
08:59:21 1064 1065	 1492765161	 76059839	 276002.
08:59:21 1065 1066	 1492765161	 294366201	 218306.
08:59:21 1066 1067	 1492765161	 570239791	 275873.
08:59:21 1067 1068	 1492765161	 842077905	 271839.
08:59:22 1068 1069	 1492765162	 118397289	 276319.
08:59:22 1069 1070	 1492765162	 390243855	 271847.
08:59:22 1070 1071	 1492765162	 666467487	 276223.
08:59:22 1071 1072	 1492765162	 937876234	 271409.
08:59:23 1072 1073	 1492765163	 214041818	 276166.
08:59:23 1073 1074	 1492765163	 437017509	 222975.
08:59:23 1074 1075	 1492765163	 709097962	 272081.
08:59:23 1075 1076	 1492765163	 985345652	 276247.
08:59:24 1076 1077	 1492765164	 253739648	 268394.
08:59:24 1077 1078	 1492765164	 529285433	 275546.
08:59:24 1078 1079	 1492765164	 800756990	 271472.
08:59:25 1079 1080	 1492765165	 76873600	 276116.
08:59:25 1080 1081	 1492765165	 349093506	 272220.
08:59:25 1081 1082	 1492765165	 625090556	 275997.
08:59:25 1082 1083	 1492765165	 847828113	 222738.
08:59:26 1083 1084	 1492765166	 119482557	 271654.
08:59:26 1084 1085	 1492765166	 395238912	 275757.
08:59:26 1085 1086	 1492765166	 667195091	 271956.
08:59:26 1086 1087	 1492765166	 943462561	 276267.
08:59:27 1087 1088	 1492765167	 215012465	 271550.
08:59:27 1088 1089	 1492765167	 437922779	 222910.
08:59:27 1089 1090	 1492765167	 713678307	 275756.
08:59:27 1090 1091	 1492765167	 984986264	 271308.
08:59:28 1091 1092	 1492765168	 260521391	 275535.
08:59:28 1092 1093	 1492765168	 532441865	 271921.
08:59:28 1093 1094	 1492765168	 804324609	 271882.
08:59:29 1094 1095	 1492765169	 30980631	 226656.
08:59:29 1095 1096	 1492765169	 302560723	 271580.
08:59:29 1096 1097	 1492765169	 574209549	 271649.
08:59:29 1097 1098	 1492765169	 846337912	 272129.
08:59:30 1098 1099	 1492765170	 122281387	 275943.
08:59:30 1099 1100	 1492765170	 393693936	 271413.
08:59:30 1100 1101	 1492765170	 669044185	 275350.
08:59:30 1101 1102	 1492765170	 940394745	 271351.
08:59:31 1102 1103	 1492765171	 163137121	 222742.
08:59:31 1103 1104	 1492765171	 434584225	 271447.
08:59:31 1104 1105	 1492765171	 710892958	 276309.
08:59:31 1105 1106	 1492765171	 983193913	 272301.
08:59:32 1106 1107	 1492765172	 259026998	 275833.
08:59:32 1107 1108	 1492765172	 531299475	 272272.
08:59:32 1108 1109	 1492765172	 807080182	 275781.
08:59:33 1109 1110	 1492765173	 79382442	 272302.
08:59:33 1110 1111	 1492765173	 301562099	 222180.
08:59:33 1111 1112	 1492765173	 577189025	 275627.
08:59:33 1112 1113	 1492765173	 849143716	 271954.
08:59:34 1113 1114	 1492765174	 125796485	 276653.
08:59:34 1114 1115	 1492765174	 397357863	 271562.
08:59:34 1115 1116	 1492765174	 624278652	 226920.
08:59:34 1116 1117	 1492765174	 896046707	 271768.
08:59:35 1117 1118	 1492765175	 167573775	 271528.
08:59:35 1118 1119	 1492765175	 443608277	 276034.
08:59:35 1119 1120	 1492765175	 715461288	 271853.
08:59:35 1120 1121	 1492765175	 991774537	 276313.
08:59:36 1121 1122	 1492765176	 263821687	 272047.
08:59:36 1122 1123	 1492765176	 539682232	 275861.
08:59:36 1123 1124	 1492765176	 762264242	 222582.
08:59:37 1124 1125	 1492765177	 33742700	 271478.
08:59:37 1125 1126	 1492765177	 309800893	 276059.
08:59:37 1126 1127	 1492765177	 582516837	 272716.
08:59:37 1127 1128	 1492765177	 858478972	 275962.
08:59:38 1128 1129	 1492765178	 81147541	 222668.
08:59:38 1129 1130	 1492765178	 357254464	 276107.
