11:22:17    0 Step	 time(s)	 time(ns)	 delta(ms)
11:22:17    0 1	 1492341737	 999233638	 54160.
11:22:18    1 2	 1492341738	 270995484	 271762.
11:22:18    2 3	 1492341738	 493979144	 222984.
11:22:18    3 4	 1492341738	 770276176	 276297.
11:22:19    4 5	 1492341739	 42328086	 272052.
11:22:19    5 6	 1492341739	 318491365	 276163.
11:22:19    6 7	 1492341739	 590725657	 272234.
11:22:19    7 8	 1492341739	 866742453	 276017.
11:22:20    8 9	 1492341740	 139607825	 272866.
11:22:20    9 10	 1492341740	 415594787	 275986.
11:22:20   10 11	 1492341740	 687526125	 271932.
11:22:20   11 12	 1492341740	 963864804	 276339.
11:22:21   12 13	 1492341741	 235861824	 271997.
11:22:21   13 14	 1492341741	 458607694	 222745.
11:22:21   14 15	 1492341741	 734647943	 276041.
11:22:22   15 16	 1492341742	 10612175	 275964.
11:22:22   16 17	 1492341742	 282213424	 271601.
11:22:22   17 18	 1492341742	 558306021	 276093.
11:22:22   18 19	 1492341742	 830268791	 271963.
11:22:23   19 20	 1492341743	 53019181	 222750.
11:22:23   20 21	 1492341743	 328901588	 275882.
11:22:23   21 22	 1492341743	 604847161	 275946.
11:22:23   22 23	 1492341743	 876741269	 271894.
11:22:24   23 24	 1492341744	 152891930	 276151.
11:22:24   24 25	 1492341744	 371729867	 218838.
11:22:24   25 26	 1492341744	 647736708	 276006.
11:22:24   26 27	 1492341744	 919539139	 271803.
11:22:25   27 28	 1492341745	 195498609	 275959.
11:22:25   28 29	 1492341745	 472815615	 277318.
11:22:25   29 30	 1492341745	 732032663	 259216.
11:22:26   30 31	 1492341746	 3588307	 271556.
11:22:26   31 32	 1492341746	 332834422	 329246.
11:22:26   32 33	 1492341746	 608881811	 276048.
11:22:26   33 34	 1492341746	 880498389	 271616.
11:22:27   34 35	 1492341747	 152190968	 271693.
11:22:27   35 36	 1492341747	 427706973	 275516.
11:22:27   36 37	 1492341747	 699685972	 271979.
11:22:27   37 38	 1492341747	 971416527	 271730.
11:22:28   38 39	 1492341748	 247161392	 275745.
11:22:28   39 40	 1492341748	 469667517	 222506.
11:22:28   40 41	 1492341748	 741643588	 271976.
11:22:29   41 42	 1492341749	 17441944	 275799.
11:22:29   42 43	 1492341749	 289344623	 271902.
11:22:29   43 44	 1492341749	 565364917	 276021.
11:22:29   44 45	 1492341749	 836875118	 271510.
11:22:30   45 46	 1492341750	 112809431	 275934.
11:22:30   46 47	 1492341750	 385682328	 272873.
11:22:30   47 48	 1492341750	 661788370	 276106.
11:22:30   48 49	 1492341750	 933558589	 271770.
11:22:31   49 50	 1492341751	 156457014	 222899.
11:22:31   50 51	 1492341751	 432481478	 276024.
11:22:31   51 52	 1492341751	 704300147	 271819.
11:22:31   52 53	 1492341751	 980167336	 275867.
11:22:32   53 54	 1492341752	 252392028	 272225.
11:22:32   54 55	 1492341752	 528263640	 275871.
11:22:32   55 56	 1492341752	 799952759	 271689.
11:22:33   56 57	 1492341753	 71959700	 272007.
11:22:33   57 58	 1492341753	 294432286	 222473.
11:22:33   58 59	 1492341753	 570274252	 275842.
11:22:33   59 60	 1492341753	 841930161	 271656.
11:22:34   60 61	 1492341754	 112995080	 271065.
11:22:34   61 62	 1492341754	 384667759	 271672.
11:22:34   62 63	 1492341754	 660368609	 275701.
11:22:34   63 64	 1492341754	 936430051	 276062.
11:22:35   64 65	 1492341755	 208596502	 272166.
11:22:35   65 66	 1492341755	 485055581	 276459.
11:22:35   66 67	 1492341755	 758905927	 273851.
11:22:36   67 68	 1492341756	 35055041	 276149.
11:22:36   68 69	 1492341756	 306979940	 271925.
11:22:36   69 70	 1492341756	 583189464	 276209.
11:22:36   70 71	 1492341756	 859428662	 276239.
11:22:37   71 72	 1492341757	 131907639	 272479.
11:22:37   72 73	 1492341757	 409428022	 277521.
11:22:37   73 74	 1492341757	 685227963	 275800.
11:22:37   74 75	 1492341757	 957540962	 272313.
11:22:38   75 76	 1492341758	 184960147	 227419.
11:22:38   76 77	 1492341758	 457064259	 272104.
11:22:38   77 78	 1492341758	 733398026	 276334.
11:22:39   78 79	 1492341759	 5517068	 272119.
11:22:39   79 80	 1492341759	 281887427	 276370.
11:22:39   80 81	 1492341759	 554014980	 272128.
11:22:39   81 82	 1492341759	 829999498	 275984.
11:22:40   82 83	 1492341760	 106044462	 276045.
11:22:40   83 84	 1492341760	 324822198	 218778.
11:22:40   84 85	 1492341760	 600995612	 276173.
11:22:40   85 86	 1492341760	 877046841	 276052.
11:22:41   86 87	 1492341761	 149123900	 272077.
11:22:41   87 88	 1492341761	 425284841	 276161.
11:22:41   88 89	 1492341761	 697587478	 272302.
11:22:41   89 90	 1492341761	 973968979	 276382.
11:22:42   90 91	 1492341762	 247333278	 273364.
11:22:42   91 92	 1492341762	 523401923	 276069.
11:22:42   92 93	 1492341762	 799784052	 276382.
11:22:43   93 94	 1492341763	 71931036	 272147.
11:22:43   94 95	 1492341763	 344291379	 272360.
11:22:43   95 96	 1492341763	 571479939	 227189.
11:22:43   96 97	 1492341763	 843750271	 272270.
11:22:44   97 98	 1492341764	 119971894	 276222.
11:22:44   98 99	 1492341764	 395802613	 275830.
11:22:44   99 100	 1492341764	 668156889	 272355.
11:22:44  100 101	 1492341764	 944721493	 276564.
11:22:45  101 102	 1492341765	 216744395	 272023.
11:22:45  102 103	 1492341765	 492812899	 276069.
11:22:45  103 104	 1492341765	 765190258	 272377.
11:22:46  104 105	 1492341766	 41683617	 276493.
11:22:46  105 106	 1492341766	 264740699	 223057.
11:22:46  106 107	 1492341766	 537065899	 272326.
11:22:46  107 108	 1492341766	 813165158	 276099.
11:22:47  108 109	 1492341767	 89162894	 275998.
11:22:47  109 110	 1492341767	 361250152	 272087.
11:22:47  110 111	 1492341767	 637154633	 275904.
11:22:47  111 112	 1492341767	 859922813	 222769.
11:22:48  112 113	 1492341768	 135675285	 275752.
11:22:48  113 114	 1492341768	 407312946	 271638.
11:22:48  114 115	 1492341768	 683578921	 276266.
11:22:48  115 116	 1492341768	 959063181	 275484.
11:22:49  116 117	 1492341769	 182045410	 222982.
11:22:49  117 118	 1492341769	 453960793	 271915.
11:22:49  118 119	 1492341769	 730351973	 276392.
11:22:49  119 120	 1492341770	 2589716	 272237.
11:22:50  120 121	 1492341770	 278833631	 276244.
11:22:50  121 122	 1492341770	 550794728	 271961.
11:22:50  122 123	 1492341770	 826667064	 275873.
11:22:51  123 124	 1492341771	 102377205	 275710.
11:22:51  124 125	 1492341771	 374202414	 271825.
11:22:51  125 126	 1492341771	 645537704	 271335.
11:22:51  126 127	 1492341771	 867687316	 222150.
11:22:52  127 128	 1492341772	 142981802	 275295.
11:22:52  128 129	 1492341772	 414175935	 271194.
11:22:52  129 130	 1492341772	 685653584	 271477.
11:22:52  130 131	 1492341772	 961877263	 276224.
11:22:53  131 132	 1492341773	 233096626	 271219.
11:22:53  132 133	 1492341773	 508513712	 275417.
11:22:53  133 134	 1492341773	 780568781	 272055.
11:22:54  134 135	 1492341774	 56704686	 276136.
11:22:54  135 136	 1492341774	 327936294	 271232.
11:22:54  136 137	 1492341774	 550338041	 222402.
11:22:54  137 138	 1492341774	 825957934	 275620.
11:22:55  138 139	 1492341775	 97063481	 271105.
11:22:55  139 140	 1492341775	 368421938	 271359.
11:22:55  140 141	 1492341775	 643721188	 275299.
11:22:55  141 142	 1492341775	 919287529	 275566.
11:22:56  142 143	 1492341776	 190873356	 271586.
11:22:56  143 144	 1492341776	 462178759	 271305.
11:22:56  144 145	 1492341776	 791283993	 329106.
11:22:57  145 146	 1492341777	 62551764	 271267.
11:22:57  146 147	 1492341777	 338424587	 275873.
11:22:57  147 148	 1492341777	 609499702	 271075.
11:22:57  148 149	 1492341777	 880978589	 271479.
11:22:58  149 150	 1492341778	 103204269	 222226.
11:22:58  150 151	 1492341778	 378397050	 275193.
11:22:58  151 152	 1492341778	 704591359	 326194.
11:22:58  152 153	 1492341778	 926915150	 222324.
11:22:59  153 154	 1492341779	 198543984	 271629.
11:22:59  154 155	 1492341779	 470261441	 271717.
11:22:59  155 156	 1492341779	 746402260	 276141.
11:23:00  156 157	 1492341780	 18015873	 271614.
11:23:00  157 158	 1492341780	 294428681	 276412.
11:23:00  158 159	 1492341780	 570804886	 276377.
11:23:00  159 160	 1492341780	 842191564	 271386.
11:23:01  160 161	 1492341781	 115060819	 272870.
11:23:01  161 162	 1492341781	 390422102	 275361.
11:23:01  162 163	 1492341781	 608309645	 217887.
11:23:01  163 164	 1492341781	 883714882	 275406.
11:23:02  164 165	 1492341782	 159199792	 275485.
11:23:02  165 166	 1492341782	 430716499	 271516.
11:23:02  166 167	 1492341782	 691169143	 260453.
11:23:02  167 168	 1492341782	 962678780	 271510.
11:23:03  168 169	 1492341783	 238204499	 275525.
11:23:03  169 170	 1492341783	 510020071	 271816.
11:23:03  170 171	 1492341783	 781610878	 271591.
11:23:04  171 172	 1492341784	 57354868	 275744.
11:23:04  172 173	 1492341784	 328872084	 271517.
11:23:04  173 174	 1492341784	 600415461	 271543.
11:23:04  174 175	 1492341784	 875867072	 275452.
11:23:05  175 176	 1492341785	 147244454	 271377.
11:23:05  176 177	 1492341785	 418717114	 271473.
11:23:05  177 178	 1492341785	 694374149	 275657.
11:23:05  178 179	 1492341785	 965897771	 271523.
11:23:06  179 180	 1492341786	 237319911	 271423.
11:23:06  180 181	 1492341786	 459827589	 222507.
11:23:06  181 182	 1492341786	 735494514	 275667.
11:23:07  182 183	 1492341787	 6711602	 271217.
11:23:07  183 184	 1492341787	 279335716	 272624.
11:23:07  184 185	 1492341787	 554717262	 275382.
11:23:07  185 186	 1492341787	 826594614	 271877.
11:23:08  186 187	 1492341788	 102284083	 275690.
11:23:08  187 188	 1492341788	 373868761	 271584.
11:23:08  188 189	 1492341788	 596253319	 222385.
11:23:08  189 190	 1492341788	 868288923	 272036.
11:23:09  190 191	 1492341789	 144223172	 275934.
11:23:09  191 192	 1492341789	 416448225	 272225.
11:23:09  192 193	 1492341789	 692331954	 275884.
11:23:09  193 194	 1492341789	 964222171	 271890.
11:23:10  194 195	 1492341790	 239675409	 275453.
11:23:10  195 196	 1492341790	 511818444	 272143.
11:23:10  196 197	 1492341790	 787500760	 275682.
11:23:11  197 198	 1492341791	 10422823	 222923.
11:23:11  198 199	 1492341791	 282336938	 271914.
11:23:11  199 200	 1492341791	 558416467	 276079.
11:23:11  200 201	 1492341791	 830488596	 272072.
11:23:12  201 202	 1492341792	 106735260	 276247.
11:23:12  202 203	 1492341792	 378895304	 272160.
11:23:12  203 204	 1492341792	 655100478	 276205.
11:23:12  204 205	 1492341792	 926834693	 271734.
11:23:13  205 206	 1492341793	 153825792	 226991.
11:23:13  206 207	 1492341793	 425867529	 272042.
11:23:13  207 208	 1492341793	 697993384	 272126.
11:23:13  208 209	 1492341793	 969929069	 271936.
11:23:14  209 210	 1492341794	 245643903	 275715.
11:23:14  210 211	 1492341794	 521904948	 276261.
11:23:14  211 212	 1492341794	 794204475	 272299.
11:23:15  212 213	 1492341795	 124117319	 329913.
11:23:15  213 214	 1492341795	 396690233	 272573.
11:23:15  214 215	 1492341795	 673942280	 277252.
11:23:15  215 216	 1492341795	 950127273	 276185.
11:23:16  216 217	 1492341796	 221958943	 271832.
11:23:16  217 218	 1492341796	 497818475	 275860.
11:23:16  218 219	 1492341796	 771174258	 273355.
11:23:17  219 220	 1492341797	 42786678	 271612.
11:23:17  220 221	 1492341797	 318813731	 276027.
11:23:17  221 222	 1492341797	 541502072	 222689.
11:23:17  222 223	 1492341797	 813096738	 271594.
11:23:18  223 224	 1492341798	 89976322	 276880.
11:23:18  224 225	 1492341798	 365495070	 275519.
11:23:18  225 226	 1492341798	 636949920	 271455.
11:23:18  226 227	 1492341798	 909012070	 272062.
11:23:19  227 228	 1492341799	 135827372	 226815.
11:23:19  228 229	 1492341799	 407886288	 272059.
11:23:19  229 230	 1492341799	 679842510	 271956.
11:23:19  230 231	 1492341799	 956219777	 276377.
11:23:20  231 232	 1492341800	 232534024	 276315.
11:23:20  232 233	 1492341800	 505094854	 272561.
11:23:20  233 234	 1492341800	 781463280	 276368.
11:23:21  234 235	 1492341801	 55032586	 273569.
11:23:21  235 236	 1492341801	 331106054	 276074.
11:23:21  236 237	 1492341801	 603507566	 272401.
11:23:21  237 238	 1492341801	 879792644	 276285.
11:23:22  238 239	 1492341802	 151503859	 271712.
11:23:22  239 240	 1492341802	 427748634	 276244.
11:23:22  240 241	 1492341802	 704303372	 276555.
11:23:22  241 242	 1492341802	 927445952	 223143.
11:23:23  242 243	 1492341803	 199288952	 271843.
11:23:23  243 244	 1492341803	 475206953	 275918.
11:23:23  244 245	 1492341803	 751417284	 276210.
11:23:24  245 246	 1492341804	 24193334	 272776.
11:23:24  246 247	 1492341804	 300527051	 276334.
11:23:24  247 248	 1492341804	 572665623	 272138.
11:23:24  248 249	 1492341804	 799460827	 226796.
11:23:25  249 250	 1492341805	 71090595	 271629.
11:23:25  250 251	 1492341805	 347510237	 276420.
11:23:25  251 252	 1492341805	 619109455	 271599.
11:23:25  252 253	 1492341805	 896007613	 276898.
11:23:26  253 254	 1492341806	 151280549	 255273.
11:23:26  254 255	 1492341806	 426961316	 275681.
11:23:26  255 256	 1492341806	 645707841	 218747.
11:23:26  256 257	 1492341806	 921310437	 275602.
11:23:27  257 258	 1492341807	 193166533	 271856.
11:23:27  258 259	 1492341807	 469332922	 276167.
11:23:27  259 260	 1492341807	 741161346	 271828.
11:23:28  260 261	 1492341808	 17280289	 276119.
11:23:28  261 262	 1492341808	 240223837	 222944.
11:23:28  262 263	 1492341808	 512004549	 271780.
11:23:28  263 264	 1492341808	 788227364	 276223.
11:23:29  264 265	 1492341809	 60203177	 271976.
11:23:29  265 266	 1492341809	 336157546	 275954.
11:23:29  266 267	 1492341809	 608127426	 271970.
11:23:29  267 268	 1492341809	 879977863	 271851.
11:23:30  268 269	 1492341810	 155764805	 275787.
11:23:30  269 270	 1492341810	 427865585	 272100.
11:23:30  270 271	 1492341810	 650369917	 222505.
11:23:30  271 272	 1492341810	 926787393	 276417.
11:23:31  272 273	 1492341811	 202626863	 275840.
11:23:31  273 274	 1492341811	 474666218	 272039.
11:23:31  274 275	 1492341811	 750969361	 276303.
11:23:32  275 276	 1492341812	 23396772	 272427.
11:23:32  276 277	 1492341812	 299760037	 276364.
11:23:32  277 278	 1492341812	 575461960	 275702.
11:23:32  278 279	 1492341812	 794728934	 219267.
11:23:33  279 280	 1492341813	 70890602	 276161.
11:23:33  280 281	 1492341813	 343019073	 272129.
11:23:33  281 282	 1492341813	 615746114	 272727.
11:23:33  282 283	 1492341813	 892223394	 276477.
11:23:34  283 284	 1492341814	 164414830	 272192.
11:23:34  284 285	 1492341814	 436534140	 272119.
11:23:34  285 286	 1492341814	 766780172	 330246.
11:23:35  286 287	 1492341815	 42979330	 276199.
11:23:35  287 288	 1492341815	 315773810	 272795.
11:23:35  288 289	 1492341815	 593796694	 278022.
11:23:35  289 290	 1492341815	 866195126	 272399.
11:23:36  290 291	 1492341816	 141999678	 275804.
11:23:36  291 292	 1492341816	 414231281	 272232.
11:23:36  292 293	 1492341816	 690472620	 276241.
11:23:36  293 294	 1492341816	 963855112	 273383.
11:23:37  294 295	 1492341817	 239588935	 275734.
11:23:37  295 296	 1492341817	 511576737	 271987.
11:23:37  296 297	 1492341817	 787665151	 276089.
11:23:38  297 298	 1492341818	 10772431	 223107.
11:23:38  298 299	 1492341818	 282758303	 271986.
11:23:38  299 300	 1492341818	 558554054	 275796.
11:23:38  300 301	 1492341818	 830711122	 272157.
11:23:39  301 302	 1492341819	 106882433	 276171.
11:23:39  302 303	 1492341819	 379099749	 272217.
11:23:39  303 304	 1492341819	 656769493	 277670.
11:23:39  304 305	 1492341819	 925305387	 268536.
11:23:40  305 306	 1492341820	 201420933	 276116.
11:23:40  306 307	 1492341820	 473744164	 272323.
11:23:40  307 308	 1492341820	 750390089	 276646.
11:23:41  308 309	 1492341821	 22624010	 272234.
11:23:41  309 310	 1492341821	 250157933	 227534.
11:23:41  310 311	 1492341821	 521237962	 271080.
11:23:41  311 312	 1492341821	 797300341	 276062.
11:23:42  312 313	 1492341822	 69311602	 272011.
11:23:42  313 314	 1492341822	 345686451	 276375.
11:23:42  314 315	 1492341822	 618087790	 272402.
11:23:42  315 316	 1492341822	 845177514	 227089.
11:23:43  316 317	 1492341823	 117848074	 272671.
11:23:43  317 318	 1492341823	 497451249	 379603.
11:23:43  318 319	 1492341823	 774884873	 277434.
11:23:44  319 320	 1492341824	 46491317	 271606.
11:23:44  320 321	 1492341824	 322021900	 275531.
11:23:44  321 322	 1492341824	 544389814	 222368.
11:23:44  322 323	 1492341824	 866582989	 322193.
11:23:45  323 324	 1492341825	 141769150	 275186.
11:23:45  324 325	 1492341825	 413593115	 271824.
11:23:45  325 326	 1492341825	 685447979	 271855.
11:23:45  326 327	 1492341825	 963391809	 277944.
11:23:46  327 328	 1492341826	 236030729	 272638.
11:23:46  328 329	 1492341826	 512493003	 276463.
11:23:46  329 330	 1492341826	 785261602	 272768.
11:23:47  330 331	 1492341827	 62110354	 276849.
11:23:47  331 332	 1492341827	 334421570	 272311.
11:23:47  332 333	 1492341827	 610592800	 276172.
11:23:47  333 334	 1492341827	 883817710	 273224.
11:23:48  334 335	 1492341828	 159979451	 276162.
11:23:48  335 336	 1492341828	 431527492	 271548.
11:23:48  336 337	 1492341828	 707367498	 275840.
11:23:48  337 338	 1492341828	 979221964	 271855.
11:23:49  338 339	 1492341829	 254742443	 275520.
11:23:49  339 340	 1492341829	 526995994	 272254.
11:23:49  340 341	 1492341829	 803304522	 276308.
11:23:50  341 342	 1492341830	 21605797	 218302.
11:23:50  342 343	 1492341830	 297100041	 275494.
11:23:50  343 344	 1492341830	 573187870	 276088.
11:23:50  344 345	 1492341830	 845159631	 271971.
11:23:51  345 346	 1492341831	 117541744	 272382.
11:23:51  346 347	 1492341831	 393426662	 275885.
11:23:51  347 348	 1492341831	 665194680	 271768.
11:23:51  348 349	 1492341831	 941169935	 275976.
11:23:52  349 350	 1492341832	 213418172	 272248.
11:23:52  350 351	 1492341832	 440219050	 226801.
11:23:52  351 352	 1492341832	 712077830	 271859.
11:23:52  352 353	 1492341832	 987959216	 275881.
11:23:53  353 354	 1492341833	 259847270	 271888.
11:23:53  354 355	 1492341833	 531939309	 272092.
11:23:53  355 356	 1492341833	 807933411	 275994.
11:23:54  356 357	 1492341834	 137757016	 329824.
11:23:54  357 358	 1492341834	 409228465	 271471.
11:23:54  358 359	 1492341834	 631794526	 222566.
11:23:54  359 360	 1492341834	 907824868	 276031.
11:23:55  360 361	 1492341835	 179541497	 271716.
11:23:55  361 362	 1492341835	 455471912	 275931.
11:23:55  362 363	 1492341835	 727601661	 272129.
11:23:56  363 364	 1492341836	 3559374	 275958.
11:23:56  364 365	 1492341836	 275563778	 272004.
11:23:56  365 366	 1492341836	 499111532	 223548.
11:23:56  366 367	 1492341836	 775335895	 276225.
11:23:57  367 368	 1492341837	 48494426	 273158.
11:23:57  368 369	 1492341837	 324788411	 276294.
11:23:57  369 370	 1492341837	 596935041	 272147.
11:23:57  370 371	 1492341837	 873360759	 276425.
11:23:58  371 372	 1492341838	 149443948	 276084.
11:23:58  372 373	 1492341838	 421171194	 271727.
11:23:58  373 374	 1492341838	 693229778	 272058.
11:23:58  374 375	 1492341838	 920319295	 227090.
11:23:59  375 376	 1492341839	 192352109	 272033.
11:23:59  376 377	 1492341839	 468512422	 276160.
11:23:59  377 378	 1492341839	 740894887	 272383.
11:24:00  378 379	 1492341840	 16961391	 276066.
11:24:00  379 380	 1492341840	 287971327	 271010.
11:24:00  380 381	 1492341840	 560815065	 272844.
11:24:00  381 382	 1492341840	 831811560	 270996.
11:24:01  382 383	 1492341841	 107323667	 275512.
11:24:01  383 384	 1492341841	 378560163	 271237.
11:24:01  384 385	 1492341841	 654180502	 275620.
11:24:01  385 386	 1492341841	 925394982	 271215.
11:24:02  386 387	 1492341842	 147719197	 222324.
11:24:02  387 388	 1492341842	 423182471	 275463.
11:24:02  388 389	 1492341842	 694496481	 271314.
11:24:02  389 390	 1492341842	 966045302	 271549.
11:24:03  390 391	 1492341843	 241691385	 275646.
11:24:03  391 392	 1492341843	 512645322	 270954.
11:24:03  392 393	 1492341843	 784721906	 272077.
11:24:04  393 394	 1492341844	 60560588	 275838.
11:24:04  394 395	 1492341844	 332690656	 272130.
11:24:04  395 396	 1492341844	 604950494	 272260.
11:24:04  396 397	 1492341844	 881092662	 276142.
11:24:05  397 398	 1492341845	 156533340	 275441.
11:24:05  398 399	 1492341845	 428307086	 271774.
11:24:05  399 400	 1492341845	 701864955	 273558.
11:24:05  400 401	 1492341845	 973238955	 271374.
11:24:06  401 402	 1492341846	 248807114	 275568.
11:24:06  402 403	 1492341846	 520900944	 272094.
11:24:06  403 404	 1492341846	 792365999	 271465.
11:24:07  404 405	 1492341847	 18539162	 226173.
11:24:07  405 406	 1492341847	 289671888	 271133.
11:24:07  406 407	 1492341847	 565376922	 275705.
11:24:07  407 408	 1492341847	 836931488	 271554.
11:24:08  408 409	 1492341848	 59680388	 222749.
11:24:08  409 410	 1492341848	 335421014	 275741.
11:24:08  410 411	 1492341848	 611322696	 275901.
11:24:08  411 412	 1492341848	 883761537	 272439.
11:24:09  412 413	 1492341849	 156109222	 272348.
11:24:09  413 414	 1492341849	 432758411	 276649.
11:24:09  414 415	 1492341849	 704831880	 272074.
11:24:09  415 416	 1492341849	 981269849	 276438.
11:24:10  416 417	 1492341850	 252482915	 271213.
11:24:10  417 418	 1492341850	 524140303	 271657.
11:24:10  418 419	 1492341850	 799474245	 275334.
11:24:11  419 420	 1492341851	 71068958	 271595.
11:24:11  420 421	 1492341851	 346614833	 275546.
11:24:11  421 422	 1492341851	 564981157	 218366.
11:24:11  422 423	 1492341851	 840616273	 275635.
11:24:12  423 424	 1492341852	 112063560	 271447.
11:24:12  424 425	 1492341852	 383433235	 271370.
11:24:12  425 426	 1492341852	 658736319	 275303.
11:24:12  426 427	 1492341852	 930517221	 271781.
11:24:13  427 428	 1492341853	 201774443	 271257.
11:24:13  428 429	 1492341853	 477186820	 275413.
11:24:13  429 430	 1492341853	 748679847	 271493.
11:24:14  430 431	 1492341854	 20167490	 271487.
11:24:14  431 432	 1492341854	 295843484	 275676.
11:24:14  432 433	 1492341854	 567504161	 271661.
11:24:14  433 434	 1492341854	 789683944	 222180.
11:24:15  434 435	 1492341855	 60990032	 271306.
11:24:15  435 436	 1492341855	 332462650	 271472.
11:24:15  436 437	 1492341855	 608020958	 275559.
11:24:15  437 438	 1492341855	 879692121	 271671.
11:24:16  438 439	 1492341856	 151158393	 271466.
11:24:16  439 440	 1492341856	 426943964	 275786.
11:24:16  440 441	 1492341856	 698842679	 271898.
11:24:16  441 442	 1492341856	 970345838	 271504.
11:24:17  442 443	 1492341857	 246091537	 275745.
11:24:17  443 444	 1492341857	 517736939	 271646.
11:24:17  444 445	 1492341857	 789447415	 271710.
11:24:18  445 446	 1492341858	 60871317	 271424.
11:24:18  446 447	 1492341858	 336655547	 275784.
11:24:18  447 448	 1492341858	 608336178	 271681.
11:24:18  448 449	 1492341858	 879892180	 271556.
11:24:19  449 450	 1492341859	 155445713	 275553.
11:24:19  450 451	 1492341859	 426967220	 271522.
11:24:19  451 452	 1492341859	 698251080	 271284.
11:24:19  452 453	 1492341859	 974845315	 276594.
11:24:20  453 454	 1492341860	 246284851	 271440.
11:24:20  454 455	 1492341860	 517364121	 271079.
11:24:20  455 456	 1492341860	 788798971	 271435.
11:24:21  456 457	 1492341861	 64540980	 275742.
11:24:21  457 458	 1492341861	 335920454	 271379.
11:24:21  458 459	 1492341861	 607520372	 271600.
11:24:21  459 460	 1492341861	 879029257	 271509.
11:24:22  460 461	 1492341862	 155071632	 276042.
11:24:22  461 462	 1492341862	 427050920	 271980.
11:24:22  462 463	 1492341862	 702724718	 275673.
11:24:22  463 464	 1492341862	 974341400	 271617.
11:24:23  464 465	 1492341863	 245580443	 271239.
11:24:23  465 466	 1492341863	 467812301	 222232.
11:24:23  466 467	 1492341863	 743235257	 275423.
11:24:24  467 468	 1492341864	 14448125	 271213.
11:24:24  468 469	 1492341864	 285689354	 271241.
11:24:24  469 470	 1492341864	 557063627	 271374.
11:24:24  470 471	 1492341864	 886304419	 329241.
11:24:25  471 472	 1492341865	 161496276	 275192.
11:24:25  472 473	 1492341865	 432623370	 271127.
11:24:25  473 474	 1492341865	 704035968	 271413.
11:24:25  474 475	 1492341865	 975773637	 271737.
11:24:26  475 476	 1492341866	 250963147	 275190.
11:24:26  476 477	 1492341866	 522251495	 271288.
11:24:26  477 478	 1492341866	 793532001	 271281.
11:24:27  478 479	 1492341867	 15588793	 222057.
11:24:27  479 480	 1492341867	 286678939	 271090.
11:24:27  480 481	 1492341867	 557820763	 271141.
11:24:27  481 482	 1492341867	 834619086	 276799.
11:24:28  482 483	 1492341868	 106043127	 271424.
11:24:28  483 484	 1492341868	 377495195	 271452.
11:24:28  484 485	 1492341868	 652908204	 275413.
11:24:28  485 486	 1492341868	 924457898	 271550.
11:24:29  486 487	 1492341869	 196492698	 272034.
11:24:29  487 488	 1492341869	 523388645	 326896.
11:24:29  488 489	 1492341869	 794641879	 271254.
11:24:30  489 490	 1492341870	 70219714	 275577.
11:24:30  490 491	 1492341870	 288707957	 218489.
11:24:30  491 492	 1492341870	 564165687	 275457.
11:24:30  492 493	 1492341870	 835259096	 271094.
11:24:31  493 494	 1492341871	 160708391	 325449.
11:24:31  494 495	 1492341871	 382840908	 222133.
11:24:31  495 496	 1492341871	 653760704	 270919.
11:24:31  496 497	 1492341871	 924518327	 270758.
11:24:32  497 498	 1492341872	 199929604	 275411.
11:24:32  498 499	 1492341872	 471337039	 271408.
11:24:32  499 500	 1492341872	 742669296	 271332.
11:24:33  500 501	 1492341873	 17993227	 275324.
11:24:33  501 502	 1492341873	 289415921	 271423.
11:24:33  502 503	 1492341873	 560955672	 271539.
11:24:33  503 504	 1492341873	 832605043	 271650.
11:24:34  504 505	 1492341874	 108110475	 275505.
11:24:34  505 506	 1492341874	 379384802	 271275.
11:24:34  506 507	 1492341874	 601903939	 222519.
11:24:34  507 508	 1492341874	 873498529	 271594.
11:24:35  508 509	 1492341875	 145166255	 271668.
11:24:35  509 510	 1492341875	 421289758	 276123.
11:24:35  510 511	 1492341875	 693003301	 271714.
11:24:35  511 512	 1492341875	 964253176	 271250.
11:24:36  512 513	 1492341876	 239616091	 275363.
11:24:36  513 514	 1492341876	 511469740	 271853.
11:24:36  514 515	 1492341876	 786969250	 275500.
11:24:37  515 516	 1492341877	 58171634	 271202.
11:24:37  516 517	 1492341877	 329162275	 270991.
11:24:37  517 518	 1492341877	 600219112	 271057.
11:24:37  518 519	 1492341877	 875338978	 275120.
11:24:38  519 520	 1492341878	 97426418	 222087.
11:24:38  520 521	 1492341878	 368396555	 270970.
11:24:38  521 522	 1492341878	 639437660	 271041.
11:24:38  522 523	 1492341878	 910832234	 271395.
11:24:39  523 524	 1492341879	 182433935	 271602.
11:24:39  524 525	 1492341879	 458015700	 275581.
11:24:39  525 526	 1492341879	 729430955	 271416.
11:24:40  526 527	 1492341880	 4880834	 275450.
11:24:40  527 528	 1492341880	 276322868	 271442.
11:24:40  528 529	 1492341880	 548040688	 271717.
11:24:40  529 530	 1492341880	 823611988	 275572.
11:24:41  530 531	 1492341881	 95233045	 271621.
11:24:41  531 532	 1492341881	 366856934	 271624.
11:24:41  532 533	 1492341881	 638210815	 271354.
11:24:41  533 534	 1492341881	 913682610	 275471.
11:24:42  534 535	 1492341882	 185391319	 271709.
11:24:42  535 536	 1492341882	 456537423	 271146.
11:24:42  536 537	 1492341882	 731684858	 275148.
11:24:43  537 538	 1492341883	 3222615	 271537.
11:24:43  538 539	 1492341883	 225463826	 222242.
11:24:43  539 540	 1492341883	 496625619	 271161.
11:24:43  540 541	 1492341883	 767883539	 271258.
11:24:44  541 542	 1492341884	 93481913	 325599.
11:24:44  542 543	 1492341884	 369277463	 275795.
11:24:44  543 544	 1492341884	 587585170	 218308.
11:24:44  544 545	 1492341884	 863002837	 275418.
11:24:45  545 546	 1492341885	 134631218	 271628.
11:24:45  546 547	 1492341885	 405917765	 271286.
11:24:45  547 548	 1492341885	 681783367	 275866.
11:24:45  548 549	 1492341885	 953403517	 271620.
11:24:46  549 550	 1492341886	 225023960	 271621.
11:24:46  550 551	 1492341886	 496605996	 271582.
11:24:46  551 552	 1492341886	 772357422	 275751.
11:24:47  552 553	 1492341887	 43927899	 271571.
11:24:47  553 554	 1492341887	 315409514	 271481.
11:24:47  554 555	 1492341887	 591309445	 275900.
11:24:47  555 556	 1492341887	 862835193	 271526.
11:24:48  556 557	 1492341888	 138400401	 275565.
11:24:48  557 558	 1492341888	 410009416	 271609.
11:24:48  558 559	 1492341888	 739553407	 329544.
11:24:49  559 560	 1492341889	 11096551	 271543.
11:24:49  560 561	 1492341889	 282546929	 271451.
11:24:49  561 562	 1492341889	 553808998	 271262.
11:24:49  562 563	 1492341889	 829774972	 275966.
11:24:50  563 564	 1492341890	 101431644	 271656.
11:24:50  564 565	 1492341890	 377185653	 275754.
11:24:50  565 566	 1492341890	 652499695	 275314.
11:24:50  566 567	 1492341890	 928650643	 276151.
11:24:51  567 568	 1492341891	 200709421	 272059.
11:24:51  568 569	 1492341891	 471854609	 271145.
11:24:51  569 570	 1492341891	 748243950	 276390.
11:24:52  570 571	 1492341892	 24462591	 276218.
11:24:52  571 572	 1492341892	 295716273	 271254.
11:24:52  572 573	 1492341892	 680963341	 385247.
11:24:52  573 574	 1492341892	 954487162	 273524.
11:24:53  574 575	 1492341893	 226128918	 271642.
11:24:53  575 576	 1492341893	 503728008	 277599.
11:24:53  576 577	 1492341893	 780007493	 276279.
11:24:54  577 578	 1492341894	 107412541	 327405.
11:24:54  578 579	 1492341894	 379603194	 272191.
11:24:54  579 580	 1492341894	 655739075	 276136.
11:24:54  580 581	 1492341894	 927362679	 271623.
11:24:55  581 582	 1492341895	 150005552	 222643.
11:24:55  582 583	 1492341895	 425961220	 275956.
11:24:55  583 584	 1492341895	 698112230	 272151.
11:24:55  584 585	 1492341895	 974070926	 275959.
11:24:56  585 586	 1492341896	 246093066	 272022.
11:24:56  586 587	 1492341896	 521627231	 275534.
11:24:56  587 588	 1492341896	 794181391	 272554.
11:24:57  588 589	 1492341897	 66321285	 272140.
11:24:57  589 590	 1492341897	 341804875	 275484.
11:24:57  590 591	 1492341897	 564717279	 222912.
11:24:57  591 592	 1492341897	 836817886	 272101.
11:24:58  592 593	 1492341898	 108296000	 271478.
11:24:58  593 594	 1492341898	 384304660	 276008.
11:24:58  594 595	 1492341898	 715544618	 331240.
11:24:58  595 596	 1492341898	 975195709	 259651.
11:24:59  596 597	 1492341899	 246903437	 271708.
11:24:59  597 598	 1492341899	 523135214	 276232.
11:24:59  598 599	 1492341899	 794536571	 271401.
11:25:00  599 600	 1492341900	 70067019	 275531.
11:25:00  600 601	 1492341900	 292567905	 271200.
11:25:00  601 602	 1492341900	 613023443	 271756.
11:25:00  602 603	 1492341900	 888576407	 275553.
11:25:01  603 604	 1492341901	 106386891	 217811.
11:25:01  604 605	 1492341901	 381420328	 275033.
11:25:01  605 606	 1492341901	 652409329	 270989.
11:25:01  606 607	 1492341901	 919983734	 267574.
11:25:02  607 608	 1492341902	 195339844	 275357.
11:25:02  608 609	 1492341902	 466619340	 271279.
11:25:02  609 610	 1492341902	 739993006	 273374.
11:25:03  610 611	 1492341903	 15311577	 275318.
11:25:03  611 612	 1492341903	 286993527	 271682.
11:25:03  612 613	 1492341903	 558214115	 271221.
11:25:03  613 614	 1492341903	 830362277	 272148.
11:25:04  614 615	 1492341904	 105728059	 275366.
11:25:04  615 616	 1492341904	 381364671	 275636.
11:25:04  616 617	 1492341904	 653078611	 271714.
11:25:04  617 618	 1492341904	 924398048	 271320.
11:25:05  618 619	 1492341905	 197292334	 272894.
11:25:05  619 620	 1492341905	 472767662	 275475.
11:25:05  620 621	 1492341905	 744323175	 271556.
11:25:06  621 622	 1492341906	 15789092	 271466.
11:25:06  622 623	 1492341906	 291077003	 275288.
11:25:06  623 624	 1492341906	 562355631	 271278.
11:25:06  624 625	 1492341906	 784796952	 222442.
11:25:07  625 626	 1492341907	 56378545	 271581.
11:25:07  626 627	 1492341907	 327897331	 271519.
11:25:07  627 628	 1492341907	 603478022	 275581.
11:25:07  628 629	 1492341907	 925000608	 321522.
11:25:08  629 630	 1492341908	 147330757	 222330.
11:25:08  630 631	 1492341908	 418743190	 271413.
11:25:08  631 632	 1492341908	 694250321	 275507.
11:25:08  632 633	 1492341908	 966052649	 271802.
11:25:09  633 634	 1492341909	 242327755	 276275.
11:25:09  634 635	 1492341909	 514318742	 271991.
11:25:09  635 636	 1492341909	 785866468	 271548.
11:25:10  636 637	 1492341910	 61668269	 275802.
11:25:10  637 638	 1492341910	 333952391	 272284.
11:25:10  638 639	 1492341910	 610306067	 276354.
11:25:10  639 640	 1492341910	 882668208	 272362.
11:25:11  640 641	 1492341911	 154580481	 271912.
11:25:11  641 642	 1492341911	 430603276	 276023.
11:25:11  642 643	 1492341911	 702456919	 271854.
11:25:11  643 644	 1492341911	 974619591	 272162.
11:25:12  644 645	 1492341912	 251012330	 276393.
11:25:12  645 646	 1492341912	 522584175	 271572.
11:25:12  646 647	 1492341912	 745577256	 222993.
11:25:13  647 648	 1492341913	 21575720	 275998.
11:25:13  648 649	 1492341913	 293142488	 271567.
11:25:13  649 650	 1492341913	 565465104	 272323.
11:25:13  650 651	 1492341913	 841198110	 275733.
11:25:14  651 652	 1492341914	 112889356	 271691.
11:25:14  652 653	 1492341914	 335496797	 222608.
11:25:14  653 654	 1492341914	 611547514	 276050.
11:25:14  654 655	 1492341914	 887324769	 275777.
11:25:15  655 656	 1492341915	 159057316	 271733.
11:25:15  656 657	 1492341915	 430446740	 271389.
11:25:15  657 658	 1492341915	 706062703	 275616.
11:25:15  658 659	 1492341915	 977650356	 271588.
11:25:16  659 660	 1492341916	 248929120	 271279.
11:25:16  660 661	 1492341916	 524589735	 275660.
11:25:16  661 662	 1492341916	 796122953	 271534.
11:25:17  662 663	 1492341917	 71594611	 275471.
11:25:17  663 664	 1492341917	 289957483	 218363.
11:25:17  664 665	 1492341917	 565779770	 275822.
11:25:17  665 666	 1492341917	 837212535	 271433.
11:25:18  666 667	 1492341918	 108760787	 271548.
11:25:18  667 668	 1492341918	 385050072	 276290.
11:25:18  668 669	 1492341918	 656950945	 271901.
11:25:18  669 670	 1492341918	 928553740	 271602.
11:25:19  670 671	 1492341919	 199986318	 271433.
11:25:19  671 672	 1492341919	 475661416	 275675.
11:25:19  672 673	 1492341919	 747153466	 271492.
11:25:20  673 674	 1492341920	 18362523	 271209.
11:25:20  674 675	 1492341920	 289834664	 271472.
11:25:20  675 676	 1492341920	 565173448	 275339.
11:25:20  676 677	 1492341920	 836566828	 271394.
11:25:21  677 678	 1492341921	 107988481	 271421.
11:25:21  678 679	 1492341921	 330169429	 222181.
11:25:21  679 680	 1492341921	 605855177	 275686.
11:25:21  680 681	 1492341921	 876852701	 270997.
11:25:22  681 682	 1492341922	 147834899	 270983.
11:25:22  682 683	 1492341922	 418902905	 271068.
11:25:22  683 684	 1492341922	 694207109	 275304.
11:25:22  684 685	 1492341922	 965367042	 271160.
11:25:23  685 686	 1492341923	 240864186	 275497.
11:25:23  686 687	 1492341923	 512260969	 271397.
11:25:23  687 688	 1492341923	 842090815	 329830.
11:25:24  688 689	 1492341924	 113334699	 271243.
11:25:24  689 690	 1492341924	 384823225	 271489.
11:25:24  690 691	 1492341924	 660192114	 275369.
11:25:24  691 692	 1492341924	 931302623	 271110.
11:25:25  692 693	 1492341925	 203125587	 271823.
11:25:25  693 694	 1492341925	 425453299	 222328.
11:25:25  694 695	 1492341925	 701108254	 275655.
11:25:25  695 696	 1492341925	 972678304	 271570.
11:25:26  696 697	 1492341926	 294580357	 321902.
11:25:26  697 698	 1492341926	 572813348	 278233.
11:25:26  698 699	 1492341926	 844453813	 271641.
11:25:27  699 700	 1492341927	 120828979	 276375.
11:25:27  700 701	 1492341927	 397342541	 276513.
11:25:27  701 702	 1492341927	 669643401	 272301.
11:25:27  702 703	 1492341927	 941765799	 272123.
11:25:28  703 704	 1492341928	 218047092	 276281.
11:25:28  704 705	 1492341928	 489559639	 271512.
11:25:28  705 706	 1492341928	 766333439	 276774.
11:25:29  706 707	 1492341929	 37513434	 271180.
11:25:29  707 708	 1492341929	 308683634	 271170.
11:25:29  708 709	 1492341929	 583738886	 275056.
11:25:29  709 710	 1492341929	 856894517	 273155.
11:25:30  710 711	 1492341930	 128374558	 271480.
11:25:30  711 712	 1492341930	 404181019	 275807.
11:25:30  712 713	 1492341930	 675951639	 271770.
11:25:30  713 714	 1492341930	 952304952	 276354.
11:25:31  714 715	 1492341931	 228275305	 275970.
11:25:31  715 716	 1492341931	 500209618	 271934.
11:25:31  716 717	 1492341931	 722789076	 222580.
11:25:31  717 718	 1492341931	 998638434	 275849.
11:25:32  718 719	 1492341932	 270285522	 271647.
11:25:32  719 720	 1492341932	 648739503	 378454.
11:25:32  720 721	 1492341932	 920642897	 271904.
11:25:33  721 722	 1492341933	 196570039	 275927.
11:25:33  722 723	 1492341933	 468868097	 272298.
11:25:33  723 724	 1492341933	 744985088	 276117.
11:25:33  724 725	 1492341933	 967888958	 222904.
11:25:34  725 726	 1492341934	 293781219	 325892.
11:25:34  726 727	 1492341934	 569919107	 276138.
11:25:34  727 728	 1492341934	 841531976	 271613.
11:25:35  728 729	 1492341935	 63795148	 222263.
11:25:35  729 730	 1492341935	 334723874	 270929.
11:25:35  730 731	 1492341935	 660624106	 325900.
11:25:35  731 732	 1492341935	 882976488	 222352.
11:25:36  732 733	 1492341936	 154413028	 271437.
11:25:36  733 734	 1492341936	 430635715	 276222.
11:25:36  734 735	 1492341936	 702781418	 272146.
11:25:36  735 736	 1492341936	 978454980	 275674.
11:25:37  736 737	 1492341937	 254977737	 276523.
11:25:37  737 738	 1492341937	 527151154	 272173.
11:25:37  738 739	 1492341937	 803638248	 276487.
11:25:38  739 740	 1492341938	 77708379	 274070.
11:25:38  740 741	 1492341938	 354285638	 276578.
11:25:38  741 742	 1492341938	 626723750	 272437.
11:25:38  742 743	 1492341938	 903332766	 276609.
11:25:39  743 744	 1492341939	 175613290	 272281.
11:25:39  744 745	 1492341939	 452209319	 276596.
11:25:39  745 746	 1492341939	 724588093	 272379.
11:25:39  746 747	 1492341940	 1365700	 276777.
11:25:40  747 748	 1492341940	 273893326	 272528.
11:25:40  748 749	 1492341940	 546150960	 272258.
11:25:40  749 750	 1492341940	 822631917	 276481.
11:25:41  750 751	 1492341941	 98680590	 276048.
11:25:41  751 752	 1492341941	 370832504	 272152.
11:25:41  752 753	 1492341941	 646535999	 275704.
11:25:41  753 754	 1492341941	 918370604	 271834.
11:25:42  754 755	 1492341942	 189344639	 270974.
11:25:42  755 756	 1492341942	 412460042	 223116.
11:25:42  756 757	 1492341942	 688553272	 276093.
11:25:42  757 758	 1492341942	 960783944	 272231.
11:25:43  758 759	 1492341943	 237505374	 276721.
11:25:43  759 760	 1492341943	 513465787	 275960.
11:25:43  760 761	 1492341943	 785419020	 271954.
11:25:44  761 762	 1492341944	 58625725	 273206.
11:25:44  762 763	 1492341944	 333987491	 275362.
11:25:44  763 764	 1492341944	 605218303	 271231.
11:25:44  764 765	 1492341944	 876394643	 271176.
11:25:45  765 766	 1492341945	 148085996	 271692.
11:25:45  766 767	 1492341945	 419460886	 271375.
11:25:45  767 768	 1492341945	 694761291	 275300.
11:25:45  768 769	 1492341945	 966107699	 271346.
11:25:46  769 770	 1492341946	 188067931	 221961.
11:25:46  770 771	 1492341946	 460004400	 271936.
11:25:46  771 772	 1492341946	 736045603	 276041.
11:25:47  772 773	 1492341947	 8288156	 272243.
11:25:47  773 774	 1492341947	 284260189	 275972.
11:25:47  774 775	 1492341947	 556301674	 272041.
11:25:47  775 776	 1492341947	 832582405	 276281.
11:25:48  776 777	 1492341948	 104934151	 272352.
11:25:48  777 778	 1492341948	 377441266	 272507.
11:25:48  778 779	 1492341948	 653605798	 276164.
11:25:48  779 780	 1492341948	 925546893	 271942.
11:25:49  780 781	 1492341949	 201559079	 276012.
11:25:49  781 782	 1492341949	 473314051	 271755.
11:25:49  782 783	 1492341949	 749335944	 276022.
11:25:50  783 784	 1492341950	 21535089	 272206.
11:25:50  784 785	 1492341950	 297416976	 275875.
11:25:50  785 786	 1492341950	 569224527	 271807.
11:25:50  786 787	 1492341950	 841434634	 272210.
11:25:51  787 788	 1492341951	 117454727	 276020.
11:25:51  788 789	 1492341951	 340350948	 222897.
11:25:51  789 790	 1492341951	 612325227	 271974.
11:25:51  790 791	 1492341951	 888226317	 275901.
11:25:52  791 792	 1492341952	 159999338	 271773.
11:25:52  792 793	 1492341952	 431659529	 271660.
11:25:52  793 794	 1492341952	 707674974	 276016.
11:25:52  794 795	 1492341952	 980037869	 272363.
11:25:53  795 796	 1492341953	 256038463	 276000.
11:25:53  796 797	 1492341953	 527904547	 271866.
11:25:53  797 798	 1492341953	 803671881	 275768.
11:25:54  798 799	 1492341954	 75552996	 271881.
11:25:54  799 800	 1492341954	 298168846	 222616.
11:25:54  800 801	 1492341954	 569771846	 271603.
11:25:54  801 802	 1492341954	 845544256	 275772.
11:25:55  802 803	 1492341955	 117495442	 271951.
11:25:55  803 804	 1492341955	 389543177	 272048.
11:25:55  804 805	 1492341955	 665323558	 275780.
11:25:55  805 806	 1492341955	 937018929	 271696.
11:25:56  806 807	 1492341956	 212514350	 275495.
11:25:56  807 808	 1492341956	 484139467	 271625.
11:25:56  808 809	 1492341956	 759897137	 275758.
11:25:56  809 810	 1492341956	 978131445	 218234.
11:25:57  810 811	 1492341957	 253525379	 275394.
11:25:57  811 812	 1492341957	 525322532	 271797.
11:25:57  812 813	 1492341957	 800639414	 275317.
11:25:58  813 814	 1492341958	 72454776	 271815.
11:25:58  814 815	 1492341958	 344194220	 271740.
11:25:58  815 816	 1492341958	 616185340	 271991.
11:25:58  816 817	 1492341958	 887686415	 271501.
11:25:59  817 818	 1492341959	 159580752	 271894.
11:25:59  818 819	 1492341959	 435583179	 276003.
11:25:59  819 820	 1492341959	 707564274	 271981.
11:26:00  820 821	 1492341960	 37859162	 330295.
11:26:00  821 822	 1492341960	 309271502	 271412.
11:26:00  822 823	 1492341960	 580290481	 271019.
11:26:00  823 824	 1492341960	 855482203	 275192.
11:26:01  824 825	 1492341961	 126956575	 271474.
11:26:01  825 826	 1492341961	 398122575	 271167.
11:26:01  826 827	 1492341961	 674123915	 276001.
11:26:01  827 828	 1492341961	 945360285	 271236.
11:26:02  828 829	 1492341962	 163493455	 218133.
11:26:02  829 830	 1492341962	 438661731	 275168.
11:26:02  830 831	 1492341962	 709720219	 271059.
11:26:02  831 832	 1492341962	 984685553	 274965.
11:26:03  832 833	 1492341963	 255929478	 271244.
11:26:03  833 834	 1492341963	 530911367	 274982.
11:26:03  834 835	 1492341963	 753233268	 222322.
11:26:04  835 836	 1492341964	 24231194	 270998.
11:26:04  836 837	 1492341964	 295470369	 271239.
11:26:04  837 838	 1492341964	 566829076	 271359.
11:26:04  838 839	 1492341964	 838373849	 271545.
11:26:05  839 840	 1492341965	 113763095	 275389.
11:26:05  840 841	 1492341965	 385132751	 271369.
11:26:05  841 842	 1492341965	 656243895	 271112.
11:26:05  842 843	 1492341965	 931543694	 275299.
11:26:06  843 844	 1492341966	 149731606	 218188.
11:26:06  844 845	 1492341966	 425195391	 275464.
11:26:06  845 846	 1492341966	 751560712	 326365.
11:26:07  846 847	 1492341967	 23176426	 271616.
11:26:07  847 848	 1492341967	 245830969	 222655.
11:26:07  848 849	 1492341967	 517602090	 271771.
11:26:07  849 850	 1492341967	 793581504	 275979.
11:26:08  850 851	 1492341968	 65357493	 271776.
11:26:08  851 852	 1492341968	 337326364	 271969.
11:26:08  852 853	 1492341968	 612527025	 275201.
11:26:08  853 854	 1492341968	 883730417	 271203.
11:26:09  854 855	 1492341969	 154537875	 270808.
11:26:09  855 856	 1492341969	 377286762	 222748.
11:26:09  856 857	 1492341969	 653625261	 276339.
11:26:09  857 858	 1492341969	 925831484	 272206.
11:26:10  858 859	 1492341970	 197843640	 272012.
11:26:10  859 860	 1492341970	 474004293	 276161.
11:26:10  860 861	 1492341970	 745339913	 271336.
11:26:11  861 862	 1492341971	 20692550	 275352.
11:26:11  862 863	 1492341971	 292089975	 271398.
11:26:11  863 864	 1492341971	 566710591	 274620.
11:26:11  864 865	 1492341971	 788980388	 222270.
11:26:12  865 866	 1492341972	 60005946	 271026.
11:26:12  866 867	 1492341972	 330947680	 270941.
11:26:12  867 868	 1492341972	 606930906	 275984.
11:26:12  868 869	 1492341972	 883111180	 276180.
11:26:13  869 870	 1492341973	 154776308	 271665.
11:26:13  870 871	 1492341973	 377411530	 222635.
11:26:13  871 872	 1492341973	 703287983	 325877.
11:26:13  872 873	 1492341973	 979130197	 275842.
11:26:14  873 874	 1492341974	 202143676	 223013.
11:26:14  874 875	 1492341974	 474262809	 272120.
11:26:14  875 876	 1492341974	 746101159	 271838.
11:26:15  876 877	 1492341975	 17757706	 271656.
11:26:15  877 878	 1492341975	 293878436	 276121.
11:26:15  878 879	 1492341975	 570095208	 276217.
11:26:15  879 880	 1492341975	 845499477	 275404.
11:26:16  880 881	 1492341976	 68247607	 222748.
11:26:16  881 882	 1492341976	 394097161	 325850.
11:26:16  882 883	 1492341976	 616941712	 222845.
11:26:16  883 884	 1492341976	 888786576	 271844.
11:26:17  884 885	 1492341977	 157137394	 268351.
11:26:17  885 886	 1492341977	 429047923	 271911.
11:26:17  886 887	 1492341977	 705070250	 276022.
11:26:17  887 888	 1492341977	 977024990	 271955.
11:26:18  888 889	 1492341978	 252999746	 275974.
11:26:18  889 890	 1492341978	 525422437	 272423.
11:26:18  890 891	 1492341978	 748309992	 222888.
11:26:19  891 892	 1492341979	 24164250	 275854.
11:26:19  892 893	 1492341979	 296242260	 272078.
11:26:19  893 894	 1492341979	 572087758	 275845.
11:26:19  894 895	 1492341979	 843601284	 271514.
11:26:20  895 896	 1492341980	 114943080	 271342.
11:26:20  896 897	 1492341980	 391207542	 276264.
11:26:20  897 898	 1492341980	 614313648	 223106.
11:26:20  898 899	 1492341980	 886454336	 272141.
11:26:21  899 900	 1492341981	 162746367	 276292.
11:26:21  900 901	 1492341981	 434518473	 271772.
11:26:21  901 902	 1492341981	 710204205	 275686.
11:26:21  902 903	 1492341981	 986301040	 276097.
11:26:22  903 904	 1492341982	 262274519	 275973.
11:26:22  904 905	 1492341982	 534114938	 271841.
11:26:22  905 906	 1492341982	 756693466	 222578.
11:26:23  906 907	 1492341983	 135069307	 378376.
11:26:23  907 908	 1492341983	 410287315	 275218.
11:26:23  908 909	 1492341983	 632981624	 222694.
11:26:23  909 910	 1492341983	 904695059	 271714.
11:26:24  910 911	 1492341984	 176190404	 271495.
11:26:24  911 912	 1492341984	 451948362	 275758.
11:26:24  912 913	 1492341984	 724076610	 272128.
11:26:25  913 914	 1492341985	 1129969	 277054.
11:26:25  914 915	 1492341985	 273000428	 271870.
11:26:25  915 916	 1492341985	 495381120	 222381.
11:26:25  916 917	 1492341985	 766488234	 271107.
11:26:26  917 918	 1492341986	 37785295	 271297.
11:26:26  918 919	 1492341986	 313126205	 275341.
11:26:26  919 920	 1492341986	 585676183	 272550.
11:26:26  920 921	 1492341986	 844016685	 258340.
11:26:27  921 922	 1492341987	 66179803	 222164.
11:26:27  922 923	 1492341987	 341607352	 275427.
11:26:27  923 924	 1492341987	 617039354	 275432.
11:26:27  924 925	 1492341987	 888871952	 271833.
11:26:28  925 926	 1492341988	 166586615	 277714.
11:26:28  926 927	 1492341988	 438110362	 271524.
11:26:28  927 928	 1492341988	 714385436	 276275.
11:26:28  928 929	 1492341988	 990783387	 276398.
11:26:29  929 930	 1492341989	 213344808	 222562.
11:26:29  930 931	 1492341989	 485270267	 271925.
11:26:29  931 932	 1492341989	 761284361	 276014.
11:26:30  932 933	 1492341990	 33465394	 272181.
11:26:30  933 934	 1492341990	 305029041	 271564.
11:26:30  934 935	 1492341990	 581004841	 275976.
11:26:30  935 936	 1492341990	 853019787	 272014.
11:26:31  936 937	 1492341991	 75877352	 222858.
11:26:31  937 938	 1492341991	 352351684	 276474.
11:26:31  938 939	 1492341991	 678518815	 326168.
11:26:31  939 940	 1492341991	 954863879	 276345.
11:26:32  940 941	 1492341992	 177564801	 222701.
11:26:32  941 942	 1492341992	 449570029	 272005.
11:26:32  942 943	 1492341992	 725752250	 276182.
11:26:33  943 944	 1492341993	 2035322	 276283.
11:26:33  944 945	 1492341993	 273560689	 271525.
11:26:33  945 946	 1492341993	 545277355	 271717.
11:26:33  946 947	 1492341993	 768392038	 223115.
11:26:34  947 948	 1492341994	 44007709	 275615.
11:26:34  948 949	 1492341994	 319792952	 275786.
11:26:34  949 950	 1492341994	 591585685	 271792.
11:26:34  950 951	 1492341994	 867835704	 276250.
11:26:35  951 952	 1492341995	 139571472	 271736.
11:26:35  952 953	 1492341995	 414998724	 275427.
11:26:35  953 954	 1492341995	 638029007	 223031.
11:26:35  954 955	 1492341995	 913906755	 275877.
11:26:36  955 956	 1492341996	 236466365	 322560.
11:26:36  956 957	 1492341996	 463578124	 227112.
11:26:36  957 958	 1492341996	 735165858	 271588.
11:26:37  958 959	 1492341997	 10556962	 275391.
11:26:37  959 960	 1492341997	 282074724	 271517.
11:26:37  960 961	 1492341997	 557585482	 275511.
11:26:37  961 962	 1492341997	 780330254	 222745.
11:26:38  962 963	 1492341998	 52264536	 271934.
11:26:38  963 964	 1492341998	 328451155	 276187.
11:26:38  964 965	 1492341998	 600337702	 271886.
11:26:38  965 966	 1492341998	 876509180	 276172.
11:26:39  966 967	 1492341999	 148324654	 271815.
11:26:39  967 968	 1492341999	 424144011	 275820.
11:26:39  968 969	 1492341999	 696123496	 271979.
11:26:40  969 970	 1492342000	 25817637	 329694.
11:26:40  970 971	 1492342000	 248532437	 222715.
11:26:40  971 972	 1492342000	 520222301	 271690.
11:26:40  972 973	 1492342000	 795858985	 275637.
11:26:41  973 974	 1492342001	 67414690	 271555.
11:26:41  974 975	 1492342001	 344375270	 276961.
11:26:41  975 976	 1492342001	 615823045	 271448.
11:26:41  976 977	 1492342001	 891558511	 275735.
11:26:42  977 978	 1492342002	 163857315	 272299.
11:26:42  978 979	 1492342002	 386411911	 222555.
11:26:42  979 980	 1492342002	 662497112	 276085.
11:26:42  980 981	 1492342002	 934241325	 271744.
11:26:43  981 982	 1492342003	 211834119	 277593.
11:26:43  982 983	 1492342003	 484021410	 272187.
11:26:43  983 984	 1492342003	 755952107	 271931.
11:26:44  984 985	 1492342004	 32374886	 276423.
11:26:44  985 986	 1492342004	 304050508	 271675.
11:26:44  986 987	 1492342004	 579815777	 275765.
11:26:44  987 988	 1492342004	 840793274	 260978.
11:26:45  988 989	 1492342005	 117005453	 276212.
11:26:45  989 990	 1492342005	 392728060	 275723.
11:26:45  990 991	 1492342005	 611504837	 218777.
11:26:45  991 992	 1492342005	 887117290	 275612.
11:26:46  992 993	 1492342006	 163004396	 275887.
11:26:46  993 994	 1492342006	 434889308	 271885.
11:26:46  994 995	 1492342006	 710863046	 275974.
11:26:46  995 996	 1492342006	 933610378	 222747.
11:26:47  996 997	 1492342007	 205454286	 271844.
11:26:47  997 998	 1492342007	 481447795	 275994.
11:26:47  998 999	 1492342007	 753387136	 271939.
11:26:48  999 1000	 1492342008	 29331774	 275945.
11:26:48 1000 1001	 1492342008	 300849293	 271517.
11:26:48 1001 1002	 1492342008	 523515674	 222666.
11:26:48 1002 1003	 1492342008	 799374649	 275859.
11:26:49 1003 1004	 1492342009	 71003714	 271629.
11:26:49 1004 1005	 1492342009	 347100502	 276097.
11:26:49 1005 1006	 1492342009	 619184226	 272084.
11:26:49 1006 1007	 1492342009	 896761069	 277577.
11:26:50 1007 1008	 1492342010	 168780975	 272020.
11:26:50 1008 1009	 1492342010	 444766802	 275986.
11:26:50 1009 1010	 1492342010	 716771252	 272004.
11:26:50 1010 1011	 1492342010	 992676971	 275906.
11:26:51 1011 1012	 1492342011	 215786539	 223109.
11:26:51 1012 1013	 1492342011	 487895186	 272109.
11:26:51 1013 1014	 1492342011	 764372726	 276478.
11:26:52 1014 1015	 1492342012	 36195706	 271822.
11:26:52 1015 1016	 1492342012	 312081297	 275886.
11:26:52 1016 1017	 1492342012	 584087405	 272006.
11:26:52 1017 1018	 1492342012	 856191276	 272104.
11:26:53 1018 1019	 1492342013	 132174538	 275983.
11:26:53 1019 1020	 1492342013	 350776697	 218602.
11:26:53 1020 1021	 1492342013	 626542410	 275766.
11:26:53 1021 1022	 1492342013	 898405496	 271863.
11:26:54 1022 1023	 1492342014	 174627049	 276222.
11:26:54 1023 1024	 1492342014	 448086448	 273459.
11:26:54 1024 1025	 1492342014	 724225165	 276139.
11:26:54 1025 1026	 1492342014	 996478321	 272253.
11:26:55 1026 1027	 1492342015	 272200796	 275723.
11:26:55 1027 1028	 1492342015	 544509497	 272308.
11:26:55 1028 1029	 1492342015	 815693529	 271184.
11:26:56 1029 1030	 1492342016	 91158147	 275465.
11:26:56 1030 1031	 1492342016	 363213195	 272055.
11:26:56 1031 1032	 1492342016	 586230626	 223017.
11:26:56 1032 1033	 1492342016	 862150257	 275920.
11:26:57 1033 1034	 1492342017	 133948096	 271798.
11:26:57 1034 1035	 1492342017	 409232768	 275284.
11:26:57 1035 1036	 1492342017	 680298482	 271066.
11:26:57 1036 1037	 1492342017	 902828389	 222530.
11:26:58 1037 1038	 1492342018	 178431565	 275603.
11:26:58 1038 1039	 1492342018	 453965888	 275535.
11:26:58 1039 1040	 1492342018	 725381103	 271415.
11:26:58 1040 1041	 1492342018	 947684584	 222303.
11:26:59 1041 1042	 1492342019	 223353375	 275669.
11:26:59 1042 1043	 1492342019	 494830161	 271477.
11:26:59 1043 1044	 1492342019	 771089967	 276260.
11:26:59 1044 1045	 1492342019	 993694406	 222604.
11:27:00 1045 1046	 1492342020	 264924046	 271230.
11:27:00 1046 1047	 1492342020	 535942337	 271018.
11:27:00 1047 1048	 1492342020	 810940906	 274999.
11:27:01 1048 1049	 1492342021	 77799857	 266859.
11:27:01 1049 1050	 1492342021	 353134112	 275334.
11:27:01 1050 1051	 1492342021	 624736555	 271602.
11:27:01 1051 1052	 1492342021	 900319601	 275583.
11:27:02 1052 1053	 1492342022	 171737816	 271419.
11:27:02 1053 1054	 1492342022	 443208642	 271470.
11:27:02 1054 1055	 1492342022	 665420695	 222212.
11:27:02 1055 1056	 1492342022	 936715934	 271296.
11:27:03 1056 1057	 1492342023	 212075362	 275359.
11:27:03 1057 1058	 1492342023	 483137544	 271062.
11:27:03 1058 1059	 1492342023	 754193899	 271057.
11:27:04 1059 1060	 1492342024	 29846825	 275653.
11:27:04 1060 1061	 1492342024	 301282154	 271435.
11:27:04 1061 1062	 1492342024	 572662219	 271380.
11:27:04 1062 1063	 1492342024	 795425545	 222763.
11:27:05 1063 1064	 1492342025	 71081634	 275656.
11:27:05 1064 1065	 1492342025	 342427183	 271346.
11:27:05 1065 1066	 1492342025	 613645539	 271218.
11:27:05 1066 1067	 1492342025	 888805251	 275160.
11:27:06 1067 1068	 1492342026	 160163698	 271358.
11:27:06 1068 1069	 1492342026	 435416717	 275253.
11:27:06 1069 1070	 1492342026	 657962229	 222546.
11:27:06 1070 1071	 1492342026	 929261469	 271299.
11:27:07 1071 1072	 1492342027	 205254250	 275993.
11:27:07 1072 1073	 1492342027	 476626149	 271372.
11:27:07 1073 1074	 1492342027	 752542429	 275916.
11:27:07 1074 1075	 1492342027	 975357739	 222815.
11:27:08 1075 1076	 1492342028	 247195204	 271838.
11:27:08 1076 1077	 1492342028	 522280333	 275085.
11:27:08 1077 1078	 1492342028	 793622992	 271343.
11:27:09 1078 1079	 1492342029	 68768605	 275145.
11:27:09 1079 1080	 1492342029	 286688427	 217920.
11:27:09 1080 1081	 1492342029	 562284790	 275596.
11:27:09 1081 1082	 1492342029	 833249627	 270965.
11:27:10 1082 1083	 1492342030	 104741214	 271492.
11:27:10 1083 1084	 1492342030	 380306678	 275565.
11:27:10 1084 1085	 1492342030	 652945084	 272639.
11:27:10 1085 1086	 1492342030	 981725770	 328780.
11:27:11 1086 1087	 1492342031	 258636117	 276911.
11:27:11 1087 1088	 1492342031	 531426236	 272790.
11:27:11 1088 1089	 1492342031	 807865914	 276440.
11:27:12 1089 1090	 1492342032	 79770898	 271905.
11:27:12 1090 1091	 1492342032	 355674135	 275903.
11:27:12 1091 1092	 1492342032	 629534638	 273860.
11:27:12 1092 1093	 1492342032	 900981624	 271447.
11:27:13 1093 1094	 1492342033	 176332657	 275351.
11:27:13 1094 1095	 1492342033	 447981084	 271649.
11:27:13 1095 1096	 1492342033	 719180329	 271199.
11:27:13 1096 1097	 1492342033	 994331165	 275151.
11:27:14 1097 1098	 1492342034	 266831268	 272500.
11:27:14 1098 1099	 1492342034	 542834403	 276003.
11:27:14 1099 1100	 1492342034	 818833709	 275999.
11:27:15 1100 1101	 1492342035	 90780732	 271947.
11:27:15 1101 1102	 1492342035	 366954091	 276174.
11:27:15 1102 1103	 1492342035	 639307392	 272353.
11:27:15 1103 1104	 1492342035	 915461209	 276154.
11:27:16 1104 1105	 1492342036	 187526821	 272066.
11:27:16 1105 1106	 1492342036	 410746706	 223219.
11:27:16 1106 1107	 1492342036	 686529306	 275783.
11:27:17 1107 1108	 1492342037	 12944147	 326415.
11:27:17 1108 1109	 1492342037	 235916328	 222972.
11:27:17 1109 1110	 1492342037	 511827087	 275911.
11:27:17 1110 1111	 1492342037	 784070262	 272243.
11:27:18 1111 1112	 1492342038	 60053646	 275983.
