16:40:50    0 Step	 time(s)	 time(ns)	 delta(ms)
16:40:50    0 1	 1492360850	 391950105	 931.
16:40:50    1 2	 1492360850	 663864836	 271914.
16:40:50    2 3	 1492360850	 935157390	 271293.
16:40:51    3 4	 1492360851	 209662490	 274505.
16:40:51    4 5	 1492360851	 481076580	 271414.
16:40:51    5 6	 1492360851	 703482293	 222406.
16:40:51    6 7	 1492360851	 979237204	 275755.
16:40:52    7 8	 1492360852	 254949285	 275712.
16:40:52    8 9	 1492360852	 526628868	 271680.
16:40:52    9 10	 1492360852	 749076205	 222447.
16:40:53   10 11	 1492360853	 20228101	 271152.
16:40:53   11 12	 1492360853	 295369786	 275141.
16:40:53   12 13	 1492360853	 517537258	 222168.
16:40:53   13 14	 1492360853	 789335308	 271798.
16:40:54   14 15	 1492360854	 64743230	 275408.
16:40:54   15 16	 1492360854	 336276072	 271533.
16:40:54   16 17	 1492360854	 611772831	 275497.
16:40:54   17 18	 1492360854	 829811337	 218038.
16:40:55   18 19	 1492360855	 104862043	 275051.
16:40:55   19 20	 1492360855	 375975003	 271113.
16:40:55   20 21	 1492360855	 651677644	 275702.
16:40:55   21 22	 1492360855	 923211369	 271534.
16:40:56   22 23	 1492360856	 194073288	 270862.
16:40:56   23 24	 1492360856	 469069767	 274996.
16:40:56   24 25	 1492360856	 692048767	 222979.
16:40:56   25 26	 1492360856	 963950938	 271903.
16:40:57   26 27	 1492360857	 239608185	 275657.
16:40:57   27 28	 1492360857	 510991787	 271383.
16:40:57   28 29	 1492360857	 787073578	 276082.
16:40:58   29 30	 1492360858	 59342380	 272269.
16:40:58   30 31	 1492360858	 282035285	 222693.
16:40:58   31 32	 1492360858	 558345870	 276311.
16:40:58   32 33	 1492360858	 830454272	 272108.
16:40:59   33 34	 1492360859	 106982496	 276528.
16:40:59   34 35	 1492360859	 382976338	 275994.
16:40:59   35 36	 1492360859	 655366994	 272391.
16:40:59   36 37	 1492360859	 927337587	 271970.
16:41:00   37 38	 1492360860	 203656383	 276319.
16:41:00   38 39	 1492360860	 480096242	 276440.
16:41:00   39 40	 1492360860	 703628693	 223532.
16:41:00   40 41	 1492360860	 975846830	 272219.
16:41:01   41 42	 1492360861	 247082850	 271236.
16:41:01   42 43	 1492360861	 522842364	 275759.
16:41:01   43 44	 1492360861	 794017662	 271175.
16:41:02   44 45	 1492360862	 65546938	 271530.
16:41:02   45 46	 1492360862	 340932722	 275385.
16:41:02   46 47	 1492360862	 612409702	 271477.
16:41:02   47 48	 1492360862	 883707665	 271298.
16:41:03   48 49	 1492360863	 159032363	 275325.
16:41:03   49 50	 1492360863	 430426328	 271396.
16:41:03   50 51	 1492360863	 701736152	 271308.
16:41:03   51 52	 1492360863	 923923546	 222187.
16:41:04   52 53	 1492360864	 199274975	 275352.
16:41:04   53 54	 1492360864	 470734062	 271459.
16:41:04   54 55	 1492360864	 746480151	 275746.
16:41:05   55 56	 1492360865	 17663625	 271183.
16:41:05   56 57	 1492360865	 292991208	 275328.
16:41:05   57 58	 1492360865	 515196055	 222205.
16:41:05   58 59	 1492360865	 786670431	 271474.
16:41:06   59 60	 1492360866	 58082982	 271413.
16:41:06   60 61	 1492360866	 333744036	 275661.
16:41:06   61 62	 1492360866	 605194559	 271450.
16:41:06   62 63	 1492360866	 880592807	 275399.
16:41:07   63 64	 1492360867	 152317703	 271724.
16:41:07   64 65	 1492360867	 428331579	 276014.
16:41:07   65 66	 1492360867	 651187543	 222856.
16:41:07   66 67	 1492360867	 922760633	 271573.
16:41:08   67 68	 1492360868	 198332104	 275572.
16:41:08   68 69	 1492360868	 420413101	 222081.
16:41:08   69 70	 1492360868	 691855150	 271442.
16:41:08   70 71	 1492360868	 967698602	 275843.
16:41:09   71 72	 1492360869	 239670023	 271972.
16:41:09   72 73	 1492360869	 515381484	 275711.
16:41:09   73 74	 1492360869	 738147217	 222766.
16:41:10   74 75	 1492360870	 9506460	 271359.
16:41:10   75 76	 1492360870	 285334361	 275828.
16:41:10   76 77	 1492360870	 557343610	 272009.
16:41:10   77 78	 1492360870	 833165834	 275823.
16:41:11   78 79	 1492360871	 105132028	 271966.
16:41:11   79 80	 1492360871	 381133462	 276001.
16:41:11   80 81	 1492360871	 653705179	 272572.
16:41:11   81 82	 1492360871	 877082541	 223377.
16:41:12   82 83	 1492360872	 153447396	 276365.
16:41:12   83 84	 1492360872	 425920723	 272473.
16:41:12   84 85	 1492360872	 702418022	 276498.
16:41:12   85 86	 1492360872	 974081177	 271663.
16:41:13   86 87	 1492360873	 245780984	 271700.
16:41:13   87 88	 1492360873	 517159557	 271378.
16:41:13   88 89	 1492360873	 792749605	 275590.
16:41:14   89 90	 1492360874	 63943163	 271194.
16:41:14   90 91	 1492360874	 338704769	 274761.
16:41:14   91 92	 1492360874	 609917182	 271213.
16:41:14   92 93	 1492360874	 880994011	 271077.
16:41:15   93 94	 1492360875	 156451178	 275457.
16:41:15   94 95	 1492360875	 428648967	 272198.
16:41:15   95 96	 1492360875	 651636951	 222988.
16:41:15   96 97	 1492360875	 927291555	 275654.
16:41:16   97 98	 1492360876	 198924690	 271633.
16:41:16   98 99	 1492360876	 474626152	 275702.
16:41:16   99 100	 1492360876	 746115217	 271489.
16:41:16  100 101	 1492360876	 968610769	 222495.
16:41:17  101 102	 1492360877	 243651419	 275041.
16:41:17  102 103	 1492360877	 518992008	 275341.
16:41:17  103 104	 1492360877	 741551879	 222560.
16:41:18  104 105	 1492360878	 17005123	 275453.
16:41:18  105 106	 1492360878	 292363286	 275358.
16:41:18  106 107	 1492360878	 514684665	 222321.
16:41:18  107 108	 1492360878	 790820989	 276137.
16:41:19  108 109	 1492360879	 62676448	 271855.
16:41:19  109 110	 1492360879	 334735139	 272059.
16:41:19  110 111	 1492360879	 610966128	 276231.
16:41:19  111 112	 1492360879	 886505612	 275539.
16:41:20  112 113	 1492360880	 109162313	 222657.
16:41:20  113 114	 1492360880	 380666381	 271504.
16:41:20  114 115	 1492360880	 656546475	 275880.
16:41:20  115 116	 1492360880	 928303195	 271757.
16:41:21  116 117	 1492360881	 203618583	 275315.
16:41:21  117 118	 1492360881	 421413060	 217795.
16:41:21  118 119	 1492360881	 696008774	 274595.
16:41:21  119 120	 1492360881	 967758183	 271750.
16:41:22  120 121	 1492360882	 243475695	 275717.
16:41:22  121 122	 1492360882	 514887021	 271412.
16:41:22  122 123	 1492360882	 741498178	 226611.
16:41:23  123 124	 1492360883	 13317192	 271819.
16:41:23  124 125	 1492360883	 289116164	 275799.
16:41:23  125 126	 1492360883	 560830307	 271714.
16:41:23  126 127	 1492360883	 836455051	 275625.
16:41:24  127 128	 1492360884	 59222023	 222767.
16:41:24  128 129	 1492360884	 330930392	 271708.
16:41:24  129 130	 1492360884	 607040314	 276110.
16:41:24  130 131	 1492360884	 878359529	 271319.
16:41:25  131 132	 1492360885	 100742560	 222383.
16:41:25  132 133	 1492360885	 376672095	 275930.
16:41:25  133 134	 1492360885	 648317450	 271645.
16:41:25  134 135	 1492360885	 924449381	 276132.
16:41:26  135 136	 1492360886	 196324476	 271875.
16:41:26  136 137	 1492360886	 472197572	 275873.
16:41:26  137 138	 1492360886	 694735043	 222538.
16:41:26  138 139	 1492360886	 970382575	 275647.
16:41:27  139 140	 1492360887	 241763515	 271381.
16:41:27  140 141	 1492360887	 517594544	 275831.
16:41:27  141 142	 1492360887	 740275482	 222681.
16:41:28  142 143	 1492360888	 11733344	 271458.
16:41:28  143 144	 1492360888	 287298079	 275565.
16:41:28  144 145	 1492360888	 558798436	 271500.
16:41:28  145 146	 1492360888	 829764285	 270966.
16:41:29  146 147	 1492360889	 51805122	 222041.
16:41:29  147 148	 1492360889	 327302269	 275497.
16:41:29  148 149	 1492360889	 598176827	 270875.
16:41:29  149 150	 1492360889	 869319078	 271142.
16:41:30  150 151	 1492360890	 144344243	 275025.
16:41:30  151 152	 1492360890	 415197753	 270853.
16:41:30  152 153	 1492360890	 685798807	 270602.
16:41:30  153 154	 1492360890	 908057084	 222258.
16:41:31  154 155	 1492360891	 179525027	 271468.
16:41:31  155 156	 1492360891	 455362324	 275837.
16:41:31  156 157	 1492360891	 727590759	 272228.
16:41:32  157 158	 1492360892	 3290917	 275701.
16:41:32  158 159	 1492360892	 275606363	 272315.
16:41:32  159 160	 1492360892	 551680739	 276074.
16:41:32  160 161	 1492360892	 823807624	 272127.
16:41:33  161 162	 1492360893	 46646591	 222839.
16:41:33  162 163	 1492360893	 322889299	 276243.
16:41:33  163 164	 1492360893	 594548359	 271659.
16:41:33  164 165	 1492360893	 870559336	 276011.
16:41:34  165 166	 1492360894	 147132962	 276574.
16:41:34  166 167	 1492360894	 419374778	 272241.
16:41:34  167 168	 1492360894	 695731281	 276357.
16:41:34  168 169	 1492360894	 918278208	 222547.
16:41:35  169 170	 1492360895	 194275405	 275997.
16:41:35  170 171	 1492360895	 466376662	 272101.
16:41:35  171 172	 1492360895	 742111542	 275735.
16:41:36  172 173	 1492360896	 13528692	 271417.
16:41:36  173 174	 1492360896	 235871714	 222343.
16:41:36  174 175	 1492360896	 511788373	 275917.
16:41:36  175 176	 1492360896	 787378501	 275590.
16:41:37  176 177	 1492360897	 58687990	 271310.
16:41:37  177 178	 1492360897	 281026089	 222338.
16:41:37  178 179	 1492360897	 556394393	 275368.
16:41:37  179 180	 1492360897	 827950486	 271556.
16:41:38  180 181	 1492360898	 103390675	 275440.
16:41:38  181 182	 1492360898	 326164311	 222774.
16:41:38  182 183	 1492360898	 598106450	 271942.
16:41:38  183 184	 1492360898	 874202993	 276097.
16:41:39  184 185	 1492360899	 149989798	 275787.
16:41:39  185 186	 1492360899	 421736511	 271746.
16:41:39  186 187	 1492360899	 644343311	 222607.
16:41:39  187 188	 1492360899	 920043978	 275701.
16:41:40  188 189	 1492360900	 191520724	 271476.
16:41:40  189 190	 1492360900	 467341939	 275822.
16:41:40  190 191	 1492360900	 689695094	 222353.
16:41:40  191 192	 1492360900	 961244036	 271549.
16:41:41  192 193	 1492360901	 232310006	 271066.
16:41:41  193 194	 1492360901	 508950786	 276640.
16:41:41  194 195	 1492360901	 781208324	 272258.
16:41:42  195 196	 1492360902	 57730543	 276522.
16:41:42  196 197	 1492360902	 329926036	 272196.
16:41:42  197 198	 1492360902	 606466118	 276540.
16:41:42  198 199	 1492360902	 878578917	 272113.
16:41:43  199 200	 1492360903	 154785484	 276206.
16:41:43  200 201	 1492360903	 426796129	 272011.
16:41:43  201 202	 1492360903	 702972808	 276177.
16:41:43  202 203	 1492360903	 925701096	 222728.
16:41:44  203 204	 1492360904	 201275927	 275575.
16:41:44  204 205	 1492360904	 472655884	 271380.
16:41:44  205 206	 1492360904	 748867301	 276211.
16:41:45  206 207	 1492360905	 20682608	 271815.
16:41:45  207 208	 1492360905	 291931277	 271249.
16:41:45  208 209	 1492360905	 514208972	 222278.
16:41:45  209 210	 1492360905	 789769996	 275561.
16:41:46  210 211	 1492360906	 61676702	 271906.
16:41:46  211 212	 1492360906	 337403565	 275727.
16:41:46  212 213	 1492360906	 609485039	 272082.
16:41:46  213 214	 1492360906	 885146757	 275661.
16:41:47  214 215	 1492360907	 107657945	 222512.
16:41:47  215 216	 1492360907	 379355400	 271697.
16:41:47  216 217	 1492360907	 655024386	 275669.
16:41:47  217 218	 1492360907	 927145119	 272121.
16:41:48  218 219	 1492360908	 202327726	 275182.
16:41:48  219 220	 1492360908	 424941279	 222614.
16:41:48  220 221	 1492360908	 696782780	 271841.
16:41:48  221 222	 1492360908	 972236527	 275454.
16:41:49  222 223	 1492360909	 243543416	 271307.
16:41:49  223 224	 1492360909	 519578399	 276035.
16:41:49  224 225	 1492360909	 742272341	 222694.
16:41:50  225 226	 1492360910	 18312296	 276040.
16:41:50  226 227	 1492360910	 289606491	 271294.
16:41:50  227 228	 1492360910	 560864456	 271258.
16:41:50  228 229	 1492360910	 783240276	 222376.
16:41:51  229 230	 1492360911	 59822272	 276582.
16:41:51  230 231	 1492360911	 319222498	 259400.
16:41:51  231 232	 1492360911	 591049533	 271827.
16:41:51  232 233	 1492360911	 867028411	 275979.
16:41:52  233 234	 1492360912	 138086790	 271058.
16:41:52  234 235	 1492360912	 409027832	 270942.
16:41:52  235 236	 1492360912	 631318657	 222290.
16:41:52  236 237	 1492360912	 907308402	 275990.
16:41:53  237 238	 1492360913	 178795740	 271487.
16:41:53  238 239	 1492360913	 454542328	 275747.
16:41:53  239 240	 1492360913	 726379862	 271838.
16:41:53  240 241	 1492360913	 953393350	 227013.
16:41:54  241 242	 1492360914	 225674407	 272281.
16:41:54  242 243	 1492360914	 501846538	 276172.
16:41:54  243 244	 1492360914	 773707628	 271861.
16:41:55  244 245	 1492360915	 49740206	 276033.
16:41:55  245 246	 1492360915	 321506958	 271767.
16:41:55  246 247	 1492360915	 597891242	 276384.
16:41:55  247 248	 1492360915	 870067262	 272176.
16:41:56  248 249	 1492360916	 97444168	 227377.
16:41:56  249 250	 1492360916	 369177656	 271733.
16:41:56  250 251	 1492360916	 645203590	 276026.
16:41:56  251 252	 1492360916	 916873177	 271670.
16:41:57  252 253	 1492360917	 188357584	 271484.
16:41:57  253 254	 1492360917	 415155944	 226799.
16:41:57  254 255	 1492360917	 687211990	 272056.
16:41:57  255 256	 1492360917	 962697267	 275485.
16:41:58  256 257	 1492360918	 234247836	 271551.
16:41:58  257 258	 1492360918	 510056451	 275808.
16:41:58  258 259	 1492360918	 732855994	 222800.
16:41:58  259 260	 1492360919	 4591474	 271735.
16:41:59  260 261	 1492360919	 280030378	 275439.
16:41:59  261 262	 1492360919	 551581702	 271551.
16:41:59  262 263	 1492360919	 777812095	 226231.
16:42:00  263 264	 1492360920	 48608600	 270796.
16:42:00  264 265	 1492360920	 320332263	 271724.
16:42:00  265 266	 1492360920	 596168070	 275836.
16:42:00  266 267	 1492360920	 872145595	 275977.
16:42:01  267 268	 1492360921	 94859416	 222714.
16:42:01  268 269	 1492360921	 365862163	 271003.
16:42:01  269 270	 1492360921	 636907509	 271045.
16:42:01  270 271	 1492360921	 912242969	 275336.
16:42:02  271 272	 1492360922	 183702175	 271459.
16:42:02  272 273	 1492360922	 455271499	 271569.
16:42:02  273 274	 1492360922	 730954262	 275683.
16:42:02  274 275	 1492360923	 2429372	 271475.
16:42:03  275 276	 1492360923	 278010628	 275581.
16:42:03  276 277	 1492360923	 549669382	 271659.
16:42:03  277 278	 1492360923	 772134447	 222465.
16:42:04  278 279	 1492360924	 43107892	 270974.
16:42:04  279 280	 1492360924	 318341961	 275234.
16:42:04  280 281	 1492360924	 589600992	 271259.
16:42:04  281 282	 1492360924	 860700094	 271099.
16:42:05  282 283	 1492360925	 135867353	 275167.
16:42:05  283 284	 1492360925	 358187847	 222321.
16:42:05  284 285	 1492360925	 629694097	 271506.
16:42:05  285 286	 1492360925	 905249712	 275555.
16:42:06  286 287	 1492360926	 176791368	 271542.
16:42:06  287 288	 1492360926	 448296286	 271505.
16:42:06  288 289	 1492360926	 723715574	 275419.
16:42:06  289 290	 1492360926	 994776688	 271061.
16:42:07  290 291	 1492360927	 217044744	 222268.
16:42:07  291 292	 1492360927	 492269896	 275226.
16:42:07  292 293	 1492360927	 763612806	 271342.
16:42:08  293 294	 1492360928	 38896943	 275285.
16:42:08  294 295	 1492360928	 309701178	 270815.
16:42:08  295 296	 1492360928	 584871777	 275159.
16:42:08  296 297	 1492360928	 856088540	 271217.
16:42:09  297 298	 1492360929	 79038336	 222950.
16:42:09  298 299	 1492360929	 355148816	 276111.
16:42:09  299 300	 1492360929	 631640296	 276491.
16:42:09  300 301	 1492360929	 903671416	 272031.
16:42:10  301 302	 1492360930	 179900665	 276229.
16:42:10  302 303	 1492360930	 452171440	 272271.
16:42:10  303 304	 1492360930	 728203256	 276032.
16:42:10  304 305	 1492360930	 999957567	 271754.
16:42:11  305 306	 1492360931	 275925200	 275968.
16:42:11  306 307	 1492360931	 498884858	 222960.
16:42:11  307 308	 1492360931	 770884889	 272000.
16:42:12  308 309	 1492360932	 46855067	 275970.
16:42:12  309 310	 1492360932	 318714809	 271859.
16:42:12  310 311	 1492360932	 594845576	 276131.
16:42:12  311 312	 1492360932	 866926967	 272082.
16:42:13  312 313	 1492360933	 89217375	 222290.
16:42:13  313 314	 1492360933	 364699236	 275482.
16:42:13  314 315	 1492360933	 635764480	 271065.
16:42:13  315 316	 1492360933	 911260035	 275496.
16:42:14  316 317	 1492360934	 182895095	 271635.
16:42:14  317 318	 1492360934	 405602287	 222707.
16:42:14  318 319	 1492360934	 681397253	 275795.
16:42:14  319 320	 1492360934	 953425012	 272028.
16:42:15  320 321	 1492360935	 228829278	 275404.
16:42:15  321 322	 1492360935	 500498629	 271669.
16:42:15  322 323	 1492360935	 771758423	 271260.
16:42:15  323 324	 1492360935	 998428429	 226670.
16:42:16  324 325	 1492360936	 269405087	 270977.
16:42:16  325 326	 1492360936	 540161514	 270756.
16:42:16  326 327	 1492360936	 811044795	 270883.
16:42:17  327 328	 1492360937	 86205760	 275161.
16:42:17  328 329	 1492360937	 304277753	 218072.
16:42:17  329 330	 1492360937	 579719706	 275443.
16:42:17  330 331	 1492360937	 851134433	 271414.
16:42:18  331 332	 1492360938	 127329340	 276195.
16:42:18  332 333	 1492360938	 403402089	 276073.
16:42:18  333 334	 1492360938	 675932977	 272531.
16:42:18  334 335	 1492360938	 952299579	 276366.
16:42:19  335 336	 1492360939	 224465552	 272166.
16:42:19  336 337	 1492360939	 495919554	 271454.
16:42:19  337 338	 1492360939	 718811093	 222892.
16:42:19  338 339	 1492360939	 994941339	 276130.
16:42:20  339 340	 1492360940	 266615365	 271674.
16:42:20  340 341	 1492360940	 542921154	 276306.
16:42:20  341 342	 1492360940	 814343973	 271423.
16:42:21  342 343	 1492360941	 85391115	 271047.
16:42:21  343 344	 1492360941	 360627734	 275236.
16:42:21  344 345	 1492360941	 632012175	 271385.
16:42:21  345 346	 1492360941	 903661212	 271649.
16:42:22  346 347	 1492360942	 179459641	 275798.
16:42:22  347 348	 1492360942	 402606994	 223148.
16:42:22  348 349	 1492360942	 674394427	 271787.
16:42:22  349 350	 1492360942	 945905891	 271512.
16:42:23  350 351	 1492360943	 221727058	 275821.
16:42:23  351 352	 1492360943	 493217630	 271490.
16:42:23  352 353	 1492360943	 769573569	 276356.
16:42:24  353 354	 1492360944	 45366655	 275793.
16:42:24  354 355	 1492360944	 317122942	 271757.
16:42:24  355 356	 1492360944	 539867318	 222744.
16:42:24  356 357	 1492360944	 815736372	 275869.
16:42:25  357 358	 1492360945	 87154398	 271418.
16:42:25  358 359	 1492360945	 362856286	 275702.
16:42:25  359 360	 1492360945	 585588234	 222732.
16:42:25  360 361	 1492360945	 857084088	 271496.
16:42:26  361 362	 1492360946	 132582159	 275498.
16:42:26  362 363	 1492360946	 403731331	 271149.
16:42:26  363 364	 1492360946	 679909213	 276178.
16:42:26  364 365	 1492360946	 902336279	 222427.
16:42:27  365 366	 1492360947	 177489959	 275154.
16:42:27  366 367	 1492360947	 448965756	 271475.
16:42:27  367 368	 1492360947	 724581451	 275616.
16:42:27  368 369	 1492360947	 947116101	 222535.
16:42:28  369 370	 1492360948	 218527687	 271411.
16:42:28  370 371	 1492360948	 494130014	 275603.
16:42:28  371 372	 1492360948	 770188139	 276058.
16:42:29  372 373	 1492360949	 42101669	 271913.
16:42:29  373 374	 1492360949	 264663634	 222562.
16:42:29  374 375	 1492360949	 540299990	 275637.
16:42:29  375 376	 1492360949	 811919259	 271619.
16:42:30  376 377	 1492360950	 87542296	 275623.
16:42:30  377 378	 1492360950	 310290550	 222748.
16:42:30  378 379	 1492360950	 582120579	 271830.
16:42:30  379 380	 1492360950	 857663196	 275543.
16:42:31  380 381	 1492360951	 129330835	 271668.
16:42:31  381 382	 1492360951	 405188268	 275857.
16:42:31  382 383	 1492360951	 681110330	 275922.
16:42:31  383 384	 1492360951	 899880237	 218770.
16:42:32  384 385	 1492360952	 176136562	 276256.
16:42:32  385 386	 1492360952	 448227219	 272091.
16:42:32  386 387	 1492360952	 724187671	 275960.
16:42:32  387 388	 1492360952	 995803569	 271616.
16:42:33  388 389	 1492360953	 218713215	 222910.
16:42:33  389 390	 1492360953	 495027122	 276314.
16:42:33  390 391	 1492360953	 767016042	 271989.
16:42:34  391 392	 1492360954	 42344273	 275328.
16:42:34  392 393	 1492360954	 313540057	 271196.
16:42:34  393 394	 1492360954	 588357174	 274817.
16:42:34  394 395	 1492360954	 810561747	 222204.
16:42:35  395 396	 1492360955	 82257481	 271696.
16:42:35  396 397	 1492360955	 358155039	 275898.
16:42:35  397 398	 1492360955	 633787137	 275632.
16:42:35  398 399	 1492360955	 905682231	 271895.
16:42:36  399 400	 1492360956	 128165567	 222483.
16:42:36  400 401	 1492360956	 404166858	 276002.
16:42:36  401 402	 1492360956	 675992392	 271825.
16:42:36  402 403	 1492360956	 952118543	 276126.
16:42:37  403 404	 1492360957	 174748476	 222630.
16:42:37  404 405	 1492360957	 503778606	 329030.
16:42:37  405 406	 1492360957	 780375793	 276597.
16:42:38  406 407	 1492360958	 57066643	 276691.
16:42:38  407 408	 1492360958	 384458972	 327393.
16:42:38  408 409	 1492360958	 660343191	 275884.
16:42:38  409 410	 1492360958	 882432197	 222089.
16:42:39  410 411	 1492360959	 154286943	 271855.
16:42:39  411 412	 1492360959	 429876923	 275590.
16:42:39  412 413	 1492360959	 707712277	 277835.
16:42:39  413 414	 1492360959	 980853914	 273142.
16:42:40  414 415	 1492360960	 310627592	 329773.
16:42:40  415 416	 1492360960	 587813302	 277186.
16:42:40  416 417	 1492360960	 858705432	 270892.
16:42:41  417 418	 1492360961	 134317528	 275612.
16:42:41  418 419	 1492360961	 406399980	 272083.
16:42:41  419 420	 1492360961	 684223303	 277823.
16:42:41  420 421	 1492360961	 955817833	 271595.
16:42:42  421 422	 1492360962	 177831256	 222013.
16:42:42  422 423	 1492360962	 453370897	 275540.
16:42:42  423 424	 1492360962	 724736798	 271365.
16:42:42  424 425	 1492360962	 947604518	 222868.
16:42:43  425 426	 1492360963	 222917920	 275314.
16:42:43  426 427	 1492360963	 498914510	 275996.
16:42:43  427 428	 1492360963	 771235389	 272321.
16:42:44  428 429	 1492360964	 47481699	 276246.
16:42:44  429 430	 1492360964	 379695113	 332214.
16:42:44  430 431	 1492360964	 705667859	 325973.
16:42:44  431 432	 1492360964	 980862067	 275194.
16:42:45  432 433	 1492360965	 257102088	 276240.
16:42:45  433 434	 1492360965	 638224603	 381122.
16:42:45  434 435	 1492360965	 917032008	 278808.
16:42:46  435 436	 1492360966	 245374006	 328342.
16:42:46  436 437	 1492360966	 504982370	 259608.
16:42:46  437 438	 1492360966	 777181720	 272199.
16:42:47  438 439	 1492360967	 53211515	 276030.
16:42:47  439 440	 1492360967	 324808754	 271597.
16:42:47  440 441	 1492360967	 547517478	 222709.
16:42:47  441 442	 1492360967	 932614522	 385097.
16:42:48  442 443	 1492360968	 260329378	 327715.
16:42:48  443 444	 1492360968	 534676170	 274347.
16:42:48  444 445	 1492360968	 810714429	 276038.
16:42:49  445 446	 1492360969	 82679654	 271965.
16:42:49  446 447	 1492360969	 358824135	 276145.
16:42:49  447 448	 1492360969	 634930267	 276106.
16:42:49  448 449	 1492360969	 906963454	 272033.
16:42:50  449 450	 1492360970	 129989417	 223026.
16:42:50  450 451	 1492360970	 406430839	 276442.
16:42:50  451 452	 1492360970	 678454919	 272024.
16:42:50  452 453	 1492360970	 950286873	 271832.
16:42:51  453 454	 1492360971	 226701944	 276415.
16:42:51  454 455	 1492360971	 498372292	 271670.
16:42:51  455 456	 1492360971	 773901172	 275529.
16:42:52  456 457	 1492360972	 45912719	 272011.
16:42:52  457 458	 1492360972	 321821892	 275910.
16:42:52  458 459	 1492360972	 540338292	 218516.
16:42:52  459 460	 1492360972	 816268365	 275930.
16:42:53  460 461	 1492360973	 87698378	 271430.
16:42:53  461 462	 1492360973	 363442576	 275744.
16:42:53  462 463	 1492360973	 639157736	 275715.
16:42:53  463 464	 1492360973	 857689816	 218533.
16:42:54  464 465	 1492360974	 133259755	 275569.
16:42:54  465 466	 1492360974	 409068405	 275809.
16:42:54  466 467	 1492360974	 682010068	 272942.
16:42:55  467 468	 1492360975	 66896773	 384886.
16:42:55  468 469	 1492360975	 340960696	 274064.
16:42:55  469 470	 1492360975	 616286040	 275326.
16:42:55  470 471	 1492360975	 888269247	 271996.
16:42:56  471 472	 1492360976	 110848127	 222566.
16:42:56  472 473	 1492360976	 386733757	 275885.
16:42:56  473 474	 1492360976	 658499595	 271766.
16:42:56  474 475	 1492360976	 934373570	 275874.
16:42:57  475 476	 1492360977	 205478991	 271106.
16:42:57  476 477	 1492360977	 427796702	 222317.
16:42:57  477 478	 1492360977	 702745084	 274949.
16:42:57  478 479	 1492360977	 973505145	 270760.
16:42:58  479 480	 1492360978	 245034740	 271529.
16:42:58  480 481	 1492360978	 520849428	 275815.
16:42:58  481 482	 1492360978	 743430242	 222581.
16:42:59  482 483	 1492360979	 67827224	 324397.
16:42:59  483 484	 1492360979	 401816900	 333990.
16:42:59  484 485	 1492360979	 674691597	 272874.
16:42:59  485 486	 1492360980	 1676301	 326985.
16:43:00  486 487	 1492360980	 273739742	 272064.
16:43:00  487 488	 1492360980	 550176241	 276436.
16:43:00  488 489	 1492360980	 822406736	 272230.
16:43:01  489 490	 1492360981	 48757202	 226351.
16:43:01  490 491	 1492360981	 319950786	 271193.
16:43:01  491 492	 1492360981	 591424885	 271475.
16:43:01  492 493	 1492360981	 862682750	 271257.
16:43:02  493 494	 1492360982	 138100260	 275418.
16:43:02  494 495	 1492360982	 409183966	 271084.
16:43:02  495 496	 1492360982	 680104997	 270921.
16:43:02  496 497	 1492360982	 902507985	 222403.
16:43:03  497 498	 1492360983	 173802333	 271294.
16:43:03  498 499	 1492360983	 448953188	 275151.
16:43:03  499 500	 1492360983	 720476236	 271523.
16:43:04  500 501	 1492360984	 22214632	 301738.
16:43:04  501 502	 1492360984	 244549667	 222335.
16:43:04  502 503	 1492360984	 516155128	 271606.
16:43:04  503 504	 1492360984	 791482460	 275327.
16:43:05  504 505	 1492360985	 65020538	 273538.
16:43:05  505 506	 1492360985	 340356917	 275337.
16:43:05  506 507	 1492360985	 719797485	 379440.
16:43:05  507 508	 1492360985	 997424187	 277627.
16:43:06  508 509	 1492360986	 319822591	 322398.
16:43:06  509 510	 1492360986	 595209048	 275387.
16:43:06  510 511	 1492360986	 817517695	 222308.
16:43:07  511 512	 1492360987	 89049275	 271532.
16:43:07  512 513	 1492360987	 360519700	 271471.
16:43:07  513 514	 1492360987	 636819908	 276300.
16:43:07  514 515	 1492360987	 913140573	 276320.
16:43:08  515 516	 1492360988	 185497785	 272357.
16:43:08  516 517	 1492360988	 458090111	 272593.
16:43:08  517 518	 1492360988	 734459550	 276369.
16:43:09  518 519	 1492360989	 7701704	 273242.
16:43:09  519 520	 1492360989	 267151761	 259450.
16:43:09  520 521	 1492360989	 539261469	 272110.
16:43:09  521 522	 1492360989	 817290705	 278029.
16:43:10  522 523	 1492360990	 89216635	 271926.
16:43:10  523 524	 1492360990	 367310355	 278094.
16:43:10  524 525	 1492360990	 693843096	 326533.
16:43:11  525 526	 1492360991	 20606324	 326763.
16:43:11  526 527	 1492360991	 299119320	 278513.
16:43:11  527 528	 1492360991	 571837554	 272718.
16:43:11  528 529	 1492360991	 842539551	 270702.
16:43:12  529 530	 1492360992	 116957411	 274418.
16:43:12  530 531	 1492360992	 387236057	 270279.
16:43:12  531 532	 1492360992	 609176364	 221940.
16:43:12  532 533	 1492360992	 930908779	 321732.
16:43:13  533 534	 1492360993	 206364613	 275456.
16:43:13  534 535	 1492360993	 477608744	 271244.
16:43:13  535 536	 1492360993	 749201291	 271593.
16:43:14  536 537	 1492360994	 24708115	 275507.
16:43:14  537 538	 1492360994	 297482876	 272775.
16:43:14  538 539	 1492360994	 626392019	 328909.
16:43:14  539 540	 1492360994	 898115508	 271723.
16:43:15  540 541	 1492360995	 173750594	 275635.
16:43:15  541 542	 1492360995	 445772307	 272022.
16:43:15  542 543	 1492360995	 717753030	 271981.
16:43:15  543 544	 1492360995	 940011568	 222258.
16:43:16  544 545	 1492360996	 267091088	 327080.
16:43:16  545 546	 1492360996	 538741041	 271650.
16:43:16  546 547	 1492360996	 816955588	 278214.
16:43:17  547 548	 1492360997	 87822490	 270867.
16:43:17  548 549	 1492360997	 363471870	 275650.
16:43:17  549 550	 1492360997	 634824805	 271353.
16:43:17  550 551	 1492360997	 910925527	 276100.
16:43:18  551 552	 1492360998	 133432736	 222507.
16:43:18  552 553	 1492360998	 405564965	 272133.
16:43:18  553 554	 1492360998	 732725606	 327160.
16:43:18  554 555	 1492360998	 955309440	 222584.
16:43:19  555 556	 1492360999	 231938824	 276630.
16:43:19  556 557	 1492360999	 612131863	 380193.
16:43:19  557 558	 1492360999	 889838229	 277706.
16:43:20  558 559	 1492361000	 161590308	 271752.
16:43:20  559 560	 1492361000	 437498340	 275908.
16:43:20  560 561	 1492361000	 709206452	 271708.
16:43:20  561 562	 1492361000	 931882344	 222676.
16:43:21  562 563	 1492361001	 208095993	 276214.
16:43:21  563 564	 1492361001	 480406998	 272311.
16:43:21  564 565	 1492361001	 812370429	 331963.
16:43:22  565 566	 1492361002	 84228796	 271859.
16:43:22  566 567	 1492361002	 415439767	 331210.
16:43:22  567 568	 1492361002	 738244868	 322806.
16:43:23  568 569	 1492361003	 15434950	 277190.
16:43:23  569 570	 1492361003	 287165605	 271730.
16:43:23  570 571	 1492361003	 563041936	 275877.
16:43:23  571 572	 1492361003	 785887626	 222845.
16:43:24  572 573	 1492361004	 57799306	 271912.
16:43:24  573 574	 1492361004	 333672667	 275873.
16:43:24  574 575	 1492361004	 605079958	 271408.
16:43:24  575 576	 1492361004	 876056759	 270976.
16:43:25  576 577	 1492361005	 151019421	 274963.
16:43:25  577 578	 1492361005	 421860841	 270842.
16:43:25  578 579	 1492361005	 643915857	 222055.
16:43:25  579 580	 1492361005	 915202163	 271286.
16:43:26  580 581	 1492361006	 190940953	 275739.
16:43:26  581 582	 1492361006	 514000200	 323059.
16:43:26  582 583	 1492361006	 790019233	 276019.
16:43:27  583 584	 1492361007	 120474251	 330455.
16:43:27  584 585	 1492361007	 393775113	 273301.
16:43:27  585 586	 1492361007	 665444630	 271669.
16:43:27  586 587	 1492361007	 941177074	 275733.
16:43:28  587 588	 1492361008	 163451410	 222274.
16:43:28  588 589	 1492361008	 435292390	 271841.
16:43:28  589 590	 1492361008	 711263666	 275971.
16:43:28  590 591	 1492361008	 982808176	 271545.
16:43:29  591 592	 1492361009	 258593564	 275785.
16:43:29  592 593	 1492361009	 529943297	 271350.
16:43:29  593 594	 1492361009	 756756145	 226813.
16:43:30  594 595	 1492361010	 28615270	 271859.
16:43:30  595 596	 1492361010	 355727291	 327112.
16:43:30  596 597	 1492361010	 578789765	 223062.
16:43:30  597 598	 1492361010	 850561438	 271772.
16:43:31  598 599	 1492361011	 126453269	 275892.
16:43:31  599 600	 1492361011	 398614083	 272161.
16:43:31  600 601	 1492361011	 674731202	 276117.
16:43:31  601 602	 1492361011	 897868923	 223138.
16:43:32  602 603	 1492361012	 174063463	 276194.
16:43:32  603 604	 1492361012	 446280438	 272217.
16:43:32  604 605	 1492361012	 721442655	 275162.
16:43:32  605 606	 1492361012	 993519370	 272077.
16:43:33  606 607	 1492361013	 268507128	 274988.
16:43:33  607 608	 1492361013	 539812464	 271306.
16:43:33  608 609	 1492361013	 762045337	 222232.
16:43:34  609 610	 1492361014	 37632303	 275587.
16:43:34  610 611	 1492361014	 309623506	 271991.
16:43:34  611 612	 1492361014	 585322963	 275700.
16:43:34  612 613	 1492361014	 861205873	 275883.
16:43:35  613 614	 1492361015	 79154043	 217948.
16:43:35  614 615	 1492361015	 354686960	 275533.
16:43:35  615 616	 1492361015	 630230052	 275543.
16:43:35  616 617	 1492361015	 852322606	 222092.
16:43:36  617 618	 1492361016	 123508846	 271187.
16:43:36  618 619	 1492361016	 394213251	 270704.
16:43:36  619 620	 1492361016	 669249719	 275036.
16:43:36  620 621	 1492361016	 891286337	 222037.
16:43:37  621 622	 1492361017	 162099840	 270814.
16:43:37  622 623	 1492361017	 432766083	 270666.
16:43:37  623 624	 1492361017	 703444262	 270678.
16:43:37  624 625	 1492361017	 925619745	 222175.
16:43:38  625 626	 1492361018	 200920953	 275302.
16:43:38  626 627	 1492361018	 472182875	 271262.
16:43:38  627 628	 1492361018	 747286965	 275104.
16:43:39  628 629	 1492361019	 18985524	 271698.
16:43:39  629 630	 1492361019	 241938971	 222954.
16:43:39  630 631	 1492361019	 512850363	 270911.
16:43:39  631 632	 1492361019	 787511929	 274662.
16:43:40  632 633	 1492361020	 59202302	 271690.
16:43:40  633 634	 1492361020	 334642930	 275441.
16:43:40  634 635	 1492361020	 557578674	 222935.
16:43:40  635 636	 1492361020	 829328898	 271751.
16:43:41  636 637	 1492361021	 100661045	 271332.
16:43:41  637 638	 1492361021	 376199335	 275538.
16:43:41  638 639	 1492361021	 654800456	 278601.
16:43:41  639 640	 1492361021	 926084165	 271284.
16:43:42  640 641	 1492361022	 196547211	 270463.
16:43:42  641 642	 1492361022	 471311761	 274764.
16:43:42  642 643	 1492361022	 742636174	 271325.
16:43:43  643 644	 1492361023	 14120384	 271484.
16:43:43  644 645	 1492361023	 236745532	 222625.
16:43:43  645 646	 1492361023	 512310036	 275565.
16:43:43  646 647	 1492361023	 783894070	 271584.
16:43:44  647 648	 1492361024	 55025935	 271132.
16:43:44  648 649	 1492361024	 330681090	 275655.
16:43:44  649 650	 1492361024	 606719188	 276038.
16:43:44  650 651	 1492361024	 878404280	 271685.
16:43:45  651 652	 1492361025	 153977073	 275573.
16:43:45  652 653	 1492361025	 372349491	 218372.
16:43:45  653 654	 1492361025	 648315514	 275966.
16:43:45  654 655	 1492361025	 919678199	 271363.
16:43:46  655 656	 1492361026	 190894426	 271216.
16:43:46  656 657	 1492361026	 466191500	 275297.
16:43:46  657 658	 1492361026	 737527230	 271336.
16:43:47  658 659	 1492361027	 9272541	 271745.
16:43:47  659 660	 1492361027	 285405413	 276133.
16:43:47  660 661	 1492361027	 557879541	 272474.
16:43:47  661 662	 1492361027	 833855043	 275976.
16:43:48  662 663	 1492361028	 106123481	 272268.
16:43:48  663 664	 1492361028	 382535770	 276412.
16:43:48  664 665	 1492361028	 763364877	 380830.
16:43:49  665 666	 1492361029	 42489312	 279124.
16:43:49  666 667	 1492361029	 314862484	 272373.
16:43:49  667 668	 1492361029	 590618482	 275756.
16:43:49  668 669	 1492361029	 862083311	 271465.
16:43:50  669 670	 1492361030	 133510696	 271427.
16:43:50  670 671	 1492361030	 460421479	 326911.
16:43:50  671 672	 1492361030	 747465211	 287044.
16:43:50  672 673	 1492361030	 965892274	 218427.
16:43:51  673 674	 1492361031	 241330826	 275439.
16:43:51  674 675	 1492361031	 513042550	 271711.
16:43:51  675 676	 1492361031	 841349129	 328307.
16:43:52  676 677	 1492361032	 171032149	 329683.
16:43:52  677 678	 1492361032	 498014744	 326982.
16:43:52  678 679	 1492361032	 771631185	 273617.
16:43:53  679 680	 1492361033	 47549027	 275918.
16:43:53  680 681	 1492361033	 318653986	 271105.
16:43:53  681 682	 1492361033	 590684052	 272030.
16:43:53  682 683	 1492361033	 867113643	 276429.
16:43:54  683 684	 1492361034	 139096208	 271983.
16:43:54  684 685	 1492361034	 415573648	 276477.
16:43:54  685 686	 1492361034	 688218650	 272645.
16:43:54  686 687	 1492361034	 959702551	 271484.
16:43:55  687 688	 1492361035	 237196138	 277494.
16:43:55  688 689	 1492361035	 508581259	 271385.
16:43:55  689 690	 1492361035	 821580816	 313000.
16:43:56  690 691	 1492361036	 43814007	 222233.
16:43:56  691 692	 1492361036	 315096418	 271282.
16:43:56  692 693	 1492361036	 586191848	 271096.
16:43:56  693 694	 1492361036	 861159781	 274967.
16:43:57  694 695	 1492361037	 132140377	 270981.
16:43:57  695 696	 1492361037	 407744401	 275604.
16:43:57  696 697	 1492361037	 679119722	 271375.
16:43:57  697 698	 1492361037	 901735403	 222616.
16:43:58  698 699	 1492361038	 173306689	 271571.
16:43:58  699 700	 1492361038	 448907624	 275601.
16:43:58  700 701	 1492361038	 720474772	 271567.
16:43:58  701 702	 1492361038	 991843084	 271369.
16:43:59  702 703	 1492361039	 263159288	 271316.
16:43:59  703 704	 1492361039	 539126550	 275967.
16:43:59  704 705	 1492361039	 811931626	 272805.
16:44:00  705 706	 1492361040	 146349196	 334418.
16:44:00  706 707	 1492361040	 475022602	 328673.
16:44:00  707 708	 1492361040	 798952210	 323930.
16:44:01  708 709	 1492361041	 134149867	 335198.
16:44:01  709 710	 1492361041	 401251006	 267101.
16:44:01  710 711	 1492361041	 676534758	 275283.
16:44:01  711 712	 1492361041	 947819970	 271286.
16:44:02  712 713	 1492361042	 218980368	 271160.
16:44:02  713 714	 1492361042	 445312550	 226332.
16:44:02  714 715	 1492361042	 716782073	 271470.
16:44:03  715 716	 1492361043	 39037737	 322255.
16:44:03  716 717	 1492361043	 316455456	 277418.
16:44:03  717 718	 1492361043	 642909985	 326455.
16:44:03  718 719	 1492361043	 914325877	 271416.
16:44:04  719 720	 1492361044	 244287242	 329961.
16:44:04  720 721	 1492361044	 517440930	 273154.
16:44:04  721 722	 1492361044	 843683461	 326242.
16:44:05  722 723	 1492361045	 115035321	 271352.
16:44:05  723 724	 1492361045	 386584720	 271549.
16:44:05  724 725	 1492361045	 662251530	 275667.
16:44:05  725 726	 1492361045	 933830498	 271579.
16:44:06  726 727	 1492361046	 205213754	 271384.
16:44:06  727 728	 1492361046	 427685579	 222471.
16:44:06  728 729	 1492361046	 699027188	 271342.
16:44:06  729 730	 1492361046	 974284810	 275258.
16:44:07  730 731	 1492361047	 275504622	 301219.
16:44:07  731 732	 1492361047	 497699622	 222195.
16:44:07  732 733	 1492361047	 769043745	 271344.
16:44:08  733 734	 1492361048	 44752259	 275709.
16:44:08  734 735	 1492361048	 318923639	 274171.
16:44:08  735 736	 1492361048	 595038258	 276115.
16:44:08  736 737	 1492361048	 866892789	 271855.
16:44:09  737 738	 1492361049	 142210784	 275317.
16:44:09  738 739	 1492361049	 413967509	 271757.
16:44:09  739 740	 1492361049	 636797043	 222830.
16:44:09  740 741	 1492361049	 912956760	 276159.
16:44:10  741 742	 1492361050	 242829162	 329873.
16:44:10  742 743	 1492361050	 515344996	 272516.
16:44:10  743 744	 1492361050	 790658394	 275313.
16:44:11  744 745	 1492361051	 62327222	 271669.
16:44:11  745 746	 1492361051	 338347401	 276020.
16:44:11  746 747	 1492361051	 609886733	 271540.
16:44:11  747 748	 1492361051	 832905530	 223018.
16:44:12  748 749	 1492361052	 108726101	 275821.
16:44:12  749 750	 1492361052	 384893856	 276168.
16:44:12  750 751	 1492361052	 656692271	 271798.
16:44:12  751 752	 1492361052	 932830977	 276139.
16:44:13  752 753	 1492361053	 204964473	 272133.
16:44:13  753 754	 1492361053	 427533415	 222569.
16:44:13  754 755	 1492361053	 699223773	 271690.
16:44:13  755 756	 1492361053	 974976591	 275753.
16:44:14  756 757	 1492361054	 250544507	 275568.
16:44:14  757 758	 1492361054	 473328348	 222784.
16:44:14  758 759	 1492361054	 745161405	 271833.
16:44:15  759 760	 1492361055	 21464788	 276303.
16:44:15  760 761	 1492361055	 296796363	 275332.
16:44:15  761 762	 1492361055	 515075181	 218279.
16:44:15  762 763	 1492361055	 790942932	 275868.
16:44:16  763 764	 1492361056	 62438478	 271495.
16:44:16  764 765	 1492361056	 336979494	 274541.
16:44:16  765 766	 1492361056	 559817708	 222838.
16:44:16  766 767	 1492361056	 832131468	 272314.
16:44:17  767 768	 1492361057	 108494647	 276363.
16:44:17  768 769	 1492361057	 384646206	 276152.
16:44:17  769 770	 1492361057	 655859071	 271213.
16:44:17  770 771	 1492361057	 931687307	 275828.
16:44:18  771 772	 1492361058	 207471728	 275784.
16:44:18  772 773	 1492361058	 430297310	 222826.
16:44:18  773 774	 1492361058	 706621506	 276324.
16:44:18  774 775	 1492361058	 978324946	 271704.
16:44:19  775 776	 1492361059	 254326393	 276001.
16:44:19  776 777	 1492361059	 532509272	 278183.
16:44:19  777 778	 1492361059	 860070061	 327561.
16:44:20  778 779	 1492361060	 83039380	 222969.
16:44:20  779 780	 1492361060	 355102916	 272064.
16:44:20  780 781	 1492361060	 630889460	 275786.
16:44:20  781 782	 1492361060	 902790215	 271901.
16:44:21  782 783	 1492361061	 178635973	 275846.
16:44:21  783 784	 1492361061	 401572615	 222936.
16:44:21  784 785	 1492361061	 673258580	 271686.
16:44:21  785 786	 1492361061	 949571082	 276313.
16:44:22  786 787	 1492361062	 220933946	 271363.
16:44:22  787 788	 1492361062	 497016389	 276082.
16:44:22  788 789	 1492361062	 719363462	 222347.
16:44:22  789 790	 1492361062	 990989195	 271626.
16:44:23  790 791	 1492361063	 266440841	 275452.
16:44:23  791 792	 1492361063	 538465291	 272024.
16:44:23  792 793	 1492361063	 760989946	 222525.
16:44:24  793 794	 1492361064	 36485727	 275495.
16:44:24  794 795	 1492361064	 307957913	 271473.
16:44:24  795 796	 1492361064	 584006906	 276049.
16:44:24  796 797	 1492361064	 806664887	 222658.
16:44:25  797 798	 1492361065	 82611458	 275946.
16:44:25  798 799	 1492361065	 354601725	 271990.
16:44:25  799 800	 1492361065	 630632953	 276032.
16:44:25  800 801	 1492361065	 906456962	 275824.
16:44:26  801 802	 1492361066	 129211549	 222754.
16:44:26  802 803	 1492361066	 401327195	 272116.
16:44:26  803 804	 1492361066	 673118271	 271791.
16:44:26  804 805	 1492361066	 948277057	 275159.
16:44:27  805 806	 1492361067	 219268382	 270991.
16:44:27  806 807	 1492361067	 490554620	 271286.
16:44:27  807 808	 1492361067	 712865077	 222311.
16:44:27  808 809	 1492361067	 988891832	 276027.
16:44:28  809 810	 1492361068	 260724976	 271833.
16:44:28  810 811	 1492361068	 537060475	 276335.
16:44:28  811 812	 1492361068	 809279030	 272219.
16:44:29  812 813	 1492361069	 85319401	 276040.
16:44:29  813 814	 1492361069	 356938225	 271619.
16:44:29  814 815	 1492361069	 632663995	 275726.
16:44:29  815 816	 1492361069	 911277021	 278613.
16:44:30  816 817	 1492361070	 291545341	 380268.
16:44:30  817 818	 1492361070	 569849127	 278304.
16:44:30  818 819	 1492361070	 841940408	 272091.
16:44:31  819 820	 1492361071	 113610675	 271670.
16:44:31  820 821	 1492361071	 389717585	 276107.
16:44:31  821 822	 1492361071	 661448953	 271732.
16:44:31  822 823	 1492361071	 933459172	 272010.
16:44:32  823 824	 1492361072	 209125426	 275666.
16:44:32  824 825	 1492361072	 484713842	 275589.
16:44:32  825 826	 1492361072	 756555936	 271842.
16:44:33  826 827	 1492361073	 28182341	 271626.
16:44:33  827 828	 1492361073	 303460625	 275278.
16:44:33  828 829	 1492361073	 525677055	 222217.
16:44:33  829 830	 1492361073	 796915366	 271238.
16:44:34  830 831	 1492361074	 71570797	 274655.
16:44:34  831 832	 1492361074	 342668584	 271098.
16:44:34  832 833	 1492361074	 614204219	 271536.
16:44:34  833 834	 1492361074	 889496218	 275292.
16:44:35  834 835	 1492361075	 219980607	 330484.
16:44:35  835 836	 1492361075	 493712154	 273732.
16:44:35  836 837	 1492361075	 821225244	 327513.
16:44:36  837 838	 1492361076	 93286188	 272061.
16:44:36  838 839	 1492361076	 368725117	 275439.
16:44:36  839 840	 1492361076	 640106744	 271381.
16:44:36  840 841	 1492361076	 862619890	 222514.
16:44:37  841 842	 1492361077	 138445237	 275825.
16:44:37  842 843	 1492361077	 452282997	 313838.
16:44:37  843 844	 1492361077	 674897266	 222614.
16:44:37  844 845	 1492361077	 950668870	 275772.
16:44:38  845 846	 1492361078	 222407591	 271738.
16:44:38  846 847	 1492361078	 494259481	 271852.
16:44:38  847 848	 1492361078	 770266024	 276007.
16:44:39  848 849	 1492361079	 42040139	 271774.
16:44:39  849 850	 1492361079	 317709166	 275669.
16:44:39  850 851	 1492361079	 540468139	 222759.
16:44:39  851 852	 1492361079	 812522057	 272054.
16:44:40  852 853	 1492361080	 88557669	 276035.
16:44:40  853 854	 1492361080	 360374327	 271817.
16:44:40  854 855	 1492361080	 636224022	 275850.
16:44:40  855 856	 1492361080	 907748920	 271525.
16:44:41  856 857	 1492361081	 179557235	 271808.
16:44:41  857 858	 1492361081	 455457839	 275901.
16:44:41  858 859	 1492361081	 678578314	 223120.
16:44:41  859 860	 1492361081	 949970953	 271393.
16:44:42  860 861	 1492361082	 225664403	 275693.
16:44:42  861 862	 1492361082	 497581533	 271917.
16:44:42  862 863	 1492361082	 772965081	 275384.
16:44:43  863 864	 1492361083	 44270972	 271306.
16:44:43  864 865	 1492361083	 315432403	 271161.
16:44:43  865 866	 1492361083	 537533418	 222101.
16:44:43  866 867	 1492361083	 808632287	 271099.
16:44:44  867 868	 1492361084	 83763137	 275131.
16:44:44  868 869	 1492361084	 357423610	 273660.
16:44:44  869 870	 1492361084	 742179139	 384756.
16:44:45  870 871	 1492361085	 14802720	 272623.
16:44:45  871 872	 1492361085	 285783748	 270981.
16:44:45  872 873	 1492361085	 563103821	 277320.
16:44:45  873 874	 1492361085	 834684071	 271581.
16:44:46  874 875	 1492361086	 110145367	 275461.
16:44:46  875 876	 1492361086	 381555337	 271410.
16:44:46  876 877	 1492361086	 652766076	 271211.
16:44:46  877 878	 1492361086	 927510103	 274744.
16:44:47  878 879	 1492361087	 144996144	 217486.
16:44:47  879 880	 1492361087	 419703340	 274707.
16:44:47  880 881	 1492361087	 690947319	 271244.
16:44:47  881 882	 1492361087	 961977247	 271030.
16:44:48  882 883	 1492361088	 188239455	 226262.
16:44:48  883 884	 1492361088	 459616613	 271377.
16:44:48  884 885	 1492361088	 731408469	 271792.
16:44:48  885 886	 1492361088	 953981717	 222573.
16:44:49  886 887	 1492361089	 229173875	 275193.
16:44:49  887 888	 1492361089	 504487656	 275313.
16:44:49  888 889	 1492361089	 776079989	 271593.
16:44:49  889 890	 1492361089	 999284331	 223204.
16:44:50  890 891	 1492361090	 274392426	 275108.
16:44:50  891 892	 1492361090	 545919986	 271528.
16:44:50  892 893	 1492361090	 767894244	 221974.
16:44:51  893 894	 1492361091	 43656425	 275762.
16:44:51  894 895	 1492361091	 315042892	 271387.
16:44:51  895 896	 1492361091	 590043623	 275000.
16:44:51  896 897	 1492361091	 811832652	 221789.
16:44:52  897 898	 1492361092	 82502870	 270671.
16:44:52  898 899	 1492361092	 354130535	 271627.
16:44:52  899 900	 1492361092	 685297503	 331167.
16:44:53  900 901	 1492361093	 12128165	 326831.
16:44:53  901 902	 1492361093	 234716679	 222588.
16:44:53  902 903	 1492361093	 561711738	 326995.
16:44:53  903 904	 1492361093	 839758451	 278047.
16:44:54  904 905	 1492361094	 115150231	 275392.
16:44:54  905 906	 1492361094	 386318884	 271169.
16:44:54  906 907	 1492361094	 608953167	 222634.
16:44:54  907 908	 1492361094	 884638981	 275686.
16:44:55  908 909	 1492361095	 160606822	 275968.
16:44:55  909 910	 1492361095	 432347211	 271740.
16:44:55  910 911	 1492361095	 654830544	 222483.
16:44:55  911 912	 1492361095	 930971921	 276142.
16:44:56  912 913	 1492361096	 202879708	 271907.
16:44:56  913 914	 1492361096	 478603441	 275724.
16:44:56  914 915	 1492361096	 701719515	 223116.
16:44:56  915 916	 1492361096	 977301432	 275582.
16:44:57  916 917	 1492361097	 248779336	 271478.
16:44:57  917 918	 1492361097	 524425207	 275646.
16:44:57  918 919	 1492361097	 747319723	 222894.
16:44:58  919 920	 1492361098	 19070722	 271751.
16:44:58  920 921	 1492361098	 294539372	 275469.
16:44:58  921 922	 1492361098	 566146627	 271607.
16:44:58  922 923	 1492361098	 842145365	 275999.
16:44:59  923 924	 1492361099	 64585755	 222440.
16:44:59  924 925	 1492361099	 336354578	 271769.
16:44:59  925 926	 1492361099	 612087978	 275734.
16:44:59  926 927	 1492361099	 834435594	 222347.
16:45:00  927 928	 1492361100	 105891298	 271456.
16:45:00  928 929	 1492361100	 380542594	 274651.
16:45:00  929 930	 1492361100	 651877702	 271335.
16:45:00  930 931	 1492361100	 922828198	 270951.
16:45:01  931 932	 1492361101	 194044000	 271216.
16:45:01  932 933	 1492361101	 465297748	 271254.
16:45:01  933 934	 1492361101	 687473688	 222175.
16:45:01  934 935	 1492361101	 958839544	 271366.
16:45:02  935 936	 1492361102	 234016415	 275177.
16:45:02  936 937	 1492361102	 505228850	 271213.
16:45:02  937 938	 1492361102	 776255831	 271027.
16:45:03  938 939	 1492361103	 47586902	 271331.
16:45:03  939 940	 1492361103	 323075490	 275488.
16:45:03  940 941	 1492361103	 594243011	 271168.
16:45:03  941 942	 1492361103	 816488105	 222245.
16:45:04  942 943	 1492361104	 142807603	 326319.
16:45:04  943 944	 1492361104	 472474220	 329667.
16:45:04  944 945	 1492361104	 799355052	 326881.
16:45:05  945 946	 1492361105	 72592341	 273237.
16:45:05  946 947	 1492361105	 343290249	 270698.
16:45:05  947 948	 1492361105	 618630300	 275340.
16:45:05  948 949	 1492361105	 889882200	 271252.
16:45:06  949 950	 1492361106	 112309542	 222427.
16:45:06  950 951	 1492361106	 387547488	 275238.
16:45:06  951 952	 1492361106	 658793214	 271246.
16:45:06  952 953	 1492361106	 930235580	 271442.
16:45:07  953 954	 1492361107	 201820799	 271586.
16:45:07  954 955	 1492361107	 478896500	 277075.
16:45:07  955 956	 1492361107	 789223694	 310327.
16:45:08  956 957	 1492361108	 60786331	 271563.
16:45:08  957 958	 1492361108	 336063609	 275277.
16:45:08  958 959	 1492361108	 554335771	 218272.
16:45:08  959 960	 1492361108	 829871827	 275537.
16:45:09  960 961	 1492361109	 101086803	 271215.
16:45:09  961 962	 1492361109	 376752589	 275665.
16:45:09  962 963	 1492361109	 649625457	 272873.
16:45:10  963 964	 1492361110	 28117173	 378492.
16:45:10  964 965	 1492361110	 356637920	 328521.
16:45:10  965 966	 1492361110	 579169213	 222531.
16:45:10  966 967	 1492361110	 854775182	 275606.
16:45:11  967 968	 1492361111	 130586633	 275811.
16:45:11  968 969	 1492361111	 402680682	 272094.
16:45:11  969 970	 1492361111	 678727600	 276047.
16:45:11  970 971	 1492361111	 949909696	 271182.
16:45:12  971 972	 1492361112	 172573057	 222664.
16:45:12  972 973	 1492361112	 448366584	 275793.
16:45:12  973 974	 1492361112	 720223337	 271857.
16:45:12  974 975	 1492361112	 996108547	 275885.
16:45:13  975 976	 1492361113	 267636168	 271528.
16:45:13  976 977	 1492361113	 490116827	 222481.
16:45:13  977 978	 1492361113	 766722740	 276605.
16:45:14  978 979	 1492361114	 38818984	 272097.
16:45:14  979 980	 1492361114	 314964793	 276145.
16:45:14  980 981	 1492361114	 586739248	 271775.
16:45:14  981 982	 1492361114	 862381215	 275642.
16:45:15  982 983	 1492361115	 84601538	 222220.
16:45:15  983 984	 1492361115	 356335685	 271734.
16:45:15  984 985	 1492361115	 633082857	 276748.
16:45:15  985 986	 1492361115	 960262616	 327179.
16:45:16  986 987	 1492361116	 290690194	 330428.
16:45:16  987 988	 1492361116	 568622852	 277933.
16:45:16  988 989	 1492361116	 891138177	 322515.
16:45:17  989 990	 1492361117	 117691517	 226553.
16:45:17  990 991	 1492361117	 389599855	 271909.
16:45:17  991 992	 1492361117	 661716071	 272116.
16:45:17  992 993	 1492361117	 936915238	 275199.
16:45:18  993 994	 1492361118	 208154085	 271239.
16:45:18  994 995	 1492361118	 430482744	 222328.
16:45:18  995 996	 1492361118	 706401423	 275919.
16:45:18  996 997	 1492361118	 980379152	 273978.
16:45:19  997 998	 1492361119	 364777247	 384398.
16:45:19  998 999	 1492361119	 643716513	 278939.
16:45:19  999 1000	 1492361119	 915564155	 271848.
16:45:20 1000 1001	 1492361120	 191776534	 276212.
16:45:20 1001 1002	 1492361120	 463109811	 271334.
16:45:20 1002 1003	 1492361120	 739168768	 276058.
16:45:20 1003 1004	 1492361120	 961898745	 222730.
16:45:21 1004 1005	 1492361121	 237878428	 275980.
16:45:21 1005 1006	 1492361121	 509665620	 271787.
16:45:21 1006 1007	 1492361121	 785705443	 276040.
16:45:22 1007 1008	 1492361122	 57801762	 272096.
16:45:22 1008 1009	 1492361122	 280180087	 222379.
16:45:22 1009 1010	 1492361122	 665292592	 385112.
16:45:22 1010 1011	 1492361122	 938023388	 272731.
16:45:23 1011 1012	 1492361123	 266189508	 328166.
16:45:23 1012 1013	 1492361123	 488903256	 222714.
16:45:23 1013 1014	 1492361123	 764280110	 275377.
16:45:24 1014 1015	 1492361124	 35360384	 271080.
16:45:24 1015 1016	 1492361124	 257709434	 222349.
16:45:24 1016 1017	 1492361124	 533652476	 275943.
16:45:24 1017 1018	 1492361124	 805003166	 271351.
16:45:25 1018 1019	 1492361125	 80766497	 275763.
16:45:25 1019 1020	 1492361125	 354415394	 273649.
16:45:25 1020 1021	 1492361125	 685052397	 330637.
16:45:26 1021 1022	 1492361126	 13567907	 328516.
16:45:26 1022 1023	 1492361126	 284998658	 271431.
16:45:26 1023 1024	 1492361126	 560423608	 275424.
16:45:26 1024 1025	 1492361126	 783242460	 222819.
16:45:27 1025 1026	 1492361127	 54910512	 271668.
16:45:27 1026 1027	 1492361127	 330608261	 275698.
16:45:27 1027 1028	 1492361127	 606811627	 276203.
16:45:27 1028 1029	 1492361127	 878549135	 271738.
16:45:28 1029 1030	 1492361128	 154461842	 275913.
16:45:28 1030 1031	 1492361128	 377427269	 222965.
16:45:28 1031 1032	 1492361128	 649715032	 272288.
16:45:28 1032 1033	 1492361128	 925303924	 275589.
16:45:29 1033 1034	 1492361129	 197106422	 271802.
16:45:29 1034 1035	 1492361129	 473286994	 276181.
16:45:29 1035 1036	 1492361129	 696054139	 222767.
16:45:29 1036 1037	 1492361129	 967864008	 271810.
16:45:30 1037 1038	 1492361130	 245584321	 277720.
16:45:30 1038 1039	 1492361130	 630026721	 384442.
16:45:30 1039 1040	 1492361130	 958434953	 328409.
16:45:31 1040 1041	 1492361131	 180896221	 222461.
16:45:31 1041 1042	 1492361131	 452271569	 271375.
16:45:31 1042 1043	 1492361131	 727969174	 275698.
16:45:32 1043 1044	 1492361132	 3530503	 275561.
16:45:32 1044 1045	 1492361132	 221630053	 218100.
16:45:32 1045 1046	 1492361132	 496567788	 274938.
16:45:32 1046 1047	 1492361132	 767250091	 270682.
16:45:33 1047 1048	 1492361133	 38176113	 270926.
16:45:33 1048 1049	 1492361133	 260531841	 222356.
16:45:33 1049 1050	 1492361133	 531531108	 270999.
16:45:33 1050 1051	 1492361133	 806916135	 275385.
16:45:34 1051 1052	 1492361134	 78097758	 271181.
16:45:34 1052 1053	 1492361134	 349002186	 270905.
16:45:34 1053 1054	 1492361134	 623901784	 274899.
16:45:34 1054 1055	 1492361134	 896773030	 272872.
16:45:35 1055 1056	 1492361135	 172379346	 275606.
16:45:35 1056 1057	 1492361135	 502479256	 330100.
16:45:35 1057 1058	 1492361135	 775663163	 273184.
16:45:36 1058 1059	 1492361136	 101886614	 326223.
16:45:36 1059 1060	 1492361136	 373466435	 271580.
16:45:36 1060 1061	 1492361136	 644235324	 270769.
16:45:36 1061 1062	 1492361136	 866588800	 222354.
16:45:37 1062 1063	 1492361137	 142502215	 275913.
16:45:37 1063 1064	 1492361137	 413599236	 271097.
16:45:37 1064 1065	 1492361137	 689267387	 275668.
16:45:37 1065 1066	 1492361137	 960793254	 271526.
16:45:38 1066 1067	 1492361138	 231993792	 271200.
16:45:38 1067 1068	 1492361138	 507628591	 275635.
16:45:38 1068 1069	 1492361138	 779467853	 271840.
16:45:39 1069 1070	 1492361139	 50664119	 271196.
16:45:39 1070 1071	 1492361139	 323558659	 272894.
16:45:39 1071 1072	 1492361139	 599547822	 275990.
16:45:39 1072 1073	 1492361139	 925003525	 325455.
16:45:40 1073 1074	 1492361140	 251681431	 326678.
16:45:40 1074 1075	 1492361140	 529303761	 277622.
16:45:40 1075 1076	 1492361140	 800270554	 270967.
16:45:41 1076 1077	 1492361141	 71435961	 271166.
16:45:41 1077 1078	 1492361141	 347322892	 275887.
16:45:41 1078 1079	 1492361141	 618777476	 271454.
16:45:41 1079 1080	 1492361141	 893866752	 275089.
16:45:42 1080 1081	 1492361142	 165548959	 271683.
16:45:42 1081 1082	 1492361142	 436627449	 271078.
16:45:42 1082 1083	 1492361142	 658921000	 222294.
16:45:42 1083 1084	 1492361142	 930402524	 271481.
16:45:43 1084 1085	 1492361143	 205844280	 275442.
16:45:43 1085 1086	 1492361143	 477220491	 271376.
16:45:43 1086 1087	 1492361143	 748353870	 271134.
16:45:44 1087 1088	 1492361144	 23178798	 274825.
16:45:44 1088 1089	 1492361144	 294064843	 270886.
16:45:44 1089 1090	 1492361144	 516395007	 222330.
16:45:44 1090 1091	 1492361144	 825349925	 308955.
16:45:45 1091 1092	 1492361145	 103339038	 277989.
16:45:45 1092 1093	 1492361145	 482716494	 379377.
16:45:45 1093 1094	 1492361145	 866467428	 383751.
16:45:46 1094 1095	 1492361146	 141327364	 274860.
16:45:46 1095 1096	 1492361146	 412757795	 271431.
16:45:46 1096 1097	 1492361146	 683625240	 270867.
16:45:46 1097 1098	 1492361146	 955317462	 271692.
16:45:47 1098 1099	 1492361147	 178064847	 222748.
16:45:47 1099 1100	 1492361147	 452891237	 274826.
16:45:47 1100 1101	 1492361147	 724030675	 271139.
16:45:47 1101 1102	 1492361147	 999479764	 275449.
16:45:48 1102 1103	 1492361148	 270103716	 270624.
16:45:48 1103 1104	 1492361148	 541532386	 271429.
16:45:48 1104 1105	 1492361148	 763922560	 222390.
16:45:49 1105 1106	 1492361149	 34862946	 270941.
16:45:49 1106 1107	 1492361149	 309926772	 275063.
16:45:49 1107 1108	 1492361149	 580922208	 270996.
16:45:49 1108 1109	 1492361149	 851977070	 271055.
16:45:50 1109 1110	 1492361150	 74146908	 222170.
16:45:50 1110 1111	 1492361150	 350340340	 276193.
16:45:50 1111 1112	 1492361150	 728578835	 378239.
