13:25:05    0 Step	 time(s)	 time(ns)	 delta(ms)
13:25:05    0 1	 1492781105	 856251972	 926.
13:25:06    1 2	 1492781106	 127756932	 271505.
13:25:06    2 3	 1492781106	 399458077	 271701.
13:25:06    3 4	 1492781106	 674930758	 275473.
13:25:06    4 5	 1492781106	 946066626	 271135.
13:25:07    5 6	 1492781107	 217126919	 271061.
13:25:07    6 7	 1492781107	 492277267	 275150.
13:25:07    7 8	 1492781107	 714333847	 222057.
13:25:07    8 9	 1492781107	 985396415	 271062.
13:25:08    9 10	 1492781108	 256370969	 270975.
13:25:08   10 11	 1492781108	 531447526	 275076.
13:25:08   11 12	 1492781108	 802522268	 271075.
13:25:09   12 13	 1492781109	 77617597	 275095.
13:25:09   13 14	 1492781109	 348607611	 270990.
13:25:09   14 15	 1492781109	 570580304	 221973.
13:25:09   15 16	 1492781109	 841507443	 270927.
13:25:10   16 17	 1492781110	 116522663	 275015.
13:25:10   17 18	 1492781110	 387282145	 270760.
13:25:10   18 19	 1492781110	 662414076	 275132.
13:25:10   19 20	 1492781110	 933723501	 271309.
13:25:11   20 21	 1492781111	 205158540	 271435.
13:25:11   21 22	 1492781111	 476577089	 271419.
13:25:11   22 23	 1492781111	 753050679	 276473.
13:25:12   23 24	 1492781112	 12180536	 259130.
13:25:12   24 25	 1492781112	 283659261	 271479.
13:25:12   25 26	 1492781112	 559966956	 276308.
13:25:12   26 27	 1492781112	 782983155	 223016.
13:25:13   27 28	 1492781113	 54887235	 271904.
13:25:13   28 29	 1492781113	 326835663	 271949.
13:25:13   29 30	 1492781113	 602342706	 275506.
13:25:13   30 31	 1492781113	 873447975	 271106.
13:25:14   31 32	 1492781114	 144525368	 271077.
13:25:14   32 33	 1492781114	 420033387	 275508.
13:25:14   33 34	 1492781114	 691166430	 271133.
13:25:14   34 35	 1492781114	 913337755	 222172.
13:25:15   35 36	 1492781115	 184505845	 271168.
13:25:15   36 37	 1492781115	 455707037	 271201.
13:25:15   37 38	 1492781115	 731002298	 275295.
13:25:15   38 39	 1492781116	 2198924	 271197.
13:25:16   39 40	 1492781116	 273434073	 271235.
13:25:16   40 41	 1492781116	 548597452	 275163.
13:25:16   41 42	 1492781116	 819437855	 270841.
13:25:17   42 43	 1492781117	 41650840	 222213.
13:25:17   43 44	 1492781117	 312949982	 271299.
13:25:17   44 45	 1492781117	 588640312	 275690.
13:25:17   45 46	 1492781117	 859844765	 271205.
13:25:18   46 47	 1492781118	 131040929	 271196.
13:25:18   47 48	 1492781118	 405981117	 274940.
13:25:18   48 49	 1492781118	 676948980	 270968.
13:25:18   49 50	 1492781118	 898974556	 222025.
13:25:19   50 51	 1492781119	 170014358	 271040.
13:25:19   51 52	 1492781119	 444834979	 274831.
13:25:19   52 53	 1492781119	 715833902	 270989.
13:25:19   53 54	 1492781119	 986804574	 270970.
13:25:20   54 55	 1492781120	 258656778	 271853.
13:25:20   55 56	 1492781120	 534377545	 275720.
13:25:20   56 57	 1492781120	 756991569	 222614.
13:25:21   57 58	 1492781121	 28883037	 271892.
13:25:21   58 59	 1492781121	 304558837	 275676.
13:25:21   59 60	 1492781121	 576420854	 271862.
13:25:21   60 61	 1492781121	 852222018	 275801.
13:25:22   61 62	 1492781122	 124104849	 271883.
13:25:22   62 63	 1492781122	 400216786	 276112.
13:25:22   63 64	 1492781122	 671511722	 271295.
13:25:22   64 65	 1492781122	 894166401	 222654.
13:25:23   65 66	 1492781123	 165360821	 271194.
13:25:23   66 67	 1492781123	 441091795	 275732.
13:25:23   67 68	 1492781123	 712288727	 271197.
13:25:23   68 69	 1492781123	 935131164	 222842.
13:25:24   69 70	 1492781124	 211167504	 276036.
13:25:24   70 71	 1492781124	 482357952	 271191.
13:25:24   71 72	 1492781124	 758348298	 275990.
13:25:25   72 73	 1492781125	 29707645	 271359.
13:25:25   73 74	 1492781125	 252000836	 222294.
13:25:25   74 75	 1492781125	 523205205	 271204.
13:25:25   75 76	 1492781125	 798512127	 275307.
13:25:26   76 77	 1492781126	 69681352	 271169.
13:25:26   77 78	 1492781126	 292375066	 222694.
13:25:26   78 79	 1492781126	 568564805	 276190.
13:25:26   79 80	 1492781126	 840016300	 271451.
13:25:27   80 81	 1492781127	 115881451	 275865.
13:25:27   81 82	 1492781127	 392177054	 276296.
13:25:27   82 83	 1492781127	 664123110	 271946.
13:25:27   83 84	 1492781127	 940415696	 276292.
13:25:28   84 85	 1492781128	 163431395	 223016.
13:25:28   85 86	 1492781128	 434961044	 271530.
13:25:28   86 87	 1492781128	 706254996	 271294.
13:25:28   87 88	 1492781128	 981114110	 274859.
13:25:29   88 89	 1492781129	 252857315	 271743.
13:25:29   89 90	 1492781129	 528285657	 275428.
13:25:29   90 91	 1492781129	 800356436	 272071.
13:25:30   91 92	 1492781130	 22857451	 222501.
13:25:30   92 93	 1492781130	 298127158	 275270.
13:25:30   93 94	 1492781130	 570226984	 272100.
13:25:30   94 95	 1492781130	 846100948	 275874.
13:25:31   95 96	 1492781131	 117353380	 271252.
13:25:31   96 97	 1492781131	 393470839	 276118.
13:25:31   97 98	 1492781131	 665022485	 271551.
13:25:31   98 99	 1492781131	 887596482	 222574.
13:25:32   99 100	 1492781132	 159112094	 271516.
13:25:32  100 101	 1492781132	 434145088	 275033.
13:25:32  101 102	 1492781132	 705491022	 271346.
13:25:32  102 103	 1492781132	 927583596	 222092.
13:25:33  103 104	 1492781133	 198666955	 271084.
13:25:33  104 105	 1492781133	 474096953	 275430.
13:25:33  105 106	 1492781133	 745571611	 271474.
13:25:34  106 107	 1492781134	 21300308	 275729.
13:25:34  107 108	 1492781134	 243894175	 222594.
13:25:34  108 109	 1492781134	 515179750	 271286.
13:25:34  109 110	 1492781134	 786354741	 271175.
13:25:35  110 111	 1492781135	 61866792	 275512.
13:25:35  111 112	 1492781135	 284508891	 222642.
13:25:35  112 113	 1492781135	 556273764	 271765.
13:25:35  113 114	 1492781135	 832083583	 275809.
13:25:36  114 115	 1492781136	 103054593	 270971.
13:25:36  115 116	 1492781136	 374033988	 270980.
13:25:36  116 117	 1492781136	 649051364	 275017.
13:25:36  117 118	 1492781136	 920542647	 271491.
13:25:37  118 119	 1492781137	 191806827	 271265.
13:25:37  119 120	 1492781137	 414392458	 222585.
13:25:37  120 121	 1492781137	 685262186	 270870.
13:25:37  121 122	 1492781137	 961154541	 275892.
13:25:38  122 123	 1492781138	 232530807	 271377.
13:25:38  123 124	 1492781138	 503876365	 271345.
13:25:38  124 125	 1492781138	 775009124	 271133.
13:25:39  125 126	 1492781139	 50350013	 275341.
13:25:39  126 127	 1492781139	 321694078	 271344.
13:25:39  127 128	 1492781139	 543977507	 222284.
13:25:39  128 129	 1492781139	 820290718	 276312.
13:25:40  129 130	 1492781140	 92441121	 272151.
13:25:40  130 131	 1492781140	 368452058	 276011.
13:25:40  131 132	 1492781140	 639826863	 271375.
13:25:40  132 133	 1492781140	 915482675	 275655.
13:25:41  133 134	 1492781141	 186931214	 271449.
13:25:41  134 135	 1492781141	 458604799	 271673.
13:25:41  135 136	 1492781141	 681551340	 222947.
13:25:41  136 137	 1492781141	 952758840	 271208.
13:25:42  137 138	 1492781142	 228284755	 275526.
13:25:42  138 139	 1492781142	 499653296	 271368.
13:25:42  139 140	 1492781142	 721999837	 222347.
13:25:42  140 141	 1492781142	 993674013	 271674.
13:25:43  141 142	 1492781143	 269368647	 275694.
13:25:43  142 143	 1492781143	 541356122	 271988.
13:25:43  143 144	 1492781143	 812970000	 271614.
13:25:44  144 145	 1492781144	 88566022	 275596.
13:25:44  145 146	 1492781144	 311014823	 222448.
13:25:44  146 147	 1492781144	 583129993	 272116.
13:25:44  147 148	 1492781144	 859120868	 275991.
13:25:45  148 149	 1492781145	 130119248	 270998.
13:25:45  149 150	 1492781145	 401239839	 271120.
13:25:45  150 151	 1492781145	 677085705	 275847.
13:25:45  151 152	 1492781145	 948697697	 271611.
13:25:46  152 153	 1492781146	 224205861	 275509.
13:25:46  153 154	 1492781146	 495916216	 271710.
13:25:46  154 155	 1492781146	 767741700	 271826.
13:25:47  155 156	 1492781147	 39987530	 272245.
13:25:47  156 157	 1492781147	 316554033	 276567.
13:25:47  157 158	 1492781147	 588611627	 272057.
13:25:47  158 159	 1492781147	 864798943	 276188.
13:25:48  159 160	 1492781148	 88126380	 223327.
13:25:48  160 161	 1492781148	 359206029	 271080.
13:25:48  161 162	 1492781148	 634687579	 275481.
13:25:48  162 163	 1492781148	 906017239	 271330.
13:25:49  163 164	 1492781149	 177256921	 271240.
13:25:49  164 165	 1492781149	 452904165	 275658.
13:25:49  165 166	 1492781149	 724576163	 271661.
13:25:49  166 167	 1492781150	 336806	 275761.
13:25:50  167 168	 1492781150	 272460812	 272124.
13:25:50  168 169	 1492781150	 544274262	 271813.
13:25:50  169 170	 1492781150	 766835447	 222561.
13:25:51  170 171	 1492781151	 38118047	 271283.
13:25:51  171 172	 1492781151	 312808870	 274691.
13:25:51  172 173	 1492781151	 584560312	 271751.
13:25:51  173 174	 1492781151	 855567965	 271008.
13:25:52  174 175	 1492781152	 126652831	 271085.
13:25:52  175 176	 1492781152	 401764916	 275112.
13:25:52  176 177	 1492781152	 672950152	 271185.
13:25:52  177 178	 1492781152	 895237318	 222287.
13:25:53  178 179	 1492781153	 166234717	 270997.
13:25:53  179 180	 1492781153	 441419055	 275185.
13:25:53  180 181	 1492781153	 712624189	 271205.
13:25:53  181 182	 1492781153	 984227040	 271603.
13:25:54  182 183	 1492781154	 259535499	 275308.
13:25:54  183 184	 1492781154	 530878688	 271343.
13:25:54  184 185	 1492781154	 802268712	 271390.
13:25:55  185 186	 1492781155	 24816855	 222549.
13:25:55  186 187	 1492781155	 296482274	 271665.
13:25:55  187 188	 1492781155	 571871900	 275390.
13:25:55  188 189	 1492781155	 843041519	 271169.
13:25:56  189 190	 1492781156	 118116226	 275075.
13:25:56  190 191	 1492781156	 389436388	 271320.
13:25:56  191 192	 1492781156	 665041308	 275605.
13:25:56  192 193	 1492781156	 887512856	 222472.
13:25:57  193 194	 1492781157	 158367973	 270855.
13:25:57  194 195	 1492781157	 433959420	 275591.
13:25:57  195 196	 1492781157	 705214093	 271255.
13:25:57  196 197	 1492781157	 976603926	 271390.
13:25:58  197 198	 1492781158	 252326414	 275722.
13:25:58  198 199	 1492781158	 528097934	 275772.
13:25:58  199 200	 1492781158	 799996735	 271899.
13:25:59  200 201	 1492781159	 71749568	 271752.
13:25:59  201 202	 1492781159	 344065871	 272317.
13:25:59  202 203	 1492781159	 619905901	 275840.
13:25:59  203 204	 1492781159	 891473082	 271567.
13:26:00  204 205	 1492781160	 114064665	 222591.
13:26:00  205 206	 1492781160	 385180487	 271116.
13:26:00  206 207	 1492781160	 660542714	 275362.
13:26:00  207 208	 1492781160	 931820673	 271279.
13:26:01  208 209	 1492781161	 203026390	 271205.
13:26:01  209 210	 1492781161	 474198448	 271172.
13:26:01  210 211	 1492781161	 749441205	 275243.
13:26:02  211 212	 1492781162	 20588080	 271147.
13:26:02  212 213	 1492781162	 291802860	 271215.
13:26:02  213 214	 1492781162	 513825629	 222022.
13:26:02  214 215	 1492781162	 784713222	 270888.
13:26:03  215 216	 1492781163	 56102755	 271390.
13:26:03  216 217	 1492781163	 331478367	 275375.
13:26:03  217 218	 1492781163	 603076182	 271598.
13:26:03  218 219	 1492781163	 874644160	 271568.
13:26:04  219 220	 1492781164	 146214465	 271570.
13:26:04  220 221	 1492781164	 421787295	 275573.
13:26:04  221 222	 1492781164	 692874580	 271087.
13:26:04  222 223	 1492781164	 964194766	 271321.
13:26:05  223 224	 1492781165	 235588232	 271393.
13:26:05  224 225	 1492781165	 510970335	 275382.
13:26:05  225 226	 1492781165	 782442193	 271472.
13:26:06  226 227	 1492781166	 53796290	 271354.
13:26:06  227 228	 1492781166	 325121441	 271325.
13:26:06  228 229	 1492781166	 600502190	 275381.
13:26:06  229 230	 1492781166	 871743835	 271242.
13:26:07  230 231	 1492781167	 142905344	 271161.
13:26:07  231 232	 1492781167	 364709135	 221804.
13:26:07  232 233	 1492781167	 639394275	 274685.
13:26:07  233 234	 1492781167	 909613110	 270219.
13:26:08  234 235	 1492781168	 180292074	 270679.
13:26:08  235 236	 1492781168	 402370551	 222078.
13:26:08  236 237	 1492781168	 673724026	 271354.
13:26:08  237 238	 1492781168	 948662253	 274938.
13:26:09  238 239	 1492781169	 219865043	 271203.
13:26:09  239 240	 1492781169	 491527085	 271662.
13:26:09  240 241	 1492781169	 766595181	 275068.
13:26:10  241 242	 1492781170	 37630906	 271036.
13:26:10  242 243	 1492781170	 259586400	 221955.
13:26:10  243 244	 1492781170	 530633818	 271048.
13:26:10  244 245	 1492781170	 801550063	 270916.
13:26:11  245 246	 1492781171	 76731703	 275181.
13:26:11  246 247	 1492781171	 348259823	 271529.
13:26:11  247 248	 1492781171	 619951677	 271691.
13:26:11  248 249	 1492781171	 895965109	 276014.
13:26:12  249 250	 1492781172	 171425055	 275460.
13:26:12  250 251	 1492781172	 389719871	 218295.
13:26:12  251 252	 1492781172	 665445617	 275725.
13:26:12  252 253	 1492781172	 936444533	 270999.
13:26:13  253 254	 1492781173	 207496303	 271052.
13:26:13  254 255	 1492781173	 478385220	 270889.
13:26:13  255 256	 1492781173	 753560706	 275175.
13:26:14  256 257	 1492781174	 24828148	 271268.
13:26:14  257 258	 1492781174	 296166923	 271339.
13:26:14  258 259	 1492781174	 567630558	 271463.
13:26:14  259 260	 1492781174	 789715244	 222085.
13:26:15  260 261	 1492781175	 64783189	 275068.
13:26:15  261 262	 1492781175	 336112001	 271329.
13:26:15  262 263	 1492781175	 607461370	 271349.
13:26:15  263 264	 1492781175	 882782104	 275321.
13:26:16  264 265	 1492781176	 154281189	 271499.
13:26:16  265 266	 1492781176	 425664282	 271383.
13:26:16  266 267	 1492781176	 700974355	 275310.
13:26:16  267 268	 1492781176	 972358102	 271384.
13:26:17  268 269	 1492781177	 243038370	 270680.
13:26:17  269 270	 1492781177	 465160921	 222123.
13:26:17  270 271	 1492781177	 736026208	 270865.
13:26:18  271 272	 1492781178	 11000645	 274974.
13:26:18  272 273	 1492781178	 281749231	 270749.
13:26:18  273 274	 1492781178	 552520084	 270771.
13:26:18  274 275	 1492781178	 774262336	 221742.
13:26:19  275 276	 1492781179	 48805283	 274543.
13:26:19  276 277	 1492781179	 319421715	 270616.
13:26:19  277 278	 1492781179	 589896295	 270475.
13:26:19  278 279	 1492781179	 811826031	 221930.
13:26:20  279 280	 1492781180	 82766943	 270941.
13:26:20  280 281	 1492781180	 357787189	 275020.
13:26:20  281 282	 1492781180	 628875767	 271089.
13:26:20  282 283	 1492781180	 904262597	 275386.
13:26:21  283 284	 1492781181	 175521782	 271260.
13:26:21  284 285	 1492781181	 446997048	 271475.
13:26:21  285 286	 1492781181	 718368112	 271371.
13:26:21  286 287	 1492781181	 993710461	 275342.
13:26:22  287 288	 1492781182	 264720776	 271011.
13:26:22  288 289	 1492781182	 486732337	 222011.
13:26:22  289 290	 1492781182	 758094314	 271362.
13:26:23  290 291	 1492781183	 33476889	 275383.
13:26:23  291 292	 1492781183	 304647231	 271170.
13:26:23  292 293	 1492781183	 575712223	 271065.
13:26:23  293 294	 1492781183	 846496089	 270784.
13:26:24  294 295	 1492781184	 122101133	 275605.
13:26:24  295 296	 1492781184	 344686338	 222585.
13:26:24  296 297	 1492781184	 616302614	 271616.
13:26:24  297 298	 1492781184	 891133829	 274832.
13:26:25  298 299	 1492781185	 161926462	 270792.
13:26:25  299 300	 1492781185	 436937931	 275012.
13:26:25  300 301	 1492781185	 659458271	 222520.
13:26:25  301 302	 1492781185	 930998757	 271541.
13:26:26  302 303	 1492781186	 205987341	 274988.
13:26:26  303 304	 1492781186	 476734552	 270748.
13:26:26  304 305	 1492781186	 748168159	 271433.
13:26:27  305 306	 1492781187	 23756472	 275588.
13:26:27  306 307	 1492781187	 246162285	 222406.
13:26:27  307 308	 1492781187	 517538513	 271376.
13:26:27  308 309	 1492781187	 793766444	 276228.
13:26:28  309 310	 1492781188	 65603943	 271838.
13:26:28  310 311	 1492781188	 341714013	 276110.
13:26:28  311 312	 1492781188	 563737183	 222023.
13:26:28  312 313	 1492781188	 835322339	 271585.
13:26:29  313 314	 1492781189	 109878340	 274556.
13:26:29  314 315	 1492781189	 381526346	 271648.
13:26:29  315 316	 1492781189	 652569378	 271043.
13:26:29  316 317	 1492781189	 924297203	 271728.
13:26:30  317 318	 1492781190	 146681864	 222385.
13:26:30  318 319	 1492781190	 422804842	 276123.
13:26:30  319 320	 1492781190	 694499344	 271694.
13:26:30  320 321	 1492781190	 965412922	 270914.
13:26:31  321 322	 1492781191	 240257237	 274844.
13:26:31  322 323	 1492781191	 511432183	 271175.
13:26:31  323 324	 1492781191	 782449052	 271017.
13:26:32  324 325	 1492781192	 58381273	 275932.
13:26:32  325 326	 1492781192	 330650225	 272269.
13:26:32  326 327	 1492781192	 607031891	 276382.
13:26:32  327 328	 1492781192	 829875780	 222844.
13:26:33  328 329	 1492781193	 101110490	 271234.
13:26:33  329 330	 1492781193	 377264340	 276154.
13:26:33  330 331	 1492781193	 649605907	 272342.
13:26:33  331 332	 1492781193	 925000960	 275395.
13:26:34  332 333	 1492781194	 196448879	 271448.
13:26:34  333 334	 1492781194	 472251464	 275802.
13:26:34  334 335	 1492781194	 744520580	 272269.
13:26:34  335 336	 1492781194	 967026719	 222506.
13:26:35  336 337	 1492781195	 238493373	 271467.
13:26:35  337 338	 1492781195	 514054928	 275562.
13:26:35  338 339	 1492781195	 786124138	 272069.
13:26:36  339 340	 1492781196	 62386837	 276263.
13:26:36  340 341	 1492781196	 334022049	 271635.
13:26:36  341 342	 1492781196	 556731720	 222710.
13:26:36  342 343	 1492781196	 828501355	 271769.
13:26:37  343 344	 1492781197	 104562269	 276061.
13:26:37  344 345	 1492781197	 380283282	 275721.
13:26:37  345 346	 1492781197	 652560737	 272278.
13:26:37  346 347	 1492781197	 928739785	 276179.
13:26:38  347 348	 1492781198	 147470185	 218730.
13:26:38  348 349	 1492781198	 423390661	 275920.
13:26:38  349 350	 1492781198	 699407492	 276017.
13:26:38  350 351	 1492781198	 970925002	 271518.
13:26:39  351 352	 1492781199	 246871924	 275947.
13:26:39  352 353	 1492781199	 518941264	 272069.
13:26:39  353 354	 1492781199	 795359212	 276418.
13:26:40  354 355	 1492781200	 14098129	 218739.
13:26:40  355 356	 1492781200	 289951072	 275853.
13:26:40  356 357	 1492781200	 565544618	 275593.
13:26:40  357 358	 1492781200	 837331890	 271788.
13:26:41  358 359	 1492781201	 113437622	 276105.
13:26:41  359 360	 1492781201	 384216976	 270780.
13:26:41  360 361	 1492781201	 606077863	 221861.
13:26:41  361 362	 1492781201	 877676758	 271599.
13:26:42  362 363	 1492781202	 153733206	 276056.
13:26:42  363 364	 1492781202	 425531985	 271799.
13:26:42  364 365	 1492781202	 647734020	 222202.
13:26:42  365 366	 1492781202	 923597925	 275864.
13:26:43  366 367	 1492781203	 195293504	 271695.
13:26:43  367 368	 1492781203	 470604946	 275312.
13:26:43  368 369	 1492781203	 689462048	 218857.
13:26:43  369 370	 1492781203	 965090315	 275628.
13:26:44  370 371	 1492781204	 236456759	 271367.
13:26:44  371 372	 1492781204	 512454192	 275997.
13:26:44  372 373	 1492781204	 734846747	 222393.
13:26:45  373 374	 1492781205	 5871266	 271024.
13:26:45  374 375	 1492781205	 281136599	 275265.
13:26:45  375 376	 1492781205	 552229345	 271093.
13:26:45  376 377	 1492781205	 774792226	 222563.
13:26:46  377 378	 1492781206	 50548294	 275756.
13:26:46  378 379	 1492781206	 321984773	 271437.
13:26:46  379 380	 1492781206	 593539000	 271554.
13:26:46  380 381	 1492781206	 820098804	 226560.
13:26:47  381 382	 1492781207	 91419774	 271320.
13:26:47  382 383	 1492781207	 366768123	 275349.
13:26:47  383 384	 1492781207	 638585529	 271817.
13:26:47  384 385	 1492781207	 865317744	 226732.
13:26:48  385 386	 1492781208	 137099948	 271783.
13:26:48  386 387	 1492781208	 413137285	 276037.
13:26:48  387 388	 1492781208	 684909604	 271772.
13:26:48  388 389	 1492781208	 907375960	 222467.
13:26:49  389 390	 1492781209	 183305206	 275929.
13:26:49  390 391	 1492781209	 458967792	 275663.
13:26:49  391 392	 1492781209	 734721713	 275753.
13:26:50  392 393	 1492781210	 6820932	 272100.
13:26:50  393 394	 1492781210	 229333193	 222512.
13:26:50  394 395	 1492781210	 501276153	 271943.
13:26:50  395 396	 1492781210	 776669040	 275393.
13:26:51  396 397	 1492781211	 52743361	 276074.
13:26:51  397 398	 1492781211	 324311706	 271568.
13:26:51  398 399	 1492781211	 547040576	 222729.
13:26:51  399 400	 1492781211	 822485750	 275445.
13:26:52  400 401	 1492781212	 93956673	 271471.
13:26:52  401 402	 1492781212	 368863022	 274907.
13:26:52  402 403	 1492781212	 591367864	 222505.
13:26:52  403 404	 1492781212	 862584014	 271216.
13:26:53  404 405	 1492781213	 138049464	 275465.
13:26:53  405 406	 1492781213	 360266849	 222217.
13:26:53  406 407	 1492781213	 632006192	 271740.
13:26:53  407 408	 1492781213	 907970949	 275965.
13:26:54  408 409	 1492781214	 179794991	 271824.
13:26:54  409 410	 1492781214	 455129325	 275334.
13:26:54  410 411	 1492781214	 678283013	 223154.
13:26:54  411 412	 1492781214	 950286363	 272003.
13:26:55  412 413	 1492781215	 225818369	 275532.
13:26:55  413 414	 1492781215	 497032025	 271214.
13:26:55  414 415	 1492781215	 773095512	 276063.
13:26:55  415 416	 1492781215	 991793173	 218698.
13:26:56  416 417	 1492781216	 268051022	 276258.
13:26:56  417 418	 1492781216	 544202308	 276151.
13:26:56  418 419	 1492781216	 815891462	 271689.
13:26:57  419 420	 1492781217	 91137258	 275246.
13:26:57  420 421	 1492781217	 313532224	 222395.
13:26:57  421 422	 1492781217	 584962855	 271431.
13:26:57  422 423	 1492781217	 860888071	 275925.
13:26:58  423 424	 1492781218	 132326712	 271438.
13:26:58  424 425	 1492781218	 358870911	 226545.
13:26:58  425 426	 1492781218	 630197023	 271326.
13:26:58  426 427	 1492781218	 905816577	 275619.
13:26:59  427 428	 1492781219	 177575163	 271759.
13:26:59  428 429	 1492781219	 400948950	 223374.
13:26:59  429 430	 1492781219	 677408906	 276460.
13:26:59  430 431	 1492781219	 949172702	 271763.
13:27:00  431 432	 1492781220	 224483735	 275312.
13:27:00  432 433	 1492781220	 495334159	 270850.
13:27:00  433 434	 1492781220	 771442414	 276108.
13:27:01  434 435	 1492781221	 42767702	 271325.
13:27:01  435 436	 1492781221	 264917128	 222150.
13:27:01  436 437	 1492781221	 535935877	 271019.
13:27:01  437 438	 1492781221	 811340477	 275404.
13:27:02  438 439	 1492781222	 82376478	 271036.
13:27:02  439 440	 1492781222	 353498570	 271122.
13:27:02  440 441	 1492781222	 624655186	 271157.
13:27:02  441 442	 1492781222	 899928265	 275273.
13:27:03  442 443	 1492781223	 121958568	 222030.
13:27:03  443 444	 1492781223	 392796441	 270838.
13:27:03  444 445	 1492781223	 663957382	 271161.
13:27:03  445 446	 1492781223	 939273267	 275316.
13:27:04  446 447	 1492781224	 210324758	 271052.
13:27:04  447 448	 1492781224	 432517627	 222192.
13:27:04  448 449	 1492781224	 704067338	 271550.
13:27:04  449 450	 1492781224	 975554210	 271487.
13:27:05  450 451	 1492781225	 246971030	 271417.
13:27:05  451 452	 1492781225	 522844552	 275873.
13:27:05  452 453	 1492781225	 794303469	 271459.
13:27:06  453 454	 1492781226	 66442798	 272140.
13:27:06  454 455	 1492781226	 343375293	 276932.
13:27:06  455 456	 1492781226	 616297394	 272922.
13:27:06  456 457	 1492781226	 892154646	 275857.
13:27:07  457 458	 1492781227	 167840161	 275686.
13:27:07  458 459	 1492781227	 443397084	 275557.
13:27:07  459 460	 1492781227	 719202637	 275805.
13:27:07  460 461	 1492781227	 941942019	 222740.
13:27:08  461 462	 1492781228	 217978914	 276037.
13:27:08  462 463	 1492781228	 489256922	 271278.
13:27:08  463 464	 1492781228	 764564347	 275307.
13:27:08  464 465	 1492781228	 987280637	 222716.
13:27:09  465 466	 1492781229	 258839090	 271559.
13:27:09  466 467	 1492781229	 534640429	 275801.
13:27:09  467 468	 1492781229	 806105408	 271465.
13:27:10  468 469	 1492781230	 81763546	 275658.
13:27:10  469 470	 1492781230	 299966633	 218203.
13:27:10  470 471	 1492781230	 576461510	 276495.
13:27:10  471 472	 1492781230	 851820300	 275359.
13:27:11  472 473	 1492781231	 123527953	 271708.
13:27:11  473 474	 1492781231	 346026984	 222499.
13:27:11  474 475	 1492781231	 621852737	 275826.
13:27:11  475 476	 1492781231	 892877498	 271024.
13:27:12  476 477	 1492781232	 168642960	 275766.
13:27:12  477 478	 1492781232	 391361908	 222719.
13:27:12  478 479	 1492781232	 663022591	 271661.
13:27:12  479 480	 1492781232	 939100132	 276077.
13:27:13  480 481	 1492781233	 211099613	 271999.
13:27:13  481 482	 1492781233	 433312897	 222214.
13:27:13  482 483	 1492781233	 709326569	 276013.
13:27:13  483 484	 1492781233	 980546923	 271221.
13:27:14  484 485	 1492781234	 251347299	 270800.
13:27:14  485 486	 1492781234	 527945006	 276598.
13:27:14  486 487	 1492781234	 800206102	 272261.
13:27:15  487 488	 1492781235	 76222269	 276016.
13:27:15  488 489	 1492781235	 298978437	 222756.
13:27:15  489 490	 1492781235	 570542851	 271565.
13:27:15  490 491	 1492781235	 846724014	 276181.
13:27:16  491 492	 1492781236	 118749589	 272025.
13:27:16  492 493	 1492781236	 394828051	 276079.
13:27:16  493 494	 1492781236	 666916371	 272088.
13:27:16  494 495	 1492781236	 942805985	 275890.
13:27:17  495 496	 1492781237	 164155220	 221349.
13:27:17  496 497	 1492781237	 435384190	 271229.
13:27:17  497 498	 1492781237	 706597771	 271214.
13:27:17  498 499	 1492781237	 982197712	 275600.
13:27:18  499 500	 1492781238	 253686462	 271488.
13:27:18  500 501	 1492781238	 525321326	 271635.
13:27:18  501 502	 1492781238	 801443834	 276123.
13:27:19  502 503	 1492781239	 23513719	 222069.
13:27:19  503 504	 1492781239	 294427244	 270914.
13:27:19  504 505	 1492781239	 565810072	 271383.
13:27:19  505 506	 1492781239	 841193946	 275384.
13:27:20  506 507	 1492781240	 63748163	 222554.
13:27:20  507 508	 1492781240	 334710670	 270962.
13:27:20  508 509	 1492781240	 606228208	 271518.
13:27:20  509 510	 1492781240	 882023338	 275795.
13:27:21  510 511	 1492781241	 153808811	 271786.
13:27:21  511 512	 1492781241	 429557703	 275748.
13:27:21  512 513	 1492781241	 651998628	 222441.
13:27:21  513 514	 1492781241	 923620420	 271622.
13:27:22  514 515	 1492781242	 195328702	 271708.
13:27:22  515 516	 1492781242	 471292603	 275964.
13:27:22  516 517	 1492781242	 743472096	 272180.
13:27:23  517 518	 1492781243	 19422866	 275951.
13:27:23  518 519	 1492781243	 291037947	 271615.
13:27:23  519 520	 1492781243	 562738034	 271700.
13:27:23  520 521	 1492781243	 785062183	 222324.
13:27:24  521 522	 1492781244	 60624298	 275562.
13:27:24  522 523	 1492781244	 332295151	 271671.
13:27:24  523 524	 1492781244	 603988749	 271694.
13:27:24  524 525	 1492781244	 879967780	 275979.
13:27:25  525 526	 1492781245	 151366105	 271398.
13:27:25  526 527	 1492781245	 426756271	 275390.
13:27:25  527 528	 1492781245	 649558320	 222802.
13:27:25  528 529	 1492781245	 921424890	 271867.
13:27:26  529 530	 1492781246	 192364372	 270939.
13:27:26  530 531	 1492781246	 467337918	 274974.
13:27:26  531 532	 1492781246	 738694114	 271356.
13:27:27  532 533	 1492781247	 9382844	 270689.
13:27:27  533 534	 1492781247	 279962618	 270579.
13:27:27  534 535	 1492781247	 501996562	 222034.
13:27:27  535 536	 1492781247	 773109359	 271113.
13:27:28  536 537	 1492781248	 48405619	 275296.
13:27:28  537 538	 1492781248	 319694825	 271290.
13:27:28  538 539	 1492781248	 541866545	 222171.
13:27:28  539 540	 1492781248	 813517413	 271651.
13:27:29  540 541	 1492781249	 85309321	 271792.
13:27:29  541 542	 1492781249	 360872366	 275563.
13:27:29  542 543	 1492781249	 632664098	 271792.
13:27:29  543 544	 1492781249	 908317150	 275653.
13:27:30  544 545	 1492781250	 179911873	 271595.
13:27:30  545 546	 1492781250	 402252720	 222340.
13:27:30  546 547	 1492781250	 672992604	 270740.
13:27:30  547 548	 1492781250	 943906560	 270914.
13:27:31  548 549	 1492781251	 214503498	 270597.
13:27:31  549 550	 1492781251	 490119452	 275616.
13:27:31  550 551	 1492781251	 713026274	 222907.
13:27:31  551 552	 1492781251	 984693675	 271667.
13:27:32  552 553	 1492781252	 260470425	 275777.
13:27:32  553 554	 1492781252	 532344807	 271874.
13:27:32  554 555	 1492781252	 808233473	 275889.
13:27:33  555 556	 1492781253	 30249602	 222016.
13:27:33  556 557	 1492781253	 302455982	 272207.
13:27:33  557 558	 1492781253	 578260109	 275804.
13:27:33  558 559	 1492781253	 849673535	 271413.
13:27:34  559 560	 1492781254	 72046741	 222374.
13:27:34  560 561	 1492781254	 347230453	 275184.
13:27:34  561 562	 1492781254	 623446945	 276216.
13:27:34  562 563	 1492781254	 892181173	 268734.
13:27:35  563 564	 1492781255	 164009310	 271828.
13:27:35  564 565	 1492781255	 439509753	 275501.
13:27:35  565 566	 1492781255	 661960422	 222450.
13:27:35  566 567	 1492781255	 933934821	 271975.
13:27:36  567 568	 1492781256	 209552537	 275617.
13:27:36  568 569	 1492781256	 485424156	 275872.
13:27:36  569 570	 1492781256	 707967079	 222543.
13:27:36  570 571	 1492781256	 979394774	 271428.
13:27:37  571 572	 1492781257	 254842315	 275447.
13:27:37  572 573	 1492781257	 477262427	 222420.
13:27:37  573 574	 1492781257	 748884759	 271623.
13:27:38  574 575	 1492781258	 24047681	 275162.
13:27:38  575 576	 1492781258	 246419828	 222372.
13:27:38  576 577	 1492781258	 517788989	 271370.
13:27:38  577 578	 1492781258	 793703283	 275914.
13:27:39  578 579	 1492781259	 15870480	 222167.
13:27:39  579 580	 1492781259	 291472318	 275602.
13:27:39  580 581	 1492781259	 562977259	 271505.
13:27:39  581 582	 1492781259	 838250570	 275273.
13:27:40  582 583	 1492781260	 61272481	 223022.
13:27:40  583 584	 1492781260	 336495113	 275223.
13:27:40  584 585	 1492781260	 608111984	 271617.
13:27:40  585 586	 1492781260	 883910701	 275798.
13:27:41  586 587	 1492781261	 106683989	 222774.
13:27:41  587 588	 1492781261	 378106436	 271422.
13:27:41  588 589	 1492781261	 653730992	 275625.
13:27:41  589 590	 1492781261	 876128343	 222397.
13:27:42  590 591	 1492781262	 151468191	 275340.
13:27:42  591 592	 1492781262	 422877166	 271409.
13:27:42  592 593	 1492781262	 694840020	 271963.
13:27:42  593 594	 1492781262	 921830995	 226991.
13:27:43  594 595	 1492781263	 193683241	 271852.
13:27:43  595 596	 1492781263	 469466034	 275783.
13:27:43  596 597	 1492781263	 741492064	 272026.
13:27:44  597 598	 1492781264	 17286449	 275794.
13:27:44  598 599	 1492781264	 239560244	 222274.
13:27:44  599 600	 1492781264	 511169958	 271610.
13:27:44  600 601	 1492781264	 786630554	 275460.
13:27:45  601 602	 1492781265	 9454358	 222824.
13:27:45  602 603	 1492781265	 285275254	 275821.
13:27:45  603 604	 1492781265	 557217841	 271943.
13:27:45  604 605	 1492781265	 832653608	 275435.
13:27:46  605 606	 1492781266	 104248491	 271595.
13:27:46  606 607	 1492781266	 326706046	 222458.
13:27:46  607 608	 1492781266	 597847436	 271141.
13:27:46  608 609	 1492781266	 868419402	 270572.
13:27:47  609 610	 1492781267	 143371411	 274952.
13:27:47  610 611	 1492781267	 365483614	 222112.
13:27:47  611 612	 1492781267	 641023066	 275540.
13:27:47  612 613	 1492781267	 912758352	 271735.
13:27:48  613 614	 1492781268	 188362739	 275605.
13:27:48  614 615	 1492781268	 459880418	 271517.
13:27:48  615 616	 1492781268	 682690546	 222810.
13:27:48  616 617	 1492781268	 954037025	 271347.
13:27:49  617 618	 1492781269	 229789229	 275752.
13:27:49  618 619	 1492781269	 505903110	 276114.
13:27:49  619 620	 1492781269	 777544457	 271641.
13:27:49  620 621	 1492781270	 172226	 222628.
13:27:50  621 622	 1492781270	 275733141	 275561.
13:27:50  622 623	 1492781270	 547339769	 271606.
13:27:50  623 624	 1492781270	 818522168	 271183.
13:27:51  624 625	 1492781271	 40833875	 222312.
13:27:51  625 626	 1492781271	 316348092	 275514.
13:27:51  626 627	 1492781271	 587562317	 271214.
13:27:51  627 628	 1492781271	 809633387	 222071.
13:27:52  628 629	 1492781272	 85659492	 276026.
13:27:52  629 630	 1492781272	 361320654	 275661.
13:27:52  630 631	 1492781272	 633480195	 272160.
13:27:52  631 632	 1492781272	 856211490	 222731.
13:27:53  632 633	 1492781273	 132160337	 275949.
13:27:53  633 634	 1492781273	 403616146	 271456.
13:27:53  634 635	 1492781273	 678908016	 275292.
13:27:53  635 636	 1492781273	 950842525	 271934.
13:27:54  636 637	 1492781274	 173775654	 222933.
13:27:54  637 638	 1492781274	 449893105	 276118.
13:27:54  638 639	 1492781274	 725883864	 275991.
13:27:54  639 640	 1492781274	 998241432	 272357.
13:27:55  640 641	 1492781275	 269808585	 271567.
13:27:55  641 642	 1492781275	 545679135	 275871.
13:27:55  642 643	 1492781275	 768668922	 222990.
13:27:56  643 644	 1492781276	 40054705	 271386.
13:27:56  644 645	 1492781276	 316153501	 276098.
13:27:56  645 646	 1492781276	 587566248	 271413.
13:27:56  646 647	 1492781276	 809807536	 222241.
13:27:57  647 648	 1492781277	 85593804	 275786.
13:27:57  648 649	 1492781277	 362194014	 276601.
13:27:57  649 650	 1492781277	 620739128	 258545.
13:27:57  650 651	 1492781277	 891251082	 270512.
13:27:58  651 652	 1492781278	 113437631	 222187.
13:27:58  652 653	 1492781278	 388737026	 275299.
13:27:58  653 654	 1492781278	 660212914	 271476.
13:27:58  654 655	 1492781278	 936272502	 276059.
13:27:59  655 656	 1492781279	 207779177	 271507.
13:27:59  656 657	 1492781279	 430560822	 222781.
13:27:59  657 658	 1492781279	 702646761	 272087.
13:27:59  658 659	 1492781279	 978528234	 275881.
13:28:00  659 660	 1492781280	 254110167	 275582.
13:28:00  660 661	 1492781280	 526698628	 272588.
13:28:00  661 662	 1492781280	 802409592	 275711.
13:28:01  662 663	 1492781281	 20099552	 217691.
13:28:01  663 664	 1492781281	 295602092	 275502.
13:28:01  664 665	 1492781281	 566671048	 271069.
13:28:01  665 666	 1492781281	 837769617	 271098.
13:28:02  666 667	 1492781282	 113141193	 275372.
13:28:02  667 668	 1492781282	 384327727	 271187.
13:28:02  668 669	 1492781282	 655275606	 270947.
13:28:02  669 670	 1492781282	 877414427	 222139.
13:28:03  670 671	 1492781283	 149353577	 271939.
13:28:03  671 672	 1492781283	 425256588	 275904.
13:28:03  672 673	 1492781283	 696488403	 271231.
13:28:03  673 674	 1492781283	 967709904	 271222.
13:28:04  674 675	 1492781284	 243223700	 275513.
13:28:04  675 676	 1492781284	 514173453	 270950.
13:28:04  676 677	 1492781284	 735642523	 221469.
13:28:05  677 678	 1492781285	 6870371	 271228.
13:28:05  678 679	 1492781285	 277814744	 270944.
13:28:05  679 680	 1492781285	 552832438	 275018.
13:28:05  680 681	 1492781285	 823923274	 271091.
13:28:06  681 682	 1492781286	 95251068	 271328.
13:28:06  682 683	 1492781286	 371632147	 276381.
13:28:06  683 684	 1492781286	 643662301	 272030.
13:28:06  684 685	 1492781286	 866374132	 222712.
13:28:07  685 686	 1492781287	 142326901	 275953.
13:28:07  686 687	 1492781287	 413618586	 271291.
13:28:07  687 688	 1492781287	 689491422	 275873.
13:28:07  688 689	 1492781287	 912671777	 223180.
13:28:08  689 690	 1492781288	 184122027	 271451.
13:28:08  690 691	 1492781288	 459995827	 275874.
13:28:08  691 692	 1492781288	 735502005	 275506.
13:28:08  692 693	 1492781288	 957974914	 222473.
13:28:09  693 694	 1492781289	 229349446	 271374.
13:28:09  694 695	 1492781289	 505311390	 275962.
13:28:09  695 696	 1492781289	 727700731	 222390.
13:28:09  696 697	 1492781289	 999659592	 271958.
13:28:10  697 698	 1492781290	 329351629	 329692.
13:28:10  698 699	 1492781290	 604695603	 275344.
13:28:10  699 700	 1492781290	 875948898	 271254.
13:28:11  700 701	 1492781291	 147180529	 271231.
13:28:11  701 702	 1492781291	 374281996	 227102.
13:28:11  702 703	 1492781291	 700870399	 326588.
13:28:11  703 704	 1492781291	 974235552	 273365.
13:28:12  704 705	 1492781292	 246050622	 271815.
13:28:12  705 706	 1492781292	 521590068	 275540.
13:28:12  706 707	 1492781292	 743779114	 222189.
13:28:13  707 708	 1492781293	 14809318	 271030.
13:28:13  708 709	 1492781293	 285773747	 270965.
13:28:13  709 710	 1492781293	 561993325	 276219.
13:28:13  710 711	 1492781293	 834374771	 272382.
13:28:14  711 712	 1492781294	 105815134	 271440.
13:28:14  712 713	 1492781294	 376989982	 271175.
13:28:14  713 714	 1492781294	 652616404	 275626.
13:28:14  714 715	 1492781294	 924339874	 271724.
13:28:15  715 716	 1492781295	 195452228	 271112.
13:28:15  716 717	 1492781295	 470694711	 275243.
13:28:15  717 718	 1492781295	 742117765	 271423.
13:28:16  718 719	 1492781296	 13150115	 271032.
13:28:16  719 720	 1492781296	 288335026	 275185.
13:28:16  720 721	 1492781296	 559368437	 271033.
13:28:16  721 722	 1492781296	 781893104	 222525.
13:28:17  722 723	 1492781297	 53799788	 271907.
13:28:17  723 724	 1492781297	 325215439	 271415.
13:28:17  724 725	 1492781297	 600606128	 275391.
13:28:17  725 726	 1492781297	 871733802	 271128.
13:28:18  726 727	 1492781298	 142620433	 270886.
13:28:18  727 728	 1492781298	 417600871	 274981.
13:28:18  728 729	 1492781298	 688766728	 271165.
13:28:18  729 730	 1492781298	 910677267	 221911.
13:28:19  730 731	 1492781299	 181661070	 270984.
13:28:19  731 732	 1492781299	 452233556	 270572.
13:28:19  732 733	 1492781299	 722836158	 270603.
13:28:19  733 734	 1492781299	 997580006	 274744.
13:28:20  734 735	 1492781300	 219733533	 222153.
13:28:20  735 736	 1492781300	 491087351	 271354.
13:28:20  736 737	 1492781300	 762351794	 271265.
13:28:21  737 738	 1492781301	 37178239	 274826.
13:28:21  738 739	 1492781301	 308253247	 271075.
13:28:21  739 740	 1492781301	 530931074	 222678.
13:28:21  740 741	 1492781301	 806968404	 276037.
13:28:22  741 742	 1492781302	 78633511	 271665.
13:28:22  742 743	 1492781302	 354138265	 275505.
13:28:22  743 744	 1492781302	 625076088	 270938.
13:28:22  744 745	 1492781302	 896447950	 271372.
13:28:23  745 746	 1492781303	 167322596	 270874.
13:28:23  746 747	 1492781303	 389682799	 222361.
13:28:23  747 748	 1492781303	 660769251	 271086.
13:28:23  748 749	 1492781303	 935949893	 275181.
13:28:24  749 750	 1492781304	 207007496	 271057.
13:28:24  750 751	 1492781304	 478567202	 271560.
13:28:24  751 752	 1492781304	 749993338	 271426.
13:28:25  752 753	 1492781305	 25002569	 275009.
13:28:25  753 754	 1492781305	 296664458	 271662.
13:28:25  754 755	 1492781305	 519291763	 222628.
13:28:25  755 756	 1492781305	 794643621	 275351.
13:28:26  756 757	 1492781306	 66011978	 271369.
13:28:26  757 758	 1492781306	 341703085	 275691.
13:28:26  758 759	 1492781306	 564438561	 222735.
13:28:26  759 760	 1492781306	 835336590	 270898.
13:28:27  760 761	 1492781307	 111620286	 276284.
13:28:27  761 762	 1492781307	 370902299	 259282.
13:28:27  762 763	 1492781307	 642172655	 271270.
13:28:27  763 764	 1492781307	 868266106	 226094.
13:28:28  764 765	 1492781308	 139603982	 271338.
13:28:28  765 766	 1492781308	 415328726	 275725.
13:28:28  766 767	 1492781308	 638006952	 222678.
13:28:28  767 768	 1492781308	 908626365	 270619.
13:28:29  768 769	 1492781309	 179593763	 270968.
13:28:29  769 770	 1492781309	 450698023	 271104.
13:28:29  770 771	 1492781309	 721614258	 270916.
13:28:29  771 772	 1492781309	 943573746	 221959.
13:28:30  772 773	 1492781310	 218752852	 275180.
13:28:30  773 774	 1492781310	 489998341	 271245.
13:28:30  774 775	 1492781310	 765412613	 275414.
13:28:30  775 776	 1492781310	 987645131	 222233.
13:28:31  776 777	 1492781311	 259059755	 271415.
13:28:31  777 778	 1492781311	 535081968	 276022.
13:28:31  778 779	 1492781311	 806489233	 271407.
13:28:32  779 780	 1492781312	 28890313	 222401.
13:28:32  780 781	 1492781312	 304091492	 275201.
13:28:32  781 782	 1492781312	 575464440	 271373.
13:28:32  782 783	 1492781312	 851608841	 276145.
13:28:33  783 784	 1492781313	 73401791	 221792.
13:28:33  784 785	 1492781313	 345310132	 271909.
13:28:33  785 786	 1492781313	 621016627	 275706.
13:28:33  786 787	 1492781313	 892888697	 271872.
13:28:34  787 788	 1492781314	 115420872	 222532.
13:28:34  788 789	 1492781314	 390317748	 274897.
13:28:34  789 790	 1492781314	 662445210	 272128.
13:28:34  790 791	 1492781314	 939161047	 276716.
13:28:35  791 792	 1492781315	 210599414	 271438.
13:28:35  792 793	 1492781315	 486579796	 275981.
13:28:35  793 794	 1492781315	 709468255	 222888.
13:28:35  794 795	 1492781315	 981149925	 271682.
13:28:36  795 796	 1492781316	 257700496	 276550.
13:28:36  796 797	 1492781316	 529866242	 272166.
13:28:36  797 798	 1492781316	 806022968	 276157.
13:28:37  798 799	 1492781317	 77839609	 271816.
13:28:37  799 800	 1492781317	 353840436	 276001.
13:28:37  800 801	 1492781317	 626030686	 272190.
13:28:37  801 802	 1492781317	 902057855	 276028.
13:28:38  802 803	 1492781318	 124520698	 222463.
13:28:38  803 804	 1492781318	 396047665	 271526.
13:28:38  804 805	 1492781318	 671522993	 275476.
13:28:38  805 806	 1492781318	 943383575	 271860.
13:28:39  806 807	 1492781319	 165534902	 222152.
13:28:39  807 808	 1492781319	 437176734	 271641.
13:28:39  808 809	 1492781319	 712799622	 275624.
13:28:39  809 810	 1492781319	 984141735	 271342.
13:28:40  810 811	 1492781320	 259394675	 275252.
13:28:40  811 812	 1492781320	 482117480	 222723.
13:28:40  812 813	 1492781320	 753635205	 271518.
13:28:41  813 814	 1492781321	 29512929	 275878.
13:28:41  814 815	 1492781321	 301469394	 271956.
13:28:41  815 816	 1492781321	 576972262	 275503.
13:28:41  816 817	 1492781321	 799475989	 222504.
13:28:42  817 818	 1492781322	 71067109	 271591.
13:28:42  818 819	 1492781322	 346650958	 275584.
13:28:42  819 820	 1492781322	 618553092	 271902.
13:28:42  820 821	 1492781322	 890450209	 271897.
13:28:43  821 822	 1492781323	 113420282	 222970.
13:28:43  822 823	 1492781323	 388768827	 275349.
13:28:43  823 824	 1492781323	 660177404	 271408.
13:28:43  824 825	 1492781323	 931538085	 271361.
13:28:44  825 826	 1492781324	 207404824	 275867.
13:28:44  826 827	 1492781324	 482864710	 275459.
13:28:44  827 828	 1492781324	 701406076	 218542.
13:28:44  828 829	 1492781324	 977344741	 275939.
13:28:45  829 830	 1492781325	 248468030	 271123.
13:28:45  830 831	 1492781325	 519489769	 271022.
13:28:45  831 832	 1492781325	 795026291	 275536.
13:28:46  832 833	 1492781326	 66171940	 271146.
13:28:46  833 834	 1492781326	 288743570	 222571.
13:28:46  834 835	 1492781326	 560217912	 271475.
13:28:46  835 836	 1492781326	 831389993	 271172.
13:28:47  836 837	 1492781327	 106641717	 275251.
13:28:47  837 838	 1492781327	 377877268	 271236.
13:28:47  838 839	 1492781327	 648636901	 270760.
13:28:47  839 840	 1492781327	 870564439	 221927.
13:28:48  840 841	 1492781328	 145966436	 275402.
13:28:48  841 842	 1492781328	 417404103	 271438.
13:28:48  842 843	 1492781328	 688918113	 271514.
13:28:48  843 844	 1492781328	 964468354	 275550.
13:28:49  844 845	 1492781329	 236711089	 272243.
13:28:49  845 846	 1492781329	 513133169	 276422.
13:28:49  846 847	 1492781329	 784527422	 271394.
13:28:50  847 848	 1492781330	 59889303	 275362.
13:28:50  848 849	 1492781330	 277829103	 217940.
13:28:50  849 850	 1492781330	 549259463	 271430.
13:28:50  850 851	 1492781330	 824717394	 275458.
13:28:51  851 852	 1492781331	 95683969	 270967.
13:28:51  852 853	 1492781331	 366628408	 270944.
13:28:51  853 854	 1492781331	 642601986	 275974.
13:28:51  854 855	 1492781331	 914456820	 271855.
13:28:52  855 856	 1492781332	 185785895	 271329.
13:28:52  856 857	 1492781332	 407932357	 222146.
13:28:52  857 858	 1492781332	 683176675	 275244.
13:28:52  858 859	 1492781332	 954649309	 271473.
13:28:53  859 860	 1492781333	 225462026	 270813.
13:28:53  860 861	 1492781333	 447266867	 221805.
13:28:53  861 862	 1492781333	 722770427	 275503.
13:28:53  862 863	 1492781333	 994193883	 271424.
13:28:54  863 864	 1492781334	 269295445	 275101.
13:28:54  864 865	 1492781334	 491839718	 222544.
13:28:54  865 866	 1492781334	 759936616	 268097.
13:28:55  866 867	 1492781335	 31015874	 271080.
13:28:55  867 868	 1492781335	 302583466	 271567.
13:28:55  868 869	 1492781335	 578483476	 275900.
13:28:55  869 870	 1492781335	 849826349	 271343.
13:28:56  870 871	 1492781336	 72238683	 222412.
13:28:56  871 872	 1492781336	 347881642	 275643.
13:28:56  872 873	 1492781336	 619238315	 271357.
13:28:56  873 874	 1492781336	 841810159	 222572.
13:28:57  874 875	 1492781337	 117219531	 275409.
13:28:57  875 876	 1492781337	 388984325	 271765.
13:28:57  876 877	 1492781337	 664529388	 275545.
13:28:57  877 878	 1492781337	 882738428	 218209.
13:28:58  878 879	 1492781338	 158709914	 275972.
13:28:58  879 880	 1492781338	 430374497	 271664.
13:28:58  880 881	 1492781338	 706640843	 276267.
13:28:58  881 882	 1492781338	 981644996	 275004.
13:28:59  882 883	 1492781339	 203544445	 221899.
13:28:59  883 884	 1492781339	 474708958	 271165.
13:28:59  884 885	 1492781339	 750677858	 275969.
13:29:00  885 886	 1492781340	 22107049	 271429.
13:29:00  886 887	 1492781340	 244033305	 221926.
13:29:00  887 888	 1492781340	 515178508	 271145.
13:29:00  888 889	 1492781340	 790634519	 275456.
13:29:01  889 890	 1492781341	 61791463	 271157.
13:29:01  890 891	 1492781341	 332723298	 270932.
13:29:01  891 892	 1492781341	 603554026	 270831.
13:29:01  892 893	 1492781341	 878514246	 274960.
13:29:02  893 894	 1492781342	 100773883	 222260.
13:29:02  894 895	 1492781342	 371770680	 270996.
13:29:02  895 896	 1492781342	 643151684	 271381.
13:29:02  896 897	 1492781342	 918868981	 275718.
13:29:03  897 898	 1492781343	 190442662	 271573.
13:29:03  898 899	 1492781343	 462075669	 271634.
13:29:03  899 900	 1492781343	 733596105	 271520.
13:29:04  900 901	 1492781344	 9148780	 275553.
13:29:04  901 902	 1492781344	 280812007	 271663.
13:29:04  902 903	 1492781344	 552104161	 271292.
13:29:04  903 904	 1492781344	 823326981	 271223.
13:29:05  904 905	 1492781345	 99061673	 275734.
13:29:05  905 906	 1492781345	 370221222	 271160.
13:29:05  906 907	 1492781345	 641565091	 271344.
13:29:05  907 908	 1492781345	 912765942	 271201.
13:29:06  908 909	 1492781346	 188454581	 275688.
13:29:06  909 910	 1492781346	 407076118	 218622.
13:29:06  910 911	 1492781346	 682634070	 275558.
13:29:06  911 912	 1492781346	 954186621	 271552.
13:29:07  912 913	 1492781347	 229749951	 275564.
13:29:07  913 914	 1492781347	 501058883	 271309.
13:29:07  914 915	 1492781347	 773001323	 271942.
13:29:08  915 916	 1492781348	 48887821	 275887.
13:29:08  916 917	 1492781348	 271917457	 223029.
13:29:08  917 918	 1492781348	 543843047	 271926.
13:29:08  918 919	 1492781348	 819282272	 275439.
13:29:09  919 920	 1492781349	 91147278	 271865.
13:29:09  920 921	 1492781349	 367099936	 275953.
13:29:09  921 922	 1492781349	 638930281	 271830.
13:29:09  922 923	 1492781349	 910415972	 271486.
13:29:10  923 924	 1492781350	 181262756	 270847.
13:29:10  924 925	 1492781350	 456150746	 274888.
13:29:10  925 926	 1492781350	 674102665	 217951.
13:29:10  926 927	 1492781350	 949278939	 275177.
13:29:11  927 928	 1492781351	 220768687	 271489.
13:29:11  928 929	 1492781351	 492110818	 271343.
13:29:11  929 930	 1492781351	 767825722	 275715.
13:29:12  930 931	 1492781352	 43796121	 275970.
13:29:12  931 932	 1492781352	 262269106	 218473.
13:29:12  932 933	 1492781352	 537777529	 275508.
13:29:12  933 934	 1492781352	 813337437	 275560.
13:29:13  934 935	 1492781353	 35450961	 222114.
13:29:13  935 936	 1492781353	 310582009	 275131.
13:29:13  936 937	 1492781353	 581774427	 271192.
13:29:13  937 938	 1492781353	 857455610	 275681.
13:29:14  938 939	 1492781354	 79791453	 222336.
13:29:14  939 940	 1492781354	 351449936	 271659.
13:29:14  940 941	 1492781354	 627478028	 276028.
13:29:14  941 942	 1492781354	 898936342	 271458.
13:29:15  942 943	 1492781355	 174085012	 275149.
13:29:15  943 944	 1492781355	 396568777	 222484.
13:29:15  944 945	 1492781355	 668504021	 271935.
13:29:15  945 946	 1492781355	 943598249	 275094.
13:29:16  946 947	 1492781356	 215311094	 271713.
13:29:16  947 948	 1492781356	 437668682	 222357.
13:29:16  948 949	 1492781356	 713001127	 275333.
13:29:16  949 950	 1492781356	 984286833	 271285.
13:29:17  950 951	 1492781357	 210528815	 226243.
13:29:17  951 952	 1492781357	 481511091	 270982.
13:29:17  952 953	 1492781357	 756649041	 275138.
13:29:18  953 954	 1492781358	 31991348	 275342.
13:29:18  954 955	 1492781358	 254388782	 222398.
13:29:18  955 956	 1492781358	 525861869	 271473.
13:29:18  956 957	 1492781358	 797573414	 271711.
13:29:19  957 958	 1492781359	 73227736	 275655.
13:29:19  958 959	 1492781359	 344070941	 270843.
13:29:19  959 960	 1492781359	 619477011	 275406.
13:29:19  960 961	 1492781359	 841474719	 221997.
13:29:20  961 962	 1492781360	 113237389	 271763.
13:29:20  962 963	 1492781360	 388554305	 275317.
13:29:20  963 964	 1492781360	 660143745	 271590.
13:29:20  964 965	 1492781360	 881985741	 221842.
13:29:21  965 966	 1492781361	 153435349	 271449.
13:29:21  966 967	 1492781361	 428825011	 275390.
13:29:21  967 968	 1492781361	 700523571	 271698.
13:29:21  968 969	 1492781361	 975941370	 275418.
13:29:22  969 970	 1492781362	 197996477	 222055.
13:29:22  970 971	 1492781362	 469107300	 271111.
13:29:22  971 972	 1492781362	 740162528	 271055.
13:29:23  972 973	 1492781363	 15538345	 275376.
13:29:23  973 974	 1492781363	 286707377	 271169.
13:29:23  974 975	 1492781363	 508899797	 222193.
13:29:23  975 976	 1492781363	 780006709	 271106.
13:29:24  976 977	 1492781364	 54882665	 274876.
13:29:24  977 978	 1492781364	 326531471	 271649.
13:29:24  978 979	 1492781364	 602151323	 275620.
13:29:24  979 980	 1492781364	 824386726	 222235.
13:29:25  980 981	 1492781365	 95870170	 271484.
13:29:25  981 982	 1492781365	 371577938	 275708.
13:29:25  982 983	 1492781365	 643210552	 271632.
13:29:25  983 984	 1492781365	 914388006	 271178.
13:29:26  984 985	 1492781366	 189933816	 275546.
13:29:26  985 986	 1492781366	 461312952	 271379.
13:29:26  986 987	 1492781366	 683316068	 222003.
13:29:26  987 988	 1492781366	 954269489	 270953.
13:29:27  988 989	 1492781367	 225523125	 271254.
13:29:27  989 990	 1492781367	 500895267	 275372.
13:29:27  990 991	 1492781367	 776548366	 275653.
13:29:28  991 992	 1492781368	 48004177	 271456.
13:29:28  992 993	 1492781368	 270256473	 222252.
13:29:28  993 994	 1492781368	 541759932	 271504.
13:29:28  994 995	 1492781368	 817507779	 275748.
13:29:29  995 996	 1492781369	 89747919	 272240.
13:29:29  996 997	 1492781369	 365566188	 275818.
13:29:29  997 998	 1492781369	 587879531	 222313.
13:29:29  998 999	 1492781369	 863335943	 275457.
13:29:30  999 1000	 1492781370	 139316400	 275980.
13:29:30 1000 1001	 1492781370	 410498941	 271183.
13:29:30 1001 1002	 1492781370	 686128502	 275629.
13:29:30 1002 1003	 1492781370	 908735404	 222607.
13:29:31 1003 1004	 1492781371	 180245729	 271510.
13:29:31 1004 1005	 1492781371	 456433198	 276188.
13:29:31 1005 1006	 1492781371	 727491640	 271058.
13:29:31 1006 1007	 1492781372	 3207750	 275717.
13:29:32 1007 1008	 1492781372	 225455547	 222247.
13:29:32 1008 1009	 1492781372	 496302959	 270848.
13:29:32 1009 1010	 1492781372	 771277119	 274974.
13:29:33 1010 1011	 1492781373	 41999769	 270723.
13:29:33 1011 1012	 1492781373	 312539933	 270540.
13:29:33 1012 1013	 1492781373	 534494790	 221955.
13:29:33 1013 1014	 1492781373	 805472225	 270977.
13:29:34 1014 1015	 1492781374	 80518417	 275046.
13:29:34 1015 1016	 1492781374	 351513588	 270995.
13:29:34 1016 1017	 1492781374	 623011669	 271498.
13:29:34 1017 1018	 1492781374	 845928893	 222918.
13:29:35 1018 1019	 1492781375	 116992759	 271064.
13:29:35 1019 1020	 1492781375	 392463891	 275471.
13:29:35 1020 1021	 1492781375	 667574303	 275110.
13:29:35 1021 1022	 1492781375	 885554603	 217980.
13:29:36 1022 1023	 1492781376	 160768637	 275215.
13:29:36 1023 1024	 1492781376	 431100005	 270331.
13:29:36 1024 1025	 1492781376	 706529462	 275429.
13:29:36 1025 1026	 1492781376	 977661794	 271133.
13:29:37 1026 1027	 1492781377	 248271615	 270609.
13:29:37 1027 1028	 1492781377	 470438225	 222167.
13:29:37 1028 1029	 1492781377	 741463344	 271025.
13:29:38 1029 1030	 1492781378	 16549641	 275086.
13:29:38 1030 1031	 1492781378	 287034554	 270486.
13:29:38 1031 1032	 1492781378	 508957710	 221922.
13:29:38 1032 1033	 1492781378	 780244241	 271287.
13:29:39 1033 1034	 1492781379	 55762461	 275518.
13:29:39 1034 1035	 1492781379	 326800402	 271038.
13:29:39 1035 1036	 1492781379	 597694474	 270894.
13:29:39 1036 1037	 1492781379	 868177471	 270483.
13:29:40 1037 1038	 1492781380	 135994681	 267817.
13:29:40 1038 1039	 1492781380	 358392603	 222398.
13:29:40 1039 1040	 1492781380	 633437686	 275045.
13:29:40 1040 1041	 1492781380	 904855217	 271418.
13:29:41 1041 1042	 1492781381	 176233162	 271378.
13:29:41 1042 1043	 1492781381	 447178273	 270945.
13:29:41 1043 1044	 1492781381	 722574743	 275397.
13:29:41 1044 1045	 1492781381	 993663152	 271088.
13:29:42 1045 1046	 1492781382	 264937226	 271274.
13:29:42 1046 1047	 1492781382	 487207204	 222270.
13:29:42 1047 1048	 1492781382	 758733885	 271527.
13:29:43 1048 1049	 1492781383	 34113558	 275379.
13:29:43 1049 1050	 1492781383	 305149165	 271036.
13:29:43 1050 1051	 1492781383	 576852982	 271704.
13:29:43 1051 1052	 1492781383	 851385529	 274532.
13:29:44 1052 1053	 1492781384	 68832951	 217448.
13:29:44 1053 1054	 1492781384	 343180444	 274347.
13:29:44 1054 1055	 1492781384	 614330321	 271150.
13:29:44 1055 1056	 1492781384	 885766070	 271436.
13:29:45 1056 1057	 1492781385	 161745567	 275979.
13:29:45 1057 1058	 1492781385	 433702096	 271957.
13:29:45 1058 1059	 1492781385	 705339359	 271637.
13:29:45 1059 1060	 1492781385	 980762677	 275423.
13:29:46 1060 1061	 1492781386	 251478468	 270716.
13:29:46 1061 1062	 1492781386	 522405522	 270927.
13:29:46 1062 1063	 1492781386	 744521740	 222117.
13:29:47 1063 1064	 1492781387	 19791142	 275269.
13:29:47 1064 1065	 1492781387	 290763706	 270973.
13:29:47 1065 1066	 1492781387	 561416825	 270653.
13:29:47 1066 1067	 1492781387	 836331850	 274915.
13:29:48 1067 1068	 1492781388	 58387804	 222056.
13:29:48 1068 1069	 1492781388	 329064098	 270676.
13:29:48 1069 1070	 1492781388	 599911773	 270848.
13:29:48 1070 1071	 1492781388	 874914098	 275002.
13:29:49 1071 1072	 1492781389	 145934190	 271020.
13:29:49 1072 1073	 1492781389	 417122906	 271189.
13:29:49 1073 1074	 1492781389	 639094405	 221971.
13:29:49 1074 1075	 1492781389	 910592541	 271498.
13:29:50 1075 1076	 1492781390	 186078935	 275487.
13:29:50 1076 1077	 1492781390	 457200791	 271122.
13:29:50 1077 1078	 1492781390	 728523264	 271322.
13:29:50 1078 1079	 1492781391	 3790010	 275267.
13:29:51 1079 1080	 1492781391	 274793432	 271003.
13:29:51 1080 1081	 1492781391	 545691084	 270898.
13:29:51 1081 1082	 1492781391	 767726674	 222035.
13:29:52 1082 1083	 1492781392	 38631881	 270906.
13:29:52 1083 1084	 1492781392	 313641479	 275009.
13:29:52 1084 1085	 1492781392	 584333559	 270692.
13:29:52 1085 1086	 1492781392	 856029901	 271697.
13:29:53 1086 1087	 1492781393	 131324374	 275294.
13:29:53 1087 1088	 1492781393	 349577040	 218253.
13:29:53 1088 1089	 1492781393	 624674746	 275098.
13:29:53 1089 1090	 1492781393	 896053283	 271378.
13:29:54 1090 1091	 1492781394	 167895751	 271843.
13:29:54 1091 1092	 1492781394	 442845654	 274949.
13:29:54 1092 1093	 1492781394	 713610259	 270765.
13:29:54 1093 1094	 1492781394	 984740400	 271130.
13:29:55 1094 1095	 1492781395	 260002296	 275262.
13:29:55 1095 1096	 1492781395	 531481610	 271479.
13:29:55 1096 1097	 1492781395	 753748011	 222267.
13:29:56 1097 1098	 1492781396	 25374227	 271626.
13:29:56 1098 1099	 1492781396	 300649840	 275276.
13:29:56 1099 1100	 1492781396	 571750376	 271100.
13:29:56 1100 1101	 1492781396	 842954116	 271204.
13:29:57 1101 1102	 1492781397	 114431361	 271477.
13:29:57 1102 1103	 1492781397	 389262829	 274832.
13:29:57 1103 1104	 1492781397	 611192126	 221929.
13:29:57 1104 1105	 1492781397	 882720439	 271528.
13:29:58 1105 1106	 1492781398	 158174347	 275454.
13:29:58 1106 1107	 1492781398	 429227377	 271053.
13:29:58 1107 1108	 1492781398	 699987006	 270760.
13:29:58 1108 1109	 1492781398	 975224720	 275238.
13:29:59 1109 1110	 1492781399	 246125830	 270901.
13:29:59 1110 1111	 1492781399	 468148103	 222022.
13:29:59 1111 1112	 1492781399	 739448304	 271300.
13:30:00 1112 1113	 1492781400	 10406927	 270959.
13:30:00 1113 1114	 1492781400	 285462942	 275056.
13:30:00 1114 1115	 1492781400	 556353796	 270891.
13:30:00 1115 1116	 1492781400	 827366839	 271013.
13:30:01 1116 1117	 1492781401	 98304279	 270937.
13:30:01 1117 1118	 1492781401	 320646205	 222342.
13:30:01 1118 1119	 1492781401	 591882766	 271237.
13:30:01 1119 1120	 1492781401	 866907615	 275024.
13:30:02 1120 1121	 1492781402	 138030103	 271123.
13:30:02 1121 1122	 1492781402	 409461294	 271431.
13:30:02 1122 1123	 1492781402	 680561934	 271101.
13:30:02 1123 1124	 1492781402	 956017963	 275456.
13:30:03 1124 1125	 1492781403	 227596229	 271578.
13:30:03 1125 1126	 1492781403	 498954149	 271358.
13:30:03 1126 1127	 1492781403	 774214324	 275260.
13:30:04 1127 1128	 1492781404	 45715318	 271501.
13:30:04 1128 1129	 1492781404	 316678156	 270963.
13:30:04 1129 1130	 1492781404	 588184046	 271506.
13:30:04 1130 1131	 1492781404	 863578595	 275394.
13:30:05 1131 1132	 1492781405	 85626432	 222048.
13:30:05 1132 1133	 1492781405	 356830172	 271204.
13:30:05 1133 1134	 1492781405	 627864127	 271034.
13:30:05 1134 1135	 1492781405	 899393838	 271530.
