18:33:42    0 Step	 time(s)	 time(ns)	 delta(ms)
18:33:42    0 1	 1492454022	 946172660	 915.
18:33:43    1 2	 1492454023	 218045642	 271873.
18:33:43    2 3	 1492454023	 494331684	 276287.
18:33:43    3 4	 1492454023	 770071923	 275740.
18:33:44    4 5	 1492454024	 41996814	 271925.
18:33:44    5 6	 1492454024	 318145374	 276148.
18:33:44    6 7	 1492454024	 541107505	 222962.
18:33:44    7 8	 1492454024	 813188513	 272081.
18:33:45    8 9	 1492454025	 84935342	 271747.
18:33:45    9 10	 1492454025	 356249748	 271314.
18:33:45   10 11	 1492454025	 631822048	 275573.
18:33:45   11 12	 1492454025	 906913120	 275091.
18:33:46   12 13	 1492454026	 125114510	 218201.
18:33:46   13 14	 1492454026	 400446759	 275332.
18:33:46   14 15	 1492454026	 671950132	 271504.
18:33:46   15 16	 1492454026	 943528234	 271578.
18:33:47   16 17	 1492454027	 218920950	 275393.
18:33:47   17 18	 1492454027	 490656219	 271735.
18:33:47   18 19	 1492454027	 713320848	 222665.
18:33:47   19 20	 1492454027	 988987788	 275667.
18:33:48   20 21	 1492454028	 260302752	 271314.
18:33:48   21 22	 1492454028	 536013281	 275711.
18:33:48   22 23	 1492454028	 807607691	 271594.
18:33:49   23 24	 1492454029	 29868883	 222262.
18:33:49   24 25	 1492454029	 301855582	 271986.
18:33:49   25 26	 1492454029	 577276558	 275421.
18:33:49   26 27	 1492454029	 849026499	 271750.
18:33:50   27 28	 1492454030	 124725992	 275700.
18:33:50   28 29	 1492454030	 396090584	 271364.
18:33:50   29 30	 1492454030	 671748833	 275659.
18:33:50   30 31	 1492454030	 943570340	 271821.
18:33:51   31 32	 1492454031	 215247039	 271677.
18:33:51   32 33	 1492454031	 438139604	 222892.
18:33:51   33 34	 1492454031	 714133308	 275994.
18:33:51   34 35	 1492454031	 985609487	 271476.
18:33:52   35 36	 1492454032	 261279693	 275670.
18:33:52   36 37	 1492454032	 532861859	 271583.
18:33:52   37 38	 1492454032	 808439785	 275577.
18:33:53   38 39	 1492454033	 30722805	 222284.
18:33:53   39 40	 1492454033	 302035637	 271312.
18:33:53   40 41	 1492454033	 574103048	 272068.
18:33:53   41 42	 1492454033	 849770723	 275667.
18:33:54   42 43	 1492454034	 121492363	 271722.
18:33:54   43 44	 1492454034	 397447069	 275955.
18:33:54   44 45	 1492454034	 669148612	 271701.
18:33:54   45 46	 1492454034	 940941775	 271793.
18:33:55   46 47	 1492454035	 216277860	 275337.
18:33:55   47 48	 1492454035	 438673542	 222395.
18:33:55   48 49	 1492454035	 710355680	 271682.
18:33:55   49 50	 1492454035	 986473344	 276118.
18:33:56   50 51	 1492454036	 262639567	 276166.
18:33:56   51 52	 1492454036	 534805040	 272166.
18:33:56   52 53	 1492454036	 811080467	 276275.
18:33:57   53 54	 1492454037	 34252368	 223172.
18:33:57   54 55	 1492454037	 310056830	 275805.
18:33:57   55 56	 1492454037	 582622342	 272565.
18:33:57   56 57	 1492454037	 858735820	 276114.
18:33:58   57 58	 1492454038	 130620192	 271884.
18:33:58   58 59	 1492454038	 406833268	 276213.
18:33:58   59 60	 1492454038	 678762161	 271929.
18:33:58   60 61	 1492454038	 901485800	 222724.
18:33:59   61 62	 1492454039	 172983694	 271497.
18:33:59   62 63	 1492454039	 448288661	 275305.
18:33:59   63 64	 1492454039	 724568325	 276280.
18:33:59   64 65	 1492454039	 996383695	 271815.
18:34:00   65 66	 1492454040	 268180049	 271797.
18:34:00   66 67	 1492454040	 490710208	 222530.
18:34:00   67 68	 1492454040	 766801490	 276091.
18:34:01   68 69	 1492454041	 43281158	 276480.
18:34:01   69 70	 1492454041	 315095974	 271815.
18:34:01   70 71	 1492454041	 586277179	 271181.
18:34:01   71 72	 1492454041	 861564655	 275287.
18:34:02   72 73	 1492454042	 132722144	 271158.
18:34:02   73 74	 1492454042	 404064590	 271342.
18:34:02   74 75	 1492454042	 679670401	 275606.
18:34:02   75 76	 1492454042	 951006499	 271336.
18:34:03   76 77	 1492454043	 226555682	 275549.
18:34:03   77 78	 1492454043	 444778149	 218223.
18:34:03   78 79	 1492454043	 720287053	 275509.
18:34:03   79 80	 1492454043	 991661189	 271374.
18:34:04   80 81	 1492454044	 263055121	 271394.
18:34:04   81 82	 1492454044	 534289678	 271234.
18:34:04   82 83	 1492454044	 809451928	 275163.
18:34:05   83 84	 1492454045	 80709439	 271257.
18:34:05   84 85	 1492454045	 356139128	 275430.
18:34:05   85 86	 1492454045	 627471590	 271332.
18:34:05   86 87	 1492454045	 898833346	 271362.
18:34:06   87 88	 1492454046	 121457656	 222624.
18:34:06   88 89	 1492454046	 392763860	 271307.
18:34:06   89 90	 1492454046	 668226211	 275462.
18:34:06   90 91	 1492454046	 939718898	 271493.
18:34:07   91 92	 1492454047	 210715410	 270996.
18:34:07   92 93	 1492454047	 486644647	 275929.
18:34:07   93 94	 1492454047	 758113491	 271469.
18:34:08   94 95	 1492454048	 29802944	 271690.
18:34:08   95 96	 1492454048	 306101646	 276298.
18:34:08   96 97	 1492454048	 578378665	 272277.
18:34:08   97 98	 1492454048	 854234728	 275856.
18:34:09   98 99	 1492454049	 125389125	 271155.
18:34:09   99 100	 1492454049	 396592243	 271203.
18:34:09  100 101	 1492454049	 667599643	 271007.
18:34:09  101 102	 1492454049	 889820050	 222221.
18:34:10  102 103	 1492454050	 165187965	 275368.
18:34:10  103 104	 1492454050	 436724837	 271537.
18:34:10  104 105	 1492454050	 708017174	 271292.
18:34:10  105 106	 1492454050	 983556020	 275539.
18:34:11  106 107	 1492454051	 254694272	 271138.
18:34:11  107 108	 1492454051	 526419578	 271725.
18:34:11  108 109	 1492454051	 802237999	 275819.
18:34:12  109 110	 1492454052	 73584063	 271346.
18:34:12  110 111	 1492454052	 348791377	 275207.
18:34:12  111 112	 1492454052	 620192272	 271401.
18:34:12  112 113	 1492454052	 891321989	 271130.
18:34:13  113 114	 1492454053	 113769372	 222447.
18:34:13  114 115	 1492454053	 389093472	 275324.
18:34:13  115 116	 1492454053	 660544873	 271452.
18:34:13  116 117	 1492454053	 936104877	 275560.
18:34:14  117 118	 1492454054	 207808709	 271703.
18:34:14  118 119	 1492454054	 479361730	 271553.
18:34:14  119 120	 1492454054	 750906773	 271545.
18:34:15  120 121	 1492454055	 26369210	 275463.
18:34:15  121 122	 1492454055	 297977667	 271608.
18:34:15  122 123	 1492454055	 569412415	 271435.
18:34:15  123 124	 1492454055	 841082264	 271670.
18:34:16  124 125	 1492454056	 116586047	 275504.
18:34:16  125 126	 1492454056	 387928654	 271342.
18:34:16  126 127	 1492454056	 659207605	 271279.
18:34:16  127 128	 1492454056	 934486846	 275280.
18:34:17  128 129	 1492454057	 205721418	 271234.
18:34:17  129 130	 1492454057	 481144978	 275424.
18:34:17  130 131	 1492454057	 753125862	 271981.
18:34:18  131 132	 1492454058	 28364721	 275239.
18:34:18  132 133	 1492454058	 246469505	 218104.
18:34:18  133 134	 1492454058	 517654512	 271185.
18:34:18  134 135	 1492454058	 793138020	 275484.
18:34:19  135 136	 1492454059	 64184028	 271046.
18:34:19  136 137	 1492454059	 335509641	 271325.
18:34:19  137 138	 1492454059	 610724313	 275215.
18:34:19  138 139	 1492454059	 881738597	 271014.
18:34:20  139 140	 1492454060	 103829677	 222092.
18:34:20  140 141	 1492454060	 374852891	 271023.
18:34:20  141 142	 1492454060	 650467135	 275614.
18:34:20  142 143	 1492454060	 922429377	 271962.
18:34:21  143 144	 1492454061	 193055010	 270626.
18:34:21  144 145	 1492454061	 464107750	 271052.
18:34:21  145 146	 1492454061	 689819140	 225712.
18:34:21  146 147	 1492454061	 956932601	 267114.
18:34:22  147 148	 1492454062	 232035391	 275102.
18:34:22  148 149	 1492454062	 503009682	 270974.
18:34:22  149 150	 1492454062	 774048885	 271040.
18:34:23  150 151	 1492454063	 48877692	 274828.
18:34:23  151 152	 1492454063	 270750474	 221873.
18:34:23  152 153	 1492454063	 541535742	 270785.
18:34:23  153 154	 1492454063	 816968054	 275433.
18:34:24  154 155	 1492454064	 92893735	 275925.
18:34:24  155 156	 1492454064	 368601507	 275708.
18:34:24  156 157	 1492454064	 591420413	 222819.
18:34:24  157 158	 1492454064	 863399467	 271979.
18:34:25  158 159	 1492454065	 134995077	 271596.
18:34:25  159 160	 1492454065	 410264773	 275269.
18:34:25  160 161	 1492454065	 681291913	 271028.
18:34:25  161 162	 1492454065	 952947219	 271655.
18:34:26  162 163	 1492454066	 228087221	 275140.
18:34:26  163 164	 1492454066	 446438844	 218352.
18:34:26  164 165	 1492454066	 721914053	 275475.
18:34:26  165 166	 1492454066	 996911373	 274997.
18:34:27  166 167	 1492454067	 267513018	 270602.
18:34:27  167 168	 1492454067	 489529472	 222016.
18:34:27  168 169	 1492454067	 760936491	 271407.
18:34:28  169 170	 1492454068	 36471079	 275535.
18:34:28  170 171	 1492454068	 311757384	 275286.
18:34:28  171 172	 1492454068	 583172162	 271415.
18:34:28  172 173	 1492454068	 805848093	 222676.
18:34:29  173 174	 1492454069	 80998744	 275150.
18:34:29  174 175	 1492454069	 351889774	 270891.
18:34:29  175 176	 1492454069	 623734327	 271845.
18:34:29  176 177	 1492454069	 899034915	 275301.
18:34:30  177 178	 1492454070	 121434216	 222399.
18:34:30  178 179	 1492454070	 392646494	 271212.
18:34:30  179 180	 1492454070	 667372000	 274726.
18:34:30  180 181	 1492454070	 938484549	 271112.
18:34:31  181 182	 1492454071	 161145929	 222662.
18:34:31  182 183	 1492454071	 436372470	 275226.
18:34:31  183 184	 1492454071	 707230948	 270859.
18:34:31  184 185	 1492454071	 978016238	 270785.
18:34:32  185 186	 1492454072	 199493900	 221478.
18:34:32  186 187	 1492454072	 474470249	 274976.
18:34:32  187 188	 1492454072	 746159139	 271689.
18:34:33  188 189	 1492454073	 22183718	 276024.
18:34:33  189 190	 1492454073	 240475889	 218293.
18:34:33  190 191	 1492454073	 516121683	 275645.
18:34:33  191 192	 1492454073	 792247690	 276126.
18:34:34  192 193	 1492454074	 63333912	 271087.
18:34:34  193 194	 1492454074	 334153250	 270819.
18:34:34  194 195	 1492454074	 605524250	 271371.
18:34:34  195 196	 1492454074	 827614948	 222091.
18:34:35  196 197	 1492454075	 98480492	 270865.
18:34:35  197 198	 1492454075	 373964231	 275484.
18:34:35  198 199	 1492454075	 645663343	 271699.
18:34:35  199 200	 1492454075	 921549924	 275887.
18:34:36  200 201	 1492454076	 193273755	 271723.
18:34:36  201 202	 1492454076	 468983944	 275711.
18:34:36  202 203	 1492454076	 740517788	 271533.
18:34:36  203 204	 1492454076	 963067362	 222550.
18:34:37  204 205	 1492454077	 238445035	 275378.
18:34:37  205 206	 1492454077	 509790541	 271345.
18:34:37  206 207	 1492454077	 784923829	 275134.
18:34:38  207 208	 1492454078	 60357647	 275433.
18:34:38  208 209	 1492454078	 331685507	 271328.
18:34:38  209 210	 1492454078	 553975116	 222290.
18:34:38  210 211	 1492454078	 829221734	 275246.
18:34:39  211 212	 1492454079	 100170724	 270949.
18:34:39  212 213	 1492454079	 371227838	 271058.
18:34:39  213 214	 1492454079	 642635561	 271407.
18:34:39  214 215	 1492454079	 917997348	 275362.
18:34:40  215 216	 1492454080	 140339612	 222342.
18:34:40  216 217	 1492454080	 411886019	 271547.
18:34:40  217 218	 1492454080	 687845011	 275959.
18:34:40  218 219	 1492454080	 959131552	 271286.
18:34:41  219 220	 1492454081	 230444998	 271314.
18:34:41  220 221	 1492454081	 505791605	 275346.
18:34:41  221 222	 1492454081	 777025257	 271234.
18:34:42  222 223	 1492454082	 48259734	 271234.
18:34:42  223 224	 1492454082	 319626338	 271367.
18:34:42  224 225	 1492454082	 595041726	 275416.
18:34:42  225 226	 1492454082	 817303797	 222262.
18:34:43  226 227	 1492454083	 88459672	 271155.
18:34:43  227 228	 1492454083	 363687410	 275228.
18:34:43  228 229	 1492454083	 634626203	 270939.
18:34:43  229 230	 1492454083	 909728489	 275102.
18:34:44  230 231	 1492454084	 180961457	 271233.
18:34:44  231 232	 1492454084	 403010601	 222049.
18:34:44  232 233	 1492454084	 678377669	 275367.
18:34:44  233 234	 1492454084	 949607962	 271231.
18:34:45  234 235	 1492454085	 224696412	 275088.
18:34:45  235 236	 1492454085	 495734315	 271038.
18:34:45  236 237	 1492454085	 771066659	 275332.
18:34:46  237 238	 1492454086	 42260009	 271194.
18:34:46  238 239	 1492454086	 264630408	 222370.
18:34:46  239 240	 1492454086	 536019543	 271389.
18:34:46  240 241	 1492454086	 811721280	 275702.
18:34:47  241 242	 1492454087	 83666360	 271945.
18:34:47  242 243	 1492454087	 359696769	 276030.
18:34:47  243 244	 1492454087	 631461381	 271765.
18:34:47  244 245	 1492454087	 903722117	 272261.
18:34:48  245 246	 1492454088	 126366658	 222644.
18:34:48  246 247	 1492454088	 402380802	 276014.
18:34:48  247 248	 1492454088	 674566999	 272187.
18:34:48  248 249	 1492454088	 950085077	 275518.
18:34:49  249 250	 1492454089	 222141389	 272056.
18:34:49  250 251	 1492454089	 498336221	 276195.
18:34:49  251 252	 1492454089	 770277598	 271941.
18:34:50  252 253	 1492454090	 41906294	 271629.
18:34:50  253 254	 1492454090	 317470978	 275565.
18:34:50  254 255	 1492454090	 539976540	 222505.
18:34:50  255 256	 1492454090	 811066756	 271090.
18:34:51  256 257	 1492454091	 82052709	 270986.
18:34:51  257 258	 1492454091	 357290489	 275238.
18:34:51  258 259	 1492454091	 628291966	 271002.
18:34:51  259 260	 1492454091	 903405307	 275113.
18:34:52  260 261	 1492454092	 121243764	 217838.
18:34:52  261 262	 1492454092	 396620140	 275377.
18:34:52  262 263	 1492454092	 667766043	 271146.
18:34:52  263 264	 1492454092	 943437034	 275671.
18:34:53  264 265	 1492454093	 214120059	 270683.
18:34:53  265 266	 1492454093	 435770210	 221650.
18:34:53  266 267	 1492454093	 706459440	 270689.
18:34:53  267 268	 1492454093	 978492059	 272033.
18:34:54  268 269	 1492454094	 254642220	 276150.
18:34:54  269 270	 1492454094	 526597157	 271955.
18:34:54  270 271	 1492454094	 802473754	 275876.
18:34:55  271 272	 1492454095	 25374276	 222901.
18:34:55  272 273	 1492454095	 301504546	 276130.
18:34:55  273 274	 1492454095	 573449814	 271946.
18:34:55  274 275	 1492454095	 849117532	 275667.
18:34:56  275 276	 1492454096	 120716014	 271599.
18:34:56  276 277	 1492454096	 396638766	 275922.
18:34:56  277 278	 1492454096	 619264570	 222626.
18:34:56  278 279	 1492454096	 890920218	 271656.
18:34:57  279 280	 1492454097	 165707222	 274787.
18:34:57  280 281	 1492454097	 437492810	 271786.
18:34:57  281 282	 1492454097	 659323107	 221830.
18:34:57  282 283	 1492454097	 929971673	 270648.
18:34:58  283 284	 1492454098	 200680293	 270709.
18:34:58  284 285	 1492454098	 476225029	 275545.
18:34:58  285 286	 1492454098	 747476342	 271251.
18:34:58  286 287	 1492454098	 969802062	 222326.
18:34:59  287 288	 1492454099	 241057067	 271255.
18:34:59  288 289	 1492454099	 517012788	 275955.
18:34:59  289 290	 1492454099	 788801889	 271790.
18:35:00  290 291	 1492454100	 63718904	 274917.
18:35:00  291 292	 1492454100	 286247732	 222528.
18:35:00  292 293	 1492454100	 561035168	 274788.
18:35:00  293 294	 1492454100	 831592166	 270557.
18:35:01  294 295	 1492454101	 106402852	 274811.
18:35:01  295 296	 1492454101	 328480684	 222077.
18:35:01  296 297	 1492454101	 599616222	 271136.
18:35:01  297 298	 1492454101	 870757121	 271141.
18:35:02  298 299	 1492454102	 145928161	 275171.
18:35:02  299 300	 1492454102	 417442709	 271514.
18:35:02  300 301	 1492454102	 688786799	 271345.
18:35:02  301 302	 1492454102	 964274933	 275488.
18:35:03  302 303	 1492454103	 235699666	 271424.
18:35:03  303 304	 1492454103	 507025340	 271326.
18:35:03  304 305	 1492454103	 782876887	 275852.
18:35:04  305 306	 1492454104	 54227715	 271350.
18:35:04  306 307	 1492454104	 325630553	 271403.
18:35:04  307 308	 1492454104	 548096096	 222466.
18:35:04  308 309	 1492454104	 819345783	 271249.
18:35:05  309 310	 1492454105	 90562433	 271217.
18:35:05  310 311	 1492454105	 365944005	 275382.
18:35:05  311 312	 1492454105	 637372338	 271428.
18:35:05  312 313	 1492454105	 912754079	 275382.
18:35:06  313 314	 1492454106	 183889842	 271136.
18:35:06  314 315	 1492454106	 455421595	 271531.
18:35:06  315 316	 1492454106	 731064366	 275643.
18:35:06  316 317	 1492454106	 949266871	 218203.
18:35:07  317 318	 1492454107	 224530774	 275264.
18:35:07  318 319	 1492454107	 496028454	 271497.
18:35:07  319 320	 1492454107	 767730365	 271702.
18:35:08  320 321	 1492454108	 43211383	 275481.
18:35:08  321 322	 1492454108	 314769158	 271558.
18:35:08  322 323	 1492454108	 590227318	 275458.
18:35:08  323 324	 1492454108	 861724822	 271498.
18:35:09  324 325	 1492454109	 133409432	 271684.
18:35:09  325 326	 1492454109	 405082695	 271673.
18:35:09  326 327	 1492454109	 680785501	 275703.
18:35:09  327 328	 1492454109	 952012483	 271227.
18:35:10  328 329	 1492454110	 223270062	 271258.
18:35:10  329 330	 1492454110	 498521200	 275251.
18:35:10  330 331	 1492454110	 720625144	 222104.
18:35:10  331 332	 1492454110	 991770419	 271145.
18:35:11  332 333	 1492454111	 262811135	 271041.
18:35:11  333 334	 1492454111	 537838447	 275027.
18:35:11  334 335	 1492454111	 808432837	 270598.
18:35:12  335 336	 1492454112	 30259998	 221824.
18:35:12  336 337	 1492454112	 300877808	 270618.
18:35:12  337 338	 1492454112	 575596319	 274718.
18:35:12  338 339	 1492454112	 846748151	 271152.
18:35:13  339 340	 1492454113	 118414949	 271667.
18:35:13  340 341	 1492454113	 393812227	 275397.
18:35:13  341 342	 1492454113	 665758872	 271947.
18:35:13  342 343	 1492454113	 942220423	 276461.
18:35:14  343 344	 1492454114	 214576867	 272357.
18:35:14  344 345	 1492454114	 437326085	 222749.
18:35:14  345 346	 1492454114	 713076703	 275750.
18:35:14  346 347	 1492454114	 984437861	 271362.
18:35:15  347 348	 1492454115	 260627083	 276189.
18:35:15  348 349	 1492454115	 532165507	 271538.
18:35:15  349 350	 1492454115	 803645199	 271480.
18:35:16  350 351	 1492454116	 75079010	 271434.
18:35:16  351 352	 1492454116	 350048894	 274970.
18:35:16  352 353	 1492454116	 620890125	 270841.
18:35:16  353 354	 1492454116	 842835563	 221945.
18:35:17  354 355	 1492454117	 113444759	 270609.
18:35:17  355 356	 1492454117	 384063569	 270619.
18:35:17  356 357	 1492454117	 659024693	 274961.
18:35:17  357 358	 1492454117	 930376755	 271352.
18:35:18  358 359	 1492454118	 153240486	 222864.
18:35:18  359 360	 1492454118	 429233087	 275993.
18:35:18  360 361	 1492454118	 700826603	 271593.
18:35:18  361 362	 1492454118	 976744097	 275918.
18:35:19  362 363	 1492454119	 248152201	 271408.
18:35:19  363 364	 1492454119	 519883804	 271732.
18:35:19  364 365	 1492454119	 795918734	 276034.
18:35:20  365 366	 1492454120	 67239354	 271321.
18:35:20  366 367	 1492454120	 338330395	 271091.
18:35:20  367 368	 1492454120	 560488625	 222158.
18:35:20  368 369	 1492454120	 835824675	 275336.
18:35:21  369 370	 1492454121	 103371304	 267547.
18:35:21  370 371	 1492454121	 378526895	 275156.
18:35:21  371 372	 1492454121	 649987616	 271460.
18:35:21  372 373	 1492454121	 921649250	 271662.
18:35:22  373 374	 1492454122	 197084499	 275435.
18:35:22  374 375	 1492454122	 468540864	 271457.
18:35:22  375 376	 1492454122	 740073139	 271532.
18:35:23  376 377	 1492454123	 11440894	 271368.
18:35:23  377 378	 1492454123	 287034506	 275593.
18:35:23  378 379	 1492454123	 558477022	 271443.
18:35:23  379 380	 1492454123	 830032601	 271555.
18:35:24  380 381	 1492454124	 105527049	 275495.
18:35:24  381 382	 1492454124	 376935322	 271408.
18:35:24  382 383	 1492454124	 647974167	 271039.
18:35:24  383 384	 1492454124	 923454724	 275480.
18:35:25  384 385	 1492454125	 195018051	 271564.
18:35:25  385 386	 1492454125	 466328045	 271310.
18:35:25  386 387	 1492454125	 688876699	 222548.
18:35:25  387 388	 1492454125	 964453995	 275578.
18:35:26  388 389	 1492454126	 235720887	 271267.
18:35:26  389 390	 1492454126	 503777704	 268056.
18:35:26  390 391	 1492454126	 779353685	 275577.
18:35:27  391 392	 1492454127	 51007647	 271653.
18:35:27  392 393	 1492454127	 322190494	 271183.
18:35:27  393 394	 1492454127	 597695948	 275506.
18:35:27  394 395	 1492454127	 869010739	 271314.
18:35:28  395 396	 1492454128	 140373116	 271363.
18:35:28  396 397	 1492454128	 416087328	 275714.
18:35:28  397 398	 1492454128	 688557439	 272470.
18:35:28  398 399	 1492454128	 964936326	 276379.
18:35:29  399 400	 1492454129	 188029038	 223093.
18:35:29  400 401	 1492454129	 460332198	 272303.
18:35:29  401 402	 1492454129	 736572003	 276240.
18:35:30  402 403	 1492454130	 12961599	 276389.
18:35:30  403 404	 1492454130	 284856038	 271895.
18:35:30  404 405	 1492454130	 560591367	 275735.
18:35:30  405 406	 1492454130	 832495280	 271904.
18:35:31  406 407	 1492454131	 108502875	 276008.
18:35:31  407 408	 1492454131	 380658714	 272155.
18:35:31  408 409	 1492454131	 652682169	 272024.
18:35:31  409 410	 1492454131	 928654824	 275973.
18:35:32  410 411	 1492454132	 200714779	 272059.
18:35:32  411 412	 1492454132	 476561277	 275847.
18:35:32  412 413	 1492454132	 748453433	 271892.
18:35:33  413 414	 1492454133	 20315254	 271862.
18:35:33  414 415	 1492454133	 292228672	 271913.
18:35:33  415 416	 1492454133	 568200628	 275972.
18:35:33  416 417	 1492454133	 840040157	 271840.
18:35:34  417 418	 1492454134	 63088411	 223048.
18:35:34  418 419	 1492454134	 339112642	 276024.
18:35:34  419 420	 1492454134	 610734458	 271622.
18:35:34  420 421	 1492454134	 882122093	 271388.
18:35:35  421 422	 1492454135	 157337897	 275216.
18:35:35  422 423	 1492454135	 428789339	 271451.
18:35:35  423 424	 1492454135	 705117670	 276328.
18:35:35  424 425	 1492454135	 980940332	 275823.
18:35:36  425 426	 1492454136	 252445570	 271505.
18:35:36  426 427	 1492454136	 475503316	 223058.
18:35:36  427 428	 1492454136	 747434990	 271932.
18:35:37  428 429	 1492454137	 23786429	 276351.
18:35:37  429 430	 1492454137	 295406096	 271620.
18:35:37  430 431	 1492454137	 567390757	 271984.
18:35:37  431 432	 1492454137	 843055641	 275665.
18:35:38  432 433	 1492454138	 114630915	 271576.
18:35:38  433 434	 1492454138	 389943152	 275312.
18:35:38  434 435	 1492454138	 661312681	 271369.
18:35:38  435 436	 1492454138	 937104272	 275792.
18:35:39  436 437	 1492454139	 209083618	 271979.
18:35:39  437 438	 1492454139	 480833934	 271751.
18:35:39  438 439	 1492454139	 703577771	 222743.
18:35:39  439 440	 1492454139	 975537243	 271960.
18:35:40  440 441	 1492454140	 251298860	 275762.
18:35:40  441 442	 1492454140	 527336291	 276037.
18:35:40  442 443	 1492454140	 798960990	 271625.
18:35:41  443 444	 1492454141	 70528041	 271567.
18:35:41  444 445	 1492454141	 345832251	 275304.
18:35:41  445 446	 1492454141	 617319437	 271487.
18:35:41  446 447	 1492454141	 889108180	 271789.
18:35:42  447 448	 1492454142	 164923322	 275815.
18:35:42  448 449	 1492454142	 436929223	 272006.
18:35:42  449 450	 1492454142	 712514561	 275585.
18:35:42  450 451	 1492454142	 930963553	 218449.
18:35:43  451 452	 1492454143	 206868948	 275906.
18:35:43  452 453	 1492454143	 478549549	 271680.
18:35:43  453 454	 1492454143	 754462697	 275913.
18:35:44  454 455	 1492454144	 25919730	 271457.
18:35:44  455 456	 1492454144	 301423295	 275504.
18:35:44  456 457	 1492454144	 573080001	 271657.
18:35:44  457 458	 1492454144	 849221216	 276141.
18:35:45  458 459	 1492454145	 72141951	 222921.
18:35:45  459 460	 1492454145	 343660810	 271519.
18:35:45  460 461	 1492454145	 619229755	 275568.
18:35:45  461 462	 1492454145	 890897626	 271668.
18:35:46  462 463	 1492454146	 166270700	 275373.
18:35:46  463 464	 1492454146	 436916947	 270647.
18:35:46  464 465	 1492454146	 708360247	 271443.
18:35:46  465 466	 1492454146	 930747602	 222387.
18:35:47  466 467	 1492454147	 206103363	 275356.
18:35:47  467 468	 1492454147	 477568523	 271465.
18:35:47  468 469	 1492454147	 749096792	 271529.
18:35:48  469 470	 1492454148	 24478409	 275381.
18:35:48  470 471	 1492454148	 300136090	 275658.
18:35:48  471 472	 1492454148	 571656270	 271520.
18:35:48  472 473	 1492454148	 794294485	 222638.
18:35:49  473 474	 1492454149	 65771426	 271477.
18:35:49  474 475	 1492454149	 341444330	 275673.
18:35:49  475 476	 1492454149	 613262049	 271818.
18:35:49  476 477	 1492454149	 889130563	 275868.
18:35:50  477 478	 1492454150	 160739148	 271609.
18:35:50  478 479	 1492454150	 436195787	 275457.
18:35:50  479 480	 1492454150	 708203813	 272008.
18:35:50  480 481	 1492454150	 931144262	 222940.
18:35:51  481 482	 1492454151	 202564725	 271420.
18:35:51  482 483	 1492454151	 477575705	 275011.
18:35:51  483 484	 1492454151	 749289249	 271714.
18:35:52  484 485	 1492454152	 24924481	 275635.
18:35:52  485 486	 1492454152	 296831843	 271908.
18:35:52  486 487	 1492454152	 519855070	 223023.
18:35:52  487 488	 1492454152	 795952981	 276098.
18:35:53  488 489	 1492454153	 67323245	 271370.
18:35:53  489 490	 1492454153	 342693891	 275371.
18:35:53  490 491	 1492454153	 614245903	 271552.
18:35:53  491 492	 1492454153	 890133777	 275887.
18:35:54  492 493	 1492454154	 161691221	 271558.
18:35:54  493 494	 1492454154	 384520554	 222829.
18:35:54  494 495	 1492454154	 656102135	 271582.
18:35:54  495 496	 1492454154	 931208851	 275107.
18:35:55  496 497	 1492454155	 202283923	 271075.
18:35:55  497 498	 1492454155	 473695879	 271412.
18:35:55  498 499	 1492454155	 744716679	 271021.
18:35:56  499 500	 1492454156	 20006090	 275289.
18:35:56  500 501	 1492454156	 291389798	 271383.
18:35:56  501 502	 1492454156	 620460953	 329072.
18:35:56  502 503	 1492454156	 892226660	 271765.
18:35:57  503 504	 1492454157	 168055133	 275829.
18:35:57  504 505	 1492454157	 441340738	 273286.
18:35:57  505 506	 1492454157	 717443972	 276103.
18:35:57  506 507	 1492454157	 991027977	 273584.
18:35:58  507 508	 1492454158	 262859343	 271831.
18:35:58  508 509	 1492454158	 538726511	 275867.
18:35:58  509 510	 1492454158	 810310471	 271584.
18:35:59  510 511	 1492454159	 88437952	 278128.
18:35:59  511 512	 1492454159	 360014473	 271576.
18:35:59  512 513	 1492454159	 631536661	 271522.
18:35:59  513 514	 1492454159	 907139807	 275604.
18:36:00  514 515	 1492454160	 178588345	 271448.
18:36:00  515 516	 1492454160	 455919349	 277331.
18:36:00  516 517	 1492454160	 727770574	 271851.
18:36:00  517 518	 1492454160	 950072137	 222302.
18:36:01  518 519	 1492454161	 221049808	 270978.
18:36:01  519 520	 1492454161	 496318289	 275268.
18:36:01  520 521	 1492454161	 767409462	 271091.
18:36:02  521 522	 1492454162	 38904412	 271495.
18:36:02  522 523	 1492454162	 314084040	 275180.
18:36:02  523 524	 1492454162	 585491248	 271407.
18:36:02  524 525	 1492454162	 856608187	 271117.
18:36:03  525 526	 1492454163	 78833943	 222226.
18:36:03  526 527	 1492454163	 350504736	 271670.
18:36:03  527 528	 1492454163	 626164468	 275660.
18:36:03  528 529	 1492454163	 897396014	 271232.
18:36:04  529 530	 1492454164	 168395465	 270999.
18:36:04  530 531	 1492454164	 443822926	 275428.
18:36:04  531 532	 1492454164	 715060770	 271238.
18:36:04  532 533	 1492454164	 986328204	 271267.
18:36:05  533 534	 1492454165	 208307002	 221979.
18:36:05  534 535	 1492454165	 483191668	 274884.
18:36:05  535 536	 1492454165	 754025890	 270835.
18:36:06  536 537	 1492454166	 29221550	 275195.
18:36:06  537 538	 1492454166	 300334812	 271114.
18:36:06  538 539	 1492454166	 522435624	 222100.
18:36:06  539 540	 1492454166	 793509372	 271074.
18:36:07  540 541	 1492454167	 69210235	 275701.
18:36:07  541 542	 1492454167	 341165854	 271956.
18:36:07  542 543	 1492454167	 617079110	 275913.
18:36:07  543 544	 1492454167	 888985135	 271906.
18:36:08  544 545	 1492454168	 161031542	 272046.
18:36:08  545 546	 1492454168	 383704451	 222673.
18:36:08  546 547	 1492454168	 660028461	 276324.
18:36:08  547 548	 1492454168	 932598645	 272570.
18:36:09  548 549	 1492454169	 208867580	 276269.
18:36:09  549 550	 1492454169	 484570167	 275703.
18:36:09  550 551	 1492454169	 759938121	 275368.
18:36:10  551 552	 1492454170	 31801579	 271863.
18:36:10  552 553	 1492454170	 253710199	 221909.
18:36:10  553 554	 1492454170	 529995764	 276285.
18:36:10  554 555	 1492454170	 801341847	 271347.
18:36:11  555 556	 1492454171	 76909219	 275567.
18:36:11  556 557	 1492454171	 348214944	 271306.
18:36:11  557 558	 1492454171	 619888091	 271673.
18:36:11  558 559	 1492454171	 891363560	 271475.
18:36:12  559 560	 1492454172	 167538638	 276175.
18:36:12  560 561	 1492454172	 440037491	 272499.
18:36:12  561 562	 1492454172	 716230802	 276194.
18:36:12  562 563	 1492454172	 988206326	 271975.
18:36:13  563 564	 1492454173	 260089345	 271883.
18:36:13  564 565	 1492454173	 536220943	 276132.
18:36:13  565 566	 1492454173	 808630992	 272410.
18:36:14  566 567	 1492454174	 84948261	 276317.
18:36:14  567 568	 1492454174	 360629306	 275681.
18:36:14  568 569	 1492454174	 579073037	 218444.
18:36:14  569 570	 1492454174	 854636136	 275563.
18:36:15  570 571	 1492454175	 126248626	 271612.
18:36:15  571 572	 1492454175	 401863974	 275616.
18:36:15  572 573	 1492454175	 673513850	 271650.
18:36:15  573 574	 1492454175	 948564263	 275050.
18:36:16  574 575	 1492454176	 219489346	 270925.
18:36:16  575 576	 1492454176	 441652732	 222163.
18:36:16  576 577	 1492454176	 713150015	 271498.
18:36:16  577 578	 1492454176	 988440131	 275290.
18:36:17  578 579	 1492454177	 259798193	 271358.
18:36:17  579 580	 1492454177	 530943620	 271145.
18:36:17  580 581	 1492454177	 802980977	 272038.
18:36:18  581 582	 1492454178	 78973383	 275992.
18:36:18  582 583	 1492454178	 350582166	 271609.
18:36:18  583 584	 1492454178	 626451951	 275870.
18:36:18  584 585	 1492454178	 898505291	 272053.
18:36:19  585 586	 1492454179	 121079584	 222574.
18:36:19  586 587	 1492454179	 392729507	 271650.
18:36:19  587 588	 1492454179	 668910893	 276182.
18:36:19  588 589	 1492454179	 939979179	 271068.
18:36:20  589 590	 1492454180	 215567309	 275588.
18:36:20  590 591	 1492454180	 433971586	 218404.
18:36:20  591 592	 1492454180	 709589824	 275619.
18:36:20  592 593	 1492454180	 981340084	 271750.
18:36:21  593 594	 1492454181	 257405375	 276065.
18:36:21  594 595	 1492454181	 528699551	 271294.
18:36:21  595 596	 1492454181	 803901658	 275202.
18:36:22  596 597	 1492454182	 75319097	 271418.
18:36:22  597 598	 1492454182	 298378709	 223059.
18:36:22  598 599	 1492454182	 569868577	 271490.
18:36:22  599 600	 1492454182	 845671792	 275803.
18:36:23  600 601	 1492454183	 117073857	 271403.
18:36:23  601 602	 1492454183	 339664777	 222590.
18:36:23  602 603	 1492454183	 615931328	 276267.
18:36:23  603 604	 1492454183	 892179911	 276249.
18:36:24  604 605	 1492454184	 163968024	 271788.
18:36:24  605 606	 1492454184	 439244341	 275276.
18:36:24  606 607	 1492454184	 661825806	 222582.
18:36:24  607 608	 1492454184	 933174952	 271349.
18:36:25  608 609	 1492454185	 208719251	 275544.
18:36:25  609 610	 1492454185	 484432899	 275714.
18:36:25  610 611	 1492454185	 756304552	 271871.
18:36:26  611 612	 1492454186	 28169491	 271865.
18:36:26  612 613	 1492454186	 255063021	 226894.
18:36:26  613 614	 1492454186	 526410381	 271347.
18:36:26  614 615	 1492454186	 797038637	 270628.
18:36:27  615 616	 1492454187	 67642347	 270604.
18:36:27  616 617	 1492454187	 342183151	 274541.
18:36:27  617 618	 1492454187	 560483246	 218300.
18:36:27  618 619	 1492454187	 835762016	 275279.
18:36:28  619 620	 1492454188	 106856012	 271094.
18:36:28  620 621	 1492454188	 378119071	 271263.
18:36:28  621 622	 1492454188	 654019655	 275900.
18:36:28  622 623	 1492454188	 926195207	 272176.
18:36:29  623 624	 1492454189	 153105601	 226910.
18:36:29  624 625	 1492454189	 425436444	 272331.
18:36:29  625 626	 1492454189	 697451661	 272015.
18:36:29  626 627	 1492454189	 973925288	 276474.
18:36:30  627 628	 1492454190	 245572288	 271647.
18:36:30  628 629	 1492454190	 517782858	 272211.
18:36:30  629 630	 1492454190	 793801803	 276019.
18:36:31  630 631	 1492454191	 69481113	 275679.
18:36:31  631 632	 1492454191	 292043221	 222562.
18:36:31  632 633	 1492454191	 563654453	 271611.
18:36:31  633 634	 1492454191	 839128684	 275474.
18:36:32  634 635	 1492454192	 114883366	 275755.
18:36:32  635 636	 1492454192	 337392746	 222509.
18:36:32  636 637	 1492454192	 609681139	 272289.
18:36:32  637 638	 1492454192	 885718585	 276037.
18:36:33  638 639	 1492454193	 157931996	 272214.
18:36:33  639 640	 1492454193	 433650003	 275718.
18:36:33  640 641	 1492454193	 705768868	 272119.
18:36:33  641 642	 1492454193	 981633951	 275865.
18:36:34  642 643	 1492454194	 253702304	 272068.
18:36:34  643 644	 1492454194	 529489717	 275787.
18:36:34  644 645	 1492454194	 805247381	 275758.
18:36:35  645 646	 1492454195	 27953507	 222706.
18:36:35  646 647	 1492454195	 303487514	 275534.
18:36:35  647 648	 1492454195	 571739783	 268252.
18:36:35  648 649	 1492454195	 847754201	 276015.
18:36:36  649 650	 1492454196	 119556139	 271802.
18:36:36  650 651	 1492454196	 395766680	 276210.
18:36:36  651 652	 1492454196	 618514326	 222748.
18:36:36  652 653	 1492454196	 890611043	 272097.
18:36:37  653 654	 1492454197	 166761876	 276151.
18:36:37  654 655	 1492454197	 438656302	 271894.
18:36:37  655 656	 1492454197	 714640953	 275985.
18:36:37  656 657	 1492454197	 986607417	 271966.
18:36:38  657 658	 1492454198	 209074723	 222467.
18:36:38  658 659	 1492454198	 484716073	 275642.
18:36:38  659 660	 1492454198	 757206337	 272490.
18:36:39  660 661	 1492454199	 33127957	 275922.
18:36:39  661 662	 1492454199	 305099392	 271971.
18:36:39  662 663	 1492454199	 581164634	 276065.
18:36:39  663 664	 1492454199	 852822743	 271658.
18:36:40  664 665	 1492454200	 75866555	 223044.
18:36:40  665 666	 1492454200	 351807619	 275941.
18:36:40  666 667	 1492454200	 623979177	 272172.
18:36:40  667 668	 1492454200	 900655612	 276676.
18:36:41  668 669	 1492454201	 173144749	 272489.
18:36:41  669 670	 1492454201	 449126822	 275983.
18:36:41  670 671	 1492454201	 720900875	 271774.
18:36:41  671 672	 1492454201	 996482505	 275581.
18:36:42  672 673	 1492454202	 219424759	 222942.
18:36:42  673 674	 1492454202	 491671939	 272248.
18:36:42  674 675	 1492454202	 767390547	 275718.
18:36:43  675 676	 1492454203	 38453395	 271063.
18:36:43  676 677	 1492454203	 309582510	 271129.
18:36:43  677 678	 1492454203	 585441925	 275860.
18:36:43  678 679	 1492454203	 857473279	 272031.
18:36:44  679 680	 1492454204	 134236544	 276763.
18:36:44  680 681	 1492454204	 356987644	 222751.
18:36:44  681 682	 1492454204	 628697665	 271710.
18:36:44  682 683	 1492454204	 904635187	 275938.
18:36:45  683 684	 1492454205	 176611806	 271976.
18:36:45  684 685	 1492454205	 452786516	 276175.
18:36:45  685 686	 1492454205	 675606443	 222820.
18:36:45  686 687	 1492454205	 947531679	 271925.
18:36:46  687 688	 1492454206	 223412396	 275881.
18:36:46  688 689	 1492454206	 495177760	 271766.
18:36:46  689 690	 1492454206	 771311340	 276133.
18:36:47  690 691	 1492454207	 47256458	 275945.
18:36:47  691 692	 1492454207	 269520599	 222264.
18:36:47  692 693	 1492454207	 544750038	 275230.
18:36:47  693 694	 1492454207	 820760268	 276010.
18:36:48  694 695	 1492454208	 43430196	 222670.
18:36:48  695 696	 1492454208	 315100279	 271670.
18:36:48  696 697	 1492454208	 591044036	 275944.
18:36:48  697 698	 1492454208	 866709054	 275665.
18:36:49  698 699	 1492454209	 138121781	 271412.
18:36:49  699 700	 1492454209	 360776399	 222655.
18:36:49  700 701	 1492454209	 636968844	 276193.
18:36:49  701 702	 1492454209	 913626378	 276657.
18:36:50  702 703	 1492454210	 186061630	 272435.
18:36:50  703 704	 1492454210	 461924833	 275864.
18:36:50  704 705	 1492454210	 734378225	 272453.
18:36:51  705 706	 1492454211	 11037763	 276659.
18:36:51  706 707	 1492454211	 287230098	 276193.
18:36:51  707 708	 1492454211	 559160196	 271930.
18:36:51  708 709	 1492454211	 782121325	 222961.
18:36:52  709 710	 1492454212	 58109084	 275988.
18:36:52  710 711	 1492454212	 330359917	 272251.
18:36:52  711 712	 1492454212	 602622000	 272262.
18:36:52  712 713	 1492454212	 879128516	 276506.
18:36:53  713 714	 1492454213	 151276528	 272148.
18:36:53  714 715	 1492454213	 427475073	 276199.
18:36:53  715 716	 1492454213	 699555240	 272080.
18:36:53  716 717	 1492454213	 976317605	 276762.
18:36:54  717 718	 1492454214	 248572587	 272255.
18:36:54  718 719	 1492454214	 516958802	 268387.
18:36:54  719 720	 1492454214	 740424534	 223465.
18:36:55  720 721	 1492454215	 16797326	 276373.
18:36:55  721 722	 1492454215	 288679252	 271882.
18:36:55  722 723	 1492454215	 564797215	 276118.
18:36:55  723 724	 1492454215	 836795652	 271998.
18:36:56  724 725	 1492454216	 113279444	 276484.
18:36:56  725 726	 1492454216	 389665947	 276387.
18:36:56  726 727	 1492454216	 661734254	 272068.
18:36:56  727 728	 1492454216	 884465443	 222731.
18:36:57  728 729	 1492454217	 156846957	 272382.
18:36:57  729 730	 1492454217	 432907949	 276061.
18:36:57  730 731	 1492454217	 705070501	 272162.
18:36:57  731 732	 1492454217	 982028347	 276958.
18:36:58  732 733	 1492454218	 249694496	 267666.
18:36:58  733 734	 1492454218	 521365053	 271671.
18:36:58  734 735	 1492454218	 792228866	 270864.
18:36:59  735 736	 1492454219	 67883331	 275654.
18:36:59  736 737	 1492454219	 339453851	 271571.
18:36:59  737 738	 1492454219	 561598806	 222145.
18:36:59  738 739	 1492454219	 832788625	 271190.
18:37:00  739 740	 1492454220	 103930775	 271141.
18:37:00  740 741	 1492454220	 379499529	 275569.
18:37:00  741 742	 1492454220	 650751873	 271253.
18:37:00  742 743	 1492454220	 926130642	 275378.
18:37:01  743 744	 1492454221	 197098484	 270968.
18:37:01  744 745	 1492454221	 467974841	 270877.
18:37:01  745 746	 1492454221	 690231198	 222256.
18:37:01  746 747	 1492454221	 965827638	 275597.
18:37:02  747 748	 1492454222	 237181957	 271354.
18:37:02  748 749	 1492454222	 508467187	 271285.
18:37:02  749 750	 1492454222	 779473245	 271006.
18:37:03  750 751	 1492454223	 54754658	 275281.
18:37:03  751 752	 1492454223	 325875820	 271122.
18:37:03  752 753	 1492454223	 597124238	 271248.
18:37:03  753 754	 1492454223	 819585949	 222462.
18:37:04  754 755	 1492454224	 90748037	 271162.
18:37:04  755 756	 1492454224	 366097408	 275349.
18:37:04  756 757	 1492454224	 637320458	 271223.
18:37:04  757 758	 1492454224	 912455451	 275135.
18:37:05  758 759	 1492454225	 183674331	 271219.
18:37:05  759 760	 1492454225	 454830365	 271156.
18:37:05  760 761	 1492454225	 729873643	 275043.
18:37:05  761 762	 1492454225	 952289323	 222416.
18:37:06  762 763	 1492454226	 223335376	 271046.
18:37:06  763 764	 1492454226	 494370540	 271035.
18:37:06  764 765	 1492454226	 769848688	 275478.
18:37:07  765 766	 1492454227	 41164652	 271316.
18:37:07  766 767	 1492454227	 316326459	 275162.
18:37:07  767 768	 1492454227	 587869083	 271543.
18:37:07  768 769	 1492454227	 810219356	 222350.
18:37:08  769 770	 1492454228	 85854449	 275635.
18:37:08  770 771	 1492454228	 357180423	 271326.
18:37:08  771 772	 1492454228	 628862004	 271682.
18:37:08  772 773	 1492454228	 904301962	 275440.
18:37:09  773 774	 1492454229	 175353873	 271052.
18:37:09  774 775	 1492454229	 398072415	 222718.
18:37:09  775 776	 1492454229	 673619660	 275547.
18:37:09  776 777	 1492454229	 944924366	 271305.
18:37:10  777 778	 1492454230	 220157973	 275234.
18:37:10  778 779	 1492454230	 491679043	 271521.
18:37:10  779 780	 1492454230	 766812643	 275133.
18:37:10  780 781	 1492454230	 988957054	 222145.
18:37:11  781 782	 1492454231	 260807936	 271851.
18:37:11  782 783	 1492454231	 532680893	 271873.
18:37:11  783 784	 1492454231	 808577515	 275896.
18:37:12  784 785	 1492454232	 80350403	 271773.
18:37:12  785 786	 1492454232	 356379525	 276029.
18:37:12  786 787	 1492454232	 627324625	 270945.
18:37:12  787 788	 1492454232	 897997132	 270673.
18:37:13  788 789	 1492454233	 173173474	 275176.
18:37:13  789 790	 1492454233	 444369347	 271196.
18:37:13  790 791	 1492454233	 715479753	 271111.
18:37:13  791 792	 1492454233	 937666761	 222186.
18:37:14  792 793	 1492454234	 209536177	 271870.
18:37:14  793 794	 1492454234	 485190899	 275655.
18:37:14  794 795	 1492454234	 756826060	 271635.
18:37:15  795 796	 1492454235	 32117381	 275291.
18:37:15  796 797	 1492454235	 303585329	 271468.
18:37:15  797 798	 1492454235	 574597755	 271012.
18:37:15  798 799	 1492454235	 845799657	 271202.
18:37:16  799 800	 1492454236	 121673902	 275875.
18:37:16  800 801	 1492454236	 344195372	 222521.
18:37:16  801 802	 1492454236	 615551466	 271356.
18:37:16  802 803	 1492454236	 891196552	 275645.
18:37:17  803 804	 1492454237	 163192527	 271996.
18:37:17  804 805	 1492454237	 434650996	 271459.
18:37:17  805 806	 1492454237	 706516871	 271866.
18:37:17  806 807	 1492454237	 982129903	 275613.
18:37:18  807 808	 1492454238	 204587973	 222458.
18:37:18  808 809	 1492454238	 475846521	 271258.
18:37:18  809 810	 1492454238	 751611161	 275765.
18:37:19  810 811	 1492454239	 23332743	 271721.
18:37:19  811 812	 1492454239	 298918735	 275586.
18:37:19  812 813	 1492454239	 570673542	 271755.
18:37:19  813 814	 1492454239	 842710213	 272037.
18:37:20  814 815	 1492454240	 114517811	 271808.
18:37:20  815 816	 1492454240	 337538990	 223021.
18:37:20  816 817	 1492454240	 608855751	 271316.
18:37:20  817 818	 1492454240	 884588197	 275733.
18:37:21  818 819	 1492454241	 155769608	 271181.
18:37:21  819 820	 1492454241	 431608806	 275839.
18:37:21  820 821	 1492454241	 703381525	 271773.
18:37:21  821 822	 1492454241	 978953703	 275572.
18:37:22  822 823	 1492454242	 250669632	 271716.
18:37:22  823 824	 1492454242	 522123038	 271454.
18:37:22  824 825	 1492454242	 797669946	 275547.
18:37:23  825 826	 1492454243	 69457347	 271787.
18:37:23  826 827	 1492454243	 340905980	 271449.
18:37:23  827 828	 1492454243	 563399317	 222493.
18:37:23  828 829	 1492454243	 839381644	 275982.
18:37:24  829 830	 1492454244	 114681940	 275301.
18:37:24  830 831	 1492454244	 385976660	 271294.
18:37:24  831 832	 1492454244	 657773874	 271798.
18:37:24  832 833	 1492454244	 933358043	 275584.
18:37:25  833 834	 1492454245	 204810179	 271452.
18:37:25  834 835	 1492454245	 427045536	 222235.
18:37:25  835 836	 1492454245	 702601408	 275556.
18:37:25  836 837	 1492454245	 973930724	 271329.
18:37:26  837 838	 1492454246	 245661212	 271731.
18:37:26  838 839	 1492454246	 520947792	 275286.
18:37:26  839 840	 1492454246	 792438713	 271491.
18:37:27  840 841	 1492454247	 67438367	 275000.
18:37:27  841 842	 1492454247	 289668950	 222231.
18:37:27  842 843	 1492454247	 560945215	 271276.
18:37:27  843 844	 1492454247	 836678385	 275733.
18:37:28  844 845	 1492454248	 108051718	 271373.
18:37:28  845 846	 1492454248	 379231495	 271180.
18:37:28  846 847	 1492454248	 654776231	 275545.
18:37:28  847 848	 1492454248	 877200699	 222424.
18:37:29  848 849	 1492454249	 148492423	 271292.
18:37:29  849 850	 1492454249	 423747764	 275256.
18:37:29  850 851	 1492454249	 694885216	 271137.
18:37:29  851 852	 1492454249	 970796044	 275911.
18:37:30  852 853	 1492454250	 193114099	 222318.
18:37:30  853 854	 1492454250	 464809681	 271695.
18:37:30  854 855	 1492454250	 740823961	 276015.
18:37:31  855 856	 1492454251	 13068190	 272244.
18:37:31  856 857	 1492454251	 284545404	 271477.
18:37:31  857 858	 1492454251	 560230655	 275685.
18:37:31  858 859	 1492454251	 783004389	 222774.
18:37:32  859 860	 1492454252	 54376624	 271372.
18:37:32  860 861	 1492454252	 330360150	 275984.
18:37:32  861 862	 1492454252	 602436930	 272077.
18:37:32  862 863	 1492454252	 878354607	 275917.
18:37:33  863 864	 1492454253	 149952207	 271598.
18:37:33  864 865	 1492454253	 372991201	 223039.
18:37:33  865 866	 1492454253	 644734117	 271743.
18:37:33  866 867	 1492454253	 921290518	 276556.
18:37:34  867 868	 1492454254	 193037939	 271748.
18:37:34  868 869	 1492454254	 469214166	 276176.
18:37:34  869 870	 1492454254	 741345673	 272131.
18:37:35  870 871	 1492454255	 16896115	 275551.
18:37:35  871 872	 1492454255	 239710231	 222814.
18:37:35  872 873	 1492454255	 511698849	 271988.
18:37:35  873 874	 1492454255	 783478579	 271780.
18:37:36  874 875	 1492454256	 59475712	 275997.
18:37:36  875 876	 1492454256	 331541535	 272066.
18:37:36  876 877	 1492454256	 607261280	 275720.
18:37:36  877 878	 1492454256	 829822334	 222561.
18:37:37  878 879	 1492454257	 105787595	 275965.
18:37:37  879 880	 1492454257	 381603966	 275817.
18:37:37  880 881	 1492454257	 653561840	 271958.
18:37:37  881 882	 1492454257	 929446602	 275884.
18:37:38  882 883	 1492454258	 152393504	 222947.
18:37:38  883 884	 1492454258	 424410920	 272018.
18:37:38  884 885	 1492454258	 700433400	 276022.
18:37:38  885 886	 1492454258	 972135332	 271702.
18:37:39  886 887	 1492454259	 248053966	 275919.
18:37:39  887 888	 1492454259	 470753533	 222699.
18:37:39  888 889	 1492454259	 743009149	 272256.
18:37:40  889 890	 1492454260	 18865145	 275856.
18:37:40  890 891	 1492454260	 290633811	 271769.
18:37:40  891 892	 1492454260	 566179650	 275545.
18:37:40  892 893	 1492454260	 838496376	 272317.
18:37:41  893 894	 1492454261	 60999246	 222503.
18:37:41  894 895	 1492454261	 335650906	 274652.
18:37:41  895 896	 1492454261	 606841225	 271190.
18:37:41  896 897	 1492454261	 877789856	 270949.
18:37:42  897 898	 1492454262	 148374285	 270584.
18:37:42  898 899	 1492454262	 370234001	 221860.
18:37:42  899 900	 1492454262	 641633617	 271399.
18:37:42  900 901	 1492454262	 917916645	 276283.
18:37:43  901 902	 1492454263	 190129481	 272213.
18:37:43  902 903	 1492454263	 466416153	 276287.
18:37:43  903 904	 1492454263	 742718104	 276302.
18:37:44  904 905	 1492454264	 14631569	 271913.
18:37:44  905 906	 1492454264	 286778773	 272148.
18:37:44  906 907	 1492454264	 562723352	 275944.
18:37:44  907 908	 1492454264	 785423897	 222701.
18:37:45  908 909	 1492454265	 56440998	 271017.
18:37:45  909 910	 1492454265	 332015148	 275574.
18:37:45  910 911	 1492454265	 603612926	 271598.
18:37:45  911 912	 1492454265	 875316767	 271703.
18:37:46  912 913	 1492454266	 150903919	 275588.
18:37:46  913 914	 1492454266	 373813386	 222909.
18:37:46  914 915	 1492454266	 645188227	 271375.
18:37:46  915 916	 1492454266	 920376662	 275189.
18:37:47  916 917	 1492454267	 191927161	 271550.
18:37:47  917 918	 1492454267	 467643939	 275717.
18:37:47  918 919	 1492454267	 739893241	 272249.
18:37:48  919 920	 1492454268	 15938497	 276045.
18:37:48  920 921	 1492454268	 234268189	 218330.
18:37:48  921 922	 1492454268	 509872398	 275604.
18:37:48  922 923	 1492454268	 781628234	 271756.
18:37:49  923 924	 1492454269	 56912760	 275284.
18:37:49  924 925	 1492454269	 328333815	 271422.
18:37:49  925 926	 1492454269	 551322893	 222989.
18:37:49  926 927	 1492454269	 823151573	 271828.
18:37:50  927 928	 1492454270	 94547489	 271396.
18:37:50  928 929	 1492454270	 370471706	 275925.
18:37:50  929 930	 1492454270	 642241504	 271769.
18:37:50  930 931	 1492454270	 918014136	 275773.
18:37:51  931 932	 1492454271	 140611729	 222597.
18:37:51  932 933	 1492454271	 412340833	 271730.
18:37:51  933 934	 1492454271	 688200404	 275859.
18:37:51  934 935	 1492454271	 963921087	 275721.
18:37:52  935 936	 1492454272	 186272935	 222352.
18:37:52  936 937	 1492454272	 458162718	 271889.
18:37:52  937 938	 1492454272	 734403734	 276241.
18:37:53  938 939	 1492454273	 6447305	 272044.
18:37:53  939 940	 1492454273	 281784924	 275338.
18:37:53  940 941	 1492454273	 504586614	 222801.
18:37:53  941 942	 1492454273	 776666680	 272080.
18:37:54  942 943	 1492454274	 52734938	 276069.
18:37:54  943 944	 1492454274	 324317573	 271582.
18:37:54  944 945	 1492454274	 600054545	 275737.
18:37:54  945 946	 1492454274	 875881285	 275827.
18:37:55  946 947	 1492454275	 98700783	 222820.
18:37:55  947 948	 1492454275	 370817646	 272116.
18:37:55  948 949	 1492454275	 647100491	 276283.
18:37:55  949 950	 1492454275	 919020672	 271920.
18:37:56  950 951	 1492454276	 195138860	 276119.
18:37:56  951 952	 1492454276	 467095692	 271956.
18:37:56  952 953	 1492454276	 739051527	 271956.
18:37:56  953 954	 1492454276	 965624499	 226573.
18:37:57  954 955	 1492454277	 241220952	 275597.
18:37:57  955 956	 1492454277	 512847320	 271626.
18:37:57  956 957	 1492454277	 788409611	 275563.
18:37:58  957 958	 1492454278	 11245425	 222835.
18:37:58  958 959	 1492454278	 282560814	 271316.
18:37:58  959 960	 1492454278	 558744365	 276183.
18:37:58  960 961	 1492454278	 830169807	 271425.
18:37:59  961 962	 1492454279	 105969173	 275800.
18:37:59  962 963	 1492454279	 328269265	 222300.
18:37:59  963 964	 1492454279	 599867914	 271599.
18:37:59  964 965	 1492454279	 875666324	 275798.
18:38:00  965 966	 1492454280	 97897977	 222232.
18:38:00  966 967	 1492454280	 369748531	 271850.
18:38:00  967 968	 1492454280	 645436324	 275688.
18:38:00  968 969	 1492454280	 917245177	 271809.
18:38:01  969 970	 1492454281	 192780666	 275535.
18:38:01  970 971	 1492454281	 463961167	 271181.
18:38:01  971 972	 1492454281	 735331392	 271370.
18:38:02  972 973	 1492454282	 10632634	 275301.
18:38:02  973 974	 1492454282	 228930413	 218298.
18:38:02  974 975	 1492454282	 504418584	 275488.
18:38:02  975 976	 1492454282	 775963754	 271545.
18:38:03  976 977	 1492454283	 47720154	 271757.
18:38:03  977 978	 1492454283	 322964093	 275244.
18:38:03  978 979	 1492454283	 594205715	 271241.
18:38:03  979 980	 1492454283	 865600975	 271396.
18:38:04  980 981	 1492454284	 136724596	 271123.
18:38:04  981 982	 1492454284	 412428500	 275704.
18:38:04  982 983	 1492454284	 683928074	 271500.
18:38:04  983 984	 1492454284	 955558362	 271630.
18:38:05  984 985	 1492454285	 227156052	 271598.
18:38:05  985 986	 1492454285	 502521559	 275365.
18:38:05  986 987	 1492454285	 773766630	 271245.
18:38:05  987 988	 1492454285	 995912328	 222146.
18:38:06  988 989	 1492454286	 267029787	 271117.
18:38:06  989 990	 1492454286	 542406637	 275377.
18:38:06  990 991	 1492454286	 814210172	 271804.
18:38:07  991 992	 1492454287	 89769451	 275559.
18:38:07  992 993	 1492454287	 361284849	 271516.
18:38:07  993 994	 1492454287	 637113000	 275828.
18:38:07  994 995	 1492454287	 908299786	 271186.
18:38:08  995 996	 1492454288	 179759983	 271461.
18:38:08  996 997	 1492454288	 450904135	 271144.
18:38:08  997 998	 1492454288	 722120865	 271217.
18:38:08  998 999	 1492454288	 997327174	 275206.
18:38:09  999 1000	 1492454289	 268759593	 271433.
18:38:09 1000 1001	 1492454289	 491406013	 222646.
18:38:09 1001 1002	 1492454289	 762983423	 271577.
18:38:10 1002 1003	 1492454290	 38761584	 275778.
18:38:10 1003 1004	 1492454290	 309571833	 270811.
18:38:10 1004 1005	 1492454290	 580135976	 270564.
18:38:10 1005 1006	 1492454290	 855232445	 275096.
18:38:11 1006 1007	 1492454291	 126268651	 271036.
18:38:11 1007 1008	 1492454291	 348334521	 222066.
18:38:11 1008 1009	 1492454291	 624275457	 275941.
18:38:11 1009 1010	 1492454291	 895565277	 271290.
18:38:12 1010 1011	 1492454292	 171508992	 275944.
18:38:12 1011 1012	 1492454292	 443221381	 271712.
18:38:12 1012 1013	 1492454292	 719371636	 276151.
18:38:12 1013 1014	 1492454292	 942212702	 222840.
18:38:13 1014 1015	 1492454293	 214264242	 272052.
18:38:13 1015 1016	 1492454293	 485967669	 271703.
18:38:13 1016 1017	 1492454293	 761572884	 275606.
18:38:14 1017 1018	 1492454294	 32031656	 270458.
18:38:14 1018 1019	 1492454294	 253862789	 221832.
18:38:14 1019 1020	 1492454294	 528872409	 275009.
18:38:14 1020 1021	 1492454294	 800739944	 271868.
18:38:15 1021 1022	 1492454295	 76675571	 275935.
18:38:15 1022 1023	 1492454295	 348234835	 271560.
18:38:15 1023 1024	 1492454295	 575242022	 227007.
18:38:15 1024 1025	 1492454295	 846482721	 271240.
18:38:16 1025 1026	 1492454296	 118395729	 271913.
18:38:16 1026 1027	 1492454296	 394437206	 276042.
18:38:16 1027 1028	 1492454296	 670416866	 275980.
18:38:16 1028 1029	 1492454296	 942056439	 271639.
18:38:17 1029 1030	 1492454297	 164951116	 222895.
18:38:17 1030 1031	 1492454297	 440956857	 276006.
18:38:17 1031 1032	 1492454297	 713649493	 272692.
18:38:17 1032 1033	 1492454297	 985904436	 272255.
18:38:18 1033 1034	 1492454298	 261745477	 275841.
18:38:18 1034 1035	 1492454298	 533729185	 271984.
18:38:18 1035 1036	 1492454298	 809719539	 275990.
18:38:19 1036 1037	 1492454299	 81253162	 271534.
18:38:19 1037 1038	 1492454299	 357150858	 275898.
18:38:19 1038 1039	 1492454299	 579686192	 222535.
18:38:19 1039 1040	 1492454299	 851287472	 271601.
18:38:20 1040 1041	 1492454300	 127202361	 275915.
18:38:20 1041 1042	 1492454300	 398740712	 271538.
18:38:20 1042 1043	 1492454300	 670384300	 271644.
18:38:20 1043 1044	 1492454300	 897010574	 226626.
18:38:21 1044 1045	 1492454301	 167934461	 270924.
18:38:21 1045 1046	 1492454301	 443742874	 275809.
18:38:21 1046 1047	 1492454301	 715817554	 272074.
18:38:21 1047 1048	 1492454301	 992210345	 276393.
18:38:22 1048 1049	 1492454302	 215310765	 223100.
18:38:22 1049 1050	 1492454302	 487408290	 272098.
18:38:22 1050 1051	 1492454302	 763514894	 276107.
18:38:23 1051 1052	 1492454303	 35140279	 271625.
18:38:23 1052 1053	 1492454303	 310717291	 275577.
18:38:23 1053 1054	 1492454303	 586740105	 276023.
18:38:23 1054 1055	 1492454303	 809129889	 222390.
18:38:24 1055 1056	 1492454304	 81086842	 271957.
18:38:24 1056 1057	 1492454304	 352650629	 271563.
18:38:24 1057 1058	 1492454304	 628614959	 275965.
18:38:24 1058 1059	 1492454304	 900397765	 271782.
18:38:25 1059 1060	 1492454305	 123203501	 222806.
18:38:25 1060 1061	 1492454305	 394586870	 271384.
18:38:25 1061 1062	 1492454305	 670357090	 275770.
18:38:25 1062 1063	 1492454305	 942066073	 271709.
18:38:26 1063 1064	 1492454306	 213044766	 270978.
18:38:26 1064 1065	 1492454306	 488257897	 275214.
18:38:26 1065 1066	 1492454306	 759495680	 271237.
18:38:26 1066 1067	 1492454306	 981754860	 222260.
18:38:27 1067 1068	 1492454307	 252636245	 270881.
18:38:27 1068 1069	 1492454307	 528279721	 275643.
18:38:27 1069 1070	 1492454307	 798991885	 270713.
18:38:28 1070 1071	 1492454308	 73946462	 274954.
18:38:28 1071 1072	 1492454308	 296035682	 222089.
18:38:28 1072 1073	 1492454308	 567079843	 271045.
18:38:28 1073 1074	 1492454308	 842625999	 275546.
18:38:29 1074 1075	 1492454309	 113791241	 271165.
18:38:29 1075 1076	 1492454309	 385217560	 271426.
18:38:29 1076 1077	 1492454309	 660402665	 275185.
18:38:29 1077 1078	 1492454309	 931876953	 271475.
18:38:30 1078 1079	 1492454310	 154403424	 222526.
18:38:30 1079 1080	 1492454310	 429730337	 275327.
18:38:30 1080 1081	 1492454310	 701288190	 271558.
18:38:30 1081 1082	 1492454310	 972604366	 271316.
18:38:31 1082 1083	 1492454311	 243572501	 270968.
18:38:31 1083 1084	 1492454311	 515355925	 271784.
18:38:31 1084 1085	 1492454311	 790568212	 275212.
18:38:32 1085 1086	 1492454312	 61930083	 271362.
18:38:32 1086 1087	 1492454312	 333129299	 271199.
18:38:32 1087 1088	 1492454312	 604335560	 271206.
18:38:32 1088 1089	 1492454312	 879377436	 275042.
18:38:33 1089 1090	 1492454313	 151118058	 271741.
18:38:33 1090 1091	 1492454313	 426638581	 275520.
18:38:33 1091 1092	 1492454313	 648871847	 222234.
18:38:33 1092 1093	 1492454313	 920073324	 271201.
18:38:34 1093 1094	 1492454314	 191359679	 271286.
18:38:34 1094 1095	 1492454314	 462657293	 271298.
18:38:34 1095 1096	 1492454314	 737763923	 275107.
18:38:35 1096 1097	 1492454315	 8711297	 270947.
18:38:35 1097 1098	 1492454315	 279634816	 270924.
18:38:35 1098 1099	 1492454315	 501686051	 222051.
18:38:35 1099 1100	 1492454315	 772654518	 270968.
18:38:36 1100 1101	 1492454316	 43543644	 270890.
18:38:36 1101 1102	 1492454316	 318808038	 275264.
18:38:36 1102 1103	 1492454316	 590304082	 271496.
18:38:36 1103 1104	 1492454316	 865183026	 274879.
18:38:37 1104 1105	 1492454317	 135847490	 270664.
18:38:37 1105 1106	 1492454317	 358270769	 222423.
18:38:37 1106 1107	 1492454317	 629246273	 270976.
18:38:37 1107 1108	 1492454317	 900534162	 271288.
18:38:38 1108 1109	 1492454318	 176122060	 275588.
18:38:38 1109 1110	 1492454318	 447325868	 271204.
18:38:38 1110 1111	 1492454318	 718810441	 271484.
18:38:38 1111 1112	 1492454318	 994299795	 275489.
18:38:39 1112 1113	 1492454319	 261667588	 267368.
18:38:39 1113 1114	 1492454319	 532974675	 271307.
18:38:39 1114 1115	 1492454319	 808534398	 275560.
18:38:40 1115 1116	 1492454320	 30952284	 222418.
18:38:40 1116 1117	 1492454320	 302321302	 271369.
18:38:40 1117 1118	 1492454320	 573719051	 271398.
18:38:40 1118 1119	 1492454320	 848975579	 275256.
18:38:41 1119 1120	 1492454321	 119519386	 270544.
18:38:41 1120 1121	 1492454321	 390879821	 271361.
18:38:41 1121 1122	 1492454321	 665984517	 275104.
18:38:41 1122 1123	 1492454321	 888408577	 222424.
18:38:42 1123 1124	 1492454322	 159187402	 270779.
18:38:42 1124 1125	 1492454322	 434533533	 275346.
18:38:42 1125 1126	 1492454322	 705709356	 271176.
18:38:42 1126 1127	 1492454322	 980617539	 274908.
