13:03:08    0 Step	 time(s)	 time(ns)	 delta(ms)
13:03:08    0 1	 1492434188	 114693141	 54220.
13:03:08    1 2	 1492434188	 386750591	 272057.
13:03:08    2 3	 1492434188	 662132211	 275382.
13:03:08    3 4	 1492434188	 884373508	 222241.
13:03:09    4 5	 1492434189	 155541984	 271169.
13:03:09    5 6	 1492434189	 426581864	 271040.
13:03:09    6 7	 1492434189	 701863569	 275281.
13:03:09    7 8	 1492434189	 973184756	 271321.
13:03:10    8 9	 1492434190	 244219695	 271035.
13:03:10    9 10	 1492434190	 519469382	 275250.
13:03:10   10 11	 1492434190	 741757274	 222288.
13:03:11   11 12	 1492434191	 13421433	 271664.
13:03:11   12 13	 1492434191	 285265498	 271844.
13:03:11   13 14	 1492434191	 560435895	 275171.
13:03:11   14 15	 1492434191	 831327201	 270891.
13:03:12   15 16	 1492434192	 102290820	 270964.
13:03:12   16 17	 1492434192	 324663259	 222372.
13:03:12   17 18	 1492434192	 595723145	 271060.
13:03:12   18 19	 1492434192	 870724265	 275001.
13:03:13   19 20	 1492434193	 141689122	 270965.
13:03:13   20 21	 1492434193	 412747499	 271058.
13:03:13   21 22	 1492434193	 689057974	 276311.
13:03:13   22 23	 1492434193	 961015259	 271957.
13:03:14   23 24	 1492434194	 232255600	 271240.
13:03:14   24 25	 1492434194	 454393997	 222139.
13:03:14   25 26	 1492434194	 725469854	 271076.
13:03:14   26 27	 1492434195	 357714	 274887.
13:03:15   27 28	 1492434195	 271148549	 270791.
13:03:15   28 29	 1492434195	 546009096	 274861.
13:03:15   29 30	 1492434195	 817301303	 271292.
13:03:16   30 31	 1492434196	 39336150	 222035.
13:03:16   31 32	 1492434196	 310501354	 271165.
13:03:16   32 33	 1492434196	 581950489	 271449.
13:03:16   33 34	 1492434196	 856941594	 274991.
13:03:17   34 35	 1492434197	 127947849	 271007.
13:03:17   35 36	 1492434197	 403065505	 275117.
13:03:17   36 37	 1492434197	 621188056	 218123.
13:03:17   37 38	 1492434197	 896284164	 275096.
13:03:18   38 39	 1492434198	 167321856	 271038.
13:03:18   39 40	 1492434198	 438311055	 270989.
13:03:18   40 41	 1492434198	 714035763	 275724.
13:03:18   41 42	 1492434198	 985586245	 271551.
13:03:19   42 43	 1492434199	 256639345	 271053.
13:03:19   43 44	 1492434199	 527645083	 271006.
13:03:19   44 45	 1492434199	 749855218	 222210.
13:03:20   45 46	 1492434200	 20792642	 270937.
13:03:20   46 47	 1492434200	 295775716	 274983.
13:03:20   47 48	 1492434200	 566673814	 270899.
13:03:20   48 49	 1492434200	 841854953	 275181.
13:03:21   49 50	 1492434201	 113323404	 271468.
13:03:21   50 51	 1492434201	 335005970	 221683.
13:03:21   51 52	 1492434201	 606353568	 271347.
13:03:21   52 53	 1492434201	 877758381	 271405.
13:03:22   53 54	 1492434202	 152937589	 275179.
13:03:22   54 55	 1492434202	 424038212	 271101.
13:03:22   55 56	 1492434202	 695236729	 271198.
13:03:22   56 57	 1492434202	 970496182	 275260.
13:03:23   57 58	 1492434203	 241515710	 271019.
13:03:23   58 59	 1492434203	 463409677	 221894.
13:03:23   59 60	 1492434203	 734597815	 271189.
13:03:24   60 61	 1492434204	 9861547	 275263.
13:03:24   61 62	 1492434204	 280810696	 270949.
13:03:24   62 63	 1492434204	 552110604	 271300.
13:03:24   63 64	 1492434204	 819956480	 267846.
13:03:25   64 65	 1492434205	 91056847	 271100.
13:03:25   65 66	 1492434205	 362120671	 271064.
13:03:25   66 67	 1492434205	 637434862	 275315.
13:03:25   67 68	 1492434205	 859700699	 222265.
13:03:26   68 69	 1492434206	 130968598	 271268.
13:03:26   69 70	 1492434206	 402250911	 271283.
13:03:26   70 71	 1492434206	 673540670	 271289.
13:03:26   71 72	 1492434206	 948922760	 275382.
13:03:27   72 73	 1492434207	 220302900	 271381.
13:03:27   73 74	 1492434207	 491254905	 270952.
13:03:27   74 75	 1492434207	 762420583	 271165.
13:03:28   75 76	 1492434208	 37548215	 275128.
13:03:28   76 77	 1492434208	 259834606	 222287.
13:03:28   77 78	 1492434208	 531201953	 271367.
13:03:28   78 79	 1492434208	 802869726	 271667.
13:03:29   79 80	 1492434209	 78571319	 275702.
13:03:29   80 81	 1492434209	 350138906	 271568.
13:03:29   81 82	 1492434209	 621238435	 271099.
13:03:29   82 83	 1492434209	 892171390	 270933.
13:03:30   83 84	 1492434210	 163453604	 271282.
13:03:30   84 85	 1492434210	 438671332	 275218.
13:03:30   85 86	 1492434210	 709678908	 271008.
13:03:30   86 87	 1492434210	 931759307	 222080.
13:03:31   87 88	 1492434211	 202776927	 271018.
13:03:31   88 89	 1492434211	 473766749	 270990.
13:03:31   89 90	 1492434211	 748931657	 275164.
13:03:32   90 91	 1492434212	 19785100	 270854.
13:03:32   91 92	 1492434212	 290882905	 271098.
13:03:32   92 93	 1492434212	 561938227	 271055.
13:03:32   93 94	 1492434212	 837240870	 275303.
13:03:33   94 95	 1492434213	 59227600	 221986.
13:03:33   95 96	 1492434213	 330144760	 270917.
13:03:33   96 97	 1492434213	 601295295	 271151.
13:03:33   97 98	 1492434213	 876560753	 275265.
13:03:34   98 99	 1492434214	 147780068	 271220.
13:03:34   99 100	 1492434214	 418839477	 271059.
13:03:34  100 101	 1492434214	 689959261	 271120.
13:03:34  101 102	 1492434214	 911849641	 221890.
13:03:35  102 103	 1492434215	 183145190	 271296.
13:03:35  103 104	 1492434215	 458425700	 275280.
13:03:35  104 105	 1492434215	 729630140	 271205.
13:03:36  105 106	 1492434216	 4834551	 275204.
13:03:36  106 107	 1492434216	 275808760	 270974.
13:03:36  107 108	 1492434216	 547056794	 271248.
13:03:36  108 109	 1492434216	 818158326	 271102.
13:03:37  109 110	 1492434217	 40408041	 222250.
13:03:37  110 111	 1492434217	 315781138	 275373.
13:03:37  111 112	 1492434217	 587034862	 271254.
13:03:37  112 113	 1492434217	 858142071	 271107.
13:03:38  113 114	 1492434218	 134009294	 275867.
13:03:38  114 115	 1492434218	 405142659	 271133.
13:03:38  115 116	 1492434218	 676135837	 270994.
13:03:38  116 117	 1492434218	 951422503	 275286.
13:03:39  117 118	 1492434219	 222778016	 271356.
13:03:39  118 119	 1492434219	 493764776	 270986.
13:03:39  119 120	 1492434219	 765097893	 271334.
13:03:39  120 121	 1492434219	 987371820	 222274.
13:03:40  121 122	 1492434220	 262892367	 275520.
13:03:40  122 123	 1492434220	 534178657	 271286.
13:03:40  123 124	 1492434220	 805144220	 270966.
13:03:41  124 125	 1492434221	 76249335	 271105.
13:03:41  125 126	 1492434221	 351516907	 275268.
13:03:41  126 127	 1492434221	 622552418	 271035.
13:03:41  127 128	 1492434221	 893748597	 271196.
13:03:42  128 129	 1492434222	 164621149	 270873.
13:03:42  129 130	 1492434222	 386814015	 222193.
13:03:42  130 131	 1492434222	 658168794	 271354.
13:03:42  131 132	 1492434222	 933301472	 275133.
13:03:43  132 133	 1492434223	 204616627	 271315.
13:03:43  133 134	 1492434223	 475652652	 271036.
13:03:43  134 135	 1492434223	 750758864	 275107.
13:03:44  135 136	 1492434224	 21780495	 271021.
13:03:44  136 137	 1492434224	 243761275	 221981.
13:03:44  137 138	 1492434224	 514812750	 271051.
13:03:44  138 139	 1492434224	 786123972	 271312.
13:03:45  139 140	 1492434225	 61388224	 275264.
13:03:45  140 141	 1492434225	 332686065	 271298.
13:03:45  141 142	 1492434225	 603861728	 271176.
13:03:45  142 143	 1492434225	 875048343	 271186.
13:03:46  143 144	 1492434226	 150281828	 275234.
13:03:46  144 145	 1492434226	 372349159	 222067.
13:03:46  145 146	 1492434226	 643431441	 271082.
13:03:46  146 147	 1492434226	 914612533	 271181.
13:03:47  147 148	 1492434227	 189693889	 275082.
13:03:47  148 149	 1492434227	 460933391	 271239.
13:03:47  149 150	 1492434227	 731914535	 270981.
13:03:48  150 151	 1492434228	 3008628	 271094.
13:03:48  151 152	 1492434228	 278130023	 275122.
13:03:48  152 153	 1492434228	 500374169	 222244.
13:03:48  153 154	 1492434228	 771403698	 271029.
13:03:49  154 155	 1492434229	 42587436	 271184.
13:03:49  155 156	 1492434229	 317797543	 275210.
13:03:49  156 157	 1492434229	 588859273	 271062.
13:03:49  157 158	 1492434229	 859916295	 271057.
13:03:50  158 159	 1492434230	 135544367	 275628.
13:03:50  159 160	 1492434230	 357783981	 222240.
13:03:50  160 161	 1492434230	 628771564	 270987.
13:03:50  161 162	 1492434230	 899934233	 271163.
13:03:51  162 163	 1492434231	 171294711	 271360.
13:03:51  163 164	 1492434231	 446392352	 275098.
13:03:51  164 165	 1492434231	 717691480	 271299.
13:03:51  165 166	 1492434231	 988891854	 271201.
13:03:52  166 167	 1492434232	 260047191	 271155.
13:03:52  167 168	 1492434232	 482212376	 222165.
13:03:52  168 169	 1492434232	 757407930	 275196.
13:03:53  169 170	 1492434233	 28787855	 271380.
13:03:53  170 171	 1492434233	 300238178	 271450.
13:03:53  171 172	 1492434233	 571460420	 271222.
13:03:53  172 173	 1492434233	 846844844	 275385.
13:03:54  173 174	 1492434234	 118038677	 271193.
13:03:54  174 175	 1492434234	 393220961	 275183.
13:03:54  175 176	 1492434234	 664409574	 271188.
13:03:54  176 177	 1492434234	 886518086	 222109.
13:03:55  177 178	 1492434235	 157714874	 271197.
13:03:55  178 179	 1492434235	 429003862	 271289.
13:03:55  179 180	 1492434235	 704233277	 275229.
13:03:55  180 181	 1492434235	 975445148	 271212.
13:03:56  181 182	 1492434236	 250682165	 275237.
13:03:56  182 183	 1492434236	 522070421	 271388.
13:03:56  183 184	 1492434236	 792903417	 270833.
13:03:57  184 185	 1492434237	 63757967	 270855.
13:03:57  185 186	 1492434237	 285776442	 222018.
13:03:57  186 187	 1492434237	 556998612	 271222.
13:03:57  187 188	 1492434237	 832098973	 275101.
13:03:58  188 189	 1492434238	 103281938	 271183.
13:03:58  189 190	 1492434238	 374438637	 271156.
13:03:58  190 191	 1492434238	 649586559	 275148.
13:03:58  191 192	 1492434238	 867623028	 218037.
13:03:59  192 193	 1492434239	 142741669	 275118.
13:03:59  193 194	 1492434239	 417853096	 275112.
13:03:59  194 195	 1492434239	 689158738	 271305.
13:03:59  195 196	 1492434239	 964407796	 275250.
13:04:00  196 197	 1492434240	 235702899	 271295.
13:04:00  197 198	 1492434240	 507002364	 271299.
13:04:00  198 199	 1492434240	 782420588	 275418.
13:04:01  199 200	 1492434241	 54082977	 271663.
13:04:01  200 201	 1492434241	 325368989	 271286.
13:04:01  201 202	 1492434241	 547876086	 222507.
13:04:01  202 203	 1492434241	 818954923	 271079.
13:04:02  203 204	 1492434242	 94384266	 275429.
13:04:02  204 205	 1492434242	 365535208	 271151.
13:04:02  205 206	 1492434242	 636536261	 271001.
13:04:02  206 207	 1492434242	 911721886	 275186.
13:04:03  207 208	 1492434243	 182676911	 270955.
13:04:03  208 209	 1492434243	 404865913	 222189.
13:04:03  209 210	 1492434243	 675929900	 271064.
13:04:03  210 211	 1492434243	 951203772	 275273.
13:04:04  211 212	 1492434244	 222627339	 271424.
13:04:04  212 213	 1492434244	 493526523	 270899.
13:04:04  213 214	 1492434244	 764762963	 271237.
13:04:05  214 215	 1492434245	 40162076	 275399.
13:04:05  215 216	 1492434245	 311423045	 271261.
13:04:05  216 217	 1492434245	 533573426	 222150.
13:04:05  217 218	 1492434245	 804618160	 271045.
13:04:06  218 219	 1492434246	 76085850	 271468.
13:04:06  219 220	 1492434246	 351381682	 275295.
13:04:06  220 221	 1492434246	 622648517	 271267.
13:04:06  221 222	 1492434246	 893693660	 271045.
13:04:07  222 223	 1492434247	 168946419	 275253.
13:04:07  223 224	 1492434247	 440204028	 271258.
13:04:07  224 225	 1492434247	 662413912	 222210.
13:04:07  225 226	 1492434247	 933622356	 271208.
13:04:08  226 227	 1492434248	 204898561	 271276.
13:04:08  227 228	 1492434248	 480110047	 275212.
13:04:08  228 229	 1492434248	 751333601	 271223.
13:04:09  229 230	 1492434249	 22317878	 270985.
13:04:09  230 231	 1492434249	 293413507	 271095.
13:04:09  231 232	 1492434249	 515596442	 222183.
13:04:09  232 233	 1492434249	 790574026	 274978.
13:04:10  233 234	 1492434250	 61956253	 271382.
13:04:10  234 235	 1492434250	 338223715	 276267.
13:04:10  235 236	 1492434250	 610460063	 272237.
13:04:10  236 237	 1492434250	 886168906	 275709.
13:04:11  237 238	 1492434251	 157131115	 270962.
13:04:11  238 239	 1492434251	 428162194	 271031.
13:04:11  239 240	 1492434251	 650571125	 222409.
13:04:11  240 241	 1492434251	 925693667	 275122.
13:04:12  241 242	 1492434252	 196796947	 271104.
13:04:12  242 243	 1492434252	 467875541	 271078.
13:04:12  243 244	 1492434252	 739166485	 271291.
13:04:13  244 245	 1492434253	 10031681	 270865.
13:04:13  245 246	 1492434253	 285565550	 275534.
13:04:13  246 247	 1492434253	 557580694	 272015.
13:04:13  247 248	 1492434253	 779824795	 222244.
13:04:14  248 249	 1492434254	 55089416	 275265.
13:04:14  249 250	 1492434254	 326271087	 271182.
13:04:14  250 251	 1492434254	 597428212	 271157.
13:04:14  251 252	 1492434254	 872559722	 275131.
13:04:15  252 253	 1492434255	 143617968	 271059.
13:04:15  253 254	 1492434255	 414739386	 271121.
13:04:15  254 255	 1492434255	 690779559	 276040.
13:04:15  255 256	 1492434255	 962802636	 272023.
13:04:16  256 257	 1492434256	 185332341	 222530.
13:04:16  257 258	 1492434256	 461768684	 276436.
13:04:16  258 259	 1492434256	 733147033	 271379.
13:04:17  259 260	 1492434257	 4132791	 270986.
13:04:17  260 261	 1492434257	 279481060	 275348.
13:04:17  261 262	 1492434257	 550472430	 270991.
13:04:17  262 263	 1492434257	 821461530	 270989.
13:04:18  263 264	 1492434258	 43694339	 222233.
13:04:18  264 265	 1492434258	 319665569	 275971.
13:04:18  265 266	 1492434258	 590849317	 271184.
13:04:18  266 267	 1492434258	 866720828	 275872.
13:04:19  267 268	 1492434259	 138791492	 272070.
13:04:19  268 269	 1492434259	 414552102	 275761.
13:04:19  269 270	 1492434259	 636983215	 222431.
13:04:19  270 271	 1492434259	 907993699	 271010.
13:04:20  271 272	 1492434260	 183417472	 275424.
13:04:20  272 273	 1492434260	 454394123	 270977.
13:04:20  273 274	 1492434260	 725865114	 271471.
13:04:20  274 275	 1492434260	 948321070	 222456.
13:04:21  275 276	 1492434261	 224080829	 275760.
13:04:21  276 277	 1492434261	 495379930	 271299.
13:04:21  277 278	 1492434261	 770884318	 275504.
13:04:22  278 279	 1492434262	 42560714	 271676.
13:04:22  279 280	 1492434262	 318931890	 276372.
13:04:22  280 281	 1492434262	 590243049	 271311.
13:04:22  281 282	 1492434262	 812444526	 222201.
13:04:23  282 283	 1492434263	 87446829	 275003.
13:04:23  283 284	 1492434263	 358594869	 271148.
13:04:23  284 285	 1492434263	 629770191	 271175.
13:04:23  285 286	 1492434263	 905012942	 275243.
13:04:24  286 287	 1492434264	 176870871	 271858.
13:04:24  287 288	 1492434264	 399238664	 222367.
13:04:24  288 289	 1492434264	 674929955	 275692.
13:04:24  289 290	 1492434264	 946998342	 272068.
13:04:25  290 291	 1492434265	 276060068	 329062.
13:04:25  291 292	 1492434265	 550996265	 274936.
13:04:25  292 293	 1492434265	 823030736	 272034.
13:04:26  293 294	 1492434266	 95879064	 272849.
13:04:26  294 295	 1492434266	 370824789	 274945.
13:04:26  295 296	 1492434266	 641945544	 271121.
13:04:26  296 297	 1492434266	 863677212	 221732.
13:04:27  297 298	 1492434267	 139205894	 275529.
13:04:27  298 299	 1492434267	 410458040	 271252.
13:04:27  299 300	 1492434267	 686416392	 275958.
13:04:27  300 301	 1492434267	 957883392	 271467.
13:04:28  301 302	 1492434268	 180193096	 222310.
13:04:28  302 303	 1492434268	 451298158	 271105.
13:04:28  303 304	 1492434268	 726252718	 274955.
13:04:28  304 305	 1492434268	 997346717	 271093.
13:04:29  305 306	 1492434269	 268510271	 271164.
13:04:29  306 307	 1492434269	 543606245	 275096.
13:04:29  307 308	 1492434269	 816226236	 272620.
13:04:30  308 309	 1492434270	 38561381	 222335.
13:04:30  309 310	 1492434270	 313959486	 275398.
13:04:30  310 311	 1492434270	 585162858	 271204.
13:04:30  311 312	 1492434270	 856239096	 271076.
13:04:31  312 313	 1492434271	 127005076	 270766.
13:04:31  313 314	 1492434271	 349161566	 222156.
13:04:31  314 315	 1492434271	 624239518	 275078.
13:04:31  315 316	 1492434271	 895263404	 271024.
13:04:32  316 317	 1492434272	 170707094	 275444.
13:04:32  317 318	 1492434272	 388680558	 217973.
13:04:32  318 319	 1492434272	 664292537	 275612.
13:04:32  319 320	 1492434272	 935393832	 271102.
13:04:33  320 321	 1492434273	 212334035	 276940.
13:04:33  321 322	 1492434273	 484397275	 272063.
13:04:33  322 323	 1492434273	 759575693	 275178.
13:04:34  323 324	 1492434274	 30481883	 270907.
13:04:34  324 325	 1492434274	 252633216	 222151.
13:04:34  325 326	 1492434274	 527920238	 275287.
13:04:34  326 327	 1492434274	 798996355	 271076.
13:04:35  327 328	 1492434275	 69836440	 270840.
13:04:35  328 329	 1492434275	 292001954	 222166.
13:04:35  329 330	 1492434275	 567246328	 275244.
13:04:35  330 331	 1492434275	 838705344	 271459.
13:04:36  331 332	 1492434276	 113961948	 275257.
13:04:36  332 333	 1492434276	 336053063	 222091.
13:04:36  333 334	 1492434276	 607131628	 271078.
13:04:36  334 335	 1492434276	 882741380	 275610.
13:04:37  335 336	 1492434277	 153684685	 270944.
13:04:37  336 337	 1492434277	 428788496	 275103.
13:04:37  337 338	 1492434277	 650890454	 222102.
13:04:37  338 339	 1492434277	 922320673	 271430.
13:04:38  339 340	 1492434278	 193734306	 271414.
13:04:38  340 341	 1492434278	 526462975	 332729.
13:04:38  341 342	 1492434278	 797800821	 271338.
13:04:39  342 343	 1492434279	 20131139	 222330.
13:04:39  343 344	 1492434279	 291431331	 271300.
13:04:39  344 345	 1492434279	 566404706	 274973.
13:04:39  345 346	 1492434279	 837247001	 270843.
13:04:40  346 347	 1492434280	 108649364	 271402.
13:04:40  347 348	 1492434280	 384184127	 275535.
13:04:40  348 349	 1492434280	 606295784	 222111.
13:04:40  349 350	 1492434280	 878687002	 272392.
13:04:41  350 351	 1492434281	 154340608	 275653.
13:04:41  351 352	 1492434281	 425807005	 271467.
13:04:41  352 353	 1492434281	 696816307	 271009.
13:04:41  353 354	 1492434281	 972230523	 275414.
13:04:42  354 355	 1492434282	 243341108	 271111.
13:04:42  355 356	 1492434282	 514373825	 271032.
13:04:42  356 357	 1492434282	 736432764	 222059.
13:04:43  357 358	 1492434283	 7311197	 270879.
13:04:43  358 359	 1492434283	 282899516	 275588.
13:04:43  359 360	 1492434283	 556132124	 273233.
13:04:43  360 361	 1492434283	 832073470	 275941.
13:04:44  361 362	 1492434284	 102947773	 270874.
13:04:44  362 363	 1492434284	 378059126	 275112.
13:04:44  363 364	 1492434284	 649115329	 271056.
13:04:44  364 365	 1492434284	 871380422	 222265.
13:04:45  365 366	 1492434285	 142894826	 271515.
13:04:45  366 367	 1492434285	 418758053	 275863.
13:04:45  367 368	 1492434285	 691924466	 273166.
13:04:45  368 369	 1492434285	 967503769	 275579.
13:04:46  369 370	 1492434286	 239269007	 271766.
13:04:46  370 371	 1492434286	 514714201	 275445.
13:04:46  371 372	 1492434286	 737151457	 222437.
13:04:47  372 373	 1492434287	 8028526	 270877.
13:04:47  373 374	 1492434287	 283357859	 275330.
13:04:47  374 375	 1492434287	 554877612	 271519.
13:04:47  375 376	 1492434287	 830315761	 275438.
13:04:48  376 377	 1492434288	 48614448	 218299.
13:04:48  377 378	 1492434288	 323839583	 275225.
13:04:48  378 379	 1492434288	 595150355	 271311.
13:04:48  379 380	 1492434288	 870733976	 275584.
13:04:49  380 381	 1492434289	 146521321	 275787.
13:04:49  381 382	 1492434289	 369193678	 222672.
13:04:49  382 383	 1492434289	 640229956	 271037.
13:04:49  383 384	 1492434289	 915799844	 275570.
13:04:50  384 385	 1492434290	 186674579	 270874.
13:04:50  385 386	 1492434290	 457840337	 271166.
13:04:50  386 387	 1492434290	 684109828	 226270.
13:04:50  387 388	 1492434290	 954876695	 270766.
13:04:51  388 389	 1492434291	 229658072	 274782.
13:04:51  389 390	 1492434291	 500721779	 271063.
13:04:51  390 391	 1492434291	 776717064	 275996.
13:04:51  391 392	 1492434291	 999038263	 222321.
13:04:52  392 393	 1492434292	 270869908	 271832.
13:04:52  393 394	 1492434292	 547796269	 276926.
13:04:52  394 395	 1492434292	 818972898	 271177.
13:04:53  395 396	 1492434293	 89989401	 271016.
13:04:53  396 397	 1492434293	 365966715	 275977.
13:04:53  397 398	 1492434293	 636915956	 270950.
13:04:53  398 399	 1492434293	 908102602	 271186.
13:04:54  399 400	 1492434294	 134887279	 226785.
13:04:54  400 401	 1492434294	 406249691	 271362.
13:04:54  401 402	 1492434294	 681739251	 275490.
13:04:55  402 403	 1492434295	 6910725	 325171.
13:04:55  403 404	 1492434295	 282706676	 275796.
13:04:55  404 405	 1492434295	 553896397	 271190.
13:04:55  405 406	 1492434295	 826932044	 273036.
13:04:56  406 407	 1492434296	 102405646	 275473.
13:04:56  407 408	 1492434296	 373878518	 271473.
13:04:56  408 409	 1492434296	 596413008	 222535.
13:04:56  409 410	 1492434296	 871979670	 275566.
13:04:57  410 411	 1492434297	 143374521	 271395.
13:04:57  411 412	 1492434297	 418601653	 275227.
13:04:57  412 413	 1492434297	 636641164	 218040.
13:04:57  413 414	 1492434297	 911689715	 275048.
13:04:58  414 415	 1492434298	 184350572	 272661.
13:04:58  415 416	 1492434298	 459642527	 275292.
13:04:58  416 417	 1492434298	 730649992	 271008.
13:04:59  417 418	 1492434299	 5618689	 274968.
13:04:59  418 419	 1492434299	 276888934	 271271.
13:04:59  419 420	 1492434299	 499285194	 222396.
13:04:59  420 421	 1492434299	 770620546	 271335.
13:05:00  421 422	 1492434300	 46344143	 275724.
13:05:00  422 423	 1492434300	 317625805	 271282.
13:05:00  423 424	 1492434300	 588722383	 271096.
13:05:00  424 425	 1492434300	 810913325	 222191.
13:05:01  425 426	 1492434301	 85774945	 274862.
13:05:01  426 427	 1492434301	 356856466	 271081.
13:05:01  427 428	 1492434301	 629260458	 272404.
13:05:01  428 429	 1492434301	 900776478	 271516.
13:05:02  429 430	 1492434302	 176115503	 275339.
13:05:02  430 431	 1492434302	 447397347	 271282.
13:05:02  431 432	 1492434302	 718869165	 271472.
13:05:02  432 433	 1492434302	 993884333	 275015.
13:05:03  433 434	 1492434303	 264866957	 270983.
13:05:03  434 435	 1492434303	 535909006	 271042.
13:05:03  435 436	 1492434303	 758091697	 222182.
13:05:04  436 437	 1492434304	 29113504	 271022.
13:05:04  437 438	 1492434304	 304409118	 275296.
13:05:04  438 439	 1492434304	 575748520	 271339.
13:05:04  439 440	 1492434304	 847032538	 271284.
13:05:05  440 441	 1492434305	 122361484	 275329.
13:05:05  441 442	 1492434305	 393861744	 271500.
13:05:05  442 443	 1492434305	 665301233	 271440.
13:05:05  443 444	 1492434305	 887555858	 222255.
13:05:06  444 445	 1492434306	 158665089	 271109.
13:05:06  445 446	 1492434306	 434012105	 275347.
13:05:06  446 447	 1492434306	 705017510	 271005.
13:05:06  447 448	 1492434306	 976096708	 271079.
13:05:07  448 449	 1492434307	 251351751	 275255.
13:05:07  449 450	 1492434307	 522638613	 271287.
13:05:07  450 451	 1492434307	 793729743	 271091.
13:05:08  451 452	 1492434308	 15973967	 222245.
13:05:08  452 453	 1492434308	 287150363	 271176.
13:05:08  453 454	 1492434308	 562714912	 275565.
13:05:08  454 455	 1492434308	 833530111	 270815.
13:05:09  455 456	 1492434309	 108899981	 275370.
13:05:09  456 457	 1492434309	 384250344	 275350.
13:05:09  457 458	 1492434309	 656357210	 272107.
13:05:09  458 459	 1492434309	 928520709	 272163.
13:05:10  459 460	 1492434310	 204046757	 275526.
13:05:10  460 461	 1492434310	 422079275	 218033.
13:05:10  461 462	 1492434310	 697084326	 275005.
13:05:10  462 463	 1492434310	 968291367	 271207.
13:05:11  463 464	 1492434311	 243397369	 275106.
13:05:11  464 465	 1492434311	 514797068	 271400.
13:05:11  465 466	 1492434311	 737003433	 222206.
13:05:12  466 467	 1492434312	 8224369	 271221.
13:05:12  467 468	 1492434312	 283037775	 274813.
13:05:12  468 469	 1492434312	 554038072	 271001.
13:05:12  469 470	 1492434312	 824886917	 270849.
13:05:13  470 471	 1492434313	 51460268	 226573.
13:05:13  471 472	 1492434313	 322416818	 270957.
13:05:13  472 473	 1492434313	 593724545	 271307.
13:05:13  473 474	 1492434313	 869394281	 275670.
13:05:14  474 475	 1492434314	 91499112	 222105.
13:05:14  475 476	 1492434314	 362104937	 270606.
13:05:14  476 477	 1492434314	 633448885	 271344.
13:05:14  477 478	 1492434314	 908482522	 275033.
13:05:15  478 479	 1492434315	 126557035	 218075.
13:05:15  479 480	 1492434315	 401570189	 275013.
13:05:15  480 481	 1492434315	 677073641	 275503.
13:05:15  481 482	 1492434315	 948381628	 271308.
13:05:16  482 483	 1492434316	 219793629	 271412.
13:05:16  483 484	 1492434316	 442636452	 222843.
13:05:16  484 485	 1492434316	 718430693	 275794.
13:05:16  485 486	 1492434316	 989675528	 271245.
13:05:17  486 487	 1492434317	 264709226	 275034.
13:05:17  487 488	 1492434317	 535925250	 271216.
13:05:17  488 489	 1492434317	 758426090	 222501.
13:05:18  489 490	 1492434318	 29536436	 271110.
13:05:18  490 491	 1492434318	 304635107	 275099.
13:05:18  491 492	 1492434318	 576067144	 271432.
13:05:18  492 493	 1492434318	 798318281	 222251.
13:05:19  493 494	 1492434319	 69760059	 271442.
13:05:19  494 495	 1492434319	 345803687	 276043.
13:05:19  495 496	 1492434319	 617325362	 271522.
13:05:19  496 497	 1492434319	 892358782	 275033.
13:05:20  497 498	 1492434320	 114263234	 221905.
13:05:20  498 499	 1492434320	 384867227	 270604.
13:05:20  499 500	 1492434320	 656412422	 271545.
13:05:20  500 501	 1492434320	 932095811	 275684.
13:05:21  501 502	 1492434321	 203600285	 271504.
13:05:21  502 503	 1492434321	 425945728	 222345.
13:05:21  503 504	 1492434321	 697335024	 271390.
13:05:21  504 505	 1492434321	 973233248	 275898.
13:05:22  505 506	 1492434322	 249136797	 275904.
13:05:22  506 507	 1492434322	 520700704	 271563.
13:05:22  507 508	 1492434322	 795970355	 275270.
13:05:23  508 509	 1492434323	 13901323	 217931.
13:05:23  509 510	 1492434323	 342408836	 328508.
13:05:23  510 511	 1492434323	 619222909	 276814.
13:05:23  511 512	 1492434323	 890306195	 271083.
13:05:24  512 513	 1492434324	 166879947	 276574.
13:05:24  513 514	 1492434324	 425864716	 258984.
13:05:24  514 515	 1492434324	 698278561	 272414.
13:05:24  515 516	 1492434324	 974204349	 275926.
13:05:25  516 517	 1492434325	 245195614	 270991.
13:05:25  517 518	 1492434325	 467427176	 222232.
13:05:25  518 519	 1492434325	 742974836	 275548.
13:05:26  519 520	 1492434326	 14372359	 271397.
13:05:26  520 521	 1492434326	 292142095	 277770.
13:05:26  521 522	 1492434326	 563557203	 271415.
13:05:26  522 523	 1492434326	 839518770	 275961.
13:05:27  523 524	 1492434327	 110245636	 270727.
13:05:27  524 525	 1492434327	 332185093	 221940.
13:05:27  525 526	 1492434327	 602854814	 270670.
13:05:27  526 527	 1492434327	 873512267	 270657.
13:05:28  527 528	 1492434328	 145767900	 272256.
13:05:28  528 529	 1492434328	 421158339	 275390.
13:05:28  529 530	 1492434328	 692590504	 271432.
13:05:28  530 531	 1492434328	 914746666	 222156.
13:05:29  531 532	 1492434329	 189679033	 274933.
13:05:29  532 533	 1492434329	 460868863	 271190.
13:05:29  533 534	 1492434329	 736350589	 275481.
13:05:30  534 535	 1492434330	 7856950	 271507.
13:05:30  535 536	 1492434330	 230364985	 222508.
13:05:30  536 537	 1492434330	 506343599	 275978.
13:05:30  537 538	 1492434330	 778283455	 271940.
13:05:31  538 539	 1492434331	 53981398	 275698.
13:05:31  539 540	 1492434331	 272006669	 218025.
13:05:31  540 541	 1492434331	 547164414	 275158.
13:05:31  541 542	 1492434331	 817889375	 270725.
13:05:32  542 543	 1492434332	 92534020	 274645.
13:05:32  543 544	 1492434332	 310523185	 217989.
13:05:32  544 545	 1492434332	 586300222	 275777.
13:05:32  545 546	 1492434332	 912279711	 325979.
13:05:33  546 547	 1492434333	 134579352	 222300.
13:05:33  547 548	 1492434333	 405895201	 271316.
13:05:33  548 549	 1492434333	 681605415	 275710.
13:05:33  549 550	 1492434333	 953008080	 271403.
13:05:34  550 551	 1492434334	 175612327	 222604.
13:05:34  551 552	 1492434334	 451043614	 275431.
13:05:34  552 553	 1492434334	 721922055	 270879.
13:05:34  553 554	 1492434334	 993098549	 271176.
13:05:35  554 555	 1492434335	 268214041	 275116.
13:05:35  555 556	 1492434335	 490312720	 222098.
13:05:35  556 557	 1492434335	 761872027	 271560.
13:05:36  557 558	 1492434336	 91159968	 329288.
13:05:36  558 559	 1492434336	 362736420	 271576.
13:05:36  559 560	 1492434336	 639709926	 276974.
13:05:36  560 561	 1492434336	 911853460	 272143.
13:05:37  561 562	 1492434337	 187924762	 276071.
13:05:37  562 563	 1492434337	 459223258	 271299.
13:05:37  563 564	 1492434337	 730337998	 271115.
13:05:38  564 565	 1492434338	 5743913	 275406.
13:05:38  565 566	 1492434338	 279554196	 273810.
13:05:38  566 567	 1492434338	 555593800	 276039.
13:05:38  567 568	 1492434338	 826595638	 271002.
13:05:39  568 569	 1492434339	 97685929	 271091.
13:05:39  569 570	 1492434339	 368707075	 271021.
13:05:39  570 571	 1492434339	 645517277	 276810.
13:05:39  571 572	 1492434339	 916728912	 271212.
13:05:40  572 573	 1492434340	 138961439	 222232.
13:05:40  573 574	 1492434340	 414653030	 275692.
13:05:40  574 575	 1492434340	 685648925	 270996.
13:05:40  575 576	 1492434340	 956765710	 271116.
13:05:41  576 577	 1492434341	 228093685	 271328.
13:05:41  577 578	 1492434341	 503565100	 275472.
13:05:41  578 579	 1492434341	 774521776	 270956.
13:05:41  579 580	 1492434341	 996677180	 222156.
13:05:42  580 581	 1492434342	 267751865	 271075.
13:05:42  581 582	 1492434342	 538885179	 271133.
13:05:42  582 583	 1492434342	 814265697	 275380.
13:05:43  583 584	 1492434343	 86897608	 272632.
13:05:43  584 585	 1492434343	 357891286	 270994.
13:05:43  585 586	 1492434343	 633066162	 275175.
13:05:43  586 587	 1492434343	 904289498	 271223.
13:05:44  587 588	 1492434344	 175368316	 271079.
13:05:44  588 589	 1492434344	 446299777	 270931.
13:05:44  589 590	 1492434344	 668540145	 222241.
13:05:44  590 591	 1492434344	 943572285	 275032.
13:05:45  591 592	 1492434345	 214558645	 270986.
13:05:45  592 593	 1492434345	 485501630	 270943.
13:05:45  593 594	 1492434345	 760777627	 275276.
13:05:46  594 595	 1492434346	 32184706	 271407.
13:05:46  595 596	 1492434346	 307235427	 275051.
13:05:46  596 597	 1492434346	 525421051	 218186.
13:05:46  597 598	 1492434346	 800443623	 275022.
13:05:47  598 599	 1492434347	 71475715	 271033.
13:05:47  599 600	 1492434347	 342459560	 270983.
13:05:47  600 601	 1492434347	 618031567	 275572.
13:05:47  601 602	 1492434347	 888909469	 270878.
13:05:48  602 603	 1492434348	 106874027	 217965.
13:05:48  603 604	 1492434348	 488105363	 381231.
13:05:48  604 605	 1492434348	 710266395	 222161.
13:05:48  605 606	 1492434348	 981123034	 270857.
13:05:49  606 607	 1492434349	 256111598	 274988.
13:05:49  607 608	 1492434349	 527804578	 271693.
13:05:49  608 609	 1492434349	 799251589	 271447.
13:05:50  609 610	 1492434350	 21505178	 222254.
13:05:50  610 611	 1492434350	 296654028	 275149.
13:05:50  611 612	 1492434350	 567771678	 271117.
13:05:50  612 613	 1492434350	 839250316	 271479.
13:05:51  613 614	 1492434351	 61270654	 222020.
13:05:51  614 615	 1492434351	 386547697	 325277.
13:05:51  615 616	 1492434351	 657894968	 271348.
13:05:51  616 617	 1492434351	 884249286	 226354.
13:05:52  617 618	 1492434352	 205950524	 321701.
13:05:52  618 619	 1492434352	 429012536	 223062.
13:05:52  619 620	 1492434352	 705174882	 276163.
13:05:52  620 621	 1492434352	 980543548	 275368.
13:05:53  621 622	 1492434353	 251916775	 271373.
13:05:53  622 623	 1492434353	 522952539	 271036.
13:05:53  623 624	 1492434353	 798860183	 275908.
13:05:54  624 625	 1492434354	 21035702	 222175.
13:05:54  625 626	 1492434354	 292107132	 271072.
13:05:54  626 627	 1492434354	 563803487	 271696.
13:05:54  627 628	 1492434354	 839657451	 275854.
13:05:55  628 629	 1492434355	 111099012	 271442.
13:05:55  629 630	 1492434355	 333209710	 222110.
13:05:55  630 631	 1492434355	 604925954	 271717.
13:05:55  631 632	 1492434355	 880796164	 275870.
13:05:56  632 633	 1492434356	 153137359	 272341.
13:05:56  633 634	 1492434356	 424320329	 271183.
13:05:56  634 635	 1492434356	 695287509	 270967.
13:05:56  635 636	 1492434356	 917324997	 222038.
13:05:57  636 637	 1492434357	 192335974	 275011.
13:05:57  637 638	 1492434357	 463030630	 270694.
13:05:57  638 639	 1492434357	 734681385	 271651.
13:05:58  639 640	 1492434358	 9984089	 275303.
13:05:58  640 641	 1492434358	 232945032	 222961.
13:05:58  641 642	 1492434358	 504818969	 271874.
13:05:58  642 643	 1492434358	 780958341	 276139.
13:05:59  643 644	 1492434359	 52280622	 271322.
13:05:59  644 645	 1492434359	 323387712	 271107.
13:05:59  645 646	 1492434359	 598409879	 275023.
13:05:59  646 647	 1492434359	 871259904	 272850.
13:06:00  647 648	 1492434360	 142105128	 270845.
13:06:00  648 649	 1492434360	 364221032	 222116.
13:06:00  649 650	 1492434360	 635032801	 270811.
13:06:00  650 651	 1492434360	 905995064	 270963.
13:06:01  651 652	 1492434361	 176736675	 270741.
13:06:01  652 653	 1492434361	 451743163	 275007.
13:06:01  653 654	 1492434361	 673978118	 222235.
13:06:01  654 655	 1492434361	 944889655	 270911.
13:06:02  655 656	 1492434362	 220137628	 275248.
13:06:02  656 657	 1492434362	 491062332	 270925.
13:06:02  657 658	 1492434362	 762019492	 270957.
13:06:03  658 659	 1492434363	 37026878	 275008.
13:06:03  659 660	 1492434363	 255075301	 218048.
13:06:03  660 661	 1492434363	 530295194	 275220.
13:06:03  661 662	 1492434363	 801751320	 271456.
13:06:04  662 663	 1492434364	 73292134	 271541.
13:06:04  663 664	 1492434364	 349101627	 275809.
13:06:04  664 665	 1492434364	 620239768	 271138.
13:06:04  665 666	 1492434364	 895504983	 275266.
13:06:05  666 667	 1492434365	 166581447	 271076.
13:06:05  667 668	 1492434365	 437878020	 271297.
13:06:05  668 669	 1492434365	 660690031	 222812.
13:06:05  669 670	 1492434365	 931759259	 271069.
13:06:06  670 671	 1492434366	 207295911	 275537.
13:06:06  671 672	 1492434366	 478324480	 271028.
13:06:06  672 673	 1492434366	 749387385	 271063.
13:06:07  673 674	 1492434367	 24342339	 274955.
13:06:07  674 675	 1492434367	 246348090	 222006.
13:06:07  675 676	 1492434367	 517464237	 271116.
13:06:07  676 677	 1492434367	 788705208	 271241.
13:06:08  677 678	 1492434368	 64149998	 275445.
13:06:08  678 679	 1492434368	 286538246	 222388.
13:06:08  679 680	 1492434368	 665371778	 378833.
13:06:08  680 681	 1492434368	 888086355	 222715.
13:06:09  681 682	 1492434369	 159897150	 271811.
13:06:09  682 683	 1492434369	 434710020	 274813.
13:06:09  683 684	 1492434369	 705675012	 270965.
13:06:09  684 685	 1492434369	 981975950	 276301.
13:06:10  685 686	 1492434370	 253049286	 271073.
13:06:10  686 687	 1492434370	 474921184	 221872.
13:06:10  687 688	 1492434370	 746145417	 271224.
13:06:11  688 689	 1492434371	 16729865	 270585.
13:06:11  689 690	 1492434371	 291622154	 274892.
13:06:11  690 691	 1492434371	 562540620	 270918.
13:06:11  691 692	 1492434371	 784779150	 222239.
13:06:12  692 693	 1492434372	 55596167	 270817.
13:06:12  693 694	 1492434372	 381384307	 325788.
13:06:12  694 695	 1492434372	 603283261	 221899.
13:06:12  695 696	 1492434372	 874178481	 270895.
13:06:13  696 697	 1492434373	 145002708	 270824.
13:06:13  697 698	 1492434373	 419801439	 274799.
13:06:13  698 699	 1492434373	 641616256	 221815.
13:06:13  699 700	 1492434373	 912731203	 271115.
13:06:14  700 701	 1492434374	 184374730	 271643.
13:06:14  701 702	 1492434374	 460186845	 275813.
13:06:14  702 703	 1492434374	 731251251	 271064.
13:06:14  703 704	 1492434375	 2292174	 271041.
13:06:15  704 705	 1492434375	 277124461	 274832.
13:06:15  705 706	 1492434375	 549658947	 272535.
13:06:15  706 707	 1492434375	 772267012	 222608.
13:06:16  707 708	 1492434376	 48118447	 275851.
13:06:16  708 709	 1492434376	 319676953	 271559.
13:06:16  709 710	 1492434376	 595213362	 275536.
13:06:16  710 711	 1492434376	 866153690	 270940.
13:06:17  711 712	 1492434377	 88120656	 221967.
13:06:17  712 713	 1492434377	 359166773	 271046.
13:06:17  713 714	 1492434377	 634353846	 275188.
13:06:17  714 715	 1492434377	 905470665	 271116.
13:06:18  715 716	 1492434378	 176717205	 271247.
13:06:18  716 717	 1492434378	 453238401	 276521.
13:06:18  717 718	 1492434378	 675726961	 222489.
13:06:18  718 719	 1492434378	 947751639	 272024.
13:06:19  719 720	 1492434379	 222985038	 275234.
13:06:19  720 721	 1492434379	 498504302	 275519.
13:06:19  721 722	 1492434379	 769539532	 271035.
13:06:19  722 723	 1492434379	 995437470	 225898.
13:06:20  723 724	 1492434380	 266150154	 270713.
13:06:20  724 725	 1492434380	 537377387	 271227.
13:06:20  725 726	 1492434380	 813337767	 275960.
13:06:21  726 727	 1492434381	 84400870	 271064.
13:06:21  727 728	 1492434381	 306984973	 222584.
13:06:21  728 729	 1492434381	 582915484	 275930.
13:06:21  729 730	 1492434381	 854915777	 272000.
13:06:22  730 731	 1492434382	 130613212	 275698.
13:06:22  731 732	 1492434382	 401959116	 271346.
13:06:22  732 733	 1492434382	 624007959	 222049.
13:06:22  733 734	 1492434382	 894807346	 270799.
13:06:23  734 735	 1492434383	 169585692	 274778.
13:06:23  735 736	 1492434383	 440655781	 271070.
13:06:23  736 737	 1492434383	 712379662	 271724.
13:06:23  737 738	 1492434383	 934730319	 222351.
13:06:24  738 739	 1492434384	 210026392	 275296.
13:06:24  739 740	 1492434384	 481298478	 271272.
13:06:24  740 741	 1492434384	 756622818	 275325.
13:06:24  741 742	 1492434384	 979301835	 222679.
13:06:25  742 743	 1492434385	 251160346	 271858.
13:06:25  743 744	 1492434385	 526227907	 275068.
13:06:25  744 745	 1492434385	 797314672	 271086.
13:06:26  745 746	 1492434386	 68495829	 271182.
13:06:26  746 747	 1492434386	 290394850	 221899.
13:06:26  747 748	 1492434386	 561366737	 270971.
13:06:26  748 749	 1492434386	 836353782	 274987.
13:06:27  749 750	 1492434387	 106921253	 270568.
13:06:27  750 751	 1492434387	 378041136	 271120.
13:06:27  751 752	 1492434387	 653625008	 275584.
13:06:27  752 753	 1492434387	 875504293	 221879.
13:06:28  753 754	 1492434388	 146285833	 270782.
13:06:28  754 755	 1492434388	 417047591	 270761.
13:06:28  755 756	 1492434388	 692174135	 275127.
13:06:28  756 757	 1492434388	 963141034	 270967.
13:06:29  757 758	 1492434389	 185470395	 222329.
13:06:29  758 759	 1492434389	 456314066	 270844.
13:06:29  759 760	 1492434389	 731437685	 275123.
13:06:30  760 761	 1492434390	 6780589	 275343.
13:06:30  761 762	 1492434390	 225006169	 218226.
13:06:30  762 763	 1492434390	 500257808	 275252.
13:06:30  763 764	 1492434390	 771268332	 271010.
13:06:31  764 765	 1492434391	 46239997	 274972.
13:06:31  765 766	 1492434391	 317372997	 271133.
13:06:31  766 767	 1492434391	 539561204	 222188.
13:06:31  767 768	 1492434391	 810722797	 271161.
13:06:32  768 769	 1492434392	 81875747	 271153.
13:06:32  769 770	 1492434392	 357241878	 275367.
13:06:32  770 771	 1492434392	 629018001	 271776.
13:06:32  771 772	 1492434392	 900096268	 271078.
13:06:33  772 773	 1492434393	 174943372	 274847.
13:06:33  773 774	 1492434393	 392992266	 218049.
13:06:33  774 775	 1492434393	 668676683	 275684.
13:06:33  775 776	 1492434393	 939405452	 270729.
13:06:34  776 777	 1492434394	 214412101	 275007.
13:06:34  777 778	 1492434394	 436754252	 222342.
13:06:34  778 779	 1492434394	 708533849	 271780.
13:06:34  779 780	 1492434394	 980115986	 271582.
13:06:35  780 781	 1492434395	 255763988	 275648.
13:06:35  781 782	 1492434395	 526762011	 270998.
13:06:35  782 783	 1492434395	 797871523	 271109.
13:06:36  783 784	 1492434396	 19761136	 221890.
13:06:36  784 785	 1492434396	 294763607	 275002.
13:06:36  785 786	 1492434396	 565800711	 271037.
13:06:36  786 787	 1492434396	 837297790	 271497.
13:06:37  787 788	 1492434397	 59509391	 222212.
13:06:37  788 789	 1492434397	 334803925	 275295.
13:06:37  789 790	 1492434397	 605975336	 271171.
13:06:37  790 791	 1492434397	 881465387	 275490.
13:06:38  791 792	 1492434398	 103625772	 222161.
13:06:38  792 793	 1492434398	 374296499	 270670.
13:06:38  793 794	 1492434398	 645068884	 270773.
13:06:38  794 795	 1492434398	 916054723	 270986.
13:06:39  795 796	 1492434399	 142308966	 226254.
13:06:39  796 797	 1492434399	 412676313	 270367.
13:06:39  797 798	 1492434399	 683757887	 271082.
13:06:39  798 799	 1492434399	 959765581	 276007.
13:06:40  799 800	 1492434400	 231575770	 271811.
13:06:40  800 801	 1492434400	 454126188	 222550.
13:06:40  801 802	 1492434400	 729829888	 275704.
13:06:40  802 803	 1492434401	 758425	 270928.
13:06:41  803 804	 1492434401	 275943746	 275185.
13:06:41  804 805	 1492434401	 498065679	 222122.
13:06:41  805 806	 1492434401	 769049658	 270984.
13:06:42  806 807	 1492434402	 40066046	 271017.
13:06:42  807 808	 1492434402	 315405051	 275339.
13:06:42  808 809	 1492434402	 537964990	 222560.
13:06:42  809 810	 1492434402	 809474290	 271509.
13:06:43  810 811	 1492434403	 80567991	 271094.
13:06:43  811 812	 1492434403	 356065785	 275497.
13:06:43  812 813	 1492434403	 627714258	 271649.
13:06:43  813 814	 1492434403	 850548698	 222834.
13:06:44  814 815	 1492434404	 126339477	 275791.
13:06:44  815 816	 1492434404	 397067414	 270728.
13:06:44  816 817	 1492434404	 668187025	 271120.
13:06:44  817 818	 1492434404	 943535575	 275348.
13:06:45  818 819	 1492434405	 165451463	 221916.
13:06:45  819 820	 1492434405	 436246847	 270796.
13:06:45  820 821	 1492434405	 707790518	 271543.
13:06:45  821 822	 1492434405	 983531238	 275741.
13:06:46  822 823	 1492434406	 205838933	 222308.
13:06:46  823 824	 1492434406	 477256184	 271417.
13:06:46  824 825	 1492434406	 752236826	 274981.
13:06:47  825 826	 1492434407	 22824859	 270588.
13:06:47  826 827	 1492434407	 244854335	 222029.
13:06:47  827 828	 1492434407	 515838857	 270985.
13:06:47  828 829	 1492434407	 791448443	 275609.
13:06:48  829 830	 1492434408	 63100493	 271652.
13:06:48  830 831	 1492434408	 338822569	 275722.
13:06:48  831 832	 1492434408	 561181535	 222359.
13:06:48  832 833	 1492434408	 832270987	 271090.
13:06:49  833 834	 1492434409	 103133029	 270862.
13:06:49  834 835	 1492434409	 378220830	 275088.
13:06:49  835 836	 1492434409	 600100252	 221879.
13:06:49  836 837	 1492434409	 871398464	 271298.
13:06:50  837 838	 1492434410	 142486215	 271088.
13:06:50  838 839	 1492434410	 417737711	 275251.
13:06:50  839 840	 1492434410	 689320068	 271583.
13:06:50  840 841	 1492434410	 912118411	 222798.
13:06:51  841 842	 1492434411	 187530906	 275413.
13:06:51  842 843	 1492434411	 459384195	 271853.
13:06:51  843 844	 1492434411	 788255429	 328871.
13:06:52  844 845	 1492434412	 59951482	 271696.
13:06:52  845 846	 1492434412	 335129671	 275178.
13:06:52  846 847	 1492434412	 557406083	 222277.
13:06:52  847 848	 1492434412	 882173235	 324767.
13:06:53  848 849	 1492434413	 100194142	 218021.
13:06:53  849 850	 1492434413	 375786040	 275592.
13:06:53  850 851	 1492434413	 646905278	 271119.
13:06:53  851 852	 1492434413	 918525240	 271620.
13:06:54  852 853	 1492434414	 141007136	 222482.
13:06:54  853 854	 1492434414	 416256567	 275249.
13:06:54  854 855	 1492434414	 742620395	 326364.
13:06:54  855 856	 1492434414	 960307326	 217687.
13:06:55  856 857	 1492434415	 235555517	 275248.
13:06:55  857 858	 1492434415	 506497908	 270943.
13:06:55  858 859	 1492434415	 781652719	 275154.
13:06:55  859 860	 1492434416	 3854268	 222202.
13:06:56  860 861	 1492434416	 275355612	 271501.
13:06:56  861 862	 1492434416	 550706990	 275352.
13:06:56  862 863	 1492434416	 818443356	 267736.
13:06:57  863 864	 1492434417	 95388153	 276945.
13:06:57  864 865	 1492434417	 366979882	 271592.
13:06:57  865 866	 1492434417	 642486575	 275506.
13:06:57  866 867	 1492434417	 864527735	 222041.
13:06:58  867 868	 1492434418	 135378051	 270851.
13:06:58  868 869	 1492434418	 406641019	 271263.
13:06:58  869 870	 1492434418	 681462762	 274821.
13:06:58  870 871	 1492434418	 952929025	 271467.
13:06:59  871 872	 1492434419	 175880002	 222951.
13:06:59  872 873	 1492434419	 451557102	 275677.
13:06:59  873 874	 1492434419	 723052843	 271496.
13:06:59  874 875	 1492434419	 998747433	 275694.
13:07:00  875 876	 1492434420	 221187964	 222441.
13:07:00  876 877	 1492434420	 491860682	 270672.
13:07:00  877 878	 1492434420	 766856522	 274996.
13:07:01  878 879	 1492434421	 38028406	 271172.
13:07:01  879 880	 1492434421	 260130500	 222102.
13:07:01  880 881	 1492434421	 530957173	 270827.
13:07:01  881 882	 1492434421	 805965942	 275009.
13:07:02  882 883	 1492434422	 77387174	 271421.
13:07:02  883 884	 1492434422	 344591218	 267204.
13:07:02  884 885	 1492434422	 615586449	 270995.
13:07:02  885 886	 1492434422	 892205402	 276619.
13:07:03  886 887	 1492434423	 163701299	 271496.
13:07:03  887 888	 1492434423	 435024716	 271323.
13:07:03  888 889	 1492434423	 710273774	 275249.
13:07:03  889 890	 1492434423	 981457058	 271184.
13:07:04  890 891	 1492434424	 252580978	 271124.
13:07:04  891 892	 1492434424	 474626728	 222045.
13:07:04  892 893	 1492434424	 745552451	 270926.
13:07:05  893 894	 1492434425	 20789772	 275238.
13:07:05  894 895	 1492434425	 288270158	 267480.
13:07:05  895 896	 1492434425	 563743855	 275474.
13:07:05  896 897	 1492434425	 834957728	 271213.
13:07:06  897 898	 1492434426	 105860093	 270903.
13:07:06  898 899	 1492434426	 376977440	 271117.
13:07:06  899 900	 1492434426	 652000619	 275023.
13:07:06  900 901	 1492434426	 874298814	 222299.
13:07:07  901 902	 1492434427	 145554335	 271255.
13:07:07  902 903	 1492434427	 416585879	 271032.
13:07:07  903 904	 1492434427	 687935814	 271350.
13:07:07  904 905	 1492434427	 963630822	 275695.
13:07:08  905 906	 1492434428	 234884233	 271253.
13:07:08  906 907	 1492434428	 457398913	 222515.
13:07:08  907 908	 1492434428	 728143432	 270744.
13:07:08  908 909	 1492434429	 3196893	 275054.
13:07:09  909 910	 1492434429	 274299259	 271102.
13:07:09  910 911	 1492434429	 496692998	 222394.
13:07:09  911 912	 1492434429	 767349856	 270657.
13:07:10  912 913	 1492434430	 42209447	 274859.
13:07:10  913 914	 1492434430	 314033151	 271824.
13:07:10  914 915	 1492434430	 589577842	 275545.
13:07:10  915 916	 1492434430	 811758891	 222181.
13:07:11  916 917	 1492434431	 82534316	 270775.
13:07:11  917 918	 1492434431	 353424525	 270890.
13:07:11  918 919	 1492434431	 628432460	 275008.
13:07:11  919 920	 1492434431	 850457877	 222026.
13:07:12  920 921	 1492434432	 179188236	 328730.
13:07:12  921 922	 1492434432	 454421865	 275234.
13:07:12  922 923	 1492434432	 725830180	 271408.
13:07:12  923 924	 1492434433	 2446043	 276616.
13:07:13  924 925	 1492434433	 278228683	 275782.
13:07:13  925 926	 1492434433	 500761877	 222534.
13:07:13  926 927	 1492434433	 771574116	 270812.
13:07:14  927 928	 1492434434	 42453788	 270879.
13:07:14  928 929	 1492434434	 317527249	 275074.
13:07:14  929 930	 1492434434	 535618383	 218091.
13:07:14  930 931	 1492434434	 810464428	 274846.
13:07:15  931 932	 1492434435	 81578725	 271114.
13:07:15  932 933	 1492434435	 357341133	 275763.
13:07:15  933 934	 1492434435	 628991786	 271650.
13:07:15  934 935	 1492434435	 906027875	 277037.
13:07:16  935 936	 1492434436	 177650278	 271622.
13:07:16  936 937	 1492434436	 453369942	 275720.
13:07:16  937 938	 1492434436	 675964309	 222594.
13:07:16  938 939	 1492434436	 946953109	 270989.
13:07:17  939 940	 1492434437	 218569714	 271617.
13:07:17  940 941	 1492434437	 490218108	 271648.
13:07:17  941 942	 1492434437	 765315179	 275097.
13:07:17  942 943	 1492434437	 983914627	 218599.
13:07:18  943 944	 1492434438	 259471351	 275557.
13:07:18  944 945	 1492434438	 530967664	 271496.
13:07:18  945 946	 1492434438	 807059209	 276092.
13:07:19  946 947	 1492434439	 79018998	 271960.
13:07:19  947 948	 1492434439	 301187172	 222168.
13:07:19  948 949	 1492434439	 577178482	 275991.
13:07:19  949 950	 1492434439	 849537797	 272360.
13:07:20  950 951	 1492434440	 120831323	 271293.
13:07:20  951 952	 1492434440	 396136385	 275305.
13:07:20  952 953	 1492434440	 667404840	 271269.
13:07:20  953 954	 1492434440	 943155370	 275750.
13:07:21  954 955	 1492434441	 165923262	 222768.
13:07:21  955 956	 1492434441	 437555661	 271632.
13:07:21  956 957	 1492434441	 713189342	 275634.
13:07:21  957 958	 1492434441	 985162109	 271973.
13:07:22  958 959	 1492434442	 260966539	 275804.
13:07:22  959 960	 1492434442	 531810938	 270845.
13:07:22  960 961	 1492434442	 754145145	 222334.
13:07:23  961 962	 1492434443	 25166393	 271021.
13:07:23  962 963	 1492434443	 296566362	 271400.
13:07:23  963 964	 1492434443	 573599126	 277033.
13:07:23  964 965	 1492434443	 845901565	 272302.
13:07:24  965 966	 1492434444	 122446762	 276545.
13:07:24  966 967	 1492434444	 398915365	 276469.
13:07:24  967 968	 1492434444	 671101543	 272186.
13:07:24  968 969	 1492434444	 942005776	 270904.
13:07:25  969 970	 1492434445	 217234420	 275229.
13:07:25  970 971	 1492434445	 439174584	 221940.
13:07:25  971 972	 1492434445	 710115023	 270941.
13:07:25  972 973	 1492434445	 980953697	 270838.
13:07:26  973 974	 1492434446	 256130783	 275177.
13:07:26  974 975	 1492434446	 478149922	 222020.
13:07:26  975 976	 1492434446	 749402838	 271253.
13:07:27  976 977	 1492434447	 25216592	 275813.
13:07:27  977 978	 1492434447	 296857642	 271641.
13:07:27  978 979	 1492434447	 572666192	 275809.
13:07:27  979 980	 1492434447	 843982021	 271316.
13:07:28  980 981	 1492434448	 115003438	 271021.
13:07:28  981 982	 1492434448	 337005850	 222003.
13:07:28  982 983	 1492434448	 612326120	 275320.
13:07:28  983 984	 1492434448	 883856368	 271530.
13:07:29  984 985	 1492434449	 154932580	 271076.
13:07:29  985 986	 1492434449	 429880142	 274948.
13:07:29  986 987	 1492434449	 701269498	 271389.
13:07:29  987 988	 1492434449	 973023654	 271754.
13:07:30  988 989	 1492434450	 195795185	 222772.
13:07:30  989 990	 1492434450	 471302468	 275507.
13:07:30  990 991	 1492434450	 742698656	 271396.
13:07:31  991 992	 1492434451	 13865035	 271167.
13:07:31  992 993	 1492434451	 289075523	 275210.
13:07:31  993 994	 1492434451	 559966687	 270891.
13:07:31  994 995	 1492434451	 782081919	 222116.
13:07:32  995 996	 1492434452	 53317147	 271235.
13:07:32  996 997	 1492434452	 328747640	 275430.
13:07:32  997 998	 1492434452	 599678834	 270932.
13:07:32  998 999	 1492434452	 822005760	 222326.
13:07:33  999 1000	 1492434453	 97480497	 275475.
13:07:33 1000 1001	 1492434453	 368859929	 271380.
13:07:33 1001 1002	 1492434453	 643976629	 275116.
13:07:33 1002 1003	 1492434453	 915331724	 271355.
13:07:34 1003 1004	 1492434454	 137852855	 222522.
13:07:34 1004 1005	 1492434454	 412693004	 274840.
13:07:34 1005 1006	 1492434454	 683866518	 271173.
13:07:34 1006 1007	 1492434454	 955141524	 271275.
13:07:35 1007 1008	 1492434455	 226221170	 271080.
13:07:35 1008 1009	 1492434455	 448177509	 221956.
13:07:35 1009 1010	 1492434455	 723430804	 275253.
13:07:35 1010 1011	 1492434455	 994576279	 271146.
13:07:36 1011 1012	 1492434456	 269868486	 275292.
13:07:36 1012 1013	 1492434456	 541165507	 271297.
13:07:36 1013 1014	 1492434456	 763263775	 222098.
13:07:37 1014 1015	 1492434457	 34822567	 271559.
13:07:37 1015 1016	 1492434457	 309928184	 275106.
13:07:37 1016 1017	 1492434457	 581651938	 271724.
13:07:37 1017 1018	 1492434457	 852434030	 270782.
13:07:38 1018 1019	 1492434458	 74945552	 222511.
13:07:38 1019 1020	 1492434458	 403503312	 328558.
13:07:38 1020 1021	 1492434458	 678576897	 275074.
13:07:38 1021 1022	 1492434458	 950452614	 271875.
13:07:39 1022 1023	 1492434459	 226685930	 276234.
13:07:39 1023 1024	 1492434459	 498955936	 272270.
13:07:39 1024 1025	 1492434459	 774712709	 275756.
13:07:39 1025 1026	 1492434459	 992605357	 217893.
13:07:40 1026 1027	 1492434460	 268691394	 276086.
13:07:40 1027 1028	 1492434460	 594262690	 325571.
13:07:40 1028 1029	 1492434460	 816694770	 222432.
13:07:41 1029 1030	 1492434461	 88257425	 271563.
13:07:41 1030 1031	 1492434461	 363351262	 275094.
13:07:41 1031 1032	 1492434461	 635684709	 272333.
13:07:41 1032 1033	 1492434461	 911459460	 275775.
13:07:42 1033 1034	 1492434462	 133378013	 221919.
13:07:42 1034 1035	 1492434462	 454745581	 321367.
13:07:42 1035 1036	 1492434462	 677465618	 222720.
13:07:42 1036 1037	 1492434462	 952968903	 275504.
13:07:43 1037 1038	 1492434463	 225378750	 272409.
13:07:43 1038 1039	 1492434463	 489425276	 264047.
13:07:43 1039 1040	 1492434463	 760260141	 270835.
13:07:44 1040 1041	 1492434464	 35365886	 275106.
13:07:44 1041 1042	 1492434464	 257454936	 222089.
13:07:44 1042 1043	 1492434464	 528518828	 271064.
13:07:44 1043 1044	 1492434464	 803785294	 275266.
13:07:45 1044 1045	 1492434465	 74718685	 270933.
13:07:45 1045 1046	 1492434465	 296809151	 222091.
13:07:45 1046 1047	 1492434465	 567696655	 270887.
13:07:45 1047 1048	 1492434465	 843038473	 275342.
13:07:46 1048 1049	 1492434466	 114643900	 271606.
13:07:46 1049 1050	 1492434466	 391602261	 276958.
13:07:46 1050 1051	 1492434466	 663235521	 271633.
13:07:46 1051 1052	 1492434466	 938818938	 275584.
13:07:47 1052 1053	 1492434467	 210352335	 271533.
13:07:47 1053 1054	 1492434467	 433032489	 222680.
13:07:47 1054 1055	 1492434467	 708176199	 275144.
13:07:47 1055 1056	 1492434467	 979465248	 271289.
13:07:48 1056 1057	 1492434468	 254880540	 275415.
13:07:48 1057 1058	 1492434468	 526137806	 271258.
13:07:48 1058 1059	 1492434468	 748951398	 222813.
13:07:49 1059 1060	 1492434469	 24222763	 275271.
13:07:49 1060 1061	 1492434469	 295709299	 271487.
13:07:49 1061 1062	 1492434469	 570954855	 275246.
13:07:49 1062 1063	 1492434469	 788624795	 217670.
13:07:50 1063 1064	 1492434470	 63929265	 275304.
13:07:50 1064 1065	 1492434470	 335094076	 271165.
13:07:50 1065 1066	 1492434470	 610766376	 275672.
13:07:50 1066 1067	 1492434470	 832873875	 222108.
13:07:51 1067 1068	 1492434471	 104238366	 271364.
13:07:51 1068 1069	 1492434471	 379403967	 275166.
13:07:51 1069 1070	 1492434471	 601131329	 221727.
13:07:51 1070 1071	 1492434471	 872158552	 271027.
13:07:52 1071 1072	 1492434472	 147400948	 275243.
13:07:52 1072 1073	 1492434472	 418652901	 271252.
13:07:52 1073 1074	 1492434472	 689740064	 271087.
13:07:52 1074 1075	 1492434472	 915935555	 226195.
13:07:53 1075 1076	 1492434473	 186772805	 270838.
13:07:53 1076 1077	 1492434473	 461740535	 274967.
13:07:53 1077 1078	 1492434473	 683668660	 221928.
13:07:53 1078 1079	 1492434473	 954766721	 271098.
13:07:54 1079 1080	 1492434474	 226093758	 271328.
13:07:54 1080 1081	 1492434474	 501636290	 275542.
13:07:54 1081 1082	 1492434474	 773491965	 271856.
13:07:54 1082 1083	 1492434474	 995895028	 222403.
13:07:55 1083 1084	 1492434475	 266979209	 271084.
13:07:55 1084 1085	 1492434475	 542269995	 275291.
13:07:55 1085 1086	 1492434475	 813307522	 271037.
13:07:56 1086 1087	 1492434476	 88617743	 275310.
13:07:56 1087 1088	 1492434476	 310968620	 222351.
13:07:56 1088 1089	 1492434476	 582063322	 271095.
13:07:56 1089 1090	 1492434476	 852914424	 270851.
13:07:57 1090 1091	 1492434477	 128017149	 275103.
13:07:57 1091 1092	 1492434477	 399380568	 271363.
13:07:57 1092 1093	 1492434477	 621946705	 222566.
13:07:57 1093 1094	 1492434477	 893573158	 271627.
13:07:58 1094 1095	 1492434478	 168335668	 274762.
13:07:58 1095 1096	 1492434478	 439434545	 271099.
13:07:58 1096 1097	 1492434478	 715308202	 275874.
13:07:58 1097 1098	 1492434478	 937121558	 221813.
13:07:59 1098 1099	 1492434479	 208430343	 271309.
13:07:59 1099 1100	 1492434479	 479739720	 271309.
13:07:59 1100 1101	 1492434479	 750821926	 271083.
13:08:00 1101 1102	 1492434480	 25773504	 274951.
13:08:00 1102 1103	 1492434480	 247740705	 221967.
13:08:00 1103 1104	 1492434480	 518453675	 270713.
13:08:00 1104 1105	 1492434480	 789111051	 270658.
13:08:01 1105 1106	 1492434481	 63978239	 274867.
13:08:01 1106 1107	 1492434481	 285876949	 221899.
13:08:01 1107 1108	 1492434481	 556945738	 271068.
13:08:01 1108 1109	 1492434481	 828179827	 271235.
13:08:02 1109 1110	 1492434482	 99400509	 271220.
13:08:02 1110 1111	 1492434482	 374622057	 275222.
13:08:02 1111 1112	 1492434482	 645650654	 271028.
13:08:02 1112 1113	 1492434482	 916870117	 271220.
13:08:03 1113 1114	 1492434483	 191986450	 275116.
13:08:03 1114 1115	 1492434483	 414157855	 222172.
13:08:03 1115 1116	 1492434483	 685409052	 271251.
13:08:03 1116 1117	 1492434483	 956341149	 270932.
13:08:04 1117 1118	 1492434484	 231722351	 275381.
13:08:04 1118 1119	 1492434484	 506998859	 275277.
13:08:04 1119 1120	 1492434484	 778846033	 271847.
13:08:05 1120 1121	 1492434485	 46068928	 267223.
13:08:05 1121 1122	 1492434485	 268413259	 222344.
13:08:05 1122 1123	 1492434485	 539485943	 271073.
13:08:05 1123 1124	 1492434485	 814537444	 275051.
13:08:06 1124 1125	 1492434486	 85745057	 271208.
13:08:06 1125 1126	 1492434486	 356806474	 271061.
13:08:06 1126 1127	 1492434486	 627612562	 270806.
13:08:06 1127 1128	 1492434486	 903070207	 275458.
13:08:07 1128 1129	 1492434487	 232536139	 329466.
13:08:07 1129 1130	 1492434487	 504812288	 272276.
13:08:07 1130 1131	 1492434487	 781789145	 276977.
13:08:08 1131 1132	 1492434488	 52785596	 270996.
13:08:08 1132 1133	 1492434488	 323944280	 271159.
