10:29:20    0 Step	 time(s)	 time(ns)	 delta(ms)
10:29:20    0 1	 1492511360	 621854237	 939.
10:29:20    1 2	 1492511360	 898505155	 276651.
10:29:21    2 3	 1492511361	 170478111	 271973.
10:29:21    3 4	 1492511361	 446588912	 276111.
10:29:21    4 5	 1492511361	 718603522	 272014.
10:29:21    5 6	 1492511361	 995497938	 276895.
10:29:22    6 7	 1492511362	 268214783	 272717.
10:29:22    7 8	 1492511362	 544860068	 276645.
10:29:22    8 9	 1492511362	 817451676	 272591.
10:29:23    9 10	 1492511363	 94364686	 276913.
10:29:23   10 11	 1492511363	 367017803	 272653.
10:29:23   11 12	 1492511363	 643844580	 276827.
10:29:23   12 13	 1492511363	 920643824	 276799.
10:29:24   13 14	 1492511364	 197340423	 276697.
10:29:24   14 15	 1492511364	 469327907	 271988.
10:29:24   15 16	 1492511364	 741139314	 271811.
10:29:25   16 17	 1492511365	 12711719	 271572.
10:29:25   17 18	 1492511365	 288761746	 276050.
10:29:25   18 19	 1492511365	 564596654	 275835.
10:29:25   19 20	 1492511365	 787628333	 223032.
10:29:26   20 21	 1492511366	 59622190	 271994.
10:29:26   21 22	 1492511366	 335473379	 275851.
10:29:26   22 23	 1492511366	 607372774	 271899.
10:29:26   23 24	 1492511366	 883327700	 275955.
10:29:27   24 25	 1492511367	 159087365	 275760.
10:29:27   25 26	 1492511367	 377888395	 218801.
10:29:27   26 27	 1492511367	 653495858	 275608.
10:29:27   27 28	 1492511367	 925213282	 271717.
10:29:28   28 29	 1492511368	 201161031	 275948.
10:29:28   29 30	 1492511368	 473122928	 271962.
10:29:28   30 31	 1492511368	 749116996	 275994.
10:29:28   31 32	 1492511368	 971806325	 222689.
10:29:29   32 33	 1492511369	 243457003	 271651.
10:29:29   33 34	 1492511369	 519158146	 275701.
10:29:29   34 35	 1492511369	 790986242	 271828.
10:29:30   35 36	 1492511370	 67105279	 276119.
10:29:30   36 37	 1492511370	 338923631	 271818.
10:29:30   37 38	 1492511370	 614676357	 275753.
10:29:30   38 39	 1492511370	 837600872	 222925.
10:29:31   39 40	 1492511371	 109560983	 271960.
10:29:31   40 41	 1492511371	 384681899	 275121.
10:29:31   41 42	 1492511371	 655407544	 270725.
10:29:31   42 43	 1492511371	 925894008	 270487.
10:29:32   43 44	 1492511372	 147272649	 221378.
10:29:32   44 45	 1492511372	 421787522	 274515.
10:29:32   45 46	 1492511372	 692872059	 271085.
10:29:32   46 47	 1492511372	 963244828	 270373.
10:29:33   47 48	 1492511373	 239232372	 275987.
10:29:33   48 49	 1492511373	 462441115	 223209.
10:29:33   49 50	 1492511373	 734618078	 272177.
10:29:34   50 51	 1492511374	 10722572	 276104.
10:29:34   51 52	 1492511374	 282389640	 271667.
10:29:34   52 53	 1492511374	 553437153	 271048.
10:29:34   53 54	 1492511374	 828745003	 275308.
10:29:35   54 55	 1492511375	 50880880	 222136.
10:29:35   55 56	 1492511375	 326022252	 275141.
10:29:35   56 57	 1492511375	 601125267	 275103.
10:29:35   57 58	 1492511375	 873065393	 271940.
10:29:36   58 59	 1492511376	 95931825	 222866.
10:29:36   59 60	 1492511376	 372287663	 276356.
10:29:36   60 61	 1492511376	 644882658	 272595.
10:29:36   61 62	 1492511376	 921459629	 276577.
10:29:37   62 63	 1492511377	 193440295	 271981.
10:29:37   63 64	 1492511377	 469639900	 276200.
10:29:37   64 65	 1492511377	 741991425	 272351.
10:29:37   65 66	 1492511377	 964328360	 222337.
10:29:38   66 67	 1492511378	 239749381	 275421.
10:29:38   67 68	 1492511378	 515024213	 275275.
10:29:38   68 69	 1492511378	 786145812	 271121.
10:29:39   69 70	 1492511379	 8588745	 222443.
10:29:39   70 71	 1492511379	 280109138	 271521.
10:29:39   71 72	 1492511379	 555901793	 275792.
10:29:39   72 73	 1492511379	 831742586	 275841.
10:29:40   73 74	 1492511380	 103573216	 271831.
10:29:40   74 75	 1492511380	 327033022	 223460.
10:29:40   75 76	 1492511380	 598963002	 271930.
10:29:40   76 77	 1492511380	 874780388	 275817.
10:29:41   77 78	 1492511381	 150551261	 275771.
10:29:41   78 79	 1492511381	 422411493	 271860.
10:29:41   79 80	 1492511381	 698309423	 275898.
10:29:41   80 81	 1492511381	 920920258	 222611.
10:29:42   81 82	 1492511382	 192903742	 271983.
10:29:42   82 83	 1492511382	 469340416	 276437.
10:29:42   83 84	 1492511382	 740908807	 271568.
10:29:43   84 85	 1492511383	 17311452	 276403.
10:29:43   85 86	 1492511383	 289462008	 272151.
10:29:43   86 87	 1492511383	 511922296	 222460.
10:29:43   87 88	 1492511383	 788321976	 276400.
10:29:44   88 89	 1492511384	 60446528	 272124.
10:29:44   89 90	 1492511384	 332463698	 272017.
10:29:44   90 91	 1492511384	 608368759	 275905.
10:29:44   91 92	 1492511384	 883688791	 275320.
10:29:45   92 93	 1492511385	 101411226	 217723.
10:29:45   93 94	 1492511385	 377152837	 275741.
10:29:45   94 95	 1492511385	 653059941	 275908.
10:29:45   95 96	 1492511385	 924998230	 271938.
10:29:46   96 97	 1492511386	 196737372	 271739.
10:29:46   97 98	 1492511386	 423592126	 226855.
10:29:46   98 99	 1492511386	 695580675	 271988.
10:29:46   99 100	 1492511386	 971598340	 276018.
10:29:47  100 101	 1492511387	 243864598	 272266.
10:29:47  101 102	 1492511387	 519974299	 276110.
10:29:47  102 103	 1492511387	 791757812	 271783.
10:29:48  103 104	 1492511388	 18163854	 226406.
10:29:48  104 105	 1492511388	 289546396	 271383.
10:29:48  105 106	 1492511388	 565019693	 275473.
10:29:48  106 107	 1492511388	 787285289	 222266.
10:29:49  107 108	 1492511389	 59031311	 271746.
10:29:49  108 109	 1492511389	 330706786	 271675.
10:29:49  109 110	 1492511389	 606945236	 276239.
10:29:49  110 111	 1492511389	 882279525	 275334.
10:29:50  111 112	 1492511390	 104963827	 222685.
10:29:50  112 113	 1492511390	 377169253	 272205.
10:29:50  113 114	 1492511390	 652770967	 275602.
10:29:50  114 115	 1492511390	 924795544	 272024.
10:29:51  115 116	 1492511391	 200048671	 275253.
10:29:51  116 117	 1492511391	 472358025	 272310.
10:29:51  117 118	 1492511391	 748797796	 276439.
10:29:51  118 119	 1492511391	 971868592	 223071.
10:29:52  119 120	 1492511392	 243963948	 272096.
10:29:52  120 121	 1492511392	 520112049	 276148.
10:29:52  121 122	 1492511392	 791944799	 271832.
10:29:53  122 123	 1492511393	 67705419	 275761.
10:29:53  123 124	 1492511393	 339671880	 271967.
10:29:53  124 125	 1492511393	 562458072	 222786.
10:29:53  125 126	 1492511393	 834305230	 271847.
10:29:54  126 127	 1492511394	 109940070	 275635.
10:29:54  127 128	 1492511394	 381631715	 271691.
10:29:54  128 129	 1492511394	 657202479	 275571.
10:29:54  129 130	 1492511394	 929187678	 271985.
10:29:55  130 131	 1492511395	 151879547	 222692.
10:29:55  131 132	 1492511395	 427685503	 275806.
10:29:55  132 133	 1492511395	 699315451	 271630.
10:29:55  133 134	 1492511395	 974979211	 275664.
10:29:56  134 135	 1492511396	 247695902	 272717.
10:29:56  135 136	 1492511396	 506839137	 259143.
10:29:56  136 137	 1492511396	 729076120	 222237.
10:29:57  137 138	 1492511397	 4326741	 275250.
10:29:57  138 139	 1492511397	 276196382	 271870.
10:29:57  139 140	 1492511397	 498775649	 222579.
10:29:57  140 141	 1492511397	 774581320	 275806.
10:29:58  141 142	 1492511398	 46073549	 271492.
10:29:58  142 143	 1492511398	 321735498	 275662.
10:29:58  143 144	 1492511398	 597669649	 275934.
10:29:58  144 145	 1492511398	 820352267	 222683.
10:29:59  145 146	 1492511399	 91660981	 271309.
10:29:59  146 147	 1492511399	 367401993	 275741.
10:29:59  147 148	 1492511399	 638726076	 271324.
10:29:59  148 149	 1492511399	 865136423	 226410.
10:30:00  149 150	 1492511400	 136518375	 271382.
10:30:00  150 151	 1492511400	 407659752	 271141.
10:30:00  151 152	 1492511400	 678162957	 270504.
10:30:00  152 153	 1492511400	 899827672	 221664.
10:30:01  153 154	 1492511401	 174285474	 274458.
10:30:01  154 155	 1492511401	 445389056	 271104.
10:30:01  155 156	 1492511401	 716476216	 271087.
10:30:01  156 157	 1492511401	 991924608	 275448.
10:30:02  157 158	 1492511402	 262847413	 270923.
10:30:02  158 159	 1492511402	 484987525	 222140.
10:30:02  159 160	 1492511402	 756457375	 271470.
10:30:03  160 161	 1492511403	 32061639	 275604.
10:30:03  161 162	 1492511403	 303228467	 271167.
10:30:03  162 163	 1492511403	 574367239	 271139.
10:30:03  163 164	 1492511403	 849491454	 275124.
10:30:04  164 165	 1492511404	 120580773	 271089.
10:30:04  165 166	 1492511404	 395677287	 275097.
10:30:04  166 167	 1492511404	 666676126	 270999.
10:30:04  167 168	 1492511404	 889009283	 222333.
10:30:05  168 169	 1492511405	 160104222	 271095.
10:30:05  169 170	 1492511405	 431021715	 270917.
10:30:05  170 171	 1492511405	 706156223	 275135.
10:30:05  171 172	 1492511405	 977357114	 271201.
10:30:06  172 173	 1492511406	 248375668	 271018.
10:30:06  173 174	 1492511406	 470334126	 221959.
10:30:06  174 175	 1492511406	 745483290	 275149.
10:30:07  175 176	 1492511407	 16680812	 271197.
10:30:07  176 177	 1492511407	 287889091	 271209.
10:30:07  177 178	 1492511407	 563475120	 275586.
10:30:07  178 179	 1492511407	 834790600	 271315.
10:30:08  179 180	 1492511408	 105476149	 270686.
10:30:08  180 181	 1492511408	 327219882	 221744.
10:30:08  181 182	 1492511408	 598489463	 271269.
10:30:08  182 183	 1492511408	 869646360	 271157.
10:30:09  183 184	 1492511409	 144278711	 274632.
10:30:09  184 185	 1492511409	 415563138	 271285.
10:30:09  185 186	 1492511409	 691867403	 276304.
10:30:09  186 187	 1492511409	 964186920	 272320.
10:30:10  187 188	 1492511410	 240304014	 276117.
10:30:10  188 189	 1492511410	 512354413	 272050.
10:30:10  189 190	 1492511410	 784466778	 272113.
10:30:11  190 191	 1492511411	 59942427	 275475.
10:30:11  191 192	 1492511411	 331567733	 271625.
10:30:11  192 193	 1492511411	 607213690	 275646.
10:30:11  193 194	 1492511411	 825568559	 218355.
10:30:12  194 195	 1492511412	 100677843	 275110.
10:30:12  195 196	 1492511412	 371877119	 271199.
10:30:12  196 197	 1492511412	 643025668	 271148.
10:30:12  197 198	 1492511412	 918297411	 275272.
10:30:13  198 199	 1492511413	 189505247	 271208.
10:30:13  199 200	 1492511413	 465023314	 275518.
10:30:13  200 201	 1492511413	 736256845	 271234.
10:30:14  201 202	 1492511414	 7614349	 271357.
10:30:14  202 203	 1492511414	 278787839	 271174.
10:30:14  203 204	 1492511414	 500810761	 222022.
10:30:14  204 205	 1492511414	 772180656	 271370.
10:30:15  205 206	 1492511415	 47809332	 275629.
10:30:15  206 207	 1492511415	 319252388	 271443.
10:30:15  207 208	 1492511415	 589898149	 270646.
10:30:15  208 209	 1492511415	 812191281	 222293.
10:30:16  209 210	 1492511416	 87980608	 275789.
10:30:16  210 211	 1492511416	 359451178	 271471.
10:30:16  211 212	 1492511416	 635176551	 275725.
10:30:16  212 213	 1492511416	 907081486	 271905.
10:30:17  213 214	 1492511417	 178415238	 271334.
10:30:17  214 215	 1492511417	 454332655	 275917.
10:30:17  215 216	 1492511417	 676424325	 222092.
10:30:17  216 217	 1492511417	 947597814	 271173.
10:30:18  217 218	 1492511418	 223333976	 275737.
10:30:18  218 219	 1492511418	 494656399	 271322.
10:30:18  219 220	 1492511418	 765427376	 270771.
10:30:19  220 221	 1492511419	 36696799	 271269.
10:30:19  221 222	 1492511419	 312514370	 275818.
10:30:19  222 223	 1492511419	 535317061	 222803.
10:30:19  223 224	 1492511419	 811930159	 276613.
10:30:20  224 225	 1492511420	 84307048	 272377.
10:30:20  225 226	 1492511420	 360473083	 276166.
10:30:20  226 227	 1492511420	 632632623	 272159.
10:30:20  227 228	 1492511420	 905672755	 273040.
10:30:21  228 229	 1492511421	 181688372	 276016.
10:30:21  229 230	 1492511421	 457496662	 275808.
10:30:21  230 231	 1492511421	 729662610	 272166.
10:30:22  231 232	 1492511422	 5279876	 275618.
10:30:22  232 233	 1492511422	 228289402	 223009.
10:30:22  233 234	 1492511422	 499825123	 271536.
10:30:22  234 235	 1492511422	 775207415	 275382.
10:30:23  235 236	 1492511423	 46487221	 271280.
10:30:23  236 237	 1492511423	 322405201	 275918.
10:30:23  237 238	 1492511423	 545510188	 223105.
10:30:23  238 239	 1492511423	 817564631	 272054.
10:30:24  239 240	 1492511424	 93273733	 275709.
10:30:24  240 241	 1492511424	 365059128	 271786.
10:30:24  241 242	 1492511424	 640928716	 275869.
10:30:24  242 243	 1492511424	 912880688	 271952.
10:30:25  243 244	 1492511425	 188875370	 275995.
10:30:25  244 245	 1492511425	 412121032	 223246.
10:30:25  245 246	 1492511425	 684577394	 272456.
10:30:25  246 247	 1492511425	 960259730	 275682.
10:30:26  247 248	 1492511426	 236186095	 275927.
10:30:26  248 249	 1492511426	 508143763	 271957.
10:30:26  249 250	 1492511426	 779651554	 271508.
10:30:27  250 251	 1492511427	 55257859	 275606.
10:30:27  251 252	 1492511427	 273790718	 218533.
10:30:27  252 253	 1492511427	 549526349	 275736.
10:30:27  253 254	 1492511427	 825037646	 275511.
10:30:28  254 255	 1492511428	 97008659	 271971.
10:30:28  255 256	 1492511428	 372900387	 275892.
10:30:28  256 257	 1492511428	 644986896	 272087.
10:30:28  257 258	 1492511428	 867496899	 222510.
10:30:29  258 259	 1492511429	 142942784	 275445.
10:30:29  259 260	 1492511429	 414341573	 271399.
10:30:29  260 261	 1492511429	 689704327	 275363.
10:30:29  261 262	 1492511429	 912466468	 222762.
10:30:30  262 263	 1492511430	 184456633	 271990.
10:30:30  263 264	 1492511430	 460290085	 275834.
10:30:30  264 265	 1492511430	 732292217	 272002.
10:30:31  265 266	 1492511431	 7667691	 275375.
10:30:31  266 267	 1492511431	 283728726	 276061.
10:30:31  267 268	 1492511431	 555974684	 272246.
10:30:31  268 269	 1492511431	 778849535	 222875.
10:30:32  269 270	 1492511432	 54814667	 275965.
10:30:32  270 271	 1492511432	 326396540	 271582.
10:30:32  271 272	 1492511432	 602474408	 276078.
10:30:32  272 273	 1492511432	 874939615	 272465.
10:30:33  273 274	 1492511433	 150895598	 275956.
10:30:33  274 275	 1492511433	 422941675	 272046.
10:30:33  275 276	 1492511433	 698645470	 275704.
10:30:33  276 277	 1492511433	 921160338	 222515.
10:30:34  277 278	 1492511434	 193051270	 271891.
10:30:34  278 279	 1492511434	 468551402	 275500.
10:30:34  279 280	 1492511434	 740338154	 271787.
10:30:35  280 281	 1492511435	 15497866	 275160.
10:30:35  281 282	 1492511435	 237476561	 221978.
10:30:35  282 283	 1492511435	 508604991	 271129.
10:30:35  283 284	 1492511435	 780337359	 271732.
10:30:36  284 285	 1492511436	 56179843	 275843.
10:30:36  285 286	 1492511436	 331974914	 275795.
10:30:36  286 287	 1492511436	 603662370	 271687.
10:30:36  287 288	 1492511436	 826275968	 222614.
10:30:37  288 289	 1492511437	 102612940	 276337.
10:30:37  289 290	 1492511437	 373991094	 271378.
10:30:37  290 291	 1492511437	 645835555	 271844.
10:30:37  291 292	 1492511437	 922066307	 276231.
10:30:38  292 293	 1492511438	 194084749	 272018.
10:30:38  293 294	 1492511438	 469848586	 275764.
10:30:38  294 295	 1492511438	 742136316	 272288.
10:30:39  295 296	 1492511439	 18686762	 276550.
10:30:39  296 297	 1492511439	 290995332	 272309.
10:30:39  297 298	 1492511439	 566957578	 275962.
10:30:39  298 299	 1492511439	 838236779	 271279.
10:30:40  299 300	 1492511440	 114251941	 276016.
10:30:40  300 301	 1492511440	 386572691	 272321.
10:30:40  301 302	 1492511440	 609365684	 222792.
10:30:40  302 303	 1492511440	 885621051	 276256.
10:30:41  303 304	 1492511441	 161723491	 276102.
10:30:41  304 305	 1492511441	 433699557	 271976.
10:30:41  305 306	 1492511441	 709881929	 276183.
10:30:41  306 307	 1492511441	 982348921	 272467.
10:30:42  307 308	 1492511442	 257900818	 275551.
10:30:42  308 309	 1492511442	 529460738	 271560.
10:30:42  309 310	 1492511442	 752440249	 222980.
10:30:43  310 311	 1492511443	 23686733	 271246.
10:30:43  311 312	 1492511443	 299384279	 275698.
10:30:43  312 313	 1492511443	 571330025	 271946.
10:30:43  313 314	 1492511443	 847289929	 275960.
10:30:44  314 315	 1492511444	 119137211	 271847.
10:30:44  315 316	 1492511444	 394951431	 275814.
10:30:44  316 317	 1492511444	 618222055	 223271.
10:30:44  317 318	 1492511444	 890714993	 272493.
10:30:45  318 319	 1492511445	 166667347	 275952.
10:30:45  319 320	 1492511445	 438620400	 271953.
10:30:45  320 321	 1492511445	 715033352	 276413.
10:30:45  321 322	 1492511445	 986974137	 271941.
10:30:46  322 323	 1492511446	 263617678	 276643.
10:30:46  323 324	 1492511446	 539791294	 276174.
10:30:46  324 325	 1492511446	 811605273	 271814.
10:30:47  325 326	 1492511447	 34493927	 222889.
10:30:47  326 327	 1492511447	 310557838	 276063.
10:30:47  327 328	 1492511447	 582016071	 271459.
10:30:47  328 329	 1492511447	 858610250	 276594.
10:30:48  329 330	 1492511448	 129978477	 271368.
10:30:48  330 331	 1492511448	 406076809	 276098.
10:30:48  331 332	 1492511448	 628357889	 222282.
10:30:48  332 333	 1492511448	 900166626	 271808.
10:30:49  333 334	 1492511449	 176393226	 276227.
10:30:49  334 335	 1492511449	 448447151	 272054.
10:30:49  335 336	 1492511449	 724544237	 276097.
10:30:49  336 337	 1492511450	 961078	 276417.
10:30:50  337 338	 1492511450	 273045719	 272084.
10:30:50  338 339	 1492511450	 495975793	 222930.
10:30:50  339 340	 1492511450	 771741522	 275766.
10:30:51  340 341	 1492511451	 43883085	 272142.
10:30:51  341 342	 1492511451	 319953362	 276070.
10:30:51  342 343	 1492511451	 591796634	 271843.
10:30:51  343 344	 1492511451	 867622583	 275826.
10:30:52  344 345	 1492511452	 143735793	 276114.
10:30:52  345 346	 1492511452	 366824798	 223088.
10:30:52  346 347	 1492511452	 639181733	 272357.
10:30:52  347 348	 1492511452	 915563461	 276382.
10:30:53  348 349	 1492511453	 187232602	 271669.
10:30:53  349 350	 1492511453	 457759822	 270527.
10:30:53  350 351	 1492511453	 733364214	 275605.
10:30:54  351 352	 1492511454	 5034062	 271670.
10:30:54  352 353	 1492511454	 227162338	 222128.
10:30:54  353 354	 1492511454	 502723562	 275561.
10:30:54  354 355	 1492511454	 774135762	 271412.
10:30:55  355 356	 1492511455	 49165034	 275030.
10:30:55  356 357	 1492511455	 271361173	 222196.
10:30:55  357 358	 1492511455	 542642073	 271281.
10:30:55  358 359	 1492511455	 817916787	 275274.
10:30:56  359 360	 1492511456	 40079063	 222163.
10:30:56  360 361	 1492511456	 311407040	 271328.
10:30:56  361 362	 1492511456	 586800957	 275394.
10:30:56  362 363	 1492511456	 857818494	 271017.
10:30:57  363 364	 1492511457	 80040338	 222222.
10:30:57  364 365	 1492511457	 355977637	 275937.
10:30:57  365 366	 1492511457	 629030431	 273053.
10:30:57  366 367	 1492511457	 905747622	 276717.
10:30:58  367 368	 1492511458	 178226593	 272479.
10:30:58  368 369	 1492511458	 454083605	 275857.
10:30:58  369 370	 1492511458	 726707898	 272625.
10:30:58  370 371	 1492511459	 3086097	 276378.
10:30:59  371 372	 1492511459	 274693607	 271607.
10:30:59  372 373	 1492511459	 551050068	 276357.
10:30:59  373 374	 1492511459	 823001989	 271952.
10:31:00  374 375	 1492511460	 99240644	 276238.
10:31:00  375 376	 1492511460	 371826380	 272586.
10:31:00  376 377	 1492511460	 648679369	 276853.
10:31:00  377 378	 1492511460	 920626941	 271948.
10:31:01  378 379	 1492511461	 143081083	 222454.
10:31:01  379 380	 1492511461	 414510753	 271430.
10:31:01  380 381	 1492511461	 685560637	 271049.
10:31:01  381 382	 1492511461	 960642490	 275082.
10:31:02  382 383	 1492511462	 231486133	 270844.
10:31:02  383 384	 1492511462	 502039108	 270553.
10:31:02  384 385	 1492511462	 772799197	 270760.
10:31:02  385 386	 1492511462	 994934621	 222135.
10:31:03  386 387	 1492511463	 266333029	 271399.
10:31:03  387 388	 1492511463	 541779738	 275446.
10:31:03  388 389	 1492511463	 812802307	 271023.
10:31:04  389 390	 1492511464	 84180498	 271378.
10:31:04  390 391	 1492511464	 359482634	 275302.
10:31:04  391 392	 1492511464	 630786190	 271304.
10:31:04  392 393	 1492511464	 902334865	 271549.
10:31:05  393 394	 1492511465	 173511718	 271176.
10:31:05  394 395	 1492511465	 444571295	 271060.
10:31:05  395 396	 1492511465	 670820156	 226249.
10:31:05  396 397	 1492511465	 942038465	 271218.
10:31:06  397 398	 1492511466	 213030883	 270993.
10:31:06  398 399	 1492511466	 488408693	 275377.
10:31:06  399 400	 1492511466	 759747013	 271339.
10:31:07  400 401	 1492511467	 30900097	 271153.
10:31:07  401 402	 1492511467	 301760122	 270860.
10:31:07  402 403	 1492511467	 524002399	 222242.
10:31:07  403 404	 1492511467	 798913745	 274911.
10:31:08  404 405	 1492511468	 73883742	 274970.
10:31:08  405 406	 1492511468	 344965688	 271082.
10:31:08  406 407	 1492511468	 616328891	 271364.
10:31:08  407 408	 1492511468	 892727795	 276398.
10:31:09  408 409	 1492511469	 115451870	 222724.
10:31:09  409 410	 1492511469	 391396827	 275946.
10:31:09  410 411	 1492511469	 663543810	 272146.
10:31:09  411 412	 1492511469	 939443597	 275900.
10:31:10  412 413	 1492511470	 215664675	 276221.
10:31:10  413 414	 1492511470	 487413327	 271749.
10:31:10  414 415	 1492511470	 710217679	 222804.
10:31:10  415 416	 1492511470	 986142197	 275925.
10:31:11  416 417	 1492511471	 257555544	 271413.
10:31:11  417 418	 1492511471	 529989692	 272434.
10:31:11  418 419	 1492511471	 805948941	 275960.
10:31:12  419 420	 1492511472	 77977233	 272028.
10:31:12  420 421	 1492511472	 354667376	 276690.
10:31:12  421 422	 1492511472	 577551518	 222884.
10:31:12  422 423	 1492511472	 853780419	 276229.
10:31:13  423 424	 1492511473	 125917443	 272137.
10:31:13  424 425	 1492511473	 402461277	 276544.
10:31:13  425 426	 1492511473	 674092694	 271631.
10:31:13  426 427	 1492511473	 950030703	 275938.
10:31:14  427 428	 1492511474	 221852191	 271822.
10:31:14  428 429	 1492511474	 444651552	 222799.
10:31:14  429 430	 1492511474	 721080997	 276430.
10:31:14  430 431	 1492511474	 989172451	 268091.
10:31:15  431 432	 1492511475	 261060356	 271888.
10:31:15  432 433	 1492511475	 536997056	 275937.
10:31:15  433 434	 1492511475	 809039709	 272042.
10:31:16  434 435	 1492511476	 35304457	 226265.
10:31:16  435 436	 1492511476	 307194245	 271890.
10:31:16  436 437	 1492511476	 578743317	 271549.
10:31:16  437 438	 1492511476	 854301209	 275558.
10:31:17  438 439	 1492511477	 77583665	 223282.
10:31:17  439 440	 1492511477	 353525531	 275942.
10:31:17  440 441	 1492511477	 625990751	 272465.
10:31:17  441 442	 1492511477	 901493064	 275503.
10:31:18  442 443	 1492511478	 172950674	 271457.
10:31:18  443 444	 1492511478	 395310792	 222360.
10:31:18  444 445	 1492511478	 671145056	 275835.
10:31:18  445 446	 1492511478	 942686056	 271541.
10:31:19  446 447	 1492511479	 218051178	 275365.
10:31:19  447 448	 1492511479	 440314309	 222263.
10:31:19  448 449	 1492511479	 711967628	 271653.
10:31:19  449 450	 1492511479	 987926172	 275959.
10:31:20  450 451	 1492511480	 258748941	 270823.
10:31:20  451 452	 1492511480	 480511114	 221762.
10:31:20  452 453	 1492511480	 751295741	 270784.
10:31:21  453 454	 1492511481	 22348590	 271053.
10:31:21  454 455	 1492511481	 297698401	 275350.
10:31:21  455 456	 1492511481	 568528736	 270830.
10:31:21  456 457	 1492511481	 790162960	 221635.
10:31:22  457 458	 1492511482	 60943427	 270780.
10:31:22  458 459	 1492511482	 336139467	 275196.
10:31:22  459 460	 1492511482	 607353575	 271214.
10:31:22  460 461	 1492511482	 829321660	 221968.
10:31:23  461 462	 1492511483	 100133366	 270812.
10:31:23  462 463	 1492511483	 374800008	 274667.
10:31:23  463 464	 1492511483	 645699234	 270899.
10:31:23  464 465	 1492511483	 917188344	 271489.
10:31:24  465 466	 1492511484	 139076104	 221888.
10:31:24  466 467	 1492511484	 409764667	 270688.
10:31:24  467 468	 1492511484	 684564223	 274800.
10:31:24  468 469	 1492511484	 901906610	 217342.
10:31:25  469 470	 1492511485	 176561386	 274655.
10:31:25  470 471	 1492511485	 447427780	 270866.
10:31:25  471 472	 1492511485	 718481973	 271055.
10:31:25  472 473	 1492511485	 993080854	 274599.
10:31:26  473 474	 1492511486	 215256896	 222176.
10:31:26  474 475	 1492511486	 486135300	 270878.
10:31:26  475 476	 1492511486	 761030727	 274895.
10:31:27  476 477	 1492511487	 31932554	 270902.
10:31:27  477 478	 1492511487	 253962141	 222030.
10:31:27  478 479	 1492511487	 524647183	 270685.
10:31:27  479 480	 1492511487	 795519511	 270872.
10:31:28  480 481	 1492511488	 70506513	 274987.
10:31:28  481 482	 1492511488	 292202689	 221696.
10:31:28  482 483	 1492511488	 563892835	 271690.
10:31:28  483 484	 1492511488	 839155505	 275263.
10:31:29  484 485	 1492511489	 110488926	 271334.
10:31:29  485 486	 1492511489	 381697821	 271209.
10:31:29  486 487	 1492511489	 653203628	 271505.
10:31:29  487 488	 1492511489	 928923176	 275720.
10:31:30  488 489	 1492511490	 199595666	 270672.
10:31:30  489 490	 1492511490	 425406314	 225811.
10:31:30  490 491	 1492511490	 696030685	 270624.
10:31:30  491 492	 1492511490	 970601089	 274571.
10:31:31  492 493	 1492511491	 242206662	 271605.
10:31:31  493 494	 1492511491	 517401963	 275196.
10:31:31  494 495	 1492511491	 788724177	 271322.
10:31:32  495 496	 1492511492	 10876224	 222152.
10:31:32  496 497	 1492511492	 282698091	 271822.
10:31:32  497 498	 1492511492	 553980582	 271282.
10:31:32  498 499	 1492511492	 828707377	 274727.
10:31:33  499 500	 1492511493	 99995095	 271288.
10:31:33  500 501	 1492511493	 375165272	 275170.
10:31:33  501 502	 1492511493	 592909309	 217744.
10:31:33  502 503	 1492511493	 867897382	 274988.
10:31:34  503 504	 1492511494	 138751515	 270854.
10:31:34  504 505	 1492511494	 413530480	 274779.
10:31:34  505 506	 1492511494	 684248178	 270718.
10:31:34  506 507	 1492511494	 906722746	 222474.
10:31:35  507 508	 1492511495	 177873497	 271151.
10:31:35  508 509	 1492511495	 453422269	 275549.
10:31:35  509 510	 1492511495	 724670193	 271248.
10:31:35  510 511	 1492511495	 996042526	 271372.
10:31:36  511 512	 1492511496	 271415250	 275373.
10:31:36  512 513	 1492511496	 542434064	 271019.
10:31:36  513 514	 1492511496	 813301849	 270868.
10:31:37  514 515	 1492511497	 35292472	 221990.
10:31:37  515 516	 1492511497	 310087967	 274796.
10:31:37  516 517	 1492511497	 580666719	 270578.
10:31:37  517 518	 1492511497	 802350087	 221684.
10:31:38  518 519	 1492511498	 73097511	 270747.
10:31:38  519 520	 1492511498	 348195555	 275098.
10:31:38  520 521	 1492511498	 618773372	 270578.
10:31:38  521 522	 1492511498	 890002357	 271229.
10:31:39  522 523	 1492511499	 161015836	 271014.
10:31:39  523 524	 1492511499	 383142501	 222126.
10:31:39  524 525	 1492511499	 654125631	 270983.
10:31:39  525 526	 1492511499	 928949505	 274824.
10:31:40  526 527	 1492511500	 199740666	 270791.
10:31:40  527 528	 1492511500	 470649108	 270909.
10:31:40  528 529	 1492511500	 692360102	 221711.
10:31:40  529 530	 1492511500	 967192612	 274832.
10:31:41  530 531	 1492511501	 238109683	 270917.
10:31:41  531 532	 1492511501	 509052665	 270943.
10:31:41  532 533	 1492511501	 779992506	 270940.
10:31:41  533 534	 1492511502	 2001826	 222009.
10:31:42  534 535	 1492511502	 276674309	 274673.
10:31:42  535 536	 1492511502	 548019039	 271345.
10:31:42  536 537	 1492511502	 823011498	 274992.
10:31:43  537 538	 1492511503	 44574956	 221564.
10:31:43  538 539	 1492511503	 315384041	 270809.
10:31:43  539 540	 1492511503	 586357774	 270973.
10:31:43  540 541	 1492511503	 856928397	 270571.
10:31:44  541 542	 1492511504	 78572615	 221644.
10:31:44  542 543	 1492511504	 352938803	 274366.
10:31:44  543 544	 1492511504	 627460467	 274522.
10:31:44  544 545	 1492511504	 849022460	 221562.
10:31:45  545 546	 1492511505	 119797663	 270775.
10:31:45  546 547	 1492511505	 390390458	 270593.
10:31:45  547 548	 1492511505	 665029292	 274639.
10:31:45  548 549	 1492511505	 887442430	 222413.
10:31:46  549 550	 1492511506	 158554858	 271113.
10:31:46  550 551	 1492511506	 429687270	 271132.
10:31:46  551 552	 1492511506	 704654266	 274967.
10:31:46  552 553	 1492511506	 979455811	 274802.
10:31:47  553 554	 1492511507	 197229116	 217773.
10:31:47  554 555	 1492511507	 471990952	 274762.
10:31:47  555 556	 1492511507	 742479148	 270488.
10:31:47  556 557	 1492511507	 964376247	 221897.
10:31:48  557 558	 1492511508	 234771578	 270395.
10:31:48  558 559	 1492511508	 505202024	 270431.
10:31:48  559 560	 1492511508	 780340695	 275138.
10:31:49  560 561	 1492511509	 47566954	 267227.
10:31:49  561 562	 1492511509	 269195502	 221628.
10:31:49  562 563	 1492511509	 539972546	 270777.
10:31:49  563 564	 1492511509	 807384661	 267412.
10:31:50  564 565	 1492511510	 78185076	 270801.
10:31:50  565 566	 1492511510	 304486287	 226301.
10:31:50  566 567	 1492511510	 575755296	 271269.
10:31:50  567 568	 1492511510	 851114629	 275359.
10:31:51  568 569	 1492511511	 73294310	 222180.
10:31:51  569 570	 1492511511	 344483039	 271189.
10:31:51  570 571	 1492511511	 620358229	 275875.
10:31:51  571 572	 1492511511	 842639769	 222281.
10:31:52  572 573	 1492511512	 113931379	 271292.
10:31:52  573 574	 1492511512	 389052597	 275121.
10:31:52  574 575	 1492511512	 664588490	 275536.
10:31:52  575 576	 1492511512	 886896409	 222308.
10:31:53  576 577	 1492511513	 158057872	 271162.
10:31:53  577 578	 1492511513	 433469558	 275411.
10:31:53  578 579	 1492511513	 655807315	 222338.
10:31:53  579 580	 1492511513	 927573462	 271766.
10:31:54  580 581	 1492511514	 203544789	 275971.
10:31:54  581 582	 1492511514	 474733215	 271189.
10:31:54  582 583	 1492511514	 701327435	 226594.
10:31:54  583 584	 1492511514	 972730951	 271404.
10:31:55  584 585	 1492511515	 248372307	 275641.
10:31:55  585 586	 1492511515	 520027166	 271655.
10:31:55  586 587	 1492511515	 742360988	 222334.
10:31:56  587 588	 1492511516	 13786806	 271425.
10:31:56  588 589	 1492511516	 289523947	 275738.
10:31:56  589 590	 1492511516	 564799765	 275275.
10:31:56  590 591	 1492511516	 787009174	 222210.
10:31:57  591 592	 1492511517	 57974702	 270965.
10:31:57  592 593	 1492511517	 332895987	 274922.
10:31:57  593 594	 1492511517	 604407513	 271511.
10:31:57  594 595	 1492511517	 826242796	 221835.
10:31:58  595 596	 1492511518	 97151593	 270909.
10:31:58  596 597	 1492511518	 368255415	 271104.
10:31:58  597 598	 1492511518	 643484365	 275229.
10:31:58  598 599	 1492511518	 914923222	 271439.
10:31:59  599 600	 1492511519	 189811880	 274889.
10:31:59  600 601	 1492511519	 412167677	 222355.
10:31:59  601 602	 1492511519	 684115263	 271948.
10:31:59  602 603	 1492511519	 959244920	 275130.
10:32:00  603 604	 1492511520	 230349484	 271104.
10:32:00  604 605	 1492511520	 501226634	 270877.
10:32:00  605 606	 1492511520	 772348311	 271122.
10:32:01  606 607	 1492511521	 43404701	 271056.
10:32:01  607 608	 1492511521	 265518626	 222114.
10:32:01  608 609	 1492511521	 540586711	 275068.
10:32:01  609 610	 1492511521	 811705080	 271119.
10:32:02  610 611	 1492511522	 82721916	 271017.
10:32:02  611 612	 1492511522	 353669722	 270947.
10:32:02  612 613	 1492511522	 628766434	 275097.
10:32:02  613 614	 1492511522	 899920164	 271154.
10:32:03  614 615	 1492511523	 170978077	 271058.
10:32:03  615 616	 1492511523	 393568496	 222590.
10:32:03  616 617	 1492511523	 668740165	 275172.
10:32:03  617 618	 1492511523	 939637501	 270897.
10:32:04  618 619	 1492511524	 210429423	 270792.
10:32:04  619 620	 1492511524	 485557261	 275128.
10:32:04  620 621	 1492511524	 756737315	 271180.
10:32:05  621 622	 1492511525	 27811348	 271074.
10:32:05  622 623	 1492511525	 249984814	 222173.
10:32:05  623 624	 1492511525	 521230314	 271246.
10:32:05  624 625	 1492511525	 792313236	 271083.
10:32:06  625 626	 1492511526	 67320512	 275007.
10:32:06  626 627	 1492511526	 338171700	 270851.
10:32:06  627 628	 1492511526	 608937858	 270767.
10:32:06  628 629	 1492511526	 880020906	 271083.
10:32:07  629 630	 1492511527	 155124034	 275103.
10:32:07  630 631	 1492511527	 373309307	 218185.
10:32:07  631 632	 1492511527	 648410454	 275101.
10:32:07  632 633	 1492511527	 919471303	 271061.
10:32:08  633 634	 1492511528	 190756681	 271285.
10:32:08  634 635	 1492511528	 466365717	 275609.
10:32:08  635 636	 1492511528	 737341376	 270976.
10:32:09  636 637	 1492511529	 12693481	 275352.
10:32:09  637 638	 1492511529	 284363711	 271670.
10:32:09  638 639	 1492511529	 556598244	 272235.
10:32:09  639 640	 1492511529	 832664174	 276066.
10:32:10  640 641	 1492511530	 104122854	 271459.
10:32:10  641 642	 1492511530	 375263544	 271140.
10:32:10  642 643	 1492511530	 650775368	 275512.
10:32:10  643 644	 1492511530	 923321856	 272547.
10:32:11  644 645	 1492511531	 199491062	 276169.
10:32:11  645 646	 1492511531	 470687762	 271196.
10:32:11  646 647	 1492511531	 689101196	 218414.
10:32:11  647 648	 1492511531	 964603231	 275502.
10:32:12  648 649	 1492511532	 236678204	 272075.
10:32:12  649 650	 1492511532	 512649106	 275971.
10:32:12  650 651	 1492511532	 784921241	 272272.
10:32:13  651 652	 1492511533	 60499880	 275579.
10:32:13  652 653	 1492511533	 332182001	 271682.
10:32:13  653 654	 1492511533	 607746776	 275565.
10:32:13  654 655	 1492511533	 879325560	 271578.
10:32:14  655 656	 1492511534	 102367824	 223042.
10:32:14  656 657	 1492511534	 378386100	 276019.
10:32:14  657 658	 1492511534	 649638201	 271252.
10:32:14  658 659	 1492511534	 920820146	 271182.
10:32:15  659 660	 1492511535	 195894842	 275075.
10:32:15  660 661	 1492511535	 466991956	 271097.
10:32:15  661 662	 1492511535	 738179051	 271187.
10:32:16  662 663	 1492511536	 13440681	 275261.
10:32:16  663 664	 1492511536	 231609767	 218169.
10:32:16  664 665	 1492511536	 507692725	 276083.
10:32:16  665 666	 1492511536	 783906144	 276214.
10:32:17  666 667	 1492511537	 55875399	 271969.
10:32:17  667 668	 1492511537	 331407677	 275532.
10:32:17  668 669	 1492511537	 603532306	 272125.
10:32:17  669 670	 1492511537	 830500218	 226968.
10:32:18  670 671	 1492511538	 102657024	 272157.
10:32:18  671 672	 1492511538	 378421145	 275764.
10:32:18  672 673	 1492511538	 650042235	 271621.
10:32:18  673 674	 1492511538	 921557110	 271515.
10:32:19  674 675	 1492511539	 196351194	 274794.
10:32:19  675 676	 1492511539	 418289794	 221939.
10:32:19  676 677	 1492511539	 689865821	 271575.
10:32:19  677 678	 1492511539	 965995048	 276130.
10:32:20  678 679	 1492511540	 237731565	 271736.
10:32:20  679 680	 1492511540	 513667943	 275937.
10:32:20  680 681	 1492511540	 786260619	 272592.
10:32:21  681 682	 1492511541	 62876994	 276617.
10:32:21  682 683	 1492511541	 339100322	 276223.
10:32:21  683 684	 1492511541	 609969561	 270869.
10:32:21  684 685	 1492511541	 881097474	 271128.
10:32:22  685 686	 1492511542	 102533541	 221436.
10:32:22  686 687	 1492511542	 373318061	 270785.
10:32:22  687 688	 1492511542	 647761800	 274443.
10:32:22  688 689	 1492511542	 918346419	 270585.
10:32:23  689 690	 1492511543	 140633578	 222287.
10:32:23  690 691	 1492511543	 411948217	 271315.
10:32:23  691 692	 1492511543	 687283169	 275335.
10:32:23  692 693	 1492511543	 958790081	 271507.
10:32:24  693 694	 1492511544	 230907007	 272117.
10:32:24  694 695	 1492511544	 506705244	 275798.
10:32:24  695 696	 1492511544	 778440012	 271735.
10:32:25  696 697	 1492511545	 5024274	 226584.
10:32:25  697 698	 1492511545	 276149143	 271125.
10:32:25  698 699	 1492511545	 547057945	 270909.
10:32:25  699 700	 1492511545	 822308390	 275250.
10:32:26  700 701	 1492511546	 93846434	 271538.
10:32:26  701 702	 1492511546	 369632885	 275787.
10:32:26  702 703	 1492511546	 592093677	 222460.
10:32:26  703 704	 1492511546	 867570363	 275477.
10:32:27  704 705	 1492511547	 139079045	 271509.
10:32:27  705 706	 1492511547	 414677772	 275598.
10:32:27  706 707	 1492511547	 686379424	 271702.
10:32:27  707 708	 1492511547	 909270505	 222891.
10:32:28  708 709	 1492511548	 180356665	 271086.
10:32:28  709 710	 1492511548	 455392602	 275036.
10:32:28  710 711	 1492511548	 727175987	 271784.
10:32:28  711 712	 1492511549	 2935741	 275759.
10:32:29  712 713	 1492511549	 225350346	 222415.
10:32:29  713 714	 1492511549	 495995313	 270645.
10:32:29  714 715	 1492511549	 771297194	 275302.
10:32:30  715 716	 1492511550	 43380811	 272083.
10:32:30  716 717	 1492511550	 319239798	 275859.
10:32:30  717 718	 1492511550	 541443690	 222204.
10:32:30  718 719	 1492511550	 812890152	 271447.
10:32:31  719 720	 1492511551	 84555611	 271665.
10:32:31  720 721	 1492511551	 360333742	 275778.
10:32:31  721 722	 1492511551	 631755132	 271422.
10:32:31  722 723	 1492511551	 907705883	 275951.
10:32:32  723 724	 1492511552	 178533142	 270827.
10:32:32  724 725	 1492511552	 400774619	 222241.
10:32:32  725 726	 1492511552	 676756956	 275983.
10:32:32  726 727	 1492511552	 948777093	 272020.
10:32:33  727 728	 1492511553	 220442109	 271665.
10:32:33  728 729	 1492511553	 495949080	 275507.
10:32:33  729 730	 1492511553	 771776912	 275828.
10:32:33  730 731	 1492511553	 994693659	 222916.
10:32:34  731 732	 1492511554	 266680084	 271987.
10:32:34  732 733	 1492511554	 542175298	 275495.
10:32:34  733 734	 1492511554	 813358190	 271183.
10:32:35  734 735	 1492511555	 89117549	 275759.
10:32:35  735 736	 1492511555	 361167385	 272050.
10:32:35  736 737	 1492511555	 632747393	 271580.
10:32:35  737 738	 1492511555	 909223519	 276476.
10:32:36  738 739	 1492511556	 180722716	 271499.
10:32:36  739 740	 1492511556	 403670435	 222948.
10:32:36  740 741	 1492511556	 679220635	 275550.
10:32:36  741 742	 1492511556	 950698916	 271479.
10:32:37  742 743	 1492511557	 226920679	 276221.
10:32:37  743 744	 1492511557	 498764393	 271844.
10:32:37  744 745	 1492511557	 774967430	 276203.
10:32:38  745 746	 1492511558	 46704080	 271737.
10:32:38  746 747	 1492511558	 322782730	 276078.
10:32:38  747 748	 1492511558	 545657660	 222875.
10:32:38  748 749	 1492511558	 817369989	 271713.
10:32:39  749 750	 1492511559	 88062361	 270692.
10:32:39  750 751	 1492511559	 362789743	 274727.
10:32:39  751 752	 1492511559	 634087841	 271299.
10:32:39  752 753	 1492511559	 904939088	 270851.
10:32:40  753 754	 1492511560	 128114670	 223175.
10:32:40  754 755	 1492511560	 404304736	 276190.
10:32:40  755 756	 1492511560	 676132829	 271829.
10:32:40  756 757	 1492511560	 952048855	 275915.
10:32:41  757 758	 1492511561	 223700429	 271652.
10:32:41  758 759	 1492511561	 495753498	 272053.
10:32:41  759 760	 1492511561	 771163558	 275410.
10:32:42  760 761	 1492511562	 42561368	 271398.
10:32:42  761 762	 1492511562	 265507146	 222946.
10:32:42  762 763	 1492511562	 541240124	 275733.
10:32:42  763 764	 1492511562	 813036942	 271797.
10:32:43  764 765	 1492511563	 88553466	 275516.
10:32:43  765 766	 1492511563	 360502140	 271949.
10:32:43  766 767	 1492511563	 636529395	 276027.
10:32:43  767 768	 1492511563	 908527759	 271998.
10:32:44  768 769	 1492511564	 180098451	 271571.
10:32:44  769 770	 1492511564	 456220206	 276122.
10:32:44  770 771	 1492511564	 678929679	 222709.
10:32:44  771 772	 1492511564	 950619628	 271690.
10:32:45  772 773	 1492511565	 226085514	 275466.
10:32:45  773 774	 1492511565	 502051739	 275966.
10:32:45  774 775	 1492511565	 773523006	 271472.
10:32:45  775 776	 1492511565	 996514066	 222991.
10:32:46  776 777	 1492511566	 272486479	 275972.
10:32:46  777 778	 1492511566	 544664339	 272178.
10:32:46  778 779	 1492511566	 816806231	 272142.
10:32:47  779 780	 1492511567	 93565832	 276760.
10:32:47  780 781	 1492511567	 370052253	 276486.
10:32:47  781 782	 1492511567	 641920122	 271868.
10:32:47  782 783	 1492511567	 914043744	 272123.
10:32:48  783 784	 1492511568	 189680208	 275637.
10:32:48  784 785	 1492511568	 461932691	 272252.
10:32:48  785 786	 1492511568	 688789017	 226857.
10:32:48  786 787	 1492511568	 960551256	 271762.
10:32:49  787 788	 1492511569	 236270640	 275719.
10:32:49  788 789	 1492511569	 508145736	 271875.
10:32:49  789 790	 1492511569	 730587705	 222442.
10:32:50  790 791	 1492511570	 6586728	 275999.
10:32:50  791 792	 1492511570	 283374111	 276788.
10:32:50  792 793	 1492511570	 555973111	 272599.
10:32:50  793 794	 1492511570	 832587142	 276614.
10:32:51  794 795	 1492511571	 104562247	 271975.
10:32:51  795 796	 1492511571	 380553543	 275991.
10:32:51  796 797	 1492511571	 652590731	 272037.
10:32:51  797 798	 1492511571	 929540618	 276950.
10:32:52  798 799	 1492511572	 201514487	 271974.
10:32:52  799 800	 1492511572	 424213532	 222699.
10:32:52  800 801	 1492511572	 700151099	 275938.
10:32:52  801 802	 1492511572	 972030986	 271880.
10:32:53  802 803	 1492511573	 247960967	 275930.
10:32:53  803 804	 1492511573	 519979107	 272018.
10:32:53  804 805	 1492511573	 791868569	 271889.
10:32:54  805 806	 1492511574	 68137172	 276269.
10:32:54  806 807	 1492511574	 291171693	 223034.
10:32:54  807 808	 1492511574	 567342625	 276171.
10:32:54  808 809	 1492511574	 838871445	 271529.
10:32:55  809 810	 1492511575	 114873205	 276002.
10:32:55  810 811	 1492511575	 386610370	 271737.
10:32:55  811 812	 1492511575	 609175968	 222566.
10:32:55  812 813	 1492511575	 884572279	 275396.
10:32:56  813 814	 1492511576	 156321044	 271749.
10:32:56  814 815	 1492511576	 432209170	 275888.
10:32:56  815 816	 1492511576	 654413950	 222205.
10:32:56  816 817	 1492511576	 925837819	 271423.
10:32:57  817 818	 1492511577	 201547877	 275710.
10:32:57  818 819	 1492511577	 473559575	 272012.
10:32:57  819 820	 1492511577	 749791408	 276232.
10:32:58  820 821	 1492511578	 22210026	 272419.
10:32:58  821 822	 1492511578	 244634171	 222424.
10:32:58  822 823	 1492511578	 520536818	 275903.
10:32:58  823 824	 1492511578	 792667982	 272131.
10:32:59  824 825	 1492511579	 68456918	 275789.
10:32:59  825 826	 1492511579	 339850413	 271393.
10:32:59  826 827	 1492511579	 615723061	 275873.
10:32:59  827 828	 1492511579	 838754798	 223031.
10:33:00  828 829	 1492511580	 110144921	 271391.
10:33:00  829 830	 1492511580	 385855829	 275710.
10:33:00  830 831	 1492511580	 661887757	 276032.
10:33:00  831 832	 1492511580	 933682017	 271795.
10:33:01  832 833	 1492511581	 155771557	 222089.
10:33:01  833 834	 1492511581	 426780571	 271009.
10:33:01  834 835	 1492511581	 701811335	 275031.
10:33:01  835 836	 1492511581	 973154296	 271343.
10:33:02  836 837	 1492511582	 248317719	 275163.
10:33:02  837 838	 1492511582	 519245174	 270928.
10:33:02  838 839	 1492511582	 790180690	 270935.
10:33:03  839 840	 1492511583	 12435677	 222255.
10:33:03  840 841	 1492511583	 283579217	 271144.
10:33:03  841 842	 1492511583	 554696830	 271117.
10:33:03  842 843	 1492511583	 830058325	 275362.
10:33:04  843 844	 1492511584	 101380109	 271322.
10:33:04  844 845	 1492511584	 372906881	 271527.
10:33:04  845 846	 1492511584	 648425450	 275518.
10:33:04  846 847	 1492511584	 919814630	 271389.
10:33:05  847 848	 1492511585	 191317293	 271503.
10:33:05  848 849	 1492511585	 466522177	 275205.
10:33:05  849 850	 1492511585	 684905515	 218383.
10:33:05  850 851	 1492511585	 960386949	 275482.
10:33:06  851 852	 1492511586	 231988855	 271602.
10:33:06  852 853	 1492511586	 503728420	 271739.
10:33:06  853 854	 1492511586	 775286223	 271558.
10:33:07  854 855	 1492511587	 51462686	 276176.
10:33:07  855 856	 1492511587	 327230145	 275768.
10:33:07  856 857	 1492511587	 598861925	 271632.
10:33:07  857 858	 1492511587	 875203747	 276341.
10:33:08  858 859	 1492511588	 97760668	 222557.
10:33:08  859 860	 1492511588	 370086106	 272326.
10:33:08  860 861	 1492511588	 644859075	 274773.
10:33:08  861 862	 1492511588	 916071372	 271212.
10:33:09  862 863	 1492511589	 187375440	 271304.
10:33:09  863 864	 1492511589	 462962000	 275587.
10:33:09  864 865	 1492511589	 734627665	 271665.
10:33:10  865 866	 1492511590	 6887650	 272260.
10:33:10  866 867	 1492511590	 283232341	 276345.
10:33:10  867 868	 1492511590	 555120716	 271888.
10:33:10  868 869	 1492511590	 777339048	 222219.
10:33:11  869 870	 1492511591	 52177012	 274838.
10:33:11  870 871	 1492511591	 323107476	 270930.
10:33:11  871 872	 1492511591	 594913533	 271806.
10:33:11  872 873	 1492511591	 865693036	 270780.
10:33:12  873 874	 1492511592	 141447478	 275754.
10:33:12  874 875	 1492511592	 412927210	 271480.
10:33:12  875 876	 1492511592	 685270627	 272343.
10:33:12  876 877	 1492511592	 960753261	 275483.
10:33:13  877 878	 1492511593	 183229961	 222477.
10:33:13  878 879	 1492511593	 458556290	 275326.
10:33:13  879 880	 1492511593	 729704955	 271149.
10:33:14  880 881	 1492511594	 6025032	 276320.
10:33:14  881 882	 1492511594	 278167428	 272142.
10:33:14  882 883	 1492511594	 554540162	 276373.
10:33:14  883 884	 1492511594	 777370981	 222831.
10:33:15  884 885	 1492511595	 53315858	 275945.
10:33:15  885 886	 1492511595	 325434412	 272118.
10:33:15  886 887	 1492511595	 601605967	 276172.
10:33:15  887 888	 1492511595	 874105209	 272499.
10:33:16  888 889	 1492511596	 150394453	 276289.
10:33:16  889 890	 1492511596	 426684025	 276290.
10:33:16  890 891	 1492511596	 698457421	 271773.
10:33:16  891 892	 1492511596	 921423126	 222966.
10:33:17  892 893	 1492511597	 197955607	 276532.
10:33:17  893 894	 1492511597	 469964092	 272009.
10:33:17  894 895	 1492511597	 746319939	 276356.
10:33:18  895 896	 1492511598	 18553424	 272233.
10:33:18  896 897	 1492511598	 295241015	 276688.
10:33:18  897 898	 1492511598	 571830378	 276589.
10:33:18  898 899	 1492511598	 844618963	 272789.
10:33:19  899 900	 1492511599	 121354987	 276736.
10:33:19  900 901	 1492511599	 393466934	 272112.
10:33:19  901 902	 1492511599	 669681634	 276214.
10:33:19  902 903	 1492511599	 946541844	 276860.
10:33:20  903 904	 1492511600	 219106502	 272565.
10:33:20  904 905	 1492511600	 496125356	 277019.
10:33:20  905 906	 1492511600	 769211283	 273086.
10:33:21  906 907	 1492511601	 46022037	 276811.
10:33:21  907 908	 1492511601	 322899306	 276877.
10:33:21  908 909	 1492511601	 595943024	 273044.
10:33:21  909 910	 1492511601	 872690604	 276747.
10:33:22  910 911	 1492511602	 145465307	 272775.
10:33:22  911 912	 1492511602	 422336186	 276871.
10:33:22  912 913	 1492511602	 695376541	 273040.
10:33:22  913 914	 1492511602	 971529068	 276153.
10:33:23  914 915	 1492511603	 243809814	 272280.
10:33:23  915 916	 1492511603	 520386866	 276578.
10:33:23  916 917	 1492511603	 797410650	 277023.
10:33:24  917 918	 1492511604	 70197492	 272787.
10:33:24  918 919	 1492511604	 347160140	 276963.
10:33:24  919 920	 1492511604	 623710818	 276551.
10:33:24  920 921	 1492511604	 895939363	 272228.
10:33:25  921 922	 1492511605	 172442834	 276504.
10:33:25  922 923	 1492511605	 444804823	 272362.
10:33:25  923 924	 1492511605	 721227385	 276422.
10:33:25  924 925	 1492511605	 993561671	 272334.
10:33:26  925 926	 1492511606	 216476209	 222915.
10:33:26  926 927	 1492511606	 492601795	 276125.
10:33:26  927 928	 1492511606	 764741440	 272140.
10:33:27  928 929	 1492511607	 41173091	 276432.
10:33:27  929 930	 1492511607	 317465666	 276292.
10:33:27  930 931	 1492511607	 589732992	 272268.
10:33:27  931 932	 1492511607	 866248429	 276515.
10:33:28  932 933	 1492511608	 138698176	 272450.
10:33:28  933 934	 1492511608	 415022375	 276324.
10:33:28  934 935	 1492511608	 687572909	 272551.
10:33:28  935 936	 1492511608	 963761756	 276188.
10:33:29  936 937	 1492511609	 236097168	 272336.
10:33:29  937 938	 1492511609	 512500349	 276403.
10:33:29  938 939	 1492511609	 788979469	 276479.
10:33:30  939 940	 1492511610	 7944174	 218965.
10:33:30  940 941	 1492511610	 284101599	 276157.
10:33:30  941 942	 1492511610	 556506475	 272405.
10:33:30  942 943	 1492511610	 832991241	 276485.
10:33:31  943 944	 1492511611	 109031906	 276041.
10:33:31  944 945	 1492511611	 385162360	 276130.
10:33:31  945 946	 1492511611	 657312932	 272151.
10:33:31  946 947	 1492511611	 933407490	 276094.
10:33:32  947 948	 1492511612	 205505399	 272098.
10:33:32  948 949	 1492511612	 428499209	 222994.
10:33:32  949 950	 1492511612	 704915233	 276416.
10:33:32  950 951	 1492511612	 977081569	 272166.
10:33:33  951 952	 1492511613	 253011853	 275931.
10:33:33  952 953	 1492511613	 524518710	 271506.
10:33:33  953 954	 1492511613	 800422720	 275904.
10:33:34  954 955	 1492511614	 72396674	 271974.
10:33:34  955 956	 1492511614	 344404441	 272008.
10:33:34  956 957	 1492511614	 620214971	 275811.
10:33:34  957 958	 1492511614	 892110241	 271895.
10:33:35  958 959	 1492511615	 114506454	 222396.
10:33:35  959 960	 1492511615	 385571662	 271065.
10:33:35  960 961	 1492511615	 661008562	 275437.
10:33:35  961 962	 1492511615	 932225620	 271217.
10:33:36  962 963	 1492511616	 203701368	 271476.
10:33:36  963 964	 1492511616	 479301256	 275600.
10:33:36  964 965	 1492511616	 750777782	 271476.
10:33:37  965 966	 1492511617	 22429309	 271652.
10:33:37  966 967	 1492511617	 297928540	 275499.
10:33:37  967 968	 1492511617	 569608716	 271680.
10:33:37  968 969	 1492511617	 840667604	 271059.
10:33:38  969 970	 1492511618	 62846544	 222179.
10:33:38  970 971	 1492511618	 338114336	 275268.
10:33:38  971 972	 1492511618	 609206341	 271092.
10:33:38  972 973	 1492511618	 880422645	 271216.
10:33:39  973 974	 1492511619	 156388321	 275966.
10:33:39  974 975	 1492511619	 428961084	 272573.
10:33:39  975 976	 1492511619	 704872133	 275911.
10:33:39  976 977	 1492511619	 976599406	 271727.
10:33:40  977 978	 1492511620	 247968693	 271369.
10:33:40  978 979	 1492511620	 523654151	 275686.
10:33:40  979 980	 1492511620	 794924417	 271270.
10:33:41  980 981	 1492511621	 70852220	 275928.
10:33:41  981 982	 1492511621	 342919304	 272067.
10:33:41  982 983	 1492511621	 619233203	 276314.
10:33:41  983 984	 1492511621	 841197815	 221965.
10:33:42  984 985	 1492511622	 112805209	 271607.
10:33:42  985 986	 1492511622	 383930153	 271125.
10:33:42  986 987	 1492511622	 659494024	 275564.
10:33:42  987 988	 1492511622	 931345974	 271852.
10:33:43  988 989	 1492511623	 207640815	 276294.
10:33:43  989 990	 1492511623	 479329949	 271690.
10:33:43  990 991	 1492511623	 702036260	 222706.
10:33:43  991 992	 1492511623	 977886054	 275850.
10:33:44  992 993	 1492511624	 250088828	 272202.
10:33:44  993 994	 1492511624	 526502833	 276414.
10:33:44  994 995	 1492511624	 798373217	 271871.
10:33:45  995 996	 1492511625	 74380495	 276007.
10:33:45  996 997	 1492511625	 296436000	 222056.
10:33:45  997 998	 1492511625	 572029545	 275593.
10:33:45  998 999	 1492511625	 847376711	 275347.
10:33:46  999 1000	 1492511626	 69756451	 222380.
10:33:46 1000 1001	 1492511626	 341030206	 271274.
10:33:46 1001 1002	 1492511626	 616268501	 275238.
10:33:46 1002 1003	 1492511626	 838563393	 222295.
10:33:47 1003 1004	 1492511627	 110115446	 271552.
10:33:47 1004 1005	 1492511627	 385682594	 275567.
10:33:47 1005 1006	 1492511627	 607706792	 222024.
10:33:47 1006 1007	 1492511627	 878745031	 271039.
10:33:48 1007 1008	 1492511628	 154830251	 276085.
10:33:48 1008 1009	 1492511628	 426473709	 271643.
10:33:48 1009 1010	 1492511628	 649077807	 222604.
10:33:48 1010 1011	 1492511628	 925201673	 276124.
10:33:49 1011 1012	 1492511629	 196771721	 271570.
10:33:49 1012 1013	 1492511629	 473051577	 276280.
10:33:49 1013 1014	 1492511629	 749087073	 276036.
10:33:50 1014 1015	 1492511630	 21060633	 271973.
10:33:50 1015 1016	 1492511630	 243443209	 222383.
10:33:50 1016 1017	 1492511630	 518723705	 275280.
10:33:50 1017 1018	 1492511630	 793935604	 275212.
10:33:51 1018 1019	 1492511631	 16583654	 222648.
10:33:51 1019 1020	 1492511631	 288389037	 271806.
10:33:51 1020 1021	 1492511631	 563984073	 275595.
10:33:51 1021 1022	 1492511631	 834825046	 270841.
10:33:52 1022 1023	 1492511632	 110064527	 275239.
10:33:52 1023 1024	 1492511632	 381730040	 271666.
10:33:52 1024 1025	 1492511632	 653223960	 271494.
10:33:52 1025 1026	 1492511632	 924458361	 271234.
10:33:53 1026 1027	 1492511633	 199383497	 274925.
10:33:53 1027 1028	 1492511633	 421515183	 222132.
10:33:53 1028 1029	 1492511633	 692700776	 271186.
10:33:53 1029 1030	 1492511633	 963998676	 271297.
10:33:54 1030 1031	 1492511634	 235088657	 271090.
10:33:54 1031 1032	 1492511634	 510142796	 275054.
10:33:54 1032 1033	 1492511634	 781284411	 271142.
10:33:55 1033 1034	 1492511635	 52206622	 270922.
10:33:55 1034 1035	 1492511635	 274561512	 222355.
10:33:55 1035 1036	 1492511635	 545479019	 270918.
10:33:55 1036 1037	 1492511635	 816400697	 270921.
10:33:56 1037 1038	 1492511636	 92083929	 275684.
10:33:56 1038 1039	 1492511636	 363399063	 271315.
10:33:56 1039 1040	 1492511636	 638774250	 275375.
10:33:56 1040 1041	 1492511636	 910337381	 271563.
10:33:57 1041 1042	 1492511637	 181451814	 271114.
10:33:57 1042 1043	 1492511637	 403825552	 222374.
10:33:57 1043 1044	 1492511637	 674666847	 270842.
10:33:57 1044 1045	 1492511637	 950268436	 275601.
10:33:58 1045 1046	 1492511638	 221472281	 271204.
10:33:58 1046 1047	 1492511638	 497385055	 275913.
10:33:58 1047 1048	 1492511638	 769639035	 272254.
10:33:59 1048 1049	 1492511639	 46333718	 276694.
10:33:59 1049 1050	 1492511639	 269472000	 223139.
10:33:59 1050 1051	 1492511639	 545650447	 276178.
10:33:59 1051 1052	 1492511639	 817948573	 272298.
10:34:00 1052 1053	 1492511640	 94062624	 276114.
10:34:00 1053 1054	 1492511640	 366512936	 272451.
10:34:00 1054 1055	 1492511640	 643268977	 276756.
10:34:00 1055 1056	 1492511640	 915939763	 272670.
10:34:01 1056 1057	 1492511641	 187190586	 271251.
10:34:01 1057 1058	 1492511641	 462560130	 275370.
10:34:01 1058 1059	 1492511641	 733657567	 271097.
10:34:02 1059 1060	 1492511642	 4695166	 271038.
10:34:02 1060 1061	 1492511642	 226772801	 222077.
10:34:02 1061 1062	 1492511642	 497845143	 271073.
10:34:02 1062 1063	 1492511642	 773241169	 275396.
10:34:03 1063 1064	 1492511643	 44450603	 271209.
10:34:03 1064 1065	 1492511643	 315691735	 271241.
10:34:03 1065 1066	 1492511643	 590657998	 274967.
10:34:03 1066 1067	 1492511643	 861557459	 270899.
10:34:04 1067 1068	 1492511644	 84566927	 223010.
10:34:04 1068 1069	 1492511644	 405659116	 321092.
10:34:04 1069 1070	 1492511644	 628536810	 222877.
10:34:04 1070 1071	 1492511644	 903983505	 275447.
10:34:05 1071 1072	 1492511645	 179371023	 275388.
10:34:05 1072 1073	 1492511645	 450602544	 271231.
10:34:05 1073 1074	 1492511645	 725849326	 275247.
10:34:05 1074 1075	 1492511645	 997161608	 271312.
10:34:06 1075 1076	 1492511646	 268381486	 271220.
10:34:06 1076 1077	 1492511646	 543361857	 274981.
10:34:06 1077 1078	 1492511646	 765208606	 221846.
10:34:07 1078 1079	 1492511647	 36353873	 271146.
10:34:07 1079 1080	 1492511647	 308165752	 271811.
10:34:07 1080 1081	 1492511647	 583605028	 275440.
10:34:07 1081 1082	 1492511647	 855864166	 272259.
10:34:08 1082 1083	 1492511648	 131848372	 275984.
10:34:08 1083 1084	 1492511648	 404291504	 272443.
10:34:08 1084 1085	 1492511648	 680031480	 275740.
10:34:08 1085 1086	 1492511648	 902570301	 222539.
10:34:09 1086 1087	 1492511649	 173983329	 271413.
10:34:09 1087 1088	 1492511649	 446249527	 272266.
10:34:09 1088 1089	 1492511649	 722443634	 276194.
10:34:09 1089 1090	 1492511649	 994448674	 272005.
10:34:10 1090 1091	 1492511650	 269871117	 275423.
10:34:10 1091 1092	 1492511650	 541683953	 271813.
10:34:10 1092 1093	 1492511650	 813610620	 271926.
10:34:11 1093 1094	 1492511651	 36273003	 222663.
10:34:11 1094 1095	 1492511651	 312011171	 275738.
10:34:11 1095 1096	 1492511651	 583978972	 271968.
10:34:11 1096 1097	 1492511651	 860149852	 276170.
10:34:12 1097 1098	 1492511652	 131859592	 271710.
10:34:12 1098 1099	 1492511652	 354822967	 222964.
10:34:12 1099 1100	 1492511652	 630979973	 276157.
10:34:12 1100 1101	 1492511652	 903130838	 272150.
10:34:13 1101 1102	 1492511653	 178996349	 275866.
10:34:13 1102 1103	 1492511653	 450718085	 271722.
10:34:13 1103 1104	 1492511653	 726507471	 275789.
10:34:14 1104 1105	 1492511654	 2262970	 275756.
10:34:14 1105 1106	 1492511654	 224599923	 222337.
10:34:14 1106 1107	 1492511654	 495796232	 271196.
10:34:14 1107 1108	 1492511654	 767471122	 271675.
10:34:15 1108 1109	 1492511655	 43512691	 276041.
10:34:15 1109 1110	 1492511655	 315256926	 271745.
10:34:15 1110 1111	 1492511655	 591508890	 276252.
10:34:15 1111 1112	 1492511655	 863386869	 271878.
10:34:16 1112 1113	 1492511656	 90347774	 226960.
10:34:16 1113 1114	 1492511656	 361840307	 271493.
10:34:16 1114 1115	 1492511656	 634129530	 272289.
10:34:16 1115 1116	 1492511656	 910262309	 276133.
10:34:17 1116 1117	 1492511657	 186272648	 276010.
10:34:17 1117 1118	 1492511657	 457444950	 271173.
10:34:17 1118 1119	 1492511657	 680618602	 223173.
10:34:17 1119 1120	 1492511657	 952309198	 271691.
10:34:18 1120 1121	 1492511658	 228690251	 276381.
10:34:18 1121 1122	 1492511658	 504731697	 276042.
10:34:18 1122 1123	 1492511658	 776879767	 272147.
10:34:19 1123 1124	 1492511659	 52834703	 275955.
10:34:19 1124 1125	 1492511659	 324763869	 271930.
10:34:19 1125 1126	 1492511659	 547420834	 222656.
10:34:19 1126 1127	 1492511659	 823351322	 275931.
10:34:20 1127 1128	 1492511660	 99288643	 275937.
10:34:20 1128 1129	 1492511660	 370880786	 271592.
10:34:20 1129 1130	 1492511660	 593878104	 222998.
10:34:20 1130 1131	 1492511660	 870173727	 276295.
