16:51:32    0 Step	 time(s)	 time(ns)	 delta(ms)
16:51:32    0 1	 1492447892	 164295094	 49991.
16:51:32    1 2	 1492447892	 386870610	 222575.
16:51:32    2 3	 1492447892	 663245924	 276376.
16:51:32    3 4	 1492447892	 939160807	 275915.
16:51:33    4 5	 1492447893	 211165643	 272004.
16:51:33    5 6	 1492447893	 487350666	 276185.
16:51:33    6 7	 1492447893	 710045865	 222696.
16:51:33    7 8	 1492447893	 981356192	 271310.
16:51:34    8 9	 1492447894	 256951989	 275596.
16:51:34    9 10	 1492447894	 479407838	 222455.
16:51:34   10 11	 1492447894	 755776435	 276369.
16:51:35   11 12	 1492447895	 27497908	 271722.
16:51:35   12 13	 1492447895	 303139514	 275641.
16:51:35   13 14	 1492447895	 574818043	 271679.
16:51:35   14 15	 1492447895	 797660567	 222842.
16:51:36   15 16	 1492447896	 73621230	 275961.
16:51:36   16 17	 1492447896	 345320440	 271699.
16:51:36   17 18	 1492447896	 621165832	 275846.
16:51:36   18 19	 1492447896	 843435575	 222269.
16:51:37   19 20	 1492447897	 115095360	 271660.
16:51:37   20 21	 1492447897	 390771583	 275676.
16:51:37   21 22	 1492447897	 667016307	 276245.
16:51:37   22 23	 1492447897	 889936375	 222920.
16:51:38   23 24	 1492447898	 162021801	 272086.
16:51:38   24 25	 1492447898	 438086650	 276064.
16:51:38   25 26	 1492447898	 710082448	 271996.
16:51:38   26 27	 1492447898	 985513153	 275431.
16:51:39   27 28	 1492447899	 207846414	 222333.
16:51:39   28 29	 1492447899	 480254899	 272409.
16:51:39   29 30	 1492447899	 756316956	 276062.
16:51:40   30 31	 1492447900	 31947069	 275630.
16:51:40   31 32	 1492447900	 254750358	 222803.
16:51:40   32 33	 1492447900	 526681461	 271931.
16:51:40   33 34	 1492447900	 798385987	 271705.
16:51:41   34 35	 1492447901	 74295557	 275909.
16:51:41   35 36	 1492447901	 350302554	 276007.
16:51:41   36 37	 1492447901	 573180596	 222878.
16:51:41   37 38	 1492447901	 845372505	 272192.
16:51:42   38 39	 1492447902	 121263933	 275892.
16:51:42   39 40	 1492447902	 393031243	 271767.
16:51:42   40 41	 1492447902	 669073281	 276042.
16:51:42   41 42	 1492447902	 891672411	 222599.
16:51:43   42 43	 1492447903	 167553402	 275881.
16:51:43   43 44	 1492447903	 443249174	 275696.
16:51:43   44 45	 1492447903	 719024498	 275775.
16:51:43   45 46	 1492447903	 941971936	 222948.
16:51:44   46 47	 1492447904	 213392354	 271420.
16:51:44   47 48	 1492447904	 488914981	 275523.
16:51:44   48 49	 1492447904	 711579827	 222665.
16:51:44   49 50	 1492447904	 987334103	 275754.
16:51:45   50 51	 1492447905	 259242658	 271908.
16:51:45   51 52	 1492447905	 534612123	 275370.
16:51:45   52 53	 1492447905	 757262745	 222650.
16:51:46   53 54	 1492447906	 28928736	 271666.
16:51:46   54 55	 1492447906	 304174622	 275246.
16:51:46   55 56	 1492447906	 579904300	 275730.
16:51:46   56 57	 1492447906	 798409764	 218505.
16:51:47   57 58	 1492447907	 74079247	 275670.
16:51:47   58 59	 1492447907	 349845768	 275766.
16:51:47   59 60	 1492447907	 621970324	 272125.
16:51:47   60 61	 1492447907	 844681605	 222711.
16:51:48   61 62	 1492447908	 120174262	 275493.
16:51:48   62 63	 1492447908	 392031319	 271857.
16:51:48   63 64	 1492447908	 667206723	 275175.
16:51:48   64 65	 1492447908	 889690372	 222484.
16:51:49   65 66	 1492447909	 165554298	 275864.
16:51:49   66 67	 1492447909	 436440243	 270886.
16:51:49   67 68	 1492447909	 712431076	 275991.
16:51:49   68 69	 1492447909	 934684935	 222254.
16:51:50   69 70	 1492447910	 206351473	 271666.
16:51:50   70 71	 1492447910	 481535375	 275184.
16:51:50   71 72	 1492447910	 704536236	 223001.
16:51:50   72 73	 1492447910	 976135129	 271599.
16:51:51   73 74	 1492447911	 251367685	 275232.
16:51:51   74 75	 1492447911	 523193146	 271826.
16:51:51   75 76	 1492447911	 746183606	 222990.
16:51:52   76 77	 1492447912	 21926539	 275743.
16:51:52   77 78	 1492447912	 294231606	 272305.
16:51:52   78 79	 1492447912	 569702227	 275471.
16:51:52   79 80	 1492447912	 792194329	 222492.
16:51:53   80 81	 1492447913	 63753329	 271559.
16:51:53   81 82	 1492447913	 339123219	 275370.
16:51:53   82 83	 1492447913	 610410887	 271288.
16:51:53   83 84	 1492447913	 890149701	 279738.
16:51:54   84 85	 1492447914	 270955870	 380807.
16:51:54   85 86	 1492447914	 605789843	 334834.
16:51:54   86 87	 1492447914	 987393452	 381603.
16:51:55   87 88	 1492447915	 265866952	 278474.
16:51:55   88 89	 1492447915	 575701734	 309834.
16:51:55   89 90	 1492447915	 849161060	 273460.
16:51:56   90 91	 1492447916	 126820368	 277659.
16:51:56   91 92	 1492447916	 453142436	 326322.
16:51:56   92 93	 1492447916	 726713152	 273571.
16:51:57   93 94	 1492447917	 48516216	 321803.
16:51:57   94 95	 1492447917	 325231044	 276715.
16:51:57   95 96	 1492447917	 598070739	 272840.
16:51:57   96 97	 1492447917	 874628634	 276557.
16:51:58   97 98	 1492447918	 196682127	 322054.
16:51:58   98 99	 1492447918	 526485310	 329803.
16:51:59   99 100	 1492447919	 73587766	 547102.
16:51:59  100 101	 1492447919	 617614953	 544028.
16:52:00  101 102	 1492447920	 165672945	 548058.
16:52:00  102 103	 1492447920	 815390738	 649717.
16:52:01  103 104	 1492447921	 363181823	 547792.
16:52:01  104 105	 1492447921	 911357823	 548176.
16:52:02  105 106	 1492447922	 620412302	 709054.
16:52:03  106 107	 1492447923	 168342862	 547931.
16:52:03  107 108	 1492447923	 712260476	 543917.
16:52:04  108 109	 1492447924	 260731002	 548471.
16:52:04  109 110	 1492447924	 915520971	 654790.
16:52:05  110 111	 1492447925	 459461355	 543940.
16:52:06  111 112	 1492447926	 8585509	 549124.
16:52:06  112 113	 1492447926	 387058022	 378473.
16:52:06  113 114	 1492447926	 609204406	 222146.
16:52:06  114 115	 1492447926	 880509950	 271306.
16:52:07  115 116	 1492447927	 156763856	 276254.
16:52:07  116 117	 1492447927	 432858392	 276094.
16:52:07  117 118	 1492447927	 689421254	 256563.
16:52:07  118 119	 1492447927	 964974363	 275553.
16:52:08  119 120	 1492447928	 187478483	 222504.
16:52:08  120 121	 1492447928	 458835788	 271358.
16:52:08  121 122	 1492447928	 734879469	 276043.
16:52:09  122 123	 1492447929	 6564819	 271686.
16:52:09  123 124	 1492447929	 228575664	 222010.
16:52:09  124 125	 1492447929	 499192823	 270618.
16:52:09  125 126	 1492447929	 773874364	 274681.
16:52:10  126 127	 1492447930	 44738814	 270864.
16:52:10  127 128	 1492447930	 315463232	 270725.
16:52:10  128 129	 1492447930	 537301851	 221839.
16:52:10  129 130	 1492447930	 812430094	 275128.
16:52:11  130 131	 1492447931	 84525103	 272095.
16:52:11  131 132	 1492447931	 360480433	 275955.
16:52:11  132 133	 1492447931	 632858846	 272379.
16:52:11  133 134	 1492447931	 909028068	 276169.
16:52:12  134 135	 1492447932	 132080512	 223052.
16:52:12  135 136	 1492447932	 404305282	 272225.
16:52:12  136 137	 1492447932	 680609170	 276304.
16:52:12  137 138	 1492447932	 952684692	 272076.
16:52:13  138 139	 1492447933	 228361036	 275676.
16:52:13  139 140	 1492447933	 504341919	 275981.
16:52:13  140 141	 1492447933	 722811510	 218469.
16:52:13  141 142	 1492447933	 998248653	 275437.
16:52:14  142 143	 1492447934	 273302635	 275054.
16:52:14  143 144	 1492447934	 491375793	 218074.
16:52:14  144 145	 1492447934	 766925667	 275549.
16:52:15  145 146	 1492447935	 42134402	 275209.
16:52:15  146 147	 1492447935	 314048178	 271914.
16:52:15  147 148	 1492447935	 536941750	 222893.
16:52:15  148 149	 1492447935	 812535547	 275594.
16:52:16  149 150	 1492447936	 83159571	 270624.
16:52:16  150 151	 1492447936	 305504433	 222345.
16:52:16  151 152	 1492447936	 581253473	 275749.
16:52:16  152 153	 1492447936	 857012943	 275760.
16:52:17  153 154	 1492447937	 128395554	 271382.
16:52:17  154 155	 1492447937	 399939615	 271544.
16:52:17  155 156	 1492447937	 622267905	 222329.
16:52:17  156 157	 1492447937	 897946457	 275678.
16:52:18  157 158	 1492447938	 169095962	 271150.
16:52:18  158 159	 1492447938	 392145462	 223049.
16:52:18  159 160	 1492447938	 664098702	 271953.
16:52:18  160 161	 1492447938	 939945027	 275847.
16:52:19  161 162	 1492447939	 215385173	 275440.
16:52:19  162 163	 1492447939	 437528977	 222144.
16:52:19  163 164	 1492447939	 708721018	 271192.
16:52:19  164 165	 1492447939	 984048298	 275327.
16:52:20  165 166	 1492447940	 255508835	 271460.
16:52:20  166 167	 1492447940	 478230245	 222722.
16:52:20  167 168	 1492447940	 754147813	 275918.
16:52:21  168 169	 1492447941	 25690241	 271542.
16:52:21  169 170	 1492447941	 301735943	 276046.
16:52:21  170 171	 1492447941	 577604144	 275868.
16:52:21  171 172	 1492447941	 800321076	 222717.
16:52:22  172 173	 1492447942	 71585340	 271264.
16:52:22  173 174	 1492447942	 347728887	 276144.
16:52:22  174 175	 1492447942	 619094184	 271365.
16:52:22  175 176	 1492447942	 841101711	 222007.
16:52:23  176 177	 1492447943	 116546469	 275445.
16:52:23  177 178	 1492447943	 338835729	 222289.
16:52:23  178 179	 1492447943	 610679431	 271844.
16:52:23  179 180	 1492447943	 886342377	 275663.
16:52:24  180 181	 1492447944	 157785909	 271444.
16:52:24  181 182	 1492447944	 380206491	 222420.
16:52:24  182 183	 1492447944	 656209505	 276003.
16:52:24  183 184	 1492447944	 931520064	 275311.
16:52:25  184 185	 1492447945	 153863000	 222343.
16:52:25  185 186	 1492447945	 424874189	 271011.
16:52:25  186 187	 1492447945	 700767954	 275894.
16:52:25  187 188	 1492447945	 972273646	 271505.
16:52:26  188 189	 1492447946	 194433247	 222160.
16:52:26  189 190	 1492447946	 469937166	 275504.
16:52:26  190 191	 1492447946	 741365761	 271428.
16:52:27  191 192	 1492447947	 17094719	 275729.
16:52:27  192 193	 1492447947	 398109547	 381015.
16:52:27  193 194	 1492447947	 669933270	 271824.
16:52:27  194 195	 1492447947	 892228949	 222296.
16:52:28  195 196	 1492447948	 167844385	 275615.
16:52:28  196 197	 1492447948	 439097846	 271254.
16:52:28  197 198	 1492447948	 714629390	 275531.
16:52:28  198 199	 1492447948	 986081312	 271452.
16:52:29  199 200	 1492447949	 208409985	 222329.
16:52:29  200 201	 1492447949	 479715573	 271305.
16:52:29  201 202	 1492447949	 754949188	 275234.
16:52:30  202 203	 1492447950	 26649984	 271701.
16:52:30  203 204	 1492447950	 302254462	 275604.
16:52:30  204 205	 1492447950	 524373430	 222119.
16:52:30  205 206	 1492447950	 796178853	 271806.
16:52:31  206 207	 1492447951	 67710769	 271532.
16:52:31  207 208	 1492447951	 343150342	 275439.
16:52:31  208 209	 1492447951	 614616917	 271467.
16:52:31  209 210	 1492447951	 886080539	 271463.
16:52:32  210 211	 1492447952	 112607584	 226527.
16:52:32  211 212	 1492447952	 384294063	 271687.
16:52:32  212 213	 1492447952	 660264916	 275971.
16:52:32  213 214	 1492447952	 932123717	 271858.
16:52:33  214 215	 1492447953	 154691495	 222568.
16:52:33  215 216	 1492447953	 430458099	 275767.
16:52:33  216 217	 1492447953	 702011931	 271554.
16:52:33  217 218	 1492447953	 977253923	 275242.
16:52:34  218 219	 1492447954	 195759528	 218505.
16:52:34  219 220	 1492447954	 471109691	 275350.
16:52:34  220 221	 1492447954	 746814660	 275705.
16:52:35  221 222	 1492447955	 18343294	 271529.
16:52:35  222 223	 1492447955	 240880267	 222537.
16:52:35  223 224	 1492447955	 512476601	 271596.
16:52:35  224 225	 1492447955	 787942777	 275466.
16:52:36  225 226	 1492447956	 9937908	 221996.
16:52:36  226 227	 1492447956	 280688339	 270750.
16:52:36  227 228	 1492447956	 555401089	 274713.
16:52:36  228 229	 1492447956	 826762593	 271361.
16:52:37  229 230	 1492447957	 49155924	 222394.
16:52:37  230 231	 1492447957	 325555808	 276400.
16:52:37  231 232	 1492447957	 597447937	 271892.
16:52:37  232 233	 1492447957	 872697954	 275250.
16:52:38  233 234	 1492447958	 144376200	 271678.
16:52:38  234 235	 1492447958	 420149967	 275774.
16:52:38  235 236	 1492447958	 639353457	 219203.
16:52:38  236 237	 1492447958	 915694479	 276341.
16:52:39  237 238	 1492447959	 191504352	 275810.
16:52:39  238 239	 1492447959	 463711115	 272207.
16:52:39  239 240	 1492447959	 739548613	 275837.
16:52:40  240 241	 1492447960	 10898561	 271350.
16:52:40  241 242	 1492447960	 233010076	 222112.
16:52:40  242 243	 1492447960	 503948089	 270938.
16:52:40  243 244	 1492447960	 775342578	 271394.
16:52:41  244 245	 1492447961	 50800997	 275459.
16:52:41  245 246	 1492447961	 322321385	 271520.
16:52:41  246 247	 1492447961	 593711424	 271390.
16:52:41  247 248	 1492447961	 865022306	 271311.
16:52:42  248 249	 1492447962	 140024583	 275002.
16:52:42  249 250	 1492447962	 362992774	 222968.
16:52:42  250 251	 1492447962	 634586066	 271594.
16:52:42  251 252	 1492447962	 909467049	 274881.
16:52:43  252 253	 1492447963	 180308633	 270841.
16:52:43  253 254	 1492447963	 451794022	 271486.
16:52:43  254 255	 1492447963	 722835837	 271042.
16:52:43  255 256	 1492447963	 944904950	 222069.
16:52:44  256 257	 1492447964	 215815008	 270910.
16:52:44  257 258	 1492447964	 490690554	 274875.
16:52:44  258 259	 1492447964	 761203865	 270514.
16:52:44  259 260	 1492447964	 983135846	 221932.
16:52:45  260 261	 1492447965	 257894916	 274759.
16:52:45  261 262	 1492447965	 528612377	 270717.
16:52:45  262 263	 1492447965	 803485626	 274873.
16:52:46  263 264	 1492447966	 25468729	 221983.
16:52:46  264 265	 1492447966	 296268122	 270800.
16:52:46  265 266	 1492447966	 567249043	 270981.
16:52:46  266 267	 1492447966	 842515383	 275266.
16:52:47  267 268	 1492447967	 64374745	 221859.
16:52:47  268 269	 1492447967	 335979575	 271605.
16:52:47  269 270	 1492447967	 607491979	 271513.
16:52:47  270 271	 1492447967	 878785298	 271293.
16:52:48  271 272	 1492447968	 153873585	 275088.
16:52:48  272 273	 1492447968	 424710338	 270837.
16:52:48  273 274	 1492447968	 646669746	 221959.
16:52:48  274 275	 1492447968	 918302713	 271633.
16:52:49  275 276	 1492447969	 189295666	 270993.
16:52:49  276 277	 1492447969	 464569142	 275274.
16:52:49  277 278	 1492447969	 735420532	 270851.
16:52:50  278 279	 1492447970	 6742471	 271322.
16:52:50  279 280	 1492447970	 229072876	 222331.
16:52:50  280 281	 1492447970	 504312992	 275240.
16:52:50  281 282	 1492447970	 775822775	 271509.
16:52:51  282 283	 1492447971	 46793993	 270972.
16:52:51  283 284	 1492447971	 321671586	 274877.
16:52:51  284 285	 1492447971	 593083253	 271412.
16:52:51  285 286	 1492447971	 815131329	 222048.
16:52:52  286 287	 1492447972	 86061254	 270930.
16:52:52  287 288	 1492447972	 357286536	 271225.
16:52:52  288 289	 1492447972	 632634151	 275348.
16:52:52  289 290	 1492447972	 903935452	 271301.
16:52:53  290 291	 1492447973	 125923695	 221988.
16:52:53  291 292	 1492447973	 401381745	 275458.
16:52:53  292 293	 1492447973	 672518947	 271138.
16:52:53  293 294	 1492447973	 943494750	 270975.
16:52:54  294 295	 1492447974	 213782997	 270289.
16:52:54  295 296	 1492447974	 435161831	 221379.
16:52:54  296 297	 1492447974	 709758851	 274597.
16:52:54  297 298	 1492447974	 980633418	 270874.
16:52:55  298 299	 1492447975	 202443595	 221810.
16:52:55  299 300	 1492447975	 473127550	 270684.
16:52:55  300 301	 1492447975	 744227531	 271100.
16:52:56  301 302	 1492447976	 19196010	 274969.
16:52:56  302 303	 1492447976	 290098712	 270902.
16:52:56  303 304	 1492447976	 512060753	 221962.
16:52:56  304 305	 1492447976	 783236557	 271176.
16:52:57  305 306	 1492447977	 57785772	 274549.
16:52:57  306 307	 1492447977	 328510183	 270725.
16:52:57  307 308	 1492447977	 550696908	 222187.
16:52:57  308 309	 1492447977	 822181815	 271485.
16:52:58  309 310	 1492447978	 92703241	 270521.
16:52:58  310 311	 1492447978	 367620792	 274918.
16:52:58  311 312	 1492447978	 638845143	 271224.
16:52:58  312 313	 1492447978	 861201131	 222356.
16:52:59  313 314	 1492447979	 132262482	 271061.
16:52:59  314 315	 1492447979	 403328351	 271066.
16:52:59  315 316	 1492447979	 678029824	 274702.
16:52:59  316 317	 1492447979	 949111758	 271081.
16:53:00  317 318	 1492447980	 220187048	 271076.
16:53:00  318 319	 1492447980	 442124766	 221937.
16:53:00  319 320	 1492447980	 712541749	 270417.
16:53:00  320 321	 1492447980	 987037854	 274497.
16:53:01  321 322	 1492447981	 257423320	 270385.
16:53:01  322 323	 1492447981	 479380499	 221957.
16:53:01  323 324	 1492447981	 750287823	 270908.
16:53:02  324 325	 1492447982	 25368736	 275081.
16:53:02  325 326	 1492447982	 296252309	 270883.
16:53:02  326 327	 1492447982	 567588686	 271336.
16:53:02  327 328	 1492447982	 842874232	 275286.
16:53:03  328 329	 1492447983	 60622989	 217749.
16:53:03  329 330	 1492447983	 335886957	 275264.
16:53:03  330 331	 1492447983	 606882764	 270995.
16:53:03  331 332	 1492447983	 878172932	 271291.
16:53:04  332 333	 1492447984	 149317610	 271144.
16:53:04  333 334	 1492447984	 424470365	 275153.
16:53:04  334 335	 1492447984	 696188941	 271719.
16:53:04  335 336	 1492447984	 966972362	 270783.
16:53:05  336 337	 1492447985	 188717583	 221745.
16:53:05  337 338	 1492447985	 463717225	 275000.
16:53:05  338 339	 1492447985	 734855095	 271138.
16:53:06  339 340	 1492447986	 10364393	 275509.
16:53:06  340 341	 1492447986	 281186671	 270822.
16:53:06  341 342	 1492447986	 552596139	 271410.
16:53:06  342 343	 1492447986	 774537181	 221941.
16:53:07  343 344	 1492447987	 45621605	 271084.
16:53:07  344 345	 1492447987	 316533025	 270912.
16:53:07  345 346	 1492447987	 591542040	 275009.
16:53:07  346 347	 1492447987	 862754170	 271212.
16:53:08  347 348	 1492447988	 133746856	 270993.
16:53:08  348 349	 1492447988	 408814807	 275068.
16:53:08  349 350	 1492447988	 631284962	 222470.
16:53:08  350 351	 1492447988	 902953265	 271668.
16:53:09  351 352	 1492447989	 174381407	 271428.
16:53:09  352 353	 1492447989	 446023594	 271642.
16:53:09  353 354	 1492447989	 717392116	 271369.
16:53:09  354 355	 1492447989	 992976434	 275584.
16:53:10  355 356	 1492447990	 263929484	 270953.
16:53:10  356 357	 1492447990	 534929370	 271000.
16:53:10  357 358	 1492447990	 809794780	 274865.
16:53:11  358 359	 1492447991	 32130263	 222336.
16:53:11  359 360	 1492447991	 303632360	 271502.
16:53:11  360 361	 1492447991	 574728974	 271097.
16:53:11  361 362	 1492447991	 846287434	 271558.
16:53:12  362 363	 1492447992	 121918557	 275631.
16:53:12  363 364	 1492447992	 392534309	 270616.
16:53:12  364 365	 1492447992	 668418322	 275884.
16:53:12  365 366	 1492447992	 891213013	 222795.
16:53:13  366 367	 1492447993	 166897266	 275684.
16:53:13  367 368	 1492447993	 438231686	 271334.
16:53:13  368 369	 1492447993	 710008351	 271777.
16:53:13  369 370	 1492447993	 986292734	 276284.
16:53:14  370 371	 1492447994	 209066663	 222774.
16:53:14  371 372	 1492447994	 481088446	 272022.
16:53:14  372 373	 1492447994	 756412308	 275324.
16:53:15  373 374	 1492447995	 27992356	 271580.
16:53:15  374 375	 1492447995	 303821959	 275830.
16:53:15  375 376	 1492447995	 525962605	 222140.
16:53:15  376 377	 1492447995	 797013303	 271051.
16:53:16  377 378	 1492447996	 72211215	 275198.
16:53:16  378 379	 1492447996	 294592989	 222382.
16:53:16  379 380	 1492447996	 565631219	 271038.
16:53:16  380 381	 1492447996	 841574852	 275944.
16:53:17  381 382	 1492447997	 113274960	 271700.
16:53:17  382 383	 1492447997	 335808527	 222533.
16:53:17  383 384	 1492447997	 611741287	 275933.
16:53:17  384 385	 1492447997	 883364736	 271623.
16:53:18  385 386	 1492447998	 159244977	 275881.
16:53:18  386 387	 1492447998	 381639210	 222394.
16:53:18  387 388	 1492447998	 653798925	 272160.
16:53:18  388 389	 1492447998	 929487305	 275688.
16:53:19  389 390	 1492447999	 201463977	 271977.
16:53:19  390 391	 1492447999	 476962447	 275498.
16:53:19  391 392	 1492447999	 699772565	 222811.
16:53:19  392 393	 1492447999	 971475732	 271702.
16:53:20  393 394	 1492448000	 247037745	 275562.
16:53:20  394 395	 1492448000	 518593475	 271556.
16:53:20  395 396	 1492448000	 740481708	 221888.
16:53:21  396 397	 1492448001	 16064347	 275583.
16:53:21  397 398	 1492448001	 287680073	 271616.
16:53:21  398 399	 1492448001	 509833851	 222154.
16:53:21  399 400	 1492448001	 785551852	 275718.
16:53:22  400 401	 1492448002	 57194256	 271642.
16:53:22  401 402	 1492448002	 333115280	 275921.
16:53:22  402 403	 1492448002	 555775911	 222661.
16:53:22  403 404	 1492448002	 827129205	 271353.
16:53:23  404 405	 1492448003	 103009289	 275880.
16:53:23  405 406	 1492448003	 378693671	 275684.
16:53:23  406 407	 1492448003	 600915627	 222222.
16:53:23  407 408	 1492448003	 872424273	 271509.
16:53:24  408 409	 1492448004	 148165764	 275741.
16:53:24  409 410	 1492448004	 370349189	 222184.
16:53:24  410 411	 1492448004	 641718391	 271369.
16:53:24  411 412	 1492448004	 912931666	 271213.
16:53:25  412 413	 1492448005	 188642023	 275711.
16:53:25  413 414	 1492448005	 411119550	 222477.
16:53:25  414 415	 1492448005	 682997175	 271878.
16:53:25  415 416	 1492448005	 958212471	 275215.
16:53:26  416 417	 1492448006	 233506344	 275294.
16:53:26  417 418	 1492448006	 455950775	 222444.
16:53:26  418 419	 1492448006	 727666312	 271716.
16:53:26  419 420	 1492448006	 999483257	 271817.
16:53:27  420 421	 1492448007	 275044436	 275561.
16:53:27  421 422	 1492448007	 497486555	 222442.
16:53:27  422 423	 1492448007	 773157509	 275671.
16:53:28  423 424	 1492448008	 44661741	 271504.
16:53:28  424 425	 1492448008	 320266527	 275605.
16:53:28  425 426	 1492448008	 542985673	 222719.
16:53:28  426 427	 1492448008	 814460137	 271475.
16:53:29  427 428	 1492448009	 89773482	 275313.
16:53:29  428 429	 1492448009	 361107513	 271334.
16:53:29  429 430	 1492448009	 583699433	 222592.
16:53:29  430 431	 1492448009	 855106499	 271407.
16:53:30  431 432	 1492448010	 130571791	 275465.
16:53:30  432 433	 1492448010	 402258341	 271687.
16:53:30  433 434	 1492448010	 677850743	 275592.
16:53:30  434 435	 1492448010	 896199798	 218350.
16:53:31  435 436	 1492448011	 171402906	 275203.
16:53:31  436 437	 1492448011	 447142218	 275739.
16:53:31  437 438	 1492448011	 718952767	 271810.
16:53:31  438 439	 1492448011	 941421374	 222469.
16:53:32  439 440	 1492448012	 212943878	 271523.
16:53:32  440 441	 1492448012	 488183411	 275239.
16:53:32  441 442	 1492448012	 760245130	 272062.
16:53:33  442 443	 1492448013	 36201665	 275956.
16:53:33  443 444	 1492448013	 254718743	 218518.
16:53:33  444 445	 1492448013	 530678982	 275960.
16:53:33  445 446	 1492448013	 801875460	 271196.
16:53:34  446 447	 1492448014	 77487376	 275612.
16:53:34  447 448	 1492448014	 348758368	 271271.
16:53:34  448 449	 1492448014	 571235294	 222477.
16:53:34  449 450	 1492448014	 847402037	 276167.
16:53:35  450 451	 1492448015	 118736341	 271334.
16:53:35  451 452	 1492448015	 394274443	 275538.
16:53:35  452 453	 1492448015	 665138538	 270864.
16:53:35  453 454	 1492448015	 935924058	 270786.
16:53:36  454 455	 1492448016	 157927225	 222003.
16:53:36  455 456	 1492448016	 433291495	 275364.
16:53:36  456 457	 1492448016	 704097421	 270806.
16:53:36  457 458	 1492448016	 974795026	 270698.
16:53:37  458 459	 1492448017	 249632249	 274837.
16:53:37  459 460	 1492448017	 471409492	 221777.
16:53:37  460 461	 1492448017	 742243311	 270834.
16:53:38  461 462	 1492448018	 17155398	 274912.
16:53:38  462 463	 1492448018	 288060387	 270905.
16:53:38  463 464	 1492448018	 559222994	 271163.
16:53:38  464 465	 1492448018	 834986771	 275764.
16:53:39  465 466	 1492448019	 53522705	 218535.
16:53:39  466 467	 1492448019	 329029250	 275507.
16:53:39  467 468	 1492448019	 605021030	 275992.
16:53:39  468 469	 1492448019	 876418083	 271397.
16:53:40  469 470	 1492448020	 151613371	 275195.
16:53:40  470 471	 1492448020	 374545185	 222932.
16:53:40  471 472	 1492448020	 646504744	 271959.
16:53:40  472 473	 1492448020	 922222493	 275718.
16:53:41  473 474	 1492448021	 193960558	 271738.
16:53:41  474 475	 1492448021	 465066372	 271106.
16:53:41  475 476	 1492448021	 740717759	 275651.
16:53:41  476 477	 1492448021	 963645043	 222928.
16:53:42  477 478	 1492448022	 239665533	 276020.
16:53:42  478 479	 1492448022	 515664007	 275999.
16:53:42  479 480	 1492448022	 787250634	 271586.
16:53:43  480 481	 1492448023	 63045783	 275795.
16:53:43  481 482	 1492448023	 285532069	 222487.
16:53:43  482 483	 1492448023	 561032280	 275500.
16:53:43  483 484	 1492448023	 832988144	 271956.
16:53:44  484 485	 1492448024	 108582649	 275594.
16:53:44  485 486	 1492448024	 331251767	 222669.
16:53:44  486 487	 1492448024	 603129138	 271878.
16:53:44  487 488	 1492448024	 878806917	 275678.
16:53:45  488 489	 1492448025	 150280435	 271473.
16:53:45  489 490	 1492448025	 425839160	 275559.
16:53:45  490 491	 1492448025	 648640436	 222801.
16:53:45  491 492	 1492448025	 920428372	 271788.
16:53:46  492 493	 1492448026	 195688387	 275260.
16:53:46  493 494	 1492448026	 466881281	 271193.
16:53:46  494 495	 1492448026	 737954669	 271073.
16:53:47  495 496	 1492448027	 14125597	 276171.
16:53:47  496 497	 1492448027	 236780215	 222655.
16:53:47  497 498	 1492448027	 507804340	 271024.
16:53:47  498 499	 1492448027	 783324785	 275520.
16:53:48  499 500	 1492448028	 6188792	 222865.
16:53:48  500 501	 1492448028	 281845526	 275656.
16:53:48  501 502	 1492448028	 553368872	 271524.
16:53:48  502 503	 1492448028	 829023770	 275654.
16:53:49  503 504	 1492448029	 51399932	 222377.
16:53:49  504 505	 1492448029	 322874016	 271474.
16:53:49  505 506	 1492448029	 598846100	 275972.
16:53:49  506 507	 1492448029	 874579832	 275734.
16:53:50  507 508	 1492448030	 96598091	 222018.
16:53:50  508 509	 1492448030	 367865578	 271267.
16:53:50  509 510	 1492448030	 643518912	 275654.
16:53:50  510 511	 1492448030	 861602001	 218083.
16:53:51  511 512	 1492448031	 137248760	 275646.
16:53:51  512 513	 1492448031	 409248784	 272001.
16:53:51  513 514	 1492448031	 685009367	 275760.
16:53:51  514 515	 1492448031	 907199188	 222190.
16:53:52  515 516	 1492448032	 178396613	 271197.
16:53:52  516 517	 1492448032	 453873275	 275477.
16:53:52  517 518	 1492448032	 676506730	 222633.
16:53:52  518 519	 1492448032	 951742823	 275237.
16:53:53  519 520	 1492448033	 223433308	 271690.
16:53:53  520 521	 1492448033	 445742471	 222309.
16:53:53  521 522	 1492448033	 716586909	 270845.
16:53:53  522 523	 1492448033	 991225343	 274638.
16:53:54  523 524	 1492448034	 263071326	 271846.
16:53:54  524 525	 1492448034	 485585290	 222514.
16:53:54  525 526	 1492448034	 761244760	 275659.
16:53:55  526 527	 1492448035	 32589387	 271345.
16:53:55  527 528	 1492448035	 308209269	 275620.
16:53:55  528 529	 1492448035	 530699872	 222491.
16:53:55  529 530	 1492448035	 802581517	 271881.
16:53:56  530 531	 1492448036	 74088607	 271507.
16:53:56  531 532	 1492448036	 349622241	 275534.
16:53:56  532 533	 1492448036	 572134408	 222512.
16:53:56  533 534	 1492448036	 847544035	 275410.
16:53:57  534 535	 1492448037	 119277474	 271733.
16:53:57  535 536	 1492448037	 391064892	 271788.
16:53:57  536 537	 1492448037	 666457547	 275392.
16:53:57  537 538	 1492448037	 884810712	 218353.
16:53:58  538 539	 1492448038	 160751770	 275941.
16:53:58  539 540	 1492448038	 432636125	 271885.
16:53:58  540 541	 1492448038	 703958207	 271322.
16:53:58  541 542	 1492448038	 979223986	 275266.
16:53:59  542 543	 1492448039	 250250542	 271026.
16:53:59  543 544	 1492448039	 472088299	 221838.
16:53:59  544 545	 1492448039	 743387386	 271299.
16:54:00  545 546	 1492448040	 14547371	 271160.
16:54:00  546 547	 1492448040	 289361043	 274814.
16:54:00  547 548	 1492448040	 560147730	 270786.
16:54:00  548 549	 1492448040	 831109489	 270962.
16:54:01  549 550	 1492448041	 105873382	 274764.
16:54:01  550 551	 1492448041	 323731526	 217858.
16:54:01  551 552	 1492448041	 598839407	 275108.
16:54:01  552 553	 1492448041	 870094177	 271255.
16:54:02  553 554	 1492448042	 141365841	 271272.
16:54:02  554 555	 1492448042	 416437340	 275071.
16:54:02  555 556	 1492448042	 687830144	 271393.
16:54:02  556 557	 1492448042	 959128671	 271298.
16:54:03  557 558	 1492448043	 230323208	 271195.
16:54:03  558 559	 1492448043	 452745413	 222422.
16:54:03  559 560	 1492448043	 727842773	 275097.
16:54:03  560 561	 1492448043	 998894869	 271053.
16:54:04  561 562	 1492448044	 270188090	 271293.
16:54:04  562 563	 1492448044	 541346021	 271158.
16:54:04  563 564	 1492448044	 816401374	 275055.
16:54:05  564 565	 1492448045	 38289480	 221888.
16:54:05  565 566	 1492448045	 309310774	 271021.
16:54:05  566 567	 1492448045	 584692786	 275383.
16:54:05  567 568	 1492448045	 856524727	 271831.
16:54:06  568 569	 1492448046	 128236513	 271712.
16:54:06  569 570	 1492448046	 399789102	 271553.
16:54:06  570 571	 1492448046	 675317463	 275528.
16:54:06  571 572	 1492448046	 946444790	 271128.
16:54:07  572 573	 1492448047	 221750379	 275305.
16:54:07  573 574	 1492448047	 492607238	 270857.
16:54:07  574 575	 1492448047	 714878006	 222271.
16:54:07  575 576	 1492448047	 985787274	 270909.
16:54:08  576 577	 1492448048	 257152102	 271365.
16:54:08  577 578	 1492448048	 532136635	 274984.
16:54:08  578 579	 1492448048	 803809979	 271674.
16:54:09  579 580	 1492448049	 79494162	 275684.
16:54:09  580 581	 1492448049	 350939737	 271445.
16:54:09  581 582	 1492448049	 573456699	 222517.
16:54:09  582 583	 1492448049	 845043859	 271588.
16:54:10  583 584	 1492448050	 120993225	 275949.
16:54:10  584 585	 1492448050	 392358190	 271365.
16:54:10  585 586	 1492448050	 663933020	 271575.
16:54:10  586 587	 1492448050	 939696832	 275764.
16:54:11  587 588	 1492448051	 215618331	 275921.
16:54:11  588 589	 1492448051	 433449176	 217831.
16:54:11  589 590	 1492448051	 704786319	 271337.
16:54:11  590 591	 1492448051	 979833274	 275047.
16:54:12  591 592	 1492448052	 250318584	 270485.
16:54:12  592 593	 1492448052	 520306943	 269989.
16:54:12  593 594	 1492448052	 742539258	 222232.
16:54:13  594 595	 1492448053	 17978903	 275440.
16:54:13  595 596	 1492448053	 289532168	 271553.
16:54:13  596 597	 1492448053	 561331817	 271800.
16:54:13  597 598	 1492448053	 837470462	 276138.
16:54:14  598 599	 1492448054	 60455649	 222985.
16:54:14  599 600	 1492448054	 332031998	 271577.
16:54:14  600 601	 1492448054	 607265440	 275233.
16:54:14  601 602	 1492448054	 877887932	 270623.
16:54:15  602 603	 1492448055	 148933035	 271045.
16:54:15  603 604	 1492448055	 423852105	 274919.
16:54:15  604 605	 1492448055	 645506548	 221654.
16:54:15  605 606	 1492448055	 916794563	 271288.
16:54:16  606 607	 1492448056	 192575046	 275781.
16:54:16  607 608	 1492448056	 464246395	 271671.
16:54:16  608 609	 1492448056	 740559825	 276314.
16:54:16  609 610	 1492448056	 963519975	 222960.
16:54:17  610 611	 1492448057	 235856962	 272337.
16:54:17  611 612	 1492448057	 511988189	 276131.
16:54:17  612 613	 1492448057	 783892532	 271904.
16:54:18  613 614	 1492448058	 59865993	 275974.
16:54:18  614 615	 1492448058	 332015168	 272149.
16:54:18  615 616	 1492448058	 603835380	 271820.
16:54:18  616 617	 1492448058	 879927992	 276093.
16:54:19  617 618	 1492448059	 155777721	 275850.
16:54:19  618 619	 1492448059	 378533906	 222756.
16:54:19  619 620	 1492448059	 649922343	 271388.
16:54:19  620 621	 1492448059	 925084464	 275162.
16:54:20  621 622	 1492448060	 196549202	 271465.
16:54:20  622 623	 1492448060	 418781633	 222232.
16:54:20  623 624	 1492448060	 690136549	 271355.
16:54:20  624 625	 1492448060	 966301468	 276165.
16:54:21  625 626	 1492448061	 237594697	 271293.
16:54:21  626 627	 1492448061	 464117187	 226523.
16:54:21  627 628	 1492448061	 735372381	 271255.
16:54:22  628 629	 1492448062	 7394686	 272022.
16:54:22  629 630	 1492448062	 282939006	 275545.
16:54:22  630 631	 1492448062	 505709098	 222770.
16:54:22  631 632	 1492448062	 781194139	 275485.
16:54:23  632 633	 1492448063	 52534514	 271340.
16:54:23  633 634	 1492448063	 328788711	 276254.
16:54:23  634 635	 1492448063	 604879349	 276091.
16:54:23  635 636	 1492448063	 827243880	 222365.
16:54:24  636 637	 1492448064	 99398951	 272155.
16:54:24  637 638	 1492448064	 374925280	 275526.
16:54:24  638 639	 1492448064	 646486541	 271561.
16:54:24  639 640	 1492448064	 869152148	 222666.
16:54:25  640 641	 1492448065	 144719381	 275567.
16:54:25  641 642	 1492448065	 415825583	 271106.
16:54:25  642 643	 1492448065	 642537669	 226712.
16:54:25  643 644	 1492448065	 914269556	 271732.
16:54:26  644 645	 1492448066	 190061320	 275792.
16:54:26  645 646	 1492448066	 461708345	 271647.
16:54:26  646 647	 1492448066	 737859703	 276151.
16:54:26  647 648	 1492448066	 960664778	 222805.
16:54:27  648 649	 1492448067	 232498387	 271834.
16:54:27  649 650	 1492448067	 508485555	 275987.
16:54:27  650 651	 1492448067	 780487445	 272002.
16:54:27  651 652	 1492448068	 3327104	 222840.
16:54:28  652 653	 1492448068	 279211518	 275884.
16:54:28  653 654	 1492448068	 550983593	 271772.
16:54:28  654 655	 1492448068	 826867441	 275884.
16:54:29  655 656	 1492448069	 49593720	 222726.
16:54:29  656 657	 1492448069	 321608418	 272015.
16:54:29  657 658	 1492448069	 597466192	 275858.
16:54:29  658 659	 1492448069	 872804837	 275339.
16:54:30  659 660	 1492448070	 95222538	 222417.
16:54:30  660 661	 1492448070	 366781103	 271559.
16:54:30  661 662	 1492448070	 642370126	 275589.
16:54:30  662 663	 1492448070	 913318864	 270949.
16:54:31  663 664	 1492448071	 134993146	 221674.
16:54:31  664 665	 1492448071	 405652960	 270660.
16:54:31  665 666	 1492448071	 676470063	 270817.
16:54:31  666 667	 1492448071	 951091949	 274622.
16:54:32  667 668	 1492448072	 168494795	 217403.
16:54:32  668 669	 1492448072	 443276152	 274781.
16:54:32  669 670	 1492448072	 715406317	 272130.
16:54:32  670 671	 1492448072	 990785343	 275379.
16:54:33  671 672	 1492448073	 213276116	 222491.
16:54:33  672 673	 1492448073	 489137452	 275861.
16:54:33  673 674	 1492448073	 760804950	 271668.
16:54:34  674 675	 1492448074	 36930289	 276125.
16:54:34  675 676	 1492448074	 259912830	 222982.
16:54:34  676 677	 1492448074	 531589400	 271677.
16:54:34  677 678	 1492448074	 807661118	 276072.
16:54:35  678 679	 1492448075	 79258885	 271598.
16:54:35  679 680	 1492448075	 354808715	 275549.
16:54:35  680 681	 1492448075	 577905665	 223097.
16:54:35  681 682	 1492448075	 849066753	 271161.
16:54:36  682 683	 1492448076	 124981620	 275915.
16:54:36  683 684	 1492448076	 396674141	 271693.
16:54:36  684 685	 1492448076	 619360140	 222686.
16:54:36  685 686	 1492448076	 895111418	 275751.
16:54:37  686 687	 1492448077	 166438083	 271327.
16:54:37  687 688	 1492448077	 388570783	 222132.
16:54:37  688 689	 1492448077	 663750163	 275180.
16:54:37  689 690	 1492448077	 939390982	 275641.
16:54:38  690 691	 1492448078	 161627800	 222236.
16:54:38  691 692	 1492448078	 433424430	 271797.
16:54:38  692 693	 1492448078	 709084930	 275661.
16:54:38  693 694	 1492448078	 980740849	 271656.
16:54:39  694 695	 1492448079	 202561469	 221820.
16:54:39  695 696	 1492448079	 477914755	 275353.
16:54:39  696 697	 1492448079	 749526245	 271612.
16:54:39  697 698	 1492448079	 976496250	 226970.
16:54:40  698 699	 1492448080	 248579131	 272083.
16:54:40  699 700	 1492448080	 525097588	 276518.
16:54:40  700 701	 1492448080	 796964499	 271867.
16:54:41  701 702	 1492448081	 72982581	 276018.
16:54:41  702 703	 1492448081	 344359797	 271378.
16:54:41  703 704	 1492448081	 566662897	 222303.
16:54:41  704 705	 1492448081	 842841658	 276178.
16:54:42  705 706	 1492448082	 114084437	 271243.
16:54:42  706 707	 1492448082	 390038663	 275954.
16:54:42  707 708	 1492448082	 662280313	 272242.
16:54:42  708 709	 1492448082	 938455964	 276176.
16:54:43  709 710	 1492448083	 161301955	 222846.
16:54:43  710 711	 1492448083	 437566408	 276264.
16:54:43  711 712	 1492448083	 709338219	 271772.
16:54:43  712 713	 1492448083	 980872746	 271534.
16:54:44  713 714	 1492448084	 256601071	 275729.
16:54:44  714 715	 1492448084	 479320352	 222719.
16:54:44  715 716	 1492448084	 754800452	 275480.
16:54:45  716 717	 1492448085	 26092246	 271292.
16:54:45  717 718	 1492448085	 248203598	 222111.
16:54:45  718 719	 1492448085	 523402352	 275199.
16:54:45  719 720	 1492448085	 794787614	 271385.
16:54:46  720 721	 1492448086	 70697091	 275910.
16:54:46  721 722	 1492448086	 289143457	 218446.
16:54:46  722 723	 1492448086	 564671222	 275528.
16:54:46  723 724	 1492448086	 840033573	 275362.
16:54:47  724 725	 1492448087	 111567271	 271534.
16:54:47  725 726	 1492448087	 333826376	 222259.
16:54:47  726 727	 1492448087	 609242199	 275416.
16:54:47  727 728	 1492448087	 880625708	 271383.
16:54:48  728 729	 1492448088	 102850608	 222225.
16:54:48  729 730	 1492448088	 378584121	 275734.
16:54:48  730 731	 1492448088	 650013306	 271429.
16:54:48  731 732	 1492448088	 925693964	 275681.
16:54:49  732 733	 1492448089	 148381363	 222687.
16:54:49  733 734	 1492448089	 419894221	 271513.
16:54:49  734 735	 1492448089	 695788208	 275894.
16:54:49  735 736	 1492448089	 968006696	 272218.
16:54:50  736 737	 1492448090	 243567329	 275561.
16:54:50  737 738	 1492448090	 465851693	 222285.
16:54:50  738 739	 1492448090	 737607207	 271755.
16:54:51  739 740	 1492448091	 12972969	 275366.
16:54:51  740 741	 1492448091	 284605877	 271633.
16:54:51  741 742	 1492448091	 507183481	 222577.
16:54:51  742 743	 1492448091	 782883012	 275700.
16:54:52  743 744	 1492448092	 54564873	 271682.
16:54:52  744 745	 1492448092	 330311252	 275746.
16:54:52  745 746	 1492448092	 553200448	 222889.
16:54:52  746 747	 1492448092	 825118671	 271918.
16:54:53  747 748	 1492448093	 101162915	 276045.
16:54:53  748 749	 1492448093	 372773485	 271610.
16:54:53  749 750	 1492448093	 648671051	 275898.
16:54:53  750 751	 1492448093	 871369552	 222698.
16:54:54  751 752	 1492448094	 146820436	 275451.
16:54:54  752 753	 1492448094	 419051346	 272231.
16:54:54  753 754	 1492448094	 690516205	 271465.
16:54:54  754 755	 1492448094	 913436208	 222920.
16:54:55  755 756	 1492448095	 188930903	 275495.
16:54:55  756 757	 1492448095	 460806400	 271875.
16:54:55  757 758	 1492448095	 736407056	 275601.
16:54:55  758 759	 1492448095	 959067870	 222661.
16:54:56  759 760	 1492448096	 234348388	 275280.
16:54:56  760 761	 1492448096	 505906454	 271558.
16:54:56  761 762	 1492448096	 777087514	 271181.
16:54:56  762 763	 1492448096	 999905148	 222818.
16:54:57  763 764	 1492448097	 274868512	 274963.
16:54:57  764 765	 1492448097	 550221518	 275353.
16:54:57  765 766	 1492448097	 772469232	 222248.
16:54:58  766 767	 1492448098	 48230940	 275762.
16:54:58  767 768	 1492448098	 323773228	 275542.
16:54:58  768 769	 1492448098	 545986804	 222214.
16:54:58  769 770	 1492448098	 817978021	 271991.
16:54:59  770 771	 1492448099	 94148181	 276170.
16:54:59  771 772	 1492448099	 366283710	 272135.
16:54:59  772 773	 1492448099	 589136951	 222854.
16:54:59  773 774	 1492448099	 865182401	 276045.
16:55:00  774 775	 1492448100	 140185745	 275003.
16:55:00  775 776	 1492448100	 410852772	 270667.
16:55:00  776 777	 1492448100	 632874299	 222022.
16:55:00  777 778	 1492448100	 903571371	 270697.
16:55:01  778 779	 1492448101	 178278469	 274707.
16:55:01  779 780	 1492448101	 449297186	 271019.
16:55:01  780 781	 1492448101	 720677814	 271381.
16:55:01  781 782	 1492448101	 996087578	 275409.
16:55:02  782 783	 1492448102	 214151556	 218064.
16:55:02  783 784	 1492448102	 489474424	 275323.
16:55:02  784 785	 1492448102	 760926949	 271453.
16:55:03  785 786	 1492448103	 36195989	 275269.
16:55:03  786 787	 1492448103	 307081834	 270886.
16:55:03  787 788	 1492448103	 578214200	 271132.
16:55:03  788 789	 1492448103	 853490239	 275276.
16:55:04  789 790	 1492448104	 71377274	 217887.
16:55:04  790 791	 1492448104	 346414631	 275037.
16:55:04  791 792	 1492448104	 617688906	 271275.
16:55:04  792 793	 1492448104	 888569254	 270880.
16:55:05  793 794	 1492448105	 163647736	 275078.
16:55:05  794 795	 1492448105	 385695080	 222048.
16:55:05  795 796	 1492448105	 656628315	 270933.
16:55:05  796 797	 1492448105	 927541443	 270913.
16:55:06  797 798	 1492448106	 198683506	 271142.
16:55:06  798 799	 1492448106	 473848932	 275166.
16:55:06  799 800	 1492448106	 744918247	 271069.
16:55:07  800 801	 1492448107	 20337638	 275419.
16:55:07  801 802	 1492448107	 238836772	 218499.
16:55:07  802 803	 1492448107	 510635587	 271799.
16:55:07  803 804	 1492448107	 786014939	 275380.
16:55:08  804 805	 1492448108	 57225028	 271210.
16:55:08  805 806	 1492448108	 328682447	 271457.
16:55:08  806 807	 1492448108	 604113971	 275432.
16:55:08  807 808	 1492448108	 875667116	 271553.
16:55:09  808 809	 1492448109	 146851532	 271184.
16:55:09  809 810	 1492448109	 418185274	 271334.
16:55:09  810 811	 1492448109	 693662241	 275477.
16:55:09  811 812	 1492448109	 965180456	 271518.
16:55:10  812 813	 1492448110	 236623544	 271443.
16:55:10  813 814	 1492448110	 511862004	 275239.
16:55:10  814 815	 1492448110	 783137580	 271275.
16:55:11  815 816	 1492448111	 54327811	 271191.
16:55:11  816 817	 1492448111	 276772743	 222444.
16:55:11  817 818	 1492448111	 549283866	 272512.
16:55:11  818 819	 1492448111	 824633485	 275349.
16:55:12  819 820	 1492448112	 96338187	 271705.
16:55:12  820 821	 1492448112	 371991492	 275653.
16:55:12  821 822	 1492448112	 643237468	 271246.
16:55:12  822 823	 1492448112	 914295613	 271058.
16:55:13  823 824	 1492448113	 189680534	 275385.
16:55:13  824 825	 1492448113	 461288710	 271608.
16:55:13  825 826	 1492448113	 736921775	 275633.
16:55:14  826 827	 1492448114	 8995842	 272075.
16:55:14  827 828	 1492448114	 231957122	 222961.
16:55:14  828 829	 1492448114	 507713487	 275756.
16:55:14  829 830	 1492448114	 779043152	 271330.
16:55:15  830 831	 1492448115	 49625687	 270582.
16:55:15  831 832	 1492448115	 324401114	 274776.
16:55:15  832 833	 1492448115	 546377933	 221977.
16:55:15  833 834	 1492448115	 820905100	 274527.
16:55:16  834 835	 1492448116	 92201092	 271296.
16:55:16  835 836	 1492448116	 367218978	 275018.
16:55:16  836 837	 1492448116	 637998189	 270779.
16:55:16  837 838	 1492448116	 859900583	 221902.
16:55:17  838 839	 1492448117	 130909633	 271009.
16:55:17  839 840	 1492448117	 402326831	 271418.
16:55:17  840 841	 1492448117	 677389444	 275062.
16:55:17  841 842	 1492448117	 948399986	 271011.
16:55:18  842 843	 1492448118	 223610387	 275210.
16:55:18  843 844	 1492448118	 494582449	 270972.
16:55:18  844 845	 1492448118	 717167943	 222586.
16:55:18  845 846	 1492448118	 988331729	 271164.
16:55:19  846 847	 1492448119	 264226612	 275894.
16:55:19  847 848	 1492448119	 536232175	 272006.
16:55:19  848 849	 1492448119	 807698565	 271466.
16:55:20  849 850	 1492448120	 83075533	 275377.
16:55:20  850 851	 1492448120	 354452767	 271378.
16:55:20  851 852	 1492448120	 625985010	 271532.
16:55:20  852 853	 1492448120	 901978803	 275994.
16:55:21  853 854	 1492448121	 173833616	 271854.
16:55:21  854 855	 1492448121	 449824037	 275991.
16:55:21  855 856	 1492448121	 721754764	 271930.
16:55:21  856 857	 1492448121	 993164666	 271410.
16:55:22  857 858	 1492448122	 268807669	 275643.
16:55:22  858 859	 1492448122	 540190652	 271383.
16:55:22  859 860	 1492448122	 762611164	 222421.
16:55:23  860 861	 1492448123	 33873522	 271262.
16:55:23  861 862	 1492448123	 305032683	 271159.
16:55:23  862 863	 1492448123	 580010378	 274978.
16:55:23  863 864	 1492448123	 851561052	 271551.
16:55:24  864 865	 1492448124	 127285489	 275724.
16:55:24  865 866	 1492448124	 398840005	 271555.
16:55:24  866 867	 1492448124	 670497148	 271657.
16:55:24  867 868	 1492448124	 892881084	 222384.
16:55:25  868 869	 1492448125	 167901806	 275021.
16:55:25  869 870	 1492448125	 439197344	 271295.
16:55:25  870 871	 1492448125	 709959842	 270763.
16:55:25  871 872	 1492448125	 980457276	 270497.
16:55:26  872 873	 1492448126	 255360100	 274903.
16:55:26  873 874	 1492448126	 473454719	 218094.
16:55:26  874 875	 1492448126	 748688210	 275234.
16:55:27  875 876	 1492448127	 19351571	 270663.
16:55:27  876 877	 1492448127	 290138479	 270787.
16:55:27  877 878	 1492448127	 565164624	 275026.
16:55:27  878 879	 1492448127	 836469990	 271306.
16:55:28  879 880	 1492448128	 59003865	 222534.
16:55:28  880 881	 1492448128	 330004789	 271000.
16:55:28  881 882	 1492448128	 600983832	 270980.
16:55:28  882 883	 1492448128	 876560538	 275576.
16:55:29  883 884	 1492448129	 147653185	 271093.
16:55:29  884 885	 1492448129	 419194899	 271542.
16:55:29  885 886	 1492448129	 694761383	 275566.
16:55:29  886 887	 1492448129	 966311024	 271550.
16:55:30  887 888	 1492448130	 237631307	 271320.
16:55:30  888 889	 1492448130	 513261122	 275630.
16:55:30  889 890	 1492448130	 735909188	 222648.
16:55:31  890 891	 1492448131	 7513153	 271604.
16:55:31  891 892	 1492448131	 278568713	 271055.
16:55:31  892 893	 1492448131	 553861909	 275294.
16:55:31  893 894	 1492448131	 824745672	 270883.
16:55:32  894 895	 1492448132	 96024327	 271279.
16:55:32  895 896	 1492448132	 367495522	 271471.
16:55:32  896 897	 1492448132	 642944600	 275449.
16:55:32  897 898	 1492448132	 914091879	 271148.
16:55:33  898 899	 1492448133	 136526123	 222434.
16:55:33  899 900	 1492448133	 407643002	 271117.
16:55:33  900 901	 1492448133	 678909804	 271267.
16:55:33  901 902	 1492448133	 954574333	 275664.
16:55:34  902 903	 1492448134	 225919267	 271345.
16:55:34  903 904	 1492448134	 497352973	 271434.
16:55:34  904 905	 1492448134	 768530423	 271177.
16:55:35  905 906	 1492448135	 43894960	 275365.
16:55:35  906 907	 1492448135	 315042885	 271148.
16:55:35  907 908	 1492448135	 537090720	 222047.
16:55:35  908 909	 1492448135	 807854066	 270764.
16:55:36  909 910	 1492448136	 78530720	 270676.
16:55:36  910 911	 1492448136	 353595506	 275065.
16:55:36  911 912	 1492448136	 624657911	 271063.
16:55:36  912 913	 1492448136	 900446505	 275788.
16:55:37  913 914	 1492448137	 118969585	 218523.
16:55:37  914 915	 1492448137	 394895951	 275927.
16:55:37  915 916	 1492448137	 670814528	 275918.
16:55:37  916 917	 1492448137	 942250158	 271436.
16:55:38  917 918	 1492448138	 218169909	 275920.
16:55:38  918 919	 1492448138	 433073180	 214903.
16:55:38  919 920	 1492448138	 709259241	 276186.
16:55:38  920 921	 1492448138	 981570178	 272311.
16:55:39  921 922	 1492448139	 256914756	 275344.
16:55:39  922 923	 1492448139	 527799368	 270885.
16:55:39  923 924	 1492448139	 804272014	 276473.
16:55:40  924 925	 1492448140	 76123908	 271852.
16:55:40  925 926	 1492448140	 352012831	 275889.
16:55:40  926 927	 1492448140	 574436938	 222424.
16:55:40  927 928	 1492448140	 845918047	 271481.
16:55:41  928 929	 1492448141	 121514962	 275597.
16:55:41  929 930	 1492448141	 393231932	 271717.
16:55:41  930 931	 1492448141	 669105276	 275873.
16:55:41  931 932	 1492448141	 891758564	 222653.
16:55:42  932 933	 1492448142	 163461427	 271703.
16:55:42  933 934	 1492448142	 435249945	 271789.
16:55:42  934 935	 1492448142	 710796098	 275546.
16:55:42  935 936	 1492448142	 982132443	 271336.
16:55:43  936 937	 1492448143	 253277798	 271146.
16:55:43  937 938	 1492448143	 528339938	 275062.
16:55:43  938 939	 1492448143	 799442677	 271102.
16:55:44  939 940	 1492448144	 70702930	 271261.
16:55:44  940 941	 1492448144	 293128964	 222426.
16:55:44  941 942	 1492448144	 568284400	 275155.
16:55:44  942 943	 1492448144	 839584641	 271300.
16:55:45  943 944	 1492448145	 111370551	 271786.
16:55:45  944 945	 1492448145	 386602646	 275232.
16:55:45  945 946	 1492448145	 657910121	 271308.
16:55:45  946 947	 1492448145	 929588557	 271678.
16:55:46  947 948	 1492448146	 151937373	 222349.
16:55:46  948 949	 1492448146	 427179079	 275242.
16:55:46  949 950	 1492448146	 698400882	 271222.
16:55:46  950 951	 1492448146	 973725118	 275324.
16:55:47  951 952	 1492448147	 244904647	 271179.
16:55:47  952 953	 1492448147	 516856908	 271953.
16:55:47  953 954	 1492448147	 792775960	 275919.
16:55:48  954 955	 1492448148	 63829515	 271053.
16:55:48  955 956	 1492448148	 339339547	 275510.
16:55:48  956 957	 1492448148	 561695952	 222357.
16:55:48  957 958	 1492448148	 832982351	 271286.
16:55:49  958 959	 1492448149	 108339481	 275357.
16:55:49  959 960	 1492448149	 379356841	 271018.
16:55:49  960 961	 1492448149	 655425566	 276068.
16:55:49  961 962	 1492448149	 926908722	 271483.
16:55:50  962 963	 1492448150	 148902911	 221995.
16:55:50  963 964	 1492448150	 420402455	 271499.
16:55:50  964 965	 1492448150	 695894835	 275493.
16:55:50  965 966	 1492448150	 967387463	 271492.
16:55:51  966 967	 1492448151	 238878060	 271491.
16:55:51  967 968	 1492448151	 510266118	 271388.
16:55:51  968 969	 1492448151	 785558600	 275292.
16:55:52  969 970	 1492448152	 56913297	 271355.
16:55:52  970 971	 1492448152	 279383582	 222470.
16:55:52  971 972	 1492448152	 551002706	 271619.
16:55:52  972 973	 1492448152	 826607257	 275605.
16:55:53  973 974	 1492448153	 97934323	 271327.
16:55:53  974 975	 1492448153	 369163351	 271229.
16:55:53  975 976	 1492448153	 645329163	 276166.
16:55:53  976 977	 1492448153	 916910628	 271581.
16:55:54  977 978	 1492448154	 192471681	 275561.
16:55:54  978 979	 1492448154	 464207434	 271736.
16:55:54  979 980	 1492448154	 686954700	 222747.
16:55:54  980 981	 1492448154	 962741168	 275787.
16:55:55  981 982	 1492448155	 234702776	 271961.
16:55:55  982 983	 1492448155	 510544683	 275842.
16:55:55  983 984	 1492448155	 782595775	 272051.
16:55:56  984 985	 1492448156	 58739615	 276144.
16:55:56  985 986	 1492448156	 329911387	 271172.
16:55:56  986 987	 1492448156	 605646296	 275735.
16:55:56  987 988	 1492448156	 824319889	 218674.
16:55:57  988 989	 1492448157	 99715950	 275396.
16:55:57  989 990	 1492448157	 375547961	 275832.
16:55:57  990 991	 1492448157	 647823025	 272275.
16:55:57  991 992	 1492448157	 920085300	 272262.
16:55:58  992 993	 1492448158	 196153977	 276069.
16:55:58  993 994	 1492448158	 468719885	 272566.
16:55:58  994 995	 1492448158	 744648685	 275928.
16:55:58  995 996	 1492448158	 967150318	 222502.
16:55:59  996 997	 1492448159	 238911908	 271762.
16:55:59  997 998	 1492448159	 514561306	 275649.
16:55:59  998 999	 1492448159	 785903474	 271342.
16:56:00  999 1000	 1492448160	 57399843	 271497.
16:56:00 1000 1001	 1492448160	 332877888	 275478.
16:56:00 1001 1002	 1492448160	 604070878	 271193.
16:56:00 1002 1003	 1492448160	 875112456	 271041.
16:56:01 1003 1004	 1492448161	 97178236	 222066.
16:56:01 1004 1005	 1492448161	 368081432	 270903.
16:56:01 1005 1006	 1492448161	 643225523	 275144.
16:56:01 1006 1007	 1492448161	 914302642	 271077.
16:56:02 1007 1008	 1492448162	 185327387	 271025.
16:56:02 1008 1009	 1492448162	 460477712	 275150.
16:56:02 1009 1010	 1492448162	 731684795	 271208.
16:56:02 1010 1011	 1492448162	 953750355	 222065.
16:56:03 1011 1012	 1492448163	 224935251	 271185.
16:56:03 1012 1013	 1492448163	 500145750	 275210.
16:56:03 1013 1014	 1492448163	 771496323	 271351.
16:56:04 1014 1015	 1492448164	 42702262	 271206.
16:56:04 1015 1016	 1492448164	 317753708	 275051.
16:56:04 1016 1017	 1492448164	 589232080	 271479.
16:56:04 1017 1018	 1492448164	 811458281	 222226.
16:56:05 1018 1019	 1492448165	 82577886	 271120.
16:56:05 1019 1020	 1492448165	 357742935	 275165.
16:56:05 1020 1021	 1492448165	 629032883	 271290.
16:56:05 1021 1022	 1492448165	 900423924	 271391.
16:56:06 1022 1023	 1492448166	 171766176	 271342.
16:56:06 1023 1024	 1492448166	 447187684	 275421.
16:56:06 1024 1025	 1492448166	 718302303	 271115.
16:56:06 1025 1026	 1492448166	 940630533	 222328.
16:56:07 1026 1027	 1492448167	 211433089	 270803.
16:56:07 1027 1028	 1492448167	 482905301	 271472.
16:56:07 1028 1029	 1492448167	 758283457	 275378.
16:56:08 1029 1030	 1492448168	 29395456	 271112.
16:56:08 1030 1031	 1492448168	 300249780	 270854.
16:56:08 1031 1032	 1492448168	 575323954	 275075.
16:56:08 1032 1033	 1492448168	 797498667	 222174.
16:56:09 1033 1034	 1492448169	 68409314	 270911.
16:56:09 1034 1035	 1492448169	 343716776	 275307.
16:56:09 1035 1036	 1492448169	 615016135	 271300.
16:56:09 1036 1037	 1492448169	 886972837	 271957.
16:56:10 1037 1038	 1492448170	 163156125	 276183.
16:56:10 1038 1039	 1492448170	 434905129	 271760.
16:56:10 1039 1040	 1492448170	 711066198	 276150.
16:56:10 1040 1041	 1492448170	 934049383	 222983.
16:56:11 1041 1042	 1492448171	 205504375	 271455.
16:56:11 1042 1043	 1492448171	 481465473	 275961.
16:56:11 1043 1044	 1492448171	 753025677	 271560.
16:56:12 1044 1045	 1492448172	 24586756	 271562.
16:56:12 1045 1046	 1492448172	 300076706	 275489.
16:56:12 1046 1047	 1492448172	 571348967	 271273.
16:56:12 1047 1048	 1492448172	 793882526	 222533.
16:56:13 1048 1049	 1492448173	 69280321	 275398.
16:56:13 1049 1050	 1492448173	 340389914	 271110.
16:56:13 1050 1051	 1492448173	 562826967	 222437.
16:56:13 1051 1052	 1492448173	 838202570	 275375.
16:56:14 1052 1053	 1492448174	 113536800	 275335.
16:56:14 1053 1054	 1492448174	 335679361	 222142.
16:56:14 1054 1055	 1492448174	 607283436	 271604.
16:56:14 1055 1056	 1492448174	 883085011	 275802.
16:56:15 1056 1057	 1492448175	 154751590	 271666.
16:56:15 1057 1058	 1492448175	 376512793	 221761.
16:56:15 1058 1059	 1492448175	 647431537	 270919.
16:56:15 1059 1060	 1492448175	 923267025	 275836.
16:56:16 1060 1061	 1492448176	 194244515	 270977.
16:56:16 1061 1062	 1492448176	 469558903	 275315.
16:56:16 1062 1063	 1492448176	 741292635	 271733.
16:56:16 1063 1064	 1492448176	 963480571	 222188.
16:56:17 1064 1065	 1492448177	 234339328	 270859.
16:56:17 1065 1066	 1492448177	 509431165	 275092.
16:56:17 1066 1067	 1492448177	 780191111	 270760.
16:56:18 1067 1068	 1492448178	 55625633	 275434.
16:56:18 1068 1069	 1492448178	 273810535	 218185.
16:56:18 1069 1070	 1492448178	 548940000	 275130.
16:56:18 1070 1071	 1492448178	 820463722	 271523.
16:56:19 1071 1072	 1492448179	 96224218	 275761.
16:56:19 1072 1073	 1492448179	 367542171	 271318.
16:56:19 1073 1074	 1492448179	 638906377	 271364.
16:56:19 1074 1075	 1492448179	 861234992	 222329.
16:56:20 1075 1076	 1492448180	 132414282	 271179.
16:56:20 1076 1077	 1492448180	 408449533	 276035.
16:56:20 1077 1078	 1492448180	 679958000	 271509.
16:56:20 1078 1079	 1492448180	 955267759	 275309.
16:56:21 1079 1080	 1492448181	 226239721	 270972.
16:56:21 1080 1081	 1492448181	 497316740	 271077.
16:56:21 1081 1082	 1492448181	 720227041	 222911.
16:56:21 1082 1083	 1492448181	 995394773	 275167.
16:56:22 1083 1084	 1492448182	 267064964	 271671.
16:56:22 1084 1085	 1492448182	 489237561	 222172.
16:56:22 1085 1086	 1492448182	 765022065	 275785.
16:56:23 1086 1087	 1492448183	 40733664	 275711.
16:56:23 1087 1088	 1492448183	 312507702	 271774.
16:56:23 1088 1089	 1492448183	 535175013	 222668.
16:56:23 1089 1090	 1492448183	 811415067	 276240.
16:56:24 1090 1091	 1492448184	 86901688	 275486.
16:56:24 1091 1092	 1492448184	 309401957	 222501.
16:56:24 1092 1093	 1492448184	 580853006	 271451.
16:56:24 1093 1094	 1492448184	 856414772	 275562.
16:56:25 1094 1095	 1492448185	 127889491	 271474.
16:56:25 1095 1096	 1492448185	 354455838	 226566.
16:56:25 1096 1097	 1492448185	 625811850	 271357.
16:56:25 1097 1098	 1492448185	 901085505	 275273.
16:56:26 1098 1099	 1492448186	 171588773	 270503.
16:56:26 1099 1100	 1492448186	 393404531	 221816.
16:56:26 1100 1101	 1492448186	 668424961	 275021.
16:56:26 1101 1102	 1492448186	 939750503	 271325.
16:56:27 1102 1103	 1492448187	 215097279	 275347.
16:56:27 1103 1104	 1492448187	 436947170	 221850.
16:56:27 1104 1105	 1492448187	 708405817	 271459.
16:56:27 1105 1106	 1492448187	 984091530	 275685.
16:56:28 1106 1107	 1492448188	 255303561	 271212.
16:56:28 1107 1108	 1492448188	 477801206	 222498.
16:56:28 1108 1109	 1492448188	 753227033	 275426.
16:56:29 1109 1110	 1492448189	 25168125	 271941.
16:56:29 1110 1111	 1492448189	 300795011	 275627.
16:56:29 1111 1112	 1492448189	 572912343	 272117.
16:56:29 1112 1113	 1492448189	 795546041	 222634.
16:56:30 1113 1114	 1492448190	 71416056	 275870.
16:56:30 1114 1115	 1492448190	 343138232	 271722.
16:56:30 1115 1116	 1492448190	 614755656	 271617.
16:56:30 1116 1117	 1492448190	 890652971	 275898.
16:56:31 1117 1118	 1492448191	 113145029	 222492.
16:56:31 1118 1119	 1492448191	 384680969	 271536.
16:56:31 1119 1120	 1492448191	 660651725	 275970.
16:56:31 1120 1121	 1492448191	 936801064	 276150.
16:56:32 1121 1122	 1492448192	 159245538	 222444.
