15:28:42    0 Step	 time(s)	 time(ns)	 delta(ms)
15:28:42    0 1	 1492356522	 849541466	 987.
15:28:43    1 2	 1492356523	 126022839	 276482.
15:28:43    2 3	 1492356523	 401607125	 275584.
15:28:43    3 4	 1492356523	 674279783	 272672.
15:28:43    4 5	 1492356523	 950171117	 275892.
15:28:44    5 6	 1492356524	 173321291	 223150.
15:28:44    6 7	 1492356524	 445237686	 271916.
15:28:44    7 8	 1492356524	 721678589	 276441.
15:28:44    8 9	 1492356524	 993476609	 271798.
15:28:45    9 10	 1492356525	 268991074	 275515.
15:28:45   10 11	 1492356525	 491319408	 222328.
15:28:45   11 12	 1492356525	 767169419	 275850.
15:28:46   12 13	 1492356526	 39076016	 271907.
15:28:46   13 14	 1492356526	 315369783	 276293.
15:28:46   14 15	 1492356526	 587468986	 272100.
15:28:46   15 16	 1492356526	 863543857	 276075.
15:28:47   16 17	 1492356527	 86223977	 222680.
15:28:47   17 18	 1492356527	 358418263	 272194.
15:28:47   18 19	 1492356527	 634680480	 276262.
15:28:47   19 20	 1492356527	 906592329	 271912.
15:28:48   20 21	 1492356528	 182747231	 276155.
15:28:48   21 22	 1492356528	 455201738	 272454.
15:28:48   22 23	 1492356528	 732636920	 277436.
15:28:48   23 24	 1492356528	 992425802	 259789.
15:28:49   24 25	 1492356529	 215432915	 223007.
15:28:49   25 26	 1492356529	 486929601	 271496.
15:28:49   26 27	 1492356529	 763150743	 276221.
15:28:50   27 28	 1492356530	 35183417	 272033.
15:28:50   28 29	 1492356530	 310952085	 275769.
15:28:50   29 30	 1492356530	 582272176	 271320.
15:28:50   30 31	 1492356530	 854091974	 271820.
15:28:51   31 32	 1492356531	 129692614	 275600.
15:28:51   32 33	 1492356531	 401233998	 271542.
15:28:51   33 34	 1492356531	 672727113	 271493.
15:28:51   34 35	 1492356531	 948533062	 275806.
15:28:52   35 36	 1492356532	 219772068	 271239.
15:28:52   36 37	 1492356532	 442764297	 222992.
15:28:52   37 38	 1492356532	 714646987	 271883.
15:28:52   38 39	 1492356532	 986642116	 271995.
15:28:53   39 40	 1492356533	 262619782	 275977.
15:28:53   40 41	 1492356533	 538438124	 275819.
15:28:53   41 42	 1492356533	 814705735	 276267.
15:28:54   42 43	 1492356534	 37561969	 222857.
15:28:54   43 44	 1492356534	 309741628	 272179.
15:28:54   44 45	 1492356534	 581675411	 271934.
15:28:54   45 46	 1492356534	 858082557	 276407.
15:28:55   46 47	 1492356535	 134135780	 276053.
15:28:55   47 48	 1492356535	 405842621	 271707.
15:28:55   48 49	 1492356535	 677506677	 271664.
15:28:55   49 50	 1492356535	 900769521	 223263.
15:28:56   50 51	 1492356536	 177413561	 276644.
15:28:56   51 52	 1492356536	 453994611	 276581.
15:28:56   52 53	 1492356536	 726430066	 272436.
15:28:56   53 54	 1492356537	 3101885	 276672.
15:28:57   54 55	 1492356537	 275690032	 272588.
15:28:57   55 56	 1492356537	 552316092	 276626.
15:28:57   56 57	 1492356537	 825105445	 272789.
15:28:58   57 58	 1492356538	 100801389	 275696.
15:28:58   58 59	 1492356538	 373010871	 272210.
15:28:58   59 60	 1492356538	 649532036	 276521.
15:28:58   60 61	 1492356538	 920905453	 271373.
15:28:59   61 62	 1492356539	 196307651	 275402.
15:28:59   62 63	 1492356539	 467755166	 271448.
15:28:59   63 64	 1492356539	 739532279	 271777.
15:29:00   64 65	 1492356540	 15698802	 276167.
15:29:00   65 66	 1492356540	 238985629	 223286.
15:29:00   66 67	 1492356540	 515352070	 276367.
15:29:00   67 68	 1492356540	 786942603	 271590.
15:29:01   68 69	 1492356541	 57690196	 270748.
15:29:01   69 70	 1492356541	 332865465	 275175.
15:29:01   70 71	 1492356541	 603852924	 270988.
15:29:01   71 72	 1492356541	 874801641	 270948.
15:29:02   72 73	 1492356542	 146253172	 271452.
15:29:02   73 74	 1492356542	 421603128	 275350.
15:29:02   74 75	 1492356542	 639483133	 217880.
15:29:02   75 76	 1492356542	 914648569	 275165.
15:29:03   76 77	 1492356543	 186071327	 271423.
15:29:03   77 78	 1492356543	 457330397	 271259.
15:29:03   78 79	 1492356543	 733252731	 275922.
15:29:04   79 80	 1492356544	 4483515	 271231.
15:29:04   80 81	 1492356544	 276322279	 271839.
15:29:04   81 82	 1492356544	 552314086	 275992.
15:29:04   82 83	 1492356544	 823767162	 271453.
15:29:05   83 84	 1492356545	 95396903	 271630.
15:29:05   84 85	 1492356545	 371058351	 275661.
15:29:05   85 86	 1492356545	 642562531	 271504.
15:29:05   86 87	 1492356545	 913943711	 271381.
15:29:06   87 88	 1492356546	 189463498	 275520.
15:29:06   88 89	 1492356546	 411658100	 222195.
15:29:06   89 90	 1492356546	 683539099	 271881.
15:29:06   90 91	 1492356546	 955843983	 272305.
15:29:07   91 92	 1492356547	 232087508	 276243.
15:29:07   92 93	 1492356547	 561975335	 329888.
15:29:07   93 94	 1492356547	 892085751	 330110.
15:29:08   94 95	 1492356548	 163754732	 271669.
15:29:08   95 96	 1492356548	 438819996	 275066.
15:29:08   96 97	 1492356548	 710031720	 271211.
15:29:08   97 98	 1492356548	 985800472	 275769.
15:29:09   98 99	 1492356549	 258315831	 272516.
15:29:09   99 100	 1492356549	 480818127	 222502.
15:29:09  100 101	 1492356549	 756972325	 276154.
15:29:10  101 102	 1492356550	 28381035	 271409.
15:29:10  102 103	 1492356550	 304363785	 275982.
15:29:10  103 104	 1492356550	 527000357	 222637.
15:29:10  104 105	 1492356550	 798503683	 271503.
15:29:11  105 106	 1492356551	 74744845	 276242.
15:29:11  106 107	 1492356551	 345819617	 271074.
15:29:11  107 108	 1492356551	 621657496	 275838.
15:29:11  108 109	 1492356551	 897946926	 276290.
15:29:12  109 110	 1492356552	 169682029	 271735.
15:29:12  110 111	 1492356552	 445526468	 275844.
15:29:12  111 112	 1492356552	 664145184	 218619.
15:29:12  112 113	 1492356552	 940270548	 276125.
15:29:13  113 114	 1492356553	 211977042	 271707.
15:29:13  114 115	 1492356553	 487358446	 275381.
15:29:13  115 116	 1492356553	 710118956	 222761.
15:29:13  116 117	 1492356553	 986196403	 276077.
15:29:14  117 118	 1492356554	 258374501	 272178.
15:29:14  118 119	 1492356554	 534279734	 275905.
15:29:14  119 120	 1492356554	 810061861	 275783.
15:29:15  120 121	 1492356555	 86274162	 276212.
15:29:15  121 122	 1492356555	 308720884	 222447.
15:29:15  122 123	 1492356555	 584916560	 276195.
15:29:15  123 124	 1492356555	 856872094	 271956.
15:29:16  124 125	 1492356556	 132745196	 275873.
15:29:16  125 126	 1492356556	 408863462	 276118.
15:29:16  126 127	 1492356556	 631610324	 222747.
15:29:16  127 128	 1492356556	 903673155	 272063.
15:29:17  128 129	 1492356557	 179842670	 276169.
15:29:17  129 130	 1492356557	 451771487	 271929.
15:29:17  130 131	 1492356557	 727847720	 276076.
15:29:17  131 132	 1492356557	 999633758	 271786.
15:29:18  132 133	 1492356558	 222396724	 222763.
15:29:18  133 134	 1492356558	 498289039	 275893.
15:29:18  134 135	 1492356558	 770671177	 272382.
15:29:19  135 136	 1492356559	 46670864	 276000.
15:29:19  136 137	 1492356559	 318429918	 271759.
15:29:19  137 138	 1492356559	 594464043	 276034.
15:29:19  138 139	 1492356559	 817580563	 223116.
15:29:20  139 140	 1492356560	 89947752	 272367.
15:29:20  140 141	 1492356560	 366064577	 276117.
15:29:20  141 142	 1492356560	 641900379	 275836.
15:29:20  142 143	 1492356560	 913995505	 272095.
15:29:21  143 144	 1492356561	 190341921	 276347.
15:29:21  144 145	 1492356561	 462172638	 271830.
15:29:21  145 146	 1492356561	 738678212	 276506.
15:29:21  146 147	 1492356561	 961763030	 223085.
15:29:22  147 148	 1492356562	 238141105	 276378.
15:29:22  148 149	 1492356562	 509117670	 270976.
15:29:22  149 150	 1492356562	 780094718	 270977.
15:29:23  150 151	 1492356563	 51305754	 271211.
15:29:23  151 152	 1492356563	 322334764	 271029.
15:29:23  152 153	 1492356563	 597415169	 275081.
15:29:23  153 154	 1492356563	 815263757	 217848.
15:29:24  154 155	 1492356564	 90140103	 274877.
15:29:24  155 156	 1492356564	 361881418	 271741.
15:29:24  156 157	 1492356564	 637679432	 275798.
15:29:24  157 158	 1492356564	 860524866	 222846.
15:29:25  158 159	 1492356565	 132520803	 271996.
15:29:25  159 160	 1492356565	 408313739	 275792.
15:29:25  160 161	 1492356565	 684157524	 275844.
15:29:25  161 162	 1492356565	 960598432	 276441.
15:29:26  162 163	 1492356566	 232742483	 272144.
15:29:26  163 164	 1492356566	 509144527	 276402.
15:29:26  164 165	 1492356566	 728121285	 218977.
15:29:26  165 166	 1492356567	 4318600	 276197.
15:29:27  166 167	 1492356567	 280462563	 276144.
15:29:27  167 168	 1492356567	 552547373	 272085.
15:29:27  168 169	 1492356567	 828830480	 276283.
15:29:28  169 170	 1492356568	 100599774	 271769.
15:29:28  170 171	 1492356568	 376777283	 276178.
15:29:28  171 172	 1492356568	 599744321	 222967.
15:29:28  172 173	 1492356568	 875760800	 276017.
15:29:29  173 174	 1492356569	 147626699	 271865.
15:29:29  174 175	 1492356569	 423443083	 275817.
15:29:29  175 176	 1492356569	 695322922	 271880.
15:29:29  176 177	 1492356569	 922737525	 227414.
15:29:30  177 178	 1492356570	 194899981	 272163.
15:29:30  178 179	 1492356570	 466430476	 271530.
15:29:30  179 180	 1492356570	 742230872	 275801.
15:29:31  180 181	 1492356571	 18358370	 276127.
15:29:31  181 182	 1492356571	 241446098	 223088.
15:29:31  182 183	 1492356571	 513418950	 271973.
15:29:31  183 184	 1492356571	 789607844	 276189.
15:29:32  184 185	 1492356572	 60321994	 270714.
15:29:32  185 186	 1492356572	 335785940	 275464.
15:29:32  186 187	 1492356572	 608100622	 272314.
15:29:32  187 188	 1492356572	 880122396	 272022.
15:29:33  188 189	 1492356573	 156376006	 276254.
15:29:33  189 190	 1492356573	 379138363	 222762.
15:29:33  190 191	 1492356573	 650830441	 271692.
15:29:33  191 192	 1492356573	 926805101	 275975.
15:29:34  192 193	 1492356574	 198645926	 271841.
15:29:34  193 194	 1492356574	 474253280	 275607.
15:29:34  194 195	 1492356574	 750554407	 276301.
15:29:35  195 196	 1492356575	 22702131	 272148.
15:29:35  196 197	 1492356575	 298664553	 275962.
15:29:35  197 198	 1492356575	 521836300	 223172.
15:29:35  198 199	 1492356575	 794036271	 272200.
15:29:36  199 200	 1492356576	 70324473	 276288.
15:29:36  200 201	 1492356576	 346675389	 276351.
15:29:36  201 202	 1492356576	 618508460	 271833.
15:29:36  202 203	 1492356576	 894344755	 275836.
15:29:37  203 204	 1492356577	 116772627	 222428.
15:29:37  204 205	 1492356577	 392872279	 276100.
15:29:37  205 206	 1492356577	 665015184	 272143.
15:29:37  206 207	 1492356577	 940766655	 275751.
15:29:38  207 208	 1492356578	 212702972	 271937.
15:29:38  208 209	 1492356578	 435306115	 222603.
15:29:38  209 210	 1492356578	 711150906	 275845.
15:29:38  210 211	 1492356578	 982591629	 271440.
15:29:39  211 212	 1492356579	 258801392	 276210.
15:29:39  212 213	 1492356579	 535312011	 276511.
15:29:39  213 214	 1492356579	 753541207	 218229.
15:29:40  214 215	 1492356580	 29219846	 275679.
15:29:40  215 216	 1492356580	 300290746	 271070.
15:29:40  216 217	 1492356580	 575721847	 275432.
15:29:40  217 218	 1492356580	 794980516	 219258.
15:29:41  218 219	 1492356581	 70868978	 275889.
15:29:41  219 220	 1492356581	 346690252	 275821.
15:29:41  220 221	 1492356581	 618229767	 271539.
15:29:41  221 222	 1492356581	 840862070	 222633.
15:29:42  222 223	 1492356582	 116588680	 275726.
15:29:42  223 224	 1492356582	 392616590	 276028.
15:29:42  224 225	 1492356582	 664083026	 271467.
15:29:42  225 226	 1492356582	 936024238	 271941.
15:29:43  226 227	 1492356583	 212206654	 276182.
15:29:43  227 228	 1492356583	 435025616	 222819.
15:29:43  228 229	 1492356583	 711263252	 276238.
15:29:44  229 230	 1492356584	 90961202	 379698.
15:29:44  230 231	 1492356584	 364126325	 273165.
15:29:44  231 232	 1492356584	 642126228	 278000.
15:29:44  232 233	 1492356584	 914212175	 272086.
15:29:45  233 234	 1492356585	 190296020	 276084.
15:29:45  234 235	 1492356585	 462695669	 272399.
15:29:45  235 236	 1492356585	 739289314	 276594.
15:29:46  236 237	 1492356586	 17302276	 278013.
15:29:46  237 238	 1492356586	 344366148	 327064.
15:29:46  238 239	 1492356586	 617015450	 272649.
15:29:46  239 240	 1492356586	 893369507	 276354.
15:29:47  240 241	 1492356587	 116821392	 223452.
15:29:47  241 242	 1492356587	 388827922	 272007.
15:29:47  242 243	 1492356587	 664920538	 276092.
15:29:47  243 244	 1492356587	 935822788	 270902.
15:29:48  244 245	 1492356588	 211817475	 275995.
15:29:48  245 246	 1492356588	 483259006	 271442.
15:29:48  246 247	 1492356588	 759325995	 276067.
15:29:49  247 248	 1492356589	 30883274	 271557.
15:29:49  248 249	 1492356589	 280078782	 249195.
15:29:49  249 250	 1492356589	 551528719	 271450.
15:29:49  250 251	 1492356589	 826733971	 275206.
15:29:50  251 252	 1492356590	 98112002	 271378.
15:29:50  252 253	 1492356590	 321002760	 222890.
15:29:50  253 254	 1492356590	 597125974	 276124.
15:29:50  254 255	 1492356590	 869273768	 272147.
15:29:51  255 256	 1492356591	 144994267	 275721.
15:29:51  256 257	 1492356591	 417083884	 272090.
15:29:51  257 258	 1492356591	 693306177	 276222.
15:29:51  258 259	 1492356591	 916151859	 222846.
15:29:52  259 260	 1492356592	 191746897	 275595.
15:29:52  260 261	 1492356592	 463709324	 271962.
15:29:52  261 262	 1492356592	 740391259	 276682.
15:29:53  262 263	 1492356593	 12268900	 271878.
15:29:53  263 264	 1492356593	 288181518	 275912.
15:29:53  264 265	 1492356593	 564201098	 276020.
15:29:53  265 266	 1492356593	 787002041	 222801.
15:29:54  266 267	 1492356594	 58798432	 271796.
15:29:54  267 268	 1492356594	 330143004	 271345.
15:29:54  268 269	 1492356594	 605723790	 275581.
15:29:54  269 270	 1492356594	 876759021	 271035.
15:29:55  270 271	 1492356595	 98321637	 221562.
15:29:55  271 272	 1492356595	 368786246	 270465.
15:29:55  272 273	 1492356595	 643704514	 274918.
15:29:55  273 274	 1492356595	 914753798	 271050.
15:29:56  274 275	 1492356596	 185865911	 271112.
15:29:56  275 276	 1492356596	 461817955	 275952.
15:29:56  276 277	 1492356596	 685092512	 223274.
15:29:56  277 278	 1492356596	 960761887	 275670.
15:29:57  278 279	 1492356597	 232114594	 271352.
15:29:57  279 280	 1492356597	 507831770	 275717.
15:29:57  280 281	 1492356597	 780326558	 272495.
15:29:57  281 282	 1492356598	 3105391	 222779.
15:29:58  282 283	 1492356598	 279139992	 276035.
15:29:58  283 284	 1492356598	 550699673	 271559.
15:29:58  284 285	 1492356598	 826741119	 276042.
15:29:59  285 286	 1492356599	 102880134	 276139.
15:29:59  286 287	 1492356599	 325818262	 222938.
15:29:59  287 288	 1492356599	 597891505	 272073.
15:29:59  288 289	 1492356599	 873812898	 275922.
15:30:00  289 290	 1492356600	 149108046	 275295.
15:30:00  290 291	 1492356600	 419795191	 270687.
15:30:00  291 292	 1492356600	 641718533	 221923.
15:30:00  292 293	 1492356600	 912751696	 271033.
15:30:01  293 294	 1492356601	 183447937	 270697.
15:30:01  294 295	 1492356601	 458795989	 275348.
15:30:01  295 296	 1492356601	 730399739	 271603.
15:30:02  296 297	 1492356602	 5946385	 275547.
15:30:02  297 298	 1492356602	 276968891	 271023.
15:30:02  298 299	 1492356602	 548255876	 271287.
15:30:02  299 300	 1492356602	 770516837	 222261.
15:30:03  300 301	 1492356603	 41720481	 271203.
15:30:03  301 302	 1492356603	 317308655	 275588.
15:30:03  302 303	 1492356603	 588987038	 271679.
15:30:03  303 304	 1492356603	 860420435	 271433.
15:30:04  304 305	 1492356604	 135976193	 275556.
15:30:04  305 306	 1492356604	 407649444	 271673.
15:30:04  306 307	 1492356604	 679314258	 271665.
15:30:04  307 308	 1492356604	 950903123	 271589.
15:30:05  308 309	 1492356605	 226461862	 275559.
15:30:05  309 310	 1492356605	 498177841	 271716.
15:30:05  310 311	 1492356605	 769703930	 271526.
15:30:06  311 312	 1492356606	 44902445	 275198.
15:30:06  312 313	 1492356606	 315711650	 270809.
15:30:06  313 314	 1492356606	 537863063	 222152.
15:30:06  314 315	 1492356606	 809141380	 271278.
15:30:07  315 316	 1492356607	 84745898	 275605.
15:30:07  316 317	 1492356607	 356164631	 271418.
15:30:07  317 318	 1492356607	 627720832	 271557.
15:30:07  318 319	 1492356607	 898770528	 271049.
15:30:08  319 320	 1492356608	 174164691	 275394.
15:30:08  320 321	 1492356608	 445436605	 271272.
15:30:08  321 322	 1492356608	 716773698	 271337.
15:30:08  322 323	 1492356608	 992028048	 275255.
15:30:09  323 324	 1492356609	 263357671	 271329.
15:30:09  324 325	 1492356609	 534367791	 271011.
15:30:09  325 326	 1492356609	 810259426	 275891.
15:30:10  326 327	 1492356610	 33024676	 222765.
15:30:10  327 328	 1492356610	 304977119	 271953.
15:30:10  328 329	 1492356610	 580717372	 275740.
15:30:10  329 330	 1492356610	 852540189	 271823.
15:30:11  330 331	 1492356611	 123408314	 270868.
15:30:11  331 332	 1492356611	 398923415	 275515.
15:30:11  332 333	 1492356611	 621508175	 222585.
15:30:11  333 334	 1492356611	 897070481	 275562.
15:30:12  334 335	 1492356612	 169023503	 271953.
15:30:12  335 336	 1492356612	 444936551	 275913.
15:30:12  336 337	 1492356612	 716853502	 271917.
15:30:12  337 338	 1492356612	 992224406	 275371.
15:30:13  338 339	 1492356613	 264230348	 272006.
15:30:13  339 340	 1492356613	 486820016	 222590.
15:30:13  340 341	 1492356613	 762408692	 275588.
15:30:14  341 342	 1492356614	 33586510	 271178.
15:30:14  342 343	 1492356614	 309517633	 275931.
15:30:14  343 344	 1492356614	 527168701	 217651.
15:30:14  344 345	 1492356614	 802267206	 275099.
15:30:15  345 346	 1492356615	 73739347	 271472.
15:30:15  346 347	 1492356615	 349800316	 276061.
15:30:15  347 348	 1492356615	 621225224	 271425.
15:30:15  348 349	 1492356615	 892472326	 271247.
15:30:16  349 350	 1492356616	 163317109	 270845.
15:30:16  350 351	 1492356616	 439423464	 276106.
15:30:16  351 352	 1492356616	 711290718	 271867.
15:30:16  352 353	 1492356616	 934263126	 222973.
15:30:17  353 354	 1492356617	 210105697	 275842.
15:30:17  354 355	 1492356617	 482351215	 272246.
15:30:17  355 356	 1492356617	 758136527	 275785.
15:30:18  356 357	 1492356618	 30350917	 272215.
15:30:18  357 358	 1492356618	 306467188	 276116.
15:30:18  358 359	 1492356618	 578672739	 272205.
15:30:18  359 360	 1492356618	 801276423	 222604.
15:30:19  360 361	 1492356619	 77429060	 276153.
15:30:19  361 362	 1492356619	 353098407	 275669.
15:30:19  362 363	 1492356619	 625078418	 271980.
15:30:19  363 364	 1492356619	 900556709	 275478.
15:30:20  364 365	 1492356620	 123173225	 222617.
15:30:20  365 366	 1492356620	 399069349	 275896.
15:30:20  366 367	 1492356620	 671427071	 272358.
15:30:20  367 368	 1492356620	 947047509	 275620.
15:30:21  368 369	 1492356621	 219187193	 272140.
15:30:21  369 370	 1492356621	 494974311	 275787.
15:30:21  370 371	 1492356621	 717888283	 222914.
15:30:21  371 372	 1492356621	 989671245	 271783.
15:30:22  372 373	 1492356622	 265862818	 276192.
15:30:22  373 374	 1492356622	 541825902	 275963.
15:30:22  374 375	 1492356622	 813732262	 271906.
15:30:23  375 376	 1492356623	 36864938	 223133.
15:30:23  376 377	 1492356623	 313575344	 276710.
15:30:23  377 378	 1492356623	 585857799	 272283.
15:30:23  378 379	 1492356623	 861654062	 275796.
15:30:24  379 380	 1492356624	 133349202	 271695.
15:30:24  380 381	 1492356624	 409214291	 275865.
15:30:24  381 382	 1492356624	 631528125	 222314.
15:30:24  382 383	 1492356624	 907554851	 276027.
15:30:25  383 384	 1492356625	 179163586	 271608.
15:30:25  384 385	 1492356625	 455206579	 276043.
15:30:25  385 386	 1492356625	 727200568	 271994.
15:30:26  386 387	 1492356626	 3346265	 276146.
15:30:26  387 388	 1492356626	 226161376	 222815.
15:30:26  388 389	 1492356626	 498120958	 271960.
15:30:26  389 390	 1492356626	 773925362	 275804.
15:30:27  390 391	 1492356627	 44650342	 270725.
15:30:27  391 392	 1492356627	 315417538	 270767.
15:30:27  392 393	 1492356627	 537212484	 221795.
15:30:27  393 394	 1492356627	 812078851	 274867.
15:30:28  394 395	 1492356628	 82815759	 270736.
15:30:28  395 396	 1492356628	 353329882	 270515.
15:30:28  396 397	 1492356628	 575408472	 222078.
15:30:28  397 398	 1492356628	 850890617	 275482.
15:30:29  398 399	 1492356629	 122557773	 271667.
15:30:29  399 400	 1492356629	 398376703	 275819.
15:30:29  400 401	 1492356629	 669881879	 271506.
15:30:29  401 402	 1492356629	 896680778	 226798.
15:30:30  402 403	 1492356630	 168267619	 271587.
15:30:30  403 404	 1492356630	 444076248	 275809.
15:30:30  404 405	 1492356630	 715744087	 271668.
15:30:30  405 406	 1492356630	 938576880	 222833.
15:30:31  406 407	 1492356631	 214856747	 276279.
15:30:31  407 408	 1492356631	 490820385	 275964.
15:30:31  408 409	 1492356631	 762961983	 272142.
15:30:32  409 410	 1492356632	 39116497	 276154.
15:30:32  410 411	 1492356632	 311081825	 271966.
15:30:32  411 412	 1492356632	 533841173	 222759.
15:30:32  412 413	 1492356632	 805992073	 272151.
15:30:33  413 414	 1492356633	 82341964	 276350.
15:30:33  414 415	 1492356633	 358308795	 275967.
15:30:33  415 416	 1492356633	 630446738	 272137.
15:30:33  416 417	 1492356633	 853222120	 222776.
15:30:34  417 418	 1492356634	 129245045	 276023.
15:30:34  418 419	 1492356634	 405524385	 276279.
15:30:34  419 420	 1492356634	 677743435	 272219.
15:30:34  420 421	 1492356634	 953482372	 275739.
15:30:35  421 422	 1492356635	 224760335	 271278.
15:30:35  422 423	 1492356635	 447862468	 223102.
15:30:35  423 424	 1492356635	 724017006	 276155.
15:30:35  424 425	 1492356635	 995761352	 271744.
15:30:36  425 426	 1492356636	 271868293	 276107.
15:30:36  426 427	 1492356636	 547986866	 276119.
15:30:36  427 428	 1492356636	 770759327	 222772.
15:30:37  428 429	 1492356637	 42788961	 272030.
15:30:37  429 430	 1492356637	 319329223	 276540.
15:30:37  430 431	 1492356637	 591391066	 272062.
15:30:37  431 432	 1492356637	 867555758	 276164.
15:30:38  432 433	 1492356638	 143115285	 275560.
15:30:38  433 434	 1492356638	 366131789	 223017.
15:30:38  434 435	 1492356638	 637611538	 271479.
15:30:38  435 436	 1492356638	 913598325	 275987.
15:30:39  436 437	 1492356639	 185027319	 271429.
15:30:39  437 438	 1492356639	 407925888	 222899.
15:30:39  438 439	 1492356639	 684142422	 276216.
15:30:39  439 440	 1492356639	 959974112	 275832.
15:30:40  440 441	 1492356640	 231391444	 271417.
15:30:40  441 442	 1492356640	 507137229	 275746.
15:30:40  442 443	 1492356640	 730153550	 223016.
15:30:41  443 444	 1492356641	 6338115	 276185.
15:30:41  444 445	 1492356641	 278191788	 271854.
15:30:41  445 446	 1492356641	 553811263	 275619.
15:30:41  446 447	 1492356641	 829609784	 275798.
15:30:42  447 448	 1492356642	 52628048	 223019.
15:30:42  448 449	 1492356642	 324349137	 271721.
15:30:42  449 450	 1492356642	 599690478	 275341.
15:30:42  450 451	 1492356642	 871380461	 271690.
15:30:43  451 452	 1492356643	 94398892	 223019.
15:30:43  452 453	 1492356643	 370730638	 276331.
15:30:43  453 454	 1492356643	 646673301	 275943.
15:30:43  454 455	 1492356643	 918581773	 271909.
15:30:44  455 456	 1492356644	 194530775	 275948.
15:30:44  456 457	 1492356644	 417405327	 222875.
15:30:44  457 458	 1492356644	 693394243	 275989.
15:30:44  458 459	 1492356644	 965425219	 272031.
15:30:45  459 460	 1492356645	 241645308	 276220.
15:30:45  460 461	 1492356645	 517264908	 275620.
15:30:45  461 462	 1492356645	 739875339	 222610.
15:30:46  462 463	 1492356646	 11776257	 271901.
15:30:46  463 464	 1492356646	 288152382	 276376.
15:30:46  464 465	 1492356646	 559893988	 271742.
15:30:46  465 466	 1492356646	 835707986	 275814.
15:30:47  466 467	 1492356647	 58675827	 222968.
15:30:47  467 468	 1492356647	 330299273	 271623.
15:30:47  468 469	 1492356647	 606093152	 275794.
15:30:47  469 470	 1492356647	 878136333	 272043.
15:30:48  470 471	 1492356648	 153983763	 275847.
15:30:48  471 472	 1492356648	 376634946	 222652.
15:30:48  472 473	 1492356648	 652989162	 276354.
15:30:48  473 474	 1492356648	 924830122	 271841.
15:30:49  474 475	 1492356649	 200567754	 275737.
15:30:49  475 476	 1492356649	 423377455	 222810.
15:30:49  476 477	 1492356649	 699202339	 275825.
15:30:49  477 478	 1492356649	 971258650	 272056.
15:30:50  478 479	 1492356650	 247096098	 275838.
15:30:50  479 480	 1492356650	 519160705	 272064.
15:30:50  480 481	 1492356650	 795164652	 276004.
15:30:51  481 482	 1492356651	 18412485	 223248.
15:30:51  482 483	 1492356651	 294709130	 276297.
15:30:51  483 484	 1492356651	 566774041	 272065.
15:30:51  484 485	 1492356651	 842769655	 275995.
15:30:52  485 486	 1492356652	 114520345	 271751.
15:30:52  486 487	 1492356652	 390282896	 275763.
15:30:52  487 488	 1492356652	 612747749	 222464.
15:30:52  488 489	 1492356652	 884574698	 271827.
15:30:53  489 490	 1492356653	 160048346	 275474.
15:30:53  490 491	 1492356653	 432095543	 272047.
15:30:53  491 492	 1492356653	 655129664	 223034.
15:30:53  492 493	 1492356653	 931158259	 276029.
15:30:54  493 494	 1492356654	 206885747	 275728.
15:30:54  494 495	 1492356654	 478679510	 271793.
15:30:54  495 496	 1492356654	 754497152	 275818.
15:30:54  496 497	 1492356654	 977482372	 222985.
15:30:55  497 498	 1492356655	 253222904	 275741.
15:30:55  498 499	 1492356655	 525223372	 272000.
15:30:55  499 500	 1492356655	 801143642	 275920.
15:30:56  500 501	 1492356656	 73121117	 271978.
15:30:56  501 502	 1492356656	 295785578	 222664.
15:30:56  502 503	 1492356656	 571539595	 275754.
15:30:56  503 504	 1492356656	 843509486	 271970.
15:30:57  504 505	 1492356657	 119704490	 276195.
15:30:57  505 506	 1492356657	 391234835	 271531.
15:30:57  506 507	 1492356657	 613894057	 222659.
15:30:57  507 508	 1492356657	 889610170	 275716.
15:30:58  508 509	 1492356658	 164732024	 275122.
15:30:58  509 510	 1492356658	 435434480	 270702.
15:30:58  510 511	 1492356658	 657699516	 222265.
15:30:58  511 512	 1492356658	 929928985	 272230.
15:30:59  512 513	 1492356659	 206454892	 276526.
15:30:59  513 514	 1492356659	 478673083	 272218.
15:30:59  514 515	 1492356659	 754893594	 276220.
15:31:00  515 516	 1492356660	 31131819	 276239.
15:31:00  516 517	 1492356660	 303367833	 272236.
15:31:00  517 518	 1492356660	 579598852	 276231.
15:31:00  518 519	 1492356660	 851494293	 271895.
15:31:01  519 520	 1492356661	 122793114	 271299.
15:31:01  520 521	 1492356661	 345171517	 222378.
15:31:01  521 522	 1492356661	 620467965	 275297.
15:31:01  522 523	 1492356661	 891978795	 271510.
15:31:02  523 524	 1492356662	 163322171	 271344.
15:31:02  524 525	 1492356662	 438631897	 275310.
15:31:02  525 526	 1492356662	 709740327	 271108.
15:31:02  526 527	 1492356662	 980979649	 271239.
15:31:03  527 528	 1492356663	 255867530	 274888.
15:31:03  528 529	 1492356663	 527040469	 271173.
15:31:03  529 530	 1492356663	 749467656	 222427.
15:31:04  530 531	 1492356664	 21006121	 271539.
15:31:04  531 532	 1492356664	 291909979	 270904.
15:31:04  532 533	 1492356664	 567048832	 275139.
15:31:04  533 534	 1492356664	 838482433	 271433.
15:31:05  534 535	 1492356665	 109740803	 271259.
15:31:05  535 536	 1492356665	 380948493	 271207.
15:31:05  536 537	 1492356665	 602998752	 222050.
15:31:05  537 538	 1492356665	 878364996	 275367.
15:31:06  538 539	 1492356666	 149507849	 271143.
15:31:06  539 540	 1492356666	 420202383	 270694.
15:31:06  540 541	 1492356666	 690933020	 270731.
15:31:06  541 542	 1492356666	 965625596	 274692.
15:31:07  542 543	 1492356667	 187778247	 222153.
15:31:07  543 544	 1492356667	 459687556	 271909.
15:31:07  544 545	 1492356667	 735788093	 276101.
15:31:08  545 546	 1492356668	 7916218	 272128.
15:31:08  546 547	 1492356668	 283885101	 275969.
15:31:08  547 548	 1492356668	 555911358	 272026.
15:31:08  548 549	 1492356668	 832287428	 276376.
15:31:09  549 550	 1492356669	 104110624	 271823.
15:31:09  550 551	 1492356669	 327075752	 222965.
15:31:09  551 552	 1492356669	 603419066	 276344.
15:31:09  552 553	 1492356669	 875204283	 271785.
15:31:10  553 554	 1492356670	 151402728	 276198.
15:31:10  554 555	 1492356670	 423404611	 272002.
15:31:10  555 556	 1492356670	 699256179	 275852.
15:31:10  556 557	 1492356670	 970994877	 271739.
15:31:11  557 558	 1492356671	 246451762	 275456.
15:31:11  558 559	 1492356671	 468722352	 222271.
15:31:11  559 560	 1492356671	 740024808	 271303.
15:31:12  560 561	 1492356672	 11798581	 271773.
15:31:12  561 562	 1492356672	 287490876	 275693.
15:31:12  562 563	 1492356672	 559278464	 271787.
15:31:12  563 564	 1492356672	 835218913	 275941.
15:31:13  564 565	 1492356673	 106770043	 271551.
15:31:13  565 566	 1492356673	 378294721	 271524.
15:31:13  566 567	 1492356673	 654083216	 275789.
15:31:13  567 568	 1492356673	 925381427	 271298.
15:31:14  568 569	 1492356674	 196460018	 271079.
15:31:14  569 570	 1492356674	 467914704	 271454.
15:31:14  570 571	 1492356674	 744360541	 276446.
15:31:15  571 572	 1492356675	 16036331	 271676.
15:31:15  572 573	 1492356675	 291351531	 275315.
15:31:15  573 574	 1492356675	 514267996	 222917.
15:31:15  574 575	 1492356675	 786176416	 271908.
15:31:16  575 576	 1492356676	 58033502	 271857.
15:31:16  576 577	 1492356676	 334292578	 276259.
15:31:16  577 578	 1492356676	 606131717	 271839.
15:31:16  578 579	 1492356676	 881590817	 275460.
15:31:17  579 580	 1492356677	 152713184	 271122.
15:31:17  580 581	 1492356677	 427894570	 275181.
15:31:17  581 582	 1492356677	 698927209	 271033.
15:31:17  582 583	 1492356677	 970406522	 271479.
15:31:18  583 584	 1492356678	 245558757	 275152.
15:31:18  584 585	 1492356678	 467730315	 222172.
15:31:18  585 586	 1492356678	 739462534	 271732.
15:31:19  586 587	 1492356679	 14764951	 275303.
15:31:19  587 588	 1492356679	 286487807	 271723.
15:31:19  588 589	 1492356679	 557643277	 271155.
15:31:19  589 590	 1492356679	 833209634	 275566.
15:31:20  590 591	 1492356680	 105105522	 271896.
15:31:20  591 592	 1492356680	 380128038	 275023.
15:31:20  592 593	 1492356680	 602030543	 221902.
15:31:20  593 594	 1492356680	 873142628	 271112.
15:31:21  594 595	 1492356681	 144034092	 270892.
15:31:21  595 596	 1492356681	 416446218	 272412.
15:31:21  596 597	 1492356681	 675345314	 258899.
15:31:21  597 598	 1492356681	 947032106	 271687.
15:31:22  598 599	 1492356682	 223181303	 276149.
15:31:22  599 600	 1492356682	 495060778	 271879.
15:31:22  600 601	 1492356682	 770311583	 275251.
15:31:23  601 602	 1492356683	 42085271	 271774.
15:31:23  602 603	 1492356683	 313045823	 270961.
15:31:23  603 604	 1492356683	 535360696	 222314.
15:31:23  604 605	 1492356683	 810717999	 275358.
15:31:24  605 606	 1492356684	 81805741	 271087.
15:31:24  606 607	 1492356684	 353355114	 271550.
15:31:24  607 608	 1492356684	 629015252	 275660.
15:31:24  608 609	 1492356684	 900448578	 271433.
15:31:25  609 610	 1492356685	 171390873	 270943.
15:31:25  610 611	 1492356685	 442467037	 271076.
15:31:25  611 612	 1492356685	 717655457	 275188.
15:31:25  612 613	 1492356685	 940338220	 222683.
15:31:26  613 614	 1492356686	 216221414	 275883.
15:31:26  614 615	 1492356686	 487504030	 271283.
15:31:26  615 616	 1492356686	 758805812	 271302.
15:31:27  616 617	 1492356687	 34345981	 275540.
15:31:27  617 618	 1492356687	 305940575	 271594.
15:31:27  618 619	 1492356687	 578183022	 272243.
15:31:27  619 620	 1492356687	 853725504	 275542.
15:31:28  620 621	 1492356688	 125611374	 271886.
15:31:28  621 622	 1492356688	 401906032	 276295.
15:31:28  622 623	 1492356688	 673495939	 271590.
15:31:28  623 624	 1492356688	 945206060	 271710.
15:31:29  624 625	 1492356689	 220272148	 275066.
15:31:29  625 626	 1492356689	 491452039	 271180.
15:31:29  626 627	 1492356689	 713511811	 222060.
15:31:29  627 628	 1492356689	 984549067	 271037.
15:31:30  628 629	 1492356690	 255597073	 271048.
15:31:30  629 630	 1492356690	 526486485	 270889.
15:31:30  630 631	 1492356690	 801668628	 275182.
15:31:31  631 632	 1492356691	 72959157	 271291.
15:31:31  632 633	 1492356691	 343828655	 270869.
15:31:31  633 634	 1492356691	 614687630	 270859.
15:31:31  634 635	 1492356691	 836885944	 222199.
15:31:32  635 636	 1492356692	 108174997	 271289.
15:31:32  636 637	 1492356692	 383677665	 275502.
15:31:32  637 638	 1492356692	 655354458	 271677.
15:31:32  638 639	 1492356692	 927236701	 271882.
15:31:33  639 640	 1492356693	 203151517	 275915.
15:31:33  640 641	 1492356693	 474287936	 271137.
15:31:33  641 642	 1492356693	 745783701	 271495.
15:31:34  642 643	 1492356694	 21385246	 275602.
15:31:34  643 644	 1492356694	 292370091	 270985.
15:31:34  644 645	 1492356694	 563748559	 271379.
15:31:34  645 646	 1492356694	 835181541	 271432.
15:31:35  646 647	 1492356695	 111375990	 276195.
15:31:35  647 648	 1492356695	 333882517	 222506.
15:31:35  648 649	 1492356695	 609786041	 275904.
15:31:35  649 650	 1492356695	 877746998	 267961.
15:31:36  650 651	 1492356696	 153944556	 276197.
15:31:36  651 652	 1492356696	 430091152	 276147.
15:31:36  652 653	 1492356696	 701962945	 271872.
15:31:36  653 654	 1492356696	 977568988	 275606.
15:31:37  654 655	 1492356697	 249140584	 271571.
15:31:37  655 656	 1492356697	 525207901	 276068.
15:31:37  656 657	 1492356697	 744219613	 219011.
15:31:38  657 658	 1492356698	 20620732	 276401.
15:31:38  658 659	 1492356698	 296514509	 275894.
15:31:38  659 660	 1492356698	 568530823	 272017.
15:31:38  660 661	 1492356698	 844534442	 276003.
15:31:39  661 662	 1492356699	 116965526	 272431.
15:31:39  662 663	 1492356699	 393170638	 276205.
15:31:39  663 664	 1492356699	 664522337	 271352.
15:31:39  664 665	 1492356699	 940919546	 276397.
15:31:40  665 666	 1492356700	 163941418	 223022.
15:31:40  666 667	 1492356700	 435705573	 271764.
15:31:40  667 668	 1492356700	 711456161	 275751.
15:31:40  668 669	 1492356700	 982846261	 271390.
15:31:41  669 670	 1492356701	 205201757	 222355.
15:31:41  670 671	 1492356701	 480683247	 275482.
15:31:41  671 672	 1492356701	 756285372	 275602.
15:31:42  672 673	 1492356702	 28263288	 271978.
15:31:42  673 674	 1492356702	 251079724	 222817.
15:31:42  674 675	 1492356702	 522573704	 271493.
15:31:42  675 676	 1492356702	 793720270	 271147.
15:31:43  676 677	 1492356703	 68746628	 275027.
15:31:43  677 678	 1492356703	 340589547	 271842.
15:31:43  678 679	 1492356703	 617138714	 276549.
15:31:43  679 680	 1492356703	 889393038	 272255.
15:31:44  680 681	 1492356704	 112868038	 223475.
15:31:44  681 682	 1492356704	 389521882	 276654.
15:31:44  682 683	 1492356704	 662091370	 272569.
15:31:44  683 684	 1492356704	 938763155	 276672.
15:31:45  684 685	 1492356705	 215554039	 276791.
15:31:45  685 686	 1492356705	 486867182	 271313.
15:31:45  686 687	 1492356705	 757751302	 270884.
15:31:46  687 688	 1492356706	 32716382	 274965.
15:31:46  688 689	 1492356706	 303833014	 271117.
15:31:46  689 690	 1492356706	 574607077	 270774.
15:31:46  690 691	 1492356706	 796957509	 222350.
15:31:47  691 692	 1492356707	 67972901	 271016.
15:31:47  692 693	 1492356707	 338986788	 271014.
15:31:47  693 694	 1492356707	 614554016	 275567.
15:31:47  694 695	 1492356707	 886169854	 271616.
15:31:48  695 696	 1492356708	 162273007	 276103.
15:31:48  696 697	 1492356708	 434485250	 272212.
15:31:48  697 698	 1492356708	 710811659	 276326.
15:31:48  698 699	 1492356708	 987027599	 276216.
15:31:49  699 700	 1492356709	 210389028	 223362.
15:31:49  700 701	 1492356709	 482526169	 272137.
15:31:49  701 702	 1492356709	 758668533	 276142.
15:31:50  702 703	 1492356710	 35062063	 276394.
15:31:50  703 704	 1492356710	 307193275	 272131.
15:31:50  704 705	 1492356710	 583348742	 276155.
15:31:50  705 706	 1492356710	 855404781	 272056.
15:31:51  706 707	 1492356711	 131706293	 276302.
15:31:51  707 708	 1492356711	 408417041	 276711.
15:31:51  708 709	 1492356711	 680691251	 272274.
15:31:51  709 710	 1492356711	 957385150	 276694.
15:31:52  710 711	 1492356712	 229546948	 272162.
15:31:52  711 712	 1492356712	 452782429	 223235.
15:31:52  712 713	 1492356712	 729022579	 276240.
15:31:53  713 714	 1492356713	 5085732	 276063.
15:31:53  714 715	 1492356713	 276511201	 271426.
15:31:53  715 716	 1492356713	 548605384	 272094.
15:31:53  716 717	 1492356713	 824975044	 276370.
15:31:54  717 718	 1492356714	 96724290	 271749.
15:31:54  718 719	 1492356714	 371795950	 275072.
15:31:54  719 720	 1492356714	 643423125	 271627.
15:31:54  720 721	 1492356714	 914975550	 271552.
15:31:55  721 722	 1492356715	 137453426	 222478.
15:31:55  722 723	 1492356715	 412961378	 275508.
15:31:55  723 724	 1492356715	 684812782	 271851.
15:31:55  724 725	 1492356715	 960635222	 275823.
15:31:56  725 726	 1492356716	 232765179	 272130.
15:31:56  726 727	 1492356716	 504393919	 271629.
15:31:56  727 728	 1492356716	 780161288	 275767.
15:31:57  728 729	 1492356717	 51956169	 271795.
15:31:57  729 730	 1492356717	 327844683	 275888.
15:31:57  730 731	 1492356717	 550757284	 222913.
15:31:57  731 732	 1492356717	 821980173	 271223.
15:31:58  732 733	 1492356718	 93572147	 271592.
15:31:58  733 734	 1492356718	 369096028	 275524.
15:31:58  734 735	 1492356718	 641133910	 272038.
15:31:58  735 736	 1492356718	 917366019	 276232.
15:31:59  736 737	 1492356719	 189028330	 271662.
15:31:59  737 738	 1492356719	 464228318	 275200.
15:31:59  738 739	 1492356719	 735567017	 271339.
15:32:00  739 740	 1492356720	 7561611	 271994.
15:32:00  740 741	 1492356720	 282972901	 275412.
15:32:00  741 742	 1492356720	 554595995	 271623.
15:32:00  742 743	 1492356720	 826035693	 271439.
15:32:01  743 744	 1492356721	 48742294	 222707.
15:32:01  744 745	 1492356721	 319911668	 271169.
15:32:01  745 746	 1492356721	 591204036	 271293.
15:32:01  746 747	 1492356721	 866663368	 275459.
15:32:02  747 748	 1492356722	 137808557	 271145.
15:32:02  748 749	 1492356722	 413012218	 275204.
15:32:02  749 750	 1492356722	 684333930	 271322.
15:32:02  750 751	 1492356722	 955699752	 271365.
15:32:03  751 752	 1492356723	 226899020	 271200.
15:32:03  752 753	 1492356723	 498168651	 271269.
15:32:03  753 754	 1492356723	 720365562	 222197.
15:32:03  754 755	 1492356723	 992090001	 271725.
15:32:04  755 756	 1492356724	 267452061	 275362.
15:32:04  756 757	 1492356724	 538944112	 271492.
15:32:04  757 758	 1492356724	 814480569	 275536.
15:32:05  758 759	 1492356725	 86043764	 271563.
15:32:05  759 760	 1492356725	 357714923	 271672.
15:32:05  760 761	 1492356725	 633326559	 275611.
15:32:05  761 762	 1492356725	 904831994	 271506.
15:32:06  762 763	 1492356726	 179982639	 275150.
15:32:06  763 764	 1492356726	 398127652	 218145.
15:32:06  764 765	 1492356726	 673595889	 275469.
15:32:06  765 766	 1492356726	 944868541	 271272.
15:32:07  766 767	 1492356727	 216058311	 271190.
15:32:07  767 768	 1492356727	 490940764	 274882.
15:32:07  768 769	 1492356727	 762645072	 271705.
15:32:08  769 770	 1492356728	 38699145	 276054.
15:32:08  770 771	 1492356728	 310882456	 272183.
15:32:08  771 772	 1492356728	 582353533	 271471.
15:32:08  772 773	 1492356728	 857572992	 275220.
15:32:09  773 774	 1492356729	 129377777	 271804.
15:32:09  774 775	 1492356729	 352794963	 223418.
15:32:09  775 776	 1492356729	 629252040	 276457.
15:32:09  776 777	 1492356729	 901790270	 272538.
15:32:10  777 778	 1492356730	 178182440	 276392.
15:32:10  778 779	 1492356730	 450506808	 272325.
15:32:10  779 780	 1492356730	 726239525	 275732.
15:32:10  780 781	 1492356731	 2050646	 275811.
15:32:11  781 782	 1492356731	 273156867	 271107.
15:32:11  782 783	 1492356731	 495073509	 221916.
15:32:11  783 784	 1492356731	 766208775	 271135.
15:32:12  784 785	 1492356732	 37000237	 270792.
15:32:12  785 786	 1492356732	 311721935	 274722.
15:32:12  786 787	 1492356732	 582751896	 271030.
15:32:12  787 788	 1492356732	 854562931	 271811.
15:32:13  788 789	 1492356733	 77163594	 222600.
15:32:13  789 790	 1492356733	 352853367	 275690.
15:32:13  790 791	 1492356733	 624349152	 271496.
15:32:13  791 792	 1492356733	 899512623	 275163.
15:32:14  792 793	 1492356734	 122643630	 223131.
15:32:14  793 794	 1492356734	 394161871	 271519.
15:32:14  794 795	 1492356734	 670133160	 275971.
15:32:14  795 796	 1492356734	 941488663	 271355.
15:32:15  796 797	 1492356735	 212414669	 270926.
15:32:15  797 798	 1492356735	 434781894	 222368.
15:32:15  798 799	 1492356735	 709719889	 274938.
15:32:15  799 800	 1492356735	 982092801	 272373.
15:32:16  800 801	 1492356736	 258480397	 276387.
15:32:16  801 802	 1492356736	 530737496	 272257.
15:32:16  802 803	 1492356736	 806910253	 276173.
15:32:17  803 804	 1492356737	 82935031	 276025.
15:32:17  804 805	 1492356737	 305956776	 223021.
15:32:17  805 806	 1492356737	 577695851	 271740.
15:32:17  806 807	 1492356737	 849695694	 271999.
15:32:18  807 808	 1492356738	 125567561	 275872.
15:32:18  808 809	 1492356738	 397542992	 271976.
15:32:18  809 810	 1492356738	 669593953	 272051.
15:32:18  810 811	 1492356738	 896521296	 226927.
15:32:19  811 812	 1492356739	 168540005	 272019.
15:32:19  812 813	 1492356739	 440365996	 271826.
15:32:19  813 814	 1492356739	 716625366	 276259.
15:32:19  814 815	 1492356739	 992735807	 276111.
15:32:20  815 816	 1492356740	 265206199	 272470.
15:32:20  816 817	 1492356740	 541900976	 276695.
15:32:20  817 818	 1492356740	 814280911	 272380.
15:32:21  818 819	 1492356741	 90487687	 276206.
15:32:21  819 820	 1492356741	 362531757	 272044.
15:32:21  820 821	 1492356741	 633536752	 271005.
15:32:21  821 822	 1492356741	 860397117	 226861.
15:32:22  822 823	 1492356742	 131620295	 271223.
15:32:22  823 824	 1492356742	 402442090	 270822.
15:32:22  824 825	 1492356742	 677965363	 275523.
15:32:22  825 826	 1492356742	 949399937	 271435.
15:32:23  826 827	 1492356743	 220490038	 271090.
15:32:23  827 828	 1492356743	 495960290	 275470.
15:32:23  828 829	 1492356743	 718199686	 222239.
15:32:23  829 830	 1492356743	 988960633	 270761.
15:32:24  830 831	 1492356744	 264329749	 275369.
15:32:24  831 832	 1492356744	 535960141	 271631.
15:32:24  832 833	 1492356744	 811263349	 275303.
15:32:25  833 834	 1492356745	 82655251	 271392.
15:32:25  834 835	 1492356745	 305211896	 222557.
15:32:25  835 836	 1492356745	 579905079	 274693.
15:32:25  836 837	 1492356745	 850844445	 270939.
15:32:26  837 838	 1492356746	 125800977	 274957.
15:32:26  838 839	 1492356746	 348036852	 222236.
15:32:26  839 840	 1492356746	 619421987	 271385.
15:32:26  840 841	 1492356746	 894693606	 275271.
15:32:27  841 842	 1492356747	 166313185	 271620.
15:32:27  842 843	 1492356747	 437560648	 271247.
15:32:27  843 844	 1492356747	 713042766	 275482.
15:32:27  844 845	 1492356747	 984584464	 271542.
15:32:28  845 846	 1492356748	 255555901	 270972.
15:32:28  846 847	 1492356748	 477902476	 222346.
15:32:28  847 848	 1492356748	 753582054	 275680.
15:32:29  848 849	 1492356749	 24588034	 271006.
15:32:29  849 850	 1492356749	 295841837	 271254.
15:32:29  850 851	 1492356749	 571092576	 275250.
15:32:29  851 852	 1492356749	 842343918	 271252.
15:32:30  852 853	 1492356750	 113683547	 271339.
15:32:30  853 854	 1492356750	 335980830	 222298.
15:32:30  854 855	 1492356750	 607172004	 271191.
15:32:30  855 856	 1492356750	 882328781	 275156.
15:32:31  856 857	 1492356751	 153759278	 271431.
15:32:31  857 858	 1492356751	 424537939	 270779.
15:32:31  858 859	 1492356751	 699816480	 275278.
15:32:31  859 860	 1492356751	 971472238	 271656.
15:32:32  860 861	 1492356752	 193618392	 222146.
15:32:32  861 862	 1492356752	 464637896	 271020.
15:32:32  862 863	 1492356752	 740794514	 276156.
15:32:33  863 864	 1492356753	 12142852	 271349.
15:32:33  864 865	 1492356753	 287626946	 275484.
15:32:33  865 866	 1492356753	 559168128	 271541.
15:32:33  866 867	 1492356753	 834382921	 275215.
15:32:34  867 868	 1492356754	 56912821	 222530.
15:32:34  868 869	 1492356754	 328546982	 271634.
15:32:34  869 870	 1492356754	 599576573	 271029.
15:32:34  870 871	 1492356754	 875063826	 275488.
15:32:35  871 872	 1492356755	 145947995	 270884.
15:32:35  872 873	 1492356755	 417302276	 271354.
15:32:35  873 874	 1492356755	 692507486	 275205.
15:32:35  874 875	 1492356755	 964067599	 271560.
15:32:36  875 876	 1492356756	 235454416	 271387.
15:32:36  876 877	 1492356756	 457787235	 222333.
15:32:36  877 878	 1492356756	 728952693	 271165.
15:32:36  878 879	 1492356757	 4712151	 275760.
15:32:37  879 880	 1492356757	 275394141	 270682.
15:32:37  880 881	 1492356757	 550653959	 275260.
15:32:37  881 882	 1492356757	 822154977	 271501.
15:32:38  882 883	 1492356758	 43597596	 221442.
15:32:38  883 884	 1492356758	 315199142	 271602.
15:32:38  884 885	 1492356758	 591035905	 275837.
15:32:38  885 886	 1492356758	 862119794	 271084.
15:32:39  886 887	 1492356759	 133396096	 271276.
15:32:39  887 888	 1492356759	 409227261	 275831.
15:32:39  888 889	 1492356759	 680014853	 270788.
15:32:39  889 890	 1492356759	 902155948	 222141.
15:32:40  890 891	 1492356760	 173696011	 271540.
15:32:40  891 892	 1492356760	 444782889	 271087.
15:32:40  892 893	 1492356760	 719833082	 275050.
15:32:40  893 894	 1492356760	 991249633	 271417.
15:32:41  894 895	 1492356761	 266644312	 275394.
15:32:41  895 896	 1492356761	 537619252	 270975.
15:32:41  896 897	 1492356761	 759891697	 222272.
15:32:42  897 898	 1492356762	 31229929	 271339.
15:32:42  898 899	 1492356762	 306534644	 275304.
15:32:42  899 900	 1492356762	 578224951	 271691.
15:32:42  900 901	 1492356762	 849511326	 271286.
15:32:43  901 902	 1492356763	 120355160	 270844.
15:32:43  902 903	 1492356763	 396263253	 275908.
15:32:43  903 904	 1492356763	 618489767	 222226.
15:32:43  904 905	 1492356763	 889814063	 271325.
15:32:44  905 906	 1492356764	 161571418	 271757.
15:32:44  906 907	 1492356764	 436521612	 274950.
15:32:44  907 908	 1492356764	 708271305	 271750.
15:32:44  908 909	 1492356764	 980126689	 271855.
15:32:45  909 910	 1492356765	 255623786	 275498.
15:32:45  910 911	 1492356765	 526750488	 271126.
15:32:45  911 912	 1492356765	 797846060	 271096.
15:32:46  912 913	 1492356766	 24128477	 226282.
15:32:46  913 914	 1492356766	 295045464	 270917.
15:32:46  914 915	 1492356766	 566302785	 271258.
15:32:46  915 916	 1492356766	 841823312	 275520.
15:32:47  916 917	 1492356767	 113355112	 271532.
15:32:47  917 918	 1492356767	 384525563	 271170.
15:32:47  918 919	 1492356767	 606846592	 222321.
15:32:47  919 920	 1492356767	 881895489	 275049.
15:32:48  920 921	 1492356768	 152700763	 270805.
15:32:48  921 922	 1492356768	 423977342	 271277.
15:32:48  922 923	 1492356768	 698874311	 274897.
15:32:48  923 924	 1492356768	 970376492	 271502.
15:32:49  924 925	 1492356769	 192648940	 222273.
15:32:49  925 926	 1492356769	 463887031	 271238.
15:32:49  926 927	 1492356769	 739072443	 275185.
15:32:50  927 928	 1492356770	 9851948	 270780.
15:32:50  928 929	 1492356770	 280688294	 270836.
15:32:50  929 930	 1492356770	 551618942	 270931.
15:32:50  930 931	 1492356770	 778102855	 226484.
15:32:51  931 932	 1492356771	 49448622	 271345.
15:32:51  932 933	 1492356771	 320514609	 271066.
15:32:51  933 934	 1492356771	 596042012	 275528.
15:32:51  934 935	 1492356771	 867463154	 271421.
15:32:52  935 936	 1492356772	 138731486	 271268.
15:32:52  936 937	 1492356772	 414224409	 275493.
15:32:52  937 938	 1492356772	 685194483	 270970.
15:32:52  938 939	 1492356772	 907086832	 221893.
15:32:53  939 940	 1492356773	 178530839	 271444.
15:32:53  940 941	 1492356773	 450095739	 271565.
15:32:53  941 942	 1492356773	 721148284	 271052.
15:32:53  942 943	 1492356773	 996534226	 275386.
15:32:54  943 944	 1492356774	 268029707	 271495.
15:32:54  944 945	 1492356774	 544373132	 276344.
15:32:54  945 946	 1492356774	 816726941	 272354.
15:32:55  946 947	 1492356775	 39737971	 223011.
15:32:55  947 948	 1492356775	 315516079	 275778.
15:32:55  948 949	 1492356775	 587257592	 271741.
15:32:55  949 950	 1492356775	 863173310	 275916.
15:32:56  950 951	 1492356776	 135074507	 271901.
15:32:56  951 952	 1492356776	 357985353	 222911.
15:32:56  952 953	 1492356776	 634164231	 276179.
15:32:56  953 954	 1492356776	 909513286	 275349.
15:32:57  954 955	 1492356777	 181077931	 271565.
15:32:57  955 956	 1492356777	 407198822	 226121.
15:32:57  956 957	 1492356777	 678957131	 271758.
15:32:57  957 958	 1492356777	 954741230	 275784.
15:32:58  958 959	 1492356778	 226717579	 271976.
15:32:58  959 960	 1492356778	 503060318	 276343.
15:32:58  960 961	 1492356778	 775478616	 272419.
15:32:58  961 962	 1492356778	 997876730	 222397.
15:32:59  962 963	 1492356779	 273988377	 276112.
15:32:59  963 964	 1492356779	 550290830	 276303.
15:32:59  964 965	 1492356779	 822539709	 272248.
15:33:00  965 966	 1492356780	 98337217	 275798.
15:33:00  966 967	 1492356780	 369866733	 271529.
15:33:00  967 968	 1492356780	 641830766	 271965.
15:33:00  968 969	 1492356780	 864043032	 222212.
15:33:01  969 970	 1492356781	 135046165	 271003.
15:33:01  970 971	 1492356781	 409882487	 274836.
15:33:01  971 972	 1492356781	 681399873	 271518.
15:33:01  972 973	 1492356781	 956994873	 275595.
15:33:02  973 974	 1492356782	 228297689	 271302.
15:33:02  974 975	 1492356782	 499255429	 270958.
15:33:02  975 976	 1492356782	 774530673	 275275.
15:33:03  976 977	 1492356783	 46132992	 271603.
15:33:03  977 978	 1492356783	 268631673	 222498.
15:33:03  978 979	 1492356783	 540261518	 271630.
15:33:03  979 980	 1492356783	 815917791	 275656.
15:33:04  980 981	 1492356784	 86854834	 270938.
15:33:04  981 982	 1492356784	 357950309	 271095.
15:33:04  982 983	 1492356784	 633216281	 275266.
15:33:04  983 984	 1492356784	 851439056	 218223.
15:33:05  984 985	 1492356785	 127191160	 275752.
15:33:05  985 986	 1492356785	 398729510	 271538.
15:33:05  986 987	 1492356785	 674597812	 275869.
15:33:05  987 988	 1492356785	 945962859	 271365.
15:33:06  988 989	 1492356786	 217247646	 271284.
15:33:06  989 990	 1492356786	 492670043	 275423.
15:33:06  990 991	 1492356786	 764317500	 271647.
15:33:07  991 992	 1492356787	 40047423	 275730.
15:33:07  992 993	 1492356787	 312144375	 272097.
15:33:07  993 994	 1492356787	 538987107	 226843.
15:33:07  994 995	 1492356787	 810054808	 271068.
15:33:08  995 996	 1492356788	 81142107	 271087.
15:33:08  996 997	 1492356788	 356727014	 275585.
15:33:08  997 998	 1492356788	 628274988	 271548.
15:33:08  998 999	 1492356788	 899311003	 271036.
15:33:09  999 1000	 1492356789	 169885945	 270575.
15:33:09 1000 1001	 1492356789	 391939165	 222053.
15:33:09 1001 1002	 1492356789	 668333238	 276394.
15:33:09 1002 1003	 1492356789	 940374893	 272042.
15:33:10 1003 1004	 1492356790	 216224035	 275849.
15:33:10 1004 1005	 1492356790	 491939729	 275715.
15:33:10 1005 1006	 1492356790	 714658735	 222719.
15:33:10 1006 1007	 1492356790	 986465762	 271807.
15:33:11 1007 1008	 1492356791	 263117306	 276652.
15:33:11 1008 1009	 1492356791	 534729613	 271612.
15:33:11 1009 1010	 1492356791	 811311960	 276583.
15:33:12 1010 1011	 1492356792	 87318121	 276006.
15:33:12 1011 1012	 1492356792	 306067664	 218749.
15:33:12 1012 1013	 1492356792	 582167083	 276100.
15:33:12 1013 1014	 1492356792	 858746450	 276579.
15:33:13 1014 1015	 1492356793	 130642765	 271896.
15:33:13 1015 1016	 1492356793	 406987331	 276345.
15:33:13 1016 1017	 1492356793	 678272336	 271285.
15:33:13 1017 1018	 1492356793	 901120637	 222848.
15:33:14 1018 1019	 1492356794	 176420973	 275301.
15:33:14 1019 1020	 1492356794	 447285257	 270864.
15:33:14 1020 1021	 1492356794	 718031362	 270746.
15:33:14 1021 1022	 1492356794	 992796272	 274765.
15:33:15 1022 1023	 1492356795	 263785267	 270989.
15:33:15 1023 1024	 1492356795	 485892860	 222108.
15:33:15 1024 1025	 1492356795	 757954716	 272061.
15:33:16 1025 1026	 1492356796	 33807598	 275853.
15:33:16 1026 1027	 1492356796	 310055059	 276248.
15:33:16 1027 1028	 1492356796	 582389489	 272334.
15:33:16 1028 1029	 1492356796	 854259503	 271870.
15:33:17 1029 1030	 1492356797	 130330092	 276071.
15:33:17 1030 1031	 1492356797	 353457939	 223128.
15:33:17 1031 1032	 1492356797	 629878500	 276420.
15:33:17 1032 1033	 1492356797	 901825554	 271947.
15:33:18 1033 1034	 1492356798	 177935220	 276110.
15:33:18 1034 1035	 1492356798	 450428795	 272494.
15:33:18 1035 1036	 1492356798	 726892402	 276463.
15:33:18 1036 1037	 1492356799	 2859011	 275967.
15:33:19 1037 1038	 1492356799	 225439763	 222580.
15:33:19 1038 1039	 1492356799	 497475690	 272036.
15:33:19 1039 1040	 1492356799	 770172506	 272697.
15:33:20 1040 1041	 1492356800	 45960371	 275788.
15:33:20 1041 1042	 1492356800	 317718832	 271759.
15:33:20 1042 1043	 1492356800	 593221002	 275502.
15:33:20 1043 1044	 1492356800	 864077940	 270857.
15:33:21 1044 1045	 1492356801	 86572095	 222494.
15:33:21 1045 1046	 1492356801	 362609337	 276037.
15:33:21 1046 1047	 1492356801	 635071572	 272462.
15:33:21 1047 1048	 1492356801	 910919078	 275848.
15:33:22 1048 1049	 1492356802	 182636640	 271717.
15:33:22 1049 1050	 1492356802	 458941721	 276305.
15:33:22 1050 1051	 1492356802	 681328795	 222387.
15:33:22 1051 1052	 1492356802	 952912584	 271584.
15:33:23 1052 1053	 1492356803	 229178453	 276266.
15:33:23 1053 1054	 1492356803	 501082024	 271904.
15:33:23 1054 1055	 1492356803	 723642937	 222561.
15:33:23 1055 1056	 1492356803	 999531773	 275888.
15:33:24 1056 1057	 1492356804	 275250612	 275719.
15:33:24 1057 1058	 1492356804	 547515569	 272265.
15:33:24 1058 1059	 1492356804	 823288809	 275774.
15:33:25 1059 1060	 1492356805	 46311618	 223022.
15:33:25 1060 1061	 1492356805	 318522467	 272211.
15:33:25 1061 1062	 1492356805	 594461688	 275939.
15:33:25 1062 1063	 1492356805	 869926946	 275466.
15:33:26 1063 1064	 1492356806	 142273439	 272346.
15:33:26 1064 1065	 1492356806	 418997691	 276724.
15:33:26 1065 1066	 1492356806	 691005948	 272009.
15:33:26 1066 1067	 1492356806	 967618613	 276612.
15:33:27 1067 1068	 1492356807	 243902810	 276285.
15:33:27 1068 1069	 1492356807	 466440857	 222538.
15:33:27 1069 1070	 1492356807	 738999206	 272558.
15:33:28 1070 1071	 1492356808	 15450129	 276451.
15:33:28 1071 1072	 1492356808	 287663766	 272213.
15:33:28 1072 1073	 1492356808	 563972795	 276309.
15:33:28 1073 1074	 1492356808	 836240712	 272268.
15:33:29 1074 1075	 1492356809	 111806731	 275566.
15:33:29 1075 1076	 1492356809	 383279893	 271474.
15:33:29 1076 1077	 1492356809	 605829630	 222549.
15:33:29 1077 1078	 1492356809	 882114350	 276285.
15:33:30 1078 1079	 1492356810	 153447569	 271333.
15:33:30 1079 1080	 1492356810	 425041867	 271595.
15:33:30 1080 1081	 1492356810	 700601197	 275559.
15:33:30 1081 1082	 1492356810	 972191687	 271590.
15:33:31 1082 1083	 1492356811	 243232917	 271042.
15:33:31 1083 1084	 1492356811	 465372758	 222139.
15:33:31 1084 1085	 1492356811	 740780744	 275408.
15:33:32 1085 1086	 1492356812	 11916221	 271136.
15:33:32 1086 1087	 1492356812	 283047509	 271131.
15:33:32 1087 1088	 1492356812	 554148457	 271101.
15:33:32 1088 1089	 1492356812	 829495474	 275347.
15:33:33 1089 1090	 1492356813	 100377691	 270882.
15:33:33 1090 1091	 1492356813	 371778558	 271401.
15:33:33 1091 1092	 1492356813	 594220725	 222442.
15:33:33 1092 1093	 1492356813	 865224121	 271004.
15:33:34 1093 1094	 1492356814	 140195690	 274971.
15:33:34 1094 1095	 1492356814	 410991737	 270796.
15:33:34 1095 1096	 1492356814	 681672411	 270681.
15:33:34 1096 1097	 1492356814	 957399358	 275727.
15:33:35 1097 1098	 1492356815	 228683459	 271284.
15:33:35 1098 1099	 1492356815	 450892006	 222209.
15:33:35 1099 1100	 1492356815	 722205916	 271314.
15:33:35 1100 1101	 1492356815	 997635776	 275429.
15:33:36 1101 1102	 1492356816	 269067436	 271432.
15:33:36 1102 1103	 1492356816	 540331378	 271264.
15:33:36 1103 1104	 1492356816	 815786828	 275456.
15:33:37 1104 1105	 1492356817	 87093265	 271306.
15:33:37 1105 1106	 1492356817	 358578294	 271485.
15:33:37 1106 1107	 1492356817	 633600800	 275023.
15:33:37 1107 1108	 1492356817	 852012168	 218411.
15:33:38 1108 1109	 1492356818	 127160082	 275148.
15:33:38 1109 1110	 1492356818	 398483750	 271323.
15:33:38 1110 1111	 1492356818	 727167041	 328684.
15:33:39 1111 1112	 1492356819	 3902513	 276735.
15:33:39 1112 1113	 1492356819	 276214816	 272313.
15:33:39 1113 1114	 1492356819	 602066949	 325852.
15:33:39 1114 1115	 1492356819	 873436664	 271369.
15:33:40 1115 1116	 1492356820	 144599402	 271163.
15:33:40 1116 1117	 1492356820	 366726290	 222127.
15:33:40 1117 1118	 1492356820	 637391909	 270666.
15:33:40 1118 1119	 1492356820	 908534481	 271142.
15:33:41 1119 1120	 1492356821	 184302661	 275768.
15:33:41 1120 1121	 1492356821	 460349775	 276047.
15:33:41 1121 1122	 1492356821	 682364740	 222015.
15:33:42 1122 1123	 1492356822	 3750129	 321386.
15:33:42 1123 1124	 1492356822	 281366523	 277616.
15:33:42 1124 1125	 1492356822	 553651404	 272285.
15:33:42 1125 1126	 1492356822	 829455965	 275805.
15:33:43 1126 1127	 1492356823	 51567403	 222111.
