18:18:16    0 Step	 time(s)	 time(ns)	 delta(ms)
18:18:16    0 1	 1492539496	 341069449	 54127.
18:18:16    1 2	 1492539496	 563877619	 222808.
18:18:16    2 3	 1492539496	 836261925	 272385.
18:18:17    3 4	 1492539497	 112231356	 275969.
18:18:17    4 5	 1492539497	 387449932	 275219.
18:18:17    5 6	 1492539497	 659312958	 271863.
18:18:17    6 7	 1492539497	 881932901	 222620.
18:18:18    7 8	 1492539498	 157094298	 275161.
18:18:18    8 9	 1492539498	 428410197	 271316.
18:18:18    9 10	 1492539498	 700194680	 271784.
18:18:18   10 11	 1492539498	 922577421	 222383.
18:18:19   11 12	 1492539499	 197540042	 274963.
18:18:19   12 13	 1492539499	 469029935	 271490.
18:18:19   13 14	 1492539499	 691223871	 222194.
18:18:19   14 15	 1492539499	 966458924	 275235.
18:18:20   15 16	 1492539500	 188401910	 221943.
18:18:20   16 17	 1492539500	 459970197	 271568.
18:18:20   17 18	 1492539500	 734928906	 274959.
18:18:21   18 19	 1492539501	 6147386	 271218.
18:18:21   19 20	 1492539501	 281501372	 275354.
18:18:21   20 21	 1492539501	 552675214	 271174.
18:18:21   21 22	 1492539501	 770776307	 218101.
18:18:22   22 23	 1492539502	 46217271	 275441.
18:18:22   23 24	 1492539502	 317684395	 271467.
18:18:22   24 25	 1492539502	 588727306	 271043.
18:18:22   25 26	 1492539502	 863449649	 274722.
18:18:23   26 27	 1492539503	 134518119	 271069.
18:18:23   27 28	 1492539503	 406616674	 272098.
18:18:23   28 29	 1492539503	 683065541	 276449.
18:18:23   29 30	 1492539503	 954938304	 271873.
18:18:24   30 31	 1492539504	 177668870	 222731.
18:18:24   31 32	 1492539504	 448950081	 271281.
18:18:24   32 33	 1492539504	 724477897	 275528.
18:18:24   33 34	 1492539504	 995626780	 271149.
18:18:25   34 35	 1492539505	 217712426	 222085.
18:18:25   35 36	 1492539505	 489188147	 271476.
18:18:25   36 37	 1492539505	 764971748	 275783.
18:18:26   37 38	 1492539506	 36345873	 271375.
18:18:26   38 39	 1492539506	 311979391	 275633.
18:18:26   39 40	 1492539506	 534509560	 222530.
18:18:26   40 41	 1492539506	 805965440	 271456.
18:18:27   41 42	 1492539507	 81548580	 275583.
18:18:27   42 43	 1492539507	 352592149	 271044.
18:18:27   43 44	 1492539507	 574711515	 222119.
18:18:27   44 45	 1492539507	 845678610	 270967.
18:18:28   45 46	 1492539508	 121531568	 275853.
18:18:28   46 47	 1492539508	 391990317	 270459.
18:18:28   47 48	 1492539508	 614203566	 222213.
18:18:28   48 49	 1492539508	 889578067	 275375.
18:18:29   49 50	 1492539509	 161098711	 271520.
18:18:29   50 51	 1492539509	 383237640	 222140.
18:18:29   51 52	 1492539509	 653741304	 270503.
18:18:29   52 53	 1492539509	 879535215	 225794.
18:18:30   53 54	 1492539510	 150496298	 270961.
18:18:30   54 55	 1492539510	 425787827	 275291.
18:18:30   55 56	 1492539510	 648323328	 222536.
18:18:30   56 57	 1492539510	 919595838	 271273.
18:18:31   57 58	 1492539511	 195318570	 275722.
18:18:31   58 59	 1492539511	 466190476	 270872.
18:18:31   59 60	 1492539511	 688399332	 222209.
18:18:31   60 61	 1492539511	 964267242	 275868.
18:18:32   61 62	 1492539512	 235745515	 271478.
18:18:32   62 63	 1492539512	 457879425	 222134.
18:18:32   63 64	 1492539512	 733383162	 275504.
18:18:33   64 65	 1492539513	 4953841	 271571.
18:18:33   65 66	 1492539513	 227230537	 222276.
18:18:33   66 67	 1492539513	 502451686	 275221.
18:18:33   67 68	 1492539513	 774067958	 271617.
18:18:34   68 69	 1492539514	 49770134	 275702.
18:18:34   69 70	 1492539514	 272235400	 222465.
18:18:34   70 71	 1492539514	 547691681	 275456.
18:18:34   71 72	 1492539514	 768997167	 221306.
18:18:35   72 73	 1492539515	 39450464	 270453.
18:18:35   73 74	 1492539515	 314323988	 274874.
18:18:35   74 75	 1492539515	 536014168	 221690.
18:18:35   75 76	 1492539515	 806497839	 270484.
18:18:36   76 77	 1492539516	 28666831	 222169.
18:18:36   77 78	 1492539516	 299945646	 271278.
18:18:36   78 79	 1492539516	 574934512	 274989.
18:18:36   79 80	 1492539516	 796781760	 221847.
18:18:37   80 81	 1492539517	 67987914	 271207.
18:18:37   81 82	 1492539517	 339318110	 271330.
18:18:37   82 83	 1492539517	 614577017	 275259.
18:18:37   83 84	 1492539517	 885365979	 270789.
18:18:38   84 85	 1492539518	 107299314	 221933.
18:18:38   85 86	 1492539518	 378266926	 270968.
18:18:38   86 87	 1492539518	 653124834	 274858.
18:18:38   87 88	 1492539518	 923944471	 270819.
18:18:39   88 89	 1492539519	 195004571	 271060.
18:18:39   89 90	 1492539519	 417337683	 222333.
18:18:39   90 91	 1492539519	 687986971	 270650.
18:18:39   91 92	 1492539519	 963019166	 275032.
18:18:40   92 93	 1492539520	 234206062	 271187.
18:18:40   93 94	 1492539520	 456009326	 221803.
18:18:40   94 95	 1492539520	 730887048	 274878.
18:18:40   95 96	 1492539521	 1874765	 270987.
18:18:41   96 97	 1492539521	 272848074	 270974.
18:18:41   97 98	 1492539521	 548322736	 275475.
18:18:41   98 99	 1492539521	 770776088	 222453.
18:18:42   99 100	 1492539522	 41870005	 271094.
18:18:42  100 101	 1492539522	 313063846	 271194.
18:18:42  101 102	 1492539522	 588451340	 275387.
18:18:42  102 103	 1492539522	 859321021	 270870.
18:18:43  103 104	 1492539523	 81362477	 222041.
18:18:43  104 105	 1492539523	 352449165	 271087.
18:18:43  105 106	 1492539523	 627733896	 275285.
18:18:43  106 107	 1492539523	 898795206	 271061.
18:18:44  107 108	 1492539524	 170316168	 271521.
18:18:44  108 109	 1492539524	 445427872	 275112.
18:18:44  109 110	 1492539524	 667629562	 222201.
18:18:44  110 111	 1492539524	 938495482	 270866.
18:18:45  111 112	 1492539525	 213720975	 275226.
18:18:45  112 113	 1492539525	 484563566	 270842.
18:18:45  113 114	 1492539525	 706890994	 222328.
18:18:45  114 115	 1492539525	 978097374	 271206.
18:18:46  115 116	 1492539526	 248963619	 270866.
18:18:46  116 117	 1492539526	 519601909	 270639.
18:18:46  117 118	 1492539526	 745740531	 226138.
18:18:47  118 119	 1492539527	 16592722	 270852.
18:18:47  119 120	 1492539527	 287470444	 270878.
18:18:47  120 121	 1492539527	 562879548	 275409.
18:18:47  121 122	 1492539527	 785206405	 222327.
18:18:48  122 123	 1492539528	 60756301	 275550.
18:18:48  123 124	 1492539528	 331954973	 271199.
18:18:48  124 125	 1492539528	 554318857	 222364.
18:18:48  125 126	 1492539528	 830085054	 275766.
18:18:49  126 127	 1492539529	 105592459	 275508.
18:18:49  127 128	 1492539529	 323346231	 217753.
18:18:49  128 129	 1492539529	 598916033	 275570.
18:18:49  129 130	 1492539529	 874839578	 275923.
18:18:50  130 131	 1492539530	 97238261	 222399.
18:18:50  131 132	 1492539530	 368904102	 271666.
18:18:50  132 133	 1492539530	 645037525	 276133.
18:18:50  133 134	 1492539530	 916251406	 271214.
18:18:51  134 135	 1492539531	 192461495	 276210.
18:18:51  135 136	 1492539531	 411143583	 218682.
18:18:51  136 137	 1492539531	 687103532	 275960.
18:18:51  137 138	 1492539531	 963341686	 276238.
18:18:52  138 139	 1492539532	 235610146	 272269.
18:18:52  139 140	 1492539532	 511310018	 275700.
18:18:52  140 141	 1492539532	 782912294	 271602.
18:18:53  141 142	 1492539533	 5438926	 222527.
18:18:53  142 143	 1492539533	 280637576	 275198.
18:18:53  143 144	 1492539533	 551184212	 270547.
18:18:53  144 145	 1492539533	 773096538	 221912.
18:18:54  145 146	 1492539534	 43624079	 270528.
18:18:54  146 147	 1492539534	 315418324	 271794.
18:18:54  147 148	 1492539534	 591082386	 275664.
18:18:54  148 149	 1492539534	 866699269	 275617.
18:18:55  149 150	 1492539535	 84932530	 218233.
18:18:55  150 151	 1492539535	 360289680	 275357.
18:18:55  151 152	 1492539535	 631445917	 271157.
18:18:55  152 153	 1492539535	 902680346	 271234.
18:18:56  153 154	 1492539536	 178262520	 275582.
18:18:56  154 155	 1492539536	 449279109	 271017.
18:18:56  155 156	 1492539536	 671371611	 222092.
18:18:56  156 157	 1492539536	 942863255	 271492.
18:18:57  157 158	 1492539537	 217739838	 274877.
18:18:57  158 159	 1492539537	 439860705	 222120.
18:18:57  159 160	 1492539537	 711375258	 271515.
18:18:57  160 161	 1492539537	 987011431	 275636.
18:18:58  161 162	 1492539538	 257924858	 270914.
18:18:58  162 163	 1492539538	 479528158	 221603.
18:18:58  163 164	 1492539538	 754808780	 275280.
18:18:59  164 165	 1492539539	 25722753	 270914.
18:18:59  165 166	 1492539539	 247684293	 221962.
18:18:59  166 167	 1492539539	 523670932	 275987.
18:18:59  167 168	 1492539539	 794872668	 271201.
18:19:00  168 169	 1492539540	 66364877	 271493.
18:19:00  169 170	 1492539540	 342526828	 276162.
18:19:00  170 171	 1492539540	 614397052	 271870.
18:19:00  171 172	 1492539540	 837172100	 222775.
18:19:01  172 173	 1492539541	 108335739	 271163.
18:19:01  173 174	 1492539541	 379526002	 271191.
18:19:01  174 175	 1492539541	 654707893	 275182.
18:19:01  175 176	 1492539541	 925680138	 270972.
18:19:02  176 177	 1492539542	 196360439	 270680.
18:19:02  177 178	 1492539542	 418270894	 221911.
18:19:02  178 179	 1492539542	 688946282	 270675.
18:19:02  179 180	 1492539542	 963951163	 275005.
18:19:03  180 181	 1492539543	 234828507	 270877.
18:19:03  181 182	 1492539543	 506505594	 271677.
18:19:03  182 183	 1492539543	 778380279	 271875.
18:19:04  183 184	 1492539544	 53782347	 275402.
18:19:04  184 185	 1492539544	 324831912	 271050.
18:19:04  185 186	 1492539544	 547150160	 222318.
18:19:04  186 187	 1492539544	 818442463	 271292.
18:19:05  187 188	 1492539545	 89778649	 271336.
18:19:05  188 189	 1492539545	 365495643	 275717.
18:19:05  189 190	 1492539545	 636861297	 271366.
18:19:05  190 191	 1492539545	 911994404	 275133.
18:19:06  191 192	 1492539546	 183761480	 271767.
18:19:06  192 193	 1492539546	 406278750	 222517.
18:19:06  193 194	 1492539546	 735105503	 328827.
18:19:07  194 195	 1492539547	 11769855	 276665.
18:19:07  195 196	 1492539547	 285095511	 273325.
18:19:07  196 197	 1492539547	 562294583	 277199.
18:19:07  197 198	 1492539547	 833990635	 271696.
18:19:08  198 199	 1492539548	 109541015	 275551.
18:19:08  199 200	 1492539548	 383088634	 273548.
18:19:08  200 201	 1492539548	 659644406	 276555.
18:19:08  201 202	 1492539548	 931317765	 271673.
18:19:09  202 203	 1492539549	 207277039	 275960.
18:19:09  203 204	 1492539549	 480485918	 273209.
18:19:09  204 205	 1492539549	 702849077	 222363.
18:19:09  205 206	 1492539549	 978637471	 275788.
18:19:10  206 207	 1492539550	 249869462	 271232.
18:19:10  207 208	 1492539550	 524891580	 275022.
18:19:10  208 209	 1492539550	 796524127	 271645.
18:19:11  209 210	 1492539551	 19283184	 222747.
18:19:11  210 211	 1492539551	 290968051	 271685.
18:19:11  211 212	 1492539551	 565838932	 274871.
18:19:11  212 213	 1492539551	 836627654	 270788.
18:19:12  213 214	 1492539552	 107608911	 270982.
18:19:12  214 215	 1492539552	 329326749	 221717.
18:19:12  215 216	 1492539552	 600554111	 271228.
18:19:12  216 217	 1492539552	 875950883	 275397.
18:19:13  217 218	 1492539553	 146917087	 270966.
18:19:13  218 219	 1492539553	 422190273	 275273.
18:19:13  219 220	 1492539553	 693617186	 271427.
18:19:13  220 221	 1492539553	 916457963	 222841.
18:19:14  221 222	 1492539554	 187547384	 271089.
18:19:14  222 223	 1492539554	 462669480	 275122.
18:19:14  223 224	 1492539554	 733601360	 270932.
18:19:14  224 225	 1492539554	 955846697	 222245.
18:19:15  225 226	 1492539555	 226881128	 271035.
18:19:15  226 227	 1492539555	 502285591	 275404.
18:19:15  227 228	 1492539555	 773910999	 271626.
18:19:15  228 229	 1492539555	 995933365	 222022.
18:19:16  229 230	 1492539556	 267357687	 271424.
18:19:16  230 231	 1492539556	 542990593	 275633.
18:19:16  231 232	 1492539556	 819430158	 276440.
18:19:17  232 233	 1492539557	 92091620	 272661.
18:19:17  233 234	 1492539557	 368486696	 276395.
18:19:17  234 235	 1492539557	 640473662	 271987.
18:19:17  235 236	 1492539557	 912239632	 271766.
18:19:18  236 237	 1492539558	 187628589	 275389.
18:19:18  237 238	 1492539558	 458621457	 270993.
18:19:18  238 239	 1492539558	 679831237	 221210.
18:19:18  239 240	 1492539558	 949966737	 270135.
18:19:19  240 241	 1492539559	 224189561	 274223.
18:19:19  241 242	 1492539559	 441544592	 217355.
18:19:19  242 243	 1492539559	 711285103	 269741.
18:19:19  243 244	 1492539559	 986190861	 274906.
18:19:20  244 245	 1492539560	 257473523	 271282.
18:19:20  245 246	 1492539560	 479661777	 222188.
18:19:20  246 247	 1492539560	 750275950	 270615.
18:19:21  247 248	 1492539561	 20648399	 270372.
18:19:21  248 249	 1492539561	 294965558	 274317.
18:19:21  249 250	 1492539561	 516917548	 221952.
18:19:21  250 251	 1492539561	 787363131	 270446.
18:19:22  251 252	 1492539562	 57763685	 270400.
18:19:22  252 253	 1492539562	 279942140	 222179.
18:19:22  253 254	 1492539562	 555072550	 275130.
18:19:22  254 255	 1492539562	 826222113	 271150.
18:19:23  255 256	 1492539563	 52193424	 225971.
18:19:23  256 257	 1492539563	 323861456	 271668.
18:19:23  257 258	 1492539563	 599571364	 275710.
18:19:23  258 259	 1492539563	 821540176	 221969.
18:19:24  259 260	 1492539564	 92988867	 271449.
18:19:24  260 261	 1492539564	 368299787	 275311.
18:19:24  261 262	 1492539564	 590592312	 222292.
18:19:24  262 263	 1492539564	 861715848	 271124.
18:19:25  263 264	 1492539565	 87382384	 225666.
18:19:25  264 265	 1492539565	 358247634	 270865.
18:19:25  265 266	 1492539565	 580528026	 222281.
18:19:25  266 267	 1492539565	 855853354	 275325.
18:19:26  267 268	 1492539566	 126903786	 271051.
18:19:26  268 269	 1492539566	 349318439	 222414.
18:19:26  269 270	 1492539566	 624816397	 275498.
18:19:26  270 271	 1492539566	 894827015	 270011.
18:19:27  271 272	 1492539567	 165826724	 270999.
18:19:27  272 273	 1492539567	 437020176	 271194.
18:19:27  273 274	 1492539567	 659304250	 222284.
18:19:27  274 275	 1492539567	 930523872	 271220.
18:19:28  275 276	 1492539568	 205784506	 275260.
18:19:28  276 277	 1492539568	 476821785	 271037.
18:19:28  277 278	 1492539568	 747319736	 270498.
18:19:28  278 279	 1492539568	 968652572	 221333.
18:19:29  279 280	 1492539569	 244017100	 275365.
18:19:29  280 281	 1492539569	 515555750	 271539.
18:19:29  281 282	 1492539569	 786943785	 271388.
18:19:30  282 283	 1492539570	 58605220	 271661.
18:19:30  283 284	 1492539570	 334124944	 275520.
18:19:30  284 285	 1492539570	 605655300	 271530.
18:19:30  285 286	 1492539570	 877103214	 271448.
18:19:31  286 287	 1492539571	 148330540	 271227.
18:19:31  287 288	 1492539571	 419262439	 270932.
18:19:31  288 289	 1492539571	 694760075	 275498.
18:19:31  289 290	 1492539571	 966305999	 271546.
18:19:32  290 291	 1492539572	 237694278	 271388.
18:19:32  291 292	 1492539572	 512910647	 275216.
18:19:32  292 293	 1492539572	 731055462	 218145.
18:19:33  293 294	 1492539573	 6093647	 275039.
18:19:33  294 295	 1492539573	 277224958	 271131.
18:19:33  295 296	 1492539573	 548596716	 271371.
18:19:33  296 297	 1492539573	 823744775	 275149.
18:19:34  297 298	 1492539574	 94751854	 271007.
18:19:34  298 299	 1492539574	 365993178	 271241.
18:19:34  299 300	 1492539574	 637000922	 271008.
18:19:34  300 301	 1492539574	 858964206	 221963.
18:19:35  301 302	 1492539575	 129491861	 270528.
18:19:35  302 303	 1492539575	 404508806	 275017.
18:19:35  303 304	 1492539575	 675790715	 271281.
18:19:35  304 305	 1492539575	 946938779	 271148.
18:19:36  305 306	 1492539576	 217528963	 270591.
18:19:36  306 307	 1492539576	 439543043	 222014.
18:19:36  307 308	 1492539576	 710727036	 271184.
18:19:36  308 309	 1492539576	 985943373	 275216.
18:19:37  309 310	 1492539577	 257345866	 271403.
18:19:37  310 311	 1492539577	 528431845	 271086.
18:19:37  311 312	 1492539577	 799485411	 271053.
18:19:38  312 313	 1492539578	 75175546	 275690.
18:19:38  313 314	 1492539578	 346352363	 271177.
18:19:38  314 315	 1492539578	 617148117	 270796.
18:19:38  315 316	 1492539578	 888014441	 270866.
18:19:39  316 317	 1492539579	 163103728	 275090.
18:19:39  317 318	 1492539579	 381688807	 218585.
18:19:39  318 319	 1492539579	 652823857	 271135.
18:19:39  319 320	 1492539579	 928149378	 275325.
18:19:40  320 321	 1492539580	 198955047	 270806.
18:19:40  321 322	 1492539580	 469960875	 271006.
18:19:40  322 323	 1492539580	 741248915	 271288.
18:19:41  323 324	 1492539581	 16040434	 274791.
18:19:41  324 325	 1492539581	 287005702	 270965.
18:19:41  325 326	 1492539581	 558114914	 271110.
18:19:41  326 327	 1492539581	 829543712	 271428.
18:19:42  327 328	 1492539582	 52201290	 222658.
18:19:42  328 329	 1492539582	 327555963	 275355.
18:19:42  329 330	 1492539582	 599145438	 271589.
18:19:42  330 331	 1492539582	 870561645	 271416.
18:19:43  331 332	 1492539583	 141884916	 271324.
18:19:43  332 333	 1492539583	 413326903	 271442.
18:19:43  333 334	 1492539583	 688725169	 275398.
18:19:43  334 335	 1492539583	 959875049	 271150.
18:19:44  335 336	 1492539584	 230825028	 270950.
18:19:44  336 337	 1492539584	 506097203	 275272.
18:19:44  337 338	 1492539584	 777535749	 271438.
18:19:45  338 339	 1492539585	 48502435	 270967.
18:19:45  339 340	 1492539585	 319275084	 270773.
18:19:45  340 341	 1492539585	 541038838	 221764.
18:19:45  341 342	 1492539585	 811392186	 270353.
18:19:46  342 343	 1492539586	 85905020	 274513.
18:19:46  343 344	 1492539586	 357023118	 271118.
18:19:46  344 345	 1492539586	 579188159	 222165.
18:19:46  345 346	 1492539586	 850114241	 270926.
18:19:47  346 347	 1492539587	 121033853	 270920.
18:19:47  347 348	 1492539587	 393200001	 272166.
18:19:47  348 349	 1492539587	 651956634	 258756.
18:19:47  349 350	 1492539587	 922823594	 270867.
18:19:48  350 351	 1492539588	 197577065	 274754.
18:19:48  351 352	 1492539588	 468781741	 271204.
18:19:48  352 353	 1492539588	 686781151	 218000.
18:19:48  353 354	 1492539588	 962128063	 275347.
18:19:49  354 355	 1492539589	 233282646	 271154.
18:19:49  355 356	 1492539589	 504664788	 271382.
18:19:49  356 357	 1492539589	 779827317	 275163.
18:19:50  357 358	 1492539590	 50929090	 271102.
18:19:50  358 359	 1492539590	 322202669	 271273.
18:19:50  359 360	 1492539590	 593670354	 271468.
18:19:50  360 361	 1492539590	 868763166	 275093.
18:19:51  361 362	 1492539591	 139589449	 270826.
18:19:51  362 363	 1492539591	 361529697	 221940.
18:19:51  363 364	 1492539591	 632472558	 270943.
18:19:51  364 365	 1492539591	 903368450	 270896.
18:19:52  365 366	 1492539592	 173975405	 270607.
18:19:52  366 367	 1492539592	 444501658	 270526.
18:19:52  367 368	 1492539592	 666301885	 221801.
18:19:52  368 369	 1492539592	 941000483	 274698.
18:19:53  369 370	 1492539593	 211727533	 270727.
18:19:53  370 371	 1492539593	 482399003	 270672.
18:19:53  371 372	 1492539593	 704196793	 221798.
18:19:53  372 373	 1492539593	 975166419	 270969.
18:19:54  373 374	 1492539594	 245854306	 270688.
18:19:54  374 375	 1492539594	 520804587	 274950.
18:19:54  375 376	 1492539594	 791933835	 271130.
18:19:55  376 377	 1492539595	 62367977	 270434.
18:19:55  377 378	 1492539595	 284249805	 221881.
18:19:55  378 379	 1492539595	 554370513	 270121.
18:19:55  379 380	 1492539595	 828801380	 274431.
18:19:56  380 381	 1492539596	 50712202	 221911.
18:19:56  381 382	 1492539596	 321391262	 270679.
18:19:56  382 383	 1492539596	 596143303	 274752.
18:19:56  383 384	 1492539596	 866410702	 270267.
18:19:57  384 385	 1492539597	 88036305	 221626.
18:19:57  385 386	 1492539597	 358553943	 270518.
18:19:57  386 387	 1492539597	 628826044	 270272.
18:19:57  387 388	 1492539597	 900021615	 271196.
18:19:58  388 389	 1492539598	 121998565	 221976.
18:19:58  389 390	 1492539598	 396215564	 274217.
18:19:58  390 391	 1492539598	 666855072	 270640.
18:19:58  391 392	 1492539598	 942233960	 275379.
18:19:59  392 393	 1492539599	 160119527	 217885.
18:19:59  393 394	 1492539599	 430652664	 270533.
18:19:59  394 395	 1492539599	 705094875	 274443.
18:19:59  395 396	 1492539599	 976244653	 271149.
18:20:00  396 397	 1492539600	 197971814	 221728.
18:20:00  397 398	 1492539600	 469280132	 271308.
18:20:00  398 399	 1492539600	 740614464	 271334.
18:20:01  399 400	 1492539601	 15924154	 275310.
18:20:01  400 401	 1492539601	 287027444	 271103.
18:20:01  401 402	 1492539601	 558040140	 271013.
18:20:01  402 403	 1492539601	 829255381	 271215.
18:20:02  403 404	 1492539602	 100745281	 271490.
18:20:02  404 405	 1492539602	 376126224	 275381.
18:20:02  405 406	 1492539602	 647384320	 271258.
18:20:02  406 407	 1492539602	 918471066	 271087.
18:20:03  407 408	 1492539603	 140474013	 222003.
18:20:03  408 409	 1492539603	 415700300	 275226.
18:20:03  409 410	 1492539603	 686606868	 270907.
18:20:03  410 411	 1492539603	 957027273	 270420.
18:20:04  411 412	 1492539604	 228250729	 271223.
18:20:04  412 413	 1492539604	 503843861	 275594.
18:20:04  413 414	 1492539604	 775291656	 271447.
18:20:04  414 415	 1492539604	 997388137	 222097.
18:20:05  415 416	 1492539605	 268636328	 271248.
18:20:05  416 417	 1492539605	 543921229	 275285.
18:20:05  417 418	 1492539605	 815081884	 271161.
18:20:06  418 419	 1492539606	 90535167	 275453.
18:20:06  419 420	 1492539606	 361573836	 271039.
18:20:06  420 421	 1492539606	 632667339	 271093.
18:20:06  421 422	 1492539606	 854749165	 222082.
18:20:07  422 423	 1492539607	 125741216	 270992.
18:20:07  423 424	 1492539607	 400729103	 274988.
18:20:07  424 425	 1492539607	 671750230	 271021.
18:20:07  425 426	 1492539607	 942758901	 271009.
18:20:08  426 427	 1492539608	 213986451	 271227.
18:20:08  427 428	 1492539608	 489223002	 275237.
18:20:08  428 429	 1492539608	 760316904	 271094.
18:20:08  429 430	 1492539608	 982401232	 222084.
18:20:09  430 431	 1492539609	 253473325	 271072.
18:20:09  431 432	 1492539609	 524510800	 271038.
18:20:09  432 433	 1492539609	 799251338	 274740.
18:20:10  433 434	 1492539610	 70323009	 271072.
18:20:10  434 435	 1492539610	 292801132	 222478.
18:20:10  435 436	 1492539610	 568267069	 275466.
18:20:10  436 437	 1492539610	 839717019	 271450.
18:20:11  437 438	 1492539611	 111061135	 271344.
18:20:11  438 439	 1492539611	 385851637	 274790.
18:20:11  439 440	 1492539611	 656969080	 271118.
18:20:11  440 441	 1492539611	 879079726	 222110.
18:20:12  441 442	 1492539612	 150152213	 271073.
18:20:12  442 443	 1492539612	 425126973	 274975.
18:20:12  443 444	 1492539612	 696671162	 271544.
18:20:12  444 445	 1492539612	 972290533	 275619.
18:20:13  445 446	 1492539613	 243964949	 271675.
18:20:13  446 447	 1492539613	 466442999	 222478.
18:20:13  447 448	 1492539613	 737702775	 271259.
18:20:14  448 449	 1492539614	 13343300	 275641.
18:20:14  449 450	 1492539614	 284882640	 271539.
18:20:14  450 451	 1492539614	 560587404	 275705.
18:20:14  451 452	 1492539614	 831581375	 270994.
18:20:15  452 453	 1492539615	 102418749	 270837.
18:20:15  453 454	 1492539615	 324482091	 222064.
18:20:15  454 455	 1492539615	 595564075	 271082.
18:20:15  455 456	 1492539615	 866051906	 270488.
18:20:16  456 457	 1492539616	 141018007	 274966.
18:20:16  457 458	 1492539616	 411748495	 270730.
18:20:16  458 459	 1492539616	 682929286	 271181.
18:20:16  459 460	 1492539616	 904987558	 222059.
18:20:17  460 461	 1492539617	 176021694	 271033.
18:20:17  461 462	 1492539617	 450961307	 274940.
18:20:17  462 463	 1492539617	 722128391	 271167.
18:20:17  463 464	 1492539617	 993565799	 271438.
18:20:18  464 465	 1492539618	 268949732	 275383.
18:20:18  465 466	 1492539618	 540265015	 271316.
18:20:18  466 467	 1492539618	 762504110	 222239.
18:20:19  467 468	 1492539619	 33670936	 271167.
18:20:19  468 469	 1492539619	 304962073	 271291.
18:20:19  469 470	 1492539619	 580414292	 275452.
18:20:19  470 471	 1492539619	 851182730	 270768.
18:20:20  471 472	 1492539620	 122093544	 270911.
18:20:20  472 473	 1492539620	 348119054	 226026.
18:20:20  473 474	 1492539620	 619021724	 270902.
18:20:20  474 475	 1492539620	 890782904	 271762.
18:20:21  475 476	 1492539621	 166661437	 275878.
18:20:21  476 477	 1492539621	 438642126	 271981.
18:20:21  477 478	 1492539621	 714839155	 276197.
18:20:21  478 479	 1492539621	 986966548	 272127.
18:20:22  479 480	 1492539622	 262916799	 275951.
18:20:22  480 481	 1492539622	 535007640	 272090.
18:20:22  481 482	 1492539622	 757001728	 221995.
18:20:23  482 483	 1492539623	 27766886	 270765.
18:20:23  483 484	 1492539623	 303015772	 275248.
18:20:23  484 485	 1492539623	 574092982	 271078.
18:20:23  485 486	 1492539623	 796455815	 222363.
18:20:24  486 487	 1492539624	 67114591	 270658.
18:20:24  487 488	 1492539624	 341880793	 274767.
18:20:24  488 489	 1492539624	 564961947	 223081.
18:20:24  489 490	 1492539624	 837058045	 272096.
18:20:25  490 491	 1492539625	 108213017	 271155.
18:20:25  491 492	 1492539625	 383152382	 274939.
18:20:25  492 493	 1492539625	 658371585	 275219.
18:20:25  493 494	 1492539625	 876219040	 217848.
18:20:26  494 495	 1492539626	 147274255	 271055.
18:20:26  495 496	 1492539626	 422955521	 275681.
18:20:26  496 497	 1492539626	 698591701	 275636.
18:20:26  497 498	 1492539626	 970172827	 271582.
18:20:27  498 499	 1492539627	 192323711	 222150.
18:20:27  499 500	 1492539627	 468055756	 275733.
18:20:27  500 501	 1492539627	 739531723	 271475.
18:20:28  501 502	 1492539628	 14739187	 275208.
18:20:28  502 503	 1492539628	 236954719	 222215.
18:20:28  503 504	 1492539628	 507762812	 270809.
18:20:28  504 505	 1492539628	 778675477	 270912.
18:20:29  505 506	 1492539629	 4893920	 226219.
18:20:29  506 507	 1492539629	 276229837	 271336.
18:20:29  507 508	 1492539629	 547408817	 271179.
18:20:29  508 509	 1492539629	 822974620	 275565.
18:20:30  509 510	 1492539630	 45640750	 222666.
18:20:30  510 511	 1492539630	 317466922	 271827.
18:20:30  511 512	 1492539630	 592846866	 275380.
18:20:30  512 513	 1492539630	 864484486	 271637.
18:20:31  513 514	 1492539631	 135145212	 270661.
18:20:31  514 515	 1492539631	 356847452	 221702.
18:20:31  515 516	 1492539631	 631481960	 274635.
18:20:31  516 517	 1492539631	 902036719	 270554.
18:20:32  517 518	 1492539632	 177567959	 275532.
18:20:32  518 519	 1492539632	 396033868	 218466.
18:20:32  519 520	 1492539632	 671216442	 275182.
18:20:32  520 521	 1492539632	 942899316	 271683.
18:20:33  521 522	 1492539633	 214002999	 271104.
18:20:33  522 523	 1492539633	 440433893	 226431.
18:20:33  523 524	 1492539633	 711844737	 271410.
18:20:33  524 525	 1492539633	 983654837	 271811.
18:20:34  525 526	 1492539634	 259282947	 275628.
18:20:34  526 527	 1492539634	 530661283	 271378.
18:20:34  527 528	 1492539634	 752745622	 222084.
18:20:35  528 529	 1492539635	 27990090	 275245.
18:20:35  529 530	 1492539635	 299427512	 271437.
18:20:35  530 531	 1492539635	 570522773	 271095.
18:20:35  531 532	 1492539635	 792685144	 222163.
18:20:36  532 533	 1492539636	 67477015	 274792.
18:20:36  533 534	 1492539636	 338381480	 270904.
18:20:36  534 535	 1492539636	 613837712	 275456.
18:20:36  535 536	 1492539636	 836489535	 222652.
18:20:37  536 537	 1492539637	 107597576	 271108.
18:20:37  537 538	 1492539637	 382512187	 274915.
18:20:37  538 539	 1492539637	 653697490	 271185.
18:20:37  539 540	 1492539637	 875932143	 222235.
18:20:38  540 541	 1492539638	 146719185	 270787.
18:20:38  541 542	 1492539638	 421130311	 274411.
18:20:38  542 543	 1492539638	 643708623	 222578.
18:20:38  543 544	 1492539638	 914797910	 271090.
18:20:39  544 545	 1492539639	 189431484	 274633.
18:20:39  545 546	 1492539639	 411117761	 221686.
18:20:39  546 547	 1492539639	 682159939	 271043.
18:20:39  547 548	 1492539639	 953128138	 270968.
18:20:40  548 549	 1492539640	 224834105	 271706.
18:20:40  549 550	 1492539640	 446985788	 222152.
18:20:40  550 551	 1492539640	 722211407	 275225.
18:20:40  551 552	 1492539640	 993350018	 271139.
18:20:41  552 553	 1492539641	 268923120	 275573.
18:20:41  553 554	 1492539641	 491052955	 222130.
18:20:41  554 555	 1492539641	 762316530	 271263.
18:20:42  555 556	 1492539642	 37880894	 275565.
18:20:42  556 557	 1492539642	 308658314	 270777.
18:20:42  557 558	 1492539642	 530314147	 221656.
18:20:42  558 559	 1492539642	 801468707	 271154.
18:20:43  559 560	 1492539643	 76409714	 274941.
18:20:43  560 561	 1492539643	 298390430	 221981.
18:20:43  561 562	 1492539643	 569380450	 270990.
18:20:43  562 563	 1492539643	 844235454	 274855.
18:20:44  563 564	 1492539644	 66232900	 221998.
18:20:44  564 565	 1492539644	 337185315	 270952.
18:20:44  565 566	 1492539644	 612163964	 274979.
18:20:44  566 567	 1492539644	 834065428	 221901.
18:20:45  567 568	 1492539645	 105101472	 271036.
18:20:45  568 569	 1492539645	 380567812	 275467.
18:20:45  569 570	 1492539645	 651992320	 271424.
18:20:45  570 571	 1492539645	 874337598	 222345.
18:20:46  571 572	 1492539646	 146254267	 271917.
18:20:46  572 573	 1492539646	 421532504	 275278.
18:20:46  573 574	 1492539646	 696808887	 275277.
18:20:46  574 575	 1492539646	 967882718	 271073.
18:20:47  575 576	 1492539647	 189877977	 221996.
18:20:47  576 577	 1492539647	 465329396	 275451.
18:20:47  577 578	 1492539647	 736697281	 271368.
18:20:48  578 579	 1492539648	 7749749	 271052.
18:20:48  579 580	 1492539648	 234325864	 226577.
18:20:48  580 581	 1492539648	 505974448	 271648.
18:20:48  581 582	 1492539648	 781564005	 275590.
18:20:49  582 583	 1492539649	 53414769	 271850.
18:20:49  583 584	 1492539649	 325013228	 271599.
18:20:49  584 585	 1492539649	 600486818	 275474.
18:20:49  585 586	 1492539649	 822944325	 222457.
18:20:50  586 587	 1492539650	 94421791	 271478.
18:20:50  587 588	 1492539650	 369732298	 275310.
18:20:50  588 589	 1492539650	 591814486	 222082.
18:20:50  589 590	 1492539650	 862951523	 271137.
18:20:51  590 591	 1492539651	 138390188	 275439.
18:20:51  591 592	 1492539651	 360265734	 221875.
18:20:51  592 593	 1492539651	 631203937	 270939.
18:20:51  593 594	 1492539651	 906705961	 275502.
18:20:52  594 595	 1492539652	 178247001	 271541.
18:20:52  595 596	 1492539652	 400760293	 222513.
18:20:52  596 597	 1492539652	 671987457	 271227.
18:20:52  597 598	 1492539652	 947174730	 275188.
18:20:53  598 599	 1492539653	 279283030	 332108.
18:20:53  599 600	 1492539653	 550381769	 271099.
18:20:53  600 601	 1492539653	 776436847	 226054.
18:20:54  601 602	 1492539654	 47805733	 271369.
18:20:54  602 603	 1492539654	 323249281	 275444.
18:20:54  603 604	 1492539654	 598764672	 275515.
18:20:54  604 605	 1492539654	 820918568	 222154.
18:20:55  605 606	 1492539655	 91940274	 271022.
18:20:55  606 607	 1492539655	 317678761	 225738.
18:20:55  607 608	 1492539655	 588911671	 271233.
18:20:55  608 609	 1492539655	 864426350	 275515.
18:20:56  609 610	 1492539656	 135297556	 270871.
18:20:56  610 611	 1492539656	 357264251	 221967.
18:20:56  611 612	 1492539656	 628414107	 271150.
18:20:56  612 613	 1492539656	 903363428	 274949.
18:20:57  613 614	 1492539657	 174228432	 270865.
18:20:57  614 615	 1492539657	 395809410	 221581.
18:20:57  615 616	 1492539657	 666604537	 270795.
18:20:57  616 617	 1492539657	 941230584	 274626.
18:20:58  617 618	 1492539658	 211962796	 270733.
18:20:58  618 619	 1492539658	 475654100	 263691.
18:20:58  619 620	 1492539658	 697704434	 222050.
18:20:58  620 621	 1492539658	 968601295	 270897.
18:20:59  621 622	 1492539659	 190958023	 222357.
18:20:59  622 623	 1492539659	 461817033	 270859.
18:20:59  623 624	 1492539659	 736794020	 274977.
18:21:00  624 625	 1492539660	 7744760	 270950.
18:21:00  625 626	 1492539660	 229791126	 222047.
18:21:00  626 627	 1492539660	 500493272	 270702.
18:21:00  627 628	 1492539660	 775344368	 274851.
18:21:01  628 629	 1492539661	 46242820	 270899.
18:21:01  629 630	 1492539661	 317073928	 270831.
18:21:01  630 631	 1492539661	 539053547	 221979.
18:21:01  631 632	 1492539661	 809888448	 270835.
18:21:02  632 633	 1492539662	 84616582	 274728.
18:21:02  633 634	 1492539662	 355647114	 271031.
18:21:02  634 635	 1492539662	 626925419	 271278.
18:21:02  635 636	 1492539662	 901855703	 274930.
18:21:03  636 637	 1492539663	 123873241	 222018.
18:21:03  637 638	 1492539663	 394549693	 270676.
18:21:03  638 639	 1492539663	 665686978	 271138.
18:21:03  639 640	 1492539663	 937030994	 271344.
18:21:04  640 641	 1492539664	 158160105	 221129.
18:21:04  641 642	 1492539664	 429287399	 271127.
18:21:04  642 643	 1492539664	 704649680	 275362.
18:21:04  643 644	 1492539664	 975611436	 270962.
18:21:05  644 645	 1492539665	 246575648	 270964.
18:21:05  645 646	 1492539665	 517442840	 270868.
18:21:05  646 647	 1492539665	 739552645	 222109.
18:21:06  647 648	 1492539666	 10410389	 270858.
18:21:06  648 649	 1492539666	 285698282	 275288.
18:21:06  649 650	 1492539666	 556986436	 271288.
18:21:06  650 651	 1492539666	 828245572	 271260.
18:21:07  651 652	 1492539667	 103906758	 275660.
18:21:07  652 653	 1492539667	 375587907	 271682.
18:21:07  653 654	 1492539667	 647358722	 271771.
18:21:07  654 655	 1492539667	 874285970	 226927.
18:21:08  655 656	 1492539668	 145031456	 270745.
18:21:08  656 657	 1492539668	 420633920	 275603.
18:21:08  657 658	 1492539668	 639135253	 218501.
18:21:08  658 659	 1492539668	 914881228	 275746.
18:21:09  659 660	 1492539669	 190793579	 275912.
18:21:09  660 661	 1492539669	 462780428	 271987.
18:21:09  661 662	 1492539669	 734990799	 272211.
18:21:10  662 663	 1492539670	 11666446	 276675.
18:21:10  663 664	 1492539670	 283945292	 272279.
18:21:10  664 665	 1492539670	 559994071	 276049.
18:21:10  665 666	 1492539670	 832094469	 272100.
18:21:11  666 667	 1492539671	 108083299	 275989.
18:21:11  667 668	 1492539671	 330805767	 222722.
18:21:11  668 669	 1492539671	 602233096	 271428.
18:21:11  669 670	 1492539671	 873869406	 271636.
18:21:12  670 671	 1492539672	 149582141	 275713.
18:21:12  671 672	 1492539672	 421143780	 271561.
18:21:12  672 673	 1492539672	 696311560	 275168.
18:21:12  673 674	 1492539672	 967427295	 271116.
18:21:13  674 675	 1492539673	 185451592	 218024.
18:21:13  675 676	 1492539673	 460909753	 275458.
18:21:13  676 677	 1492539673	 732494193	 271585.
18:21:14  677 678	 1492539674	 8464478	 275970.
18:21:14  678 679	 1492539674	 280434132	 271970.
18:21:14  679 680	 1492539674	 552156715	 271722.
18:21:14  680 681	 1492539674	 828013421	 275857.
18:21:15  681 682	 1492539675	 49750930	 221738.
18:21:15  682 683	 1492539675	 320834457	 271083.
18:21:15  683 684	 1492539675	 542907273	 222073.
18:21:15  684 685	 1492539675	 818447455	 275540.
18:21:16  685 686	 1492539676	 89972876	 271526.
18:21:16  686 687	 1492539676	 365221478	 275248.
18:21:16  687 688	 1492539676	 587377225	 222156.
18:21:16  688 689	 1492539676	 858274463	 270897.
18:21:17  689 690	 1492539677	 133695472	 275421.
18:21:17  690 691	 1492539677	 356094400	 222399.
18:21:17  691 692	 1492539677	 627584812	 271491.
18:21:17  692 693	 1492539677	 903158025	 275573.
18:21:18  693 694	 1492539678	 178473281	 275315.
18:21:18  694 695	 1492539678	 397046632	 218573.
18:21:18  695 696	 1492539678	 672775585	 275729.
18:21:18  696 697	 1492539678	 944012738	 271237.
18:21:19  697 698	 1492539679	 170346469	 226334.
18:21:19  698 699	 1492539679	 441767623	 271421.
18:21:19  699 700	 1492539679	 713241950	 271475.
18:21:19  700 701	 1492539679	 988370620	 275128.
18:21:20  701 702	 1492539680	 210524688	 222154.
18:21:20  702 703	 1492539680	 485387619	 274863.
18:21:20  703 704	 1492539680	 756486298	 271099.
18:21:20  704 705	 1492539680	 978191874	 221706.
18:21:21  705 706	 1492539681	 248780781	 270588.
18:21:21  706 707	 1492539681	 519228301	 270448.
18:21:21  707 708	 1492539681	 790009411	 270781.
18:21:22  708 709	 1492539682	 12069079	 222060.
18:21:22  709 710	 1492539682	 286972978	 274904.
18:21:22  710 711	 1492539682	 557855342	 270882.
18:21:22  711 712	 1492539682	 833102382	 275247.
18:21:23  712 713	 1492539683	 104076046	 270974.
18:21:23  713 714	 1492539683	 374876313	 270800.
18:21:23  714 715	 1492539683	 596660137	 221784.
18:21:23  715 716	 1492539683	 867348473	 270688.
18:21:24  716 717	 1492539684	 138121980	 270774.
18:21:24  717 718	 1492539684	 413098355	 274976.
18:21:24  718 719	 1492539684	 635523284	 222425.
18:21:24  719 720	 1492539684	 906539228	 271016.
18:21:25  720 721	 1492539685	 177781566	 271242.
18:21:25  721 722	 1492539685	 452628746	 274847.
18:21:25  722 723	 1492539685	 723358186	 270730.
18:21:25  723 724	 1492539685	 945784614	 222426.
18:21:26  724 725	 1492539686	 216719323	 270935.
18:21:26  725 726	 1492539686	 487218943	 270500.
18:21:26  726 727	 1492539686	 757668063	 270449.
18:21:26  727 728	 1492539686	 979331101	 221663.
18:21:27  728 729	 1492539687	 253842608	 274511.
18:21:27  729 730	 1492539687	 524337000	 270495.
18:21:27  730 731	 1492539687	 745960024	 221623.
18:21:28  731 732	 1492539688	 16390968	 270431.
18:21:28  732 733	 1492539688	 291529801	 275139.
18:21:28  733 734	 1492539688	 562464253	 270934.
18:21:28  734 735	 1492539688	 833136562	 270672.
18:21:29  735 736	 1492539689	 55197874	 222062.
18:21:29  736 737	 1492539689	 326126073	 270928.
18:21:29  737 738	 1492539689	 596915611	 270789.
18:21:29  738 739	 1492539689	 872323257	 275408.
18:21:30  739 740	 1492539690	 143193692	 270870.
18:21:30  740 741	 1492539690	 365100694	 221907.
18:21:30  741 742	 1492539690	 636319214	 271219.
18:21:30  742 743	 1492539690	 907179729	 270860.
18:21:31  743 744	 1492539691	 182154426	 274975.
18:21:31  744 745	 1492539691	 404538248	 222384.
18:21:31  745 746	 1492539691	 675409368	 270871.
18:21:31  746 747	 1492539691	 946529354	 271120.
18:21:32  747 748	 1492539692	 222406493	 275877.
18:21:32  748 749	 1492539692	 494052877	 271647.
18:21:32  749 750	 1492539692	 716979176	 222926.
18:21:32  750 751	 1492539692	 992082742	 275103.
18:21:33  751 752	 1492539693	 263249958	 271168.
18:21:33  752 753	 1492539693	 485067593	 221817.
18:21:33  753 754	 1492539693	 755981846	 270915.
18:21:34  754 755	 1492539694	 31048287	 275066.
18:21:34  755 756	 1492539694	 301331249	 270283.
18:21:34  756 757	 1492539694	 523470042	 222139.
18:21:34  757 758	 1492539694	 798686499	 275216.
18:21:35  758 759	 1492539695	 69822606	 271136.
18:21:35  759 760	 1492539695	 291352758	 221531.
18:21:35  760 761	 1492539695	 562630331	 271277.
18:21:35  761 762	 1492539695	 837656026	 275026.
18:21:36  762 763	 1492539696	 108890767	 271234.
18:21:36  763 764	 1492539696	 330977001	 222087.
18:21:36  764 765	 1492539696	 602197006	 271220.
18:21:36  765 766	 1492539696	 877900998	 275704.
18:21:37  766 767	 1492539697	 100094326	 222193.
18:21:37  767 768	 1492539697	 375065467	 274971.
18:21:37  768 769	 1492539697	 646469581	 271404.
18:21:37  769 770	 1492539697	 922313605	 275844.
18:21:38  770 771	 1492539698	 144923129	 222610.
18:21:38  771 772	 1492539698	 416302629	 271379.
18:21:38  772 773	 1492539698	 691997595	 275695.
18:21:38  773 774	 1492539698	 963447297	 271450.
18:21:39  774 775	 1492539699	 239251212	 275804.
18:21:39  775 776	 1492539699	 457343050	 218092.
18:21:39  776 777	 1492539699	 731968000	 274625.
18:21:40  777 778	 1492539700	 3244125	 271276.
18:21:40  778 779	 1492539700	 274332856	 271089.
18:21:40  779 780	 1492539700	 500511377	 226178.
18:21:40  780 781	 1492539700	 771871030	 271360.
18:21:41  781 782	 1492539701	 43397340	 271526.
18:21:41  782 783	 1492539701	 318543897	 275147.
18:21:41  783 784	 1492539701	 589533302	 270989.
18:21:41  784 785	 1492539701	 860499534	 270966.
18:21:42  785 786	 1492539702	 82714146	 222215.
18:21:42  786 787	 1492539702	 353853906	 271140.
18:21:42  787 788	 1492539702	 628974545	 275120.
18:21:42  788 789	 1492539702	 899970844	 270997.
18:21:43  789 790	 1492539703	 121918147	 221947.
18:21:43  790 791	 1492539703	 396871705	 274953.
18:21:43  791 792	 1492539703	 668644386	 271773.
18:21:43  792 793	 1492539703	 943956963	 275313.
18:21:44  793 794	 1492539704	 215855012	 271898.
18:21:44  794 795	 1492539704	 487281086	 271426.
18:21:44  795 796	 1492539704	 763392812	 276111.
18:21:44  796 797	 1492539704	 985819525	 222427.
18:21:45  797 798	 1492539705	 256797532	 270978.
18:21:45  798 799	 1492539705	 532277659	 275480.
18:21:45  799 800	 1492539705	 803208685	 270931.
18:21:46  800 801	 1492539706	 25420298	 222212.
18:21:46  801 802	 1492539706	 296971091	 271551.
18:21:46  802 803	 1492539706	 572337014	 275366.
18:21:46  803 804	 1492539706	 843894477	 271557.
18:21:47  804 805	 1492539707	 115049399	 271155.
18:21:47  805 806	 1492539707	 337666297	 222617.
18:21:47  806 807	 1492539707	 612533993	 274868.
18:21:47  807 808	 1492539707	 884470000	 271936.
18:21:48  808 809	 1492539708	 155620913	 271151.
18:21:48  809 810	 1492539708	 377201297	 221580.
18:21:48  810 811	 1492539708	 653068129	 275867.
18:21:48  811 812	 1492539708	 923890918	 270823.
18:21:49  812 813	 1492539709	 194098650	 270207.
18:21:49  813 814	 1492539709	 416199603	 222101.
18:21:49  814 815	 1492539709	 691655659	 275456.
18:21:49  815 816	 1492539709	 962614599	 270959.
18:21:50  816 817	 1492539710	 237610086	 274996.
18:21:50  817 818	 1492539710	 455519850	 217910.
18:21:50  818 819	 1492539710	 730890224	 275370.
18:21:50  819 820	 1492539711	 2570772	 271680.
18:21:51  820 821	 1492539711	 274174225	 271604.
18:21:51  821 822	 1492539711	 549514409	 275340.
18:21:51  822 823	 1492539711	 821025319	 271511.
18:21:52  823 824	 1492539712	 43650271	 222625.
18:21:52  824 825	 1492539712	 319317747	 275667.
18:21:52  825 826	 1492539712	 590803645	 271486.
18:21:52  826 827	 1492539712	 862326473	 271523.
18:21:53  827 828	 1492539713	 138224896	 275899.
18:21:53  828 829	 1492539713	 410063114	 271838.
18:21:53  829 830	 1492539713	 632929864	 222867.
18:21:53  830 831	 1492539713	 907701710	 274771.
18:21:54  831 832	 1492539714	 178062527	 270361.
18:21:54  832 833	 1492539714	 399676377	 221614.
18:21:54  833 834	 1492539714	 674677447	 275001.
18:21:54  834 835	 1492539714	 896214283	 221537.
18:21:55  835 836	 1492539715	 167545905	 271332.
18:21:55  836 837	 1492539715	 438389236	 270843.
18:21:55  837 838	 1492539715	 660369988	 221981.
18:21:55  838 839	 1492539715	 931024374	 270654.
18:21:56  839 840	 1492539716	 206488791	 275465.
18:21:56  840 841	 1492539716	 428573127	 222084.
18:21:56  841 842	 1492539716	 699927128	 271354.
18:21:56  842 843	 1492539716	 975232651	 275305.
18:21:57  843 844	 1492539717	 246599765	 271367.
18:21:57  844 845	 1492539717	 522043428	 275444.
18:21:57  845 846	 1492539717	 744219208	 222176.
18:21:58  846 847	 1492539718	 15668450	 271449.
18:21:58  847 848	 1492539718	 286597100	 270929.
18:21:58  848 849	 1492539718	 562071649	 275474.
18:21:58  849 850	 1492539718	 780202260	 218131.
18:21:59  850 851	 1492539719	 55515693	 275313.
18:21:59  851 852	 1492539719	 330447674	 274932.
18:21:59  852 853	 1492539719	 552439289	 221992.
18:21:59  853 854	 1492539719	 823677858	 271239.
18:22:00  854 855	 1492539720	 98716992	 275039.
18:22:00  855 856	 1492539720	 369137940	 270421.
18:22:00  856 857	 1492539720	 590836775	 221699.
18:22:00  857 858	 1492539720	 861732959	 270896.
18:22:01  858 859	 1492539721	 133119364	 271386.
18:22:01  859 860	 1492539721	 403771290	 270652.
18:22:01  860 861	 1492539721	 678839386	 275068.
18:22:01  861 862	 1492539721	 897030406	 218191.
18:22:02  862 863	 1492539722	 172215864	 275186.
18:22:02  863 864	 1492539722	 443301423	 271085.
18:22:02  864 865	 1492539722	 714396228	 271095.
18:22:02  865 866	 1492539722	 989423828	 275028.
18:22:03  866 867	 1492539723	 260307005	 270883.
18:22:03  867 868	 1492539723	 482542068	 222235.
18:22:03  868 869	 1492539723	 752969611	 270427.
18:22:04  869 870	 1492539724	 24000451	 271031.
18:22:04  870 871	 1492539724	 299457024	 275457.
18:22:04  871 872	 1492539724	 571126908	 271670.
18:22:04  872 873	 1492539724	 842496836	 271370.
18:22:05  873 874	 1492539725	 114081770	 271585.
18:22:05  874 875	 1492539725	 389773540	 275691.
18:22:05  875 876	 1492539725	 660852783	 271079.
18:22:05  876 877	 1492539725	 883003149	 222151.
18:22:06  877 878	 1492539726	 158396997	 275394.
18:22:06  878 879	 1492539726	 429739430	 271359.
18:22:06  879 880	 1492539726	 700692849	 270937.
18:22:06  880 881	 1492539726	 971172814	 270480.
18:22:07  881 882	 1492539727	 193440459	 222267.
18:22:07  882 883	 1492539727	 464606215	 271166.
18:22:07  883 884	 1492539727	 740799202	 276193.
18:22:08  884 885	 1492539728	 12538958	 271740.
18:22:08  885 886	 1492539728	 288426894	 275888.
18:22:08  886 887	 1492539728	 558895697	 270468.
18:22:08  887 888	 1492539728	 781478851	 222584.
18:22:09  888 889	 1492539729	 52002794	 270524.
18:22:09  889 890	 1492539729	 327578514	 275575.
18:22:09  890 891	 1492539729	 549497171	 221919.
18:22:09  891 892	 1492539729	 820444627	 270947.
18:22:10  892 893	 1492539730	 95929793	 275486.
18:22:10  893 894	 1492539730	 367782268	 271852.
18:22:10  894 895	 1492539730	 590657004	 222875.
18:22:10  895 896	 1492539730	 866009423	 275352.
18:22:11  896 897	 1492539731	 137292334	 271283.
18:22:11  897 898	 1492539731	 412713171	 275421.
18:22:11  898 899	 1492539731	 635201242	 222488.
18:22:11  899 900	 1492539731	 906572199	 271371.
18:22:12  900 901	 1492539732	 178528672	 271956.
18:22:12  901 902	 1492539732	 453711583	 275183.
18:22:12  902 903	 1492539732	 724675440	 270964.
18:22:12  903 904	 1492539732	 995554750	 270879.
18:22:13  904 905	 1492539733	 217288286	 221734.
18:22:13  905 906	 1492539733	 492037039	 274749.
18:22:13  906 907	 1492539733	 762784869	 270748.
18:22:14  907 908	 1492539734	 33757136	 270972.
18:22:14  908 909	 1492539734	 304634956	 270878.
18:22:14  909 910	 1492539734	 579400074	 274765.
18:22:14  910 911	 1492539734	 850071987	 270672.
18:22:15  911 912	 1492539735	 71736117	 221664.
18:22:15  912 913	 1492539735	 343042802	 271307.
18:22:15  913 914	 1492539735	 614195472	 271152.
18:22:15  914 915	 1492539735	 889152055	 274957.
18:22:16  915 916	 1492539736	 159962345	 270810.
18:22:16  916 917	 1492539736	 381869381	 221907.
18:22:16  917 918	 1492539736	 653179015	 271310.
18:22:16  918 919	 1492539736	 928217513	 275038.
18:22:17  919 920	 1492539737	 199250292	 271033.
18:22:17  920 921	 1492539737	 470390267	 271140.
18:22:17  921 922	 1492539737	 692245192	 221855.
18:22:17  922 923	 1492539737	 967453346	 275208.
18:22:18  923 924	 1492539738	 238491123	 271038.
18:22:18  924 925	 1492539738	 509432230	 270941.
18:22:18  925 926	 1492539738	 731534921	 222103.
18:22:19  926 927	 1492539739	 6672625	 275137.
18:22:19  927 928	 1492539739	 277670265	 270998.
18:22:19  928 929	 1492539739	 552785222	 275115.
18:22:19  929 930	 1492539739	 775116558	 222331.
18:22:20  930 931	 1492539740	 46087112	 270971.
18:22:20  931 932	 1492539740	 321214532	 275127.
18:22:20  932 933	 1492539740	 592138322	 270924.
18:22:20  933 934	 1492539740	 813697909	 221560.
18:22:21  934 935	 1492539741	 84737944	 271040.
18:22:21  935 936	 1492539741	 359837436	 275099.
18:22:21  936 937	 1492539741	 630791983	 270955.
18:22:21  937 938	 1492539741	 852483327	 221691.
18:22:22  938 939	 1492539742	 123047399	 270564.
18:22:22  939 940	 1492539742	 398141492	 275094.
18:22:22  940 941	 1492539742	 669499873	 271359.
18:22:22  941 942	 1492539742	 891765634	 222265.
18:22:23  942 943	 1492539743	 163405107	 271640.
18:22:23  943 944	 1492539743	 440336644	 276932.
18:22:23  944 945	 1492539743	 699780209	 259443.
18:22:23  945 946	 1492539743	 971649072	 271869.
18:22:24  946 947	 1492539744	 194031941	 222383.
18:22:24  947 948	 1492539744	 469754691	 275722.
18:22:24  948 949	 1492539744	 741116018	 271362.
18:22:25  949 950	 1492539745	 16849602	 275733.
18:22:25  950 951	 1492539745	 292844337	 275995.
18:22:25  951 952	 1492539745	 511009320	 218165.
18:22:25  952 953	 1492539745	 786629422	 275620.
18:22:26  953 954	 1492539746	 58337298	 271708.
18:22:26  954 955	 1492539746	 334014285	 275677.
18:22:26  955 956	 1492539746	 556357307	 222343.
18:22:26  956 957	 1492539746	 827734225	 271377.
18:22:27  957 958	 1492539747	 103530393	 275796.
18:22:27  958 959	 1492539747	 378988352	 275458.
18:22:27  959 960	 1492539747	 596872440	 217884.
18:22:27  960 961	 1492539747	 872562612	 275690.
18:22:28  961 962	 1492539748	 143971622	 271409.
18:22:28  962 963	 1492539748	 366112533	 222141.
18:22:28  963 964	 1492539748	 641530756	 275418.
18:22:28  964 965	 1492539748	 913041767	 271511.
18:22:29  965 966	 1492539749	 138630447	 225589.
18:22:29  966 967	 1492539749	 409134190	 270504.
18:22:29  967 968	 1492539749	 684706790	 275572.
18:22:29  968 969	 1492539749	 902567469	 217861.
18:22:30  969 970	 1492539750	 177373572	 274806.
18:22:30  970 971	 1492539750	 452196687	 274823.
18:22:30  971 972	 1492539750	 674255165	 222059.
18:22:30  972 973	 1492539750	 949351599	 275096.
18:22:31  973 974	 1492539751	 220763612	 271412.
18:22:31  974 975	 1492539751	 442985110	 222222.
18:22:31  975 976	 1492539751	 718133674	 275148.
18:22:31  976 977	 1492539751	 988740282	 270607.
18:22:32  977 978	 1492539752	 210908238	 222168.
18:22:32  978 979	 1492539752	 486161540	 275253.
18:22:32  979 980	 1492539752	 757710380	 271549.
18:22:32  980 981	 1492539752	 979939598	 222229.
18:22:33  981 982	 1492539753	 255128260	 275189.
18:22:33  982 983	 1492539753	 525875051	 270747.
18:22:33  983 984	 1492539753	 747913579	 222038.
18:22:34  984 985	 1492539754	 23464914	 275552.
18:22:34  985 986	 1492539754	 295162009	 271697.
18:22:34  986 987	 1492539754	 570705879	 275544.
18:22:34  987 988	 1492539754	 792724033	 222018.
18:22:35  988 989	 1492539755	 63904049	 271180.
18:22:35  989 990	 1492539755	 335472559	 271568.
18:22:35  990 991	 1492539755	 611091585	 275619.
18:22:35  991 992	 1492539755	 833020351	 221929.
18:22:36  992 993	 1492539756	 108270316	 275250.
18:22:36  993 994	 1492539756	 379492216	 271222.
18:22:36  994 995	 1492539756	 651043017	 271551.
18:22:36  995 996	 1492539756	 876868941	 225826.
18:22:37  996 997	 1492539757	 148241026	 271372.
18:22:37  997 998	 1492539757	 419456920	 271216.
18:22:37  998 999	 1492539757	 641900997	 222444.
18:22:37  999 1000	 1492539757	 917132864	 275232.
18:22:38 1000 1001	 1492539758	 188743113	 271610.
18:22:38 1001 1002	 1492539758	 464591678	 275848.
18:22:38 1002 1003	 1492539758	 687185175	 222594.
18:22:38 1003 1004	 1492539758	 962985297	 275800.
18:22:39 1004 1005	 1492539759	 234713293	 271728.
18:22:39 1005 1006	 1492539759	 510655621	 275942.
18:22:39 1006 1007	 1492539759	 782478150	 271823.
18:22:40 1007 1008	 1492539760	 57971540	 275493.
18:22:40 1008 1009	 1492539760	 280438693	 222467.
18:22:40 1009 1010	 1492539760	 551885639	 271447.
18:22:40 1010 1011	 1492539760	 827127202	 275242.
18:22:41 1011 1012	 1492539761	 49075067	 221948.
18:22:41 1012 1013	 1492539761	 320137783	 271063.
18:22:41 1013 1014	 1492539761	 595261671	 275123.
18:22:41 1014 1015	 1492539761	 867365981	 272105.
18:22:42 1015 1016	 1492539762	 89355794	 221989.
18:22:42 1016 1017	 1492539762	 364361980	 275007.
18:22:42 1017 1018	 1492539762	 635635020	 271273.
18:22:42 1018 1019	 1492539762	 857701421	 222066.
18:22:43 1019 1020	 1492539763	 128470644	 270769.
18:22:43 1020 1021	 1492539763	 403230649	 274760.
18:22:43 1021 1022	 1492539763	 625585278	 222355.
18:22:43 1022 1023	 1492539763	 896419057	 270834.
18:22:44 1023 1024	 1492539764	 171740938	 275322.
18:22:44 1024 1025	 1492539764	 443320756	 271579.
18:22:44 1025 1026	 1492539764	 665734108	 222414.
18:22:44 1026 1027	 1492539764	 937249305	 271515.
18:22:45 1027 1028	 1492539765	 212821296	 275572.
18:22:45 1028 1029	 1492539765	 484066873	 271246.
18:22:45 1029 1030	 1492539765	 759456634	 275389.
18:22:45 1030 1031	 1492539765	 982193084	 222737.
18:22:46 1031 1032	 1492539766	 258421669	 276228.
18:22:46 1032 1033	 1492539766	 530142337	 271721.
18:22:46 1033 1034	 1492539766	 805184378	 275042.
18:22:47 1034 1035	 1492539767	 80759326	 275575.
18:22:47 1035 1036	 1492539767	 303448389	 222689.
18:22:47 1036 1037	 1492539767	 574972922	 271525.
18:22:47 1037 1038	 1492539767	 850214548	 275241.
18:22:48 1038 1039	 1492539768	 121771097	 271557.
18:22:48 1039 1040	 1492539768	 344171108	 222400.
18:22:48 1040 1041	 1492539768	 615671593	 271500.
18:22:48 1041 1042	 1492539768	 890890582	 275219.
18:22:49 1042 1043	 1492539769	 162347235	 271457.
18:22:49 1043 1044	 1492539769	 384558994	 222212.
18:22:49 1044 1045	 1492539769	 660269970	 275711.
18:22:49 1045 1046	 1492539769	 931353210	 271083.
18:22:50 1046 1047	 1492539770	 153819978	 222467.
18:22:50 1047 1048	 1492539770	 425206997	 271387.
18:22:50 1048 1049	 1492539770	 700995134	 275788.
18:22:50 1049 1050	 1492539770	 971940263	 270945.
18:22:51 1050 1051	 1492539771	 194597187	 222657.
18:22:51 1051 1052	 1492539771	 469369181	 274772.
18:22:51 1052 1053	 1492539771	 740911761	 271543.
18:22:52 1053 1054	 1492539772	 16473845	 275562.
18:22:52 1054 1055	 1492539772	 238257669	 221783.
18:22:52 1055 1056	 1492539772	 509153749	 270896.
18:22:52 1056 1057	 1492539772	 784600070	 275447.
18:22:53 1057 1058	 1492539773	 6354934	 221755.
18:22:53 1058 1059	 1492539773	 277247402	 270892.
18:22:53 1059 1060	 1492539773	 498694764	 221447.
18:22:53 1060 1061	 1492539773	 774277793	 275584.
18:22:54 1061 1062	 1492539774	 45898867	 271621.
18:22:54 1062 1063	 1492539774	 267973885	 222075.
18:22:54 1063 1064	 1492539774	 544103016	 276129.
18:22:54 1064 1065	 1492539774	 815882601	 271779.
18:22:55 1065 1066	 1492539775	 91728078	 275846.
18:22:55 1066 1067	 1492539775	 362952986	 271225.
18:22:55 1067 1068	 1492539775	 585449962	 222497.
18:22:55 1068 1069	 1492539775	 860497720	 275047.
18:22:56 1069 1070	 1492539776	 82142618	 221645.
18:22:56 1070 1071	 1492539776	 357402446	 275260.
18:22:56 1071 1072	 1492539776	 628926574	 271524.
18:22:56 1072 1073	 1492539776	 851072738	 222147.
18:22:57 1073 1074	 1492539777	 122327702	 271254.
18:22:57 1074 1075	 1492539777	 397176692	 274849.
18:22:57 1075 1076	 1492539777	 619285432	 222109.
18:22:57 1076 1077	 1492539777	 890130302	 270845.
18:22:58 1077 1078	 1492539778	 165102543	 274972.
18:22:58 1078 1079	 1492539778	 383471749	 218369.
18:22:58 1079 1080	 1492539778	 658939883	 275469.
18:22:58 1080 1081	 1492539778	 930590700	 271650.
18:22:59 1081 1082	 1492539779	 205718948	 275129.
18:22:59 1082 1083	 1492539779	 427485066	 221766.
18:22:59 1083 1084	 1492539779	 702585933	 275101.
18:22:59 1084 1085	 1492539779	 974049610	 271463.
18:23:00 1085 1086	 1492539780	 195774119	 221725.
18:23:00 1086 1087	 1492539780	 466261938	 270488.
18:23:00 1087 1088	 1492539780	 737107754	 270845.
18:23:01 1088 1089	 1492539781	 7875870	 270769.
18:23:01 1089 1090	 1492539781	 282744761	 274868.
18:23:01 1090 1091	 1492539781	 504755022	 222011.
18:23:01 1091 1092	 1492539781	 775778892	 271024.
18:23:02 1092 1093	 1492539782	 46709988	 270931.
18:23:02 1093 1094	 1492539782	 321674163	 274964.
18:23:02 1094 1095	 1492539782	 592502586	 270828.
18:23:02 1095 1096	 1492539782	 814464863	 221963.
18:23:03 1096 1097	 1492539783	 85305874	 270841.
18:23:03 1097 1098	 1492539783	 356200772	 270894.
18:23:03 1098 1099	 1492539783	 631150482	 274950.
18:23:03 1099 1100	 1492539783	 849178104	 218028.
18:23:04 1100 1101	 1492539784	 124492487	 275314.
18:23:04 1101 1102	 1492539784	 395019703	 270527.
18:23:04 1102 1103	 1492539784	 669942426	 274923.
18:23:04 1103 1104	 1492539784	 891788354	 221846.
18:23:05 1104 1105	 1492539785	 162394158	 270606.
18:23:05 1105 1106	 1492539785	 433181741	 270787.
18:23:05 1106 1107	 1492539785	 704169635	 270988.
18:23:05 1107 1108	 1492539785	 926022285	 221853.
18:23:06 1108 1109	 1492539786	 200172529	 274150.
18:23:06 1109 1110	 1492539786	 470763908	 270592.
18:23:06 1110 1111	 1492539786	 741676488	 270912.
18:23:06 1111 1112	 1492539786	 964520882	 222845.
18:23:07 1112 1113	 1492539787	 236411848	 271891.
18:23:07 1113 1114	 1492539787	 512209183	 275797.
18:23:07 1114 1115	 1492539787	 783642547	 271433.
18:23:08 1115 1116	 1492539788	 59694732	 276052.
18:23:08 1116 1117	 1492539788	 331738131	 272044.
18:23:08 1117 1118	 1492539788	 553852500	 222114.
18:23:08 1118 1119	 1492539788	 829017154	 275165.
18:23:09 1119 1120	 1492539789	 99972311	 270955.
18:23:09 1120 1121	 1492539789	 322466109	 222494.
18:23:09 1121 1122	 1492539789	 593049952	 270584.
18:23:09 1122 1123	 1492539789	 863830542	 270780.
18:23:10 1123 1124	 1492539790	 140217948	 276388.
18:23:10 1124 1125	 1492539790	 416650527	 276432.
18:23:10 1125 1126	 1492539790	 688574273	 271924.
18:23:10 1126 1127	 1492539790	 959684515	 271110.
18:23:11 1127 1128	 1492539791	 182553720	 222869.
18:23:11 1128 1129	 1492539791	 458478834	 275926.
18:23:11 1129 1130	 1492539791	 730238951	 271760.
18:23:12 1130 1131	 1492539792	 6321181	 276082.
18:23:12 1131 1132	 1492539792	 278201073	 271880.
18:23:12 1132 1133	 1492539792	 553877333	 275676.
18:23:12 1133 1134	 1492539792	 825822281	 271945.
18:23:13 1134 1135	 1492539793	 51644803	 225823.
18:23:13 1135 1136	 1492539793	 322147817	 270503.
18:23:13 1136 1137	 1492539793	 593411551	 271263.
18:23:13 1137 1138	 1492539793	 815294756	 221883.
18:23:14 1138 1139	 1492539794	 90182601	 274888.
18:23:14 1139 1140	 1492539794	 312088385	 221906.
18:23:14 1140 1141	 1492539794	 583201648	 271113.
18:23:14 1141 1142	 1492539794	 858588079	 275387.
18:23:15 1142 1143	 1492539795	 80586029	 221998.
18:23:15 1143 1144	 1492539795	 350936625	 270350.
18:23:15 1144 1145	 1492539795	 572726920	 221791.
18:23:15 1145 1146	 1492539795	 847734747	 275007.
18:23:16 1146 1147	 1492539796	 118249836	 270516.
18:23:16 1147 1148	 1492539796	 393897068	 275647.
