11:53:29    0 Step	 time(s)	 time(ns)	 delta(ms)
11:53:29    0 1	 1492516409	 352901911	 988.
11:53:29    1 2	 1492516409	 625085836	 272184.
11:53:29    2 3	 1492516409	 900355168	 275269.
11:53:30    3 4	 1492516410	 171734752	 271379.
11:53:30    4 5	 1492516410	 447173739	 275439.
11:53:30    5 6	 1492516410	 718182669	 271010.
11:53:30    6 7	 1492516410	 940827546	 222644.
11:53:31    7 8	 1492516411	 212046083	 271219.
11:53:31    8 9	 1492516411	 487163496	 275117.
11:53:31    9 10	 1492516411	 758611831	 271449.
11:53:32   10 11	 1492516412	 34149172	 275537.
11:53:32   11 12	 1492516412	 256095733	 221946.
11:53:32   12 13	 1492516412	 527852675	 271757.
11:53:32   13 14	 1492516412	 803092412	 275240.
11:53:33   14 15	 1492516413	 74427465	 271335.
11:53:33   15 16	 1492516413	 349780594	 275353.
11:53:33   16 17	 1492516413	 572524115	 222744.
11:53:33   17 18	 1492516413	 844064205	 271540.
11:53:34   18 19	 1492516414	 119483015	 275419.
11:53:34   19 20	 1492516414	 390804191	 271321.
11:53:34   20 21	 1492516414	 613161251	 222357.
11:53:34   21 22	 1492516414	 888289998	 275129.
11:53:35   22 23	 1492516415	 159542861	 271253.
11:53:35   23 24	 1492516415	 434459139	 274916.
11:53:35   24 25	 1492516415	 656265322	 221806.
11:53:35   25 26	 1492516415	 927517077	 271252.
11:53:36   26 27	 1492516416	 202646009	 275129.
11:53:36   27 28	 1492516416	 424323879	 221678.
11:53:36   28 29	 1492516416	 694975018	 270651.
11:53:36   29 30	 1492516416	 965767718	 270792.
11:53:37   30 31	 1492516417	 241193385	 275426.
11:53:37   31 32	 1492516417	 463475836	 222282.
11:53:37   32 33	 1492516417	 738980627	 275505.
11:53:38   33 34	 1492516418	 10914613	 271934.
11:53:38   34 35	 1492516418	 286743918	 275830.
11:53:38   35 36	 1492516418	 558360190	 271616.
11:53:38   36 37	 1492516418	 781307178	 222947.
11:53:39   37 38	 1492516419	 56952358	 275645.
11:53:39   38 39	 1492516419	 328282605	 271330.
11:53:39   39 40	 1492516419	 603754692	 275472.
11:53:39   40 41	 1492516419	 826203551	 222449.
11:53:40   41 42	 1492516420	 97163312	 270960.
11:53:40   42 43	 1492516420	 372174391	 275011.
11:53:40   43 44	 1492516420	 643619252	 271445.
11:53:40   44 45	 1492516420	 866032235	 222413.
11:53:41   45 46	 1492516421	 141645048	 275613.
11:53:41   46 47	 1492516421	 412863357	 271218.
11:53:41   47 48	 1492516421	 688547138	 275684.
11:53:41   48 49	 1492516421	 911160883	 222614.
11:53:42   49 50	 1492516422	 182777324	 271616.
11:53:42   50 51	 1492516422	 458107793	 275331.
11:53:42   51 52	 1492516422	 729870434	 271762.
11:53:42   52 53	 1492516422	 952484256	 222614.
11:53:43   53 54	 1492516423	 224354449	 271870.
11:53:43   54 55	 1492516423	 499837962	 275484.
11:53:43   55 56	 1492516423	 771248924	 271411.
11:53:44   56 57	 1492516424	 46557596	 275308.
11:53:44   57 58	 1492516424	 268949429	 222392.
11:53:44   58 59	 1492516424	 540689278	 271740.
11:53:44   59 60	 1492516424	 816381167	 275692.
11:53:45   60 61	 1492516425	 87978122	 271597.
11:53:45   61 62	 1492516425	 309655879	 221678.
11:53:45   62 63	 1492516425	 579989958	 270334.
11:53:45   63 64	 1492516425	 854396172	 274406.
11:53:46   64 65	 1492516426	 75894628	 221498.
11:53:46   65 66	 1492516426	 346350136	 270456.
11:53:46   66 67	 1492516426	 616611349	 270261.
11:53:46   67 68	 1492516426	 891109595	 274498.
11:53:47   68 69	 1492516427	 108832198	 217723.
11:53:47   69 70	 1492516427	 383778994	 274947.
11:53:47   70 71	 1492516427	 654859987	 271081.
11:53:47   71 72	 1492516427	 929779284	 274919.
11:53:48   72 73	 1492516428	 151692391	 221913.
11:53:48   73 74	 1492516428	 422992106	 271300.
11:53:48   74 75	 1492516428	 693635476	 270643.
11:53:48   75 76	 1492516428	 915823276	 222188.
11:53:49   76 77	 1492516429	 191524113	 275701.
11:53:49   77 78	 1492516429	 466939854	 275416.
11:53:49   78 79	 1492516429	 738363945	 271424.
11:53:49   79 80	 1492516429	 960657780	 222293.
11:53:50   80 81	 1492516430	 231984134	 271327.
11:53:50   81 82	 1492516430	 507290135	 275306.
11:53:50   82 83	 1492516430	 778270836	 270980.
11:53:50   83 84	 1492516431	 463453	 222193.
11:53:51   84 85	 1492516431	 276261044	 275798.
11:53:51   85 86	 1492516431	 547925447	 271664.
11:53:51   86 87	 1492516431	 819570683	 271645.
11:53:52   87 88	 1492516432	 95070915	 275501.
11:53:52   88 89	 1492516432	 317562206	 222491.
11:53:52   89 90	 1492516432	 588873068	 271311.
11:53:52   90 91	 1492516432	 863678300	 274805.
11:53:53   91 92	 1492516433	 134793795	 271115.
11:53:53   92 93	 1492516433	 356906416	 222113.
11:53:53   93 94	 1492516433	 631739787	 274833.
11:53:53   94 95	 1492516433	 902910252	 271171.
11:53:54   95 96	 1492516434	 177862920	 274953.
11:53:54   96 97	 1492516434	 396199617	 218336.
11:53:54   97 98	 1492516434	 672052696	 275853.
11:53:54   98 99	 1492516434	 943604187	 271552.
11:53:55   99 100	 1492516435	 219834420	 276230.
11:53:55  100 101	 1492516435	 491290395	 271456.
11:53:55  101 102	 1492516435	 713619534	 222329.
11:53:55  102 103	 1492516435	 989403082	 275784.
11:53:56  103 104	 1492516436	 260583198	 271180.
11:53:56  104 105	 1492516436	 531810357	 271227.
11:53:56  105 106	 1492516436	 757720831	 225911.
11:53:57  106 107	 1492516437	 28577691	 270856.
11:53:57  107 108	 1492516437	 299424712	 270847.
11:53:57  108 109	 1492516437	 570798783	 271374.
11:53:57  109 110	 1492516437	 845932239	 275134.
11:53:58  110 111	 1492516438	 68064040	 222132.
11:53:58  111 112	 1492516438	 339392020	 271328.
11:53:58  112 113	 1492516438	 610716227	 271324.
11:53:58  113 114	 1492516438	 885736296	 275020.
11:53:59  114 115	 1492516439	 107861645	 222125.
11:53:59  115 116	 1492516439	 379505038	 271644.
11:53:59  116 117	 1492516439	 655649552	 276144.
11:53:59  117 118	 1492516439	 926531116	 270882.
11:54:00  118 119	 1492516440	 197168347	 270637.
11:54:00  119 120	 1492516440	 419867414	 222699.
11:54:00  120 121	 1492516440	 695965120	 276098.
11:54:00  121 122	 1492516440	 967135007	 271170.
11:54:01  122 123	 1492516441	 237983259	 270848.
11:54:01  123 124	 1492516441	 513133581	 275150.
11:54:01  124 125	 1492516441	 784373183	 271240.
11:54:02  125 126	 1492516442	 6542376	 222169.
11:54:02  126 127	 1492516442	 277364014	 270822.
11:54:02  127 128	 1492516442	 548487231	 271123.
11:54:02  128 129	 1492516442	 823359407	 274872.
11:54:03  129 130	 1492516443	 94559456	 271200.
11:54:03  130 131	 1492516443	 365432111	 270873.
11:54:03  131 132	 1492516443	 587483279	 222051.
11:54:03  132 133	 1492516443	 862311176	 274828.
11:54:04  133 134	 1492516444	 133308939	 270998.
11:54:04  134 135	 1492516444	 404412714	 271103.
11:54:04  135 136	 1492516444	 675636597	 271224.
11:54:04  136 137	 1492516444	 950605171	 274969.
11:54:05  137 138	 1492516445	 172383862	 221779.
11:54:05  138 139	 1492516445	 443154353	 270770.
11:54:05  139 140	 1492516445	 714129571	 270975.
11:54:05  140 141	 1492516445	 989220278	 275091.
11:54:06  141 142	 1492516446	 206933094	 217713.
11:54:06  142 143	 1492516446	 483104638	 276171.
11:54:06  143 144	 1492516446	 754216839	 271113.
11:54:07  144 145	 1492516447	 29606750	 275389.
11:54:07  145 146	 1492516447	 301347915	 271742.
11:54:07  146 147	 1492516447	 523757655	 222409.
11:54:07  147 148	 1492516447	 799526848	 275769.
11:54:08  148 149	 1492516448	 70850753	 271324.
11:54:08  149 150	 1492516448	 346718508	 275868.
11:54:08  150 151	 1492516448	 618622812	 271905.
11:54:08  151 152	 1492516448	 841241081	 222618.
11:54:09  152 153	 1492516449	 117275005	 276034.
11:54:09  153 154	 1492516449	 388849562	 271574.
11:54:09  154 155	 1492516449	 665697852	 276849.
11:54:09  155 156	 1492516449	 938347021	 272649.
11:54:10  156 157	 1492516450	 215190557	 276843.
11:54:10  157 158	 1492516450	 487583016	 272393.
11:54:10  158 159	 1492516450	 763593258	 276010.
11:54:11  159 160	 1492516451	 35157161	 271564.
11:54:11  160 161	 1492516451	 305789820	 270632.
11:54:11  161 162	 1492516451	 580809040	 275020.
11:54:11  162 163	 1492516451	 798749614	 217940.
11:54:12  163 164	 1492516452	 73371898	 274623.
11:54:12  164 165	 1492516452	 344628881	 271257.
11:54:12  165 166	 1492516452	 616359193	 271730.
11:54:12  166 167	 1492516452	 892901655	 276542.
11:54:13  167 168	 1492516453	 168723124	 275822.
11:54:13  168 169	 1492516453	 440824314	 272101.
11:54:13  169 170	 1492516453	 712311322	 271487.
11:54:13  170 171	 1492516453	 987713116	 275402.
11:54:14  171 172	 1492516454	 210357607	 222644.
11:54:14  172 173	 1492516454	 481856227	 271499.
11:54:14  173 174	 1492516454	 757591997	 275736.
11:54:15  174 175	 1492516455	 28724382	 271132.
11:54:15  175 176	 1492516455	 304246936	 275523.
11:54:15  176 177	 1492516455	 575762090	 271515.
11:54:15  177 178	 1492516455	 851689786	 275928.
11:54:16  178 179	 1492516456	 123235066	 271545.
11:54:16  179 180	 1492516456	 341602868	 218368.
11:54:16  180 181	 1492516456	 616711920	 275109.
11:54:16  181 182	 1492516456	 887741404	 271029.
11:54:17  182 183	 1492516457	 163049724	 275308.
11:54:17  183 184	 1492516457	 433998079	 270949.
11:54:17  184 185	 1492516457	 705129926	 271132.
11:54:17  185 186	 1492516457	 976262849	 271133.
11:54:18  186 187	 1492516458	 251459821	 275197.
11:54:18  187 188	 1492516458	 523207487	 271747.
11:54:18  188 189	 1492516458	 794949617	 271742.
11:54:19  189 190	 1492516459	 70196418	 275247.
11:54:19  190 191	 1492516459	 341638117	 271442.
11:54:19  191 192	 1492516459	 563895078	 222257.
11:54:19  192 193	 1492516459	 835516410	 271621.
11:54:20  193 194	 1492516460	 111167080	 275651.
11:54:20  194 195	 1492516460	 382612741	 271445.
11:54:20  195 196	 1492516460	 653926953	 271315.
11:54:20  196 197	 1492516460	 925331427	 271404.
11:54:21  197 198	 1492516461	 200663552	 275332.
11:54:21  198 199	 1492516461	 472219440	 271556.
11:54:21  199 200	 1492516461	 743589601	 271370.
11:54:22  200 201	 1492516462	 14943471	 271354.
11:54:22  201 202	 1492516462	 290374739	 275431.
11:54:22  202 203	 1492516462	 561707508	 271333.
11:54:22  203 204	 1492516462	 833148409	 271441.
11:54:23  204 205	 1492516463	 108608710	 275460.
11:54:23  205 206	 1492516463	 379943845	 271336.
11:54:23  206 207	 1492516463	 651025121	 271081.
11:54:23  207 208	 1492516463	 922642624	 271617.
11:54:24  208 209	 1492516464	 198473336	 275831.
11:54:24  209 210	 1492516464	 470034095	 271561.
11:54:24  210 211	 1492516464	 741370636	 271336.
11:54:24  211 212	 1492516464	 963683268	 222313.
11:54:25  212 213	 1492516465	 235208464	 271525.
11:54:25  213 214	 1492516465	 506286615	 271078.
11:54:25  214 215	 1492516465	 781262427	 274976.
11:54:26  215 216	 1492516466	 52230147	 270968.
11:54:26  216 217	 1492516466	 323242419	 271012.
11:54:26  217 218	 1492516466	 598171690	 274929.
11:54:26  218 219	 1492516466	 869019152	 270848.
11:54:27  219 220	 1492516467	 91071913	 222053.
11:54:27  220 221	 1492516467	 362600419	 271528.
11:54:27  221 222	 1492516467	 637683869	 275084.
11:54:27  222 223	 1492516467	 908725377	 271041.
11:54:28  223 224	 1492516468	 180298590	 271573.
11:54:28  224 225	 1492516468	 451794261	 271496.
11:54:28  225 226	 1492516468	 727192192	 275398.
11:54:28  226 227	 1492516468	 949967028	 222775.
11:54:29  227 228	 1492516469	 221388472	 271421.
11:54:29  228 229	 1492516469	 496914264	 275526.
11:54:29  229 230	 1492516469	 787202218	 290288.
11:54:30  230 231	 1492516470	 9616941	 222415.
11:54:30  231 232	 1492516470	 280756795	 271139.
11:54:30  232 233	 1492516470	 556224144	 275468.
11:54:30  233 234	 1492516470	 828104310	 271880.
11:54:31  234 235	 1492516471	 99572526	 271468.
11:54:31  235 236	 1492516471	 371085710	 271514.
11:54:31  236 237	 1492516471	 646513373	 275427.
11:54:31  237 238	 1492516471	 917700884	 271188.
11:54:32  238 239	 1492516472	 189056639	 271355.
11:54:32  239 240	 1492516472	 464407863	 275352.
11:54:32  240 241	 1492516472	 687168864	 222761.
11:54:32  241 242	 1492516472	 958680488	 271511.
11:54:33  242 243	 1492516473	 230098951	 271419.
11:54:33  243 244	 1492516473	 505631500	 275532.
11:54:33  244 245	 1492516473	 776919736	 271288.
11:54:34  245 246	 1492516474	 53211715	 276292.
11:54:34  246 247	 1492516474	 324188165	 270977.
11:54:34  247 248	 1492516474	 594879195	 270691.
11:54:34  248 249	 1492516474	 817146924	 222268.
11:54:35  249 250	 1492516475	 92344258	 275197.
11:54:35  250 251	 1492516475	 364038272	 271694.
11:54:35  251 252	 1492516475	 639924096	 275886.
11:54:35  252 253	 1492516475	 911901232	 271977.
11:54:36  253 254	 1492516476	 187268097	 275367.
11:54:36  254 255	 1492516476	 409376234	 222108.
11:54:36  255 256	 1492516476	 680492619	 271116.
11:54:36  256 257	 1492516476	 955505547	 275013.
11:54:37  257 258	 1492516477	 226275663	 270770.
11:54:37  258 259	 1492516477	 496985042	 270710.
11:54:37  259 260	 1492516477	 771719382	 274734.
11:54:37  260 261	 1492516477	 993671826	 221953.
11:54:38  261 262	 1492516478	 264280612	 270608.
11:54:38  262 263	 1492516478	 534998000	 270718.
11:54:38  263 264	 1492516478	 810078684	 275080.
11:54:39  264 265	 1492516479	 27703190	 217625.
11:54:39  265 266	 1492516479	 302193038	 274490.
11:54:39  266 267	 1492516479	 572672820	 270480.
11:54:39  267 268	 1492516479	 843462424	 270789.
11:54:40  268 269	 1492516480	 65301205	 221839.
11:54:40  269 270	 1492516480	 339734229	 274433.
11:54:40  270 271	 1492516480	 609833642	 270099.
11:54:40  271 272	 1492516480	 880241322	 270408.
11:54:41  272 273	 1492516481	 102282127	 222041.
11:54:41  273 274	 1492516481	 372767713	 270486.
11:54:41  274 275	 1492516481	 647941216	 275173.
11:54:41  275 276	 1492516481	 918925680	 270984.
11:54:42  276 277	 1492516482	 189689128	 270764.
11:54:42  277 278	 1492516482	 411609963	 221921.
11:54:42  278 279	 1492516482	 682143084	 270533.
11:54:42  279 280	 1492516482	 956940955	 274798.
11:54:43  280 281	 1492516483	 227885594	 270944.
11:54:43  281 282	 1492516483	 498781752	 270896.
11:54:43  282 283	 1492516483	 720878805	 222098.
11:54:43  283 284	 1492516483	 991433891	 270555.
11:54:44  284 285	 1492516484	 265835848	 274402.
11:54:44  285 286	 1492516484	 536740153	 270904.
11:54:44  286 287	 1492516484	 807475703	 270735.
11:54:45  287 288	 1492516485	 29178983	 221704.
11:54:45  288 289	 1492516485	 300234087	 271055.
11:54:45  289 290	 1492516485	 575223494	 274989.
11:54:45  290 291	 1492516485	 846187297	 270964.
11:54:46  291 292	 1492516486	 117409186	 271222.
11:54:46  292 293	 1492516486	 339315070	 221906.
11:54:46  293 294	 1492516486	 610453190	 271138.
11:54:46  294 295	 1492516486	 885301801	 274849.
11:54:47  295 296	 1492516487	 156025687	 270723.
11:54:47  296 297	 1492516487	 426906425	 270881.
11:54:47  297 298	 1492516487	 648995430	 222089.
11:54:47  298 299	 1492516487	 920041304	 271046.
11:54:48  299 300	 1492516488	 194722658	 274681.
11:54:48  300 301	 1492516488	 465654383	 270932.
11:54:48  301 302	 1492516488	 687675408	 222021.
11:54:48  302 303	 1492516488	 958146207	 270471.
11:54:49  303 304	 1492516489	 228915430	 270769.
11:54:49  304 305	 1492516489	 503709626	 274794.
11:54:49  305 306	 1492516489	 725271535	 221562.
11:54:49  306 307	 1492516489	 995730140	 270459.
11:54:50  307 308	 1492516490	 266668174	 270938.
11:54:50  308 309	 1492516490	 541318958	 274651.
11:54:50  309 310	 1492516490	 759419104	 218100.
11:54:51  310 311	 1492516491	 34398405	 274979.
11:54:51  311 312	 1492516491	 305424269	 271026.
11:54:51  312 313	 1492516491	 576526136	 271102.
11:54:51  313 314	 1492516491	 847492059	 270966.
11:54:52  314 315	 1492516492	 122425320	 274933.
11:54:52  315 316	 1492516492	 340088953	 217664.
11:54:52  316 317	 1492516492	 614933101	 274844.
11:54:52  317 318	 1492516492	 885675599	 270742.
11:54:53  318 319	 1492516493	 156919580	 271244.
11:54:53  319 320	 1492516493	 428171404	 271252.
11:54:53  320 321	 1492516493	 703493222	 275322.
11:54:53  321 322	 1492516493	 975058236	 271565.
11:54:54  322 323	 1492516494	 246446410	 271388.
11:54:54  323 324	 1492516494	 521915127	 275469.
11:54:54  324 325	 1492516494	 793070292	 271155.
11:54:55  325 326	 1492516495	 64008199	 270938.
11:54:55  326 327	 1492516495	 335382448	 271374.
11:54:55  327 328	 1492516495	 557824033	 222442.
11:54:55  328 329	 1492516495	 832857806	 275034.
11:54:56  329 330	 1492516496	 104147809	 271290.
11:54:56  330 331	 1492516496	 375261605	 271113.
11:54:56  331 332	 1492516496	 646492103	 271231.
11:54:56  332 333	 1492516496	 921576938	 275085.
11:54:57  333 334	 1492516497	 192615931	 271039.
11:54:57  334 335	 1492516497	 463878249	 271262.
11:54:57  335 336	 1492516497	 739073042	 275195.
11:54:57  336 337	 1492516497	 961316611	 222243.
11:54:58  337 338	 1492516498	 232685101	 271369.
11:54:58  338 339	 1492516498	 503871261	 271186.
11:54:58  339 340	 1492516498	 774978174	 271107.
11:54:59  340 341	 1492516499	 50361954	 275384.
11:54:59  341 342	 1492516499	 321272529	 270910.
11:54:59  342 343	 1492516499	 592132101	 270860.
11:54:59  343 344	 1492516499	 867326713	 275194.
11:55:00  344 345	 1492516500	 138537114	 271211.
11:55:00  345 346	 1492516500	 409700237	 271163.
11:55:00  346 347	 1492516500	 632159406	 222459.
11:55:00  347 348	 1492516500	 903276959	 271118.
11:55:01  348 349	 1492516501	 174219079	 270942.
11:55:01  349 350	 1492516501	 449323639	 275104.
11:55:01  350 351	 1492516501	 720531703	 271208.
11:55:01  351 352	 1492516501	 991648345	 271117.
11:55:02  352 353	 1492516502	 266840116	 275192.
11:55:02  353 354	 1492516502	 538301053	 271461.
11:55:02  354 355	 1492516502	 809680075	 271379.
11:55:03  355 356	 1492516503	 84859078	 275179.
11:55:03  356 357	 1492516503	 356050658	 271191.
11:55:03  357 358	 1492516503	 578345273	 222295.
11:55:03  358 359	 1492516503	 849725564	 271380.
11:55:04  359 360	 1492516504	 125347896	 275623.
11:55:04  360 361	 1492516504	 396872953	 271525.
11:55:04  361 362	 1492516504	 668438072	 271565.
11:55:04  362 363	 1492516504	 940193538	 271755.
11:55:05  363 364	 1492516505	 215314094	 275121.
11:55:05  364 365	 1492516505	 486382330	 271068.
11:55:05  365 366	 1492516505	 757678468	 271296.
11:55:06  366 367	 1492516506	 28675923	 270998.
11:55:06  367 368	 1492516506	 299641130	 270965.
11:55:06  368 369	 1492516506	 574848973	 275208.
11:55:06  369 370	 1492516506	 846150613	 271301.
11:55:07  370 371	 1492516507	 121509404	 275359.
11:55:07  371 372	 1492516507	 339567211	 218058.
11:55:07  372 373	 1492516507	 614498992	 274932.
11:55:07  373 374	 1492516507	 885692066	 271193.
11:55:08  374 375	 1492516508	 156951127	 271259.
11:55:08  375 376	 1492516508	 432038590	 275087.
11:55:08  376 377	 1492516508	 703085552	 271047.
11:55:08  377 378	 1492516508	 974365304	 271280.
11:55:09  378 379	 1492516509	 245762318	 271397.
11:55:09  379 380	 1492516509	 521020973	 275259.
11:55:09  380 381	 1492516509	 792413480	 271392.
11:55:10  381 382	 1492516510	 14719656	 222306.
11:55:10  382 383	 1492516510	 286076140	 271357.
11:55:10  383 384	 1492516510	 557255581	 271179.
11:55:10  384 385	 1492516510	 832045885	 274791.
11:55:11  385 386	 1492516511	 102912364	 270866.
11:55:11  386 387	 1492516511	 374082416	 271170.
11:55:11  387 388	 1492516511	 649308996	 275227.
11:55:11  388 389	 1492516511	 920551250	 271242.
11:55:12  389 390	 1492516512	 191938462	 271387.
11:55:12  390 391	 1492516512	 415047117	 223109.
11:55:12  391 392	 1492516512	 686681754	 271634.
11:55:12  392 393	 1492516512	 962489991	 275809.
11:55:13  393 394	 1492516513	 237796597	 275306.
11:55:13  394 395	 1492516513	 509305204	 271509.
11:55:13  395 396	 1492516513	 731185337	 221880.
11:55:14  396 397	 1492516514	 2714795	 271529.
11:55:14  397 398	 1492516514	 277707125	 274993.
11:55:14  398 399	 1492516514	 548906016	 271199.
11:55:14  399 400	 1492516514	 771839224	 222933.
11:55:15  400 401	 1492516515	 43024244	 271185.
11:55:15  401 402	 1492516515	 318970039	 275946.
11:55:15  402 403	 1492516515	 590447885	 271478.
11:55:15  403 404	 1492516515	 862304373	 271856.
11:55:16  404 405	 1492516516	 138235457	 275931.
11:55:16  405 406	 1492516516	 409487034	 271252.
11:55:16  406 407	 1492516516	 680719506	 271232.
11:55:16  407 408	 1492516516	 951822113	 271103.
11:55:17  408 409	 1492516517	 226816108	 274994.
11:55:17  409 410	 1492516517	 497893698	 271078.
11:55:17  410 411	 1492516517	 720199485	 222305.
11:55:17  411 412	 1492516517	 991298080	 271099.
11:55:18  412 413	 1492516518	 262414722	 271116.
11:55:18  413 414	 1492516518	 537390668	 274976.
11:55:18  414 415	 1492516518	 808945898	 271556.
11:55:19  415 416	 1492516519	 80117484	 271171.
11:55:19  416 417	 1492516519	 355089201	 274972.
11:55:19  417 418	 1492516519	 626055518	 270966.
11:55:19  418 419	 1492516519	 843792619	 217737.
11:55:20  419 420	 1492516520	 118755078	 274963.
11:55:20  420 421	 1492516520	 390045139	 271290.
11:55:20  421 422	 1492516520	 661245247	 271200.
11:55:20  422 423	 1492516520	 937055193	 275810.
11:55:21  423 424	 1492516521	 208803186	 271748.
11:55:21  424 425	 1492516521	 480616810	 271814.
11:55:21  425 426	 1492516521	 752116979	 271500.
11:55:22  426 427	 1492516522	 27604071	 275487.
11:55:22  427 428	 1492516522	 298959410	 271355.
11:55:22  428 429	 1492516522	 570397152	 271438.
11:55:22  429 430	 1492516522	 841655312	 271258.
11:55:23  430 431	 1492516523	 116915960	 275261.
11:55:23  431 432	 1492516523	 388009182	 271093.
11:55:23  432 433	 1492516523	 659204621	 271195.
11:55:23  433 434	 1492516523	 882010170	 222806.
11:55:24  434 435	 1492516524	 157487226	 275477.
11:55:24  435 436	 1492516524	 428814229	 271327.
11:55:24  436 437	 1492516524	 704503712	 275689.
11:55:24  437 438	 1492516524	 975897564	 271394.
11:55:25  438 439	 1492516525	 247487613	 271590.
11:55:25  439 440	 1492516525	 518814530	 271327.
11:55:25  440 441	 1492516525	 790272544	 271458.
11:55:26  441 442	 1492516526	 61673105	 271401.
11:55:26  442 443	 1492516526	 336997167	 275324.
11:55:26  443 444	 1492516526	 608473906	 271477.
11:55:26  444 445	 1492516526	 883683789	 275210.
11:55:27  445 446	 1492516527	 101749506	 218065.
11:55:27  446 447	 1492516527	 376655546	 274906.
11:55:27  447 448	 1492516527	 647798557	 271143.
11:55:27  448 449	 1492516527	 918786952	 270989.
11:55:28  449 450	 1492516528	 193479297	 274692.
11:55:28  450 451	 1492516528	 463999043	 270520.
11:55:28  451 452	 1492516528	 686110258	 222111.
11:55:28  452 453	 1492516528	 957738912	 271629.
11:55:29  453 454	 1492516529	 229316504	 271577.
11:55:29  454 455	 1492516529	 500598702	 271282.
11:55:29  455 456	 1492516529	 776213985	 275616.
11:55:30  456 457	 1492516530	 47622840	 271409.
11:55:30  457 458	 1492516530	 322934166	 275311.
11:55:30  458 459	 1492516530	 594218283	 271284.
11:55:30  459 460	 1492516530	 865509304	 271291.
11:55:31  460 461	 1492516531	 87939416	 222430.
11:55:31  461 462	 1492516531	 359061085	 271122.
11:55:31  462 463	 1492516531	 634238364	 275177.
11:55:31  463 464	 1492516531	 905591833	 271354.
11:55:32  464 465	 1492516532	 176884553	 271292.
11:55:32  465 466	 1492516532	 452282334	 275398.
11:55:32  466 467	 1492516532	 723758534	 271476.
11:55:32  467 468	 1492516532	 995067365	 271309.
11:55:33  468 469	 1492516533	 216992150	 221925.
11:55:33  469 470	 1492516533	 491838153	 274846.
11:55:33  470 471	 1492516533	 762876573	 271038.
11:55:34  471 472	 1492516534	 34174725	 271298.
11:55:34  472 473	 1492516534	 304935430	 270761.
11:55:34  473 474	 1492516534	 579956650	 275022.
11:55:34  474 475	 1492516534	 851254717	 271297.
11:55:35  475 476	 1492516535	 73589252	 222335.
11:55:35  476 477	 1492516535	 344557157	 270968.
11:55:35  477 478	 1492516535	 620063956	 275507.
11:55:35  478 479	 1492516535	 891468237	 271404.
11:55:36  479 480	 1492516536	 162959796	 271492.
11:55:36  480 481	 1492516536	 438867359	 275907.
11:55:36  481 482	 1492516536	 710538241	 271671.
11:55:36  482 483	 1492516536	 982158933	 271621.
11:55:37  483 484	 1492516537	 258411433	 276252.
11:55:37  484 485	 1492516537	 529977967	 271567.
11:55:37  485 486	 1492516537	 752523362	 222545.
11:55:38  486 487	 1492516538	 24147201	 271624.
11:55:38  487 488	 1492516538	 295488447	 271341.
11:55:38  488 489	 1492516538	 570755909	 275268.
11:55:38  489 490	 1492516538	 841819784	 271063.
11:55:39  490 491	 1492516539	 113108537	 271289.
11:55:39  491 492	 1492516539	 388522580	 275414.
11:55:39  492 493	 1492516539	 659681542	 271159.
11:55:39  493 494	 1492516539	 931092663	 271411.
11:55:40  494 495	 1492516540	 206435411	 275343.
11:55:40  495 496	 1492516540	 429245477	 222810.
11:55:40  496 497	 1492516540	 700970532	 271725.
11:55:40  497 498	 1492516540	 976111584	 275141.
11:55:41  498 499	 1492516541	 247103440	 270992.
11:55:41  499 500	 1492516541	 522338665	 275235.
11:55:41  500 501	 1492516541	 745119084	 222781.
11:55:42  501 502	 1492516542	 16313957	 271195.
11:55:42  502 503	 1492516542	 287536341	 271222.
11:55:42  503 504	 1492516542	 562777988	 275242.
11:55:42  504 505	 1492516542	 833752139	 270974.
11:55:43  505 506	 1492516543	 104958013	 271206.
11:55:43  506 507	 1492516543	 327436314	 222478.
11:55:43  507 508	 1492516543	 602760608	 275324.
11:55:43  508 509	 1492516543	 873972029	 271212.
11:55:44  509 510	 1492516544	 145444485	 271472.
11:55:44  510 511	 1492516544	 416675426	 271231.
11:55:44  511 512	 1492516544	 691829138	 275154.
11:55:44  512 513	 1492516544	 963320940	 271492.
11:55:45  513 514	 1492516545	 186151333	 222830.
11:55:45  514 515	 1492516545	 461657923	 275507.
11:55:45  515 516	 1492516545	 733031836	 271374.
11:55:46  516 517	 1492516546	 4490489	 271458.
11:55:46  517 518	 1492516546	 279565549	 275075.
11:55:46  518 519	 1492516546	 550488679	 270924.
11:55:46  519 520	 1492516546	 772483980	 221995.
11:55:47  520 521	 1492516547	 43190145	 270706.
11:55:47  521 522	 1492516547	 313875382	 270685.
11:55:47  522 523	 1492516547	 588725116	 274850.
11:55:47  523 524	 1492516547	 859291254	 270566.
11:55:48  524 525	 1492516548	 81221899	 221931.
11:55:48  525 526	 1492516548	 351542829	 270321.
11:55:48  526 527	 1492516548	 622094729	 270551.
11:55:48  527 528	 1492516548	 897359948	 275266.
11:55:49  528 529	 1492516549	 168640252	 271280.
11:55:49  529 530	 1492516549	 391262600	 222622.
11:55:49  530 531	 1492516549	 662410111	 271148.
11:55:49  531 532	 1492516549	 933453487	 271043.
11:55:50  532 533	 1492516550	 204599012	 271146.
11:55:50  533 534	 1492516550	 479830698	 275231.
11:55:50  534 535	 1492516550	 751064948	 271235.
11:55:51  535 536	 1492516551	 26236579	 275171.
11:55:51  536 537	 1492516551	 297590079	 271354.
11:55:51  537 538	 1492516551	 519840348	 222250.
11:55:51  538 539	 1492516551	 790234217	 270394.
11:55:52  539 540	 1492516552	 64566639	 274332.
11:55:52  540 541	 1492516552	 335124325	 270558.
11:55:52  541 542	 1492516552	 556999360	 221875.
11:55:52  542 543	 1492516552	 827715378	 270716.
11:55:53  543 544	 1492516553	 98437730	 270722.
11:55:53  544 545	 1492516553	 368827522	 270390.
11:55:53  545 546	 1492516553	 590560039	 221733.
11:55:53  546 547	 1492516553	 861796096	 271236.
11:55:54  547 548	 1492516554	 136888090	 275092.
11:55:54  548 549	 1492516554	 408082254	 271194.
11:55:54  549 550	 1492516554	 683213642	 275131.
11:55:54  550 551	 1492516554	 954223168	 271010.
11:55:55  551 552	 1492516555	 225300255	 271077.
11:55:55  552 553	 1492516555	 447252154	 221952.
11:55:55  553 554	 1492516555	 718241109	 270989.
11:55:55  554 555	 1492516555	 993227979	 274987.
11:55:56  555 556	 1492516556	 264909997	 271682.
11:55:56  556 557	 1492516556	 540084212	 275174.
11:55:56  557 558	 1492516556	 758522644	 218438.
11:55:57  558 559	 1492516557	 33964749	 275442.
11:55:57  559 560	 1492516557	 305441447	 271477.
11:55:57  560 561	 1492516557	 581498644	 276057.
11:55:57  561 562	 1492516557	 853457898	 271960.
11:55:58  562 563	 1492516558	 129202491	 275744.
11:55:58  563 564	 1492516558	 401387807	 272186.
11:55:58  564 565	 1492516558	 677956049	 276568.
11:55:58  565 566	 1492516558	 950107227	 272151.
11:55:59  566 567	 1492516559	 173578774	 223471.
11:55:59  567 568	 1492516559	 449352586	 275774.
11:55:59  568 569	 1492516559	 721384929	 272033.
11:55:59  569 570	 1492516559	 997857485	 276472.
11:56:00  570 571	 1492516560	 269779134	 271922.
11:56:00  571 572	 1492516560	 541435250	 271656.
11:56:00  572 573	 1492516560	 816856089	 275421.
11:56:01  573 574	 1492516561	 88021171	 271165.
11:56:01  574 575	 1492516561	 359146896	 271126.
11:56:01  575 576	 1492516561	 634619766	 275472.
11:56:01  576 577	 1492516561	 856602117	 221983.
11:56:02  577 578	 1492516562	 127460526	 270858.
11:56:02  578 579	 1492516562	 398242549	 270782.
11:56:02  579 580	 1492516562	 673271378	 275029.
11:56:02  580 581	 1492516562	 944135297	 270864.
11:56:03  581 582	 1492516563	 214919349	 270784.
11:56:03  582 583	 1492516563	 436745268	 221826.
11:56:03  583 584	 1492516563	 707933484	 271188.
11:56:03  584 585	 1492516563	 982825779	 274892.
11:56:04  585 586	 1492516564	 253911177	 271086.
11:56:04  586 587	 1492516564	 475680264	 221769.
11:56:04  587 588	 1492516564	 746704240	 271024.
11:56:05  588 589	 1492516565	 21862203	 275158.
11:56:05  589 590	 1492516565	 293215920	 271354.
11:56:05  590 591	 1492516565	 563945661	 270729.
11:56:05  591 592	 1492516565	 786190665	 222245.
11:56:06  592 593	 1492516566	 57235681	 271045.
11:56:06  593 594	 1492516566	 332226427	 274991.
11:56:06  594 595	 1492516566	 603897363	 271671.
11:56:06  595 596	 1492516566	 879281624	 275385.
11:56:07  596 597	 1492516567	 97645698	 218363.
11:56:07  597 598	 1492516567	 372665312	 275020.
11:56:07  598 599	 1492516567	 643570432	 270905.
11:56:07  599 600	 1492516567	 914751088	 271181.
11:56:08  600 601	 1492516568	 189386296	 274635.
11:56:08  601 602	 1492516568	 406860742	 217474.
11:56:08  602 603	 1492516568	 677347396	 270487.
11:56:08  603 604	 1492516568	 952258406	 274911.
11:56:09  604 605	 1492516569	 223983355	 271725.
11:56:09  605 606	 1492516569	 496140860	 272158.
11:56:09  606 607	 1492516569	 772144580	 276003.
11:56:10  607 608	 1492516570	 44102200	 271958.
11:56:10  608 609	 1492516570	 266673530	 222571.
11:56:10  609 610	 1492516570	 538009720	 271336.
11:56:10  610 611	 1492516570	 814037104	 276028.
11:56:11  611 612	 1492516571	 84712459	 270675.
11:56:11  612 613	 1492516571	 355542280	 270830.
11:56:11  613 614	 1492516571	 577698845	 222157.
11:56:11  614 615	 1492516571	 847982324	 270283.
11:56:12  615 616	 1492516572	 123055570	 275073.
11:56:12  616 617	 1492516572	 394097964	 271043.
11:56:12  617 618	 1492516572	 616094812	 221997.
11:56:12  618 619	 1492516572	 886958673	 270863.
11:56:13  619 620	 1492516573	 162093244	 275135.
11:56:13  620 621	 1492516573	 380089617	 217996.
11:56:13  621 622	 1492516573	 655225626	 275136.
11:56:13  622 623	 1492516573	 926283808	 271059.
11:56:14  623 624	 1492516574	 148148592	 221864.
11:56:14  624 625	 1492516574	 423153330	 275005.
11:56:14  625 626	 1492516574	 694169093	 271016.
11:56:14  626 627	 1492516574	 915967150	 221798.
11:56:15  627 628	 1492516575	 190902495	 274935.
11:56:15  628 629	 1492516575	 462481078	 271579.
11:56:15  629 630	 1492516575	 684785588	 222304.
11:56:15  630 631	 1492516575	 960219780	 275434.
11:56:16  631 632	 1492516576	 231334514	 271115.
11:56:16  632 633	 1492516576	 506849054	 275515.
11:56:16  633 634	 1492516576	 729078123	 222229.
11:56:17  634 635	 1492516577	 4202424	 275124.
11:56:17  635 636	 1492516577	 275693671	 271491.
11:56:17  636 637	 1492516577	 547627717	 271934.
11:56:17  637 638	 1492516577	 774268318	 226641.
11:56:18  638 639	 1492516578	 45887796	 271619.
11:56:18  639 640	 1492516578	 321125407	 275238.
11:56:18  640 641	 1492516578	 543202021	 222077.
11:56:18  641 642	 1492516578	 815182661	 271980.
11:56:19  642 643	 1492516579	 91029428	 275847.
11:56:19  643 644	 1492516579	 361954041	 270925.
11:56:19  644 645	 1492516579	 588634455	 226680.
11:56:19  645 646	 1492516579	 859768324	 271134.
11:56:20  646 647	 1492516580	 135141750	 275373.
11:56:20  647 648	 1492516580	 357436524	 222295.
11:56:20  648 649	 1492516580	 628995169	 271559.
11:56:20  649 650	 1492516580	 903672270	 274677.
11:56:21  650 651	 1492516581	 174468053	 270796.
11:56:21  651 652	 1492516581	 396204259	 221736.
11:56:21  652 653	 1492516581	 667720831	 271517.
11:56:21  653 654	 1492516581	 943304862	 275584.
11:56:22  654 655	 1492516582	 214702440	 271397.
11:56:22  655 656	 1492516582	 437108050	 222406.
11:56:22  656 657	 1492516582	 709556061	 272448.
11:56:22  657 658	 1492516582	 985318322	 275762.
11:56:23  658 659	 1492516583	 256497828	 271180.
11:56:23  659 660	 1492516583	 531954113	 275456.
11:56:23  660 661	 1492516583	 754791042	 222837.
11:56:24  661 662	 1492516584	 26550949	 271760.
11:56:24  662 663	 1492516584	 297445115	 270894.
11:56:24  663 664	 1492516584	 573095797	 275650.
11:56:24  664 665	 1492516584	 795061734	 221966.
11:56:25  665 666	 1492516585	 69842202	 274781.
11:56:25  666 667	 1492516585	 341122180	 271280.
11:56:25  667 668	 1492516585	 560052590	 218930.
11:56:25  668 669	 1492516585	 835261556	 275209.
11:56:26  669 670	 1492516586	 110962702	 275701.
11:56:26  670 671	 1492516586	 382079920	 271118.
11:56:26  671 672	 1492516586	 604527921	 222448.
11:56:26  672 673	 1492516586	 875906110	 271378.
11:56:27  673 674	 1492516587	 151127195	 275221.
11:56:27  674 675	 1492516587	 373680721	 222553.
11:56:27  675 676	 1492516587	 644984166	 271304.
11:56:27  676 677	 1492516587	 921153823	 276169.
11:56:28  677 678	 1492516588	 191987244	 270834.
11:56:28  678 679	 1492516588	 418150183	 226163.
11:56:28  679 680	 1492516588	 689615998	 271466.
11:56:28  680 681	 1492516588	 961282400	 271666.
11:56:29  681 682	 1492516589	 237176663	 275894.
11:56:29  682 683	 1492516589	 459814648	 222638.
11:56:29  683 684	 1492516589	 731156699	 271342.
11:56:30  684 685	 1492516590	 6358427	 275202.
11:56:30  685 686	 1492516590	 278243851	 271886.
11:56:30  686 687	 1492516590	 553947725	 275703.
11:56:30  687 688	 1492516590	 776692212	 222745.
11:56:31  688 689	 1492516591	 48312892	 271621.
11:56:31  689 690	 1492516591	 324441935	 276129.
11:56:31  690 691	 1492516591	 596398382	 271956.
11:56:31  691 692	 1492516591	 872274364	 275876.
11:56:32  692 693	 1492516592	 144094529	 271820.
11:56:32  693 694	 1492516592	 419942352	 275848.
11:56:32  694 695	 1492516592	 638980066	 219038.
11:56:32  695 696	 1492516592	 914974930	 275995.
11:56:33  696 697	 1492516593	 186494191	 271519.
11:56:33  697 698	 1492516593	 462153760	 275659.
11:56:33  698 699	 1492516593	 733753031	 271600.
11:56:33  699 700	 1492516593	 956241025	 222488.
11:56:34  700 701	 1492516594	 231406622	 275165.
11:56:34  701 702	 1492516594	 502835064	 271429.
11:56:34  702 703	 1492516594	 778440943	 275606.
11:56:35  703 704	 1492516595	 50326044	 271885.
11:56:35  704 705	 1492516595	 321825380	 271499.
11:56:35  705 706	 1492516595	 544236373	 222411.
11:56:35  706 707	 1492516595	 819719850	 275484.
11:56:36  707 708	 1492516596	 90767995	 271048.
11:56:36  708 709	 1492516596	 365915920	 275148.
11:56:36  709 710	 1492516596	 637760233	 271844.
11:56:36  710 711	 1492516596	 908980502	 271220.
11:56:37  711 712	 1492516597	 180381947	 271402.
11:56:37  712 713	 1492516597	 402208534	 221826.
11:56:37  713 714	 1492516597	 672933464	 270725.
11:56:37  714 715	 1492516597	 948137641	 275204.
11:56:38  715 716	 1492516598	 219357328	 271220.
11:56:38  716 717	 1492516598	 490565525	 271208.
11:56:38  717 718	 1492516598	 765268128	 274703.
11:56:38  718 719	 1492516598	 986865429	 221597.
11:56:39  719 720	 1492516599	 257692479	 270827.
11:56:39  720 721	 1492516599	 528169209	 270477.
11:56:39  721 722	 1492516599	 749944673	 221775.
11:56:40  722 723	 1492516600	 21458323	 271514.
11:56:40  723 724	 1492516600	 296202192	 274744.
11:56:40  724 725	 1492516600	 567489308	 271287.
11:56:40  725 726	 1492516600	 842755263	 275266.
11:56:41  726 727	 1492516601	 113770490	 271015.
11:56:41  727 728	 1492516601	 331636715	 217866.
11:56:41  728 729	 1492516601	 606668930	 275033.
11:56:41  729 730	 1492516601	 877520690	 270851.
11:56:42  730 731	 1492516602	 152331267	 274811.
11:56:42  731 732	 1492516602	 374828263	 222497.
11:56:42  732 733	 1492516602	 646237921	 271410.
11:56:42  733 734	 1492516602	 921297594	 275059.
11:56:43  734 735	 1492516603	 191953498	 270656.
11:56:43  735 736	 1492516603	 462425924	 270473.
11:56:43  736 737	 1492516603	 684134182	 221708.
11:56:43  737 738	 1492516603	 954756171	 270622.
11:56:44  738 739	 1492516604	 229314892	 274559.
11:56:44  739 740	 1492516604	 500237242	 270922.
11:56:44  740 741	 1492516604	 721988082	 221751.
11:56:44  741 742	 1492516604	 992937743	 270949.
11:56:45  742 743	 1492516605	 268621715	 275684.
11:56:45  743 744	 1492516605	 539171142	 270550.
11:56:45  744 745	 1492516605	 761044099	 221873.
11:56:46  745 746	 1492516606	 35672253	 274628.
11:56:46  746 747	 1492516606	 306316398	 270644.
11:56:46  747 748	 1492516606	 577130707	 270814.
11:56:46  748 749	 1492516606	 799337772	 222207.
11:56:47  749 750	 1492516607	 74366209	 275029.
11:56:47  750 751	 1492516607	 345382117	 271016.
11:56:47  751 752	 1492516607	 617002969	 271621.
11:56:47  752 753	 1492516607	 891499912	 274497.
11:56:48  753 754	 1492516608	 109473868	 217973.
11:56:48  754 755	 1492516608	 383833602	 274360.
11:56:48  755 756	 1492516608	 654654080	 270821.
11:56:48  756 757	 1492516608	 925412147	 270758.
11:56:49  757 758	 1492516609	 147465722	 222053.
11:56:49  758 759	 1492516609	 421951702	 274486.
11:56:49  759 760	 1492516609	 692668452	 270717.
11:56:49  760 761	 1492516609	 963497897	 270830.
11:56:50  761 762	 1492516610	 185510163	 222012.
11:56:50  762 763	 1492516610	 456352350	 270842.
11:56:50  763 764	 1492516610	 726947896	 270596.
11:56:50  764 765	 1492516611	 2049523	 275101.
11:56:51  765 766	 1492516611	 223627396	 221578.
11:56:51  766 767	 1492516611	 494414173	 270787.
11:56:51  767 768	 1492516611	 764979430	 270565.
11:56:52  768 769	 1492516612	 40021486	 275042.
11:56:52  769 770	 1492516612	 311136271	 271115.
11:56:52  770 771	 1492516612	 533139282	 222003.
11:56:52  771 772	 1492516612	 804061401	 270922.
11:56:53  772 773	 1492516613	 74815546	 270754.
11:56:53  773 774	 1492516613	 349826828	 275012.
11:56:53  774 775	 1492516613	 620738090	 270911.
11:56:53  775 776	 1492516613	 891831665	 271093.
11:56:54  776 777	 1492516614	 113892222	 222061.
11:56:54  777 778	 1492516614	 384826982	 270935.
11:56:54  778 779	 1492516614	 655626662	 270799.
11:56:54  779 780	 1492516614	 926769892	 271144.
11:56:55  780 781	 1492516615	 201528086	 274758.
11:56:55  781 782	 1492516615	 472411925	 270884.
11:56:55  782 783	 1492516615	 694574335	 222162.
11:56:55  783 784	 1492516615	 965618269	 271044.
11:56:56  784 785	 1492516616	 236623063	 271005.
11:56:56  785 786	 1492516616	 511431087	 274808.
11:56:56  786 787	 1492516616	 782519622	 271088.
11:56:57  787 788	 1492516617	 53579846	 271061.
11:56:57  788 789	 1492516617	 275427958	 221848.
11:56:57  789 790	 1492516617	 546365215	 270937.
11:56:57  790 791	 1492516617	 821740543	 275375.
11:56:58  791 792	 1492516618	 92637896	 270898.
11:56:58  792 793	 1492516618	 363354981	 270717.
11:56:58  793 794	 1492516618	 634175370	 270820.
11:56:58  794 795	 1492516618	 856165532	 221990.
11:56:59  795 796	 1492516619	 127198032	 271033.
11:56:59  796 797	 1492516619	 398310220	 271112.
11:56:59  797 798	 1492516619	 673493732	 275183.
11:56:59  798 799	 1492516619	 944538907	 271046.
11:57:00  799 800	 1492516620	 166649486	 222110.
11:57:00  800 801	 1492516620	 437381014	 270732.
11:57:00  801 802	 1492516620	 712482713	 275101.
11:57:00  802 803	 1492516620	 983374896	 270893.
11:57:01  803 804	 1492516621	 253700445	 270325.
11:57:01  804 805	 1492516621	 475957486	 222257.
11:57:01  805 806	 1492516621	 751298042	 275341.
11:57:02  806 807	 1492516622	 22390639	 271092.
11:57:02  807 808	 1492516622	 293377937	 270988.
11:57:02  808 809	 1492516622	 568383427	 275005.
11:57:02  809 810	 1492516622	 839548100	 271165.
11:57:03  810 811	 1492516623	 111007554	 271459.
11:57:03  811 812	 1492516623	 386391550	 275384.
11:57:03  812 813	 1492516623	 657772251	 271381.
11:57:03  813 814	 1492516623	 875982507	 218210.
11:57:04  814 815	 1492516624	 151639013	 275657.
11:57:04  815 816	 1492516624	 422717091	 271078.
11:57:04  816 817	 1492516624	 694050726	 271333.
11:57:04  817 818	 1492516624	 969734313	 275684.
11:57:05  818 819	 1492516625	 241030187	 271296.
11:57:05  819 820	 1492516625	 512522053	 271492.
11:57:05  820 821	 1492516625	 788082834	 275561.
11:57:06  821 822	 1492516626	 59720941	 271638.
11:57:06  822 823	 1492516626	 331265392	 271544.
11:57:06  823 824	 1492516626	 602234617	 270969.
11:57:06  824 825	 1492516626	 873235189	 271001.
11:57:07  825 826	 1492516627	 148284275	 275049.
11:57:07  826 827	 1492516627	 370692199	 222408.
11:57:07  827 828	 1492516627	 641442227	 270750.
11:57:07  828 829	 1492516627	 916466481	 275024.
11:57:08  829 830	 1492516628	 187234454	 270769.
11:57:08  830 831	 1492516628	 408753680	 221518.
11:57:08  831 832	 1492516628	 679801477	 271048.
11:57:08  832 833	 1492516628	 951130955	 271330.
11:57:09  833 834	 1492516629	 225819605	 274688.
11:57:09  834 835	 1492516629	 447894480	 222075.
11:57:09  835 836	 1492516629	 718727054	 270833.
11:57:09  836 837	 1492516629	 989851278	 271124.
11:57:10  837 838	 1492516630	 260368656	 270517.
11:57:10  838 839	 1492516630	 535602038	 275234.
11:57:10  839 840	 1492516630	 757731858	 222130.
11:57:11  840 841	 1492516631	 28798630	 271066.
11:57:11  841 842	 1492516631	 299166085	 270368.
11:57:11  842 843	 1492516631	 574388045	 275222.
11:57:11  843 844	 1492516631	 796269958	 221882.
11:57:12  844 845	 1492516632	 66762409	 270492.
11:57:12  845 846	 1492516632	 341962805	 275200.
11:57:12  846 847	 1492516632	 613043275	 271081.
11:57:12  847 848	 1492516632	 835054608	 222011.
11:57:13  848 849	 1492516633	 106616520	 271562.
11:57:13  849 850	 1492516633	 382401822	 275786.
11:57:13  850 851	 1492516633	 654070114	 271668.
11:57:13  851 852	 1492516633	 925815060	 271745.
11:57:14  852 853	 1492516634	 197215732	 271400.
11:57:14  853 854	 1492516634	 472488074	 275273.
11:57:14  854 855	 1492516634	 743739052	 271251.
11:57:15  855 856	 1492516635	 18978921	 275240.
11:57:15  856 857	 1492516635	 241153704	 222174.
11:57:15  857 858	 1492516635	 512202852	 271050.
11:57:15  858 859	 1492516635	 783138956	 270936.
11:57:16  859 860	 1492516636	 54494357	 271355.
11:57:16  860 861	 1492516636	 329584053	 275090.
11:57:16  861 862	 1492516636	 600214429	 270630.
11:57:16  862 863	 1492516636	 822550320	 222336.
11:57:17  863 864	 1492516637	 93451768	 270901.
11:57:17  864 865	 1492516637	 367993904	 274543.
11:57:17  865 866	 1492516637	 639141770	 271147.
11:57:17  866 867	 1492516637	 914908026	 275767.
11:57:18  867 868	 1492516638	 137578670	 222670.
11:57:18  868 869	 1492516638	 408417749	 270839.
11:57:18  869 870	 1492516638	 679881332	 271464.
11:57:18  870 871	 1492516638	 955500822	 275620.
11:57:19  871 872	 1492516639	 226893848	 271393.
11:57:19  872 873	 1492516639	 449250269	 222356.
11:57:19  873 874	 1492516639	 724666567	 275416.
11:57:19  874 875	 1492516639	 996202230	 271536.
11:57:20  875 876	 1492516640	 267301669	 271099.
11:57:20  876 877	 1492516640	 489382822	 222081.
11:57:20  877 878	 1492516640	 764446338	 275064.
11:57:21  878 879	 1492516641	 36695305	 272249.
11:57:21  879 880	 1492516641	 308148212	 271453.
11:57:21  880 881	 1492516641	 583492288	 275344.
11:57:21  881 882	 1492516641	 805870450	 222378.
11:57:22  882 883	 1492516642	 77870621	 272000.
11:57:22  883 884	 1492516642	 349478311	 271608.
11:57:22  884 885	 1492516642	 624963037	 275485.
11:57:22  885 886	 1492516642	 896431254	 271468.
11:57:23  886 887	 1492516643	 172269169	 275838.
11:57:23  887 888	 1492516643	 394859835	 222591.
11:57:23  888 889	 1492516643	 666219116	 271359.
11:57:23  889 890	 1492516643	 937306436	 271087.
11:57:24  890 891	 1492516644	 212487607	 275181.
11:57:24  891 892	 1492516644	 434600809	 222113.
11:57:24  892 893	 1492516644	 705656969	 271057.
11:57:24  893 894	 1492516644	 981560186	 275903.
11:57:25  894 895	 1492516645	 253961918	 272402.
11:57:25  895 896	 1492516645	 525178455	 271216.
11:57:25  896 897	 1492516645	 800285638	 275107.
11:57:26  897 898	 1492516646	 71632867	 271348.
11:57:26  898 899	 1492516646	 294059939	 222427.
11:57:26  899 900	 1492516646	 565822224	 271762.
11:57:26  900 901	 1492516646	 841399401	 275577.
11:57:27  901 902	 1492516647	 117543841	 276145.
11:57:27  902 903	 1492516647	 389118527	 271574.
11:57:27  903 904	 1492516647	 611034315	 221916.
11:57:27  904 905	 1492516647	 881842387	 270808.
11:57:28  905 906	 1492516648	 156760400	 274918.
11:57:28  906 907	 1492516648	 427376173	 270616.
11:57:28  907 908	 1492516648	 698131501	 270755.
11:57:28  908 909	 1492516648	 919814284	 221683.
11:57:29  909 910	 1492516649	 190421095	 270607.
11:57:29  910 911	 1492516649	 465461869	 275041.
11:57:29  911 912	 1492516649	 735996965	 270535.
11:57:29  912 913	 1492516649	 953778755	 217781.
11:57:30  913 914	 1492516650	 228737238	 274959.
11:57:30  914 915	 1492516650	 499605836	 270869.
11:57:30  915 916	 1492516650	 774305314	 274699.
11:57:31  916 917	 1492516651	 45120179	 270815.
11:57:31  917 918	 1492516651	 267182291	 222062.
11:57:31  918 919	 1492516651	 538357585	 271176.
11:57:31  919 920	 1492516651	 809309081	 270951.
11:57:32  920 921	 1492516652	 79757806	 270448.
11:57:32  921 922	 1492516652	 354331641	 274574.
11:57:32  922 923	 1492516652	 625401481	 271070.
11:57:32  923 924	 1492516652	 847227813	 221827.
11:57:33  924 925	 1492516653	 117701916	 270474.
11:57:33  925 926	 1492516653	 387966625	 270264.
11:57:33  926 927	 1492516653	 658544231	 270578.
11:57:33  927 928	 1492516653	 884126343	 225582.
11:57:34  928 929	 1492516654	 154731520	 270605.
11:57:34  929 930	 1492516654	 425446398	 270715.
11:57:34  930 931	 1492516654	 700318882	 274873.
11:57:34  931 932	 1492516654	 917716194	 217397.
11:57:35  932 933	 1492516655	 192372182	 274656.
11:57:35  933 934	 1492516655	 459141304	 266769.
11:57:35  934 935	 1492516655	 729492862	 270352.
11:57:35  935 936	 1492516655	 951227024	 221734.
11:57:36  936 937	 1492516656	 225904722	 274677.
11:57:36  937 938	 1492516656	 497157183	 271253.
11:57:36  938 939	 1492516656	 767802235	 270645.
11:57:36  939 940	 1492516656	 989199240	 221397.
11:57:37  940 941	 1492516657	 259215879	 270017.
11:57:37  941 942	 1492516657	 533924007	 274708.
11:57:37  942 943	 1492516657	 804292646	 270368.
11:57:38  943 944	 1492516658	 25972799	 221681.
11:57:38  944 945	 1492516658	 296759035	 270786.
11:57:38  945 946	 1492516658	 567012287	 270253.
11:57:38  946 947	 1492516658	 841735159	 274723.
11:57:39  947 948	 1492516659	 59505998	 217771.
11:57:39  948 949	 1492516659	 334443267	 274937.
11:57:39  949 950	 1492516659	 605434769	 270991.
11:57:39  950 951	 1492516659	 827688036	 222254.
11:57:40  951 952	 1492516660	 103090426	 275402.
11:57:40  952 953	 1492516660	 375172800	 272082.
11:57:40  953 954	 1492516660	 650488407	 275316.
11:57:40  954 955	 1492516660	 872886987	 222399.
11:57:41  955 956	 1492516661	 145128074	 272241.
11:57:41  956 957	 1492516661	 417221422	 272093.
11:57:41  957 958	 1492516661	 692729307	 275508.
11:57:41  958 959	 1492516661	 964098609	 271369.
11:57:42  959 960	 1492516662	 239193073	 275095.
11:57:42  960 961	 1492516662	 461329145	 222136.
11:57:42  961 962	 1492516662	 733240048	 271911.
11:57:43  962 963	 1492516663	 8658209	 275418.
11:57:43  963 964	 1492516663	 280172117	 271514.
11:57:43  964 965	 1492516663	 502939143	 222767.
11:57:43  965 966	 1492516663	 778595030	 275656.
11:57:44  966 967	 1492516664	 54265226	 275670.
11:57:44  967 968	 1492516664	 325536469	 271271.
11:57:44  968 969	 1492516664	 548072965	 222537.
11:57:44  969 970	 1492516664	 820367889	 272295.
11:57:45  970 971	 1492516665	 96396500	 276028.
11:57:45  971 972	 1492516665	 367748189	 271352.
11:57:45  972 973	 1492516665	 643032362	 275284.
11:57:45  973 974	 1492516665	 865441903	 222410.
11:57:46  974 975	 1492516666	 136599877	 271158.
11:57:46  975 976	 1492516666	 412075009	 275475.
11:57:46  976 977	 1492516666	 634357602	 222282.
11:57:46  977 978	 1492516666	 910010221	 275653.
11:57:47  978 979	 1492516667	 180915337	 270905.
11:57:47  979 980	 1492516667	 456223057	 275308.
11:57:47  980 981	 1492516667	 679019712	 222796.
11:57:47  981 982	 1492516667	 950627569	 271608.
11:57:48  982 983	 1492516668	 225772834	 275145.
11:57:48  983 984	 1492516668	 497179912	 271408.
11:57:48  984 985	 1492516668	 720237460	 223057.
11:57:48  985 986	 1492516668	 980233173	 259996.
11:57:49  986 987	 1492516669	 256327746	 276094.
11:57:49  987 988	 1492516669	 528571415	 272244.
11:57:49  988 989	 1492516669	 804640306	 276069.
11:57:50  989 990	 1492516670	 76347437	 271707.
11:57:50  990 991	 1492516670	 351538713	 275191.
11:57:50  991 992	 1492516670	 573848566	 222310.
11:57:50  992 993	 1492516670	 844953308	 271105.
11:57:51  993 994	 1492516671	 117046780	 272093.
11:57:51  994 995	 1492516671	 393327903	 276282.
11:57:51  995 996	 1492516671	 665404473	 272076.
11:57:51  996 997	 1492516671	 937552384	 272148.
11:57:52  997 998	 1492516672	 213611356	 276059.
11:57:52  998 999	 1492516672	 490093338	 276482.
11:57:52  999 1000	 1492516672	 712953784	 222860.
11:57:52 1000 1001	 1492516672	 984585866	 271633.
11:57:53 1001 1002	 1492516673	 260217687	 275631.
11:57:53 1002 1003	 1492516673	 531089640	 270872.
11:57:53 1003 1004	 1492516673	 753338236	 222249.
11:57:54 1004 1005	 1492516674	 24974703	 271636.
11:57:54 1005 1006	 1492516674	 300097184	 275123.
11:57:54 1006 1007	 1492516674	 522242324	 222145.
11:57:54 1007 1008	 1492516674	 793508160	 271266.
11:57:55 1008 1009	 1492516675	 68757750	 275250.
11:57:55 1009 1010	 1492516675	 339958234	 271200.
11:57:55 1010 1011	 1492516675	 563096867	 223139.
11:57:55 1011 1012	 1492516675	 838351090	 275254.
11:57:56 1012 1013	 1492516676	 109634294	 271283.
11:57:56 1013 1014	 1492516676	 385210765	 275576.
11:57:56 1014 1015	 1492516676	 607732935	 222523.
11:57:56 1015 1016	 1492516676	 882945601	 275212.
11:57:57 1016 1017	 1492516677	 154246693	 271301.
11:57:57 1017 1018	 1492516677	 376595830	 222349.
11:57:57 1018 1019	 1492516677	 652375053	 275780.
11:57:57 1019 1020	 1492516677	 923487924	 271113.
11:57:58 1020 1021	 1492516678	 199700336	 276212.
11:57:58 1021 1022	 1492516678	 422208453	 222508.
11:57:58 1022 1023	 1492516678	 693212395	 271004.
11:57:58 1023 1024	 1492516678	 968649622	 275437.
11:57:59 1024 1025	 1492516679	 239014888	 270366.
11:57:59 1025 1026	 1492516679	 460869722	 221854.
11:57:59 1026 1027	 1492516679	 732169678	 271300.
11:57:59 1027 1028	 1492516680	 3241246	 271072.
11:58:00 1028 1029	 1492516680	 277574272	 274333.
11:58:00 1029 1030	 1492516680	 494980024	 217406.
11:58:00 1030 1031	 1492516680	 770055579	 275075.
11:58:01 1031 1032	 1492516681	 41150769	 271095.
11:58:01 1032 1033	 1492516681	 312046293	 270896.
11:58:01 1033 1034	 1492516681	 582884745	 270839.
11:58:01 1034 1035	 1492516681	 857946140	 275061.
11:58:02 1035 1036	 1492516682	 129242502	 271296.
11:58:02 1036 1037	 1492516682	 351034280	 221792.
11:58:02 1037 1038	 1492516682	 621637956	 270604.
11:58:02 1038 1039	 1492516682	 892327499	 270689.
11:58:03 1039 1040	 1492516683	 167400657	 275073.
11:58:03 1040 1041	 1492516683	 438075034	 270675.
11:58:03 1041 1042	 1492516683	 659697352	 221622.
11:58:03 1042 1043	 1492516683	 930147321	 270450.
11:58:04 1043 1044	 1492516684	 205266670	 275119.
11:58:04 1044 1045	 1492516684	 476211957	 270946.
11:58:04 1045 1046	 1492516684	 747216946	 271005.
11:58:04 1046 1047	 1492516684	 969248026	 222031.
11:58:05 1047 1048	 1492516685	 240227343	 270979.
11:58:05 1048 1049	 1492516685	 511209348	 270982.
11:58:05 1049 1050	 1492516685	 786278584	 275069.
11:58:06 1050 1051	 1492516686	 57326612	 271048.
11:58:06 1051 1052	 1492516686	 328140422	 270814.
11:58:06 1052 1053	 1492516686	 603252719	 275112.
11:58:06 1053 1054	 1492516686	 825257690	 222005.
11:58:07 1054 1055	 1492516687	 96476981	 271220.
11:58:07 1055 1056	 1492516687	 367729038	 271252.
11:58:07 1056 1057	 1492516687	 638673414	 270944.
11:58:07 1057 1058	 1492516687	 909571178	 270898.
11:58:08 1058 1059	 1492516688	 180553797	 270983.
11:58:08 1059 1060	 1492516688	 455866589	 275312.
11:58:08 1060 1061	 1492516688	 726774814	 270909.
11:58:08 1061 1062	 1492516689	 1667698	 274892.
11:58:09 1062 1063	 1492516689	 219873675	 218206.
11:58:09 1063 1064	 1492516689	 496113658	 276240.
11:58:09 1064 1065	 1492516689	 767799249	 271686.
11:58:10 1065 1066	 1492516690	 38889430	 271090.
11:58:10 1066 1067	 1492516690	 313900954	 275012.
11:58:10 1067 1068	 1492516690	 536234706	 222334.
11:58:10 1068 1069	 1492516690	 808492338	 272257.
11:58:11 1069 1070	 1492516691	 83630296	 275138.
11:58:11 1070 1071	 1492516691	 355748769	 272118.
11:58:11 1071 1072	 1492516691	 631818151	 276070.
11:58:11 1072 1073	 1492516691	 904147687	 272329.
11:58:12 1073 1074	 1492516692	 176542841	 272396.
11:58:12 1074 1075	 1492516692	 452887078	 276344.
11:58:12 1075 1076	 1492516692	 725167785	 272280.
11:58:12 1076 1077	 1492516692	 997552878	 272386.
11:58:13 1077 1078	 1492516693	 273850181	 276297.
11:58:13 1078 1079	 1492516693	 545578022	 271728.
11:58:13 1079 1080	 1492516693	 821065145	 275487.
11:58:14 1080 1081	 1492516694	 92532045	 271467.
11:58:14 1081 1082	 1492516694	 363982678	 271450.
11:58:14 1082 1083	 1492516694	 635430362	 271448.
11:58:14 1083 1084	 1492516694	 911110221	 275680.
11:58:15 1084 1085	 1492516695	 183137719	 272027.
11:58:15 1085 1086	 1492516695	 455128962	 271992.
11:58:15 1086 1087	 1492516695	 731588096	 276459.
11:58:15 1087 1088	 1492516695	 954954346	 223366.
11:58:16 1088 1089	 1492516696	 227482605	 272528.
11:58:16 1089 1090	 1492516696	 503933103	 276451.
11:58:16 1090 1091	 1492516696	 776066147	 272133.
11:58:17 1091 1092	 1492516697	 52531651	 276465.
11:58:17 1092 1093	 1492516697	 324291812	 271761.
11:58:17 1093 1094	 1492516697	 596520970	 272229.
11:58:17 1094 1095	 1492516697	 872866039	 276345.
11:58:18 1095 1096	 1492516698	 144777798	 271912.
11:58:18 1096 1097	 1492516698	 420410363	 275632.
11:58:18 1097 1098	 1492516698	 643347947	 222938.
11:58:18 1098 1099	 1492516698	 918579008	 275231.
11:58:19 1099 1100	 1492516699	 190276301	 271697.
11:58:19 1100 1101	 1492516699	 412683568	 222407.
11:58:19 1101 1102	 1492516699	 688956332	 276273.
11:58:19 1102 1103	 1492516699	 960102207	 271146.
11:58:20 1103 1104	 1492516700	 235877877	 275776.
11:58:20 1104 1105	 1492516700	 457960291	 222082.
11:58:20 1105 1106	 1492516700	 733304622	 275344.
11:58:21 1106 1107	 1492516701	 4676914	 271373.
11:58:21 1107 1108	 1492516701	 226982114	 222305.
11:58:21 1108 1109	 1492516701	 502976591	 275994.
11:58:21 1109 1110	 1492516701	 775203059	 272227.
11:58:22 1110 1111	 1492516702	 50769983	 275567.
11:58:22 1111 1112	 1492516702	 322239821	 271469.
11:58:22 1112 1113	 1492516702	 544596901	 222358.
11:58:22 1113 1114	 1492516702	 820131938	 275535.
11:58:23 1114 1115	 1492516703	 91579141	 271447.
11:58:23 1115 1116	 1492516703	 317609059	 226030.
11:58:23 1116 1117	 1492516703	 589314703	 271705.
11:58:23 1117 1118	 1492516703	 860846908	 271533.
11:58:24 1118 1119	 1492516704	 82980692	 222133.
11:58:24 1119 1120	 1492516704	 358742496	 275762.
11:58:24 1120 1121	 1492516704	 634423165	 275681.
11:58:24 1121 1122	 1492516704	 905764814	 271341.
11:58:25 1122 1123	 1492516705	 127538155	 221774.
11:58:25 1123 1124	 1492516705	 398811075	 271273.
11:58:25 1124 1125	 1492516705	 674797903	 275987.
11:58:25 1125 1126	 1492516705	 897017127	 222219.
11:58:26 1126 1127	 1492516706	 167897074	 270880.
11:58:26 1127 1128	 1492516706	 442987315	 275090.
11:58:26 1128 1129	 1492516706	 714310560	 271323.
11:58:26 1129 1130	 1492516706	 936499193	 222189.
11:58:27 1130 1131	 1492516707	 211593848	 275095.
11:58:27 1131 1132	 1492516707	 483410260	 271816.
11:58:27 1132 1133	 1492516707	 754446436	 271036.
11:58:27 1133 1134	 1492516707	 976621192	 222175.
11:58:28 1134 1135	 1492516708	 247280000	 270659.
11:58:28 1135 1136	 1492516708	 522837425	 275557.
11:58:28 1136 1137	 1492516708	 794557174	 271720.
11:58:29 1137 1138	 1492516709	 16869605	 222312.
11:58:29 1138 1139	 1492516709	 292523306	 275654.
11:58:29 1139 1140	 1492516709	 563312165	 270789.
