16:33:51    0 Step	 time(s)	 time(ns)	 delta(ms)
16:33:51    0 1	 1492360431	 951862912	 921.
16:33:52    1 2	 1492360432	 113554196	 161691.
16:33:52    2 3	 1492360432	 279626314	 166072.
16:33:52    3 4	 1492360432	 441277915	 161652.
16:33:52    4 5	 1492360432	 602842643	 161564.
16:33:52    5 6	 1492360432	 768907487	 166065.
16:33:52    6 7	 1492360432	 930955807	 162049.
16:33:53    7 8	 1492360433	 96935441	 165979.
16:33:53    8 9	 1492360433	 258817577	 161882.
16:33:53    9 10	 1492360433	 391812155	 132995.
16:33:53   10 11	 1492360433	 557875516	 166063.
16:33:53   11 12	 1492360433	 719775567	 161900.
16:33:53   12 13	 1492360433	 885356059	 165581.
16:33:54   13 14	 1492360434	 47333865	 161978.
16:33:54   14 15	 1492360434	 209281602	 161948.
16:33:54   15 16	 1492360434	 375472257	 166190.
16:33:54   16 17	 1492360434	 537536013	 162064.
16:33:54   17 18	 1492360434	 703522660	 165986.
16:33:54   18 19	 1492360434	 865597650	 162075.
16:33:55   19 20	 1492360435	 31585060	 165988.
16:33:55   20 21	 1492360435	 164835399	 133250.
16:33:55   21 22	 1492360435	 326864909	 162030.
16:33:55   22 23	 1492360435	 492807043	 165942.
16:33:55   23 24	 1492360435	 654797157	 161990.
16:33:55   24 25	 1492360435	 820639338	 165842.
16:33:55   25 26	 1492360435	 982454633	 161815.
16:33:56   26 27	 1492360436	 144335158	 161881.
16:33:56   27 28	 1492360436	 310302077	 165967.
16:33:56   28 29	 1492360436	 471999945	 161698.
16:33:56   29 30	 1492360436	 609185732	 137185.
16:33:56   30 31	 1492360436	 771052616	 161867.
16:33:56   31 32	 1492360436	 933064171	 162012.
16:33:57   32 33	 1492360437	 98862384	 165798.
16:33:57   33 34	 1492360437	 260587756	 161725.
16:33:57   34 35	 1492360437	 426505782	 165918.
16:33:57   35 36	 1492360437	 588068363	 161563.
16:33:57   36 37	 1492360437	 721041313	 132973.
16:33:57   37 38	 1492360437	 886765268	 165724.
16:33:58   38 39	 1492360438	 48519614	 161754.
16:33:58   39 40	 1492360438	 214056200	 165537.
16:33:58   40 41	 1492360438	 375890279	 161834.
16:33:58   41 42	 1492360438	 541588926	 165699.
16:33:58   42 43	 1492360438	 674705582	 133116.
16:33:58   43 44	 1492360438	 836685563	 161980.
16:33:59   44 45	 1492360439	 2886379	 166201.
16:33:59   45 46	 1492360439	 164624260	 161738.
16:33:59   46 47	 1492360439	 326651457	 162027.
16:33:59   47 48	 1492360439	 492742244	 166091.
16:33:59   48 49	 1492360439	 654574683	 161832.
16:33:59   49 50	 1492360439	 820391470	 165817.
16:33:59   50 51	 1492360439	 982100593	 161709.
16:34:00   51 52	 1492360440	 115126335	 133026.
16:34:00   52 53	 1492360440	 281043941	 165918.
16:34:00   53 54	 1492360440	 443221233	 162177.
16:34:00   54 55	 1492360440	 609382712	 166161.
16:34:00   55 56	 1492360440	 771058736	 161676.
16:34:00   56 57	 1492360440	 933028908	 161971.
16:34:01   57 58	 1492360441	 98771496	 165742.
16:34:01   58 59	 1492360441	 260371536	 161600.
16:34:01   59 60	 1492360441	 426169286	 165798.
16:34:01   60 61	 1492360441	 559336517	 133167.
16:34:01   61 62	 1492360441	 721151961	 161816.
16:34:01   62 63	 1492360441	 887064304	 165912.
16:34:02   63 64	 1492360442	 48871958	 161808.
16:34:02   64 65	 1492360442	 214867328	 165995.
16:34:02   65 66	 1492360442	 376706034	 161839.
16:34:02   66 67	 1492360442	 542445190	 165739.
16:34:02   67 68	 1492360442	 704219064	 161774.
16:34:02   68 69	 1492360442	 837310804	 133092.
16:34:03   69 70	 1492360443	 28154992	 190844.
16:34:03   70 71	 1492360443	 161168180	 133013.
16:34:03   71 72	 1492360443	 322945274	 161777.
16:34:03   72 73	 1492360443	 488749800	 165805.
16:34:03   73 74	 1492360443	 650309790	 161560.
16:34:03   74 75	 1492360443	 812081951	 161772.
16:34:03   75 76	 1492360443	 977923048	 165841.
16:34:04   76 77	 1492360444	 111013748	 133090.
16:34:04   77 78	 1492360444	 276738104	 165725.
16:34:04   78 79	 1492360444	 438417774	 161679.
16:34:04   79 80	 1492360444	 604225336	 165808.
16:34:04   80 81	 1492360444	 765957887	 161733.
16:34:04   81 82	 1492360444	 931685635	 165727.
16:34:05   82 83	 1492360445	 93438101	 161753.
16:34:05   83 84	 1492360445	 226576146	 133138.
16:34:05   84 85	 1492360445	 392497073	 165921.
16:34:05   85 86	 1492360445	 554178358	 161681.
16:34:05   86 87	 1492360445	 715856590	 161678.
16:34:05   87 88	 1492360445	 881629955	 165774.
16:34:06   88 89	 1492360446	 43468552	 161838.
16:34:06   89 90	 1492360446	 205495876	 162028.
16:34:06   90 91	 1492360446	 371468890	 165973.
16:34:06   91 92	 1492360446	 504607284	 133138.
16:34:06   92 93	 1492360446	 670449526	 165842.
16:34:06   93 94	 1492360446	 832009640	 161560.
16:34:06   94 95	 1492360446	 997995980	 165987.
16:34:07   95 96	 1492360447	 156146685	 158150.
16:34:07   96 97	 1492360447	 318024055	 161878.
16:34:07   97 98	 1492360447	 483712891	 165689.
16:34:07   98 99	 1492360447	 645416143	 161703.
16:34:07   99 100	 1492360447	 811686914	 166271.
16:34:07  100 101	 1492360447	 944931014	 133244.
16:34:08  101 102	 1492360448	 110530867	 165600.
16:34:08  102 103	 1492360448	 272273366	 161742.
16:34:08  103 104	 1492360448	 434025932	 161753.
16:34:08  104 105	 1492360448	 600006458	 165980.
16:34:08  105 106	 1492360448	 761731061	 161725.
16:34:08  106 107	 1492360448	 927507122	 165776.
16:34:09  107 108	 1492360449	 89432947	 161926.
16:34:09  108 109	 1492360449	 222594371	 133161.
16:34:09  109 110	 1492360449	 384620280	 162026.
16:34:09  110 111	 1492360449	 546467883	 161848.
16:34:09  111 112	 1492360449	 712274576	 165806.
16:34:09  112 113	 1492360449	 874206688	 161932.
16:34:10  113 114	 1492360450	 40235074	 166029.
16:34:10  114 115	 1492360450	 202075749	 161840.
16:34:10  115 116	 1492360450	 335246864	 133172.
16:34:10  116 117	 1492360450	 501051742	 165804.
16:34:10  117 118	 1492360450	 662841700	 161790.
16:34:10  118 119	 1492360450	 828761014	 165920.
16:34:10  119 120	 1492360450	 990780156	 162019.
16:34:11  120 121	 1492360451	 156806831	 166027.
16:34:11  121 122	 1492360451	 318706124	 161899.
16:34:11  122 123	 1492360451	 480601467	 161895.
16:34:11  123 124	 1492360451	 646564711	 165963.
16:34:11  124 125	 1492360451	 779615019	 133051.
16:34:11  125 126	 1492360451	 945844551	 166229.
16:34:12  126 127	 1492360452	 107642444	 161798.
16:34:12  127 128	 1492360452	 269481011	 161839.
16:34:12  128 129	 1492360452	 435368056	 165887.
16:34:12  129 130	 1492360452	 597291317	 161923.
16:34:12  130 131	 1492360452	 759130664	 161839.
16:34:12  131 132	 1492360452	 924921411	 165791.
16:34:13  132 133	 1492360453	 86678975	 161758.
16:34:13  133 134	 1492360453	 252744053	 166065.
16:34:13  134 135	 1492360453	 385794079	 133050.
16:34:13  135 136	 1492360453	 547694725	 161900.
16:34:13  136 137	 1492360453	 713473047	 165779.
16:34:13  137 138	 1492360453	 875240439	 161767.
16:34:14  138 139	 1492360454	 37121144	 161881.
16:34:14  139 140	 1492360454	 202907611	 165786.
16:34:14  140 141	 1492360454	 364814396	 161907.
16:34:14  141 142	 1492360454	 530726017	 165912.
16:34:14  142 143	 1492360454	 663813535	 133087.
16:34:14  143 144	 1492360454	 825567880	 161755.
16:34:14  144 145	 1492360454	 991318073	 165750.
16:34:15  145 146	 1492360455	 152926073	 161608.
16:34:15  146 147	 1492360455	 318772908	 165847.
16:34:15  147 148	 1492360455	 480306572	 161533.
16:34:15  148 149	 1492360455	 641587029	 161281.
16:34:15  149 150	 1492360455	 778753870	 137167.
16:34:15  150 151	 1492360455	 940457326	 161703.
16:34:16  151 152	 1492360456	 106237837	 165781.
16:34:16  152 153	 1492360456	 267944115	 161706.
16:34:16  153 154	 1492360456	 429425473	 161481.
16:34:16  154 155	 1492360456	 595321957	 165897.
16:34:16  155 156	 1492360456	 728421367	 133099.
16:34:16  156 157	 1492360456	 894191217	 165770.
16:34:17  157 158	 1492360457	 55913566	 161722.
16:34:17  158 159	 1492360457	 217558716	 161646.
16:34:17  159 160	 1492360457	 383246120	 165687.
16:34:17  160 161	 1492360457	 545005603	 161759.
16:34:17  161 162	 1492360457	 706650564	 161645.
16:34:17  162 163	 1492360457	 872441603	 165791.
16:34:18  163 164	 1492360458	 5709723	 133268.
16:34:18  164 165	 1492360458	 171612257	 165903.
16:34:18  165 166	 1492360458	 333483582	 161871.
16:34:18  166 167	 1492360458	 499296131	 165813.
16:34:18  167 168	 1492360458	 660990524	 161694.
16:34:18  168 169	 1492360458	 822710026	 161720.
16:34:18  169 170	 1492360458	 988703349	 165993.
16:34:19  170 171	 1492360459	 150444323	 161741.
16:34:19  171 172	 1492360459	 287490766	 137046.
16:34:19  172 173	 1492360459	 449097587	 161607.
16:34:19  173 174	 1492360459	 610755396	 161658.
16:34:19  174 175	 1492360459	 776649494	 165894.
16:34:19  175 176	 1492360459	 950948071	 174299.
16:34:20  176 177	 1492360460	 96352299	 145404.
16:34:20  177 178	 1492360460	 258031892	 161680.
16:34:20  178 179	 1492360460	 390940167	 132908.
16:34:20  179 180	 1492360460	 556845383	 165905.
16:34:20  180 181	 1492360460	 718468588	 161623.
16:34:20  181 182	 1492360460	 880195934	 161728.
16:34:21  182 183	 1492360461	 45961468	 165765.
16:34:21  183 184	 1492360461	 207595941	 161635.
16:34:21  184 185	 1492360461	 373294113	 165698.
16:34:21  185 186	 1492360461	 506182368	 132888.
16:34:21  186 187	 1492360461	 671740496	 165558.
16:34:21  187 188	 1492360461	 833621075	 161881.
16:34:21  188 189	 1492360461	 995458115	 161837.
16:34:22  189 190	 1492360462	 161307692	 165849.
16:34:22  190 191	 1492360462	 323050217	 161743.
16:34:22  191 192	 1492360462	 488705345	 165655.
16:34:22  192 193	 1492360462	 621813149	 133108.
16:34:22  193 194	 1492360462	 783651595	 161838.
16:34:22  194 195	 1492360462	 949503329	 165852.
16:34:23  195 196	 1492360463	 111185992	 161683.
16:34:23  196 197	 1492360463	 276911244	 165725.
16:34:23  197 198	 1492360463	 438746210	 161835.
16:34:23  198 199	 1492360463	 600715336	 161969.
16:34:23  199 200	 1492360463	 766759041	 166044.
16:34:23  200 201	 1492360463	 928523625	 161764.
16:34:24  201 202	 1492360464	 65682186	 137159.
16:34:24  202 203	 1492360464	 227357458	 161675.
16:34:24  203 204	 1492360464	 393073296	 165716.
16:34:24  204 205	 1492360464	 554906348	 161833.
16:34:24  205 206	 1492360464	 716549866	 161644.
16:34:24  206 207	 1492360464	 882227761	 165677.
16:34:25  207 208	 1492360465	 44069785	 161843.
16:34:25  208 209	 1492360465	 209783916	 165714.
16:34:25  209 210	 1492360465	 342821952	 133038.
16:34:25  210 211	 1492360465	 504598679	 161776.
16:34:25  211 212	 1492360465	 670649861	 166052.
16:34:25  212 213	 1492360465	 832365797	 161716.
16:34:25  213 214	 1492360465	 994040727	 161674.
16:34:26  214 215	 1492360466	 159807905	 165768.
16:34:26  215 216	 1492360466	 321526357	 161718.
16:34:26  216 217	 1492360466	 487277206	 165751.
16:34:26  217 218	 1492360466	 620361285	 133084.
16:34:26  218 219	 1492360466	 782072947	 161712.
16:34:26  219 220	 1492360466	 947743586	 165670.
16:34:27  220 221	 1492360467	 109543771	 161800.
16:34:27  221 222	 1492360467	 275221293	 165678.
16:34:27  222 223	 1492360467	 436898610	 161677.
16:34:27  223 224	 1492360467	 598628688	 161730.
16:34:27  224 225	 1492360467	 735827937	 137200.
16:34:27  225 226	 1492360467	 897778181	 161950.
16:34:28  226 227	 1492360468	 63817242	 166039.
16:34:28  227 228	 1492360468	 225350809	 161534.
16:34:28  228 229	 1492360468	 391316337	 165965.
16:34:28  229 230	 1492360468	 553218582	 161902.
16:34:28  230 231	 1492360468	 715144872	 161927.
16:34:28  231 232	 1492360468	 848087973	 132943.
16:34:29  232 233	 1492360469	 14082135	 165994.
16:34:29  233 234	 1492360469	 175698871	 161617.
16:34:29  234 235	 1492360469	 341601054	 165902.
16:34:29  235 236	 1492360469	 503537223	 161936.
16:34:29  236 237	 1492360469	 669321300	 165784.
16:34:29  237 238	 1492360469	 831169820	 161849.
16:34:29  238 239	 1492360469	 964455708	 133285.
16:34:30  239 240	 1492360470	 130400345	 165945.
16:34:30  240 241	 1492360470	 292276318	 161876.
16:34:30  241 242	 1492360470	 458196184	 165920.
16:34:30  242 243	 1492360470	 619808471	 161612.
16:34:30  243 244	 1492360470	 785557006	 165749.
16:34:30  244 245	 1492360470	 947149327	 161592.
16:34:31  245 246	 1492360471	 84147530	 136998.
16:34:31  246 247	 1492360471	 267326451	 183179.
16:34:31  247 248	 1492360471	 404320864	 136995.
16:34:31  248 249	 1492360471	 565922032	 161601.
16:34:31  249 250	 1492360471	 732047150	 166125.
16:34:31  250 251	 1492360471	 897661435	 165614.
16:34:32  251 252	 1492360472	 59550533	 161889.
16:34:32  252 253	 1492360472	 225361391	 165811.
16:34:32  253 254	 1492360472	 358599148	 133238.
16:34:32  254 255	 1492360472	 524378896	 165780.
16:34:32  255 256	 1492360472	 686162126	 161783.
16:34:32  256 257	 1492360472	 851991706	 165829.
16:34:33  257 258	 1492360473	 13724111	 161733.
16:34:33  258 259	 1492360473	 175374995	 161651.
16:34:33  259 260	 1492360473	 341423830	 166049.
16:34:33  260 261	 1492360473	 474926382	 133502.
16:34:33  261 262	 1492360473	 640649901	 165724.
16:34:33  262 263	 1492360473	 802230109	 161580.
16:34:33  263 264	 1492360473	 967865366	 165635.
16:34:34  264 265	 1492360474	 129595521	 161730.
16:34:34  265 266	 1492360474	 291107921	 161513.
16:34:34  266 267	 1492360474	 427926956	 136819.
16:34:34  267 268	 1492360474	 589758041	 161831.
16:34:34  268 269	 1492360474	 756049888	 166292.
16:34:34  269 270	 1492360474	 917990238	 161940.
16:34:35  270 271	 1492360475	 80301536	 162311.
16:34:35  271 272	 1492360475	 242132132	 161831.
16:34:35  272 273	 1492360475	 407838404	 165706.
16:34:35  273 274	 1492360475	 569608023	 161770.
16:34:35  274 275	 1492360475	 702763890	 133156.
16:34:35  275 276	 1492360475	 868811819	 166048.
16:34:36  276 277	 1492360476	 30685418	 161873.
16:34:36  277 278	 1492360476	 196656116	 165971.
16:34:36  278 279	 1492360476	 358666575	 162010.
16:34:36  279 280	 1492360476	 524678010	 166012.
16:34:36  280 281	 1492360476	 686746139	 162068.
16:34:36  281 282	 1492360476	 852810447	 166064.
16:34:37  282 283	 1492360477	 14553609	 161743.
16:34:37  283 284	 1492360477	 147844170	 133291.
16:34:37  284 285	 1492360477	 313696739	 165852.
16:34:37  285 286	 1492360477	 475375474	 161679.
16:34:37  286 287	 1492360477	 641102968	 165728.
16:34:37  287 288	 1492360477	 802867223	 161764.
16:34:37  288 289	 1492360477	 968842711	 165975.
16:34:38  289 290	 1492360478	 130853399	 162011.
16:34:38  290 291	 1492360478	 264134067	 133281.
16:34:38  291 292	 1492360478	 430220379	 166086.
16:34:38  292 293	 1492360478	 592062348	 161842.
16:34:38  293 294	 1492360478	 757901372	 165839.
16:34:38  294 295	 1492360478	 919874089	 161973.
16:34:39  295 296	 1492360479	 85966582	 166092.
16:34:39  296 297	 1492360479	 247964117	 161998.
16:34:39  297 298	 1492360479	 409740363	 161776.
16:34:39  298 299	 1492360479	 575639357	 165899.
16:34:39  299 300	 1492360479	 737319027	 161680.
16:34:39  300 301	 1492360479	 870448291	 133129.
16:34:40  301 302	 1492360480	 36417789	 165970.
16:34:40  302 303	 1492360480	 194765035	 158347.
16:34:40  303 304	 1492360480	 360409360	 165644.
16:34:40  304 305	 1492360480	 522378105	 161969.
16:34:40  305 306	 1492360480	 684189903	 161812.
16:34:40  306 307	 1492360480	 849982567	 165792.
16:34:41  307 308	 1492360481	 11715179	 161733.
16:34:41  308 309	 1492360481	 177718808	 166004.
16:34:41  309 310	 1492360481	 339837239	 162118.
16:34:41  310 311	 1492360481	 477224670	 137387.
16:34:41  311 312	 1492360481	 639100019	 161876.
16:34:41  312 313	 1492360481	 800746954	 161647.
16:34:41  313 314	 1492360481	 966721989	 165975.
16:34:42  314 315	 1492360482	 128635052	 161913.
16:34:42  315 316	 1492360482	 290357634	 161722.
16:34:42  316 317	 1492360482	 456307756	 165950.
16:34:42  317 318	 1492360482	 618016358	 161709.
16:34:42  318 319	 1492360482	 755109405	 137093.
16:34:42  319 320	 1492360482	 916986363	 161877.
16:34:43  320 321	 1492360483	 78850537	 161864.
16:34:43  321 322	 1492360483	 244802541	 165952.
16:34:43  322 323	 1492360483	 406602284	 161800.
16:34:43  323 324	 1492360483	 572449414	 165847.
16:34:43  324 325	 1492360483	 734297931	 161849.
16:34:43  325 326	 1492360483	 896146973	 161849.
16:34:44  326 327	 1492360484	 62043380	 165896.
16:34:44  327 328	 1492360484	 195223013	 133180.
16:34:44  328 329	 1492360484	 361214214	 165991.
16:34:44  329 330	 1492360484	 523191559	 161977.
16:34:44  330 331	 1492360484	 689244139	 166053.
16:34:44  331 332	 1492360484	 851329267	 162085.
16:34:45  332 333	 1492360485	 13326007	 161997.
16:34:45  333 334	 1492360485	 179279273	 165953.
16:34:45  334 335	 1492360485	 345169839	 165891.
16:34:45  335 336	 1492360485	 507371125	 162201.
16:34:45  336 337	 1492360485	 673288132	 165917.
16:34:45  337 338	 1492360485	 806289295	 133001.
16:34:45  338 339	 1492360485	 968202662	 161913.
16:34:46  339 340	 1492360486	 129964257	 161762.
16:34:46  340 341	 1492360486	 295798845	 165835.
16:34:46  341 342	 1492360486	 457659379	 161860.
16:34:46  342 343	 1492360486	 623413425	 165754.
16:34:46  343 344	 1492360486	 785231283	 161818.
16:34:46  344 345	 1492360486	 946835787	 161604.
16:34:47  345 346	 1492360487	 112423913	 165589.
16:34:47  346 347	 1492360487	 245414158	 132990.
16:34:47  347 348	 1492360487	 411228754	 165814.
16:34:47  348 349	 1492360487	 572955568	 161727.
16:34:47  349 350	 1492360487	 734584676	 161629.
16:34:47  350 351	 1492360487	 900192220	 165608.
16:34:48  351 352	 1492360488	 61834546	 161642.
16:34:48  352 353	 1492360488	 233884574	 172050.
16:34:48  353 354	 1492360488	 375163509	 141279.
16:34:48  354 355	 1492360488	 540978270	 165815.
16:34:48  355 356	 1492360488	 702697562	 161719.
16:34:48  356 357	 1492360488	 839992723	 137295.
16:34:48  357 358	 1492360489	 1758713	 161766.
16:34:49  358 359	 1492360489	 167628283	 165870.
16:34:49  359 360	 1492360489	 329483060	 161855.
16:34:49  360 361	 1492360489	 495262940	 165780.
16:34:49  361 362	 1492360489	 657067927	 161805.
16:34:49  362 363	 1492360489	 822948804	 165881.
16:34:49  363 364	 1492360489	 984897164	 161948.
16:34:50  364 365	 1492360490	 146697895	 161801.
16:34:50  365 366	 1492360490	 279799713	 133101.
16:34:50  366 367	 1492360490	 445550139	 165751.
16:34:50  367 368	 1492360490	 607226859	 161677.
16:34:50  368 369	 1492360490	 772990424	 165763.
16:34:50  369 370	 1492360490	 934715212	 161725.
16:34:51  370 371	 1492360491	 100491053	 165776.
16:34:51  371 372	 1492360491	 262224067	 161733.
16:34:51  372 373	 1492360491	 423940677	 161717.
16:34:51  373 374	 1492360491	 561078084	 137137.
16:34:51  374 375	 1492360491	 722837970	 161760.
16:34:51  375 376	 1492360491	 888555108	 165717.
16:34:52  376 377	 1492360492	 50635749	 162080.
16:34:52  377 378	 1492360492	 212817472	 162182.
16:34:52  378 379	 1492360492	 378830769	 166013.
16:34:52  379 380	 1492360492	 540664090	 161834.
16:34:52  380 381	 1492360492	 706508298	 165844.
16:34:52  381 382	 1492360492	 839667823	 133160.
16:34:52  382 383	 1492360493	 1435898	 161768.
16:34:53  383 384	 1492360493	 167508311	 166072.
16:34:53  384 385	 1492360493	 329371137	 161863.
16:34:53  385 386	 1492360493	 495237934	 165867.
16:34:53  386 387	 1492360493	 656995673	 161757.
16:34:53  387 388	 1492360493	 822804164	 165809.
16:34:53  388 389	 1492360493	 984562639	 161758.
16:34:54  389 390	 1492360494	 121924184	 137362.
16:34:54  390 391	 1492360494	 283718505	 161794.
16:34:54  391 392	 1492360494	 450085765	 166367.
16:34:54  392 393	 1492360494	 611836434	 161751.
16:34:54  393 394	 1492360494	 773607786	 161772.
16:34:54  394 395	 1492360494	 939666904	 166059.
16:34:55  395 396	 1492360495	 101569409	 161902.
16:34:55  396 397	 1492360495	 263394682	 161825.
16:34:55  397 398	 1492360495	 429347175	 165953.
16:34:55  398 399	 1492360495	 562385423	 133038.
16:34:55  399 400	 1492360495	 728315905	 165931.
16:34:55  400 401	 1492360495	 890171264	 161855.
16:34:56  401 402	 1492360496	 55999273	 165828.
16:34:56  402 403	 1492360496	 217850713	 161851.
16:34:56  403 404	 1492360496	 379865859	 162016.
16:34:56  404 405	 1492360496	 545744285	 165878.
16:34:56  405 406	 1492360496	 707612745	 161868.
16:34:56  406 407	 1492360496	 873433058	 165821.
16:34:57  407 408	 1492360497	 6775051	 133342.
16:34:57  408 409	 1492360497	 168617736	 161842.
16:34:57  409 410	 1492360497	 334378890	 165762.
16:34:57  410 411	 1492360497	 496081836	 161703.
16:34:57  411 412	 1492360497	 657799886	 161718.
16:34:57  412 413	 1492360497	 823745710	 165945.
16:34:57  413 414	 1492360497	 985403320	 161658.
16:34:58  414 415	 1492360498	 151189527	 165787.
16:34:58  415 416	 1492360498	 284300046	 133110.
16:34:58  416 417	 1492360498	 446136114	 161836.
16:34:58  417 418	 1492360498	 612077512	 165941.
16:34:58  418 419	 1492360498	 773870568	 161793.
16:34:58  419 420	 1492360498	 939838188	 165968.
16:34:59  420 421	 1492360499	 101610945	 161773.
16:34:59  421 422	 1492360499	 267318111	 165707.
16:34:59  422 423	 1492360499	 429059067	 161741.
16:34:59  423 424	 1492360499	 562227625	 133168.
16:34:59  424 425	 1492360499	 728525625	 166298.
16:34:59  425 426	 1492360499	 890278658	 161753.
16:35:00  426 427	 1492360500	 56391633	 166113.
16:35:00  427 428	 1492360500	 218304351	 161913.
16:35:00  428 429	 1492360500	 380249726	 161945.
16:35:00  429 430	 1492360500	 542065961	 161817.
16:35:00  430 431	 1492360500	 707898214	 165832.
16:35:00  431 432	 1492360500	 869644840	 161747.
16:35:01  432 433	 1492360501	 35563345	 165918.
16:35:01  433 434	 1492360501	 169052827	 133490.
16:35:01  434 435	 1492360501	 335095469	 166042.
16:35:01  435 436	 1492360501	 497328265	 162233.
16:35:01  436 437	 1492360501	 663059526	 165731.
16:35:01  437 438	 1492360501	 824914945	 161856.
16:35:01  438 439	 1492360501	 990852033	 165937.
16:35:02  439 440	 1492360502	 152572973	 161721.
16:35:02  440 441	 1492360502	 318435346	 165862.
16:35:02  441 442	 1492360502	 480255121	 161820.
16:35:02  442 443	 1492360502	 617451573	 137197.
16:35:02  443 444	 1492360502	 779341469	 161889.
16:35:02  444 445	 1492360502	 945172767	 165831.
16:35:03  445 446	 1492360503	 107127911	 161956.
16:35:03  446 447	 1492360503	 269004754	 161876.
16:35:03  447 448	 1492360503	 435015762	 166011.
16:35:03  448 449	 1492360503	 597014952	 162000.
16:35:03  449 450	 1492360503	 758699798	 161685.
16:35:03  450 451	 1492360503	 924619147	 165919.
16:35:04  451 452	 1492360504	 86452698	 161834.
16:35:04  452 453	 1492360504	 223649138	 137196.
16:35:04  453 454	 1492360504	 385555607	 161906.
16:35:04  454 455	 1492360504	 551513775	 165958.
16:35:04  455 456	 1492360504	 713259209	 161746.
16:35:04  456 457	 1492360504	 875107542	 161848.
16:35:05  457 458	 1492360505	 41027876	 165921.
16:35:05  458 459	 1492360505	 213799669	 172772.
16:35:05  459 460	 1492360505	 346951797	 133152.
16:35:05  460 461	 1492360505	 512851715	 165899.
16:35:05  461 462	 1492360505	 678780314	 165929.
16:35:05  462 463	 1492360505	 840654535	 161874.
16:35:06  463 464	 1492360506	 6719353	 166065.
16:35:06  464 465	 1492360506	 168554770	 161835.
16:35:06  465 466	 1492360506	 334358852	 165805.
16:35:06  466 467	 1492360506	 467427508	 133068.
16:35:06  467 468	 1492360506	 633401480	 165974.
16:35:06  468 469	 1492360506	 795310894	 161910.
16:35:06  469 470	 1492360506	 961477301	 166166.
16:35:07  470 471	 1492360507	 123309218	 161832.
16:35:07  471 472	 1492360507	 289285220	 165976.
16:35:07  472 473	 1492360507	 451266522	 161981.
16:35:07  473 474	 1492360507	 613230599	 161964.
16:35:07  474 475	 1492360507	 779261070	 166031.
16:35:07  475 476	 1492360507	 941278519	 162017.
16:35:08  476 477	 1492360508	 78524281	 137246.
16:35:08  477 478	 1492360508	 240364411	 161840.
16:35:08  478 479	 1492360508	 406291622	 165927.
16:35:08  479 480	 1492360508	 568182064	 161891.
16:35:08  480 481	 1492360508	 733932276	 165750.
16:35:08  481 482	 1492360508	 895842652	 161910.
16:35:09  482 483	 1492360509	 57758800	 161917.
16:35:09  483 484	 1492360509	 223571581	 165812.
16:35:09  484 485	 1492360509	 356985875	 133415.
16:35:09  485 486	 1492360509	 518845357	 161859.
16:35:09  486 487	 1492360509	 680936959	 162092.
16:35:09  487 488	 1492360509	 846997957	 166061.
16:35:10  488 489	 1492360510	 8899242	 161901.
16:35:10  489 490	 1492360510	 170615595	 161716.
16:35:10  490 491	 1492360510	 336486169	 165871.
16:35:10  491 492	 1492360510	 498293233	 161807.
16:35:10  492 493	 1492360510	 635425885	 137133.
16:35:10  493 494	 1492360510	 797245141	 161819.
16:35:10  494 495	 1492360510	 963238545	 165993.
16:35:11  495 496	 1492360511	 124927781	 161690.
16:35:11  496 497	 1492360511	 286755253	 161827.
16:35:11  497 498	 1492360511	 452313420	 165558.
16:35:11  498 499	 1492360511	 614691039	 162378.
16:35:11  499 500	 1492360511	 776376555	 161685.
16:35:11  500 501	 1492360511	 942232274	 165856.
16:35:12  501 502	 1492360512	 75304779	 133072.
16:35:12  502 503	 1492360512	 237249753	 161945.
16:35:12  503 504	 1492360512	 403011188	 165762.
16:35:12  504 505	 1492360512	 564875786	 161864.
16:35:12  505 506	 1492360512	 731144739	 166269.
16:35:12  506 507	 1492360512	 893150379	 162006.
16:35:13  507 508	 1492360513	 59340329	 166190.
16:35:13  508 509	 1492360513	 221190687	 161850.
16:35:13  509 510	 1492360513	 387069594	 165879.
16:35:13  510 511	 1492360513	 520234563	 133165.
16:35:13  511 512	 1492360513	 686205200	 165971.
16:35:13  512 513	 1492360513	 847936011	 161731.
16:35:14  513 514	 1492360514	 13792730	 165856.
16:35:14  514 515	 1492360514	 175763742	 161971.
16:35:14  515 516	 1492360514	 341623767	 165860.
16:35:14  516 517	 1492360514	 503506624	 161883.
16:35:14  517 518	 1492360514	 665466312	 161960.
16:35:14  518 519	 1492360514	 802537145	 137071.
16:35:14  519 520	 1492360514	 964197913	 161661.
16:35:15  520 521	 1492360515	 129961609	 165763.
16:35:15  521 522	 1492360515	 291740285	 161779.
16:35:15  522 523	 1492360515	 457630969	 165891.
16:35:15  523 524	 1492360515	 619405242	 161774.
16:35:15  524 525	 1492360515	 785139656	 165734.
16:35:15  525 526	 1492360515	 918115948	 132977.
16:35:16  526 527	 1492360516	 83912735	 165796.
16:35:16  527 528	 1492360516	 245616505	 161704.
16:35:16  528 529	 1492360516	 411668194	 166052.
16:35:16  529 530	 1492360516	 573481613	 161813.
16:35:16  530 531	 1492360516	 739471177	 165990.
16:35:16  531 532	 1492360516	 901224334	 161753.
16:35:17  532 533	 1492360517	 67102009	 165878.
16:35:17  533 534	 1492360517	 200158942	 133057.
16:35:17  534 535	 1492360517	 362088891	 161930.
16:35:17  535 536	 1492360517	 527963881	 165875.
16:35:17  536 537	 1492360517	 689732642	 161768.
16:35:17  537 538	 1492360517	 855710343	 165978.
16:35:18  538 539	 1492360518	 17406016	 161696.
16:35:18  539 540	 1492360518	 183179744	 165773.
16:35:18  540 541	 1492360518	 316302972	 133124.
16:35:18  541 542	 1492360518	 478042870	 161740.
16:35:18  542 543	 1492360518	 643961714	 165918.
16:35:18  543 544	 1492360518	 805632709	 161671.
16:35:18  544 545	 1492360518	 971548700	 165916.
16:35:19  545 546	 1492360519	 133351897	 161804.
16:35:19  546 547	 1492360519	 299215588	 165863.
16:35:19  547 548	 1492360519	 461007029	 161792.
16:35:19  548 549	 1492360519	 598176259	 137169.
16:35:19  549 550	 1492360519	 760072099	 161896.
16:35:19  550 551	 1492360519	 925926401	 165854.
16:35:20  551 552	 1492360520	 87703554	 161777.
16:35:20  552 553	 1492360520	 253666354	 165963.
16:35:20  553 554	 1492360520	 415418608	 161753.
16:35:20  554 555	 1492360520	 581066583	 165647.
16:35:20  555 556	 1492360520	 714056892	 132991.
16:35:20  556 557	 1492360520	 875824515	 161767.
16:35:21  557 558	 1492360521	 41612737	 165788.
16:35:21  558 559	 1492360521	 203307782	 161696.
16:35:21  559 560	 1492360521	 369232617	 165924.
16:35:21  560 561	 1492360521	 531059317	 161827.
16:35:21  561 562	 1492360521	 696933793	 165875.
16:35:21  562 563	 1492360521	 830050319	 133116.
16:35:21  563 564	 1492360521	 991822263	 161772.
16:35:22  564 565	 1492360522	 179279403	 187457.
16:35:22  565 566	 1492360522	 312492093	 133213.
16:35:22  566 567	 1492360522	 478361913	 165870.
16:35:22  567 568	 1492360522	 639980832	 161619.
16:35:22  568 569	 1492360522	 801730484	 161749.
16:35:22  569 570	 1492360522	 967571572	 165841.
16:35:23  570 571	 1492360523	 129447900	 161877.
16:35:23  571 572	 1492360523	 295278676	 165830.
16:35:23  572 573	 1492360523	 457011403	 161733.
16:35:23  573 574	 1492360523	 590077993	 133067.
16:35:23  574 575	 1492360523	 755907372	 165829.
16:35:23  575 576	 1492360523	 917724323	 161817.
16:35:24  576 577	 1492360524	 83633789	 165910.
16:35:24  577 578	 1492360524	 245450686	 161816.
16:35:24  578 579	 1492360524	 407282154	 161832.
16:35:24  579 580	 1492360524	 573189683	 165908.
16:35:24  580 581	 1492360524	 706392141	 133202.
16:35:24  581 582	 1492360524	 872243659	 165851.
16:35:25  582 583	 1492360525	 34174753	 161931.
16:35:25  583 584	 1492360525	 195969479	 161795.
16:35:25  584 585	 1492360525	 362004020	 166035.
16:35:25  585 586	 1492360525	 523770370	 161766.
16:35:25  586 587	 1492360525	 685566701	 161796.
16:35:25  587 588	 1492360525	 851344303	 165778.
16:35:25  588 589	 1492360525	 984452354	 133108.
16:35:26  589 590	 1492360526	 146609577	 162157.
16:35:26  590 591	 1492360526	 308331409	 161722.
16:35:26  591 592	 1492360526	 474178123	 165847.
16:35:26  592 593	 1492360526	 635931376	 161753.
16:35:26  593 594	 1492360526	 801706281	 165775.
16:35:26  594 595	 1492360526	 963510763	 161804.
16:35:27  595 596	 1492360527	 129383771	 165874.
16:35:27  596 597	 1492360527	 262385087	 133001.
16:35:27  597 598	 1492360527	 424386976	 162002.
16:35:27  598 599	 1492360527	 589999924	 165613.
16:35:27  599 600	 1492360527	 751991566	 161991.
16:35:27  600 601	 1492360527	 918053462	 166062.
16:35:28  601 602	 1492360528	 79859163	 161806.
16:35:28  602 603	 1492360528	 245906868	 166048.
16:35:28  603 604	 1492360528	 407853552	 161946.
16:35:28  604 605	 1492360528	 569874363	 162021.
16:35:28  605 606	 1492360528	 707031654	 137157.
16:35:28  606 607	 1492360528	 868889532	 161858.
16:35:29  607 608	 1492360529	 34717028	 165828.
16:35:29  608 609	 1492360529	 196482489	 161765.
16:35:29  609 610	 1492360529	 358272321	 161790.
16:35:29  610 611	 1492360529	 524188558	 165916.
16:35:29  611 612	 1492360529	 686138162	 161950.
16:35:29  612 613	 1492360529	 852231392	 166093.
16:35:30  613 614	 1492360530	 14307676	 162076.
16:35:30  614 615	 1492360530	 176021775	 161714.
16:35:30  615 616	 1492360530	 313127120	 137106.
16:35:30  616 617	 1492360530	 474961147	 161834.
16:35:30  617 618	 1492360530	 636816550	 161855.
16:35:30  618 619	 1492360530	 802680265	 165864.
16:35:30  619 620	 1492360530	 964481675	 161801.
16:35:31  620 621	 1492360531	 126357952	 161877.
16:35:31  621 622	 1492360531	 292559210	 166201.
16:35:31  622 623	 1492360531	 454668564	 162109.
16:35:31  623 624	 1492360531	 591990581	 137322.
16:35:31  624 625	 1492360531	 753732081	 161742.
16:35:31  625 626	 1492360531	 919911613	 166179.
16:35:32  626 627	 1492360532	 81988644	 162077.
16:35:32  627 628	 1492360532	 244149564	 162161.
16:35:32  628 629	 1492360532	 410259586	 166110.
16:35:32  629 630	 1492360532	 576751835	 166493.
16:35:32  630 631	 1492360532	 738554843	 161803.
16:35:32  631 632	 1492360532	 871964116	 133409.
16:35:33  632 633	 1492360533	 38469001	 166505.
16:35:33  633 634	 1492360533	 201044504	 162575.
16:35:33  634 635	 1492360533	 363363685	 162319.
16:35:33  635 636	 1492360533	 529583692	 166220.
16:35:33  636 637	 1492360533	 691836824	 162254.
16:35:33  637 638	 1492360533	 857596415	 165759.
16:35:34  638 639	 1492360534	 19736926	 162141.
16:35:34  639 640	 1492360534	 186326912	 166590.
16:35:34  640 641	 1492360534	 319810843	 133484.
16:35:34  641 642	 1492360534	 486072167	 166261.
16:35:34  642 643	 1492360534	 648543681	 162471.
16:35:34  643 644	 1492360534	 810896146	 162353.
16:35:34  644 645	 1492360534	 977242892	 166347.
16:35:35  645 646	 1492360535	 139445004	 162202.
16:35:35  646 647	 1492360535	 305453546	 166008.
16:35:35  647 648	 1492360535	 467316237	 161863.
16:35:35  648 649	 1492360535	 633280603	 165964.
16:35:35  649 650	 1492360535	 766456018	 133176.
16:35:35  650 651	 1492360535	 953797659	 187341.
16:35:36  651 652	 1492360536	 87050676	 133253.
16:35:36  652 653	 1492360536	 252944040	 165894.
16:35:36  653 654	 1492360536	 414752336	 161808.
16:35:36  654 655	 1492360536	 576705790	 161953.
16:35:36  655 656	 1492360536	 742669428	 165964.
16:35:36  656 657	 1492360536	 904527798	 161859.
16:35:37  657 658	 1492360537	 70655280	 166127.
16:35:37  658 659	 1492360537	 232455623	 161800.
16:35:37  659 660	 1492360537	 398287409	 165832.
16:35:37  660 661	 1492360537	 560272259	 161985.
16:35:37  661 662	 1492360537	 693470146	 133198.
16:35:37  662 663	 1492360537	 859190670	 165720.
16:35:38  663 664	 1492360538	 21014564	 161824.
16:35:38  664 665	 1492360538	 186914428	 165900.
16:35:38  665 666	 1492360538	 348962669	 162048.
16:35:38  666 667	 1492360538	 510904788	 161943.
16:35:38  667 668	 1492360538	 677047953	 166143.
16:35:38  668 669	 1492360538	 838929373	 161881.
16:35:39  669 670	 1492360539	 4759045	 165830.
16:35:39  670 671	 1492360539	 138093843	 133335.
16:35:39  671 672	 1492360539	 300197728	 162103.
16:35:39  672 673	 1492360539	 466148522	 165951.
16:35:39  673 674	 1492360539	 628145472	 161997.
16:35:39  674 675	 1492360539	 789717447	 161572.
16:35:39  675 676	 1492360539	 955522172	 165805.
16:35:40  676 677	 1492360540	 117157489	 161635.
16:35:40  677 678	 1492360540	 283016832	 165860.
16:35:40  678 679	 1492360540	 416254082	 133237.
16:35:40  679 680	 1492360540	 582228054	 165974.
16:35:40  680 681	 1492360540	 743996188	 161768.
16:35:40  681 682	 1492360540	 909723704	 165727.
16:35:41  682 683	 1492360541	 71677826	 161955.
16:35:41  683 684	 1492360541	 233634331	 161956.
16:35:41  684 685	 1492360541	 395614566	 161980.
16:35:41  685 686	 1492360541	 561698687	 166084.
16:35:41  686 687	 1492360541	 694689157	 132991.
16:35:41  687 688	 1492360541	 856518957	 161830.
16:35:42  688 689	 1492360542	 22837674	 166318.
16:35:42  689 690	 1492360542	 184802685	 161966.
16:35:42  690 691	 1492360542	 350815085	 166012.
16:35:42  691 692	 1492360542	 512740694	 161925.
16:35:42  692 693	 1492360542	 678556322	 165816.
16:35:42  693 694	 1492360542	 840376606	 161820.
16:35:43  694 695	 1492360543	 2212332	 161836.
16:35:43  695 696	 1492360543	 167873028	 165661.
16:35:43  696 697	 1492360543	 301007880	 133135.
16:35:43  697 698	 1492360543	 467133003	 166125.
16:35:43  698 699	 1492360543	 628966694	 161833.
16:35:43  699 700	 1492360543	 790755924	 161790.
16:35:43  700 701	 1492360543	 956720158	 165964.
16:35:44  701 702	 1492360544	 118597977	 161878.
16:35:44  702 703	 1492360544	 284356334	 165758.
16:35:44  703 704	 1492360544	 446103700	 161747.
16:35:44  704 705	 1492360544	 608134599	 162031.
16:35:44  705 706	 1492360544	 745364897	 137231.
16:35:44  706 707	 1492360544	 907240725	 161875.
16:35:45  707 708	 1492360545	 69001107	 161761.
16:35:45  708 709	 1492360545	 234811752	 165810.
16:35:45  709 710	 1492360545	 396755956	 161945.
16:35:45  710 711	 1492360545	 563059082	 166303.
16:35:45  711 712	 1492360545	 724869168	 161810.
16:35:45  712 713	 1492360545	 886683415	 161814.
16:35:46  713 714	 1492360546	 23780143	 137097.
16:35:46  714 715	 1492360546	 185598310	 161818.
16:35:46  715 716	 1492360546	 351228765	 165630.
16:35:46  716 717	 1492360546	 512942636	 161714.
16:35:46  717 718	 1492360546	 674755422	 161813.
16:35:46  718 719	 1492360546	 840940047	 166185.
16:35:47  719 720	 1492360547	 2833256	 161893.
16:35:47  720 721	 1492360547	 135725506	 132892.
16:35:47  721 722	 1492360547	 301436691	 165712.
16:35:47  722 723	 1492360547	 463308192	 161871.
16:35:47  723 724	 1492360547	 629053944	 165746.
16:35:47  724 725	 1492360547	 790496889	 161443.
16:35:47  725 726	 1492360547	 951958966	 161462.
16:35:48  726 727	 1492360548	 117954978	 165996.
16:35:48  727 728	 1492360548	 251036752	 133081.
16:35:48  728 729	 1492360548	 412618592	 161582.
16:35:48  729 730	 1492360548	 578332015	 165714.
16:35:48  730 731	 1492360548	 739910964	 161579.
16:35:48  731 732	 1492360548	 901476723	 161566.
16:35:49  732 733	 1492360549	 67437411	 165960.
16:35:49  733 734	 1492360549	 201112360	 133675.
16:35:49  734 735	 1492360549	 367489617	 166377.
16:35:49  735 736	 1492360549	 529675452	 162186.
16:35:49  736 737	 1492360549	 695805333	 166130.
16:35:49  737 738	 1492360549	 857480595	 161675.
16:35:50  738 739	 1492360550	 23296979	 165817.
16:35:50  739 740	 1492360550	 184871077	 161574.
16:35:50  740 741	 1492360550	 317984951	 133114.
16:35:50  741 742	 1492360550	 480099101	 162114.
16:35:50  742 743	 1492360550	 645694004	 165595.
16:35:50  743 744	 1492360550	 807399041	 161705.
16:35:50  744 745	 1492360550	 973263136	 165864.
16:35:51  745 746	 1492360551	 135248384	 161985.
16:35:51  746 747	 1492360551	 268373309	 133125.
16:35:51  747 748	 1492360551	 434383319	 166010.
16:35:51  748 749	 1492360551	 596350020	 161967.
16:35:51  749 750	 1492360551	 762744108	 166394.
16:35:51  750 751	 1492360551	 925687454	 162943.
16:35:52  751 752	 1492360552	 87604115	 161917.
16:35:52  752 753	 1492360552	 253347101	 165743.
16:35:52  753 754	 1492360552	 415199677	 161853.
16:35:52  754 755	 1492360552	 548224029	 133024.
16:35:52  755 756	 1492360552	 713876204	 165652.
16:35:52  756 757	 1492360552	 875609138	 161733.
16:35:53  757 758	 1492360553	 41257114	 165648.
16:35:53  758 759	 1492360553	 202865903	 161609.
16:35:53  759 760	 1492360553	 364558122	 161692.
16:35:53  760 761	 1492360553	 501547016	 136989.
16:35:53  761 762	 1492360553	 663164236	 161617.
16:35:53  762 763	 1492360553	 824836141	 161672.
16:35:53  763 764	 1492360553	 990734917	 165899.
16:35:54  764 765	 1492360554	 152241463	 161506.
16:35:54  765 766	 1492360554	 313777947	 161537.
16:35:54  766 767	 1492360554	 479688282	 165910.
16:35:54  767 768	 1492360554	 641401876	 161714.
16:35:54  768 769	 1492360554	 774450790	 133049.
16:35:54  769 770	 1492360554	 940185431	 165734.
16:35:55  770 771	 1492360555	 106093049	 165908.
16:35:55  771 772	 1492360555	 267848019	 161755.
16:35:55  772 773	 1492360555	 433624427	 165776.
16:35:55  773 774	 1492360555	 595476343	 161852.
16:35:55  774 775	 1492360555	 757074978	 161599.
16:35:55  775 776	 1492360555	 894118176	 137043.
16:35:56  776 777	 1492360556	 56643574	 162525.
16:35:56  777 778	 1492360556	 235849148	 179206.
16:35:56  778 779	 1492360556	 373036746	 137187.
16:35:56  779 780	 1492360556	 534814347	 161778.
16:35:56  780 781	 1492360556	 696633058	 161819.
16:35:56  781 782	 1492360556	 862574902	 165942.
16:35:57  782 783	 1492360557	 24205716	 161630.
16:35:57  783 784	 1492360557	 190096854	 165892.
16:35:57  784 785	 1492360557	 351731585	 161634.
16:35:57  785 786	 1492360557	 484813819	 133083.
16:35:57  786 787	 1492360557	 650870861	 166057.
16:35:57  787 788	 1492360557	 817414058	 166543.
16:35:57  788 789	 1492360557	 979218252	 161804.
16:35:58  789 790	 1492360558	 145127697	 165909.
16:35:58  790 791	 1492360558	 307386146	 162259.
16:35:58  791 792	 1492360558	 473739771	 166354.
16:35:58  792 793	 1492360558	 607164889	 133425.
16:35:58  793 794	 1492360558	 773197042	 166032.
16:35:58  794 795	 1492360558	 935104731	 161907.
16:35:59  795 796	 1492360559	 96935618	 161831.
16:35:59  796 797	 1492360559	 262911493	 165976.
16:35:59  797 798	 1492360559	 424667023	 161756.
16:35:59  798 799	 1492360559	 586268083	 161601.
16:35:59  799 800	 1492360559	 723352938	 137085.
16:35:59  800 801	 1492360559	 885286512	 161933.
16:36:00  801 802	 1492360560	 47384720	 162098.
16:36:00  802 803	 1492360560	 213214938	 165831.
16:36:00  803 804	 1492360560	 374848746	 161633.
16:36:00  804 805	 1492360560	 536751098	 161903.
16:36:00  805 806	 1492360560	 702603378	 165852.
16:36:00  806 807	 1492360560	 864291720	 161688.
16:36:00  807 808	 1492360560	 997394436	 133103.
16:36:01  808 809	 1492360561	 163207532	 165813.
16:36:01  809 810	 1492360561	 325118507	 161911.
16:36:01  810 811	 1492360561	 491395553	 166277.
16:36:01  811 812	 1492360561	 653365136	 161970.
16:36:01  812 813	 1492360561	 819294132	 165929.
16:36:01  813 814	 1492360561	 981131381	 161837.
16:36:02  814 815	 1492360562	 142781753	 161650.
16:36:02  815 816	 1492360562	 308551916	 165771.
16:36:02  816 817	 1492360562	 441605245	 133053.
16:36:02  817 818	 1492360562	 607331064	 165726.
16:36:02  818 819	 1492360562	 768967947	 161637.
16:36:02  819 820	 1492360562	 930735421	 161767.
16:36:03  820 821	 1492360563	 96488711	 165753.
16:36:03  821 822	 1492360563	 258242850	 161755.
16:36:03  822 823	 1492360563	 419972990	 161730.
16:36:03  823 824	 1492360563	 557178049	 137205.
16:36:03  824 825	 1492360563	 718989705	 161811.
16:36:03  825 826	 1492360563	 884937421	 165948.
16:36:04  826 827	 1492360564	 46915678	 161978.
16:36:04  827 828	 1492360564	 208607327	 161692.
16:36:04  828 829	 1492360564	 374495806	 165889.
16:36:04  829 830	 1492360564	 536274169	 161778.
16:36:04  830 831	 1492360564	 673427372	 137153.
16:36:04  831 832	 1492360564	 835226777	 161799.
16:36:04  832 833	 1492360564	 996969728	 161743.
16:36:05  833 834	 1492360565	 162844654	 165875.
16:36:05  834 835	 1492360565	 324753311	 161909.
16:36:05  835 836	 1492360565	 486441216	 161688.
16:36:05  836 837	 1492360565	 652141234	 165700.
16:36:05  837 838	 1492360565	 785178286	 133037.
16:36:05  838 839	 1492360565	 951110278	 165932.
16:36:06  839 840	 1492360566	 112933828	 161824.
16:36:06  840 841	 1492360566	 274843885	 161910.
16:36:06  841 842	 1492360566	 440586280	 165742.
16:36:06  842 843	 1492360566	 602360536	 161774.
16:36:06  843 844	 1492360566	 768135223	 165775.
16:36:06  844 845	 1492360566	 930062790	 161928.
16:36:07  845 846	 1492360567	 63144405	 133081.
16:36:07  846 847	 1492360567	 229082117	 165938.
16:36:07  847 848	 1492360567	 391045644	 161963.
16:36:07  848 849	 1492360567	 552972814	 161928.
16:36:07  849 850	 1492360567	 718693725	 165720.
16:36:07  850 851	 1492360567	 880655323	 161962.
16:36:08  851 852	 1492360568	 42511827	 161857.
16:36:08  852 853	 1492360568	 208256900	 165745.
16:36:08  853 854	 1492360568	 341163214	 132906.
16:36:08  854 855	 1492360568	 507119192	 165956.
16:36:08  855 856	 1492360568	 668942451	 161823.
16:36:08  856 857	 1492360568	 827349790	 158407.
16:36:08  857 858	 1492360568	 993133582	 165784.
16:36:09  858 859	 1492360569	 155044085	 161911.
16:36:09  859 860	 1492360569	 320935842	 165892.
16:36:09  860 861	 1492360569	 482595768	 161659.
16:36:09  861 862	 1492360569	 648390663	 165796.
16:36:09  862 863	 1492360569	 781379039	 132988.
16:36:09  863 864	 1492360569	 947174566	 165795.
16:36:10  864 865	 1492360570	 108732114	 161558.
16:36:10  865 866	 1492360570	 270827454	 162095.
16:36:10  866 867	 1492360570	 432660639	 161833.
16:36:10  867 868	 1492360570	 594512839	 161853.
16:36:10  868 869	 1492360570	 760160376	 165647.
16:36:10  869 870	 1492360570	 893097739	 132937.
16:36:11  870 871	 1492360571	 58895671	 165798.
16:36:11  871 872	 1492360571	 220662703	 161767.
16:36:11  872 873	 1492360571	 382381880	 161720.
16:36:11  873 874	 1492360571	 548160488	 165778.
16:36:11  874 875	 1492360571	 709728883	 161569.
16:36:11  875 876	 1492360571	 875550636	 165822.
16:36:12  876 877	 1492360572	 8638802	 133087.
16:36:12  877 878	 1492360572	 174461134	 165823.
16:36:12  878 879	 1492360572	 336368069	 161907.
16:36:12  879 880	 1492360572	 502232708	 165864.
16:36:12  880 881	 1492360572	 663917713	 161685.
16:36:12  881 882	 1492360572	 825597135	 161680.
16:36:12  882 883	 1492360572	 991408645	 165811.
16:36:13  883 884	 1492360573	 153406802	 161999.
16:36:13  884 885	 1492360573	 286690135	 133283.
16:36:13  885 886	 1492360573	 448653498	 161963.
16:36:13  886 887	 1492360573	 614505630	 165852.
16:36:13  887 888	 1492360573	 776297693	 161792.
16:36:13  888 889	 1492360573	 942242004	 165945.
16:36:14  889 890	 1492360574	 104011118	 161769.
16:36:14  890 891	 1492360574	 269847502	 165836.
16:36:14  891 892	 1492360574	 431663730	 161816.
16:36:14  892 893	 1492360574	 564916353	 133253.
16:36:14  893 894	 1492360574	 730761080	 165845.
16:36:14  894 895	 1492360574	 892367790	 161607.
16:36:15  895 896	 1492360575	 58149315	 165781.
16:36:15  896 897	 1492360575	 219830033	 161681.
16:36:15  897 898	 1492360575	 381888025	 162058.
16:36:15  898 899	 1492360575	 547724579	 165836.
16:36:15  899 900	 1492360575	 680803518	 133079.
16:36:15  900 901	 1492360575	 842469570	 161666.
16:36:16  901 902	 1492360576	 8318476	 165849.
16:36:16  902 903	 1492360576	 169908163	 161590.
16:36:16  903 904	 1492360576	 331655483	 161747.
16:36:16  904 905	 1492360576	 497461886	 165807.
16:36:16  905 906	 1492360576	 630631121	 133169.
16:36:16  906 907	 1492360576	 796631420	 166000.
16:36:16  907 908	 1492360576	 958280848	 161650.
16:36:17  908 909	 1492360577	 119872765	 161591.
16:36:17  909 910	 1492360577	 285377715	 165505.
16:36:17  910 911	 1492360577	 446927064	 161550.
16:36:17  911 912	 1492360577	 612830176	 165903.
16:36:17  912 913	 1492360577	 745642253	 132812.
16:36:17  913 914	 1492360577	 906921490	 161279.
16:36:18  914 915	 1492360578	 72556520	 165635.
16:36:18  915 916	 1492360578	 233787191	 161231.
16:36:18  916 917	 1492360578	 395237461	 161450.
16:36:18  917 918	 1492360578	 531947394	 136710.
16:36:18  918 919	 1492360578	 693116343	 161169.
16:36:18  919 920	 1492360578	 855086310	 161970.
16:36:19  920 921	 1492360579	 21374193	 166288.
16:36:19  921 922	 1492360579	 183326079	 161952.
16:36:19  922 923	 1492360579	 316532836	 133207.
16:36:19  923 924	 1492360579	 482443766	 165910.
16:36:19  924 925	 1492360579	 648674390	 166231.
16:36:19  925 926	 1492360579	 810511871	 161838.
16:36:19  926 927	 1492360579	 969002551	 158490.
16:36:20  927 928	 1492360580	 134944509	 165942.
16:36:20  928 929	 1492360580	 267899197	 132955.
16:36:20  929 930	 1492360580	 433260387	 165361.
16:36:20  930 931	 1492360580	 594692085	 161432.
16:36:20  931 932	 1492360580	 756298363	 161606.
16:36:20  932 933	 1492360580	 922423745	 166125.
16:36:21  933 934	 1492360581	 55390377	 132967.
16:36:21  934 935	 1492360581	 221301919	 165912.
16:36:21  935 936	 1492360581	 383287405	 161985.
16:36:21  936 937	 1492360581	 549310336	 166023.
16:36:21  937 938	 1492360581	 711519801	 162210.
16:36:21  938 939	 1492360581	 877734273	 166214.
16:36:22  939 940	 1492360582	 11171121	 133437.
16:36:22  940 941	 1492360582	 177258813	 166088.
16:36:22  941 942	 1492360582	 339224175	 161965.
16:36:22  942 943	 1492360582	 505411477	 166187.
16:36:22  943 944	 1492360582	 667296445	 161885.
16:36:22  944 945	 1492360582	 833128466	 165832.
16:36:22  945 946	 1492360582	 966546479	 133418.
16:36:23  946 947	 1492360583	 128552937	 162007.
16:36:23  947 948	 1492360583	 294328159	 165775.
16:36:23  948 949	 1492360583	 456322196	 161994.
16:36:23  949 950	 1492360583	 622406478	 166084.
16:36:23  950 951	 1492360583	 784434254	 162028.
16:36:23  951 952	 1492360583	 950386061	 165952.
16:36:24  952 953	 1492360584	 83477378	 133091.
16:36:24  953 954	 1492360584	 245285142	 161808.
16:36:24  954 955	 1492360584	 411268510	 165983.
16:36:24  955 956	 1492360584	 573303104	 162035.
16:36:24  956 957	 1492360584	 739058507	 165755.
16:36:24  957 958	 1492360584	 900794387	 161736.
16:36:25  958 959	 1492360585	 66633926	 165840.
16:36:25  959 960	 1492360585	 228464635	 161830.
16:36:25  960 961	 1492360585	 361625395	 133161.
16:36:25  961 962	 1492360585	 523466464	 161841.
16:36:25  962 963	 1492360585	 689208776	 165743.
16:36:25  963 964	 1492360585	 850968951	 161760.
16:36:26  964 965	 1492360586	 17020058	 166051.
16:36:26  965 966	 1492360586	 178757469	 161737.
16:36:26  966 967	 1492360586	 344528677	 165771.
16:36:26  967 968	 1492360586	 506232252	 161704.
16:36:26  968 969	 1492360586	 639226508	 132994.
16:36:26  969 970	 1492360586	 804992708	 165766.
16:36:26  970 971	 1492360586	 966673601	 161681.
16:36:27  971 972	 1492360587	 128479893	 161807.
16:36:27  972 973	 1492360587	 295047886	 166568.
16:36:27  973 974	 1492360587	 448478014	 153430.
16:36:27  974 975	 1492360587	 614109229	 165631.
16:36:27  975 976	 1492360587	 775775117	 161666.
16:36:27  976 977	 1492360587	 912812085	 137037.
16:36:28  977 978	 1492360588	 74631144	 161819.
16:36:28  978 979	 1492360588	 236316425	 161685.
16:36:28  979 980	 1492360588	 402129170	 165813.
16:36:28  980 981	 1492360588	 564053424	 161924.
16:36:28  981 982	 1492360588	 725597732	 161545.
16:36:28  982 983	 1492360588	 891272421	 165674.
16:36:29  983 984	 1492360589	 24284821	 133013.
16:36:29  984 985	 1492360589	 189967685	 165682.
16:36:29  985 986	 1492360589	 351708702	 161741.
16:36:29  986 987	 1492360589	 517576051	 165868.
16:36:29  987 988	 1492360589	 665159146	 147583.
16:36:29  988 989	 1492360589	 826798784	 161639.
16:36:29  989 990	 1492360589	 988804453	 162006.
16:36:30  990 991	 1492360590	 154694045	 165890.
16:36:30  991 992	 1492360590	 316484792	 161791.
16:36:30  992 993	 1492360590	 482453477	 165968.
16:36:30  993 994	 1492360590	 644235945	 161783.
16:36:30  994 995	 1492360590	 777360508	 133124.
16:36:30  995 996	 1492360590	 939549968	 162190.
16:36:31  996 997	 1492360591	 101419479	 161869.
16:36:31  997 998	 1492360591	 267338512	 165919.
16:36:31  998 999	 1492360591	 429112720	 161774.
16:36:31  999 1000	 1492360591	 594796992	 165685.
16:36:31 1000 1001	 1492360591	 756379227	 161582.
16:36:31 1001 1002	 1492360591	 889396974	 133018.
16:36:32 1002 1003	 1492360592	 55354930	 165958.
16:36:32 1003 1004	 1492360592	 216994773	 161639.
16:36:32 1004 1005	 1492360592	 382772947	 165779.
16:36:32 1005 1006	 1492360592	 545083690	 162310.
16:36:32 1006 1007	 1492360592	 706793749	 161710.
16:36:32 1007 1008	 1492360592	 872525775	 165732.
16:36:33 1008 1009	 1492360593	 34169396	 161644.
16:36:33 1009 1010	 1492360593	 167265479	 133096.
16:36:33 1010 1011	 1492360593	 329191227	 161926.
16:36:33 1011 1012	 1492360593	 494899345	 165708.
16:36:33 1012 1013	 1492360593	 656421044	 161522.
16:36:33 1013 1014	 1492360593	 822500541	 166079.
16:36:33 1014 1015	 1492360593	 984255924	 161756.
16:36:34 1015 1016	 1492360594	 150115349	 165859.
16:36:34 1016 1017	 1492360594	 283138361	 133023.
16:36:34 1017 1018	 1492360594	 444880421	 161742.
16:36:34 1018 1019	 1492360594	 628615048	 183735.
16:36:34 1019 1020	 1492360594	 765911994	 137297.
16:36:34 1020 1021	 1492360594	 927758383	 161846.
16:36:35 1021 1022	 1492360595	 89802006	 162044.
16:36:35 1022 1023	 1492360595	 255783804	 165982.
16:36:35 1023 1024	 1492360595	 417532080	 161748.
16:36:35 1024 1025	 1492360595	 583293302	 165761.
16:36:35 1025 1026	 1492360595	 745015678	 161722.
16:36:35 1026 1027	 1492360595	 906887314	 161872.
16:36:36 1027 1028	 1492360596	 40123474	 133236.
16:36:36 1028 1029	 1492360596	 206096517	 165973.
16:36:36 1029 1030	 1492360596	 367883287	 161787.
16:36:36 1030 1031	 1492360596	 533835950	 165953.
16:36:36 1031 1032	 1492360596	 695779090	 161943.
16:36:36 1032 1033	 1492360596	 857598858	 161820.
16:36:37 1033 1034	 1492360597	 23507410	 165908.
16:36:37 1034 1035	 1492360597	 185153143	 161646.
16:36:37 1035 1036	 1492360597	 350798914	 165646.
16:36:37 1036 1037	 1492360597	 483905506	 133106.
16:36:37 1037 1038	 1492360597	 645777619	 161872.
16:36:37 1038 1039	 1492360597	 811593561	 165816.
16:36:37 1039 1040	 1492360597	 973458624	 161865.
16:36:38 1040 1041	 1492360598	 139743315	 166285.
16:36:38 1041 1042	 1492360598	 297468571	 157725.
16:36:38 1042 1043	 1492360598	 463598056	 166130.
16:36:38 1043 1044	 1492360598	 625174336	 161576.
16:36:38 1044 1045	 1492360598	 787431822	 162258.
16:36:38 1045 1046	 1492360598	 920660979	 133229.
16:36:39 1046 1047	 1492360599	 82660135	 161999.
16:36:39 1047 1048	 1492360599	 248524616	 165864.
16:36:39 1048 1049	 1492360599	 414523325	 165999.
16:36:39 1049 1050	 1492360599	 576357412	 161834.
16:36:39 1050 1051	 1492360599	 742110812	 165754.
16:36:39 1051 1052	 1492360599	 903855901	 161745.
16:36:40 1052 1053	 1492360600	 37049263	 133193.
16:36:40 1053 1054	 1492360600	 203220981	 166172.
16:36:40 1054 1055	 1492360600	 365034847	 161814.
16:36:40 1055 1056	 1492360600	 530924087	 165889.
16:36:40 1056 1057	 1492360600	 692871214	 161947.
16:36:40 1057 1058	 1492360600	 858590375	 165719.
16:36:41 1058 1059	 1492360601	 20487140	 161897.
16:36:41 1059 1060	 1492360601	 186441929	 165955.
16:36:41 1060 1061	 1492360601	 319808086	 133366.
16:36:41 1061 1062	 1492360601	 481484293	 161676.
16:36:41 1062 1063	 1492360601	 647411820	 165928.
16:36:41 1063 1064	 1492360601	 809151256	 161739.
16:36:41 1064 1065	 1492360601	 975099916	 165949.
16:36:42 1065 1066	 1492360602	 136853479	 161753.
16:36:42 1066 1067	 1492360602	 302683390	 165830.
16:36:42 1067 1068	 1492360602	 464458971	 161776.
16:36:42 1068 1069	 1492360602	 626254880	 161796.
16:36:42 1069 1070	 1492360602	 792336234	 166081.
16:36:42 1070 1071	 1492360602	 925549952	 133214.
16:36:43 1071 1072	 1492360603	 91476553	 165926.
16:36:43 1072 1073	 1492360603	 253369826	 161894.
16:36:43 1073 1074	 1492360603	 415067175	 161697.
16:36:43 1074 1075	 1492360603	 580750047	 165683.
16:36:43 1075 1076	 1492360603	 742491322	 161741.
16:36:43 1076 1077	 1492360603	 904218682	 161727.
16:36:44 1077 1078	 1492360604	 70246810	 166029.
16:36:44 1078 1079	 1492360604	 232243721	 161996.
16:36:44 1079 1080	 1492360604	 390674938	 158432.
16:36:44 1080 1081	 1492360604	 523900382	 133225.
16:36:44 1081 1082	 1492360604	 689871058	 165971.
16:36:44 1082 1083	 1492360604	 851948759	 162077.
16:36:45 1083 1084	 1492360605	 17982508	 166034.
16:36:45 1084 1085	 1492360605	 179804876	 161823.
16:36:45 1085 1086	 1492360605	 345680696	 165875.
16:36:45 1086 1087	 1492360605	 507372960	 161693.
16:36:45 1087 1088	 1492360605	 669081694	 161708.
16:36:45 1088 1089	 1492360605	 806083845	 137003.
16:36:45 1089 1090	 1492360605	 989309280	 183225.
16:36:46 1090 1091	 1492360606	 122606978	 133298.
16:36:46 1091 1092	 1492360606	 288192670	 165585.
16:36:46 1092 1093	 1492360606	 449858028	 161666.
16:36:46 1093 1094	 1492360606	 611652260	 161794.
16:36:46 1094 1095	 1492360606	 777621220	 165969.
16:36:46 1095 1096	 1492360606	 939476871	 161856.
16:36:47 1096 1097	 1492360607	 105294136	 165817.
16:36:47 1097 1098	 1492360607	 267079322	 161785.
16:36:47 1098 1099	 1492360607	 404183382	 137104.
16:36:47 1099 1100	 1492360607	 566007250	 161824.
16:36:47 1100 1101	 1492360607	 727768661	 161761.
16:36:47 1101 1102	 1492360607	 893632004	 165864.
16:36:48 1102 1103	 1492360608	 55384278	 161752.
16:36:48 1103 1104	 1492360608	 217183787	 161800.
16:36:48 1104 1105	 1492360608	 383040715	 165857.
16:36:48 1105 1106	 1492360608	 544864463	 161823.
16:36:48 1106 1107	 1492360608	 681958743	 137094.
16:36:48 1107 1108	 1492360608	 843558062	 161600.
16:36:49 1108 1109	 1492360609	 5151446	 161593.
16:36:49 1109 1110	 1492360609	 170923952	 165773.
16:36:49 1110 1111	 1492360609	 332778870	 161855.
16:36:49 1111 1112	 1492360609	 498570067	 165791.
16:36:49 1112 1113	 1492360609	 660264665	 161694.
16:36:49 1113 1114	 1492360609	 797482586	 137218.
16:36:49 1114 1115	 1492360609	 959240023	 161758.
16:36:50 1115 1116	 1492360610	 121044151	 161804.
16:36:50 1116 1117	 1492360610	 283080805	 162037.
16:36:50 1117 1118	 1492360610	 444807061	 161726.
16:36:50 1118 1119	 1492360610	 603305269	 158498.
16:36:50 1119 1120	 1492360610	 769152997	 165848.
16:36:50 1120 1121	 1492360610	 931102097	 161949.
16:36:51 1121 1122	 1492360611	 97021798	 165920.
16:36:51 1122 1123	 1492360611	 230187811	 133166.
16:36:51 1123 1124	 1492360611	 396073453	 165885.
16:36:51 1124 1125	 1492360611	 557856134	 161783.
16:36:51 1125 1126	 1492360611	 719711422	 161855.
16:36:51 1126 1127	 1492360611	 885623978	 165913.
16:36:52 1127 1128	 1492360612	 47377118	 161753.
16:36:52 1128 1129	 1492360612	 209075469	 161698.
16:36:52 1129 1130	 1492360612	 374886369	 165811.
16:36:52 1130 1131	 1492360612	 536671780	 161786.
16:36:52 1131 1132	 1492360612	 669931474	 133259.
16:36:52 1132 1133	 1492360612	 835626685	 165695.
16:36:52 1133 1134	 1492360612	 997542513	 161916.
16:36:53 1134 1135	 1492360613	 163430084	 165888.
16:36:53 1135 1136	 1492360613	 325297212	 161867.
16:36:53 1136 1137	 1492360613	 491205666	 165908.
16:36:53 1137 1138	 1492360613	 653184937	 161980.
16:36:53 1138 1139	 1492360613	 819102651	 165917.
16:36:53 1139 1140	 1492360613	 952368278	 133266.
16:36:54 1140 1141	 1492360614	 114087480	 161719.
16:36:54 1141 1142	 1492360614	 280013894	 165927.
16:36:54 1142 1143	 1492360614	 441946998	 161933.
16:36:54 1143 1144	 1492360614	 607991497	 166044.
16:36:54 1144 1145	 1492360614	 769962976	 161972.
16:36:54 1145 1146	 1492360614	 931877255	 161914.
16:36:55 1146 1147	 1492360615	 97904734	 166027.
16:36:55 1147 1148	 1492360615	 259768653	 161864.
16:36:55 1148 1149	 1492360615	 393030232	 133262.
16:36:55 1149 1150	 1492360615	 558834248	 165804.
16:36:55 1150 1151	 1492360615	 720526430	 161692.
16:36:55 1151 1152	 1492360615	 886604134	 166078.
16:36:56 1152 1153	 1492360616	 48422291	 161818.
16:36:56 1153 1154	 1492360616	 214219450	 165797.
16:36:56 1154 1155	 1492360616	 375986783	 161768.
16:36:56 1155 1156	 1492360616	 537700712	 161713.
16:36:56 1156 1157	 1492360616	 674963256	 137263.
16:36:56 1157 1158	 1492360616	 836657414	 161694.
16:36:56 1158 1159	 1492360617	 2445603	 165788.
16:36:57 1159 1160	 1492360617	 164182091	 161737.
16:36:57 1160 1161	 1492360617	 336687383	 172505.
16:36:57 1161 1162	 1492360617	 473982016	 137295.
16:36:57 1162 1163	 1492360617	 635965457	 161983.
16:36:57 1163 1164	 1492360617	 801834664	 165869.
16:36:57 1164 1165	 1492360617	 963653105	 161819.
16:36:58 1165 1166	 1492360618	 125521156	 161868.
16:36:58 1166 1167	 1492360618	 291398874	 165878.
16:36:58 1167 1168	 1492360618	 453273448	 161874.
16:36:58 1168 1169	 1492360618	 615022864	 161750.
16:36:58 1169 1170	 1492360618	 780985026	 165962.
16:36:58 1170 1171	 1492360618	 914108077	 133123.
16:36:59 1171 1172	 1492360619	 75907710	 161799.
16:36:59 1172 1173	 1492360619	 241925808	 166019.
16:36:59 1173 1174	 1492360619	 404078532	 162152.
16:36:59 1174 1175	 1492360619	 570026180	 165948.
16:36:59 1175 1176	 1492360619	 731722434	 161696.
16:36:59 1176 1177	 1492360619	 893712291	 161990.
16:37:00 1177 1178	 1492360620	 55395079	 161683.
16:37:00 1178 1179	 1492360620	 217377242	 161982.
16:37:00 1179 1180	 1492360620	 354845982	 137469.
16:37:00 1180 1181	 1492360620	 516883012	 162037.
16:37:00 1181 1182	 1492360620	 678752912	 161870.
16:37:00 1182 1183	 1492360620	 844720786	 165968.
16:37:01 1183 1184	 1492360621	 6445900	 161725.
16:37:01 1184 1185	 1492360621	 172454481	 166008.
16:37:01 1185 1186	 1492360621	 334133893	 161680.
16:37:01 1186 1187	 1492360621	 499863905	 165730.
16:37:01 1187 1188	 1492360621	 632912404	 133048.
16:37:01 1188 1189	 1492360621	 798813579	 165901.
16:37:01 1189 1190	 1492360621	 960753156	 161940.
16:37:02 1190 1191	 1492360622	 122799361	 162046.
16:37:02 1191 1192	 1492360622	 288505893	 165707.
16:37:02 1192 1193	 1492360622	 450522624	 162016.
16:37:02 1193 1194	 1492360622	 612313400	 161791.
16:37:02 1194 1195	 1492360622	 778086728	 165773.
16:37:02 1195 1196	 1492360622	 943509829	 165424.
16:37:03 1196 1197	 1492360623	 80620103	 137110.
16:37:03 1197 1198	 1492360623	 242460961	 161841.
16:37:03 1198 1199	 1492360623	 404211729	 161750.
16:37:03 1199 1200	 1492360623	 570155596	 165944.
16:37:03 1200 1201	 1492360623	 731954201	 161799.
16:37:03 1201 1202	 1492360623	 894191586	 162237.
16:37:04 1202 1203	 1492360624	 60035937	 165845.
16:37:04 1203 1204	 1492360624	 221699406	 161663.
16:37:04 1204 1205	 1492360624	 355026944	 133328.
16:37:04 1205 1206	 1492360624	 520977652	 165950.
16:37:04 1206 1207	 1492360624	 682641825	 161665.
16:37:04 1207 1208	 1492360624	 848692813	 166051.
16:37:05 1208 1209	 1492360625	 10396079	 161703.
16:37:05 1209 1210	 1492360625	 176477225	 166081.
16:37:05 1210 1211	 1492360625	 338486311	 162009.
16:37:05 1211 1212	 1492360625	 500310700	 161824.
16:37:05 1212 1213	 1492360625	 637592171	 137282.
16:37:05 1213 1214	 1492360625	 799290657	 161698.
16:37:05 1214 1215	 1492360625	 961177329	 161887.
16:37:06 1215 1216	 1492360626	 127099620	 165922.
16:37:06 1216 1217	 1492360626	 288860902	 161762.
16:37:06 1217 1218	 1492360626	 454670545	 165809.
16:37:06 1218 1219	 1492360626	 616704083	 162034.
16:37:06 1219 1220	 1492360626	 778587235	 161883.
16:37:06 1220 1221	 1492360626	 940726817	 162140.
16:37:07 1221 1222	 1492360627	 102611294	 161884.
16:37:07 1222 1223	 1492360627	 239982167	 137371.
16:37:07 1223 1224	 1492360627	 401829296	 161847.
16:37:07 1224 1225	 1492360627	 563553452	 161724.
16:37:07 1225 1226	 1492360627	 729491700	 165938.
16:37:07 1226 1227	 1492360627	 891276624	 161785.
16:37:08 1227 1228	 1492360628	 57192027	 165916.
16:37:08 1228 1229	 1492360628	 218924686	 161732.
16:37:08 1229 1230	 1492360628	 366858788	 147934.
16:37:08 1230 1231	 1492360628	 528762643	 161904.
16:37:08 1231 1232	 1492360628	 694659733	 165897.
16:37:08 1232 1233	 1492360628	 856412286	 161753.
16:37:09 1233 1234	 1492360629	 22290327	 165878.
16:37:09 1234 1235	 1492360629	 184011900	 161722.
16:37:09 1235 1236	 1492360629	 346050939	 162039.
16:37:09 1236 1237	 1492360629	 483215513	 137164.
16:37:09 1237 1238	 1492360629	 645346086	 162131.
16:37:09 1238 1239	 1492360629	 811260387	 165914.
16:37:09 1239 1240	 1492360629	 972986891	 161727.
16:37:10 1240 1241	 1492360630	 138777709	 165790.
16:37:10 1241 1242	 1492360630	 300451239	 161674.
16:37:10 1242 1243	 1492360630	 462202167	 161751.
16:37:10 1243 1244	 1492360630	 595237265	 133035.
16:37:10 1244 1245	 1492360630	 761070246	 165833.
16:37:10 1245 1246	 1492360630	 922984751	 161914.
16:37:11 1246 1247	 1492360631	 88950721	 165966.
16:37:11 1247 1248	 1492360631	 250587567	 161637.
16:37:11 1248 1249	 1492360631	 412520785	 161934.
16:37:11 1249 1250	 1492360631	 574667404	 162146.
16:37:11 1250 1251	 1492360631	 736379819	 161713.
16:37:11 1251 1252	 1492360631	 901908168	 165528.
16:37:12 1252 1253	 1492360632	 34843438	 132935.
16:37:12 1253 1254	 1492360632	 196513836	 161671.
16:37:12 1254 1255	 1492360632	 362238819	 165725.
16:37:12 1255 1256	 1492360632	 524055825	 161817.
16:37:12 1256 1257	 1492360632	 689906652	 165850.
16:37:12 1257 1258	 1492360632	 851846700	 161940.
16:37:13 1258 1259	 1492360633	 13545146	 161699.
16:37:13 1259 1260	 1492360633	 179505424	 165960.
16:37:13 1260 1261	 1492360633	 337896694	 158391.
16:37:13 1261 1262	 1492360633	 475199483	 137303.
16:37:13 1262 1263	 1492360633	 636967644	 161768.
16:37:13 1263 1264	 1492360633	 802760973	 165794.
16:37:13 1264 1265	 1492360633	 964645141	 161884.
16:37:14 1265 1266	 1492360634	 130610906	 165966.
16:37:14 1266 1267	 1492360634	 292444809	 161834.
16:37:14 1267 1268	 1492360634	 454402503	 161957.
16:37:14 1268 1269	 1492360634	 619952107	 165550.
16:37:14 1269 1270	 1492360634	 753224130	 133272.
16:37:14 1270 1271	 1492360634	 919326239	 166102.
16:37:15 1271 1272	 1492360635	 81271112	 161945.
16:37:15 1272 1273	 1492360635	 243123933	 161853.
16:37:15 1273 1274	 1492360635	 408914748	 165790.
16:37:15 1274 1275	 1492360635	 570773759	 161859.
16:37:15 1275 1276	 1492360635	 732515560	 161742.
16:37:15 1276 1277	 1492360635	 898336951	 165822.
16:37:16 1277 1278	 1492360636	 60109923	 161773.
16:37:16 1278 1279	 1492360636	 197437691	 137327.
16:37:16 1279 1280	 1492360636	 359255282	 161818.
16:37:16 1280 1281	 1492360636	 521207741	 161952.
16:37:16 1281 1282	 1492360636	 687070438	 165863.
16:37:16 1282 1283	 1492360636	 848812828	 161743.
16:37:17 1283 1284	 1492360637	 14469071	 165656.
16:37:17 1284 1285	 1492360637	 175993737	 161524.
16:37:17 1285 1286	 1492360637	 308935525	 132942.
16:37:17 1286 1287	 1492360637	 474617873	 165683.
16:37:17 1287 1288	 1492360637	 636243823	 161626.
16:37:17 1288 1289	 1492360637	 801996816	 165753.
16:37:17 1289 1290	 1492360637	 963791155	 161794.
16:37:18 1290 1291	 1492360638	 125702864	 161912.
16:37:18 1291 1292	 1492360638	 291425794	 165723.
16:37:18 1292 1293	 1492360638	 424564113	 133138.
16:37:18 1293 1294	 1492360638	 590596905	 166033.
16:37:18 1294 1295	 1492360638	 752486871	 161890.
16:37:18 1295 1296	 1492360638	 918415637	 165928.
16:37:19 1296 1297	 1492360639	 69321397	 150906.
16:37:19 1297 1298	 1492360639	 235197232	 165876.
16:37:19 1298 1299	 1492360639	 396862479	 161665.
16:37:19 1299 1300	 1492360639	 562650906	 165789.
16:37:19 1300 1301	 1492360639	 724423285	 161772.
16:37:19 1301 1302	 1492360639	 882928437	 158505.
16:37:20 1302 1303	 1492360640	 44869322	 161941.
16:37:20 1303 1304	 1492360640	 210880034	 166011.
16:37:20 1304 1305	 1492360640	 373139488	 162259.
16:37:20 1305 1306	 1492360640	 510690993	 137552.
16:37:20 1306 1307	 1492360640	 672367758	 161676.
16:37:20 1307 1308	 1492360640	 838602685	 166235.
16:37:20 1308 1309	 1492360641	 723873	 162122.
16:37:21 1309 1310	 1492360641	 162419878	 161696.
16:37:21 1310 1311	 1492360641	 328209735	 165789.
16:37:21 1311 1312	 1492360641	 489758488	 161549.
16:37:21 1312 1313	 1492360641	 626769351	 137011.
16:37:21 1313 1314	 1492360641	 788978357	 162209.
16:37:21 1314 1315	 1492360641	 955154626	 166177.
16:37:22 1315 1316	 1492360642	 117106883	 161952.
16:37:22 1316 1317	 1492360642	 278838851	 161732.
16:37:22 1317 1318	 1492360642	 444744929	 165906.
16:37:22 1318 1319	 1492360642	 610489856	 165745.
16:37:22 1319 1320	 1492360642	 772262532	 161772.
16:37:22 1320 1321	 1492360642	 934120378	 161858.
16:37:23 1321 1322	 1492360643	 71189591	 137069.
16:37:23 1322 1323	 1492360643	 233163101	 161974.
16:37:23 1323 1324	 1492360643	 391774513	 158611.
16:37:23 1324 1325	 1492360643	 553519730	 161745.
16:37:23 1325 1326	 1492360643	 715314268	 161795.
16:37:23 1326 1327	 1492360643	 880942917	 165629.
16:37:24 1327 1328	 1492360644	 42759603	 161816.
16:37:24 1328 1329	 1492360644	 208502910	 165744.
16:37:24 1329 1330	 1492360644	 341472187	 132969.
16:37:24 1330 1331	 1492360644	 507346790	 165875.
16:37:24 1331 1332	 1492360644	 669377327	 162030.
16:37:24 1332 1333	 1492360644	 831195762	 161818.
16:37:24 1333 1334	 1492360644	 997137680	 165942.
16:37:25 1334 1335	 1492360645	 159046200	 161909.
16:37:25 1335 1336	 1492360645	 324954212	 165908.
16:37:25 1336 1337	 1492360645	 486845081	 161891.
16:37:25 1337 1338	 1492360645	 648704116	 161859.
16:37:25 1338 1339	 1492360645	 786154592	 137450.
16:37:25 1339 1340	 1492360645	 948202092	 162048.
16:37:26 1340 1341	 1492360646	 114169106	 165967.
16:37:26 1341 1342	 1492360646	 276106216	 161937.
16:37:26 1342 1343	 1492360646	 437970649	 161864.
16:37:26 1343 1344	 1492360646	 604076265	 166106.
16:37:26 1344 1345	 1492360646	 766016880	 161941.
16:37:26 1345 1346	 1492360646	 931879722	 165862.
16:37:27 1346 1347	 1492360647	 64840545	 132961.
16:37:27 1347 1348	 1492360647	 226571221	 161731.
16:37:27 1348 1349	 1492360647	 392846076	 166275.
16:37:27 1349 1350	 1492360647	 555102040	 162256.
16:37:27 1350 1351	 1492360647	 721431924	 166330.
16:37:27 1351 1352	 1492360647	 883283154	 161851.
16:37:28 1352 1353	 1492360648	 49306795	 166024.
16:37:28 1353 1354	 1492360648	 211580268	 162273.
16:37:28 1354 1355	 1492360648	 349188667	 137609.
16:37:28 1355 1356	 1492360648	 511476283	 162287.
16:37:28 1356 1357	 1492360648	 677909584	 166433.
16:37:28 1357 1358	 1492360648	 840324131	 162415.
16:37:29 1358 1359	 1492360649	 6504277	 166180.
16:37:29 1359 1360	 1492360649	 168464575	 161960.
16:37:29 1360 1361	 1492360649	 334338524	 165874.
16:37:29 1361 1362	 1492360649	 467735563	 133397.
16:37:29 1362 1363	 1492360649	 634023259	 166288.
16:37:29 1363 1364	 1492360649	 796239727	 162216.
16:37:29 1364 1365	 1492360649	 962437889	 166199.
16:37:30 1365 1366	 1492360650	 124959181	 162521.
16:37:30 1366 1367	 1492360650	 298388900	 173430.
16:37:30 1367 1368	 1492360650	 436121723	 137732.
16:37:30 1368 1369	 1492360650	 598369986	 162249.
16:37:30 1369 1370	 1492360650	 764630849	 166261.
16:37:30 1370 1371	 1492360650	 926891324	 162260.
16:37:31 1371 1372	 1492360651	 93308410	 166417.
16:37:31 1372 1373	 1492360651	 248221580	 154913.
16:37:31 1373 1374	 1492360651	 414663660	 166442.
16:37:31 1374 1375	 1492360651	 580430091	 165767.
16:37:31 1375 1376	 1492360651	 742303071	 161873.
16:37:31 1376 1377	 1492360651	 904097880	 161795.
16:37:32 1377 1378	 1492360652	 41510060	 137412.
16:37:32 1378 1379	 1492360652	 203577378	 162067.
16:37:32 1379 1380	 1492360652	 365373336	 161796.
16:37:32 1380 1381	 1492360652	 531509514	 166136.
16:37:32 1381 1382	 1492360652	 693608235	 162099.
16:37:32 1382 1383	 1492360652	 855864373	 162256.
16:37:33 1383 1384	 1492360653	 17680139	 161816.
16:37:33 1384 1385	 1492360653	 179600266	 161920.
16:37:33 1385 1386	 1492360653	 345511144	 165911.
16:37:33 1386 1387	 1492360653	 507437428	 161926.
16:37:33 1387 1388	 1492360653	 644685570	 137248.
16:37:33 1388 1389	 1492360653	 806596302	 161911.
16:37:33 1389 1390	 1492360653	 968398440	 161802.
16:37:34 1390 1391	 1492360654	 134324443	 165926.
16:37:34 1391 1392	 1492360654	 295890120	 161566.
16:37:34 1392 1393	 1492360654	 457582274	 161692.
16:37:34 1393 1394	 1492360654	 623399471	 165817.
16:37:34 1394 1395	 1492360654	 785238879	 161840.
16:37:34 1395 1396	 1492360654	 922448775	 137209.
16:37:35 1396 1397	 1492360655	 84208274	 161760.
16:37:35 1397 1398	 1492360655	 250198107	 165990.
16:37:35 1398 1399	 1492360655	 412324794	 162126.
16:37:35 1399 1400	 1492360655	 574402012	 162078.
16:37:35 1400 1401	 1492360655	 740402881	 166001.
16:37:35 1401 1402	 1492360655	 902269317	 161866.
16:37:36 1402 1403	 1492360656	 64151206	 161882.
16:37:36 1403 1404	 1492360656	 229910240	 165759.
16:37:36 1404 1405	 1492360656	 391691949	 161782.
16:37:36 1405 1406	 1492360656	 557703825	 166012.
16:37:36 1406 1407	 1492360656	 690876362	 133172.
16:37:36 1407 1408	 1492360656	 852715250	 161839.
16:37:37 1408 1409	 1492360657	 18557801	 165843.
16:37:37 1409 1410	 1492360657	 180378061	 161820.
16:37:37 1410 1411	 1492360657	 346033798	 165656.
16:37:37 1411 1412	 1492360657	 507863414	 161829.
16:37:37 1412 1413	 1492360657	 669636957	 161774.
16:37:37 1413 1414	 1492360657	 835760566	 166123.
16:37:37 1414 1415	 1492360657	 997550420	 161790.
16:37:38 1415 1416	 1492360658	 130702305	 133152.
16:37:38 1416 1417	 1492360658	 292897085	 162195.
16:37:38 1417 1418	 1492360658	 458837236	 165940.
16:37:38 1418 1419	 1492360658	 620719146	 161882.
16:37:38 1419 1420	 1492360658	 782622128	 161903.
16:37:38 1420 1421	 1492360658	 948456371	 165834.
16:37:39 1421 1422	 1492360659	 110040472	 161584.
16:37:39 1422 1423	 1492360659	 275907301	 165867.
16:37:39 1423 1424	 1492360659	 408904827	 132998.
16:37:39 1424 1425	 1492360659	 570729967	 161825.
16:37:39 1425 1426	 1492360659	 736489764	 165759.
16:37:39 1426 1427	 1492360659	 898174808	 161686.
16:37:40 1427 1428	 1492360660	 64178128	 166003.
16:37:40 1428 1429	 1492360660	 225972670	 161794.
16:37:40 1429 1430	 1492360660	 391842786	 165870.
16:37:40 1430 1431	 1492360660	 553608777	 161766.
16:37:40 1431 1432	 1492360660	 686675154	 133067.
16:37:40 1432 1433	 1492360660	 852625010	 165950.
16:37:41 1433 1434	 1492360661	 14621592	 161996.
16:37:41 1434 1435	 1492360661	 176410974	 161790.
16:37:41 1435 1436	 1492360661	 342206858	 165796.
16:37:41 1436 1437	 1492360661	 504034169	 161827.
16:37:41 1437 1438	 1492360661	 669988403	 165954.
16:37:41 1438 1439	 1492360661	 831695047	 161707.
16:37:41 1439 1440	 1492360661	 968980281	 137285.
16:37:42 1440 1441	 1492360662	 130684160	 161704.
16:37:42 1441 1442	 1492360662	 292498149	 161814.
16:37:42 1442 1443	 1492360662	 458564118	 166066.
16:37:42 1443 1444	 1492360662	 620465557	 161901.
16:37:42 1444 1445	 1492360662	 786566573	 166101.
16:37:42 1445 1446	 1492360662	 948313721	 161747.
16:37:43 1446 1447	 1492360663	 114151612	 165838.
16:37:43 1447 1448	 1492360663	 276114487	 161963.
16:37:43 1448 1449	 1492360663	 409448252	 133334.
16:37:43 1449 1450	 1492360663	 575471843	 166024.
16:37:43 1450 1451	 1492360663	 737168488	 161696.
16:37:43 1451 1452	 1492360663	 902936886	 165769.
16:37:44 1452 1453	 1492360664	 64738927	 161802.
16:37:44 1453 1454	 1492360664	 230462041	 165723.
16:37:44 1454 1455	 1492360664	 392191758	 161729.
16:37:44 1455 1456	 1492360664	 554562959	 162372.
16:37:44 1456 1457	 1492360664	 687757176	 133194.
16:37:44 1457 1458	 1492360664	 853595328	 165838.
16:37:45 1458 1459	 1492360665	 16075675	 162480.
16:37:45 1459 1460	 1492360665	 177936492	 161861.
16:37:45 1460 1461	 1492360665	 344010285	 166074.
16:37:45 1461 1462	 1492360665	 505828666	 161818.
16:37:45 1462 1463	 1492360665	 671593370	 165765.
16:37:45 1463 1464	 1492360665	 804492234	 132899.
16:37:45 1464 1465	 1492360665	 966433518	 161941.
16:37:46 1465 1466	 1492360666	 132504648	 166071.
16:37:46 1466 1467	 1492360666	 294493983	 161990.
16:37:46 1467 1468	 1492360666	 460545190	 166051.
16:37:46 1468 1469	 1492360666	 622860498	 162315.
16:37:46 1469 1470	 1492360666	 788750355	 165890.
16:37:46 1470 1471	 1492360666	 947553540	 158803.
16:37:47 1471 1472	 1492360667	 80946576	 133393.
16:37:47 1472 1473	 1492360667	 242672236	 161726.
16:37:47 1473 1474	 1492360667	 408886366	 166214.
16:37:47 1474 1475	 1492360667	 571204276	 162318.
16:37:47 1475 1476	 1492360667	 736913216	 165709.
16:37:47 1476 1477	 1492360667	 898557250	 161644.
16:37:48 1477 1478	 1492360668	 35962895	 137406.
16:37:48 1478 1479	 1492360668	 197827555	 161864.
16:37:48 1479 1480	 1492360668	 363798463	 165971.
16:37:48 1480 1481	 1492360668	 526133175	 162335.
16:37:48 1481 1482	 1492360668	 692473517	 166340.
16:37:48 1482 1483	 1492360668	 850915145	 158442.
16:37:49 1483 1484	 1492360669	 12621358	 161706.
16:37:49 1484 1485	 1492360669	 178519983	 165899.
16:37:49 1485 1486	 1492360669	 311529970	 133010.
16:37:49 1486 1487	 1492360669	 477339366	 165809.
16:37:49 1487 1488	 1492360669	 639088906	 161750.
16:37:49 1488 1489	 1492360669	 800872251	 161783.
16:37:49 1489 1490	 1492360669	 966723957	 165852.
16:37:50 1490 1491	 1492360670	 128660063	 161936.
16:37:50 1491 1492	 1492360670	 294723824	 166064.
16:37:50 1492 1493	 1492360670	 427800258	 133076.
16:37:50 1493 1494	 1492360670	 589515721	 161715.
16:37:50 1494 1495	 1492360670	 755379671	 165864.
16:37:50 1495 1496	 1492360670	 917148009	 161769.
16:37:51 1496 1497	 1492360671	 83017931	 165870.
16:37:51 1497 1498	 1492360671	 244710893	 161693.
16:37:51 1498 1499	 1492360671	 410513846	 165803.
16:37:51 1499 1500	 1492360671	 543616894	 133103.
16:37:51 1500 1501	 1492360671	 705451360	 161834.
16:37:51 1501 1502	 1492360671	 871362257	 165911.
16:37:52 1502 1503	 1492360672	 47323135	 175961.
16:37:52 1503 1504	 1492360672	 184461222	 137138.
16:37:52 1504 1505	 1492360672	 346217120	 161756.
16:37:52 1505 1506	 1492360672	 508230441	 162013.
16:37:52 1506 1507	 1492360672	 674050511	 165820.
16:37:52 1507 1508	 1492360672	 835816130	 161766.
16:37:52 1508 1509	 1492360673	 2435291	 166619.
16:37:53 1509 1510	 1492360673	 164608806	 162174.
16:37:53 1510 1511	 1492360673	 330863442	 166254.
16:37:53 1511 1512	 1492360673	 464211855	 133349.
16:37:53 1512 1513	 1492360673	 630327961	 166116.
16:37:53 1513 1514	 1492360673	 796290061	 165962.
16:37:53 1514 1515	 1492360673	 957912398	 161622.
16:37:54 1515 1516	 1492360674	 119658569	 161746.
16:37:54 1516 1517	 1492360674	 285357964	 165700.
16:37:54 1517 1518	 1492360674	 418239353	 132881.
16:37:54 1518 1519	 1492360674	 580373632	 162134.
16:37:54 1519 1520	 1492360674	 746214474	 165841.
16:37:54 1520 1521	 1492360674	 908150539	 161936.
16:37:55 1521 1522	 1492360675	 74052703	 165902.
16:37:55 1522 1523	 1492360675	 235794690	 161742.
16:37:55 1523 1524	 1492360675	 467161780	 231367.
16:37:55 1524 1525	 1492360675	 629382889	 162222.
16:37:55 1525 1526	 1492360675	 791272595	 161889.
16:37:55 1526 1527	 1492360675	 957212361	 165940.
16:37:56 1527 1528	 1492360676	 90382720	 133170.
16:37:56 1528 1529	 1492360676	 256361823	 165980.
16:37:56 1529 1530	 1492360676	 418313713	 161952.
16:37:56 1530 1531	 1492360676	 584360782	 166046.
16:37:56 1531 1532	 1492360676	 746156591	 161797.
16:37:56 1532 1533	 1492360676	 907930289	 161773.
16:37:57 1533 1534	 1492360677	 73872189	 165942.
16:37:57 1534 1535	 1492360677	 235671532	 161799.
16:37:57 1535 1536	 1492360677	 368661909	 132991.
16:37:57 1536 1537	 1492360677	 534558863	 165897.
16:37:57 1537 1538	 1492360677	 696362165	 161803.
16:37:57 1538 1539	 1492360677	 862201469	 165839.
16:37:58 1539 1540	 1492360678	 24196806	 161996.
16:37:58 1540 1541	 1492360678	 190218937	 166022.
16:37:58 1541 1542	 1492360678	 352007141	 161788.
16:37:58 1542 1543	 1492360678	 513719237	 161712.
16:37:58 1543 1544	 1492360678	 650742938	 137024.
16:37:58 1544 1545	 1492360678	 812493924	 161751.
16:37:58 1545 1546	 1492360678	 974170227	 161676.
16:37:59 1546 1547	 1492360679	 139951665	 165781.
16:37:59 1547 1548	 1492360679	 301734515	 161783.
16:37:59 1548 1549	 1492360679	 467583683	 165849.
16:37:59 1549 1550	 1492360679	 629123587	 161540.
16:37:59 1550 1551	 1492360679	 762092026	 132969.
16:37:59 1551 1552	 1492360679	 927915569	 165823.
16:38:00 1552 1553	 1492360680	 89747627	 161832.
16:38:00 1553 1554	 1492360680	 255678438	 165931.
16:38:00 1554 1555	 1492360680	 417508076	 161830.
16:38:00 1555 1556	 1492360680	 596457133	 178949.
16:38:00 1556 1557	 1492360680	 742397021	 145940.
16:38:00 1557 1558	 1492360680	 900174860	 157778.
16:38:01 1558 1559	 1492360681	 62022895	 161848.
16:38:01 1559 1560	 1492360681	 223837513	 161814.
16:38:01 1560 1561	 1492360681	 389817044	 165980.
16:38:01 1561 1562	 1492360681	 551578392	 161761.
16:38:01 1562 1563	 1492360681	 688691533	 137113.
16:38:01 1563 1564	 1492360681	 850393324	 161702.
16:38:02 1564 1565	 1492360682	 16374622	 165982.
16:38:02 1565 1566	 1492360682	 178343937	 161969.
16:38:02 1566 1567	 1492360682	 344339685	 165995.
16:38:02 1567 1568	 1492360682	 506056865	 161718.
16:38:02 1568 1569	 1492360682	 671906420	 165849.
16:38:02 1569 1570	 1492360682	 833817684	 161911.
16:38:02 1570 1571	 1492360682	 967025808	 133209.
16:38:03 1571 1572	 1492360683	 132790605	 165764.
16:38:03 1572 1573	 1492360683	 294559700	 161769.
16:38:03 1573 1574	 1492360683	 460474647	 165915.
16:38:03 1574 1575	 1492360683	 622293352	 161819.
16:38:03 1575 1576	 1492360683	 787979686	 165687.
16:38:03 1576 1577	 1492360683	 949749380	 161769.
16:38:04 1577 1578	 1492360684	 82832601	 133083.
16:38:04 1578 1579	 1492360684	 248626345	 165794.
16:38:04 1579 1580	 1492360684	 410290022	 161664.
16:38:04 1580 1581	 1492360684	 572178537	 161888.
16:38:04 1581 1582	 1492360684	 738020004	 165842.
16:38:04 1582 1583	 1492360684	 899787373	 161767.
16:38:05 1583 1584	 1492360685	 65612701	 165825.
16:38:05 1584 1585	 1492360685	 227308392	 161696.
16:38:05 1585 1586	 1492360685	 364706187	 137398.
16:38:05 1586 1587	 1492360685	 526493782	 161787.
16:38:05 1587 1588	 1492360685	 688300151	 161807.
16:38:05 1588 1589	 1492360685	 854322717	 166022.
16:38:06 1589 1590	 1492360686	 16197631	 161875.
16:38:06 1590 1591	 1492360686	 188787345	 172590.
16:38:06 1591 1592	 1492360686	 326285667	 137498.
16:38:06 1592 1593	 1492360686	 491965163	 165680.
16:38:06 1593 1594	 1492360686	 653661180	 161696.
16:38:06 1594 1595	 1492360686	 819629283	 165968.
16:38:06 1595 1596	 1492360686	 981685260	 162056.
16:38:07 1596 1597	 1492360687	 143593700	 161908.
16:38:07 1597 1598	 1492360687	 309426410	 165833.
16:38:07 1598 1599	 1492360687	 442530060	 133104.
16:38:07 1599 1600	 1492360687	 604304397	 161774.
16:38:07 1600 1601	 1492360687	 770042305	 165738.
16:38:07 1601 1602	 1492360687	 931895339	 161853.
16:38:08 1602 1603	 1492360688	 97947063	 166052.
16:38:08 1603 1604	 1492360688	 259612867	 161666.
16:38:08 1604 1605	 1492360688	 421427256	 161814.
16:38:08 1605 1606	 1492360688	 558622656	 137195.
16:38:08 1606 1607	 1492360688	 720355325	 161733.
16:38:08 1607 1608	 1492360688	 881945171	 161590.
16:38:09 1608 1609	 1492360689	 47880286	 165935.
16:38:09 1609 1610	 1492360689	 209502247	 161622.
16:38:09 1610 1611	 1492360689	 371203409	 161701.
16:38:09 1611 1612	 1492360689	 537101728	 165898.
16:38:09 1612 1613	 1492360689	 694916041	 157815.
16:38:09 1613 1614	 1492360689	 832188781	 137272.
16:38:09 1614 1615	 1492360689	 994007105	 161819.
16:38:10 1615 1616	 1492360690	 159763748	 165756.
16:38:10 1616 1617	 1492360690	 321516504	 161753.
16:38:10 1617 1618	 1492360690	 487633138	 166117.
16:38:10 1618 1619	 1492360690	 645854799	 158222.
16:38:10 1619 1620	 1492360690	 807961210	 162106.
16:38:10 1620 1621	 1492360690	 945175723	 137214.
16:38:11 1621 1622	 1492360691	 107215389	 162040.
16:38:11 1622 1623	 1492360691	 273470216	 166255.
16:38:11 1623 1624	 1492360691	 436000171	 162530.
16:38:11 1624 1625	 1492360691	 602125198	 166125.
16:38:11 1625 1626	 1492360691	 763726677	 161601.
16:38:11 1626 1627	 1492360691	 929724252	 165998.
16:38:12 1627 1628	 1492360692	 91531181	 161807.
16:38:12 1628 1629	 1492360692	 253531805	 162001.
16:38:12 1629 1630	 1492360692	 390828213	 137296.
16:38:12 1630 1631	 1492360692	 552506841	 161679.
16:38:12 1631 1632	 1492360692	 718260794	 165754.
16:38:12 1632 1633	 1492360692	 879945316	 161684.
16:38:13 1633 1634	 1492360693	 45738944	 165794.
16:38:13 1634 1635	 1492360693	 207279222	 161540.
16:38:13 1635 1636	 1492360693	 369273565	 161994.
16:38:13 1636 1637	 1492360693	 506616197	 137343.
16:38:13 1637 1638	 1492360693	 668268014	 161652.
16:38:13 1638 1639	 1492360693	 829903250	 161635.
16:38:13 1639 1640	 1492360693	 995351616	 165448.
16:38:14 1640 1641	 1492360694	 156987394	 161636.
16:38:14 1641 1642	 1492360694	 318630986	 161644.
16:38:14 1642 1643	 1492360694	 455801596	 137170.
16:38:14 1643 1644	 1492360694	 617523496	 161722.
16:38:14 1644 1645	 1492360694	 783297981	 165775.
16:38:14 1645 1646	 1492360694	 944889559	 161591.
16:38:15 1646 1647	 1492360695	 106559833	 161671.
16:38:15 1647 1648	 1492360695	 272261643	 165701.
16:38:15 1648 1649	 1492360695	 405280566	 133019.
16:38:15 1649 1650	 1492360695	 566895315	 161615.
16:38:15 1650 1651	 1492360695	 732590590	 165695.
16:38:15 1651 1652	 1492360695	 894257532	 161667.
16:38:16 1652 1653	 1492360696	 56155949	 161899.
16:38:16 1653 1654	 1492360696	 221691887	 165536.
16:38:16 1654 1655	 1492360696	 383410496	 161718.
16:38:16 1655 1656	 1492360696	 520572250	 137162.
16:38:16 1656 1657	 1492360696	 682080814	 161509.
16:38:16 1657 1658	 1492360696	 843556854	 161476.
16:38:17 1658 1659	 1492360697	 9265106	 165708.
16:38:17 1659 1660	 1492360697	 170863681	 161598.
16:38:17 1660 1661	 1492360697	 336611820	 165749.
16:38:17 1661 1662	 1492360697	 498643197	 162031.
16:38:17 1662 1663	 1492360697	 631904029	 133261.
16:38:17 1663 1664	 1492360697	 794160810	 162257.
16:38:17 1664 1665	 1492360697	 960099311	 165938.
16:38:18 1665 1666	 1492360698	 121884220	 161785.
16:38:18 1666 1667	 1492360698	 287542781	 165658.
16:38:18 1667 1668	 1492360698	 449619912	 162078.
16:38:18 1668 1669	 1492360698	 615633745	 166013.
16:38:18 1669 1670	 1492360698	 777383782	 161751.
16:38:18 1670 1671	 1492360698	 910369046	 132985.
16:38:19 1671 1672	 1492360699	 76480006	 166111.
16:38:19 1672 1673	 1492360699	 238629999	 162150.
16:38:19 1673 1674	 1492360699	 404928218	 166298.
16:38:19 1674 1675	 1492360699	 566676215	 161748.
16:38:19 1675 1676	 1492360699	 732844520	 166168.
16:38:19 1676 1677	 1492360699	 866202234	 133358.
16:38:20 1677 1678	 1492360700	 32430880	 166229.
16:38:20 1678 1679	 1492360700	 194514731	 162083.
16:38:20 1679 1680	 1492360700	 360704432	 166190.
16:38:20 1680 1681	 1492360700	 522769930	 162066.
16:38:20 1681 1682	 1492360700	 688932519	 166162.
16:38:20 1682 1683	 1492360700	 850697646	 161765.
16:38:20 1683 1684	 1492360700	 983630758	 132934.
16:38:21 1684 1685	 1492360701	 149395499	 165764.
16:38:21 1685 1686	 1492360701	 311185390	 161790.
16:38:21 1686 1687	 1492360701	 477102063	 165917.
16:38:21 1687 1688	 1492360701	 638868821	 161767.
16:38:21 1688 1689	 1492360701	 804908442	 166039.
16:38:21 1689 1690	 1492360701	 966767032	 161859.
16:38:22 1690 1691	 1492360702	 128805002	 162038.
16:38:22 1691 1692	 1492360702	 290687349	 161882.
16:38:22 1692 1693	 1492360702	 427847925	 137161.
16:38:22 1693 1694	 1492360702	 589621412	 161773.
16:38:22 1694 1695	 1492360702	 751435152	 161814.
16:38:22 1695 1696	 1492360702	 917228787	 165794.
16:38:23 1696 1697	 1492360703	 79208226	 161979.
16:38:23 1697 1698	 1492360703	 244994185	 165786.
16:38:23 1698 1699	 1492360703	 406841114	 161847.
16:38:23 1699 1700	 1492360703	 572779371	 165938.
16:38:23 1700 1701	 1492360703	 705824946	 133046.
16:38:23 1701 1702	 1492360703	 867362040	 161537.
16:38:24 1702 1703	 1492360704	 33221607	 165859.
16:38:24 1703 1704	 1492360704	 194880398	 161659.
16:38:24 1704 1705	 1492360704	 360539378	 165659.
16:38:24 1705 1706	 1492360704	 522225057	 161686.
16:38:24 1706 1707	 1492360704	 659240485	 137015.
16:38:24 1707 1708	 1492360704	 820899463	 161659.
16:38:24 1708 1709	 1492360704	 982705432	 161806.
16:38:25 1709 1710	 1492360705	 148492282	 165787.
16:38:25 1710 1711	 1492360705	 310216010	 161724.
16:38:25 1711 1712	 1492360705	 475840529	 165624.
16:38:25 1712 1713	 1492360705	 637593577	 161753.
16:38:25 1713 1714	 1492360705	 770634084	 133041.
16:38:25 1714 1715	 1492360705	 936497607	 165863.
16:38:26 1715 1716	 1492360706	 98017731	 161520.
16:38:26 1716 1717	 1492360706	 259581939	 161565.
16:38:26 1717 1718	 1492360706	 421411529	 161829.
16:38:26 1718 1719	 1492360706	 587183548	 165772.
16:38:26 1719 1720	 1492360706	 749134391	 161951.
16:38:26 1720 1721	 1492360706	 915037129	 165903.
16:38:27 1721 1722	 1492360707	 48104590	 133067.
16:38:27 1722 1723	 1492360707	 213777789	 165673.
16:38:27 1723 1724	 1492360707	 375375761	 161598.
16:38:27 1724 1725	 1492360707	 537032463	 161657.
16:38:27 1725 1726	 1492360707	 695545999	 158514.
16:38:27 1726 1727	 1492360707	 857556993	 162011.
16:38:28 1727 1728	 1492360708	 23290501	 165733.
16:38:28 1728 1729	 1492360708	 184884194	 161594.
16:38:28 1729 1730	 1492360708	 317974677	 133090.
16:38:28 1730 1731	 1492360708	 479860719	 161886.
16:38:28 1731 1732	 1492360708	 645544736	 165684.
16:38:28 1732 1733	 1492360708	 807090488	 161546.
16:38:28 1733 1734	 1492360708	 969012827	 161923.
16:38:29 1734 1735	 1492360709	 134870894	 165858.
16:38:29 1735 1736	 1492360709	 296513483	 161642.
16:38:29 1736 1737	 1492360709	 429480263	 132967.
16:38:29 1737 1738	 1492360709	 595488021	 166008.
16:38:29 1738 1739	 1492360709	 757129922	 161642.
16:38:29 1739 1740	 1492360709	 923143964	 166014.
16:38:30 1740 1741	 1492360710	 85879139	 162735.
16:38:30 1741 1742	 1492360710	 251653378	 165774.
16:38:30 1742 1743	 1492360710	 413350529	 161697.
16:38:30 1743 1744	 1492360710	 546463267	 133113.
16:38:30 1744 1745	 1492360710	 712239173	 165776.
16:38:30 1745 1746	 1492360710	 873732703	 161493.
16:38:31 1746 1747	 1492360711	 39563203	 165831.
16:38:31 1747 1748	 1492360711	 201242381	 161679.
16:38:31 1748 1749	 1492360711	 367504831	 166263.
16:38:31 1749 1750	 1492360711	 500625403	 133120.
16:38:31 1750 1751	 1492360711	 666769346	 166144.
16:38:31 1751 1752	 1492360711	 828653651	 161884.
16:38:31 1752 1753	 1492360711	 994786406	 166133.
16:38:32 1753 1754	 1492360712	 156730912	 161945.
16:38:32 1754 1755	 1492360712	 293783821	 137053.
16:38:32 1755 1756	 1492360712	 455919879	 162136.
16:38:32 1756 1757	 1492360712	 622009133	 166089.
16:38:32 1757 1758	 1492360712	 783712740	 161703.
16:38:32 1758 1759	 1492360712	 949751410	 166039.
16:38:33 1759 1760	 1492360713	 111712636	 161961.
16:38:33 1760 1761	 1492360713	 248851544	 137139.
16:38:33 1761 1762	 1492360713	 410702740	 161851.
16:38:33 1762 1763	 1492360713	 576843127	 166141.
16:38:33 1763 1764	 1492360713	 738806663	 161963.
16:38:33 1764 1765	 1492360713	 901196245	 162390.
16:38:34 1765 1766	 1492360714	 34572488	 133376.
16:38:34 1766 1767	 1492360714	 196628505	 162056.
16:38:34 1767 1768	 1492360714	 363018823	 166391.
16:38:34 1768 1769	 1492360714	 524306258	 161287.
16:38:34 1769 1770	 1492360714	 690466339	 166160.
16:38:34 1770 1771	 1492360714	 856474477	 166008.
16:38:34 1771 1772	 1492360714	 989843837	 133370.
16:38:35 1772 1773	 1492360715	 151901494	 162057.
16:38:35 1773 1774	 1492360715	 313643998	 161743.
16:38:35 1774 1775	 1492360715	 479404218	 165760.
16:38:35 1775 1776	 1492360715	 641108198	 161704.
16:38:35 1776 1777	 1492360715	 802832846	 161725.
16:38:35 1777 1778	 1492360715	 968708495	 165875.
16:38:36 1778 1779	 1492360716	 130522147	 161814.
16:38:36 1779 1780	 1492360716	 296183055	 165661.
16:38:36 1780 1781	 1492360716	 429273462	 133090.
16:38:36 1781 1782	 1492360716	 590841109	 161568.
16:38:36 1782 1783	 1492360716	 756803628	 165962.
16:38:36 1783 1784	 1492360716	 918621907	 161819.
16:38:37 1784 1785	 1492360717	 80424745	 161802.
16:38:37 1785 1786	 1492360717	 246405206	 165981.
16:38:37 1786 1787	 1492360717	 408338644	 161933.
16:38:37 1787 1788	 1492360717	 570129346	 161791.
16:38:37 1788 1789	 1492360717	 736017660	 165888.
16:38:37 1789 1790	 1492360717	 869090406	 133073.
16:38:38 1790 1791	 1492360718	 35067080	 165977.
16:38:38 1791 1792	 1492360718	 197125661	 162058.
16:38:38 1792 1793	 1492360718	 358986606	 161861.
16:38:38 1793 1794	 1492360718	 524844343	 165858.
16:38:38 1794 1795	 1492360718	 686634941	 161791.
16:38:38 1795 1796	 1492360718	 852406353	 165771.
16:38:39 1796 1797	 1492360719	 14364800	 161959.
16:38:39 1797 1798	 1492360719	 176273757	 161908.
16:38:39 1798 1799	 1492360719	 342803902	 166531.
16:38:39 1799 1800	 1492360719	 476055850	 133252.
16:38:39 1800 1801	 1492360719	 641956785	 165900.
16:38:39 1801 1802	 1492360719	 800241520	 158285.
16:38:39 1802 1803	 1492360719	 965975240	 165734.
16:38:40 1803 1804	 1492360720	 117085142	 151110.
16:38:40 1804 1805	 1492360720	 282814925	 165730.
16:38:40 1805 1806	 1492360720	 444547903	 161733.
16:38:40 1806 1807	 1492360720	 610284850	 165737.
16:38:40 1807 1808	 1492360720	 772061156	 161776.
16:38:40 1808 1809	 1492360720	 938102942	 166042.
16:38:41 1809 1810	 1492360721	 99702389	 161599.
16:38:41 1810 1811	 1492360721	 232779088	 133077.
16:38:41 1811 1812	 1492360721	 398570443	 165791.
16:38:41 1812 1813	 1492360721	 560307779	 161737.
16:38:41 1813 1814	 1492360721	 726149684	 165842.
16:38:41 1814 1815	 1492360721	 887940992	 161792.
16:38:42 1815 1816	 1492360722	 50262755	 162321.
16:38:42 1816 1817	 1492360722	 212170585	 161908.
16:38:42 1817 1818	 1492360722	 374125430	 161955.
16:38:42 1818 1819	 1492360722	 507312113	 133187.
16:38:42 1819 1820	 1492360722	 673219627	 165907.
16:38:42 1820 1821	 1492360722	 835051575	 161832.
16:38:42 1821 1822	 1492360723	 930331	 165879.
16:38:43 1822 1823	 1492360723	 162959704	 162029.
16:38:43 1823 1824	 1492360723	 324914298	 161955.
16:38:43 1824 1825	 1492360723	 490884323	 165970.
16:38:43 1825 1826	 1492360723	 652823734	 161939.
16:38:43 1826 1827	 1492360723	 814733363	 161910.
16:38:43 1827 1828	 1492360723	 951918572	 137185.
16:38:44 1828 1829	 1492360724	 113655699	 161737.
16:38:44 1829 1830	 1492360724	 279608505	 165953.
16:38:44 1830 1831	 1492360724	 441314013	 161706.
16:38:44 1831 1832	 1492360724	 607192956	 165879.
16:38:44 1832 1833	 1492360724	 768671461	 161478.
16:38:44 1833 1834	 1492360724	 934360637	 165689.
16:38:45 1834 1835	 1492360725	 67634186	 133274.
16:38:45 1835 1836	 1492360725	 233526635	 165892.
16:38:45 1836 1837	 1492360725	 395478279	 161952.
16:38:45 1837 1838	 1492360725	 557049060	 161571.
16:38:45 1838 1839	 1492360725	 722587130	 165538.
16:38:45 1839 1840	 1492360725	 884114377	 161527.
16:38:46 1840 1841	 1492360726	 21264935	 137151.
16:38:46 1841 1842	 1492360726	 182762530	 161497.
16:38:46 1842 1843	 1492360726	 344483878	 161722.
16:38:46 1843 1844	 1492360726	 510565576	 166081.
16:38:46 1844 1845	 1492360726	 672232887	 161668.
16:38:46 1845 1846	 1492360726	 837994635	 165761.
16:38:46 1846 1847	 1492360726	 999626679	 161632.
16:38:47 1847 1848	 1492360727	 136880836	 137255.
16:38:47 1848 1849	 1492360727	 298650590	 161769.
16:38:47 1849 1850	 1492360727	 460514098	 161864.
16:38:47 1850 1851	 1492360727	 626422619	 165908.
16:38:47 1851 1852	 1492360727	 788244467	 161822.
16:38:47 1852 1853	 1492360727	 954216276	 165972.
16:38:48 1853 1854	 1492360728	 116002265	 161786.
16:38:48 1854 1855	 1492360728	 281823030	 165821.
16:38:48 1855 1856	 1492360728	 443624972	 161802.
16:38:48 1856 1857	 1492360728	 576947044	 133322.
16:38:48 1857 1858	 1492360728	 742822868	 165876.
16:38:48 1858 1859	 1492360728	 904725587	 161902.
16:38:49 1859 1860	 1492360729	 70744557	 166019.
16:38:49 1860 1861	 1492360729	 232587836	 161844.
16:38:49 1861 1862	 1492360729	 394405789	 161817.
16:38:49 1862 1863	 1492360729	 560209276	 165804.
16:38:49 1863 1864	 1492360729	 722079126	 161870.
16:38:49 1864 1865	 1492360729	 855226213	 133147.
16:38:50 1865 1866	 1492360730	 21142120	 165916.
16:38:50 1866 1867	 1492360730	 182846929	 161705.
16:38:50 1867 1868	 1492360730	 348792594	 165945.
16:38:50 1868 1869	 1492360730	 510676191	 161884.
16:38:50 1869 1870	 1492360730	 672477515	 161801.
16:38:50 1870 1871	 1492360730	 838180325	 165703.
16:38:50 1871 1872	 1492360730	 971217641	 133037.
16:38:51 1872 1873	 1492360731	 136883617	 165666.
16:38:51 1873 1874	 1492360731	 695883612	 559000.
16:38:51 1874 1875	 1492360731	 857828079	 161945.
16:38:51 1875 1876	 1492360731	 995168257	 137340.
