16:05:39    0 Step	 time(s)	 time(ns)	 delta(ms)
16:05:39    0 1	 1492531539	 220395534	 991.
16:05:39    1 2	 1492531539	 386442911	 166048.
16:05:39    2 3	 1492531539	 552539774	 166096.
16:05:39    3 4	 1492531539	 714695443	 162156.
16:05:39    4 5	 1492531539	 880784837	 166090.
16:05:40    5 6	 1492531540	 14089027	 133304.
16:05:40    6 7	 1492531540	 175997001	 161908.
16:05:40    7 8	 1492531540	 341827550	 165830.
16:05:40    8 9	 1492531540	 507745899	 165919.
16:05:40    9 10	 1492531540	 669670032	 161924.
16:05:40   10 11	 1492531540	 806945082	 137275.
16:05:40   11 12	 1492531540	 968822618	 161877.
16:05:41   12 13	 1492531541	 135106575	 166284.
16:05:41   13 14	 1492531541	 297049376	 161943.
16:05:41   14 15	 1492531541	 463258169	 166209.
16:05:41   15 16	 1492531541	 596709587	 133451.
16:05:41   16 17	 1492531541	 762801276	 166092.
16:05:41   17 18	 1492531541	 924640535	 161839.
16:05:42   18 19	 1492531542	 90595538	 165955.
16:05:42   19 20	 1492531542	 252942863	 162348.
16:05:42   20 21	 1492531542	 419466804	 166524.
16:05:42   21 22	 1492531542	 552798382	 133331.
16:05:42   22 23	 1492531542	 718959986	 166162.
16:05:42   23 24	 1492531542	 881171522	 162211.
16:05:43   24 25	 1492531543	 47069920	 165899.
16:05:43   25 26	 1492531543	 208969734	 161899.
16:05:43   26 27	 1492531543	 346653747	 137684.
16:05:43   27 28	 1492531543	 508448717	 161795.
16:05:43   28 29	 1492531543	 674788020	 166340.
16:05:43   29 30	 1492531543	 836843038	 162055.
16:05:44   30 31	 1492531544	 2968842	 166126.
16:05:44   31 32	 1492531544	 164887147	 161918.
16:05:44   32 33	 1492531544	 302294179	 137407.
16:05:44   33 34	 1492531544	 464418933	 162125.
16:05:44   34 35	 1492531544	 630510380	 166091.
16:05:44   35 36	 1492531544	 792634717	 162124.
16:05:44   36 37	 1492531544	 958488322	 165854.
16:05:45   37 38	 1492531545	 120781700	 162293.
16:05:45   38 39	 1492531545	 258555775	 137774.
16:05:45   39 40	 1492531545	 420647261	 162092.
16:05:45   40 41	 1492531545	 586832992	 166186.
16:05:45   41 42	 1492531545	 748439215	 161606.
16:05:45   42 43	 1492531545	 914193294	 165754.
16:05:46   43 44	 1492531546	 47549969	 133357.
16:05:46   44 45	 1492531546	 213508519	 165958.
16:05:46   45 46	 1492531546	 375341955	 161834.
16:05:46   46 47	 1492531546	 541153123	 165811.
16:05:46   47 48	 1492531546	 702941766	 161788.
16:05:46   48 49	 1492531546	 840429901	 137489.
16:05:46   49 50	 1492531547	 2463346	 162033.
16:05:47   50 51	 1492531547	 168512725	 166049.
16:05:47   51 52	 1492531547	 330506967	 161995.
16:05:47   52 53	 1492531547	 496594604	 166087.
16:05:47   53 54	 1492531547	 629817304	 133223.
16:05:47   54 55	 1492531547	 795711179	 165894.
16:05:47   55 56	 1492531547	 957586951	 161876.
16:05:48   56 57	 1492531548	 123918427	 166331.
16:05:48   57 58	 1492531548	 285848736	 161930.
16:05:48   58 59	 1492531548	 423331552	 137483.
16:05:48   59 60	 1492531548	 585727031	 162396.
16:05:48   60 61	 1492531548	 751698412	 165971.
16:05:48   61 62	 1492531548	 913584961	 161887.
16:05:49   62 63	 1492531549	 79355550	 165770.
16:05:49   63 64	 1492531549	 212627537	 133272.
16:05:49   64 65	 1492531549	 378793529	 166166.
16:05:49   65 66	 1492531549	 540901774	 162108.
16:05:49   66 67	 1492531549	 707031398	 166130.
16:05:49   67 68	 1492531549	 869284882	 162254.
16:05:50   68 69	 1492531550	 35573900	 166289.
16:05:50   69 70	 1492531550	 194027535	 158453.
16:05:50   70 71	 1492531550	 327273401	 133246.
16:05:50   71 72	 1492531550	 493382254	 166109.
16:05:50   72 73	 1492531550	 659975497	 166593.
16:05:50   73 74	 1492531550	 822094965	 162120.
16:05:50   74 75	 1492531550	 988635396	 166540.
16:05:51   75 76	 1492531551	 150672103	 162037.
16:05:51   76 77	 1492531551	 287954993	 137283.
16:05:51   77 78	 1492531551	 450051782	 162096.
16:05:51   78 79	 1492531551	 616093032	 166042.
16:05:51   79 80	 1492531551	 778307879	 162215.
16:05:51   80 81	 1492531551	 944182542	 165874.
16:05:52   81 82	 1492531552	 81600497	 137418.
16:05:52   82 83	 1492531552	 243570588	 161970.
16:05:52   83 84	 1492531552	 409722262	 166152.
16:05:52   84 85	 1492531552	 571966675	 162244.
16:05:52   85 86	 1492531552	 737953941	 165988.
16:05:52   86 87	 1492531552	 871119007	 133165.
16:05:53   87 88	 1492531553	 37467434	 166348.
16:05:53   88 89	 1492531553	 199680498	 162213.
16:05:53   89 90	 1492531553	 365583061	 165903.
16:05:53   90 91	 1492531553	 531592824	 166009.
16:05:53   91 92	 1492531553	 693540539	 161948.
16:05:53   92 93	 1492531553	 826947901	 133408.
16:05:53   93 94	 1492531553	 992909897	 165962.
16:05:54   94 95	 1492531554	 158939096	 166029.
16:05:54   95 96	 1492531554	 321027871	 162089.
16:05:54   96 97	 1492531554	 486804979	 165777.
16:05:54   97 98	 1492531554	 649108584	 162303.
16:05:54   98 99	 1492531554	 786128211	 137020.
16:05:54   99 100	 1492531554	 948400635	 162272.
16:05:55  100 101	 1492531555	 114863245	 166463.
16:05:55  101 102	 1492531555	 276451751	 161588.
16:05:55  102 103	 1492531555	 438711594	 162260.
16:05:55  103 104	 1492531555	 575989741	 137278.
16:05:55  104 105	 1492531555	 741941800	 165953.
16:05:55  105 106	 1492531555	 904330873	 162389.
16:05:56  106 107	 1492531556	 70811266	 166480.
16:05:56  107 108	 1492531556	 232498645	 161687.
16:05:56  108 109	 1492531556	 369811783	 137313.
16:05:56  109 110	 1492531556	 531959903	 162149.
16:05:56  110 111	 1492531556	 698150933	 166191.
16:05:56  111 112	 1492531556	 859706345	 161555.
16:05:56  112 113	 1492531556	 996892065	 137186.
16:05:57  113 114	 1492531557	 162930773	 166038.
16:05:57  114 115	 1492531557	 324943572	 162013.
16:05:57  115 116	 1492531557	 490880068	 165937.
16:05:57  116 117	 1492531557	 652904037	 162024.
16:05:57  117 118	 1492531557	 786203164	 133299.
16:05:57  118 119	 1492531557	 952098215	 165895.
16:05:58  119 120	 1492531558	 118310051	 166212.
16:05:58  120 121	 1492531558	 280406878	 162097.
16:05:58  121 122	 1492531558	 417921989	 137515.
16:05:58  122 123	 1492531558	 579568016	 161646.
16:05:58  123 124	 1492531558	 745150095	 165582.
16:05:58  124 125	 1492531558	 907212049	 162062.
16:05:59  125 126	 1492531559	 73591387	 166379.
16:05:59  126 127	 1492531559	 206662496	 133071.
16:05:59  127 128	 1492531559	 372529497	 165867.
16:05:59  128 129	 1492531559	 534458972	 161930.
16:05:59  129 130	 1492531559	 700731055	 166272.
16:05:59  130 131	 1492531559	 834038403	 133307.
16:05:59  131 132	 1492531559	 999649225	 165611.
16:06:00  132 133	 1492531560	 161015023	 161366.
16:06:00  133 134	 1492531560	 327324389	 166309.
16:06:00  134 135	 1492531560	 489153922	 161830.
16:06:00  135 136	 1492531560	 626374194	 137220.
16:06:00  136 137	 1492531560	 788689327	 162315.
16:06:00  137 138	 1492531560	 955105875	 166417.
16:06:01  138 139	 1492531561	 117070542	 161964.
16:06:01  139 140	 1492531561	 283224441	 166154.
16:06:01  140 141	 1492531561	 444884375	 161660.
16:06:01  141 142	 1492531561	 610466294	 165582.
16:06:01  142 143	 1492531561	 743372161	 132906.
16:06:01  143 144	 1492531561	 905245873	 161874.
16:06:02  144 145	 1492531562	 71200808	 165955.
16:06:02  145 146	 1492531562	 233481672	 162280.
16:06:02  146 147	 1492531562	 399156677	 165675.
16:06:02  147 148	 1492531562	 560759375	 161603.
16:06:02  148 149	 1492531562	 726550252	 165791.
16:06:02  149 150	 1492531562	 859469338	 132919.
16:06:03  150 151	 1492531563	 25218641	 165749.
16:06:03  151 152	 1492531563	 186466477	 161248.
16:06:03  152 153	 1492531563	 347820868	 161355.
16:06:03  153 154	 1492531563	 513175795	 165355.
16:06:03  154 155	 1492531563	 645966309	 132790.
16:06:03  155 156	 1492531563	 811563253	 165597.
16:06:03  156 157	 1492531563	 972808540	 161245.
16:06:04  157 158	 1492531564	 138602848	 165795.
16:06:04  158 159	 1492531564	 300449603	 161846.
16:06:04  159 160	 1492531564	 433331346	 132882.
16:06:04  160 161	 1492531564	 599142465	 165811.
16:06:04  161 162	 1492531564	 760700537	 161558.
16:06:04  162 163	 1492531564	 926530916	 165831.
16:06:05  163 164	 1492531565	 88150719	 161619.
16:06:05  164 165	 1492531565	 225100157	 136950.
16:06:05  165 166	 1492531565	 386702403	 161602.
16:06:05  166 167	 1492531565	 548727980	 162026.
16:06:05  167 168	 1492531565	 714689034	 165961.
16:06:05  168 169	 1492531565	 876436558	 161747.
16:06:06  169 170	 1492531566	 42181799	 165746.
16:06:06  170 171	 1492531566	 175095570	 132913.
16:06:06  171 172	 1492531566	 341259748	 166164.
16:06:06  172 173	 1492531566	 503226214	 161967.
16:06:06  173 174	 1492531566	 668971104	 165745.
16:06:06  174 175	 1492531566	 830872086	 161901.
16:06:06  175 176	 1492531566	 992546526	 161674.
16:06:07  176 177	 1492531567	 151465019	 158919.
16:06:07  177 178	 1492531567	 312997160	 161532.
16:06:07  178 179	 1492531567	 450115631	 137118.
16:06:07  179 180	 1492531567	 611782456	 161667.
16:06:07  180 181	 1492531567	 777648500	 165866.
16:06:07  181 182	 1492531567	 939368709	 161720.
16:06:08  182 183	 1492531568	 101124059	 161756.
16:06:08  183 184	 1492531568	 267019745	 165896.
16:06:08  184 185	 1492531568	 400138733	 133118.
16:06:08  185 186	 1492531568	 566039839	 165902.
16:06:08  186 187	 1492531568	 727728360	 161688.
16:06:08  187 188	 1492531568	 889545357	 161817.
16:06:09  188 189	 1492531569	 55680257	 166135.
16:06:09  189 190	 1492531569	 189074774	 133394.
16:06:09  190 191	 1492531569	 355289646	 166215.
16:06:09  191 192	 1492531569	 517085046	 161796.
16:06:09  192 193	 1492531569	 682983752	 165898.
16:06:09  193 194	 1492531569	 844952783	 161970.
16:06:09  194 195	 1492531569	 981778799	 136826.
16:06:10  195 196	 1492531570	 143531102	 161752.
16:06:10  196 197	 1492531570	 309587577	 166056.
16:06:10  197 198	 1492531570	 471720258	 162133.
16:06:10  198 199	 1492531570	 637816717	 166096.
16:06:10  199 200	 1492531570	 799771001	 161955.
16:06:10  200 201	 1492531570	 936896464	 137125.
16:06:11  201 202	 1492531571	 98842601	 161946.
16:06:11  202 203	 1492531571	 265368759	 166526.
16:06:11  203 204	 1492531571	 427992259	 162624.
16:06:11  204 205	 1492531571	 594455644	 166463.
16:06:11  205 206	 1492531571	 756770351	 162315.
16:06:11  206 207	 1492531571	 923314265	 166544.
16:06:12  207 208	 1492531572	 85641907	 162328.
16:06:12  208 209	 1492531572	 251823754	 166181.
16:06:12  209 210	 1492531572	 413719376	 161896.
16:06:12  210 211	 1492531572	 579902931	 166184.
16:06:12  211 212	 1492531572	 713028724	 133125.
16:06:12  212 213	 1492531572	 878624207	 165596.
16:06:13  213 214	 1492531573	 40419251	 161795.
16:06:13  214 215	 1492531573	 206376148	 165957.
16:06:13  215 216	 1492531573	 339466044	 133090.
16:06:13  216 217	 1492531573	 505389378	 165923.
16:06:13  217 218	 1492531573	 671449388	 166060.
16:06:13  218 219	 1492531573	 833182720	 161733.
16:06:13  219 220	 1492531573	 994911845	 161730.
16:06:14  220 221	 1492531574	 131938152	 137026.
16:06:14  221 222	 1492531574	 293488002	 161550.
16:06:14  222 223	 1492531574	 454936088	 161448.
16:06:14  223 224	 1492531574	 620569307	 165633.
16:06:14  224 225	 1492531574	 782007527	 161438.
16:06:14  225 226	 1492531574	 943519601	 161512.
16:06:15  226 227	 1492531575	 109576779	 166058.
16:06:15  227 228	 1492531575	 242431892	 132855.
16:06:15  228 229	 1492531575	 408465536	 166033.
16:06:15  229 230	 1492531575	 570426102	 161961.
16:06:15  230 231	 1492531575	 736683247	 166257.
16:06:15  231 232	 1492531575	 869484289	 132801.
16:06:16  232 233	 1492531576	 35458299	 165974.
16:06:16  233 234	 1492531576	 197140494	 161682.
16:06:16  234 235	 1492531576	 363016101	 165876.
16:06:16  235 236	 1492531576	 528712088	 165696.
16:06:16  236 237	 1492531576	 661622862	 132911.
16:06:16  237 238	 1492531576	 823293247	 161670.
16:06:16  238 239	 1492531576	 988883241	 165590.
16:06:17  239 240	 1492531577	 150681330	 161798.
16:06:17  240 241	 1492531577	 316774451	 166093.
16:06:17  241 242	 1492531577	 449712161	 132938.
16:06:17  242 243	 1492531577	 615563598	 165851.
16:06:17  243 244	 1492531577	 777287233	 161724.
16:06:17  244 245	 1492531577	 942968712	 165681.
16:06:18  245 246	 1492531578	 104735206	 161767.
16:06:18  246 247	 1492531578	 271666648	 166931.
16:06:18  247 248	 1492531578	 429350978	 157685.
16:06:18  248 249	 1492531578	 562189832	 132839.
16:06:18  249 250	 1492531578	 728020864	 165831.
16:06:18  250 251	 1492531578	 890044908	 162024.
16:06:19  251 252	 1492531579	 55763224	 165718.
16:06:19  252 253	 1492531579	 217290464	 161527.
16:06:19  253 254	 1492531579	 382877264	 165587.
16:06:19  254 255	 1492531579	 515753449	 132876.
16:06:19  255 256	 1492531579	 681301447	 165548.
16:06:19  256 257	 1492531579	 842990823	 161690.
16:06:20  257 258	 1492531580	 8778914	 165788.
16:06:20  258 259	 1492531580	 141806967	 133028.
16:06:20  259 260	 1492531580	 307975170	 166168.
16:06:20  260 261	 1492531580	 469762469	 161787.
16:06:20  261 262	 1492531580	 635870333	 166108.
16:06:20  262 263	 1492531580	 797842541	 161972.
16:06:20  263 264	 1492531580	 930857387	 133015.
16:06:21  264 265	 1492531581	 96757486	 165900.
16:06:21  265 266	 1492531581	 258519996	 161763.
16:06:21  266 267	 1492531581	 424698303	 166178.
16:06:21  267 268	 1492531581	 586647546	 161949.
16:06:21  268 269	 1492531581	 752752104	 166105.
16:06:21  269 270	 1492531581	 919082038	 166330.
16:06:22  270 271	 1492531582	 52732733	 133650.
16:06:22  271 272	 1492531582	 214918300	 162186.
16:06:22  272 273	 1492531582	 381183381	 166265.
16:06:22  273 274	 1492531582	 542812429	 161629.
16:06:22  274 275	 1492531582	 708979431	 166167.
16:06:22  275 276	 1492531582	 870978209	 161999.
16:06:23  276 277	 1492531583	 4277423	 133299.
16:06:23  277 278	 1492531583	 170209611	 165932.
16:06:23  278 279	 1492531583	 336073217	 165864.
16:06:23  279 280	 1492531583	 498807697	 162734.
16:06:23  280 281	 1492531583	 664841982	 166035.
16:06:23  281 282	 1492531583	 826430232	 161588.
16:06:23  282 283	 1492531583	 963904779	 137474.
16:06:24  283 284	 1492531584	 125869174	 161965.
16:06:24  284 285	 1492531584	 292022650	 166153.
16:06:24  285 286	 1492531584	 453856550	 161834.
16:06:24  286 287	 1492531584	 620293268	 166437.
16:06:24  287 288	 1492531584	 782068348	 161775.
16:06:24  288 289	 1492531584	 944169120	 162101.
16:06:25  289 290	 1492531585	 77498989	 133330.
16:06:25  290 291	 1492531585	 243711688	 166212.
16:06:25  291 292	 1492531585	 405889075	 162178.
16:06:25  292 293	 1492531585	 572069444	 166180.
16:06:25  293 294	 1492531585	 738362528	 166293.
16:06:25  294 295	 1492531585	 900295478	 161933.
16:06:26  295 296	 1492531586	 33583106	 133288.
16:06:26  296 297	 1492531586	 199770974	 166188.
16:06:26  297 298	 1492531586	 362093062	 162322.
16:06:26  298 299	 1492531586	 528302703	 166209.
16:06:26  299 300	 1492531586	 689954793	 161653.
16:06:26  300 301	 1492531586	 856041313	 166086.
16:06:27  301 302	 1492531587	 17978171	 161937.
16:06:27  302 303	 1492531587	 180140496	 162162.
16:06:27  303 304	 1492531587	 345996462	 165856.
16:06:27  304 305	 1492531587	 479183955	 133188.
16:06:27  305 306	 1492531587	 645169666	 165985.
16:06:27  306 307	 1492531587	 807192588	 162023.
16:06:27  307 308	 1492531587	 973069798	 165878.
16:06:28  308 309	 1492531588	 134779577	 161709.
16:06:28  309 310	 1492531588	 301135362	 166356.
16:06:28  310 311	 1492531588	 434642478	 133507.
16:06:28  311 312	 1492531588	 596789963	 162148.
16:06:28  312 313	 1492531588	 762496650	 165706.
16:06:28  313 314	 1492531588	 924171860	 161676.
16:06:29  314 315	 1492531589	 61407230	 137235.
16:06:29  315 316	 1492531589	 223257099	 161850.
16:06:29  316 317	 1492531589	 389439586	 166182.
16:06:29  317 318	 1492531589	 551535142	 162096.
16:06:29  318 319	 1492531589	 717547120	 166012.
16:06:29  319 320	 1492531589	 850759897	 133213.
16:06:30  320 321	 1492531590	 17114401	 166354.
16:06:30  321 322	 1492531590	 179002456	 161888.
16:06:30  322 323	 1492531590	 345263234	 166261.
16:06:30  323 324	 1492531590	 507469104	 162206.
16:06:30  324 325	 1492531590	 673715485	 166246.
16:06:30  325 326	 1492531590	 836110793	 162396.
16:06:30  326 327	 1492531590	 973609794	 137498.
16:06:31  327 328	 1492531591	 135837464	 162228.
16:06:31  328 329	 1492531591	 302123123	 166286.
16:06:31  329 330	 1492531591	 464023335	 161900.
16:06:31  330 331	 1492531591	 630116780	 166094.
16:06:31  331 332	 1492531591	 763374970	 133258.
16:06:31  332 333	 1492531591	 929071773	 165696.
16:06:32  333 334	 1492531592	 91003658	 161932.
16:06:32  334 335	 1492531592	 256906914	 165904.
16:06:32  335 336	 1492531592	 418575331	 161668.
16:06:32  336 337	 1492531592	 552375849	 133801.
16:06:32  337 338	 1492531592	 718238735	 165862.
16:06:32  338 339	 1492531592	 884227357	 165989.
16:06:33  339 340	 1492531593	 46181207	 161954.
16:06:33  340 341	 1492531593	 212510669	 166329.
16:06:33  341 342	 1492531593	 345409727	 132899.
16:06:33  342 343	 1492531593	 511328362	 165919.
16:06:33  343 344	 1492531593	 673311856	 161984.
16:06:33  344 345	 1492531593	 839083295	 165771.
16:06:33  345 346	 1492531594	 1197446	 162114.
16:06:34  346 347	 1492531594	 138444531	 137247.
16:06:34  347 348	 1492531594	 300607019	 162163.
16:06:34  348 349	 1492531594	 466144983	 165538.
16:06:34  349 350	 1492531594	 632327315	 166182.
16:06:34  350 351	 1492531594	 765417877	 133091.
16:06:34  351 352	 1492531594	 930989116	 165571.
16:06:35  352 353	 1492531595	 93311810	 162322.
16:06:35  353 354	 1492531595	 251825037	 158514.
16:06:35  354 355	 1492531595	 418045903	 166221.
16:06:35  355 356	 1492531595	 551204523	 133158.
16:06:35  356 357	 1492531595	 717236541	 166032.
16:06:35  357 358	 1492531595	 879274739	 162038.
16:06:36  358 359	 1492531596	 45132265	 165858.
16:06:36  359 360	 1492531596	 207136504	 162004.
16:06:36  360 361	 1492531596	 344484093	 137348.
16:06:36  361 362	 1492531596	 506398940	 161915.
16:06:36  362 363	 1492531596	 672378330	 165979.
16:06:36  363 364	 1492531596	 834587408	 162209.
16:06:36  364 365	 1492531597	 651576	 166064.
16:06:37  365 366	 1492531597	 133946241	 133295.
16:06:37  366 367	 1492531597	 299756761	 165810.
16:06:37  367 368	 1492531597	 461379431	 161623.
16:06:37  368 369	 1492531597	 627818280	 166439.
16:06:37  369 370	 1492531597	 760780226	 132962.
16:06:37  370 371	 1492531597	 926684097	 165904.
16:06:38  371 372	 1492531598	 88541163	 161857.
16:06:38  372 373	 1492531598	 254726923	 166186.
16:06:38  373 374	 1492531598	 416762484	 162035.
16:06:38  374 375	 1492531598	 554066618	 137304.
16:06:38  375 376	 1492531598	 716221995	 162156.
16:06:38  376 377	 1492531598	 882543896	 166322.
16:06:39  377 378	 1492531599	 44816606	 162272.
16:06:39  378 379	 1492531599	 210940167	 166124.
16:06:39  379 380	 1492531599	 343668593	 132728.
16:06:39  380 381	 1492531599	 509501021	 165833.
16:06:39  381 382	 1492531599	 671737922	 162237.
16:06:39  382 383	 1492531599	 837573063	 165835.
16:06:39  383 384	 1492531599	 999331740	 161758.
16:06:40  384 385	 1492531600	 136799011	 137468.
16:06:40  385 386	 1492531600	 298904306	 162105.
16:06:40  386 387	 1492531600	 465154699	 166250.
16:06:40  387 388	 1492531600	 627157772	 162003.
16:06:40  388 389	 1492531600	 793005638	 165848.
16:06:40  389 390	 1492531600	 955078352	 162073.
16:06:41  390 391	 1492531601	 92740099	 137662.
16:06:41  391 392	 1492531601	 254427796	 161688.
16:06:41  392 393	 1492531601	 420077450	 165649.
16:06:41  393 394	 1492531601	 581719932	 161643.
16:06:41  394 395	 1492531601	 748210427	 166490.
16:06:41  395 396	 1492531601	 881702434	 133492.
16:06:42  396 397	 1492531602	 47707373	 166005.
16:06:42  397 398	 1492531602	 209715928	 162009.
16:06:42  398 399	 1492531602	 375714591	 165998.
16:06:42  399 400	 1492531602	 537410879	 161697.
16:06:42  400 401	 1492531602	 703480086	 166069.
16:06:42  401 402	 1492531602	 836609058	 133129.
16:06:43  402 403	 1492531603	 2600171	 165991.
16:06:43  403 404	 1492531603	 164476493	 161876.
16:06:43  404 405	 1492531603	 330434874	 165959.
16:06:43  405 406	 1492531603	 463418912	 132984.
16:06:43  406 407	 1492531603	 629886291	 166467.
16:06:43  407 408	 1492531603	 795813208	 165927.
16:06:43  408 409	 1492531603	 957949131	 162136.
16:06:44  409 410	 1492531604	 124161224	 166212.
16:06:44  410 411	 1492531604	 286544024	 162383.
16:06:44  411 412	 1492531604	 453036464	 166492.
16:06:44  412 413	 1492531604	 586332715	 133296.
16:06:44  413 414	 1492531604	 752421916	 166090.
16:06:44  414 415	 1492531604	 914234230	 161812.
16:06:45  415 416	 1492531605	 80494744	 166260.
16:06:45  416 417	 1492531605	 246768501	 166274.
16:06:45  417 418	 1492531605	 408599544	 161831.
16:06:45  418 419	 1492531605	 545836196	 137237.
16:06:45  419 420	 1492531605	 707943190	 162107.
16:06:45  420 421	 1492531605	 873797841	 165855.
16:06:46  421 422	 1492531606	 35594129	 161796.
16:06:46  422 423	 1492531606	 197710804	 162117.
16:06:46  423 424	 1492531606	 364028529	 166317.
16:06:46  424 425	 1492531606	 497031132	 133003.
16:06:46  425 426	 1492531606	 662425302	 165394.
16:06:46  426 427	 1492531606	 824147078	 161722.
16:06:46  427 428	 1492531606	 990249692	 166102.
16:06:47  428 429	 1492531607	 152486717	 162237.
16:06:47  429 430	 1492531607	 314268463	 161782.
16:06:47  430 431	 1492531607	 451636252	 137368.
16:06:47  431 432	 1492531607	 617334601	 165698.
16:06:47  432 433	 1492531607	 779179416	 161845.
16:06:47  433 434	 1492531607	 911912775	 132733.
16:06:48  434 435	 1492531608	 77976840	 166065.
16:06:48  435 436	 1492531608	 239956037	 161979.
16:06:48  436 437	 1492531608	 406269122	 166313.
16:06:48  437 438	 1492531608	 572324015	 166055.
16:06:48  438 439	 1492531608	 705438753	 133114.
16:06:48  439 440	 1492531608	 872035956	 166598.
16:06:49  440 441	 1492531609	 34255553	 162219.
16:06:49  441 442	 1492531609	 200136667	 165881.
16:06:49  442 443	 1492531609	 361995844	 161860.
16:06:49  443 444	 1492531609	 528349898	 166354.
16:06:49  444 445	 1492531609	 661810640	 133460.
16:06:49  445 446	 1492531609	 827978461	 166168.
16:06:49  446 447	 1492531609	 989981346	 162003.
16:06:50  447 448	 1492531610	 156041302	 166060.
16:06:50  448 449	 1492531610	 317931009	 161890.
16:06:50  449 450	 1492531610	 455147582	 137216.
16:06:50  450 451	 1492531610	 617316332	 162169.
16:06:50  451 452	 1492531610	 783867906	 166552.
16:06:50  452 453	 1492531610	 950490870	 166623.
16:06:51  453 454	 1492531611	 112617965	 162127.
16:06:51  454 455	 1492531611	 278634736	 166016.
16:06:51  455 456	 1492531611	 440650901	 162017.
16:06:51  456 457	 1492531611	 578213244	 137562.
16:06:51  457 458	 1492531611	 740184964	 161972.
16:06:51  458 459	 1492531611	 906399877	 166215.
16:06:52  459 460	 1492531612	 69366758	 162966.
16:06:52  460 461	 1492531612	 227195101	 157829.
16:06:52  461 462	 1492531612	 393350659	 166155.
16:06:52  462 463	 1492531612	 555084338	 161734.
16:06:52  463 464	 1492531612	 692424187	 137340.
16:06:52  464 465	 1492531612	 854351102	 161927.
16:06:53  465 466	 1492531613	 20427051	 166076.
16:06:53  466 467	 1492531613	 182272078	 161845.
16:06:53  467 468	 1492531613	 319398519	 137126.
16:06:53  468 469	 1492531613	 481737169	 162339.
16:06:53  469 470	 1492531613	 647951674	 166214.
16:06:53  470 471	 1492531613	 809862570	 161911.
16:06:53  471 472	 1492531613	 976234609	 166372.
16:06:54  472 473	 1492531614	 138240895	 162007.
16:06:54  473 474	 1492531614	 275405837	 137165.
16:06:54  474 475	 1492531614	 437694502	 162288.
16:06:54  475 476	 1492531614	 603805381	 166111.
16:06:54  476 477	 1492531614	 766179701	 162374.
16:06:54  477 478	 1492531614	 932223231	 166044.
16:06:55  478 479	 1492531615	 94339759	 162116.
16:06:55  479 480	 1492531615	 231526762	 137187.
16:06:55  480 481	 1492531615	 393032736	 161506.
16:06:55  481 482	 1492531615	 559464100	 166432.
16:06:55  482 483	 1492531615	 721404071	 161940.
16:06:55  483 484	 1492531615	 887266722	 165862.
16:06:56  484 485	 1492531616	 20713228	 133447.
16:06:56  485 486	 1492531616	 187020630	 166307.
16:06:56  486 487	 1492531616	 349082698	 162062.
16:06:56  487 488	 1492531616	 515537397	 166455.
16:06:56  488 489	 1492531616	 681603156	 166066.
16:06:56  489 490	 1492531616	 814796787	 133193.
16:06:56  490 491	 1492531616	 980857576	 166061.
16:06:57  491 492	 1492531617	 142789817	 161933.
16:06:57  492 493	 1492531617	 309233236	 166443.
16:06:57  493 494	 1492531617	 471613444	 162380.
16:06:57  494 495	 1492531617	 637541887	 165929.
16:06:57  495 496	 1492531617	 771202165	 133660.
16:06:57  496 497	 1492531617	 937191089	 165989.
16:06:58  497 498	 1492531618	 99546330	 162355.
16:06:58  498 499	 1492531618	 265468937	 165923.
16:06:58  499 500	 1492531618	 427273394	 161804.
16:06:58  500 501	 1492531618	 564724823	 137452.
16:06:58  501 502	 1492531618	 726517653	 161792.
16:06:58  502 503	 1492531618	 888363591	 161846.
16:06:59  503 504	 1492531619	 54433194	 166070.
16:06:59  504 505	 1492531619	 220262913	 165830.
16:06:59  505 506	 1492531619	 382656997	 162394.
16:06:59  506 507	 1492531619	 520130632	 137473.
16:06:59  507 508	 1492531619	 681704610	 161574.
16:06:59  508 509	 1492531619	 847811916	 166108.
16:07:00  509 510	 1492531620	 9937733	 162125.
16:07:00  510 511	 1492531620	 175773507	 165836.
16:07:00  511 512	 1492531620	 309419340	 133646.
16:07:00  512 513	 1492531620	 475889647	 166470.
16:07:00  513 514	 1492531620	 638003279	 162114.
16:07:00  514 515	 1492531620	 804303573	 166300.
16:07:00  515 516	 1492531620	 966807919	 162505.
16:07:01  516 517	 1492531621	 132500196	 165692.
16:07:01  517 518	 1492531621	 294133530	 161633.
16:07:01  518 519	 1492531621	 431379648	 137246.
16:07:01  519 520	 1492531621	 593003908	 161625.
16:07:01  520 521	 1492531621	 754734958	 161731.
16:07:01  521 522	 1492531621	 920719065	 165984.
16:07:02  522 523	 1492531622	 82493173	 161774.
16:07:02  523 524	 1492531622	 247895543	 165402.
16:07:02  524 525	 1492531622	 409587808	 161693.
16:07:02  525 526	 1492531622	 546869743	 137282.
16:07:02  526 527	 1492531622	 708666776	 161796.
16:07:02  527 528	 1492531622	 870050261	 161384.
16:07:03  528 529	 1492531623	 35600544	 165550.
16:07:03  529 530	 1492531623	 197038660	 161438.
16:07:03  530 531	 1492531623	 362479322	 165441.
16:07:03  531 532	 1492531623	 495606015	 133127.
16:07:03  532 533	 1492531623	 657101533	 161495.
16:07:03  533 534	 1492531623	 822756618	 165655.
16:07:03  534 535	 1492531623	 984352131	 161596.
16:07:04  535 536	 1492531624	 150250070	 165898.
16:07:04  536 537	 1492531624	 283446903	 133197.
16:07:04  537 538	 1492531624	 449147368	 165700.
16:07:04  538 539	 1492531624	 610580739	 161433.
16:07:04  539 540	 1492531624	 776105709	 165525.
16:07:04  540 541	 1492531624	 937402082	 161297.
16:07:05  541 542	 1492531625	 70405135	 133003.
16:07:05  542 543	 1492531625	 236499545	 166094.
16:07:05  543 544	 1492531625	 398359893	 161861.
16:07:05  544 545	 1492531625	 563969119	 165609.
16:07:05  545 546	 1492531625	 725667337	 161698.
16:07:05  546 547	 1492531625	 891597302	 165930.
16:07:06  547 548	 1492531626	 24838924	 133242.
16:07:06  548 549	 1492531626	 190778705	 165939.
16:07:06  549 550	 1492531626	 352706676	 161928.
16:07:06  550 551	 1492531626	 518440365	 165734.
16:07:06  551 552	 1492531626	 680274110	 161834.
16:07:06  552 553	 1492531626	 846106406	 165832.
16:07:06  553 554	 1492531626	 979606732	 133500.
16:07:07  554 555	 1492531627	 141070044	 161464.
16:07:07  555 556	 1492531627	 306810997	 165741.
16:07:07  556 557	 1492531627	 468659780	 161848.
16:07:07  557 558	 1492531627	 634489398	 165830.
16:07:07  558 559	 1492531627	 767547390	 133058.
16:07:07  559 560	 1492531627	 933294135	 165747.
16:07:08  560 561	 1492531628	 95206146	 161912.
16:07:08  561 562	 1492531628	 257005908	 161800.
16:07:08  562 563	 1492531628	 423193963	 166188.
16:07:08  563 564	 1492531628	 584982205	 161788.
16:07:08  564 565	 1492531628	 750873504	 165891.
16:07:08  565 566	 1492531628	 912984999	 162112.
16:07:09  566 567	 1492531629	 45861572	 132876.
16:07:09  567 568	 1492531629	 207316653	 161455.
16:07:09  568 569	 1492531629	 372925399	 165609.
16:07:09  569 570	 1492531629	 534679554	 161754.
16:07:09  570 571	 1492531629	 700314054	 165635.
16:07:09  571 572	 1492531629	 833399706	 133085.
16:07:09  572 573	 1492531629	 995289416	 161890.
16:07:10  573 574	 1492531630	 161143596	 165854.
16:07:10  574 575	 1492531630	 323251215	 162108.
16:07:10  575 576	 1492531630	 489185581	 165934.
16:07:10  576 577	 1492531630	 651040695	 161855.
16:07:10  577 578	 1492531630	 817160043	 166120.
16:07:10  578 579	 1492531630	 979142914	 161983.
16:07:11  579 580	 1492531631	 141201859	 162059.
16:07:11  580 581	 1492531631	 307144928	 165943.
16:07:11  581 582	 1492531631	 469171145	 162026.
16:07:11  582 583	 1492531631	 606102380	 136931.
16:07:11  583 584	 1492531631	 768332092	 162230.
16:07:11  584 585	 1492531631	 934400247	 166068.
16:07:12  585 586	 1492531632	 96419712	 162019.
16:07:12  586 587	 1492531632	 262174371	 165755.
16:07:12  587 588	 1492531632	 395389676	 133215.
16:07:12  588 589	 1492531632	 561506651	 166117.
16:07:12  589 590	 1492531632	 723612863	 162107.
16:07:12  590 591	 1492531632	 889806037	 166193.
16:07:13  591 592	 1492531633	 56078046	 166272.
16:07:13  592 593	 1492531633	 189178423	 133100.
16:07:13  593 594	 1492531633	 354997532	 165819.
16:07:13  594 595	 1492531633	 516813931	 161817.
16:07:13  595 596	 1492531633	 683166022	 166352.
16:07:13  596 597	 1492531633	 844863265	 161697.
16:07:13  597 598	 1492531633	 982557924	 137695.
16:07:14  598 599	 1492531634	 144865359	 162307.
16:07:14  599 600	 1492531634	 310645670	 165780.
16:07:14  600 601	 1492531634	 472420682	 161775.
16:07:14  601 602	 1492531634	 638896461	 166476.
16:07:14  602 603	 1492531634	 801104056	 162208.
16:07:14  603 604	 1492531634	 938160435	 137056.
16:07:15  604 605	 1492531635	 100178249	 162018.
16:07:15  605 606	 1492531635	 266231626	 166053.
16:07:15  606 607	 1492531635	 428138825	 161908.
16:07:15  607 608	 1492531635	 594239936	 166101.
16:07:15  608 609	 1492531635	 727364455	 133124.
16:07:15  609 610	 1492531635	 893805188	 166441.
16:07:16  610 611	 1492531636	 55851415	 162046.
16:07:16  611 612	 1492531636	 221860499	 166009.
16:07:16  612 613	 1492531636	 384056962	 162197.
16:07:16  613 614	 1492531636	 549783501	 165726.
16:07:16  614 615	 1492531636	 687293052	 137510.
16:07:16  615 616	 1492531636	 849131911	 161839.
16:07:17  616 617	 1492531637	 15194584	 166062.
16:07:17  617 618	 1492531637	 176903137	 161709.
16:07:17  618 619	 1492531637	 342933414	 166030.
16:07:17  619 620	 1492531637	 476399242	 133466.
16:07:17  620 621	 1492531637	 642818816	 166420.
16:07:17  621 622	 1492531637	 804981173	 162162.
16:07:17  622 623	 1492531637	 971390100	 166409.
16:07:18  623 624	 1492531638	 133556791	 162167.
16:07:18  624 625	 1492531638	 299405014	 165848.
16:07:18  625 626	 1492531638	 432759360	 133354.
16:07:18  626 627	 1492531638	 598766999	 166008.
16:07:18  627 628	 1492531638	 760667168	 161900.
16:07:18  628 629	 1492531638	 926458484	 165791.
16:07:19  629 630	 1492531639	 88532932	 162075.
16:07:19  630 631	 1492531639	 225737649	 137204.
16:07:19  631 632	 1492531639	 387527344	 161790.
16:07:19  632 633	 1492531639	 553297836	 165770.
16:07:19  633 634	 1492531639	 714925875	 161629.
16:07:19  634 635	 1492531639	 880851673	 165925.
16:07:20  635 636	 1492531640	 14182386	 133331.
16:07:20  636 637	 1492531640	 180312809	 166131.
16:07:20  637 638	 1492531640	 342227124	 161914.
16:07:20  638 639	 1492531640	 508336943	 166110.
16:07:20  639 640	 1492531640	 670346123	 162009.
16:07:20  640 641	 1492531640	 836462628	 166116.
16:07:20  641 642	 1492531640	 969749448	 133287.
16:07:21  642 643	 1492531641	 135493133	 165744.
16:07:21  643 644	 1492531641	 297419564	 161926.
16:07:21  644 645	 1492531641	 463646943	 166228.
16:07:21  645 646	 1492531641	 625438113	 161791.
16:07:21  646 647	 1492531641	 762739461	 137301.
16:07:21  647 648	 1492531641	 925080293	 162341.
16:07:22  648 649	 1492531642	 90994908	 165915.
16:07:22  649 650	 1492531642	 252652184	 161657.
16:07:22  650 651	 1492531642	 418355282	 165703.
16:07:22  651 652	 1492531642	 551271566	 132916.
16:07:22  652 653	 1492531642	 717258526	 165987.
16:07:22  653 654	 1492531642	 879153927	 161896.
16:07:23  654 655	 1492531643	 45124928	 165971.
16:07:23  655 656	 1492531643	 177873184	 132748.
16:07:23  656 657	 1492531643	 344091896	 166219.
16:07:23  657 658	 1492531643	 505707594	 161615.
16:07:23  658 659	 1492531643	 671608786	 165901.
16:07:23  659 660	 1492531643	 804691548	 133083.
16:07:23  660 661	 1492531643	 970588799	 165898.
16:07:24  661 662	 1492531644	 136647183	 166058.
16:07:24  662 663	 1492531644	 298827194	 162180.
16:07:24  663 664	 1492531644	 436104163	 137277.
16:07:24  664 665	 1492531644	 597825744	 161721.
16:07:24  665 666	 1492531644	 764168510	 166343.
16:07:24  666 667	 1492531644	 926098868	 161931.
16:07:25  667 668	 1492531645	 92266856	 166168.
16:07:25  668 669	 1492531645	 225318278	 133051.
16:07:25  669 670	 1492531645	 387510952	 162193.
16:07:25  670 671	 1492531645	 553286718	 165776.
16:07:25  671 672	 1492531645	 719639343	 166352.
16:07:25  672 673	 1492531645	 881174211	 161535.
16:07:26  673 674	 1492531646	 18267733	 137093.
16:07:26  674 675	 1492531646	 180590978	 162324.
16:07:26  675 676	 1492531646	 346512377	 165921.
16:07:26  676 677	 1492531646	 508401185	 161889.
16:07:26  677 678	 1492531646	 674467608	 166066.
16:07:26  678 679	 1492531646	 807781224	 133314.
16:07:26  679 680	 1492531646	 974057131	 166276.
16:07:27  680 681	 1492531647	 136313004	 162256.
16:07:27  681 682	 1492531647	 302512162	 166199.
16:07:27  682 683	 1492531647	 464384552	 161872.
16:07:27  683 684	 1492531647	 601572494	 137188.
16:07:27  684 685	 1492531647	 763240868	 161669.
16:07:27  685 686	 1492531647	 928926447	 165685.
16:07:28  686 687	 1492531648	 90984988	 162059.
16:07:28  687 688	 1492531648	 257088787	 166103.
16:07:28  688 689	 1492531648	 419583116	 162495.
16:07:28  689 690	 1492531648	 557014494	 137431.
16:07:28  690 691	 1492531648	 719022087	 162008.
16:07:28  691 692	 1492531648	 885358199	 166336.
16:07:29  692 693	 1492531649	 52348687	 166990.
16:07:29  693 694	 1492531649	 214158910	 161811.
16:07:29  694 695	 1492531649	 379944731	 165785.
16:07:29  695 696	 1492531649	 513306786	 133362.
16:07:29  696 697	 1492531649	 679148385	 165842.
16:07:29  697 698	 1492531649	 840974039	 161826.
16:07:30  698 699	 1492531650	 7007631	 166033.
16:07:30  699 700	 1492531650	 173229590	 166222.
16:07:30  700 701	 1492531650	 306663097	 133434.
16:07:30  701 702	 1492531650	 468743835	 162081.
16:07:30  702 703	 1492531650	 634777661	 166033.
16:07:30  703 704	 1492531650	 800927373	 166150.
16:07:30  704 705	 1492531650	 963388087	 162461.
16:07:31  705 706	 1492531651	 96635245	 133247.
16:07:31  706 707	 1492531651	 263121051	 166486.
16:07:31  707 708	 1492531651	 429503674	 166382.
16:07:31  708 709	 1492531651	 592032819	 162530.
16:07:31  709 710	 1492531651	 757746436	 165713.
16:07:31  710 711	 1492531651	 919619898	 161874.
16:07:32  711 712	 1492531652	 85978202	 166358.
16:07:32  712 713	 1492531652	 248153275	 162175.
16:07:32  713 714	 1492531652	 385812229	 137659.
16:07:32  714 715	 1492531652	 548073324	 162261.
16:07:32  715 716	 1492531652	 713867260	 165794.
16:07:32  716 717	 1492531652	 875818568	 161951.
16:07:33  717 718	 1492531653	 42183878	 166366.
16:07:33  718 719	 1492531653	 175478112	 133294.
16:07:33  719 720	 1492531653	 341688033	 166210.
16:07:33  720 721	 1492531653	 503306717	 161618.
16:07:33  721 722	 1492531653	 668776570	 165470.
16:07:33  722 723	 1492531653	 830861339	 162085.
16:07:33  723 724	 1492531653	 968249990	 137389.
16:07:34  724 725	 1492531654	 130721065	 162471.
16:07:34  725 726	 1492531654	 297075101	 166354.
16:07:34  726 727	 1492531654	 463265966	 166191.
16:07:34  727 728	 1492531654	 624984208	 161718.
16:07:34  728 729	 1492531654	 791329908	 166346.
16:07:34  729 730	 1492531654	 953554994	 162225.
16:07:35  730 731	 1492531655	 91194464	 137639.
16:07:35  731 732	 1492531655	 253097454	 161903.
16:07:35  732 733	 1492531655	 419021992	 165925.
16:07:35  733 734	 1492531655	 581052445	 162030.
16:07:35  734 735	 1492531655	 746876775	 165824.
16:07:35  735 736	 1492531655	 880156893	 133281.
16:07:36  736 737	 1492531656	 46138365	 165981.
16:07:36  737 738	 1492531656	 212094109	 165956.
16:07:36  738 739	 1492531656	 374193081	 162099.
16:07:36  739 740	 1492531656	 511417302	 137224.
16:07:36  740 741	 1492531656	 672998383	 161581.
16:07:36  741 742	 1492531656	 831757407	 158759.
16:07:36  742 743	 1492531656	 998058256	 166301.
16:07:37  743 744	 1492531657	 160104966	 162047.
16:07:37  744 745	 1492531657	 326481562	 166376.
16:07:37  745 746	 1492531657	 488563292	 162082.
16:07:37  746 747	 1492531657	 626047794	 137484.
16:07:37  747 748	 1492531657	 787870250	 161823.
16:07:37  748 749	 1492531657	 953937758	 166067.
16:07:38  749 750	 1492531658	 119857047	 165920.
16:07:38  750 751	 1492531658	 253121661	 133264.
16:07:38  751 752	 1492531658	 414582027	 161461.
16:07:38  752 753	 1492531658	 580406070	 165824.
16:07:38  753 754	 1492531658	 746119104	 165713.
16:07:38  754 755	 1492531658	 879752222	 133633.
16:07:39  755 756	 1492531659	 45874158	 166122.
16:07:39  756 757	 1492531659	 208077437	 162203.
16:07:39  757 758	 1492531659	 373845109	 165768.
16:07:39  758 759	 1492531659	 536083000	 162238.
16:07:39  759 760	 1492531659	 702212861	 166130.
16:07:39  760 761	 1492531659	 835315102	 133102.
16:07:39  761 762	 1492531660	 1837077	 166522.
16:07:40  762 763	 1492531660	 163787605	 161950.
16:07:40  763 764	 1492531660	 330016933	 166230.
16:07:40  764 765	 1492531660	 492025895	 162009.
16:07:40  765 766	 1492531660	 629108063	 137082.
16:07:40  766 767	 1492531660	 790907160	 161799.
16:07:40  767 768	 1492531660	 956933670	 166027.
16:07:41  768 769	 1492531661	 119330695	 162396.
16:07:41  769 770	 1492531661	 285341802	 166012.
16:07:41  770 771	 1492531661	 447755208	 162413.
16:07:41  771 772	 1492531661	 614358696	 166603.
16:07:41  772 773	 1492531661	 747431566	 133073.
16:07:41  773 774	 1492531661	 913301233	 165870.
16:07:42  774 775	 1492531662	 75248991	 161948.
16:07:42  775 776	 1492531662	 241682629	 166433.
16:07:42  776 777	 1492531662	 407679548	 165997.
16:07:42  777 778	 1492531662	 540844774	 133165.
16:07:42  778 779	 1492531662	 702589406	 161745.
16:07:42  779 780	 1492531662	 868785501	 166196.
16:07:43  780 781	 1492531663	 30661730	 161876.
16:07:43  781 782	 1492531663	 168246232	 137585.
16:07:43  782 783	 1492531663	 334372702	 166126.
16:07:43  783 784	 1492531663	 496698693	 162326.
16:07:43  784 785	 1492531663	 663181369	 166483.
16:07:43  785 786	 1492531663	 825391330	 162210.
16:07:43  786 787	 1492531663	 991662776	 166271.
16:07:44  787 788	 1492531664	 153864545	 162202.
16:07:44  788 789	 1492531664	 287216346	 133352.
16:07:44  789 790	 1492531664	 453896763	 166680.
16:07:44  790 791	 1492531664	 616341617	 162445.
16:07:44  791 792	 1492531664	 782605148	 166264.
16:07:44  792 793	 1492531664	 945154991	 162550.
16:07:45  793 794	 1492531665	 111665707	 166510.
16:07:45  794 795	 1492531665	 273795252	 162130.
16:07:45  795 796	 1492531665	 440158781	 166363.
16:07:45  796 797	 1492531665	 602806334	 162648.
16:07:45  797 798	 1492531665	 769124076	 166318.
16:07:45  798 799	 1492531665	 931020339	 161896.
16:07:46  799 800	 1492531666	 68160150	 137140.
16:07:46  800 801	 1492531666	 229683152	 161523.
16:07:46  801 802	 1492531666	 391172134	 161489.
16:07:46  802 803	 1492531666	 556671941	 165500.
16:07:46  803 804	 1492531666	 718276712	 161604.
16:07:46  804 805	 1492531666	 854969502	 136693.
16:07:47  805 806	 1492531667	 16446074	 161477.
16:07:47  806 807	 1492531667	 177931273	 161485.
16:07:47  807 808	 1492531667	 343810131	 165879.
16:07:47  808 809	 1492531667	 505843359	 162033.
16:07:47  809 810	 1492531667	 671854582	 166011.
16:07:47  810 811	 1492531667	 833509366	 161655.
16:07:47  811 812	 1492531667	 970715370	 137206.
16:07:48  812 813	 1492531668	 132708924	 161994.
16:07:48  813 814	 1492531668	 299419218	 166710.
16:07:48  814 815	 1492531668	 457243238	 157824.
16:07:48  815 816	 1492531668	 619138382	 161895.
16:07:48  816 817	 1492531668	 785257258	 166119.
16:07:48  817 818	 1492531668	 947186919	 161930.
16:07:49  818 819	 1492531669	 108983499	 161796.
16:07:49  819 820	 1492531669	 274574478	 165591.
16:07:49  820 821	 1492531669	 407194856	 132621.
16:07:49  821 822	 1492531669	 572856650	 165661.
16:07:49  822 823	 1492531669	 734094981	 161239.
16:07:49  823 824	 1492531669	 895287300	 161192.
16:07:50  824 825	 1492531670	 60773915	 165487.
16:07:50  825 826	 1492531670	 193715959	 132942.
16:07:50  826 827	 1492531670	 359219554	 165503.
16:07:50  827 828	 1492531670	 520729100	 161510.
16:07:50  828 829	 1492531670	 682270135	 161541.
16:07:50  829 830	 1492531670	 847900959	 165631.
16:07:50  830 831	 1492531670	 981006283	 133105.
16:07:51  831 832	 1492531671	 142660998	 161655.
16:07:51  832 833	 1492531671	 308808591	 166147.
16:07:51  833 834	 1492531671	 470211392	 161403.
16:07:51  834 835	 1492531671	 631555588	 161344.
16:07:51  835 836	 1492531671	 796985261	 165430.
16:07:51  836 837	 1492531671	 929796397	 132811.
16:07:52  837 838	 1492531672	 91601908	 161806.
16:07:52  838 839	 1492531672	 257162483	 165560.
16:07:52  839 840	 1492531672	 419185893	 162024.
16:07:52  840 841	 1492531672	 585073180	 165887.
16:07:52  841 842	 1492531672	 746256316	 161183.
16:07:52  842 843	 1492531672	 879133513	 132877.
16:07:53  843 844	 1492531673	 44563903	 165431.
16:07:53  844 845	 1492531673	 205787198	 161223.
16:07:53  845 846	 1492531673	 367669120	 161882.
16:07:53  846 847	 1492531673	 533226501	 165557.
16:07:53  847 848	 1492531673	 694757531	 161531.
16:07:53  848 849	 1492531673	 832230487	 137473.
16:07:53  849 850	 1492531673	 993450843	 161221.
16:07:54  850 851	 1492531674	 154936481	 161485.
16:07:54  851 852	 1492531674	 320470102	 165534.
16:07:54  852 853	 1492531674	 481724434	 161254.
16:07:54  853 854	 1492531674	 618781161	 137057.
16:07:54  854 855	 1492531674	 780792423	 162011.
16:07:54  855 856	 1492531674	 946919998	 166128.
16:07:55  856 857	 1492531675	 108594031	 161674.
16:07:55  857 858	 1492531675	 274093318	 165499.
16:07:55  858 859	 1492531675	 406997735	 132904.
16:07:55  859 860	 1492531675	 568594841	 161598.
16:07:55  860 861	 1492531675	 733941268	 165346.
16:07:55  861 862	 1492531675	 895472651	 161531.
16:07:56  862 863	 1492531676	 61083419	 165611.
16:07:56  863 864	 1492531676	 193966448	 132883.
16:07:56  864 865	 1492531676	 355402812	 161437.
16:07:56  865 866	 1492531676	 521050659	 165647.
16:07:56  866 867	 1492531676	 682419273	 161369.
16:07:56  867 868	 1492531676	 844039146	 161620.
16:07:57  868 869	 1492531677	 9740428	 165701.
16:07:57  869 870	 1492531677	 142447687	 132707.
16:07:57  870 871	 1492531677	 307908908	 165462.
16:07:57  871 872	 1492531677	 469318462	 161409.
16:07:57  872 873	 1492531677	 630866486	 161548.
16:07:57  873 874	 1492531677	 767724275	 136858.
16:07:57  874 875	 1492531677	 929503512	 161779.
16:07:58  875 876	 1492531678	 95339443	 165836.
16:07:58  876 877	 1492531678	 257261041	 161922.
16:07:58  877 878	 1492531678	 418992376	 161731.
16:07:58  878 879	 1492531678	 584786206	 165794.
16:07:58  879 880	 1492531678	 746848032	 162062.
16:07:58  880 881	 1492531678	 912596170	 165748.
16:07:59  881 882	 1492531679	 74177531	 161581.
16:07:59  882 883	 1492531679	 211347795	 137170.
16:07:59  883 884	 1492531679	 372850386	 161503.
16:07:59  884 885	 1492531679	 534253234	 161403.
16:07:59  885 886	 1492531679	 700339580	 166086.
16:07:59  886 887	 1492531679	 866358362	 166019.
16:07:59  887 888	 1492531679	 999614647	 133256.
16:08:00  888 889	 1492531680	 161629211	 162015.
16:08:00  889 890	 1492531680	 327857845	 166229.
16:08:00  890 891	 1492531680	 490047611	 162189.
16:08:00  891 892	 1492531680	 655804929	 165758.
16:08:00  892 893	 1492531680	 817461765	 161656.
16:08:00  893 894	 1492531680	 982965175	 165504.
16:08:01  894 895	 1492531681	 115609968	 132645.
16:08:01  895 896	 1492531681	 276944371	 161334.
16:08:01  896 897	 1492531681	 442651551	 165707.
16:08:01  897 898	 1492531681	 604083118	 161432.
16:08:01  898 899	 1492531681	 769628064	 165545.
16:08:01  899 900	 1492531681	 931291859	 161664.
16:08:02  900 901	 1492531682	 64432886	 133141.
16:08:02  901 902	 1492531682	 230047714	 165614.
16:08:02  902 903	 1492531682	 391458511	 161411.
16:08:02  903 904	 1492531682	 557266641	 165808.
16:08:02  904 905	 1492531682	 718877977	 161612.
16:08:02  905 906	 1492531682	 880392747	 161514.
16:08:03  906 907	 1492531683	 17698212	 137306.
16:08:03  907 908	 1492531683	 179438948	 161741.
16:08:03  908 909	 1492531683	 341227732	 161788.
16:08:03  909 910	 1492531683	 506514123	 165287.
16:08:03  910 911	 1492531683	 672279102	 165765.
16:08:03  911 912	 1492531683	 833488289	 161209.
16:08:03  912 913	 1492531683	 966363322	 132875.
16:08:04  913 914	 1492531684	 132178131	 165815.
16:08:04  914 915	 1492531684	 293515269	 161337.
16:08:04  915 916	 1492531684	 459194144	 165679.
16:08:04  916 917	 1492531684	 621114424	 161920.
16:08:04  917 918	 1492531684	 782761121	 161647.
16:08:04  918 919	 1492531684	 919571090	 136810.
16:08:05  919 920	 1492531685	 81771543	 162200.
16:08:05  920 921	 1492531685	 243313008	 161542.
16:08:05  921 922	 1492531685	 404936162	 161623.
16:08:05  922 923	 1492531685	 570623814	 165688.
16:08:05  923 924	 1492531685	 732188260	 161564.
16:08:05  924 925	 1492531685	 864918913	 132731.
16:08:06  925 926	 1492531686	 30486714	 165567.
16:08:06  926 927	 1492531686	 192108131	 161622.
16:08:06  927 928	 1492531686	 353693052	 161585.
16:08:06  928 929	 1492531686	 519380090	 165687.
16:08:06  929 930	 1492531686	 652220917	 132841.
16:08:06  930 931	 1492531686	 817665758	 165444.
16:08:06  931 932	 1492531686	 979614660	 161949.
16:08:07  932 933	 1492531687	 145544577	 165930.
16:08:07  933 934	 1492531687	 307473182	 161929.
16:08:07  934 935	 1492531687	 469261206	 161788.
16:08:07  935 936	 1492531687	 634939111	 165678.
16:08:07  936 937	 1492531687	 796749772	 161810.
16:08:07  937 938	 1492531687	 929936068	 133187.
16:08:08  938 939	 1492531688	 95614388	 165678.
16:08:08  939 940	 1492531688	 257242545	 161628.
16:08:08  940 941	 1492531688	 422616831	 165375.
16:08:08  941 942	 1492531688	 584232390	 161615.
16:08:08  942 943	 1492531688	 721375116	 137143.
16:08:08  943 944	 1492531688	 882867004	 161492.
16:08:09  944 945	 1492531689	 44700222	 161833.
16:08:09  945 946	 1492531689	 210263071	 165563.
16:08:09  946 947	 1492531689	 372097269	 161834.
16:08:09  947 948	 1492531689	 537540594	 165443.
16:08:09  948 949	 1492531689	 699249394	 161709.
16:08:09  949 950	 1492531689	 836237017	 136988.
16:08:09  950 951	 1492531689	 997955893	 161719.
16:08:10  951 952	 1492531690	 164124942	 166180.
16:08:10  952 953	 1492531690	 325976140	 161840.
16:08:10  953 954	 1492531690	 492186265	 166210.
16:08:10  954 955	 1492531690	 654056931	 161871.
16:08:10  955 956	 1492531690	 816072716	 162015.
16:08:10  956 957	 1492531690	 953746694	 137674.
16:08:11  957 958	 1492531691	 116151285	 162405.
16:08:11  958 959	 1492531691	 278056983	 161906.
16:08:11  959 960	 1492531691	 443683234	 165626.
16:08:11  960 961	 1492531691	 605435816	 161753.
16:08:11  961 962	 1492531691	 767290359	 161854.
16:08:11  962 963	 1492531691	 933192123	 165902.
16:08:12  963 964	 1492531692	 95096797	 161905.
16:08:12  964 965	 1492531692	 260949971	 165853.
16:08:12  965 966	 1492531692	 422751003	 161801.
16:08:12  966 967	 1492531692	 588585783	 165835.
16:08:12  967 968	 1492531692	 721684754	 133098.
16:08:12  968 969	 1492531692	 883510554	 161826.
16:08:13  969 970	 1492531693	 49856441	 166346.
16:08:13  970 971	 1492531693	 211818005	 161962.
16:08:13  971 972	 1492531693	 377811824	 165994.
16:08:13  972 973	 1492531693	 539902279	 162090.
16:08:13  973 974	 1492531693	 705960441	 166058.
16:08:13  974 975	 1492531693	 868328797	 162369.
16:08:14  975 976	 1492531694	 34282379	 165953.
16:08:14  976 977	 1492531694	 196055647	 161773.
16:08:14  977 978	 1492531694	 357819419	 161764.
16:08:14  978 979	 1492531694	 490809193	 132990.
16:08:14  979 980	 1492531694	 656569058	 165760.
16:08:14  980 981	 1492531694	 818269117	 161700.
16:08:14  981 982	 1492531694	 984283905	 166015.
16:08:15  982 983	 1492531695	 146272908	 161989.
16:08:15  983 984	 1492531695	 312264581	 165991.
16:08:15  984 985	 1492531695	 474194426	 161930.
16:08:15  985 986	 1492531695	 636089340	 161895.
16:08:15  986 987	 1492531695	 801613624	 165524.
16:08:15  987 988	 1492531695	 959850231	 158237.
16:08:16  988 989	 1492531696	 92800567	 132950.
16:08:16  989 990	 1492531696	 258638481	 165838.
16:08:16  990 991	 1492531696	 420508383	 161870.
16:08:16  991 992	 1492531696	 582259091	 161751.
16:08:16  992 993	 1492531696	 748025614	 165766.
16:08:16  993 994	 1492531696	 909368216	 161343.
16:08:17  994 995	 1492531697	 75012013	 165644.
16:08:17  995 996	 1492531697	 207835143	 132823.
16:08:17  996 997	 1492531697	 369203508	 161368.
16:08:17  997 998	 1492531697	 534883385	 165680.
16:08:17  998 999	 1492531697	 696067839	 161185.
16:08:17  999 1000	 1492531697	 861735402	 165667.
16:08:17 1000 1001	 1492531697	 994499522	 132764.
16:08:18 1001 1002	 1492531698	 156161382	 161662.
16:08:18 1002 1003	 1492531698	 322208766	 166047.
16:08:18 1003 1004	 1492531698	 483527685	 161319.
16:08:18 1004 1005	 1492531698	 649269108	 165742.
16:08:18 1005 1006	 1492531698	 782387316	 133118.
16:08:18 1006 1007	 1492531698	 943796039	 161409.
16:08:19 1007 1008	 1492531699	 109505411	 165709.
16:08:19 1008 1009	 1492531699	 271161939	 161657.
16:08:19 1009 1010	 1492531699	 436361427	 165199.
16:08:19 1010 1011	 1492531699	 569392739	 133031.
16:08:19 1011 1012	 1492531699	 730352696	 160960.
16:08:19 1012 1013	 1492531699	 895264876	 164913.
16:08:20 1013 1014	 1492531700	 28256808	 132991.
16:08:20 1014 1015	 1492531700	 193584221	 165328.
16:08:20 1015 1016	 1492531700	 355065568	 161481.
16:08:20 1016 1017	 1492531700	 520862019	 165797.
16:08:20 1017 1018	 1492531700	 682078799	 161217.
16:08:20 1018 1019	 1492531700	 814816452	 132737.
16:08:20 1019 1020	 1492531700	 981274125	 166458.
16:08:21 1020 1021	 1492531701	 138850818	 157577.
16:08:21 1021 1022	 1492531701	 300304264	 161453.
16:08:21 1022 1023	 1492531701	 465881386	 165577.
16:08:21 1023 1024	 1492531701	 627452422	 161571.
16:08:21 1024 1025	 1492531701	 760539464	 133087.
16:08:21 1025 1026	 1492531701	 926224398	 165685.
16:08:22 1026 1027	 1492531702	 88009006	 161785.
16:08:22 1027 1028	 1492531702	 249747734	 161738.
16:08:22 1028 1029	 1492531702	 415149804	 165403.
16:08:22 1029 1030	 1492531702	 576614912	 161465.
16:08:22 1030 1031	 1492531702	 714140666	 137525.
16:08:22 1031 1032	 1492531702	 875478020	 161338.
16:08:23 1032 1033	 1492531703	 37035591	 161557.
16:08:23 1033 1034	 1492531703	 203039075	 166004.
16:08:23 1034 1035	 1492531703	 364458395	 161419.
16:08:23 1035 1036	 1492531703	 501426301	 136968.
16:08:23 1036 1037	 1492531703	 662921443	 161495.
16:08:23 1037 1038	 1492531703	 824063492	 161142.
16:08:23 1038 1039	 1492531703	 989704820	 165642.
16:08:24 1039 1040	 1492531704	 122490799	 132786.
16:08:24 1040 1041	 1492531704	 288121786	 165631.
16:08:24 1041 1042	 1492531704	 449872733	 161750.
16:08:24 1042 1043	 1492531704	 611711720	 161839.
16:08:24 1043 1044	 1492531704	 773115693	 161405.
16:08:24 1044 1045	 1492531704	 934594756	 161478.
16:08:25 1045 1046	 1492531705	 71388607	 136794.
16:08:25 1046 1047	 1492531705	 232997064	 161609.
16:08:25 1047 1048	 1492531705	 398841507	 165844.
16:08:25 1048 1049	 1492531705	 560289168	 161448.
16:08:25 1049 1050	 1492531705	 721800993	 161512.
16:08:25 1050 1051	 1492531705	 858857549	 137056.
16:08:26 1051 1052	 1492531706	 20338100	 161481.
16:08:26 1052 1053	 1492531706	 185812835	 165475.
16:08:26 1053 1054	 1492531706	 347446523	 161633.
16:08:26 1054 1055	 1492531706	 509130890	 161685.
16:08:26 1055 1056	 1492531706	 675144947	 166014.
16:08:26 1056 1057	 1492531706	 808100794	 132956.
16:08:26 1057 1058	 1492531706	 970092229	 161991.
16:08:27 1058 1059	 1492531707	 135629090	 165537.
16:08:27 1059 1060	 1492531707	 297276505	 161647.
16:08:27 1060 1061	 1492531707	 462977210	 165701.
16:08:27 1061 1062	 1492531707	 595699483	 132722.
16:08:27 1062 1063	 1492531707	 757661468	 161962.
16:08:27 1063 1064	 1492531707	 919261372	 161600.
16:08:28 1064 1065	 1492531708	 80475113	 161214.
16:08:28 1065 1066	 1492531708	 246018289	 165543.
16:08:28 1066 1067	 1492531708	 378693884	 132676.
16:08:28 1067 1068	 1492531708	 544040749	 165346.
16:08:28 1068 1069	 1492531708	 705932829	 161893.
16:08:28 1069 1070	 1492531708	 867359150	 161426.
16:08:29 1070 1071	 1492531709	 32912684	 165553.
16:08:29 1071 1072	 1492531709	 194628374	 161716.
16:08:29 1072 1073	 1492531709	 327247502	 132619.
16:08:29 1073 1074	 1492531709	 492826281	 165579.
16:08:29 1074 1075	 1492531709	 654339065	 161513.
16:08:29 1075 1076	 1492531709	 815581770	 161242.
16:08:29 1076 1077	 1492531709	 981589068	 166008.
16:08:30 1077 1078	 1492531710	 114574636	 132985.
16:08:30 1078 1079	 1492531710	 276027370	 161453.
16:08:30 1079 1080	 1492531710	 441668138	 165641.
16:08:30 1080 1081	 1492531710	 602864265	 161196.
16:08:30 1081 1082	 1492531710	 768352477	 165488.
16:08:30 1082 1083	 1492531710	 901569393	 133217.
16:08:31 1083 1084	 1492531711	 62861721	 161292.
16:08:31 1084 1085	 1492531711	 228471852	 165611.
16:08:31 1085 1086	 1492531711	 390244648	 161772.
16:08:31 1086 1087	 1492531711	 555644192	 165400.
16:08:31 1087 1088	 1492531711	 717408007	 161764.
16:08:31 1088 1089	 1492531711	 850745765	 133337.
16:08:32 1089 1090	 1492531712	 16210257	 165465.
16:08:32 1090 1091	 1492531712	 178871795	 162662.
16:08:32 1091 1092	 1492531712	 336457722	 157585.
16:08:32 1092 1093	 1492531712	 501927319	 165470.
16:08:32 1093 1094	 1492531712	 663570079	 161643.
16:08:32 1094 1095	 1492531712	 800243481	 136673.
16:08:32 1095 1096	 1492531712	 961552283	 161309.
16:08:33 1096 1097	 1492531713	 127097828	 165546.
16:08:33 1097 1098	 1492531713	 288601230	 161503.
16:08:33 1098 1099	 1492531713	 450281293	 161680.
16:08:33 1099 1100	 1492531713	 587554972	 137274.
16:08:33 1100 1101	 1492531713	 748805671	 161250.
16:08:33 1101 1102	 1492531713	 914155231	 165350.
16:08:34 1102 1103	 1492531714	 75606455	 161451.
16:08:34 1103 1104	 1492531714	 208708536	 133102.
16:08:34 1104 1105	 1492531714	 374304211	 165596.
16:08:34 1105 1106	 1492531714	 535789870	 161486.
16:08:34 1106 1107	 1492531714	 701403967	 165614.
16:08:34 1107 1108	 1492531714	 862849223	 161445.
16:08:35 1108 1109	 1492531715	 28662822	 165814.
16:08:35 1109 1110	 1492531715	 161555024	 132892.
16:08:35 1110 1111	 1492531715	 323422034	 161867.
16:08:35 1111 1112	 1492531715	 489064851	 165643.
16:08:35 1112 1113	 1492531715	 650771810	 161707.
16:08:35 1113 1114	 1492531715	 816023354	 165251.
16:08:35 1114 1115	 1492531715	 948433562	 132410.
16:08:36 1115 1116	 1492531716	 113887456	 165454.
16:08:36 1116 1117	 1492531716	 274962193	 161075.
16:08:36 1117 1118	 1492531716	 436257891	 161296.
16:08:36 1118 1119	 1492531716	 573520983	 137263.
16:08:36 1119 1120	 1492531716	 735552772	 162031.
16:08:36 1120 1121	 1492531716	 901866392	 166314.
16:08:37 1121 1122	 1492531717	 63996730	 162130.
16:08:37 1122 1123	 1492531717	 230173013	 166177.
16:08:37 1123 1124	 1492531717	 392255309	 162082.
16:08:37 1124 1125	 1492531717	 529906525	 137651.
16:08:37 1125 1126	 1492531717	 691953938	 162048.
16:08:37 1126 1127	 1492531717	 857820498	 165866.
16:08:38 1127 1128	 1492531718	 23984404	 166164.
16:08:38 1128 1129	 1492531718	 157121251	 133137.
16:08:38 1129 1130	 1492531718	 319368127	 162247.
16:08:38 1130 1131	 1492531718	 485515562	 166147.
16:08:38 1131 1132	 1492531718	 651523135	 166008.
16:08:38 1132 1133	 1492531718	 813140582	 161617.
16:08:38 1133 1134	 1492531718	 950384539	 137244.
16:08:39 1134 1135	 1492531719	 112384337	 162000.
16:08:39 1135 1136	 1492531719	 277979578	 165595.
16:08:39 1136 1137	 1492531719	 439975986	 161997.
16:08:39 1137 1138	 1492531719	 601904376	 161928.
16:08:39 1138 1139	 1492531719	 767752759	 165848.
16:08:39 1139 1140	 1492531719	 929783469	 162031.
16:08:40 1140 1141	 1492531720	 91544689	 161761.
16:08:40 1141 1142	 1492531720	 228677602	 137133.
16:08:40 1142 1143	 1492531720	 390374025	 161697.
16:08:40 1143 1144	 1492531720	 556565367	 166191.
16:08:40 1144 1145	 1492531720	 718647438	 162082.
16:08:40 1145 1146	 1492531720	 884907715	 166260.
16:08:41 1146 1147	 1492531721	 18657607	 133750.
16:08:41 1147 1148	 1492531721	 184416357	 165759.
16:08:41 1148 1149	 1492531721	 346446386	 162030.
16:08:41 1149 1150	 1492531721	 512824852	 166379.
16:08:41 1150 1151	 1492531721	 675441107	 162616.
16:08:41 1151 1152	 1492531721	 841392097	 165951.
16:08:41 1152 1153	 1492531721	 974938144	 133546.
16:08:42 1153 1154	 1492531722	 140867219	 165929.
16:08:42 1154 1155	 1492531722	 302634607	 161767.
16:08:42 1155 1156	 1492531722	 468754166	 166120.
16:08:42 1156 1157	 1492531722	 631375062	 162621.
16:08:42 1157 1158	 1492531722	 797134333	 165759.
16:08:42 1158 1159	 1492531722	 930527872	 133394.
16:08:43 1159 1160	 1492531723	 96510994	 165983.
16:08:43 1160 1161	 1492531723	 258373190	 161862.
16:08:43 1161 1162	 1492531723	 424926594	 166553.
16:08:43 1162 1163	 1492531723	 586738914	 161813.
16:08:43 1163 1164	 1492531723	 752770010	 166031.
16:08:43 1164 1165	 1492531723	 886029194	 133259.
16:08:44 1165 1166	 1492531724	 52211963	 166183.
16:08:44 1166 1167	 1492531724	 214076391	 161864.
16:08:44 1167 1168	 1492531724	 379865977	 165790.
16:08:44 1168 1169	 1492531724	 541821301	 161955.
16:08:44 1169 1170	 1492531724	 675227441	 133406.
16:08:44 1170 1171	 1492531724	 841508904	 166282.
16:08:45 1171 1172	 1492531725	 7555681	 166046.
16:08:45 1172 1173	 1492531725	 169929529	 162374.
16:08:45 1173 1174	 1492531725	 336007156	 166078.
16:08:45 1174 1175	 1492531725	 497873599	 161866.
16:08:45 1175 1176	 1492531725	 659913666	 162041.
16:08:45 1176 1177	 1492531725	 826068955	 166155.
16:08:45 1177 1178	 1492531725	 959225829	 133157.
16:08:46 1178 1179	 1492531726	 125025866	 165800.
16:08:46 1179 1180	 1492531726	 287210384	 162184.
16:08:46 1180 1181	 1492531726	 453348890	 166139.
16:08:46 1181 1182	 1492531726	 615200198	 161851.
16:08:46 1182 1183	 1492531726	 781421609	 166221.
16:08:46 1183 1184	 1492531726	 943479963	 162059.
16:08:47 1184 1185	 1492531727	 80918015	 137438.
16:08:47 1185 1186	 1492531727	 239367847	 158450.
16:08:47 1186 1187	 1492531727	 401502186	 162134.
16:08:47 1187 1188	 1492531727	 567288934	 165787.
16:08:47 1188 1189	 1492531727	 729624993	 162336.
16:08:47 1189 1190	 1492531727	 895338985	 165714.
16:08:48 1190 1191	 1492531728	 28714233	 133375.
16:08:48 1191 1192	 1492531728	 194412087	 165698.
16:08:48 1192 1193	 1492531728	 356305639	 161893.
16:08:48 1193 1194	 1492531728	 522182580	 165878.
16:08:48 1194 1195	 1492531728	 654993195	 132810.
16:08:48 1195 1196	 1492531728	 821326687	 166333.
16:08:49 1196 1197	 1492531729	 9129721	 187803.
16:08:49 1197 1198	 1492531729	 142358706	 133229.
16:08:49 1198 1199	 1492531729	 308036898	 165679.
16:08:49 1199 1200	 1492531729	 470070895	 162034.
16:08:49 1200 1201	 1492531729	 635946537	 165875.
16:08:49 1201 1202	 1492531729	 798241585	 162295.
16:08:49 1202 1203	 1492531729	 936000406	 137759.
16:08:50 1203 1204	 1492531730	 97969837	 161970.
16:08:50 1204 1205	 1492531730	 263715927	 165746.
16:08:50 1205 1206	 1492531730	 429822385	 166106.
16:08:50 1206 1207	 1492531730	 592077299	 162255.
16:08:50 1207 1208	 1492531730	 758064222	 165987.
16:08:50 1208 1209	 1492531730	 891193605	 133129.
16:08:51 1209 1210	 1492531731	 57573609	 166380.
16:08:51 1210 1211	 1492531731	 219665406	 162092.
16:08:51 1211 1212	 1492531731	 386050706	 166385.
16:08:51 1212 1213	 1492531731	 547773889	 161724.
16:08:51 1213 1214	 1492531731	 713426897	 165653.
16:08:51 1214 1215	 1492531731	 846449894	 133023.
16:08:52 1215 1216	 1492531732	 12440667	 165990.
16:08:52 1216 1217	 1492531732	 174450979	 162011.
16:08:52 1217 1218	 1492531732	 340852899	 166402.
16:08:52 1218 1219	 1492531732	 502778735	 161925.
16:08:52 1219 1220	 1492531732	 640235006	 137457.
16:08:52 1220 1221	 1492531732	 802148042	 161913.
16:08:52 1221 1222	 1492531732	 968387564	 166239.
16:08:53 1222 1223	 1492531733	 130294590	 161907.
16:08:53 1223 1224	 1492531733	 296278859	 165985.
16:08:53 1224 1225	 1492531733	 429590030	 133311.
16:08:53 1225 1226	 1492531733	 595393911	 165804.
16:08:53 1226 1227	 1492531733	 757051575	 161657.
16:08:53 1227 1228	 1492531733	 923717996	 166667.
16:08:54 1228 1229	 1492531734	 85866744	 162148.
16:08:54 1229 1230	 1492531734	 248751794	 162885.
16:08:54 1230 1231	 1492531734	 410755102	 162004.
16:08:54 1231 1232	 1492531734	 544085645	 133330.
16:08:54 1232 1233	 1492531734	 709627156	 165542.
16:08:54 1233 1234	 1492531734	 871671927	 162045.
16:08:55 1234 1235	 1492531735	 37810213	 166138.
16:08:55 1235 1236	 1492531735	 199171312	 161361.
16:08:55 1236 1237	 1492531735	 336071809	 136901.
16:08:55 1237 1238	 1492531735	 498669102	 162597.
16:08:55 1238 1239	 1492531735	 665284567	 166615.
16:08:55 1239 1240	 1492531735	 827122912	 161839.
16:08:55 1240 1241	 1492531735	 992718813	 165596.
16:08:56 1241 1242	 1492531736	 154609501	 161890.
16:08:56 1242 1243	 1492531736	 320857183	 166248.
16:08:56 1243 1244	 1492531736	 482763666	 161906.
16:08:56 1244 1245	 1492531736	 648943078	 166180.
16:08:56 1245 1246	 1492531736	 781907672	 132964.
16:08:56 1246 1247	 1492531736	 947340731	 165433.
16:08:57 1247 1248	 1492531737	 109341479	 162001.
16:08:57 1248 1249	 1492531737	 275049181	 165708.
16:08:57 1249 1250	 1492531737	 408128157	 133079.
16:08:57 1250 1251	 1492531737	 569494642	 161366.
16:08:57 1251 1252	 1492531737	 735112017	 165618.
16:08:57 1252 1253	 1492531737	 896653192	 161541.
16:08:58 1253 1254	 1492531738	 62980763	 166327.
16:08:58 1254 1255	 1492531738	 225232522	 162252.
16:08:58 1255 1256	 1492531738	 363162443	 137930.
16:08:58 1256 1257	 1492531738	 524997770	 161835.
16:08:58 1257 1258	 1492531738	 690868474	 165871.
16:08:58 1258 1259	 1492531738	 856636859	 165769.
16:08:59 1259 1260	 1492531739	 19141099	 162504.
16:08:59 1260 1261	 1492531739	 152502843	 133362.
16:08:59 1261 1262	 1492531739	 318411194	 165908.
16:08:59 1262 1263	 1492531739	 480303100	 161892.
16:08:59 1263 1264	 1492531739	 645938075	 165635.
16:08:59 1264 1265	 1492531739	 782870694	 136932.
16:08:59 1265 1266	 1492531739	 944735505	 161865.
16:09:00 1266 1267	 1492531740	 110710445	 165975.
16:09:00 1267 1268	 1492531740	 272984300	 162274.
16:09:00 1268 1269	 1492531740	 439267746	 166283.
16:09:00 1269 1270	 1492531740	 601821676	 162554.
16:09:00 1270 1271	 1492531740	 739577173	 137756.
16:09:00 1271 1272	 1492531740	 901967179	 162390.
16:09:01 1272 1273	 1492531741	 68045018	 166078.
16:09:01 1273 1274	 1492531741	 229411994	 161367.
16:09:01 1274 1275	 1492531741	 394966039	 165554.
16:09:01 1275 1276	 1492531741	 556573944	 161608.
16:09:01 1276 1277	 1492531741	 689390838	 132817.
16:09:01 1277 1278	 1492531741	 855046447	 165655.
16:09:02 1278 1279	 1492531742	 16545702	 161499.
16:09:02 1279 1280	 1492531742	 182267763	 165722.
16:09:02 1280 1281	 1492531742	 343955090	 161688.
16:09:02 1281 1282	 1492531742	 509628862	 165674.
16:09:02 1282 1283	 1492531742	 671215034	 161586.
16:09:02 1283 1284	 1492531742	 804309513	 133094.
16:09:02 1284 1285	 1492531742	 970355077	 166046.
16:09:03 1285 1286	 1492531743	 132266931	 161912.
16:09:03 1286 1287	 1492531743	 294254295	 161987.
16:09:03 1287 1288	 1492531743	 460143901	 165890.
16:09:03 1288 1289	 1492531743	 622094833	 161951.
16:09:03 1289 1290	 1492531743	 788155503	 166060.
16:09:03 1290 1291	 1492531743	 949937554	 161782.
16:09:04 1291 1292	 1492531744	 115807111	 165870.
16:09:04 1292 1293	 1492531744	 277591097	 161784.
16:09:04 1293 1294	 1492531744	 410531798	 132941.
16:09:04 1294 1295	 1492531744	 576180748	 165648.
16:09:04 1295 1296	 1492531744	 737744493	 161564.
16:09:04 1296 1297	 1492531744	 903673561	 165929.
16:09:05 1297 1298	 1492531745	 65598813	 161926.
16:09:05 1298 1299	 1492531745	 227467879	 161869.
16:09:05 1299 1300	 1492531745	 393145744	 165677.
16:09:05 1300 1301	 1492531745	 551258633	 158113.
16:09:05 1301 1302	 1492531745	 688452504	 137194.
16:09:05 1302 1303	 1492531745	 850235234	 161783.
16:09:06 1303 1304	 1492531746	 15967680	 165732.
16:09:06 1304 1305	 1492531746	 177862208	 161895.
16:09:06 1305 1306	 1492531746	 343617619	 165756.
16:09:06 1306 1307	 1492531746	 505524142	 161906.
16:09:06 1307 1308	 1492531746	 642706082	 137182.
16:09:06 1308 1309	 1492531746	 804736563	 162030.
16:09:06 1309 1310	 1492531746	 970953669	 166217.
16:09:07 1310 1311	 1492531747	 132825646	 161872.
16:09:07 1311 1312	 1492531747	 298796192	 165971.
16:09:07 1312 1313	 1492531747	 460484404	 161688.
16:09:07 1313 1314	 1492531747	 626262683	 165778.
16:09:07 1314 1315	 1492531747	 759359444	 133097.
16:09:07 1315 1316	 1492531747	 921065427	 161706.
16:09:08 1316 1317	 1492531748	 86716958	 165652.
16:09:08 1317 1318	 1492531748	 247954193	 161237.
16:09:08 1318 1319	 1492531748	 413603384	 165649.
16:09:08 1319 1320	 1492531748	 546691038	 133088.
16:09:08 1320 1321	 1492531748	 712372127	 165681.
16:09:08 1321 1322	 1492531748	 873708683	 161336.
16:09:09 1322 1323	 1492531749	 39129186	 165421.
16:09:09 1323 1324	 1492531749	 200378620	 161249.
16:09:09 1324 1325	 1492531749	 333248300	 132870.
16:09:09 1325 1326	 1492531749	 498908083	 165660.
16:09:09 1326 1327	 1492531749	 660328548	 161420.
16:09:09 1327 1328	 1492531749	 826001488	 165673.
16:09:09 1328 1329	 1492531749	 959218969	 133218.
16:09:10 1329 1330	 1492531750	 125468733	 166249.
16:09:10 1330 1331	 1492531750	 287545668	 162077.
16:09:10 1331 1332	 1492531750	 449781298	 162236.
16:09:10 1332 1333	 1492531750	 615731724	 165950.
16:09:10 1333 1334	 1492531750	 778136838	 162406.
16:09:10 1334 1335	 1492531750	 915339762	 137202.
16:09:11 1335 1336	 1492531751	 77641289	 162302.
16:09:11 1336 1337	 1492531751	 244028656	 166387.
16:09:11 1337 1338	 1492531751	 406105387	 162077.
16:09:11 1338 1339	 1492531751	 572318133	 166213.
16:09:11 1339 1340	 1492531751	 734165658	 161847.
16:09:11 1340 1341	 1492531751	 871847467	 137682.
16:09:12 1341 1342	 1492531752	 33813447	 161966.
16:09:12 1342 1343	 1492531752	 200014377	 166201.
16:09:12 1343 1344	 1492531752	 362494816	 162481.
16:09:12 1344 1345	 1492531752	 528558111	 166063.
16:09:12 1345 1346	 1492531752	 690104843	 161547.
16:09:12 1346 1347	 1492531752	 827306897	 137202.
16:09:12 1347 1348	 1492531752	 988641451	 161334.
16:09:13 1348 1349	 1492531753	 150284216	 161643.
16:09:13 1349 1350	 1492531753	 315882875	 165599.
16:09:13 1350 1351	 1492531753	 477236843	 161354.
16:09:13 1351 1352	 1492531753	 643235638	 165998.
16:09:13 1352 1353	 1492531753	 804974749	 161739.
16:09:13 1353 1354	 1492531753	 938018561	 133044.
16:09:14 1354 1355	 1492531754	 103562950	 165545.
16:09:14 1355 1356	 1492531754	 265104439	 161541.
16:09:14 1356 1357	 1492531754	 426857880	 161754.
16:09:14 1357 1358	 1492531754	 592655187	 165797.
16:09:14 1358 1359	 1492531754	 754803487	 162148.
16:09:14 1359 1360	 1492531754	 891950469	 137147.
16:09:15 1360 1361	 1492531755	 55063465	 163113.
16:09:15 1361 1362	 1492531755	 217070422	 162007.
16:09:15 1362 1363	 1492531755	 383416845	 166347.
16:09:15 1363 1364	 1492531755	 545298506	 161881.
16:09:15 1364 1365	 1492531755	 711363210	 166065.
16:09:15 1365 1366	 1492531755	 844688992	 133326.
16:09:16 1366 1367	 1492531756	 10906025	 166217.
16:09:16 1367 1368	 1492531756	 172658930	 161753.
16:09:16 1368 1369	 1492531756	 335633833	 162975.
16:09:16 1369 1370	 1492531756	 497757145	 162123.
16:09:16 1370 1371	 1492531756	 664048067	 166291.
16:09:16 1371 1372	 1492531756	 826081331	 162033.
16:09:16 1372 1373	 1492531756	 963655667	 137574.
16:09:17 1373 1374	 1492531757	 125645341	 161990.
16:09:17 1374 1375	 1492531757	 291520096	 165875.
16:09:17 1375 1376	 1492531757	 453376999	 161857.
16:09:17 1376 1377	 1492531757	 590714107	 137337.
16:09:17 1377 1378	 1492531757	 752263131	 161549.
16:09:17 1378 1379	 1492531757	 917587048	 165324.
16:09:18 1379 1380	 1492531758	 79167004	 161580.
16:09:18 1380 1381	 1492531758	 215932418	 136765.
16:09:18 1381 1382	 1492531758	 377290654	 161358.
16:09:18 1382 1383	 1492531758	 543359579	 166069.
16:09:18 1383 1384	 1492531758	 705477753	 162118.
16:09:18 1384 1385	 1492531758	 842627780	 137150.
16:09:19 1385 1386	 1492531759	 4664210	 162037.
16:09:19 1386 1387	 1492531759	 171127081	 166463.
16:09:19 1387 1388	 1492531759	 332724145	 161597.
16:09:19 1388 1389	 1492531759	 494812338	 162088.
16:09:19 1389 1390	 1492531759	 660982970	 166171.
16:09:19 1390 1391	 1492531759	 794335908	 133353.
16:09:19 1391 1392	 1492531759	 960622324	 166286.
16:09:20 1392 1393	 1492531760	 123171345	 162549.
16:09:20 1393 1394	 1492531760	 289412144	 166241.
16:09:20 1394 1395	 1492531760	 451306667	 161894.
16:09:20 1395 1396	 1492531760	 588552768	 137246.
16:09:20 1396 1397	 1492531760	 754514932	 165963.
16:09:20 1397 1398	 1492531760	 916611265	 162096.
16:09:21 1398 1399	 1492531761	 82744384	 166133.
16:09:21 1399 1400	 1492531761	 244885167	 162141.
16:09:21 1400 1401	 1492531761	 410979821	 166095.
16:09:21 1401 1402	 1492531761	 544240551	 133260.
16:09:21 1402 1403	 1492531761	 710064124	 165824.
16:09:21 1403 1404	 1492531761	 871973051	 161909.
16:09:22 1404 1405	 1492531762	 38033763	 166061.
16:09:22 1405 1406	 1492531762	 200258264	 162224.
16:09:22 1406 1407	 1492531762	 337743485	 137485.
16:09:22 1407 1408	 1492531762	 499868214	 162125.
16:09:22 1408 1409	 1492531762	 665901367	 166033.
16:09:22 1409 1410	 1492531762	 832255450	 166354.
16:09:22 1410 1411	 1492531762	 994090218	 161835.
16:09:23 1411 1412	 1492531763	 160142138	 166052.
16:09:23 1412 1413	 1492531763	 293197944	 133056.
16:09:23 1413 1414	 1492531763	 454405207	 161207.
16:09:23 1414 1415	 1492531763	 620432808	 166028.
16:09:23 1415 1416	 1492531763	 782052973	 161620.
16:09:23 1416 1417	 1492531763	 947551697	 165498.
16:09:24 1417 1418	 1492531764	 80593978	 133043.
16:09:24 1418 1419	 1492531764	 242069868	 161476.
16:09:24 1419 1420	 1492531764	 408139293	 166069.
16:09:24 1420 1421	 1492531764	 570126752	 161987.
16:09:24 1421 1422	 1492531764	 732188945	 162063.
16:09:24 1422 1423	 1492531764	 898246428	 166057.
16:09:25 1423 1424	 1492531765	 60252890	 162007.
16:09:25 1424 1425	 1492531765	 197809398	 137556.
16:09:25 1425 1426	 1492531765	 359484762	 161675.
16:09:25 1426 1427	 1492531765	 525075390	 165591.
16:09:25 1427 1428	 1492531765	 686503178	 161428.
16:09:25 1428 1429	 1492531765	 847803139	 161300.
16:09:25 1429 1430	 1492531765	 980546098	 132743.
16:09:26 1430 1431	 1492531766	 146132640	 165586.
16:09:26 1431 1432	 1492531766	 307697464	 161565.
16:09:26 1432 1433	 1492531766	 473447618	 165750.
16:09:26 1433 1434	 1492531766	 635219995	 161773.
16:09:26 1434 1435	 1492531766	 772208451	 136988.
16:09:26 1435 1436	 1492531766	 933652292	 161444.
16:09:27 1436 1437	 1492531767	 99697311	 166045.
16:09:27 1437 1438	 1492531767	 261392759	 161695.
16:09:27 1438 1439	 1492531767	 427865993	 166474.
16:09:27 1439 1440	 1492531767	 561275413	 133409.
16:09:27 1440 1441	 1492531767	 727589895	 166315.
16:09:27 1441 1442	 1492531767	 889326036	 161736.
16:09:28 1442 1443	 1492531768	 55475831	 166150.
16:09:28 1443 1444	 1492531768	 217818210	 162342.
16:09:28 1444 1445	 1492531768	 383968915	 166151.
16:09:28 1445 1446	 1492531768	 517450137	 133481.
16:09:28 1446 1447	 1492531768	 683647071	 166197.
16:09:28 1447 1448	 1492531768	 849576724	 165929.
16:09:29 1448 1449	 1492531769	 11367415	 161791.
16:09:29 1449 1450	 1492531769	 177481509	 166115.
16:09:29 1450 1451	 1492531769	 339622461	 162140.
16:09:29 1451 1452	 1492531769	 477125570	 137503.
16:09:29 1452 1453	 1492531769	 639069593	 161944.
16:09:29 1453 1454	 1492531769	 800813241	 161744.
16:09:29 1454 1455	 1492531769	 966780476	 165967.
16:09:30 1455 1456	 1492531770	 128336191	 161556.
16:09:30 1456 1457	 1492531770	 293691996	 165356.
16:09:30 1457 1458	 1492531770	 426766669	 133074.
16:09:30 1458 1459	 1492531770	 588092716	 161326.
16:09:30 1459 1460	 1492531770	 753754953	 165663.
16:09:30 1460 1461	 1492531770	 915445097	 161690.
16:09:31 1461 1462	 1492531771	 81394100	 165949.
16:09:31 1462 1463	 1492531771	 214525116	 133131.
16:09:31 1463 1464	 1492531771	 380840700	 166315.
16:09:31 1464 1465	 1492531771	 542886317	 162046.
16:09:31 1465 1466	 1492531771	 709318124	 166432.
16:09:31 1466 1467	 1492531771	 871286794	 161969.
16:09:32 1467 1468	 1492531772	 37523822	 166237.
16:09:32 1468 1469	 1492531772	 199684175	 162160.
16:09:32 1469 1470	 1492531772	 337103088	 137419.
16:09:32 1470 1471	 1492531772	 499040105	 161937.
16:09:32 1471 1472	 1492531772	 665392085	 166352.
16:09:32 1472 1473	 1492531772	 827199221	 161807.
16:09:32 1473 1474	 1492531772	 992618080	 165419.
16:09:33 1474 1475	 1492531773	 154250559	 161633.
16:09:33 1475 1476	 1492531773	 287033411	 132782.
16:09:33 1476 1477	 1492531773	 448298810	 161266.
16:09:33 1477 1478	 1492531773	 613918782	 165620.
16:09:33 1478 1479	 1492531773	 775462355	 161543.
16:09:33 1479 1480	 1492531773	 937096700	 161635.
16:09:34 1480 1481	 1492531774	 74436733	 137339.
16:09:34 1481 1482	 1492531774	 236413689	 161978.
16:09:34 1482 1483	 1492531774	 402338400	 165924.
16:09:34 1483 1484	 1492531774	 564043099	 161705.
16:09:34 1484 1485	 1492531774	 729918354	 165875.
16:09:34 1485 1486	 1492531774	 863282307	 133364.
16:09:35 1486 1487	 1492531775	 29391722	 166109.
16:09:35 1487 1488	 1492531775	 191530630	 162139.
16:09:35 1488 1489	 1492531775	 357720133	 166190.
16:09:35 1489 1490	 1492531775	 519409358	 161689.
16:09:35 1490 1491	 1492531775	 684985592	 165576.
16:09:35 1491 1492	 1492531775	 846775377	 161790.
16:09:36 1492 1493	 1492531776	 8509838	 161735.
16:09:36 1493 1494	 1492531776	 174580348	 166070.
16:09:36 1494 1495	 1492531776	 336430666	 161850.
16:09:36 1495 1496	 1492531776	 474403564	 137973.
16:09:36 1496 1497	 1492531776	 636450724	 162047.
16:09:36 1497 1498	 1492531776	 802491514	 166041.
16:09:36 1498 1499	 1492531776	 964186186	 161695.
16:09:37 1499 1500	 1492531777	 130448300	 166262.
16:09:37 1500 1501	 1492531777	 263574694	 133126.
16:09:37 1501 1502	 1492531777	 429045791	 165471.
16:09:37 1502 1503	 1492531777	 590815748	 161770.
16:09:37 1503 1504	 1492531777	 757026732	 166212.
16:09:37 1504 1505	 1492531777	 919073322	 162046.
16:09:38 1505 1506	 1492531778	 56403992	 137331.
16:09:38 1506 1507	 1492531778	 218371452	 161967.
16:09:38 1507 1508	 1492531778	 384839006	 166468.
16:09:38 1508 1509	 1492531778	 546866702	 162027.
16:09:38 1509 1510	 1492531778	 713205073	 166339.
16:09:38 1510 1511	 1492531778	 846491677	 133286.
16:09:39 1511 1512	 1492531779	 12621818	 166131.
16:09:39 1512 1513	 1492531779	 173876230	 161254.
16:09:39 1513 1514	 1492531779	 339794433	 165918.
16:09:39 1514 1515	 1492531779	 472492981	 132699.
16:09:39 1515 1516	 1492531779	 634301440	 161808.
16:09:39 1516 1517	 1492531779	 800694124	 166393.
16:09:39 1517 1518	 1492531779	 966496716	 165802.
16:09:40 1518 1519	 1492531780	 128497371	 162001.
16:09:40 1519 1520	 1492531780	 265839169	 137342.
16:09:40 1520 1521	 1492531780	 428025134	 162186.
16:09:40 1521 1522	 1492531780	 589809979	 161785.
16:09:40 1522 1523	 1492531780	 756207461	 166397.
16:09:40 1523 1524	 1492531780	 921862288	 165655.
16:09:41 1524 1525	 1492531781	 55529939	 133668.
16:09:41 1525 1526	 1492531781	 217854000	 162324.
16:09:41 1526 1527	 1492531781	 384415393	 166561.
16:09:41 1527 1528	 1492531781	 550502169	 166087.
16:09:41 1528 1529	 1492531781	 712586486	 162084.
16:09:41 1529 1530	 1492531781	 849656587	 137070.
16:09:42 1530 1531	 1492531782	 11764924	 162109.
16:09:42 1531 1532	 1492531782	 177986473	 166221.
16:09:42 1532 1533	 1492531782	 339990975	 162005.
16:09:42 1533 1534	 1492531782	 505932241	 165941.
16:09:42 1534 1535	 1492531782	 638888250	 132956.
16:09:42 1535 1536	 1492531782	 805102649	 166214.
16:09:42 1536 1537	 1492531782	 967306295	 162204.
16:09:43 1537 1538	 1492531783	 133364779	 166058.
16:09:43 1538 1539	 1492531783	 295554024	 162190.
16:09:43 1539 1540	 1492531783	 461993630	 166440.
16:09:43 1540 1541	 1492531783	 624194993	 162201.
16:09:43 1541 1542	 1492531783	 761492825	 137297.
16:09:43 1542 1543	 1492531783	 923747494	 162255.
16:09:44 1543 1544	 1492531784	 89557765	 165810.
16:09:44 1544 1545	 1492531784	 251357596	 161800.
16:09:44 1545 1546	 1492531784	 410283151	 158926.
16:09:44 1546 1547	 1492531784	 576561402	 166278.
16:09:44 1547 1548	 1492531784	 738910648	 162349.
16:09:44 1548 1549	 1492531784	 876427407	 137517.
16:09:45 1549 1550	 1492531785	 38650438	 162223.
16:09:45 1550 1551	 1492531785	 205029209	 166379.
16:09:45 1551 1552	 1492531785	 367286654	 162258.
16:09:45 1552 1553	 1492531785	 533325448	 166038.
16:09:45 1553 1554	 1492531785	 695755350	 162430.
16:09:45 1554 1555	 1492531785	 833039201	 137284.
16:09:45 1555 1556	 1492531785	 994879739	 161840.
16:09:46 1556 1557	 1492531786	 160512254	 165633.
16:09:46 1557 1558	 1492531786	 322347211	 161835.
16:09:46 1558 1559	 1492531786	 488589251	 166242.
16:09:46 1559 1560	 1492531786	 622376481	 133787.
16:09:46 1560 1561	 1492531786	 787981709	 165605.
16:09:46 1561 1562	 1492531786	 950040367	 162059.
16:09:47 1562 1563	 1492531787	 116173913	 166134.
16:09:47 1563 1564	 1492531787	 282492869	 166319.
16:09:47 1564 1565	 1492531787	 415400867	 132908.
16:09:47 1565 1566	 1492531787	 577924802	 162524.
16:09:47 1566 1567	 1492531787	 744630142	 166705.
16:09:47 1567 1568	 1492531787	 907086437	 162456.
16:09:48 1568 1569	 1492531788	 73019946	 165934.
16:09:48 1569 1570	 1492531788	 235007388	 161987.
16:09:48 1570 1571	 1492531788	 401129781	 166122.
16:09:48 1571 1572	 1492531788	 534287479	 133158.
16:09:48 1572 1573	 1492531788	 700293569	 166006.
16:09:48 1573 1574	 1492531788	 865986158	 165693.
16:09:49 1574 1575	 1492531789	 24401359	 158415.
16:09:49 1575 1576	 1492531789	 161872700	 137471.
16:09:49 1576 1577	 1492531789	 323882849	 162011.
16:09:49 1577 1578	 1492531789	 489917941	 166035.
16:09:49 1578 1579	 1492531789	 651784658	 161866.
16:09:49 1579 1580	 1492531789	 818185562	 166401.
16:09:49 1580 1581	 1492531789	 984316396	 166131.
16:09:50 1581 1582	 1492531790	 117535146	 133219.
16:09:50 1582 1583	 1492531790	 283367323	 165832.
16:09:50 1583 1584	 1492531790	 445269097	 161902.
16:09:50 1584 1585	 1492531790	 611004859	 165736.
16:09:50 1585 1586	 1492531790	 744240050	 133235.
16:09:50 1586 1587	 1492531790	 910068623	 165828.
16:09:51 1587 1588	 1492531791	 71887287	 161819.
16:09:51 1588 1589	 1492531791	 238140650	 166253.
16:09:51 1589 1590	 1492531791	 400204498	 162064.
16:09:51 1590 1591	 1492531791	 537333787	 137129.
16:09:51 1591 1592	 1492531791	 699317735	 161984.
16:09:51 1592 1593	 1492531791	 865436479	 166119.
16:09:52 1593 1594	 1492531792	 31556771	 166120.
16:09:52 1594 1595	 1492531792	 193434595	 161878.
16:09:52 1595 1596	 1492531792	 326793109	 133359.
16:09:52 1596 1597	 1492531792	 492535101	 165742.
16:09:52 1597 1598	 1492531792	 658485661	 165950.
16:09:52 1598 1599	 1492531792	 820438348	 161953.
16:09:52 1599 1600	 1492531792	 953417425	 132979.
16:09:53 1600 1601	 1492531793	 119469746	 166052.
16:09:53 1601 1602	 1492531793	 285365798	 165897.
16:09:53 1602 1603	 1492531793	 447450656	 162084.
16:09:53 1603 1604	 1492531793	 613351559	 165901.
16:09:53 1604 1605	 1492531793	 775678466	 162327.
16:09:53 1605 1606	 1492531793	 909069979	 133392.
16:09:54 1606 1607	 1492531794	 75064059	 165994.
16:09:54 1607 1608	 1492531794	 241364763	 166300.
16:09:54 1608 1609	 1492531794	 403627689	 162263.
16:09:54 1609 1610	 1492531794	 569443367	 165816.
16:09:54 1610 1611	 1492531794	 735830996	 166388.
16:09:54 1611 1612	 1492531794	 869048396	 133217.
16:09:55 1612 1613	 1492531795	 31494869	 162447.
16:09:55 1613 1614	 1492531795	 197480864	 165986.
16:09:55 1614 1615	 1492531795	 359503712	 162022.
16:09:55 1615 1616	 1492531795	 525394528	 165891.
16:09:55 1616 1617	 1492531795	 691733733	 166339.
16:09:55 1617 1618	 1492531795	 825128906	 133396.
16:09:55 1618 1619	 1492531795	 987028659	 161899.
16:09:56 1619 1620	 1492531796	 152785534	 165757.
16:09:56 1620 1621	 1492531796	 314755996	 161971.
16:09:56 1621 1622	 1492531796	 481301960	 166546.
16:09:56 1622 1623	 1492531796	 647167822	 165866.
16:09:56 1623 1624	 1492531796	 780505138	 133337.
16:09:56 1624 1625	 1492531796	 946728464	 166223.
16:09:57 1625 1626	 1492531797	 108671897	 161944.
16:09:57 1626 1627	 1492531797	 274824507	 166152.
16:09:57 1627 1628	 1492531797	 437180077	 162356.
16:09:57 1628 1629	 1492531797	 573922368	 136742.
16:09:57 1629 1630	 1492531797	 736156248	 162234.
16:09:57 1630 1631	 1492531797	 901935574	 165779.
16:09:58 1631 1632	 1492531798	 63634484	 161699.
16:09:58 1632 1633	 1492531798	 200839784	 137205.
16:09:58 1633 1634	 1492531798	 362574366	 161735.
16:09:58 1634 1635	 1492531798	 524712049	 162138.
16:09:58 1635 1636	 1492531798	 690407285	 165695.
16:09:58 1636 1637	 1492531798	 852235735	 161828.
16:09:59 1637 1638	 1492531799	 18432345	 166197.
16:09:59 1638 1639	 1492531799	 151794104	 133362.
16:09:59 1639 1640	 1492531799	 317651280	 165857.
16:09:59 1640 1641	 1492531799	 479493772	 161842.
16:09:59 1641 1642	 1492531799	 645441673	 165948.
16:09:59 1642 1643	 1492531799	 807413660	 161972.
16:09:59 1643 1644	 1492531799	 944458868	 137046.
16:10:00 1644 1645	 1492531800	 106741976	 162283.
16:10:00 1645 1646	 1492531800	 272393330	 165651.
16:10:00 1646 1647	 1492531800	 434123334	 161730.
16:10:00 1647 1648	 1492531800	 571254178	 137131.
16:10:00 1648 1649	 1492531800	 733202554	 161948.
16:10:00 1649 1650	 1492531800	 899094082	 165892.
16:10:01 1650 1651	 1492531801	 61051277	 161957.
16:10:01 1651 1652	 1492531801	 227945107	 166894.
16:10:01 1652 1653	 1492531801	 385597783	 157652.
16:10:01 1653 1654	 1492531801	 543677101	 158080.
16:10:01 1654 1655	 1492531801	 709538002	 165861.
16:10:01 1655 1656	 1492531801	 842440691	 132902.
16:10:01 1656 1657	 1492531802	 4306867	 161867.
16:10:02 1657 1658	 1492531802	 169920158	 165613.
16:10:02 1658 1659	 1492531802	 331386551	 161466.
16:10:02 1659 1660	 1492531802	 497286755	 165900.
16:10:02 1660 1661	 1492531802	 658769655	 161483.
16:10:02 1661 1662	 1492531802	 820418575	 161649.
16:10:02 1662 1663	 1492531802	 957487523	 137069.
16:10:03 1663 1664	 1492531803	 119007428	 161520.
16:10:03 1664 1665	 1492531803	 280455812	 161449.
16:10:03 1665 1666	 1492531803	 446020185	 165564.
16:10:03 1666 1667	 1492531803	 607667175	 161647.
16:10:03 1667 1668	 1492531803	 773251349	 165584.
16:10:03 1668 1669	 1492531803	 906128115	 132877.
16:10:04 1669 1670	 1492531804	 71887538	 165759.
16:10:04 1670 1671	 1492531804	 233286331	 161399.
16:10:04 1671 1672	 1492531804	 398923615	 165637.
16:10:04 1672 1673	 1492531804	 560562316	 161639.
16:10:04 1673 1674	 1492531804	 693337531	 132775.
16:10:04 1674 1675	 1492531804	 859137078	 165800.
16:10:05 1675 1676	 1492531805	 20688787	 161551.
16:10:05 1676 1677	 1492531805	 186467170	 165779.
16:10:05 1677 1678	 1492531805	 348272240	 161805.
16:10:05 1678 1679	 1492531805	 509865455	 161593.
16:10:05 1679 1680	 1492531805	 642894518	 133029.
16:10:05 1680 1681	 1492531805	 808310499	 165416.
16:10:05 1681 1682	 1492531805	 969586886	 161277.
16:10:06 1682 1683	 1492531806	 135297156	 165710.
16:10:06 1683 1684	 1492531806	 296824412	 161527.
16:10:06 1684 1685	 1492531806	 429792298	 132968.
16:10:06 1685 1686	 1492531806	 595204069	 165412.
16:10:06 1686 1687	 1492531806	 756747556	 161543.
16:10:06 1687 1688	 1492531806	 922550843	 165804.
16:10:07 1688 1689	 1492531807	 84140993	 161590.
16:10:07 1689 1690	 1492531807	 250132434	 165991.
16:10:07 1690 1691	 1492531807	 407741798	 157610.
16:10:07 1691 1692	 1492531807	 544851632	 137109.
16:10:07 1692 1693	 1492531807	 706557477	 161706.
16:10:07 1693 1694	 1492531807	 872212665	 165655.
16:10:08 1694 1695	 1492531808	 33828481	 161616.
16:10:08 1695 1696	 1492531808	 199546379	 165718.
16:10:08 1696 1697	 1492531808	 360900335	 161354.
16:10:08 1697 1698	 1492531808	 493802854	 132903.
16:10:08 1698 1699	 1492531808	 659420728	 165617.
16:10:08 1699 1700	 1492531808	 820805427	 161385.
16:10:08 1700 1701	 1492531808	 986331837	 165527.
16:10:09 1701 1702	 1492531809	 147550463	 161218.
16:10:09 1702 1703	 1492531809	 280252764	 132702.
16:10:09 1703 1704	 1492531809	 445542034	 165290.
16:10:09 1704 1705	 1492531809	 606865933	 161324.
16:10:09 1705 1706	 1492531809	 768675346	 161809.
16:10:09 1706 1707	 1492531809	 901505333	 132830.
16:10:10 1707 1708	 1492531810	 67538053	 166033.
16:10:10 1708 1709	 1492531810	 228902255	 161364.
16:10:10 1709 1710	 1492531810	 394588045	 165686.
16:10:10 1710 1711	 1492531810	 556030532	 161442.
16:10:10 1711 1712	 1492531810	 721674849	 165645.
16:10:10 1712 1713	 1492531810	 854383084	 132708.
16:10:11 1713 1714	 1492531811	 19939448	 165556.
16:10:11 1714 1715	 1492531811	 181380460	 161441.
16:10:11 1715 1716	 1492531811	 347450535	 166070.
16:10:11 1716 1717	 1492531811	 509109935	 161660.
16:10:11 1717 1718	 1492531811	 642230123	 133120.
16:10:11 1718 1719	 1492531811	 807757799	 165528.
16:10:11 1719 1720	 1492531811	 969421268	 161663.
16:10:12 1720 1721	 1492531812	 135301654	 165880.
16:10:12 1721 1722	 1492531812	 297131729	 161830.
16:10:12 1722 1723	 1492531812	 438227943	 141097.
16:10:12 1723 1724	 1492531812	 599948005	 161720.
16:10:12 1724 1725	 1492531812	 766156307	 166208.
16:10:12 1725 1726	 1492531812	 928095720	 161939.
16:10:13 1726 1727	 1492531813	 93677451	 165582.
16:10:13 1727 1728	 1492531813	 256059185	 162382.
16:10:13 1728 1729	 1492531813	 422100145	 166041.
16:10:13 1729 1730	 1492531813	 555264293	 133164.
16:10:13 1730 1731	 1492531813	 721898876	 166635.
16:10:13 1731 1732	 1492531813	 883753381	 161854.
16:10:14 1732 1733	 1492531814	 50190199	 166437.
16:10:14 1733 1734	 1492531814	 212123938	 161934.
16:10:14 1734 1735	 1492531814	 378027454	 165903.
16:10:14 1735 1736	 1492531814	 511435234	 133408.
16:10:14 1736 1737	 1492531814	 677546724	 166112.
16:10:14 1737 1738	 1492531814	 839762258	 162215.
16:10:15 1738 1739	 1492531815	 5773073	 166011.
16:10:15 1739 1740	 1492531815	 168408176	 162635.
16:10:15 1740 1741	 1492531815	 334716885	 166309.
16:10:15 1741 1742	 1492531815	 496516169	 161799.
16:10:15 1742 1743	 1492531815	 633958313	 137442.
16:10:15 1743 1744	 1492531815	 795688526	 161730.
16:10:15 1744 1745	 1492531815	 961249302	 165561.
16:10:16 1745 1746	 1492531816	 123212990	 161964.
16:10:16 1746 1747	 1492531816	 256020908	 132808.
16:10:16 1747 1748	 1492531816	 422148870	 166128.
16:10:16 1748 1749	 1492531816	 587665901	 165517.
16:10:16 1749 1750	 1492531816	 749142810	 161477.
16:10:16 1750 1751	 1492531816	 910594176	 161451.
16:10:17 1751 1752	 1492531817	 76090293	 165496.
16:10:17 1752 1753	 1492531817	 208985355	 132895.
16:10:17 1753 1754	 1492531817	 370505879	 161521.
16:10:17 1754 1755	 1492531817	 536160521	 165654.
16:10:17 1755 1756	 1492531817	 697872824	 161713.
16:10:17 1756 1757	 1492531817	 859404273	 161531.
16:10:18 1757 1758	 1492531818	 25146363	 165742.
16:10:18 1758 1759	 1492531818	 158284868	 133139.
16:10:18 1759 1760	 1492531818	 324269523	 165984.
16:10:18 1760 1761	 1492531818	 485802084	 161533.
16:10:18 1761 1762	 1492531818	 651543581	 165741.
16:10:18 1762 1763	 1492531818	 813059459	 161516.
16:10:18 1763 1764	 1492531818	 975032606	 161973.
16:10:19 1764 1765	 1492531819	 112414874	 137383.
16:10:19 1765 1766	 1492531819	 273829804	 161414.
16:10:19 1766 1767	 1492531819	 440193799	 166365.
16:10:19 1767 1768	 1492531819	 602014593	 161820.
16:10:19 1768 1769	 1492531819	 767658681	 165644.
16:10:19 1769 1770	 1492531819	 929669337	 162011.
16:10:20 1770 1771	 1492531820	 96523994	 166855.
16:10:20 1771 1772	 1492531820	 259099065	 162575.
16:10:20 1772 1773	 1492531820	 396312594	 137213.
16:10:20 1773 1774	 1492531820	 558080095	 161768.
16:10:20 1774 1775	 1492531820	 723913311	 165833.
16:10:20 1775 1776	 1492531820	 885509817	 161597.
16:10:21 1776 1777	 1492531821	 23090327	 137580.
16:10:21 1777 1778	 1492531821	 185096553	 162006.
16:10:21 1778 1779	 1492531821	 351259204	 166163.
16:10:21 1779 1780	 1492531821	 513327283	 162068.
16:10:21 1780 1781	 1492531821	 679276249	 165949.
16:10:21 1781 1782	 1492531821	 845486466	 166210.
16:10:21 1782 1783	 1492531821	 978710284	 133224.
16:10:22 1783 1784	 1492531822	 140715362	 162005.
16:10:22 1784 1785	 1492531822	 306991649	 166276.
16:10:22 1785 1786	 1492531822	 468801992	 161811.
16:10:22 1786 1787	 1492531822	 634985361	 166183.
16:10:22 1787 1788	 1492531822	 768019347	 133034.
16:10:22 1788 1789	 1492531822	 934199713	 166180.
16:10:23 1789 1790	 1492531823	 96276258	 162077.
16:10:23 1790 1791	 1492531823	 262074111	 165798.
16:10:23 1791 1792	 1492531823	 424635584	 162561.
16:10:23 1792 1793	 1492531823	 590718140	 166083.
16:10:23 1793 1794	 1492531823	 724280336	 133562.
16:10:23 1794 1795	 1492531823	 890187627	 165907.
16:10:24 1795 1796	 1492531824	 51734286	 161547.
16:10:24 1796 1797	 1492531824	 217848579	 166114.
16:10:24 1797 1798	 1492531824	 384151868	 166304.
16:10:24 1798 1799	 1492531824	 517495016	 133343.
16:10:24 1799 1800	 1492531824	 683633335	 166138.
16:10:24 1800 1801	 1492531824	 845160719	 161527.
16:10:25 1801 1802	 1492531825	 11193835	 166034.
16:10:25 1802 1803	 1492531825	 172741320	 161547.
16:10:25 1803 1804	 1492531825	 309782090	 137041.
16:10:25 1804 1805	 1492531825	 472137393	 162355.
16:10:25 1805 1806	 1492531825	 637993658	 165856.
16:10:25 1806 1807	 1492531825	 799974055	 161981.
16:10:25 1807 1808	 1492531825	 966290063	 166316.
16:10:26 1808 1809	 1492531826	 100125153	 133835.
16:10:26 1809 1810	 1492531826	 266720999	 166596.
16:10:26 1810 1811	 1492531826	 433449173	 166728.
16:10:26 1811 1812	 1492531826	 596125369	 162676.
16:10:26 1812 1813	 1492531826	 762613612	 166488.
16:10:26 1813 1814	 1492531826	 925272367	 162659.
16:10:27 1814 1815	 1492531827	 91742264	 166470.
16:10:27 1815 1816	 1492531827	 254053815	 162312.
16:10:27 1816 1817	 1492531827	 420711228	 166657.
16:10:27 1817 1818	 1492531827	 587320216	 166609.
16:10:27 1818 1819	 1492531827	 749817432	 162497.
16:10:27 1819 1820	 1492531827	 915982992	 166166.
16:10:28 1820 1821	 1492531828	 77933961	 161951.
16:10:28 1821 1822	 1492531828	 244658013	 166724.
16:10:28 1822 1823	 1492531828	 407084642	 162426.
16:10:28 1823 1824	 1492531828	 544668498	 137584.
16:10:28 1824 1825	 1492531828	 706823712	 162155.
16:10:28 1825 1826	 1492531828	 873030339	 166207.
16:10:29 1826 1827	 1492531829	 35042794	 162013.
16:10:29 1827 1828	 1492531829	 201223570	 166180.
16:10:29 1828 1829	 1492531829	 363402171	 162179.
16:10:29 1829 1830	 1492531829	 529376698	 165974.
16:10:29 1830 1831	 1492531829	 662970606	 133594.
16:10:29 1831 1832	 1492531829	 829160977	 166191.
16:10:29 1832 1833	 1492531829	 991459883	 162299.
16:10:30 1833 1834	 1492531830	 157561106	 166101.
16:10:30 1834 1835	 1492531830	 319256366	 161695.
16:10:30 1835 1836	 1492531830	 484865909	 165610.
16:10:30 1836 1837	 1492531830	 617942640	 133076.
16:10:30 1837 1838	 1492531830	 783634475	 165692.
16:10:30 1838 1839	 1492531830	 945326719	 161692.
16:10:31 1839 1840	 1492531831	 111704995	 166379.
16:10:31 1840 1841	 1492531831	 273704745	 161999.
16:10:31 1841 1842	 1492531831	 440007992	 166304.
16:10:31 1842 1843	 1492531831	 602076099	 162068.
16:10:31 1843 1844	 1492531831	 734970384	 132894.
16:10:31 1844 1845	 1492531831	 900584393	 165614.
16:10:32 1845 1846	 1492531832	 62395174	 161811.
16:10:32 1846 1847	 1492531832	 228211064	 165816.
16:10:32 1847 1848	 1492531832	 389870021	 161659.
16:10:32 1848 1849	 1492531832	 555950564	 166080.
16:10:32 1849 1850	 1492531832	 718196642	 162246.
16:10:32 1850 1851	 1492531832	 851382942	 133187.
16:10:33 1851 1852	 1492531833	 17802720	 166419.
16:10:33 1852 1853	 1492531833	 183828441	 166026.
16:10:33 1853 1854	 1492531833	 345812761	 161984.
16:10:33 1854 1855	 1492531833	 511883885	 166072.
16:10:33 1855 1856	 1492531833	 673956820	 162073.
16:10:33 1856 1857	 1492531833	 840021624	 166064.
16:10:33 1857 1858	 1492531833	 973246543	 133225.
16:10:34 1858 1859	 1492531834	 135249037	 162003.
16:10:34 1859 1860	 1492531834	 301162216	 165913.
16:10:34 1860 1861	 1492531834	 462679188	 161517.
16:10:34 1861 1862	 1492531834	 628416814	 165738.
16:10:34 1862 1863	 1492531834	 790157351	 161740.
16:10:34 1863 1864	 1492531834	 956633452	 166476.
16:10:35 1864 1865	 1492531835	 114363153	 157730.
16:10:35 1865 1866	 1492531835	 247376651	 133013.
16:10:35 1866 1867	 1492531835	 413593624	 166217.
16:10:35 1867 1868	 1492531835	 575368958	 161776.
16:10:35 1868 1869	 1492531835	 737060675	 161691.
16:10:35 1869 1870	 1492531835	 902532801	 165473.
16:10:36 1870 1871	 1492531836	 64112129	 161579.
16:10:36 1871 1872	 1492531836	 229641894	 165530.
16:10:36 1872 1873	 1492531836	 362746284	 133104.
16:10:36 1873 1874	 1492531836	 524717654	 161971.
16:10:36 1874 1875	 1492531836	 690906591	 166189.
16:10:36 1875 1876	 1492531836	 857153835	 166248.
16:10:37 1876 1877	 1492531837	 19098156	 161944.
16:10:37 1877 1878	 1492531837	 185326305	 166228.
16:10:37 1878 1879	 1492531837	 318277647	 132951.
16:10:37 1879 1880	 1492531837	 484184556	 165907.
16:10:37 1880 1881	 1492531837	 650209341	 166025.
16:10:37 1881 1882	 1492531837	 783078809	 132870.
16:10:37 1882 1883	 1492531837	 949180330	 166101.
16:10:38 1883 1884	 1492531838	 111417991	 162238.
16:10:38 1884 1885	 1492531838	 277155693	 165737.
16:10:38 1885 1886	 1492531838	 439076092	 161921.
16:10:38 1886 1887	 1492531838	 576050516	 136974.
16:10:38 1887 1888	 1492531838	 738053242	 162003.
16:10:38 1888 1889	 1492531838	 903813556	 165760.
16:10:39 1889 1890	 1492531839	 65811203	 161998.
16:10:39 1890 1891	 1492531839	 227865120	 162054.
