02:07:51    0 Step	 time(s)	 time(ns)	 delta(ms)
02:07:51    0 1	 1492654071	 429566043	 966.
02:07:51    1 2	 1492654071	 591217328	 161651.
02:07:51    2 3	 1492654071	 752906831	 161690.
02:07:51    3 4	 1492654071	 889725864	 136819.
02:07:52    4 5	 1492654072	 51292405	 161566.
02:07:52    5 6	 1492654072	 212738552	 161446.
02:07:52    6 7	 1492654072	 378393134	 165655.
02:07:52    7 8	 1492654072	 539806011	 161413.
02:07:52    8 9	 1492654072	 705179380	 165373.
02:07:52    9 10	 1492654072	 837968060	 132789.
02:07:52   10 11	 1492654072	 999419859	 161452.
02:07:53   11 12	 1492654073	 164592501	 165172.
02:07:53   12 13	 1492654073	 325945888	 161354.
02:07:53   13 14	 1492654073	 458752653	 132806.
02:07:53   14 15	 1492654073	 624280089	 165528.
02:07:53   15 16	 1492654073	 785381559	 161101.
02:07:53   16 17	 1492654073	 950957051	 165576.
02:07:54   17 18	 1492654074	 112418409	 161461.
02:07:54   18 19	 1492654074	 245402737	 132985.
02:07:54   19 20	 1492654074	 410997028	 165594.
02:07:54   20 21	 1492654074	 572628653	 161631.
02:07:54   21 22	 1492654074	 738152201	 165524.
02:07:54   22 23	 1492654074	 899470391	 161318.
02:07:55   23 24	 1492654075	 32398437	 132928.
02:07:55   24 25	 1492654075	 198061411	 165663.
02:07:55   25 26	 1492654075	 359332530	 161271.
02:07:55   26 27	 1492654075	 524880535	 165548.
02:07:55   27 28	 1492654075	 686363721	 161483.
02:07:55   28 29	 1492654075	 819166479	 132803.
02:07:55   29 30	 1492654075	 984483423	 165317.
02:07:56   30 31	 1492654076	 145994281	 161511.
02:07:56   31 32	 1492654076	 311539652	 165545.
02:07:56   32 33	 1492654076	 472796295	 161257.
02:07:56   33 34	 1492654076	 634370991	 161575.
02:07:56   34 35	 1492654076	 796982325	 162611.
02:07:56   35 36	 1492654076	 930179335	 133197.
02:07:57   36 37	 1492654077	 96733062	 166554.
02:07:57   37 38	 1492654077	 258730021	 161997.
02:07:57   38 39	 1492654077	 424924008	 166194.
02:07:57   39 40	 1492654077	 586970329	 162046.
02:07:57   40 41	 1492654077	 753024799	 166055.
02:07:57   41 42	 1492654077	 885967296	 132942.
02:07:58   42 43	 1492654078	 51691801	 165725.
02:07:58   43 44	 1492654078	 213709832	 162018.
02:07:58   44 45	 1492654078	 380187673	 166477.
02:07:58   45 46	 1492654078	 542511934	 162325.
02:07:58   46 47	 1492654078	 704895641	 162383.
02:07:58   47 48	 1492654078	 871039857	 166145.
02:07:59   48 49	 1492654079	 8376272	 137336.
02:07:59   49 50	 1492654079	 169922161	 161546.
02:07:59   50 51	 1492654079	 335610523	 165688.
02:07:59   51 52	 1492654079	 497732769	 162123.
02:07:59   52 53	 1492654079	 663767033	 166034.
02:07:59   53 54	 1492654079	 826039908	 162273.
02:07:59   54 55	 1492654079	 963376278	 137336.
02:08:00   55 56	 1492654080	 125022252	 161646.
02:08:00   56 57	 1492654080	 290629312	 165607.
02:08:00   57 58	 1492654080	 452473536	 161844.
02:08:00   58 59	 1492654080	 614165438	 161692.
02:08:00   59 60	 1492654080	 779989459	 165824.
02:08:00   60 61	 1492654080	 941373455	 161384.
02:08:01   61 62	 1492654081	 78144337	 136771.
02:08:01   62 63	 1492654081	 239984551	 161840.
02:08:01   63 64	 1492654081	 405761604	 165777.
02:08:01   64 65	 1492654081	 567521821	 161761.
02:08:01   65 66	 1492654081	 729063875	 161542.
02:08:01   66 67	 1492654081	 894978920	 165915.
02:08:02   67 68	 1492654082	 56814591	 161835.
02:08:02   68 69	 1492654082	 194278776	 137465.
02:08:02   69 70	 1492654082	 355991015	 161712.
02:08:02   70 71	 1492654082	 521677573	 165686.
02:08:02   71 72	 1492654082	 683264559	 161587.
02:08:02   72 73	 1492654082	 848814078	 165550.
02:08:03   73 74	 1492654083	 10229780	 161416.
02:08:03   74 75	 1492654083	 143180566	 132950.
02:08:03   75 76	 1492654083	 309071899	 165892.
02:08:03   76 77	 1492654083	 470647070	 161575.
02:08:03   77 78	 1492654083	 632371028	 161724.
02:08:03   78 79	 1492654083	 797967201	 165596.
02:08:03   79 80	 1492654083	 959656167	 161689.
02:08:04   80 81	 1492654084	 96776055	 137120.
02:08:04   81 82	 1492654084	 258635000	 161859.
02:08:04   82 83	 1492654084	 420356771	 161722.
02:08:04   83 84	 1492654084	 586032003	 165675.
02:08:04   84 85	 1492654084	 747725374	 161693.
02:08:04   85 86	 1492654084	 909258215	 161533.
02:08:05   86 87	 1492654085	 74891606	 165633.
02:08:05   87 88	 1492654085	 207936509	 133045.
02:08:05   88 89	 1492654085	 373432595	 165496.
02:08:05   89 90	 1492654085	 535363340	 161931.
02:08:05   90 91	 1492654085	 696900721	 161538.
02:08:05   91 92	 1492654085	 862587499	 165686.
02:08:06   92 93	 1492654086	 24082343	 161495.
02:08:06   93 94	 1492654086	 157081622	 132999.
02:08:06   94 95	 1492654086	 322685860	 165605.
02:08:06   95 96	 1492654086	 484331821	 161646.
02:08:06   96 97	 1492654086	 649945681	 165613.
02:08:06   97 98	 1492654086	 811690313	 161745.
02:08:06   98 99	 1492654086	 973516175	 161826.
02:08:07   99 100	 1492654087	 139360215	 165844.
02:08:07  100 101	 1492654087	 272271175	 132911.
02:08:07  101 102	 1492654087	 437964658	 165693.
02:08:07  102 103	 1492654087	 599799277	 161835.
02:08:07  103 104	 1492654087	 765414737	 165616.
02:08:07  104 105	 1492654087	 927064237	 161649.
02:08:08  105 106	 1492654088	 93579902	 166516.
02:08:08  106 107	 1492654088	 251433957	 157854.
02:08:08  107 108	 1492654088	 384166145	 132732.
02:08:08  108 109	 1492654088	 550109507	 165943.
02:08:08  109 110	 1492654088	 711808722	 161699.
02:08:08  110 111	 1492654088	 873396165	 161588.
02:08:09  111 112	 1492654089	 39271632	 165875.
02:08:09  112 113	 1492654089	 200908717	 161638.
02:08:09  113 114	 1492654089	 366921058	 166012.
02:08:09  114 115	 1492654089	 528744874	 161824.
02:08:09  115 116	 1492654089	 666216599	 137471.
02:08:09  116 117	 1492654089	 827942682	 161726.
02:08:09  117 118	 1492654089	 993839697	 165897.
02:08:10  118 119	 1492654090	 155514833	 161676.
02:08:10  119 120	 1492654090	 322106443	 166591.
02:08:10  120 121	 1492654090	 484022157	 161916.
02:08:10  121 122	 1492654090	 650328663	 166306.
02:08:10  122 123	 1492654090	 784247172	 133919.
02:08:10  123 124	 1492654090	 950363553	 166116.
02:08:11  124 125	 1492654091	 112209605	 161846.
02:08:11  125 126	 1492654091	 273895874	 161687.
02:08:11  126 127	 1492654091	 439954757	 166059.
02:08:11  127 128	 1492654091	 601886334	 161931.
02:08:11  128 129	 1492654091	 767996881	 166111.
02:08:11  129 130	 1492654091	 901513663	 133516.
02:08:12  130 131	 1492654092	 67590523	 166077.
02:08:12  131 132	 1492654092	 229313128	 161723.
02:08:12  132 133	 1492654092	 395623172	 166310.
02:08:12  133 134	 1492654092	 557697596	 162074.
02:08:12  134 135	 1492654092	 723863334	 166166.
02:08:12  135 136	 1492654092	 857316619	 133453.
02:08:13  136 137	 1492654093	 19501263	 162185.
02:08:13  137 138	 1492654093	 185989473	 166488.
02:08:13  138 139	 1492654093	 348194163	 162205.
02:08:13  139 140	 1492654093	 513883126	 165689.
02:08:13  140 141	 1492654093	 676017280	 162134.
02:08:13  141 142	 1492654093	 837804192	 161787.
02:08:13  142 143	 1492654093	 975182109	 137378.
02:08:14  143 144	 1492654094	 141577783	 166396.
02:08:14  144 145	 1492654094	 303832179	 162254.
02:08:14  145 146	 1492654094	 470244270	 166412.
02:08:14  146 147	 1492654094	 632692373	 162448.
02:08:14  147 148	 1492654094	 798685360	 165993.
02:08:14  148 149	 1492654094	 960407942	 161723.
02:08:15  149 150	 1492654095	 126621351	 166213.
02:08:15  150 151	 1492654095	 289137342	 162516.
02:08:15  151 152	 1492654095	 426291766	 137155.
02:08:15  152 153	 1492654095	 588311006	 162019.
02:08:15  153 154	 1492654095	 754423651	 166112.
02:08:15  154 155	 1492654095	 916089795	 161667.
02:08:16  155 156	 1492654096	 81920698	 165830.
02:08:16  156 157	 1492654096	 214942372	 133022.
02:08:16  157 158	 1492654096	 376705519	 161763.
02:08:16  158 159	 1492654096	 542666277	 165961.
02:08:16  159 160	 1492654096	 709171553	 166505.
02:08:16  160 161	 1492654096	 871112344	 161941.
02:08:17  161 162	 1492654097	 33233797	 162122.
02:08:17  162 163	 1492654097	 170739988	 137506.
02:08:17  163 164	 1492654097	 332839795	 162100.
02:08:17  164 165	 1492654097	 499080986	 166241.
02:08:17  165 166	 1492654097	 661234562	 162153.
02:08:17  166 167	 1492654097	 827101261	 165867.
02:08:17  167 168	 1492654097	 993524326	 166423.
02:08:18  168 169	 1492654098	 155139107	 161615.
02:08:18  169 170	 1492654098	 292513362	 137374.
02:08:18  170 171	 1492654098	 454570601	 162058.
02:08:18  171 172	 1492654098	 616974357	 162403.
02:08:18  172 173	 1492654098	 782686371	 165712.
02:08:18  173 174	 1492654098	 944853227	 162167.
02:08:19  174 175	 1492654099	 81848255	 136995.
02:08:19  175 176	 1492654099	 244080671	 162233.
02:08:19  176 177	 1492654099	 405762800	 161682.
02:08:19  177 178	 1492654099	 567888645	 162125.
02:08:19  178 179	 1492654099	 733808718	 165920.
02:08:19  179 180	 1492654099	 895965873	 162158.
02:08:20  180 181	 1492654100	 62310855	 166345.
02:08:20  181 182	 1492654100	 195427332	 133116.
02:08:20  182 183	 1492654100	 357224376	 161797.
02:08:20  183 184	 1492654100	 523597938	 166374.
02:08:20  184 185	 1492654100	 685651080	 162053.
02:08:20  185 186	 1492654100	 851346528	 165695.
02:08:21  186 187	 1492654101	 13289827	 161944.
02:08:21  187 188	 1492654101	 150618237	 137328.
02:08:21  188 189	 1492654101	 312489891	 161872.
02:08:21  189 190	 1492654101	 478589350	 166099.
02:08:21  190 191	 1492654101	 640828815	 162240.
02:08:21  191 192	 1492654101	 807160359	 166331.
02:08:21  192 193	 1492654101	 969297516	 162137.
02:08:22  193 194	 1492654102	 135644886	 166348.
02:08:22  194 195	 1492654102	 298551162	 162906.
02:08:22  195 196	 1492654102	 460718259	 162167.
02:08:22  196 197	 1492654102	 623211966	 162494.
02:08:22  197 198	 1492654102	 789637817	 166426.
02:08:22  198 199	 1492654102	 951560055	 161922.
02:08:23  199 200	 1492654103	 113437226	 161877.
02:08:23  200 201	 1492654103	 279237659	 165800.
02:08:23  201 202	 1492654103	 412483489	 133246.
02:08:23  202 203	 1492654103	 578630322	 166147.
02:08:23  203 204	 1492654103	 740583377	 161953.
02:08:23  204 205	 1492654103	 906334405	 165751.
02:08:24  205 206	 1492654104	 68325817	 161992.
02:08:24  206 207	 1492654104	 201462742	 133137.
02:08:24  207 208	 1492654104	 367422883	 165960.
02:08:24  208 209	 1492654104	 529317803	 161895.
02:08:24  209 210	 1492654104	 695199687	 165881.
02:08:24  210 211	 1492654104	 856822938	 161624.
02:08:24  211 212	 1492654104	 993573440	 136750.
02:08:25  212 213	 1492654105	 155327482	 161754.
02:08:25  213 214	 1492654105	 321364019	 166037.
02:08:25  214 215	 1492654105	 483139482	 161775.
02:08:25  215 216	 1492654105	 649324774	 166186.
02:08:25  216 217	 1492654105	 811488348	 162163.
02:08:25  217 218	 1492654105	 948509579	 137021.
02:08:26  218 219	 1492654106	 110460744	 161952.
02:08:26  219 220	 1492654106	 276351647	 165890.
02:08:26  220 221	 1492654106	 438106117	 161755.
02:08:26  221 222	 1492654106	 600164155	 162058.
02:08:26  222 223	 1492654106	 766135675	 165971.
02:08:26  223 224	 1492654106	 899380106	 133245.
02:08:27  224 225	 1492654107	 65289586	 165910.
02:08:27  225 226	 1492654107	 227180309	 161890.
02:08:27  226 227	 1492654107	 393096599	 165916.
02:08:27  227 228	 1492654107	 554722702	 161626.
02:08:27  228 229	 1492654107	 720661139	 165939.
02:08:27  229 230	 1492654107	 854084503	 133423.
02:08:28  230 231	 1492654108	 15916148	 161832.
02:08:28  231 232	 1492654108	 181701703	 165785.
02:08:28  232 233	 1492654108	 343517580	 161816.
02:08:28  233 234	 1492654108	 509374061	 165857.
02:08:28  234 235	 1492654108	 671124412	 161750.
02:08:28  235 236	 1492654108	 803974541	 132850.
02:08:28  236 237	 1492654108	 969998008	 166024.
02:08:29  237 238	 1492654109	 135800930	 165803.
02:08:29  238 239	 1492654109	 297437181	 161636.
02:08:29  239 240	 1492654109	 459045895	 161609.
02:08:29  240 241	 1492654109	 625060496	 166014.
02:08:29  241 242	 1492654109	 791119655	 166059.
02:08:29  242 243	 1492654109	 924370215	 133251.
02:08:30  243 244	 1492654110	 86295311	 161925.
02:08:30  244 245	 1492654110	 252336296	 166041.
02:08:30  245 246	 1492654110	 413965942	 161630.
02:08:30  246 247	 1492654110	 579873169	 165907.
02:08:30  247 248	 1492654110	 741753822	 161881.
02:08:30  248 249	 1492654110	 878887020	 137133.
02:08:31  249 250	 1492654111	 40927783	 162041.
02:08:31  250 251	 1492654111	 202718515	 161791.
02:08:31  251 252	 1492654111	 369146445	 166427.
02:08:31  252 253	 1492654111	 535360005	 166214.
02:08:31  253 254	 1492654111	 697632279	 162272.
02:08:31  254 255	 1492654111	 863599779	 165968.
02:08:31  255 256	 1492654111	 996728542	 133128.
02:08:32  256 257	 1492654112	 163015385	 166287.
02:08:32  257 258	 1492654112	 325293970	 162279.
02:08:32  258 259	 1492654112	 487278849	 161985.
02:08:32  259 260	 1492654112	 653674868	 166396.
02:08:32  260 261	 1492654112	 819697082	 166022.
02:08:32  261 262	 1492654112	 981567669	 161870.
02:08:33  262 263	 1492654113	 143347736	 161781.
02:08:33  263 264	 1492654113	 280807890	 137460.
02:08:33  264 265	 1492654113	 442965510	 162157.
02:08:33  265 266	 1492654113	 609163834	 166199.
02:08:33  266 267	 1492654113	 770673033	 161509.
02:08:33  267 268	 1492654113	 936327017	 165654.
02:08:34  268 269	 1492654114	 98122795	 161796.
02:08:34  269 270	 1492654114	 235342902	 137220.
02:08:34  270 271	 1492654114	 396743819	 161401.
02:08:34  271 272	 1492654114	 558370730	 161627.
02:08:34  272 273	 1492654114	 724102858	 165732.
02:08:34  273 274	 1492654114	 885631771	 161529.
02:08:35  274 275	 1492654115	 22534167	 136902.
02:08:35  275 276	 1492654115	 184104568	 161570.
02:08:35  276 277	 1492654115	 345752397	 161648.
02:08:35  277 278	 1492654115	 511408914	 165657.
02:08:35  278 279	 1492654115	 672918104	 161509.
02:08:35  279 280	 1492654115	 809907124	 136989.
02:08:35  280 281	 1492654115	 971155360	 161248.
02:08:36  281 282	 1492654116	 136552163	 165397.
02:08:36  282 283	 1492654116	 283791753	 147240.
02:08:36  283 284	 1492654116	 449487480	 165695.
02:08:36  284 285	 1492654116	 611393573	 161906.
02:08:36  285 286	 1492654116	 773179904	 161787.
02:08:36  286 287	 1492654116	 938811571	 165631.
02:08:37  287 288	 1492654117	 100483204	 161672.
02:08:37  288 289	 1492654117	 266134844	 165652.
02:08:37  289 290	 1492654117	 399463666	 133329.
02:08:37  290 291	 1492654117	 565542555	 166078.
02:08:37  291 292	 1492654117	 731760650	 166218.
02:08:37  292 293	 1492654117	 893352463	 161592.
02:08:38  293 294	 1492654118	 59600619	 166248.
02:08:38  294 295	 1492654118	 192669253	 133069.
02:08:38  295 296	 1492654118	 358498109	 165829.
02:08:38  296 297	 1492654118	 520497729	 162000.
02:08:38  297 298	 1492654118	 686651200	 166153.
02:08:38  298 299	 1492654118	 848270340	 161619.
02:08:38  299 300	 1492654118	 981736543	 133466.
02:08:39  300 301	 1492654119	 147847905	 166112.
02:08:39  301 302	 1492654119	 313924844	 166077.
02:08:39  302 303	 1492654119	 476003145	 162078.
02:08:39  303 304	 1492654119	 641907564	 165904.
02:08:39  304 305	 1492654119	 774790383	 132883.
02:08:39  305 306	 1492654119	 940851672	 166061.
02:08:40  306 307	 1492654120	 102735163	 161884.
02:08:40  307 308	 1492654120	 268916015	 166181.
02:08:40  308 309	 1492654120	 430628281	 161712.
02:08:40  309 310	 1492654120	 568009897	 137382.
02:08:40  310 311	 1492654120	 729634526	 161624.
02:08:40  311 312	 1492654120	 894820958	 165187.
02:08:41  312 313	 1492654121	 56786451	 161965.
02:08:41  313 314	 1492654121	 222769597	 165983.
02:08:41  314 315	 1492654121	 355881080	 133112.
02:08:41  315 316	 1492654121	 521936313	 166055.
02:08:41  316 317	 1492654121	 684000566	 162064.
02:08:41  317 318	 1492654121	 845703103	 161703.
02:08:42  318 319	 1492654122	 11867645	 166164.
02:08:42  319 320	 1492654122	 149086992	 137220.
02:08:42  320 321	 1492654122	 310733179	 161646.
02:08:42  321 322	 1492654122	 476917818	 166185.
02:08:42  322 323	 1492654122	 638853499	 161935.
02:08:42  323 324	 1492654122	 804876362	 166023.
02:08:42  324 325	 1492654122	 938036660	 133160.
02:08:43  325 326	 1492654123	 104225110	 166189.
02:08:43  326 327	 1492654123	 266272016	 162047.
02:08:43  327 328	 1492654123	 432550205	 166278.
02:08:43  328 329	 1492654123	 594913455	 162363.
02:08:43  329 330	 1492654123	 760697173	 165784.
02:08:43  330 331	 1492654123	 894115532	 133418.
02:08:44  331 332	 1492654124	 60151214	 166036.
02:08:44  332 333	 1492654124	 222396105	 162245.
02:08:44  333 334	 1492654124	 388319115	 165923.
02:08:44  334 335	 1492654124	 550324010	 162005.
02:08:44  335 336	 1492654124	 715719404	 165395.
02:08:44  336 337	 1492654124	 848665283	 132946.
02:08:45  337 338	 1492654125	 14248998	 165584.
02:08:45  338 339	 1492654125	 176553341	 162304.
02:08:45  339 340	 1492654125	 338944327	 162391.
02:08:45  340 341	 1492654125	 504892604	 165948.
02:08:45  341 342	 1492654125	 666605115	 161713.
02:08:45  342 343	 1492654125	 803762041	 137157.
02:08:45  343 344	 1492654125	 965603076	 161841.
02:08:46  344 345	 1492654126	 131446620	 165843.
02:08:46  345 346	 1492654126	 293621999	 162176.
02:08:46  346 347	 1492654126	 459489660	 165867.
02:08:46  347 348	 1492654126	 593244821	 133756.
02:08:46  348 349	 1492654126	 759083224	 165838.
02:08:46  349 350	 1492654126	 920957932	 161875.
02:08:47  350 351	 1492654127	 86956811	 165999.
02:08:47  351 352	 1492654127	 249044356	 162087.
02:08:47  352 353	 1492654127	 414837139	 165793.
02:08:47  353 354	 1492654127	 548103355	 133266.
02:08:47  354 355	 1492654127	 714162964	 166060.
02:08:47  355 356	 1492654127	 876381496	 162218.
02:08:48  356 357	 1492654128	 42596776	 166216.
02:08:48  357 358	 1492654128	 204717004	 162120.
02:08:48  358 359	 1492654128	 371074030	 166357.
02:08:48  359 360	 1492654128	 533360850	 162287.
02:08:48  360 361	 1492654128	 670861924	 137501.
02:08:48  361 362	 1492654128	 833229962	 162368.
02:08:48  362 363	 1492654128	 999048899	 165819.
02:08:49  363 364	 1492654129	 160717188	 161668.
02:08:49  364 365	 1492654129	 326793400	 166076.
02:08:49  365 366	 1492654129	 459881115	 133088.
02:08:49  366 367	 1492654129	 625686652	 165805.
02:08:49  367 368	 1492654129	 787734136	 162048.
02:08:49  368 369	 1492654129	 953734691	 166000.
02:08:50  369 370	 1492654130	 115618051	 161884.
02:08:50  370 371	 1492654130	 281698343	 166080.
02:08:50  371 372	 1492654130	 414897514	 133199.
02:08:50  372 373	 1492654130	 580867037	 165970.
02:08:50  373 374	 1492654130	 742700196	 161833.
02:08:50  374 375	 1492654130	 904547150	 161847.
02:08:51  375 376	 1492654131	 70277004	 165730.
02:08:51  376 377	 1492654131	 232149359	 161872.
02:08:51  377 378	 1492654131	 369331761	 137183.
02:08:51  378 379	 1492654131	 531465301	 162133.
02:08:51  379 380	 1492654131	 697351590	 165886.
02:08:51  380 381	 1492654131	 859219836	 161869.
02:08:52  381 382	 1492654132	 21269519	 162049.
02:08:52  382 383	 1492654132	 158359629	 137090.
02:08:52  383 384	 1492654132	 320153176	 161794.
02:08:52  384 385	 1492654132	 486040302	 165887.
02:08:52  385 386	 1492654132	 647859627	 161819.
02:08:52  386 387	 1492654132	 813532216	 165673.
02:08:52  387 388	 1492654132	 946448397	 132916.
02:08:53  388 389	 1492654133	 112622013	 166174.
02:08:53  389 390	 1492654133	 270327681	 157705.
02:08:53  390 391	 1492654133	 435977091	 165650.
02:08:53  391 392	 1492654133	 598063508	 162086.
02:08:53  392 393	 1492654133	 735515953	 137453.
02:08:53  393 394	 1492654133	 897433233	 161917.
02:08:54  394 395	 1492654134	 63101808	 165669.
02:08:54  395 396	 1492654134	 224548209	 161446.
02:08:54  396 397	 1492654134	 386420414	 161872.
02:08:54  397 398	 1492654134	 552591485	 166171.
02:08:54  398 399	 1492654134	 685959326	 133368.
02:08:54  399 400	 1492654134	 852134485	 166175.
02:08:55  400 401	 1492654135	 13853431	 161719.
02:08:55  401 402	 1492654135	 179842816	 165990.
02:08:55  402 403	 1492654135	 341584661	 161741.
02:08:55  403 404	 1492654135	 478483127	 136899.
02:08:55  404 405	 1492654135	 640033749	 161551.
02:08:55  405 406	 1492654135	 805794935	 165761.
02:08:55  406 407	 1492654135	 967523286	 161728.
02:08:56  407 408	 1492654136	 133329869	 165807.
02:08:56  408 409	 1492654136	 266394523	 133064.
02:08:56  409 410	 1492654136	 428274486	 161880.
02:08:56  410 411	 1492654136	 594847853	 166574.
02:08:56  411 412	 1492654136	 757094820	 162247.
02:08:56  412 413	 1492654136	 923153042	 166058.
02:08:57  413 414	 1492654137	 84818254	 161665.
02:08:57  414 415	 1492654137	 221584758	 136767.
02:08:57  415 416	 1492654137	 383546670	 161961.
02:08:57  416 417	 1492654137	 549855099	 166309.
02:08:57  417 418	 1492654137	 711774245	 161919.
02:08:57  418 419	 1492654137	 877662507	 165888.
02:08:58  419 420	 1492654138	 10936548	 133274.
02:08:58  420 421	 1492654138	 177076847	 166141.
02:08:58  421 422	 1492654138	 343332191	 166255.
02:08:58  422 423	 1492654138	 505753744	 162422.
02:08:58  423 424	 1492654138	 671933537	 166179.
02:08:58  424 425	 1492654138	 834179829	 162247.
02:08:58  425 426	 1492654139	 164242	 165984.
02:08:59  426 427	 1492654139	 133511080	 133347.
02:08:59  427 428	 1492654139	 299679914	 166169.
02:08:59  428 429	 1492654139	 462088771	 162409.
02:08:59  429 430	 1492654139	 628281808	 166193.
02:08:59  430 431	 1492654139	 794265460	 165983.
02:08:59  431 432	 1492654139	 956401859	 162137.
02:09:00  432 433	 1492654140	 94149170	 137747.
02:09:00  433 434	 1492654140	 255881173	 161732.
02:09:00  434 435	 1492654140	 422176847	 166296.
02:09:00  435 436	 1492654140	 584244689	 162067.
02:09:00  436 437	 1492654140	 750662981	 166419.
02:09:00  437 438	 1492654140	 912625859	 161963.
02:09:01  438 439	 1492654141	 78185183	 165559.
02:09:01  439 440	 1492654141	 211171978	 132987.
02:09:01  440 441	 1492654141	 372630647	 161458.
02:09:01  441 442	 1492654141	 538294952	 165665.
02:09:01  442 443	 1492654141	 699919698	 161624.
02:09:01  443 444	 1492654141	 865671650	 165752.
02:09:02  444 445	 1492654142	 27404336	 161733.
02:09:02  445 446	 1492654142	 160268323	 132864.
02:09:02  446 447	 1492654142	 326022143	 165754.
02:09:02  447 448	 1492654142	 487456300	 161434.
02:09:02  448 449	 1492654142	 653175406	 165719.
02:09:02  449 450	 1492654142	 814795049	 161620.
02:09:02  450 451	 1492654142	 976286688	 161491.
02:09:03  451 452	 1492654143	 113336222	 137050.
02:09:03  452 453	 1492654143	 275024069	 161688.
02:09:03  453 454	 1492654143	 436734720	 161710.
02:09:03  454 455	 1492654143	 602950991	 166217.
02:09:03  455 456	 1492654143	 764678944	 161728.
02:09:03  456 457	 1492654143	 930555704	 165876.
02:09:04  457 458	 1492654144	 92428689	 161873.
02:09:04  458 459	 1492654144	 259432309	 167004.
02:09:04  459 460	 1492654144	 416891642	 157459.
02:09:04  460 461	 1492654144	 578821004	 161930.
02:09:04  461 462	 1492654144	 744724812	 165904.
02:09:04  462 463	 1492654144	 877705588	 132980.
02:09:05  463 464	 1492654145	 39381051	 161676.
02:09:05  464 465	 1492654145	 205326123	 165945.
02:09:05  465 466	 1492654145	 366848260	 161522.
02:09:05  466 467	 1492654145	 532584551	 165737.
02:09:05  467 468	 1492654145	 694119434	 161534.
02:09:05  468 469	 1492654145	 827115968	 132997.
02:09:05  469 470	 1492654145	 992977304	 165861.
02:09:06  470 471	 1492654146	 154803278	 161826.
02:09:06  471 472	 1492654146	 321100787	 166298.
02:09:06  472 473	 1492654146	 482732426	 161631.
02:09:06  473 474	 1492654146	 644788841	 162057.
02:09:06  474 475	 1492654146	 810768004	 165979.
02:09:06  475 476	 1492654146	 972529412	 161761.
02:09:07  476 477	 1492654147	 134280689	 161751.
02:09:07  477 478	 1492654147	 271637837	 137358.
02:09:07  478 479	 1492654147	 433058868	 161421.
02:09:07  479 480	 1492654147	 598489201	 165430.
02:09:07  480 481	 1492654147	 759975991	 161487.
02:09:07  481 482	 1492654147	 925905806	 165930.
02:09:08  482 483	 1492654148	 87849214	 161943.
02:09:08  483 484	 1492654148	 221137202	 133288.
02:09:08  484 485	 1492654148	 386848887	 165712.
02:09:08  485 486	 1492654148	 548390154	 161541.
02:09:08  486 487	 1492654148	 713652537	 165262.
02:09:08  487 488	 1492654148	 875480347	 161828.
02:09:09  488 489	 1492654149	 12600721	 137121.
02:09:09  489 490	 1492654149	 174256402	 161655.
02:09:09  490 491	 1492654149	 339615139	 165359.
02:09:09  491 492	 1492654149	 501301899	 161687.
02:09:09  492 493	 1492654149	 666835685	 165533.
02:09:09  493 494	 1492654149	 828722833	 161888.
02:09:09  494 495	 1492654149	 990957234	 162234.
02:09:10  495 496	 1492654150	 128149380	 137192.
02:09:10  496 497	 1492654150	 290132747	 161983.
02:09:10  497 498	 1492654150	 455995194	 165863.
02:09:10  498 499	 1492654150	 617748037	 161753.
02:09:10  499 500	 1492654150	 783632803	 165885.
02:09:10  500 501	 1492654150	 916633300	 133000.
02:09:11  501 502	 1492654151	 82522892	 165890.
02:09:11  502 503	 1492654151	 244510577	 161987.
02:09:11  503 504	 1492654151	 410548346	 166038.
02:09:11  504 505	 1492654151	 572473937	 161926.
02:09:11  505 506	 1492654151	 709562612	 137088.
02:09:11  506 507	 1492654151	 871381076	 161819.
02:09:12  507 508	 1492654152	 32992733	 161612.
02:09:12  508 509	 1492654152	 198727556	 165734.
02:09:12  509 510	 1492654152	 361186414	 162459.
02:09:12  510 511	 1492654152	 526657314	 165471.
02:09:12  511 512	 1492654152	 659748823	 133092.
02:09:12  512 513	 1492654152	 825494148	 165745.
02:09:12  513 514	 1492654152	 987084834	 161591.
02:09:13  514 515	 1492654153	 152791414	 165706.
02:09:13  515 516	 1492654153	 314879378	 162088.
02:09:13  516 517	 1492654153	 480978622	 166099.
02:09:13  517 518	 1492654153	 613925423	 132947.
02:09:13  518 519	 1492654153	 775449436	 161524.
02:09:13  519 520	 1492654153	 940886164	 165437.
02:09:14  520 521	 1492654154	 102260333	 161374.
02:09:14  521 522	 1492654154	 235063728	 132804.
02:09:14  522 523	 1492654154	 400826468	 165762.
02:09:14  523 524	 1492654154	 562645525	 161819.
02:09:14  524 525	 1492654154	 729006606	 166361.
02:09:14  525 526	 1492654154	 890660762	 161655.
02:09:15  526 527	 1492654155	 28011879	 137351.
02:09:15  527 528	 1492654155	 189905914	 161894.
02:09:15  528 529	 1492654155	 356043870	 166138.
02:09:15  529 530	 1492654155	 518007814	 161964.
02:09:15  530 531	 1492654155	 683586625	 165578.
02:09:15  531 532	 1492654155	 845155444	 161569.
02:09:15  532 533	 1492654155	 978300944	 133146.
02:09:16  533 534	 1492654156	 144028178	 165727.
02:09:16  534 535	 1492654156	 305754552	 161726.
02:09:16  535 536	 1492654156	 471801270	 166047.
02:09:16  536 537	 1492654156	 633666062	 161865.
02:09:16  537 538	 1492654156	 799773540	 166107.
02:09:16  538 539	 1492654156	 961416463	 161643.
02:09:17  539 540	 1492654157	 94759428	 133343.
02:09:17  540 541	 1492654157	 260971085	 166212.
02:09:17  541 542	 1492654157	 426774997	 165804.
02:09:17  542 543	 1492654157	 588270642	 161495.
02:09:17  543 544	 1492654157	 754010518	 165740.
02:09:17  544 545	 1492654157	 887206961	 133197.
02:09:18  545 546	 1492654158	 53306829	 166100.
02:09:18  546 547	 1492654158	 215101748	 161795.
02:09:18  547 548	 1492654158	 380795113	 165693.
02:09:18  548 549	 1492654158	 542732722	 161937.
02:09:18  549 550	 1492654158	 679962367	 137230.
02:09:18  550 551	 1492654158	 841736266	 161774.
02:09:19  551 552	 1492654159	 7365262	 165629.
02:09:19  552 553	 1492654159	 169023027	 161658.
02:09:19  553 554	 1492654159	 335183535	 166160.
02:09:19  554 555	 1492654159	 496895245	 161712.
02:09:19  555 556	 1492654159	 634393697	 137498.
02:09:19  556 557	 1492654159	 796286439	 161893.
02:09:19  557 558	 1492654159	 961925836	 165640.
02:09:20  558 559	 1492654160	 123642423	 161716.
02:09:20  559 560	 1492654160	 289428544	 165786.
02:09:20  560 561	 1492654160	 422846031	 133418.
02:09:20  561 562	 1492654160	 584933335	 162087.
02:09:20  562 563	 1492654160	 750140856	 165208.
02:09:20  563 564	 1492654160	 911481594	 161340.
02:09:21  564 565	 1492654161	 77158484	 165677.
02:09:21  565 566	 1492654161	 239168114	 162010.
02:09:21  566 567	 1492654161	 372444930	 133277.
02:09:21  567 568	 1492654161	 538184877	 165740.
02:09:21  568 569	 1492654161	 700244883	 162060.
02:09:21  569 570	 1492654161	 866055148	 165810.
02:09:22  570 571	 1492654162	 28158972	 162104.
02:09:22  571 572	 1492654162	 193934944	 165776.
02:09:22  572 573	 1492654162	 326896348	 132961.
02:09:22  573 574	 1492654162	 492281324	 165385.
02:09:22  574 575	 1492654162	 654014133	 161733.
02:09:22  575 576	 1492654162	 816202250	 162188.
02:09:22  576 577	 1492654162	 953567149	 137365.
02:09:23  577 578	 1492654163	 115305275	 161738.
02:09:23  578 579	 1492654163	 280766693	 165461.
02:09:23  579 580	 1492654163	 442619718	 161853.
02:09:23  580 581	 1492654163	 608809658	 166190.
02:09:23  581 582	 1492654163	 741677165	 132868.
02:09:23  582 583	 1492654163	 907475400	 165798.
02:09:24  583 584	 1492654164	 69438093	 161963.
02:09:24  584 585	 1492654164	 235248205	 165810.
02:09:24  585 586	 1492654164	 397125847	 161878.
02:09:24  586 587	 1492654164	 563009267	 165883.
02:09:24  587 588	 1492654164	 696116870	 133108.
02:09:24  588 589	 1492654164	 861868920	 165752.
02:09:25  589 590	 1492654165	 23252683	 161383.
02:09:25  590 591	 1492654165	 189318410	 166066.
02:09:25  591 592	 1492654165	 350988543	 161671.
02:09:25  592 593	 1492654165	 483855143	 132866.
02:09:25  593 594	 1492654165	 649694403	 165839.
02:09:25  594 595	 1492654165	 811627382	 161933.
02:09:25  595 596	 1492654165	 977937226	 166310.
02:09:26  596 597	 1492654166	 139877649	 161940.
02:09:26  597 598	 1492654166	 277130804	 137254.
02:09:26  598 599	 1492654166	 439212869	 162082.
02:09:26  599 600	 1492654166	 605659825	 166447.
02:09:26  600 601	 1492654166	 767350099	 161690.
02:09:26  601 602	 1492654166	 933144874	 165795.
02:09:27  602 603	 1492654167	 94884567	 161739.
02:09:27  603 604	 1492654167	 260869706	 165985.
02:09:27  604 605	 1492654167	 393992020	 133123.
02:09:27  605 606	 1492654167	 560017621	 166025.
02:09:27  606 607	 1492654167	 721779199	 161762.
02:09:27  607 608	 1492654167	 887308030	 165529.
02:09:28  608 609	 1492654168	 49036565	 161728.
02:09:28  609 610	 1492654168	 186610597	 137574.
02:09:28  610 611	 1492654168	 348350422	 161740.
02:09:28  611 612	 1492654168	 514218547	 165868.
02:09:28  612 613	 1492654168	 675587194	 161369.
02:09:28  613 614	 1492654168	 812565448	 136978.
02:09:28  614 615	 1492654168	 973872581	 161307.
02:09:29  615 616	 1492654169	 135850802	 161979.
02:09:29  616 617	 1492654169	 302119583	 166268.
02:09:29  617 618	 1492654169	 468041646	 165922.
02:09:29  618 619	 1492654169	 629931889	 161891.
02:09:29  619 620	 1492654169	 762752508	 132820.
02:09:29  620 621	 1492654169	 928920799	 166169.
02:09:30  621 622	 1492654170	 94751042	 165830.
02:09:30  622 623	 1492654170	 256874312	 162123.
02:09:30  623 624	 1492654170	 422551120	 165677.
02:09:30  624 625	 1492654170	 555381696	 132830.
02:09:30  625 626	 1492654170	 716961294	 161580.
02:09:30  626 627	 1492654170	 882653897	 165693.
02:09:31  627 628	 1492654171	 44163342	 161509.
02:09:31  628 629	 1492654171	 209939600	 165776.
02:09:31  629 630	 1492654171	 342903916	 132965.
02:09:31  630 631	 1492654171	 508881891	 165978.
02:09:31  631 632	 1492654171	 671004096	 162122.
02:09:31  632 633	 1492654171	 837306418	 166302.
02:09:31  633 634	 1492654171	 999301318	 161995.
02:09:32  634 635	 1492654172	 165561243	 166260.
02:09:32  635 636	 1492654172	 337427834	 171867.
02:09:32  636 637	 1492654172	 482953971	 145526.
02:09:32  637 638	 1492654172	 644918129	 161964.
02:09:32  638 639	 1492654172	 778084555	 133166.
02:09:32  639 640	 1492654172	 943998023	 165914.
02:09:33  640 641	 1492654173	 109909271	 165911.
02:09:33  641 642	 1492654173	 271617214	 161708.
02:09:33  642 643	 1492654173	 409005471	 137388.
02:09:33  643 644	 1492654173	 570855163	 161850.
02:09:33  644 645	 1492654173	 736837468	 165982.
02:09:33  645 646	 1492654173	 899115100	 162278.
02:09:34  646 647	 1492654174	 65160641	 166045.
02:09:34  647 648	 1492654174	 227017778	 161858.
02:09:34  648 649	 1492654174	 364158868	 137141.
02:09:34  649 650	 1492654174	 525987667	 161828.
02:09:34  650 651	 1492654174	 692083177	 166096.
02:09:34  651 652	 1492654174	 854080816	 161998.
02:09:35  652 653	 1492654175	 19898662	 165817.
02:09:35  653 654	 1492654175	 152804564	 132906.
02:09:35  654 655	 1492654175	 318442424	 165638.
02:09:35  655 656	 1492654175	 480003163	 161561.
02:09:35  656 657	 1492654175	 641318832	 161316.
02:09:35  657 658	 1492654175	 806949441	 165630.
02:09:35  658 659	 1492654175	 940057510	 133108.
02:09:36  659 660	 1492654176	 101728990	 161672.
02:09:36  660 661	 1492654176	 267164764	 165436.
02:09:36  661 662	 1492654176	 428621915	 161457.
02:09:36  662 663	 1492654176	 594418563	 165796.
02:09:36  663 664	 1492654176	 755902619	 161484.
02:09:36  664 665	 1492654176	 888472105	 132570.
02:09:37  665 666	 1492654177	 54330869	 165859.
02:09:37  666 667	 1492654177	 216074803	 161744.
02:09:37  667 668	 1492654177	 381805648	 165730.
02:09:37  668 669	 1492654177	 514993142	 133188.
02:09:37  669 670	 1492654177	 681361101	 166368.
02:09:37  670 671	 1492654177	 843118549	 161757.
02:09:38  671 672	 1492654178	 9829422	 166711.
02:09:38  672 673	 1492654178	 168065228	 158236.
02:09:38  673 674	 1492654178	 329976485	 161911.
02:09:38  674 675	 1492654178	 496256142	 166280.
02:09:38  675 676	 1492654178	 662390499	 166134.
02:09:38  676 677	 1492654178	 795773550	 133383.
02:09:38  677 678	 1492654178	 957260311	 161487.
02:09:39  678 679	 1492654179	 123582072	 166322.
02:09:39  679 680	 1492654179	 285501295	 161919.
02:09:39  680 681	 1492654179	 451441903	 165941.
02:09:39  681 682	 1492654179	 584558830	 133117.
02:09:39  682 683	 1492654179	 750207131	 165648.
02:09:39  683 684	 1492654179	 912273760	 162067.
02:09:40  684 685	 1492654180	 78290433	 166016.
02:09:40  685 686	 1492654180	 240157585	 161867.
02:09:40  686 687	 1492654180	 377236566	 137079.
02:09:40  687 688	 1492654180	 539427807	 162192.
02:09:40  688 689	 1492654180	 705176981	 165749.
02:09:40  689 690	 1492654180	 867126095	 161949.
02:09:41  690 691	 1492654181	 32947828	 165822.
02:09:41  691 692	 1492654181	 166220329	 133272.
02:09:41  692 693	 1492654181	 332632428	 166412.
02:09:41  693 694	 1492654181	 494486438	 161854.
02:09:41  694 695	 1492654181	 660303591	 165817.
02:09:41  695 696	 1492654181	 826268395	 165965.
02:09:41  696 697	 1492654181	 988085995	 161818.
02:09:42  697 698	 1492654182	 121630897	 133545.
02:09:42  698 699	 1492654182	 287516917	 165886.
02:09:42  699 700	 1492654182	 453246429	 165729.
02:09:42  700 701	 1492654182	 615292754	 162047.
02:09:42  701 702	 1492654182	 777101453	 161808.
02:09:42  702 703	 1492654182	 914421400	 137320.
02:09:43  703 704	 1492654183	 76193947	 161773.
02:09:43  704 705	 1492654183	 242143128	 165949.
02:09:43  705 706	 1492654183	 408379802	 166237.
02:09:43  706 707	 1492654183	 570092116	 161712.
02:09:43  707 708	 1492654183	 732043410	 161951.
02:09:43  708 709	 1492654183	 869010937	 136968.
02:09:44  709 710	 1492654184	 31144913	 162134.
02:09:44  710 711	 1492654184	 197588432	 166443.
02:09:44  711 712	 1492654184	 360019395	 162431.
02:09:44  712 713	 1492654184	 526304538	 166285.
02:09:44  713 714	 1492654184	 688507956	 162204.
02:09:44  714 715	 1492654184	 854680418	 166172.
02:09:44  715 716	 1492654184	 987881423	 133201.
02:09:45  716 717	 1492654185	 149980056	 162099.
02:09:45  717 718	 1492654185	 316247451	 166267.
02:09:45  718 719	 1492654185	 482713733	 166467.
02:09:45  719 720	 1492654185	 644965132	 162251.
02:09:45  720 721	 1492654185	 811271127	 166306.
02:09:45  721 722	 1492654185	 973607506	 162336.
02:09:46  722 723	 1492654186	 139798732	 166192.
02:09:46  723 724	 1492654186	 301940273	 162141.
02:09:46  724 725	 1492654186	 439635384	 137695.
02:09:46  725 726	 1492654186	 601579607	 161944.
02:09:46  726 727	 1492654186	 763345683	 161766.
02:09:46  727 728	 1492654186	 929141703	 165796.
02:09:47  728 729	 1492654187	 91189043	 162048.
02:09:47  729 730	 1492654187	 257121345	 165932.
02:09:47  730 731	 1492654187	 419171706	 162051.
02:09:47  731 732	 1492654187	 585523861	 166352.
02:09:47  732 733	 1492654187	 747263082	 161739.
02:09:47  733 734	 1492654187	 909407138	 162144.
02:09:48  734 735	 1492654188	 75376383	 165969.
02:09:48  735 736	 1492654188	 237450181	 162074.
02:09:48  736 737	 1492654188	 403522562	 166072.
02:09:48  737 738	 1492654188	 536894378	 133372.
02:09:48  738 739	 1492654188	 698791316	 161897.
02:09:48  739 740	 1492654188	 864836493	 166045.
02:09:49  740 741	 1492654189	 30446460	 165610.
02:09:49  741 742	 1492654189	 188725780	 158280.
02:09:49  742 743	 1492654189	 350319921	 161594.
02:09:49  743 744	 1492654189	 515977866	 165658.
02:09:49  744 745	 1492654189	 649047381	 133069.
02:09:49  745 746	 1492654189	 810969988	 161923.
02:09:49  746 747	 1492654189	 976821570	 165851.
02:09:50  747 748	 1492654190	 142796009	 165975.
02:09:50  748 749	 1492654190	 304546191	 161750.
02:09:50  749 750	 1492654190	 466430358	 161884.
02:09:50  750 751	 1492654190	 603506985	 137077.
02:09:50  751 752	 1492654190	 765263034	 161756.
02:09:50  752 753	 1492654190	 931274857	 166012.
02:09:51  753 754	 1492654191	 93256651	 161981.
02:09:51  754 755	 1492654191	 258897851	 165642.
02:09:51  755 756	 1492654191	 420693240	 161795.
02:09:51  756 757	 1492654191	 586826654	 166133.
02:09:51  757 758	 1492654191	 748517375	 161691.
02:09:51  758 759	 1492654191	 881633395	 133116.
02:09:52  759 760	 1492654192	 47518187	 165885.
02:09:52  760 761	 1492654192	 209327957	 161810.
02:09:52  761 762	 1492654192	 375349186	 166021.
02:09:52  762 763	 1492654192	 537183339	 161834.
02:09:52  763 764	 1492654192	 702989362	 165806.
02:09:52  764 765	 1492654192	 864837449	 161848.
02:09:53  765 766	 1492654193	 31067791	 166231.
02:09:53  766 767	 1492654193	 164434921	 133367.
02:09:53  767 768	 1492654193	 326184821	 161750.
02:09:53  768 769	 1492654193	 492055728	 165871.
02:09:53  769 770	 1492654193	 653632350	 161576.
02:09:53  770 771	 1492654193	 819774195	 166142.
02:09:53  771 772	 1492654193	 986204852	 166431.
02:09:54  772 773	 1492654194	 148414516	 162209.
02:09:54  773 774	 1492654194	 314580742	 166167.
02:09:54  774 775	 1492654194	 447934712	 133353.
02:09:54  775 776	 1492654194	 610068399	 162134.
02:09:54  776 777	 1492654194	 776344155	 166276.
02:09:54  777 778	 1492654194	 938638712	 162294.
02:09:55  778 779	 1492654195	 104260466	 165622.
02:09:55  779 780	 1492654195	 265829445	 161569.
02:09:55  780 781	 1492654195	 431803984	 165975.
02:09:55  781 782	 1492654195	 593575489	 161771.
02:09:55  782 783	 1492654195	 730572406	 136997.
02:09:55  783 784	 1492654195	 892400480	 161828.
02:09:56  784 785	 1492654196	 53877849	 161478.
02:09:56  785 786	 1492654196	 219548426	 165670.
02:09:56  786 787	 1492654196	 385481318	 165933.
02:09:56  787 788	 1492654196	 547272767	 161792.
02:09:56  788 789	 1492654196	 680305914	 133033.
02:09:56  789 790	 1492654196	 845944024	 165638.
02:09:57  790 791	 1492654197	 7799793	 161856.
02:09:57  791 792	 1492654197	 173539518	 165739.
02:09:57  792 793	 1492654197	 335324679	 161785.
02:09:57  793 794	 1492654197	 496832653	 161508.
02:09:57  794 795	 1492654197	 633859677	 137027.
02:09:57  795 796	 1492654197	 795553102	 161694.
02:09:57  796 797	 1492654197	 961450937	 165898.
02:09:58  797 798	 1492654198	 123433575	 161982.
02:09:58  798 799	 1492654198	 285098844	 161666.
02:09:58  799 800	 1492654198	 451303853	 166205.
02:09:58  800 801	 1492654198	 613539040	 162235.
02:09:58  801 802	 1492654198	 779556808	 166018.
02:09:58  802 803	 1492654198	 912838454	 133281.
02:09:59  803 804	 1492654199	 78734767	 165897.
02:09:59  804 805	 1492654199	 240371921	 161637.
02:09:59  805 806	 1492654199	 406230918	 165859.
02:09:59  806 807	 1492654199	 568290150	 162059.
02:09:59  807 808	 1492654199	 734402568	 166112.
02:09:59  808 809	 1492654199	 895725441	 161323.
02:10:00  809 810	 1492654200	 57296520	 161571.
02:10:00  810 811	 1492654200	 194191116	 136895.
02:10:00  811 812	 1492654200	 355898799	 161708.
02:10:00  812 813	 1492654200	 517477089	 161578.
02:10:00  813 814	 1492654200	 683072957	 165596.
02:10:00  814 815	 1492654200	 844436129	 161363.
02:10:00  815 816	 1492654200	 981145878	 136710.
02:10:01  816 817	 1492654201	 142551819	 161406.
02:10:01  817 818	 1492654201	 308054027	 165502.
02:10:01  818 819	 1492654201	 469444841	 161391.
02:10:01  819 820	 1492654201	 635016200	 165571.
02:10:01  820 821	 1492654201	 796655278	 161639.
02:10:01  821 822	 1492654201	 929703821	 133049.
02:10:02  822 823	 1492654202	 95235991	 165532.
02:10:02  823 824	 1492654202	 257021737	 161786.
02:10:02  824 825	 1492654202	 422954167	 165932.
02:10:02  825 826	 1492654202	 584799999	 161846.
02:10:02  826 827	 1492654202	 746625273	 161825.
02:10:02  827 828	 1492654202	 912553304	 165928.
02:10:03  828 829	 1492654203	 74498528	 161945.
02:10:03  829 830	 1492654203	 240318838	 165821.
02:10:03  830 831	 1492654203	 373531130	 133212.
02:10:03  831 832	 1492654203	 535443888	 161913.
02:10:03  832 833	 1492654203	 701356287	 165912.
02:10:03  833 834	 1492654203	 862941720	 161585.
02:10:04  834 835	 1492654204	 24708214	 161767.
02:10:04  835 836	 1492654204	 190698557	 165990.
02:10:04  836 837	 1492654204	 352654106	 161956.
02:10:04  837 838	 1492654204	 518666047	 166012.
02:10:04  838 839	 1492654204	 680406867	 161741.
02:10:04  839 840	 1492654204	 846487001	 166080.
02:10:05  840 841	 1492654205	 8403884	 161917.
02:10:05  841 842	 1492654205	 141510689	 133107.
02:10:05  842 843	 1492654205	 307399257	 165888.
02:10:05  843 844	 1492654205	 469259733	 161861.
02:10:05  844 845	 1492654205	 635176319	 165916.
02:10:05  845 846	 1492654205	 797019746	 161844.
02:10:05  846 847	 1492654205	 958965289	 161945.
02:10:06  847 848	 1492654206	 124847701	 165883.
02:10:06  848 849	 1492654206	 290434144	 165586.
02:10:06  849 850	 1492654206	 427657276	 137223.
02:10:06  850 851	 1492654206	 589512622	 161855.
02:10:06  851 852	 1492654206	 755268172	 165756.
02:10:06  852 853	 1492654206	 917477189	 162209.
02:10:07  853 854	 1492654207	 79111933	 161635.
02:10:07  854 855	 1492654207	 244925276	 165813.
02:10:07  855 856	 1492654207	 406688306	 161763.
02:10:07  856 857	 1492654207	 572504949	 165817.
02:10:07  857 858	 1492654207	 705571177	 133066.
02:10:07  858 859	 1492654207	 867229020	 161658.
02:10:08  859 860	 1492654208	 33217830	 165989.
02:10:08  860 861	 1492654208	 194589644	 161371.
02:10:08  861 862	 1492654208	 360202319	 165613.
02:10:08  862 863	 1492654208	 521859649	 161657.
02:10:08  863 864	 1492654208	 687492107	 165633.
02:10:08  864 865	 1492654208	 820562024	 133070.
02:10:08  865 866	 1492654208	 982235375	 161673.
02:10:09  866 867	 1492654209	 148150273	 165915.
02:10:09  867 868	 1492654209	 309793018	 161643.
02:10:09  868 869	 1492654209	 475323774	 165531.
02:10:09  869 870	 1492654209	 636971727	 161648.
02:10:09  870 871	 1492654209	 774167905	 137196.
02:10:09  871 872	 1492654209	 936000799	 161833.
02:10:10  872 873	 1492654210	 97863235	 161862.
02:10:10  873 874	 1492654210	 263595434	 165732.
02:10:10  874 875	 1492654210	 425312604	 161718.
02:10:10  875 876	 1492654210	 591107486	 165794.
02:10:10  876 877	 1492654210	 757020903	 165914.
02:10:10  877 878	 1492654210	 889994900	 132974.
02:10:11  878 879	 1492654211	 51710365	 161715.
02:10:11  879 880	 1492654211	 217533636	 165823.
02:10:11  880 881	 1492654211	 379351138	 161818.
02:10:11  881 882	 1492654211	 545224536	 165873.
02:10:11  882 883	 1492654211	 707083809	 161860.
02:10:11  883 884	 1492654211	 873002306	 165918.
02:10:12  884 885	 1492654212	 6011995	 133010.
02:10:12  885 886	 1492654212	 167997537	 161985.
02:10:12  886 887	 1492654212	 333935729	 165939.
02:10:12  887 888	 1492654212	 495738195	 161802.
02:10:12  888 889	 1492654212	 661496440	 165758.
02:10:12  889 890	 1492654212	 823429633	 161933.
02:10:12  890 891	 1492654212	 985079500	 161650.
02:10:13  891 892	 1492654213	 122244042	 137165.
02:10:13  892 893	 1492654213	 284042057	 161798.
02:10:13  893 894	 1492654213	 450012823	 165971.
02:10:13  894 895	 1492654213	 612143982	 162131.
02:10:13  895 896	 1492654213	 773959342	 161815.
02:10:13  896 897	 1492654213	 939416649	 165457.
02:10:14  897 898	 1492654214	 100814569	 161398.
02:10:14  898 899	 1492654214	 262403419	 161589.
02:10:14  899 900	 1492654214	 399543987	 137141.
02:10:14  900 901	 1492654214	 561468652	 161924.
02:10:14  901 902	 1492654214	 727199514	 165731.
02:10:14  902 903	 1492654214	 888576903	 161378.
02:10:15  903 904	 1492654215	 53990615	 165413.
02:10:15  904 905	 1492654215	 215551941	 161562.
02:10:15  905 906	 1492654215	 348723185	 133171.
02:10:15  906 907	 1492654215	 514603248	 165880.
02:10:15  907 908	 1492654215	 676413125	 161810.
02:10:15  908 909	 1492654215	 842400842	 165988.
02:10:16  909 910	 1492654216	 4178980	 161778.
02:10:16  910 911	 1492654216	 165848737	 161669.
02:10:16  911 912	 1492654216	 331741513	 165893.
02:10:16  912 913	 1492654216	 493592746	 161852.
02:10:16  913 914	 1492654216	 655453714	 161861.
02:10:16  914 915	 1492654216	 792496920	 137043.
02:10:16  915 916	 1492654216	 954273932	 161777.
02:10:17  916 917	 1492654217	 120213176	 165939.
02:10:17  917 918	 1492654217	 281989606	 161776.
02:10:17  918 919	 1492654217	 447917614	 165928.
02:10:17  919 920	 1492654217	 609823051	 161906.
02:10:17  920 921	 1492654217	 771835996	 162013.
02:10:17  921 922	 1492654217	 937757121	 165921.
02:10:18  922 923	 1492654218	 99704725	 161948.
02:10:18  923 924	 1492654218	 265517887	 165813.
02:10:18  924 925	 1492654218	 398433021	 132915.
02:10:18  925 926	 1492654218	 564429704	 165996.
02:10:18  926 927	 1492654218	 726109088	 161680.
02:10:18  927 928	 1492654218	 887925060	 161816.
02:10:19  928 929	 1492654219	 53542717	 165617.
02:10:19  929 930	 1492654219	 215500330	 161958.
02:10:19  930 931	 1492654219	 377391085	 161891.
02:10:19  931 932	 1492654219	 543574597	 166183.
02:10:19  932 933	 1492654219	 705398458	 161824.
02:10:19  933 934	 1492654219	 842666258	 137268.
02:10:20  934 935	 1492654220	 4375655	 161709.
02:10:20  935 936	 1492654220	 166089906	 161715.
02:10:20  936 937	 1492654220	 331954647	 165864.
02:10:20  937 938	 1492654220	 493763256	 161809.
02:10:20  938 939	 1492654220	 655769444	 162006.
02:10:20  939 940	 1492654220	 821926206	 166157.
02:10:20  940 941	 1492654220	 983751178	 161825.
02:10:21  941 942	 1492654221	 149710246	 165959.
02:10:21  942 943	 1492654221	 282871019	 133161.
02:10:21  943 944	 1492654221	 448923938	 166053.
02:10:21  944 945	 1492654221	 611264766	 162341.
02:10:21  945 946	 1492654221	 773186643	 161921.
02:10:21  946 947	 1492654221	 938913494	 165727.
02:10:22  947 948	 1492654222	 100704426	 161791.
02:10:22  948 949	 1492654222	 266649019	 165945.
02:10:22  949 950	 1492654222	 428536345	 161887.
02:10:22  950 951	 1492654222	 566011963	 137476.
02:10:22  951 952	 1492654222	 727934923	 161923.
02:10:22  952 953	 1492654222	 890148789	 162214.
02:10:23  953 954	 1492654223	 56396663	 166247.
02:10:23  954 955	 1492654223	 223231531	 166836.
02:10:23  955 956	 1492654223	 381074276	 157842.
02:10:23  956 957	 1492654223	 543017516	 161943.
02:10:23  957 958	 1492654223	 709091298	 166074.
02:10:23  958 959	 1492654223	 842437772	 133347.
02:10:24  959 960	 1492654224	 8201647	 165763.
02:10:24  960 961	 1492654224	 169996985	 161796.
02:10:24  961 962	 1492654224	 335927461	 165930.
02:10:24  962 963	 1492654224	 497590518	 161663.
02:10:24  963 964	 1492654224	 663690184	 166100.
02:10:24  964 965	 1492654224	 797030477	 133340.
02:10:24  965 966	 1492654224	 962959133	 165929.
02:10:25  966 967	 1492654225	 125037741	 162079.
02:10:25  967 968	 1492654225	 291123915	 166086.
02:10:25  968 969	 1492654225	 453037487	 161913.
02:10:25  969 970	 1492654225	 619006832	 165970.
02:10:25  970 971	 1492654225	 781059933	 162053.
02:10:25  971 972	 1492654225	 914271505	 133211.
02:10:26  972 973	 1492654226	 79969844	 165699.
02:10:26  973 974	 1492654226	 241947663	 161977.
02:10:26  974 975	 1492654226	 408146005	 166199.
02:10:26  975 976	 1492654226	 570122587	 161976.
02:10:26  976 977	 1492654226	 736497147	 166375.
02:10:26  977 978	 1492654226	 898717796	 162221.
02:10:27  978 979	 1492654227	 36317623	 137600.
02:10:27  979 980	 1492654227	 197892771	 161575.
02:10:27  980 981	 1492654227	 364189218	 166296.
02:10:27  981 982	 1492654227	 526403391	 162214.
02:10:27  982 983	 1492654227	 692837608	 166435.
02:10:27  983 984	 1492654227	 854978873	 162141.
02:10:27  984 985	 1492654227	 992230227	 137251.
02:10:28  985 986	 1492654228	 154250921	 162021.
02:10:28  986 987	 1492654228	 320350046	 166099.
02:10:28  987 988	 1492654228	 481970186	 161620.
02:10:28  988 989	 1492654228	 647882836	 165913.
02:10:28  989 990	 1492654228	 809753925	 161871.
02:10:28  990 991	 1492654228	 975833632	 166079.
02:10:29  991 992	 1492654229	 137581253	 161748.
02:10:29  992 993	 1492654229	 299944459	 162363.
02:10:29  993 994	 1492654229	 433190422	 133246.
02:10:29  994 995	 1492654229	 598942842	 165753.
02:10:29  995 996	 1492654229	 760912970	 161970.
02:10:29  996 997	 1492654229	 926978685	 166065.
02:10:30  997 998	 1492654230	 88705704	 161727.
02:10:30  998 999	 1492654230	 250680458	 161975.
02:10:30  999 1000	 1492654230	 416724961	 166045.
02:10:30 1000 1001	 1492654230	 578574878	 161850.
02:10:30 1001 1002	 1492654230	 744437774	 165863.
02:10:30 1002 1003	 1492654230	 905888001	 161450.
02:10:31 1003 1004	 1492654231	 38768237	 132880.
02:10:31 1004 1005	 1492654231	 204823970	 166056.
02:10:31 1005 1006	 1492654231	 366160089	 161336.
02:10:31 1006 1007	 1492654231	 531938817	 165779.
02:10:31 1007 1008	 1492654231	 693959970	 162021.
02:10:31 1008 1009	 1492654231	 859959372	 165999.
02:10:32 1009 1010	 1492654232	 22070029	 162111.
02:10:32 1010 1011	 1492654232	 188291145	 166221.
02:10:32 1011 1012	 1492654232	 321573736	 133283.
02:10:32 1012 1013	 1492654232	 483584621	 162010.
02:10:32 1013 1014	 1492654232	 649540296	 165956.
02:10:32 1014 1015	 1492654232	 811275195	 161735.
02:10:32 1015 1016	 1492654232	 977219645	 165944.
02:10:33 1016 1017	 1492654233	 139402112	 162183.
02:10:33 1017 1018	 1492654233	 301335710	 161933.
02:10:33 1018 1019	 1492654233	 467348597	 166013.
02:10:33 1019 1020	 1492654233	 640412115	 173064.
02:10:33 1020 1021	 1492654233	 773273388	 132861.
02:10:33 1021 1022	 1492654233	 938710445	 165437.
02:10:34 1022 1023	 1492654234	 100604411	 161894.
02:10:34 1023 1024	 1492654234	 261858004	 161254.
02:10:34 1024 1025	 1492654234	 398713091	 136855.
02:10:34 1025 1026	 1492654234	 560690263	 161977.
02:10:34 1026 1027	 1492654234	 722011946	 161322.
02:10:34 1027 1028	 1492654234	 887644135	 165632.
02:10:35 1028 1029	 1492654235	 49268631	 161624.
02:10:35 1029 1030	 1492654235	 214856704	 165589.
02:10:35 1030 1031	 1492654235	 347779785	 132923.
02:10:35 1031 1032	 1492654235	 513406300	 165626.
02:10:35 1032 1033	 1492654235	 674811602	 161405.
02:10:35 1033 1034	 1492654235	 836047461	 161236.
02:10:35 1034 1035	 1492654235	 972969911	 136923.
02:10:36 1035 1036	 1492654236	 134292367	 161322.
02:10:36 1036 1037	 1492654236	 295922051	 161630.
02:10:36 1037 1038	 1492654236	 461288797	 165367.
02:10:36 1038 1039	 1492654236	 622765434	 161476.
02:10:36 1039 1040	 1492654236	 759820892	 137056.
02:10:36 1040 1041	 1492654236	 921241383	 161420.
02:10:37 1041 1042	 1492654237	 82579208	 161338.
02:10:37 1042 1043	 1492654237	 248136371	 165557.
02:10:37 1043 1044	 1492654237	 409445656	 161310.
02:10:37 1044 1045	 1492654237	 542633710	 133187.
02:10:37 1045 1046	 1492654237	 708253098	 165620.
02:10:37 1046 1047	 1492654237	 873717262	 165464.
02:10:38 1047 1048	 1492654238	 35748739	 162032.
02:10:38 1048 1049	 1492654238	 197425640	 161676.
02:10:38 1049 1050	 1492654238	 363199842	 165775.
02:10:38 1050 1051	 1492654238	 496430667	 133230.
02:10:38 1051 1052	 1492654238	 657991912	 161562.
02:10:38 1052 1053	 1492654238	 823709594	 165717.
02:10:38 1053 1054	 1492654238	 985453235	 161744.
02:10:39 1054 1055	 1492654239	 151793795	 166341.
02:10:39 1055 1056	 1492654239	 309460420	 157666.
02:10:39 1056 1057	 1492654239	 471062512	 161602.
02:10:39 1057 1058	 1492654239	 608042578	 136980.
02:10:39 1058 1059	 1492654239	 769677842	 161636.
02:10:39 1059 1060	 1492654239	 931273004	 161595.
02:10:40 1060 1061	 1492654240	 96978272	 165705.
02:10:40 1061 1062	 1492654240	 258381622	 161403.
02:10:40 1062 1063	 1492654240	 423965506	 165584.
02:10:40 1063 1064	 1492654240	 556896503	 132931.
02:10:40 1064 1065	 1492654240	 718523897	 161628.
02:10:40 1065 1066	 1492654240	 884227099	 165703.
02:10:41 1066 1067	 1492654241	 45958067	 161731.
02:10:41 1067 1068	 1492654241	 211786398	 165828.
02:10:41 1068 1069	 1492654241	 373193353	 161407.
02:10:41 1069 1070	 1492654241	 506064871	 132872.
02:10:41 1070 1071	 1492654241	 671853806	 165789.
02:10:41 1071 1072	 1492654241	 833358138	 161504.
02:10:41 1072 1073	 1492654241	 999414868	 166057.
02:10:42 1073 1074	 1492654242	 161516672	 162101.
02:10:42 1074 1075	 1492654242	 327540866	 166025.
02:10:42 1075 1076	 1492654242	 489741181	 162200.
02:10:42 1076 1077	 1492654242	 651652100	 161911.
02:10:42 1077 1078	 1492654242	 789050329	 137398.
02:10:42 1078 1079	 1492654242	 950974178	 161924.
02:10:43 1079 1080	 1492654243	 117011472	 166037.
02:10:43 1080 1081	 1492654243	 278441101	 161430.
02:10:43 1081 1082	 1492654243	 444342168	 165901.
02:10:43 1082 1083	 1492654243	 606299407	 161957.
02:10:43 1083 1084	 1492654243	 768572514	 162273.
02:10:43 1084 1085	 1492654243	 934314791	 165743.
02:10:44 1085 1086	 1492654244	 67289295	 132974.
02:10:44 1086 1087	 1492654244	 232524984	 165236.
02:10:44 1087 1088	 1492654244	 393979327	 161454.
02:10:44 1088 1089	 1492654244	 555659823	 161681.
02:10:44 1089 1090	 1492654244	 721310915	 165651.
02:10:44 1090 1091	 1492654244	 854177457	 132866.
02:10:45 1091 1092	 1492654245	 19759921	 165583.
02:10:45 1092 1093	 1492654245	 181241241	 161481.
02:10:45 1093 1094	 1492654245	 347148795	 165908.
02:10:45 1094 1095	 1492654245	 508696350	 161547.
02:10:45 1095 1096	 1492654245	 670085999	 161390.
02:10:45 1096 1097	 1492654245	 807409144	 137323.
02:10:45 1097 1098	 1492654245	 968864981	 161456.
02:10:46 1098 1099	 1492654246	 134658223	 165793.
02:10:46 1099 1100	 1492654246	 296446891	 161789.
02:10:46 1100 1101	 1492654246	 457911092	 161464.
02:10:46 1101 1102	 1492654246	 623885821	 165975.
02:10:46 1102 1103	 1492654246	 756927491	 133041.
02:10:46 1103 1104	 1492654246	 918050361	 161123.
02:10:47 1104 1105	 1492654247	 84163701	 166113.
02:10:47 1105 1106	 1492654247	 245867614	 161704.
02:10:47 1106 1107	 1492654247	 411679215	 165812.
02:10:47 1107 1108	 1492654247	 573262346	 161583.
02:10:47 1108 1109	 1492654247	 706288844	 133027.
02:10:47 1109 1110	 1492654247	 871558237	 165269.
02:10:48 1110 1111	 1492654248	 32938980	 161381.
02:10:48 1111 1112	 1492654248	 198814491	 165875.
02:10:48 1112 1113	 1492654248	 360967230	 162153.
02:10:48 1113 1114	 1492654248	 527407366	 166440.
02:10:48 1114 1115	 1492654248	 660626471	 133219.
02:10:48 1115 1116	 1492654248	 822903644	 162277.
02:10:48 1116 1117	 1492654248	 989038405	 166135.
02:10:49 1117 1118	 1492654249	 150699573	 161661.
02:10:49 1118 1119	 1492654249	 316827099	 166128.
02:10:49 1119 1120	 1492654249	 478992977	 162166.
02:10:49 1120 1121	 1492654249	 645052305	 166059.
02:10:49 1121 1122	 1492654249	 806790443	 161738.
02:10:49 1122 1123	 1492654249	 944184594	 137394.
02:10:50 1123 1124	 1492654250	 105396181	 161212.
02:10:50 1124 1125	 1492654250	 270976033	 165580.
02:10:50 1125 1126	 1492654250	 432773538	 161797.
02:10:50 1126 1127	 1492654250	 598482029	 165709.
02:10:50 1127 1128	 1492654250	 760150522	 161668.
02:10:50 1128 1129	 1492654250	 926027598	 165877.
02:10:51 1129 1130	 1492654251	 88004359	 161977.
02:10:51 1130 1131	 1492654251	 221082213	 133078.
02:10:51 1131 1132	 1492654251	 387132408	 166050.
02:10:51 1132 1133	 1492654251	 549096896	 161965.
02:10:51 1133 1134	 1492654251	 715170606	 166073.
02:10:51 1134 1135	 1492654251	 877073166	 161903.
02:10:52 1135 1136	 1492654252	 39096760	 162024.
02:10:52 1136 1137	 1492654252	 205340675	 166243.
02:10:52 1137 1138	 1492654252	 367438524	 162098.
02:10:52 1138 1139	 1492654252	 533491611	 166053.
02:10:52 1139 1140	 1492654252	 695726524	 162235.
02:10:52 1140 1141	 1492654252	 861541474	 165815.
02:10:52 1141 1142	 1492654252	 994876245	 133335.
02:10:53 1142 1143	 1492654253	 160817954	 165942.
02:10:53 1143 1144	 1492654253	 322706952	 161889.
02:10:53 1144 1145	 1492654253	 484671017	 161964.
02:10:53 1145 1146	 1492654253	 650760808	 166090.
02:10:53 1146 1147	 1492654253	 812149070	 161388.
02:10:53 1147 1148	 1492654253	 973480774	 161332.
02:10:54 1148 1149	 1492654254	 110639631	 137158.
02:10:54 1149 1150	 1492654254	 271955403	 161316.
02:10:54 1150 1151	 1492654254	 437662889	 165708.
02:10:54 1151 1152	 1492654254	 599234803	 161572.
02:10:54 1152 1153	 1492654254	 760734337	 161499.
02:10:54 1153 1154	 1492654254	 926361420	 165627.
02:10:55 1154 1155	 1492654255	 59661640	 133300.
02:10:55 1155 1156	 1492654255	 221565338	 161904.
02:10:55 1156 1157	 1492654255	 387520092	 165955.
02:10:55 1157 1158	 1492654255	 553549926	 166030.
02:10:55 1158 1159	 1492654255	 715747177	 162197.
02:10:55 1159 1160	 1492654255	 877159783	 161413.
02:10:56 1160 1161	 1492654256	 43891573	 166731.
02:10:56 1161 1162	 1492654256	 201644488	 157753.
02:10:56 1162 1163	 1492654256	 335147094	 133503.
02:10:56 1163 1164	 1492654256	 501518752	 166372.
02:10:56 1164 1165	 1492654256	 663646261	 162127.
02:10:56 1165 1166	 1492654256	 829675626	 166029.
02:10:56 1166 1167	 1492654256	 991679941	 162005.
02:10:57 1167 1168	 1492654257	 157372130	 165692.
02:10:57 1168 1169	 1492654257	 319155834	 161784.
02:10:57 1169 1170	 1492654257	 485082338	 165926.
02:10:57 1170 1171	 1492654257	 646845040	 161763.
02:10:57 1171 1172	 1492654257	 808732591	 161887.
02:10:57 1172 1173	 1492654257	 945911531	 137179.
02:10:58 1173 1174	 1492654258	 107535109	 161624.
02:10:58 1174 1175	 1492654258	 273676492	 166141.
02:10:58 1175 1176	 1492654258	 435682834	 162007.
02:10:58 1176 1177	 1492654258	 597399161	 161716.
02:10:58 1177 1178	 1492654258	 763607754	 166209.
02:10:58 1178 1179	 1492654258	 925190444	 161582.
02:10:59 1179 1180	 1492654259	 62204892	 137015.
02:10:59 1180 1181	 1492654259	 224179275	 161974.
02:10:59 1181 1182	 1492654259	 389820187	 165641.
02:10:59 1182 1183	 1492654259	 551300231	 161480.
02:10:59 1183 1184	 1492654259	 717097002	 165797.
02:10:59 1184 1185	 1492654259	 878915083	 161818.
02:11:00 1185 1186	 1492654260	 40427508	 161512.
02:11:00 1186 1187	 1492654260	 206483214	 166056.
02:11:00 1187 1188	 1492654260	 339715223	 133232.
02:11:00 1188 1189	 1492654260	 501605276	 161890.
02:11:00 1189 1190	 1492654260	 667643374	 166038.
02:11:00 1190 1191	 1492654260	 829547264	 161904.
02:11:00 1191 1192	 1492654260	 995341194	 165794.
02:11:01 1192 1193	 1492654261	 157144984	 161804.
02:11:01 1193 1194	 1492654261	 322935370	 165790.
02:11:01 1194 1195	 1492654261	 484622748	 161688.
02:11:01 1195 1196	 1492654261	 646284824	 161662.
02:11:01 1196 1197	 1492654261	 783465362	 137180.
02:11:01 1197 1198	 1492654261	 945126676	 161661.
02:11:02 1198 1199	 1492654262	 110892994	 165767.
02:11:02 1199 1200	 1492654262	 272387895	 161495.
02:11:02 1200 1201	 1492654262	 433877923	 161490.
02:11:02 1201 1202	 1492654262	 599656520	 165778.
02:11:02 1202 1203	 1492654262	 761154040	 161498.
02:11:02 1203 1204	 1492654262	 898152436	 136998.
02:11:03 1204 1205	 1492654263	 59584931	 161433.
02:11:03 1205 1206	 1492654263	 221370420	 161785.
02:11:03 1206 1207	 1492654263	 387350025	 165980.
02:11:03 1207 1208	 1492654263	 549008973	 161659.
02:11:03 1208 1209	 1492654263	 715096451	 166087.
02:11:03 1209 1210	 1492654263	 877092861	 161997.
02:11:04 1210 1211	 1492654264	 39200229	 162107.
02:11:04 1211 1212	 1492654264	 176290900	 137091.
02:11:04 1212 1213	 1492654264	 337973771	 161683.
02:11:04 1213 1214	 1492654264	 499730141	 161756.
02:11:04 1214 1215	 1492654264	 665522041	 165792.
02:11:04 1215 1216	 1492654264	 827579468	 162057.
02:11:04 1216 1217	 1492654264	 993274461	 165695.
02:11:05 1217 1218	 1492654265	 155095731	 161822.
02:11:05 1218 1219	 1492654265	 320891950	 165796.
02:11:05 1219 1220	 1492654265	 482925472	 162044.
02:11:05 1220 1221	 1492654265	 616324381	 133388.
02:11:05 1221 1222	 1492654265	 782077344	 165753.
02:11:05 1222 1223	 1492654265	 943899186	 161822.
02:11:06 1223 1224	 1492654266	 109627661	 165728.
02:11:06 1224 1225	 1492654266	 271211865	 161585.
02:11:06 1225 1226	 1492654266	 432777882	 161566.
02:11:06 1226 1227	 1492654266	 598500440	 165722.
02:11:06 1227 1228	 1492654266	 731228188	 132728.
02:11:06 1228 1229	 1492654266	 896962019	 165734.
02:11:07 1229 1230	 1492654267	 55569780	 158608.
02:11:07 1230 1231	 1492654267	 217274230	 161704.
02:11:07 1231 1232	 1492654267	 378810026	 161536.
02:11:07 1232 1233	 1492654267	 544622217	 165812.
02:11:07 1233 1234	 1492654267	 706604847	 161983.
02:11:07 1234 1235	 1492654267	 872534949	 165930.
02:11:08 1235 1236	 1492654268	 34281957	 161747.
02:11:08 1236 1237	 1492654268	 167088753	 132807.
02:11:08 1237 1238	 1492654268	 332654973	 165566.
02:11:08 1238 1239	 1492654268	 494297885	 161643.
02:11:08 1239 1240	 1492654268	 660197628	 165899.
02:11:08 1240 1241	 1492654268	 821731799	 161535.
02:11:08 1241 1242	 1492654268	 987201438	 165469.
02:11:09 1242 1243	 1492654269	 149056201	 161855.
02:11:09 1243 1244	 1492654269	 281863779	 132808.
02:11:09 1244 1245	 1492654269	 443266500	 161402.
02:11:09 1245 1246	 1492654269	 609055328	 165789.
02:11:09 1246 1247	 1492654269	 770559790	 161505.
02:11:09 1247 1248	 1492654269	 936512065	 165952.
02:11:10 1248 1249	 1492654270	 98204152	 161692.
02:11:10 1249 1250	 1492654270	 231135027	 132931.
02:11:10 1250 1251	 1492654270	 396815360	 165680.
02:11:10 1251 1252	 1492654270	 558526955	 161712.
02:11:10 1252 1253	 1492654270	 724118231	 165591.
02:11:10 1253 1254	 1492654270	 885354559	 161236.
02:11:11 1254 1255	 1492654271	 22570282	 137216.
02:11:11 1255 1256	 1492654271	 184303777	 161734.
02:11:11 1256 1257	 1492654271	 349656586	 165352.
02:11:11 1257 1258	 1492654271	 511054192	 161398.
02:11:11 1258 1259	 1492654271	 672732230	 161678.
02:11:11 1259 1260	 1492654271	 838196589	 165464.
02:11:11 1260 1261	 1492654271	 996359706	 158164.
02:11:12 1261 1262	 1492654272	 129366908	 133007.
02:11:12 1262 1263	 1492654272	 294818163	 165451.
02:11:12 1263 1264	 1492654272	 456474543	 161656.
02:11:12 1264 1265	 1492654272	 622222726	 165749.
02:11:12 1265 1266	 1492654272	 783551709	 161329.
02:11:12 1266 1267	 1492654272	 916483181	 132931.
02:11:13 1267 1268	 1492654273	 81737653	 165254.
02:11:13 1268 1269	 1492654273	 243365402	 161628.
02:11:13 1269 1270	 1492654273	 405044076	 161679.
02:11:13 1270 1271	 1492654273	 570524233	 165480.
02:11:13 1271 1272	 1492654273	 765257129	 194733.
02:11:13 1272 1273	 1492654273	 902427631	 137170.
02:11:14 1273 1274	 1492654274	 64715942	 162289.
02:11:14 1274 1275	 1492654274	 230228449	 165512.
02:11:14 1275 1276	 1492654274	 422152054	 191924.
02:11:14 1276 1277	 1492654274	 555375284	 133223.
02:11:14 1277 1278	 1492654274	 721185195	 165810.
02:11:14 1278 1279	 1492654274	 883116323	 161931.
02:11:15 1279 1280	 1492654275	 48804782	 165689.
02:11:15 1280 1281	 1492654275	 210281782	 161477.
02:11:15 1281 1282	 1492654275	 373245056	 162963.
02:11:15 1282 1283	 1492654275	 538809675	 165564.
02:11:15 1283 1284	 1492654275	 701555925	 162747.
02:11:15 1284 1285	 1492654275	 867351828	 165796.
02:11:16 1285 1286	 1492654276	 28931838	 161580.
02:11:16 1286 1287	 1492654276	 161651951	 132720.
02:11:16 1287 1288	 1492654276	 327051998	 165400.
02:11:16 1288 1289	 1492654276	 488354192	 161302.
02:11:16 1289 1290	 1492654276	 654150971	 165797.
02:11:16 1290 1291	 1492654276	 815909871	 161759.
02:11:16 1291 1292	 1492654276	 981556746	 165647.
02:11:17 1292 1293	 1492654277	 143192493	 161635.
02:11:17 1293 1294	 1492654277	 276113622	 132921.
02:11:17 1294 1295	 1492654277	 441792089	 165679.
02:11:17 1295 1296	 1492654277	 603689438	 161897.
02:11:17 1296 1297	 1492654277	 769337050	 165648.
02:11:17 1297 1298	 1492654277	 930941375	 161604.
02:11:18 1298 1299	 1492654278	 96640999	 165700.
02:11:18 1299 1300	 1492654278	 229266168	 132625.
02:11:18 1300 1301	 1492654278	 390746644	 161480.
02:11:18 1301 1302	 1492654278	 556167384	 165421.
02:11:18 1302 1303	 1492654278	 717703121	 161536.
02:11:18 1303 1304	 1492654278	 883311178	 165608.
02:11:19 1304 1305	 1492654279	 12216737	 128905.
02:11:19 1305 1306	 1492654279	 177456191	 165240.
02:11:19 1306 1307	 1492654279	 338579863	 161124.
02:11:19 1307 1308	 1492654279	 503955637	 165375.
02:11:19 1308 1309	 1492654279	 665360588	 161405.
02:11:19 1309 1310	 1492654279	 802391696	 137031.
02:11:19 1310 1311	 1492654279	 963749833	 161359.
02:11:20 1311 1312	 1492654280	 129407062	 165657.
02:11:20 1312 1313	 1492654280	 290958381	 161551.
02:11:20 1313 1314	 1492654280	 452285789	 161328.
02:11:20 1314 1315	 1492654280	 589337338	 137051.
02:11:20 1315 1316	 1492654280	 750679718	 161342.
02:11:20 1316 1317	 1492654280	 916294580	 165615.
02:11:21 1317 1318	 1492654281	 77867470	 161573.
02:11:21 1318 1319	 1492654281	 239323374	 161456.
02:11:21 1319 1320	 1492654281	 404920738	 165598.
02:11:21 1320 1321	 1492654281	 537682500	 132761.
02:11:21 1321 1322	 1492654281	 703341531	 165659.
02:11:21 1322 1323	 1492654281	 864929234	 161588.
02:11:22 1323 1324	 1492654282	 30501596	 165572.
02:11:22 1324 1325	 1492654282	 192511863	 162011.
02:11:22 1325 1326	 1492654282	 329621824	 137110.
02:11:22 1326 1327	 1492654282	 491374011	 161752.
02:11:22 1327 1328	 1492654282	 657384434	 166010.
02:11:22 1328 1329	 1492654282	 819008273	 161624.
02:11:22 1329 1330	 1492654282	 984771411	 165763.
02:11:23 1330 1331	 1492654283	 118019636	 133248.
02:11:23 1331 1332	 1492654283	 284725751	 166707.
02:11:23 1332 1333	 1492654283	 442743786	 158018.
02:11:23 1333 1334	 1492654283	 605001329	 162257.
02:11:23 1334 1335	 1492654283	 770918371	 165917.
02:11:23 1335 1336	 1492654283	 932681092	 161763.
02:11:24 1336 1337	 1492654284	 69860518	 137179.
02:11:24 1337 1338	 1492654284	 231717914	 161858.
02:11:24 1338 1339	 1492654284	 397623753	 165906.
02:11:24 1339 1340	 1492654284	 563254097	 165630.
02:11:24 1340 1341	 1492654284	 696271582	 133018.
02:11:24 1341 1342	 1492654284	 857808978	 161537.
02:11:25 1342 1343	 1492654285	 23623320	 165814.
02:11:25 1343 1344	 1492654285	 189706671	 166083.
02:11:25 1344 1345	 1492654285	 351679975	 161974.
02:11:25 1345 1346	 1492654285	 485102751	 133423.
02:11:25 1346 1347	 1492654285	 651234698	 166131.
02:11:25 1347 1348	 1492654285	 813143449	 161909.
02:11:25 1348 1349	 1492654285	 978758309	 165615.
02:11:26 1349 1350	 1492654286	 140886134	 162128.
02:11:26 1350 1351	 1492654286	 307158278	 166272.
02:11:26 1351 1352	 1492654286	 440587958	 133430.
02:11:26 1352 1353	 1492654286	 606816875	 166229.
02:11:26 1353 1354	 1492654286	 769159785	 162343.
02:11:26 1354 1355	 1492654286	 935531406	 166371.
02:11:27 1355 1356	 1492654287	 102036143	 166505.
02:11:27 1356 1357	 1492654287	 264237912	 162202.
02:11:27 1357 1358	 1492654287	 430394576	 166156.
02:11:27 1358 1359	 1492654287	 592469781	 162076.
02:11:27 1359 1360	 1492654287	 758042795	 165573.
02:11:27 1360 1361	 1492654287	 920103964	 162061.
02:11:28 1361 1362	 1492654288	 82002560	 161898.
02:11:28 1362 1363	 1492654288	 248110368	 166108.
02:11:28 1363 1364	 1492654288	 410646396	 162536.
02:11:28 1364 1365	 1492654288	 572661497	 162015.
02:11:28 1365 1366	 1492654288	 709847308	 137186.
02:11:28 1366 1367	 1492654288	 871780812	 161934.
02:11:29 1367 1368	 1492654289	 37781220	 166000.
02:11:29 1368 1369	 1492654289	 199617659	 161836.
02:11:29 1369 1370	 1492654289	 361560216	 161943.
02:11:29 1370 1371	 1492654289	 523641848	 162082.
02:11:29 1371 1372	 1492654289	 690359338	 166717.
02:11:29 1372 1373	 1492654289	 856468355	 166109.
02:11:30 1373 1374	 1492654290	 18374088	 161906.
02:11:30 1374 1375	 1492654290	 151238731	 132865.
02:11:30 1375 1376	 1492654290	 317295600	 166056.
02:11:30 1376 1377	 1492654290	 479396364	 162101.
02:11:30 1377 1378	 1492654290	 645207724	 165811.
02:11:30 1378 1379	 1492654290	 807315800	 162109.
02:11:30 1379 1380	 1492654290	 973689472	 166373.
02:11:31 1380 1381	 1492654291	 106839812	 133151.
02:11:31 1381 1382	 1492654291	 273042560	 166202.
02:11:31 1382 1383	 1492654291	 434765600	 161723.
02:11:31 1383 1384	 1492654291	 601125701	 166360.
02:11:31 1384 1385	 1492654291	 762925845	 161801.
02:11:31 1385 1386	 1492654291	 929201698	 166275.
02:11:32 1386 1387	 1492654292	 91290670	 162089.
02:11:32 1387 1388	 1492654292	 257197994	 165908.
02:11:32 1388 1389	 1492654292	 390564300	 133366.
02:11:32 1389 1390	 1492654292	 556522712	 165958.
02:11:32 1390 1391	 1492654292	 718218612	 161696.
02:11:32 1391 1392	 1492654292	 880252236	 162034.
02:11:33 1392 1393	 1492654293	 46587292	 166335.
02:11:33 1393 1394	 1492654293	 208393570	 161806.
02:11:33 1394 1395	 1492654293	 374430546	 166037.
02:11:33 1395 1396	 1492654293	 536373426	 161943.
02:11:33 1396 1397	 1492654293	 702568003	 166195.
02:11:33 1397 1398	 1492654293	 836129445	 133561.
02:11:33 1398 1399	 1492654294	 1795421	 165666.
02:11:34 1399 1400	 1492654294	 163828806	 162036.
02:11:34 1400 1401	 1492654294	 329841669	 166010.
02:11:34 1401 1402	 1492654294	 491702226	 161861.
02:11:34 1402 1403	 1492654294	 658188187	 166486.
02:11:34 1403 1404	 1492654294	 820437372	 162249.
02:11:34 1404 1405	 1492654294	 954124573	 133702.
02:11:35 1405 1406	 1492654295	 120374562	 166235.
02:11:35 1406 1407	 1492654295	 286351490	 165977.
02:11:35 1407 1408	 1492654295	 448716528	 162365.
02:11:35 1408 1409	 1492654295	 615038162	 166322.
02:11:35 1409 1410	 1492654295	 776783348	 161745.
02:11:35 1410 1411	 1492654295	 942867257	 166084.
02:11:36 1411 1412	 1492654296	 104941315	 162074.
02:11:36 1412 1413	 1492654296	 242648000	 137707.
02:11:36 1413 1414	 1492654296	 404465738	 161818.
02:11:36 1414 1415	 1492654296	 570614616	 166148.
02:11:36 1415 1416	 1492654296	 732762805	 162149.
02:11:36 1416 1417	 1492654296	 898749206	 165986.
02:11:37 1417 1418	 1492654297	 60743280	 161994.
02:11:37 1418 1419	 1492654297	 198114440	 137371.
02:11:37 1419 1420	 1492654297	 359726404	 161612.
02:11:37 1420 1421	 1492654297	 525831124	 166105.
02:11:37 1421 1422	 1492654297	 687957146	 162126.
02:11:37 1422 1423	 1492654297	 854044810	 166088.
02:11:38 1423 1424	 1492654298	 16465852	 162421.
02:11:38 1424 1425	 1492654298	 182218521	 165752.
02:11:38 1425 1426	 1492654298	 344127273	 161909.
02:11:38 1426 1427	 1492654298	 477306985	 133180.
02:11:38 1427 1428	 1492654298	 643439804	 166133.
02:11:38 1428 1429	 1492654298	 805037217	 161597.
02:11:38 1429 1430	 1492654298	 970971851	 165935.
02:11:39 1430 1431	 1492654299	 132855588	 161883.
02:11:39 1431 1432	 1492654299	 299196963	 166342.
02:11:39 1432 1433	 1492654299	 461165143	 161968.
02:11:39 1433 1434	 1492654299	 598510312	 137345.
02:11:39 1434 1435	 1492654299	 759882463	 161372.
02:11:39 1435 1436	 1492654299	 922108019	 162226.
02:11:40 1436 1437	 1492654300	 87833694	 165725.
02:11:40 1437 1438	 1492654300	 259952231	 172119.
02:11:40 1438 1439	 1492654300	 401338650	 141386.
02:11:40 1439 1440	 1492654300	 567327332	 165989.
02:11:40 1440 1441	 1492654300	 700316541	 132989.
02:11:40 1441 1442	 1492654300	 866430545	 166114.
02:11:41 1442 1443	 1492654301	 28630767	 162201.
02:11:41 1443 1444	 1492654301	 194698715	 166067.
02:11:41 1444 1445	 1492654301	 356905311	 162207.
02:11:41 1445 1446	 1492654301	 523081274	 166176.
02:11:41 1446 1447	 1492654301	 684887642	 161806.
02:11:41 1447 1448	 1492654301	 822164724	 137277.
02:11:41 1448 1449	 1492654301	 983973388	 161809.
02:11:42 1449 1450	 1492654302	 150139630	 166166.
02:11:42 1450 1451	 1492654302	 315856693	 165717.
02:11:42 1451 1452	 1492654302	 477505793	 161650.
02:11:42 1452 1453	 1492654302	 611193077	 133687.
02:11:42 1453 1454	 1492654302	 777179989	 165987.
02:11:42 1454 1455	 1492654302	 942925728	 165746.
02:11:43 1455 1456	 1492654303	 104783870	 161858.
02:11:43 1456 1457	 1492654303	 271047246	 166263.
02:11:43 1457 1458	 1492654303	 432770692	 161723.
02:11:43 1458 1459	 1492654303	 566125994	 133356.
02:11:43 1459 1460	 1492654303	 732168626	 166042.
02:11:43 1460 1461	 1492654303	 894027429	 161859.
02:11:44 1461 1462	 1492654304	 60349179	 166322.
02:11:44 1462 1463	 1492654304	 222724253	 162375.
02:11:44 1463 1464	 1492654304	 389365222	 166641.
02:11:44 1464 1465	 1492654304	 555795643	 166431.
02:11:44 1465 1466	 1492654304	 718209504	 162413.
02:11:44 1466 1467	 1492654304	 884492974	 166284.
02:11:45 1467 1468	 1492654305	 17953247	 133460.
02:11:45 1468 1469	 1492654305	 183891791	 165939.
02:11:45 1469 1470	 1492654305	 345984930	 162093.
02:11:45 1470 1471	 1492654305	 512008391	 166023.
02:11:45 1471 1472	 1492654305	 674096407	 162088.
02:11:45 1472 1473	 1492654305	 840083958	 165988.
02:11:45 1473 1474	 1492654305	 972949151	 132865.
02:11:46 1474 1475	 1492654306	 138841368	 165892.
02:11:46 1475 1476	 1492654306	 300660984	 161820.
02:11:46 1476 1477	 1492654306	 466601311	 165940.
02:11:46 1477 1478	 1492654306	 628613555	 162012.
02:11:46 1478 1479	 1492654306	 766026067	 137413.
02:11:46 1479 1480	 1492654306	 927971685	 161945.
02:11:47 1480 1481	 1492654307	 93923499	 165952.
02:11:47 1481 1482	 1492654307	 256094572	 162171.
02:11:47 1482 1483	 1492654307	 422003807	 165910.
02:11:47 1483 1484	 1492654307	 583759805	 161756.
02:11:47 1484 1485	 1492654307	 721123087	 137363.
02:11:47 1485 1486	 1492654307	 882818760	 161696.
02:11:48 1486 1487	 1492654308	 48463594	 165645.
02:11:48 1487 1488	 1492654308	 210879976	 162416.
02:11:48 1488 1489	 1492654308	 376900680	 166020.
02:11:48 1489 1490	 1492654308	 510405726	 133506.
02:11:48 1490 1491	 1492654308	 676339581	 165933.
02:11:48 1491 1492	 1492654308	 838520757	 162182.
02:11:49 1492 1493	 1492654309	 4266544	 165745.
02:11:49 1493 1494	 1492654309	 166223513	 161957.
02:11:49 1494 1495	 1492654309	 332542523	 166319.
02:11:49 1495 1496	 1492654309	 465761057	 133219.
02:11:49 1496 1497	 1492654309	 631959390	 166198.
02:11:49 1497 1498	 1492654309	 793912020	 161953.
02:11:49 1498 1499	 1492654309	 959991303	 166079.
02:11:50 1499 1500	 1492654310	 121568642	 161577.
02:11:50 1500 1501	 1492654310	 258946145	 137378.
02:11:50 1501 1502	 1492654310	 420787156	 161841.
02:11:50 1502 1503	 1492654310	 587736515	 166949.
02:11:50 1503 1504	 1492654310	 745325912	 157590.
02:11:50 1504 1505	 1492654310	 911415120	 166089.
02:11:51 1505 1506	 1492654311	 72882485	 161467.
02:11:51 1506 1507	 1492654311	 210186072	 137304.
02:11:51 1507 1508	 1492654311	 372341056	 162155.
02:11:51 1508 1509	 1492654311	 538203979	 165863.
02:11:51 1509 1510	 1492654311	 699956994	 161753.
02:11:51 1510 1511	 1492654311	 861621248	 161664.
02:11:52 1511 1512	 1492654312	 27513592	 165892.
02:11:52 1512 1513	 1492654312	 189197439	 161684.
02:11:52 1513 1514	 1492654312	 326442221	 137245.
02:11:52 1514 1515	 1492654312	 488295717	 161853.
02:11:52 1515 1516	 1492654312	 654175876	 165881.
02:11:52 1516 1517	 1492654312	 815912999	 161737.
02:11:52 1517 1518	 1492654312	 981647351	 165734.
02:11:53 1518 1519	 1492654313	 143533277	 161886.
02:11:53 1519 1520	 1492654313	 305110156	 161577.
02:11:53 1520 1521	 1492654313	 470843989	 165734.
02:11:53 1521 1522	 1492654313	 603837914	 132994.
02:11:53 1522 1523	 1492654313	 769661797	 165824.
02:11:53 1523 1524	 1492654313	 931153218	 161491.
02:11:54 1524 1525	 1492654314	 96735807	 165583.
02:11:54 1525 1526	 1492654314	 258303144	 161567.
02:11:54 1526 1527	 1492654314	 424180763	 165878.
02:11:54 1527 1528	 1492654314	 557320410	 133139.
02:11:54 1528 1529	 1492654314	 719307096	 161987.
02:11:54 1529 1530	 1492654314	 885052219	 165745.
02:11:55 1530 1531	 1492654315	 46905911	 161854.
02:11:55 1531 1532	 1492654315	 212535743	 165630.
02:11:55 1532 1533	 1492654315	 374581978	 162046.
02:11:55 1533 1534	 1492654315	 511384578	 136802.
02:11:55 1534 1535	 1492654315	 673207741	 161823.
02:11:55 1535 1536	 1492654315	 839002088	 165795.
02:11:55 1536 1537	 1492654316	 252811	 161251.
02:11:56 1537 1538	 1492654316	 161774211	 161521.
02:11:56 1538 1539	 1492654316	 320008678	 158234.
02:11:56 1539 1540	 1492654316	 456808461	 136800.
02:11:56 1540 1541	 1492654316	 618404849	 161597.
02:11:56 1541 1542	 1492654316	 784028914	 165624.
02:11:56 1542 1543	 1492654316	 945706803	 161678.
02:11:57 1543 1544	 1492654317	 111414260	 165707.
02:11:57 1544 1545	 1492654317	 244145746	 132732.
02:11:57 1545 1546	 1492654317	 409800316	 165654.
02:11:57 1546 1547	 1492654317	 571647252	 161847.
02:11:57 1547 1548	 1492654317	 737662202	 166015.
02:11:57 1548 1549	 1492654317	 899936350	 162274.
02:11:58 1549 1550	 1492654318	 66151627	 166215.
02:11:58 1550 1551	 1492654318	 199276355	 133125.
02:11:58 1551 1552	 1492654318	 361348296	 162072.
02:11:58 1552 1553	 1492654318	 526728013	 165380.
02:11:58 1553 1554	 1492654318	 688365469	 161637.
02:11:58 1554 1555	 1492654318	 853810924	 165446.
02:11:59 1555 1556	 1492654319	 15359932	 161549.
02:11:59 1556 1557	 1492654319	 181017943	 165658.
02:11:59 1557 1558	 1492654319	 313828762	 132811.
02:11:59 1558 1559	 1492654319	 475225709	 161396.
02:11:59 1559 1560	 1492654319	 640829192	 165604.
02:11:59 1560 1561	 1492654319	 802379363	 161550.
02:11:59 1561 1562	 1492654319	 963816488	 161437.
02:12:00 1562 1563	 1492654320	 100956385	 137140.
02:12:00 1563 1564	 1492654320	 262533265	 161577.
02:12:00 1564 1565	 1492654320	 428129700	 165596.
02:12:00 1565 1566	 1492654320	 589952577	 161823.
02:12:00 1566 1567	 1492654320	 755845051	 165893.
02:12:00 1567 1568	 1492654320	 917778383	 161933.
02:12:01 1568 1569	 1492654321	 79240558	 161462.
02:12:01 1569 1570	 1492654321	 216014416	 136774.
02:12:01 1570 1571	 1492654321	 377697795	 161684.
02:12:01 1571 1572	 1492654321	 543263492	 165565.
02:12:01 1572 1573	 1492654321	 704914387	 161651.
02:12:01 1573 1574	 1492654321	 866702292	 161788.
02:12:02 1574 1575	 1492654322	 32636217	 165934.
02:12:02 1575 1576	 1492654322	 194043207	 161407.
02:12:02 1576 1577	 1492654322	 326923124	 132880.
02:12:02 1577 1578	 1492654322	 492404403	 165481.
02:12:02 1578 1579	 1492654322	 653968148	 161564.
02:12:02 1579 1580	 1492654322	 819721063	 165753.
02:12:02 1580 1581	 1492654322	 981257010	 161536.
02:12:03 1581 1582	 1492654323	 147064710	 165807.
02:12:03 1582 1583	 1492654323	 280018815	 132955.
02:12:03 1583 1584	 1492654323	 441747901	 161729.
02:12:03 1584 1585	 1492654323	 607607069	 165859.
02:12:03 1585 1586	 1492654323	 769231815	 161625.
02:12:03 1586 1587	 1492654323	 935284405	 166052.
02:12:04 1587 1588	 1492654324	 97090460	 161806.
02:12:04 1588 1589	 1492654324	 258845129	 161755.
02:12:04 1589 1590	 1492654324	 395997540	 137152.
02:12:04 1590 1591	 1492654324	 557852481	 161855.
02:12:04 1591 1592	 1492654324	 723458261	 165606.
02:12:04 1592 1593	 1492654324	 885247397	 161789.
02:12:05 1593 1594	 1492654325	 46849250	 161602.
02:12:05 1594 1595	 1492654325	 212712813	 165864.
02:12:05 1595 1596	 1492654325	 374674584	 161961.
02:12:05 1596 1597	 1492654325	 507784989	 133111.
02:12:05 1597 1598	 1492654325	 673509329	 165724.
02:12:05 1598 1599	 1492654325	 835325981	 161817.
02:12:05 1599 1600	 1492654326	 1086244	 165760.
02:12:06 1600 1601	 1492654326	 162981895	 161896.
02:12:06 1601 1602	 1492654326	 324523914	 161542.
02:12:06 1602 1603	 1492654326	 490328206	 165804.
02:12:06 1603 1604	 1492654326	 652255227	 161927.
02:12:06 1604 1605	 1492654326	 785514218	 133259.
02:12:06 1605 1606	 1492654326	 951550399	 166036.
02:12:07 1606 1607	 1492654327	 117177922	 165628.
02:12:07 1607 1608	 1492654327	 278940121	 161762.
02:12:07 1608 1609	 1492654327	 440818489	 161878.
02:12:07 1609 1610	 1492654327	 606645255	 165827.
02:12:07 1610 1611	 1492654327	 768640803	 161996.
02:12:07 1611 1612	 1492654327	 934457712	 165817.
02:12:08 1612 1613	 1492654328	 67664133	 133206.
02:12:08 1613 1614	 1492654328	 229329948	 161666.
02:12:08 1614 1615	 1492654328	 395275514	 165945.
02:12:08 1615 1616	 1492654328	 557197095	 161922.
02:12:08 1616 1617	 1492654328	 723226196	 166029.
02:12:08 1617 1618	 1492654328	 884800940	 161575.
02:12:09 1618 1619	 1492654329	 50589659	 165788.
02:12:09 1619 1620	 1492654329	 212145196	 161556.
02:12:09 1620 1621	 1492654329	 345240362	 133095.
02:12:09 1621 1622	 1492654329	 511168920	 165929.
02:12:09 1622 1623	 1492654329	 672848122	 161679.
02:12:09 1623 1624	 1492654329	 838521656	 165673.
02:12:09 1624 1625	 1492654330	 152600	 161631.
02:12:10 1625 1626	 1492654330	 161982646	 161830.
02:12:10 1626 1627	 1492654330	 327842928	 165861.
02:12:10 1627 1628	 1492654330	 489709590	 161866.
02:12:10 1628 1629	 1492654330	 627255998	 137547.
02:12:10 1629 1630	 1492654330	 789018789	 161763.
02:12:10 1630 1631	 1492654330	 950849763	 161831.
02:12:11 1631 1632	 1492654331	 117001399	 166151.
02:12:11 1632 1633	 1492654331	 279222849	 162222.
02:12:11 1633 1634	 1492654331	 445364977	 166142.
02:12:11 1634 1635	 1492654331	 607391325	 162026.
02:12:11 1635 1636	 1492654331	 773324749	 165934.
02:12:11 1636 1637	 1492654331	 935324699	 161999.
02:12:12 1637 1638	 1492654332	 96983233	 161659.
02:12:12 1638 1639	 1492654332	 262804647	 165821.
02:12:12 1639 1640	 1492654332	 396195694	 133391.
02:12:12 1640 1641	 1492654332	 557997301	 161802.
02:12:12 1641 1642	 1492654332	 724148082	 166151.
02:12:12 1642 1643	 1492654332	 885903607	 161755.
02:12:13 1643 1644	 1492654333	 51963056	 166060.
02:12:13 1644 1645	 1492654333	 214391614	 162431.
02:12:13 1645 1646	 1492654333	 372280364	 157886.
02:12:13 1646 1647	 1492654333	 538211417	 165931.
02:12:13 1647 1648	 1492654333	 699794183	 161583.
02:12:13 1648 1649	 1492654333	 836921503	 137127.
02:12:13 1649 1650	 1492654333	 998537173	 161616.
02:12:14 1650 1651	 1492654334	 164465387	 165928.
02:12:14 1651 1652	 1492654334	 325968239	 161503.
02:12:14 1652 1653	 1492654334	 463258926	 137291.
02:12:14 1653 1654	 1492654334	 625334570	 162075.
02:12:14 1654 1655	 1492654334	 790941912	 165608.
02:12:14 1655 1656	 1492654334	 952623028	 161681.
02:12:15 1656 1657	 1492654335	 118551968	 165929.
02:12:15 1657 1658	 1492654335	 251523549	 132971.
02:12:15 1658 1659	 1492654335	 413469480	 161946.
02:12:15 1659 1660	 1492654335	 579268349	 165799.
02:12:15 1660 1661	 1492654335	 741056080	 161788.
02:12:15 1661 1662	 1492654335	 906420099	 165364.
02:12:16 1662 1663	 1492654336	 72074321	 165654.
02:12:16 1663 1664	 1492654336	 204877231	 132803.
02:12:16 1664 1665	 1492654336	 366719939	 161843.
02:12:16 1665 1666	 1492654336	 532732984	 166013.
02:12:16 1666 1667	 1492654336	 694553849	 161821.
02:12:16 1667 1668	 1492654336	 860627896	 166074.
02:12:17 1668 1669	 1492654337	 22345064	 161717.
02:12:17 1669 1670	 1492654337	 159837750	 137493.
02:12:17 1670 1671	 1492654337	 321521475	 161683.
02:12:17 1671 1672	 1492654337	 487791283	 166270.
02:12:17 1672 1673	 1492654337	 649773667	 161983.
02:12:17 1673 1674	 1492654337	 815669230	 165895.
02:12:17 1674 1675	 1492654337	 977317746	 161649.
02:12:18 1675 1676	 1492654338	 143296347	 165978.
02:12:18 1676 1677	 1492654338	 276422851	 133127.
02:12:18 1677 1678	 1492654338	 442847394	 166424.
02:12:18 1678 1679	 1492654338	 604923819	 162077.
02:12:18 1679 1680	 1492654338	 771033125	 166109.
02:12:18 1680 1681	 1492654338	 932931560	 161898.
02:12:19 1681 1682	 1492654339	 94782263	 161851.
02:12:19 1682 1683	 1492654339	 260409699	 165627.
02:12:19 1683 1684	 1492654339	 422153543	 161744.
02:12:19 1684 1685	 1492654339	 559703064	 137550.
02:12:19 1685 1686	 1492654339	 721464111	 161761.
02:12:19 1686 1687	 1492654339	 887549701	 166085.
02:12:20 1687 1688	 1492654340	 49203053	 161654.
02:12:20 1688 1689	 1492654340	 215543023	 166340.
02:12:20 1689 1690	 1492654340	 377647925	 162105.
02:12:20 1690 1691	 1492654340	 543765726	 166117.
02:12:20 1691 1692	 1492654340	 676787036	 133022.
02:12:20 1692 1693	 1492654340	 838352773	 161566.
02:12:20 1693 1694	 1492654341	 4190651	 165837.
02:12:21 1694 1695	 1492654341	 165942707	 161753.
02:12:21 1695 1696	 1492654341	 331812022	 165869.
02:12:21 1696 1697	 1492654341	 493646335	 161834.
02:12:21 1697 1698	 1492654341	 659508391	 165862.
02:12:21 1698 1699	 1492654341	 792616703	 133108.
02:12:21 1699 1700	 1492654341	 958631073	 166015.
02:12:22 1700 1701	 1492654342	 124931331	 166300.
02:12:22 1701 1702	 1492654342	 286752394	 161821.
02:12:22 1702 1703	 1492654342	 448597338	 161845.
02:12:22 1703 1704	 1492654342	 614854651	 166258.
02:12:22 1704 1705	 1492654342	 747922954	 133068.
02:12:22 1705 1706	 1492654342	 914105042	 166182.
02:12:23 1706 1707	 1492654343	 76047723	 161942.
02:12:23 1707 1708	 1492654343	 241928095	 165881.
02:12:23 1708 1709	 1492654343	 404065961	 162138.
02:12:23 1709 1710	 1492654343	 570101098	 166035.
02:12:23 1710 1711	 1492654343	 703152855	 133052.
02:12:23 1711 1712	 1492654343	 868598732	 165446.
02:12:24 1712 1713	 1492654344	 23383649	 154784.
02:12:24 1713 1714	 1492654344	 189161830	 165779.
02:12:24 1714 1715	 1492654344	 350746204	 161584.
02:12:24 1715 1716	 1492654344	 487749057	 137003.
02:12:24 1716 1717	 1492654344	 649710456	 161961.
02:12:24 1717 1718	 1492654344	 815826422	 166116.
02:12:24 1718 1719	 1492654344	 977391503	 161565.
02:12:25 1719 1720	 1492654345	 143149279	 165758.
02:12:25 1720 1721	 1492654345	 305142106	 161993.
02:12:25 1721 1722	 1492654345	 438466153	 133324.
02:12:25 1722 1723	 1492654345	 604222926	 165757.
02:12:25 1723 1724	 1492654345	 769794327	 165571.
02:12:25 1724 1725	 1492654345	 931290242	 161496.
02:12:26 1725 1726	 1492654346	 64013233	 132723.
02:12:26 1726 1727	 1492654346	 229570437	 165557.
02:12:26 1727 1728	 1492654346	 391143036	 161573.
02:12:26 1728 1729	 1492654346	 556707971	 165565.
02:12:26 1729 1730	 1492654346	 718860534	 162152.
02:12:26 1730 1731	 1492654346	 885074438	 166214.
02:12:27 1731 1732	 1492654347	 18266767	 133193.
02:12:27 1732 1733	 1492654347	 184627552	 166360.
02:12:27 1733 1734	 1492654347	 346465873	 161839.
02:12:27 1734 1735	 1492654347	 508519118	 162053.
02:12:27 1735 1736	 1492654347	 674691441	 166172.
02:12:27 1736 1737	 1492654347	 836849035	 162158.
02:12:27 1737 1738	 1492654348	 2603603	 165754.
02:12:28 1738 1739	 1492654348	 164709226	 162106.
02:12:28 1739 1740	 1492654348	 331109392	 166400.
02:12:28 1740 1741	 1492654348	 492847165	 161738.
02:12:28 1741 1742	 1492654348	 626032442	 133185.
02:12:28 1742 1743	 1492654348	 791937176	 165905.
02:12:28 1743 1744	 1492654348	 954444156	 162507.
02:12:29 1744 1745	 1492654349	 121080967	 166637.
02:12:29 1745 1746	 1492654349	 278974713	 157893.
02:12:29 1746 1747	 1492654349	 444972161	 165998.
02:12:29 1747 1748	 1492654349	 578357122	 133385.
02:12:29 1748 1749	 1492654349	 740217314	 161860.
02:12:29 1749 1750	 1492654349	 906065970	 165849.
02:12:30 1750 1751	 1492654350	 72097520	 166031.
02:12:30 1751 1752	 1492654350	 234397892	 162301.
02:12:30 1752 1753	 1492654350	 400138357	 165740.
02:12:30 1753 1754	 1492654350	 533442151	 133304.
02:12:30 1754 1755	 1492654350	 699243673	 165801.
02:12:30 1755 1756	 1492654350	 861228204	 161985.
02:12:31 1756 1757	 1492654351	 27550683	 166322.
02:12:31 1757 1758	 1492654351	 189625346	 162075.
02:12:31 1758 1759	 1492654351	 322747551	 133122.
02:12:31 1759 1760	 1492654351	 488886358	 166139.
02:12:31 1760 1761	 1492654351	 655106779	 166221.
02:12:31 1761 1762	 1492654351	 817290786	 162184.
02:12:31 1762 1763	 1492654351	 983166020	 165875.
02:12:32 1763 1764	 1492654352	 145073452	 161907.
02:12:32 1764 1765	 1492654352	 282219269	 137146.
02:12:32 1765 1766	 1492654352	 443803649	 161584.
02:12:32 1766 1767	 1492654352	 610140510	 166337.
02:12:32 1767 1768	 1492654352	 772153262	 162013.
02:12:32 1768 1769	 1492654352	 938172633	 166019.
02:12:33 1769 1770	 1492654353	 71338245	 133166.
02:12:33 1770 1771	 1492654353	 237474227	 166136.
02:12:33 1771 1772	 1492654353	 399567559	 162093.
02:12:33 1772 1773	 1492654353	 565961365	 166394.
02:12:33 1773 1774	 1492654353	 727672194	 161711.
02:12:33 1774 1775	 1492654353	 864969447	 137297.
02:12:34 1775 1776	 1492654354	 26611212	 161642.
02:12:34 1776 1777	 1492654354	 192756430	 166145.
02:12:34 1777 1778	 1492654354	 355023272	 162267.
02:12:34 1778 1779	 1492654354	 516794820	 161772.
02:12:34 1779 1780	 1492654354	 682853994	 166059.
02:12:34 1780 1781	 1492654354	 816191002	 133337.
02:12:34 1781 1782	 1492654354	 982282950	 166092.
02:12:35 1782 1783	 1492654355	 143676398	 161393.
02:12:35 1783 1784	 1492654355	 309571695	 165895.
02:12:35 1784 1785	 1492654355	 442571810	 133001.
02:12:35 1785 1786	 1492654355	 608715709	 166144.
02:12:35 1786 1787	 1492654355	 770547016	 161831.
02:12:35 1787 1788	 1492654355	 936265407	 165718.
02:12:36 1788 1789	 1492654356	 97961360	 161696.
02:12:36 1789 1790	 1492654356	 235198887	 137238.
02:12:36 1790 1791	 1492654356	 396740160	 161541.
02:12:36 1791 1792	 1492654356	 562586394	 165846.
02:12:36 1792 1793	 1492654356	 724420031	 161834.
02:12:36 1793 1794	 1492654356	 890395412	 165975.
02:12:37 1794 1795	 1492654357	 23841964	 133447.
02:12:37 1795 1796	 1492654357	 189390188	 165548.
02:12:37 1796 1797	 1492654357	 351152119	 161762.
02:12:37 1797 1798	 1492654357	 517413897	 166262.
02:12:37 1798 1799	 1492654357	 654675074	 137261.
02:12:37 1799 1800	 1492654357	 816815731	 162141.
02:12:37 1800 1801	 1492654357	 983049510	 166233.
02:12:38 1801 1802	 1492654358	 145230032	 162181.
02:12:38 1802 1803	 1492654358	 310883550	 165653.
02:12:38 1803 1804	 1492654358	 472952994	 162070.
02:12:38 1804 1805	 1492654358	 610289986	 137337.
02:12:38 1805 1806	 1492654358	 772318989	 162029.
02:12:38 1806 1807	 1492654358	 938385563	 166066.
02:12:39 1807 1808	 1492654359	 100081974	 161697.
02:12:39 1808 1809	 1492654359	 266198480	 166116.
02:12:39 1809 1810	 1492654359	 428397363	 162199.
02:12:39 1810 1811	 1492654359	 565780677	 137383.
02:12:39 1811 1812	 1492654359	 727674163	 161894.
02:12:39 1812 1813	 1492654359	 893664150	 165990.
02:12:40 1813 1814	 1492654360	 55562942	 161899.
02:12:40 1814 1815	 1492654360	 221593944	 166031.
02:12:40 1815 1816	 1492654360	 354740978	 133147.
02:12:40 1816 1817	 1492654360	 520394163	 165653.
02:12:40 1817 1818	 1492654360	 682494048	 162100.
02:12:40 1818 1819	 1492654360	 847874319	 165380.
02:12:41 1819 1820	 1492654361	 9848820	 161975.
02:12:41 1820 1821	 1492654361	 147038707	 137189.
02:12:41 1821 1822	 1492654361	 309178642	 162140.
02:12:41 1822 1823	 1492654361	 475253885	 166076.
02:12:41 1823 1824	 1492654361	 636732489	 161478.
02:12:41 1824 1825	 1492654361	 802717522	 165985.
02:12:41 1825 1826	 1492654361	 935676038	 132959.
02:12:42 1826 1827	 1492654362	 101856893	 166181.
02:12:42 1827 1828	 1492654362	 263964096	 162107.
02:12:42 1828 1829	 1492654362	 429966733	 166003.
02:12:42 1829 1830	 1492654362	 592258482	 162291.
02:12:42 1830 1831	 1492654362	 757979178	 165721.
02:12:42 1831 1832	 1492654362	 890950016	 132971.
02:12:43 1832 1833	 1492654363	 56915614	 165965.
02:12:43 1833 1834	 1492654363	 218742328	 161827.
02:12:43 1834 1835	 1492654363	 384651465	 165909.
02:12:43 1835 1836	 1492654363	 518142619	 133491.
02:12:43 1836 1837	 1492654363	 684023255	 165881.
02:12:43 1837 1838	 1492654363	 845775609	 161752.
02:12:44 1838 1839	 1492654364	 11587867	 165813.
02:12:44 1839 1840	 1492654364	 173411669	 161823.
02:12:44 1840 1841	 1492654364	 310361962	 136951.
02:12:44 1841 1842	 1492654364	 472220165	 161858.
02:12:44 1842 1843	 1492654364	 638418689	 166198.
02:12:44 1843 1844	 1492654364	 800332275	 161914.
02:12:44 1844 1845	 1492654364	 965983562	 165651.
02:12:45 1845 1846	 1492654365	 99532859	 133550.
02:12:45 1846 1847	 1492654365	 265312137	 165779.
02:12:45 1847 1848	 1492654365	 431165940	 165865.
02:12:45 1848 1849	 1492654365	 593043861	 161867.
02:12:45 1849 1850	 1492654365	 759017241	 165973.
02:12:45 1850 1851	 1492654365	 920993415	 161976.
02:12:46 1851 1852	 1492654366	 53955636	 132963.
02:12:46 1852 1853	 1492654366	 219290343	 165334.
02:12:46 1853 1854	 1492654366	 380896161	 161606.
02:12:46 1854 1855	 1492654366	 546702847	 165807.
02:12:46 1855 1856	 1492654366	 679604460	 132901.
02:12:46 1856 1857	 1492654366	 841175914	 161572.
02:12:47 1857 1858	 1492654367	 6513278	 165337.
02:12:47 1858 1859	 1492654367	 167759012	 161246.
02:12:47 1859 1860	 1492654367	 304655749	 136897.
02:12:47 1860 1861	 1492654367	 465904583	 161248.
02:12:47 1861 1862	 1492654367	 631509507	 165605.
02:12:47 1862 1863	 1492654367	 793088021	 161579.
02:12:47 1863 1864	 1492654367	 954480849	 161393.
02:12:48 1864 1865	 1492654368	 91660106	 137179.
02:12:48 1865 1866	 1492654368	 253301151	 161641.
02:12:48 1866 1867	 1492654368	 415086352	 161785.
02:12:48 1867 1868	 1492654368	 580896195	 165810.
02:12:48 1868 1869	 1492654368	 742459024	 161563.
02:12:48 1869 1870	 1492654368	 879543554	 137084.
02:12:49 1870 1871	 1492654369	 41037446	 161494.
02:12:49 1871 1872	 1492654369	 206350593	 165313.
02:12:49 1872 1873	 1492654369	 368125486	 161775.
02:12:49 1873 1874	 1492654369	 534046245	 165921.
02:12:49 1874 1875	 1492654369	 667305384	 133259.
02:12:49 1875 1876	 1492654369	 833155611	 165850.
02:12:49 1876 1877	 1492654369	 994823200	 161668.
02:12:50 1877 1878	 1492654370	 161084267	 166261.
02:12:50 1878 1879	 1492654370	 323331479	 162247.
02:12:50 1879 1880	 1492654370	 489578338	 166247.
02:12:50 1880 1881	 1492654370	 623082700	 133504.
02:12:50 1881 1882	 1492654370	 789195606	 166113.
02:12:50 1882 1883	 1492654370	 950984676	 161789.
02:12:51 1883 1884	 1492654371	 117189173	 166205.
02:12:51 1884 1885	 1492654371	 279492139	 162303.
02:12:51 1885 1886	 1492654371	 445782374	 166290.
