21:09:04    0 Step	 time(s)	 time(ns)	 delta(ms)
21:09:04    0 1	 1492722544	 837431161	 25649.
21:09:04    1 2	 1492722544	 974409964	 136979.
21:09:05    2 3	 1492722545	 136153403	 161743.
21:09:05    3 4	 1492722545	 302091355	 165938.
21:09:05    4 5	 1492722545	 463757317	 161666.
21:09:05    5 6	 1492722545	 629664744	 165907.
21:09:05    6 7	 1492722545	 791194205	 161530.
21:09:05    7 8	 1492722545	 924363929	 133170.
21:09:06    8 9	 1492722546	 90155232	 165791.
21:09:06    9 10	 1492722546	 251554053	 161399.
21:09:06   10 11	 1492722546	 417396569	 165842.
21:09:06   11 12	 1492722546	 579045135	 161649.
21:09:06   12 13	 1492722546	 740659232	 161614.
21:09:06   13 14	 1492722546	 877964876	 137306.
21:09:07   14 15	 1492722547	 39658651	 161693.
21:09:07   15 16	 1492722547	 205424728	 165766.
21:09:07   16 17	 1492722547	 366873268	 161449.
21:09:07   17 18	 1492722547	 532439963	 165567.
21:09:07   18 19	 1492722547	 694003797	 161564.
21:09:07   19 20	 1492722547	 831010957	 137007.
21:09:07   20 21	 1492722547	 992885818	 161875.
21:09:08   21 22	 1492722548	 158608909	 165723.
21:09:08   22 23	 1492722548	 320439293	 161830.
21:09:08   23 24	 1492722548	 482316482	 161877.
21:09:08   24 25	 1492722548	 648039670	 165723.
21:09:08   25 26	 1492722548	 809681257	 161642.
21:09:08   26 27	 1492722548	 975854474	 166173.
21:09:09   27 28	 1492722549	 137863712	 162009.
21:09:09   28 29	 1492722549	 270952271	 133089.
21:09:09   29 30	 1492722549	 437412050	 166460.
21:09:09   30 31	 1492722549	 603958577	 166546.
21:09:09   31 32	 1492722549	 766225895	 162268.
21:09:09   32 33	 1492722549	 928228017	 162002.
21:09:10   33 34	 1492722550	 94097551	 165869.
21:09:10   34 35	 1492722550	 256936688	 162839.
21:09:10   35 36	 1492722550	 414920035	 157984.
21:09:10   36 37	 1492722550	 580879044	 165959.
21:09:10   37 38	 1492722550	 742189322	 161310.
21:09:10   38 39	 1492722550	 908195890	 166007.
21:09:11   39 40	 1492722551	 69503644	 161307.
21:09:11   40 41	 1492722551	 202580247	 133077.
21:09:11   41 42	 1492722551	 368208429	 165628.
21:09:11   42 43	 1492722551	 529724984	 161517.
21:09:11   43 44	 1492722551	 691304325	 161579.
21:09:11   44 45	 1492722551	 857075534	 165771.
21:09:12   45 46	 1492722552	 18637061	 161562.
21:09:12   46 47	 1492722552	 155781606	 137145.
21:09:12   47 48	 1492722552	 317304777	 161522.
21:09:12   48 49	 1492722552	 478747085	 161443.
21:09:12   49 50	 1492722552	 644630495	 165883.
21:09:12   50 51	 1492722552	 806077013	 161447.
21:09:12   51 52	 1492722552	 971857833	 165781.
21:09:13   52 53	 1492722553	 133616677	 161758.
21:09:13   53 54	 1492722553	 270687140	 137071.
21:09:13   54 55	 1492722553	 432367318	 161680.
21:09:13   55 56	 1492722553	 598049520	 165682.
21:09:13   56 57	 1492722553	 759828293	 161779.
21:09:13   57 58	 1492722553	 925713848	 165886.
21:09:14   58 59	 1492722554	 58741497	 133027.
21:09:14   59 60	 1492722554	 220311510	 161570.
21:09:14   60 61	 1492722554	 385914928	 165604.
21:09:14   61 62	 1492722554	 547518416	 161603.
21:09:14   62 63	 1492722554	 713665323	 166147.
21:09:14   63 64	 1492722554	 875282381	 161617.
21:09:15   64 65	 1492722555	 8478539	 133196.
21:09:15   65 66	 1492722555	 174402043	 165924.
21:09:15   66 67	 1492722555	 336405213	 162003.
21:09:15   67 68	 1492722555	 502735713	 166330.
21:09:15   68 69	 1492722555	 664504422	 161769.
21:09:15   69 70	 1492722555	 830486589	 165982.
21:09:15   70 71	 1492722555	 964084555	 133598.
21:09:16   71 72	 1492722556	 130375091	 166291.
21:09:16   72 73	 1492722556	 292125929	 161751.
21:09:16   73 74	 1492722556	 457743193	 165617.
21:09:16   74 75	 1492722556	 619788884	 162046.
21:09:16   75 76	 1492722556	 785931800	 166143.
21:09:16   76 77	 1492722556	 918958540	 133026.
21:09:17   77 78	 1492722557	 84708656	 165750.
21:09:17   78 79	 1492722557	 246202114	 161494.
21:09:17   79 80	 1492722557	 407867252	 161665.
21:09:17   80 81	 1492722557	 573311798	 165444.
21:09:17   81 82	 1492722557	 734852476	 161541.
21:09:17   82 83	 1492722557	 871950485	 137098.
21:09:18   83 84	 1492722558	 33437298	 161487.
21:09:18   84 85	 1492722558	 198903754	 165466.
21:09:18   85 86	 1492722558	 360246104	 161343.
21:09:18   86 87	 1492722558	 521862216	 161616.
21:09:18   87 88	 1492722558	 658932904	 137071.
21:09:18   88 89	 1492722558	 820480772	 161547.
21:09:18   89 90	 1492722558	 982111913	 161632.
21:09:19   90 91	 1492722559	 147871687	 165759.
21:09:19   91 92	 1492722559	 309334142	 161463.
21:09:19   92 93	 1492722559	 470922239	 161588.
21:09:19   93 94	 1492722559	 607994668	 137072.
21:09:19   94 95	 1492722559	 769541220	 161547.
21:09:19   95 96	 1492722559	 935126448	 165585.
21:09:20   96 97	 1492722560	 96810079	 161684.
21:09:20   97 98	 1492722560	 262366964	 165557.
21:09:20   98 99	 1492722560	 423918316	 161551.
21:09:20   99 100	 1492722560	 589944445	 166026.
21:09:20  100 101	 1492722560	 722992981	 133049.
21:09:20  101 102	 1492722560	 884573937	 161581.
21:09:21  102 103	 1492722561	 50598654	 166024.
21:09:21  103 104	 1492722561	 216632884	 166035.
21:09:21  104 105	 1492722561	 378548607	 161915.
21:09:21  105 106	 1492722561	 540348894	 161801.
21:09:21  106 107	 1492722561	 677766905	 137418.
21:09:21  107 108	 1492722561	 839792405	 162025.
21:09:22  108 109	 1492722562	 5572854	 165781.
21:09:22  109 110	 1492722562	 167183722	 161610.
21:09:22  110 111	 1492722562	 333129859	 165947.
21:09:22  111 112	 1492722562	 466275181	 133145.
21:09:22  112 113	 1492722562	 632248384	 165973.
21:09:22  113 114	 1492722562	 794105928	 161858.
21:09:22  114 115	 1492722562	 959898461	 165792.
21:09:23  115 116	 1492722563	 121829758	 161931.
21:09:23  116 117	 1492722563	 254681722	 132852.
21:09:23  117 118	 1492722563	 420812514	 166131.
21:09:23  118 119	 1492722563	 582277520	 161465.
21:09:23  119 120	 1492722563	 747886900	 165610.
21:09:23  120 121	 1492722563	 909555662	 161668.
21:09:24  121 122	 1492722564	 75401644	 165846.
21:09:24  122 123	 1492722564	 208439307	 133038.
21:09:24  123 124	 1492722564	 370175733	 161736.
21:09:24  124 125	 1492722564	 536229947	 166055.
21:09:24  125 126	 1492722564	 698041897	 161812.
21:09:24  126 127	 1492722564	 863794332	 165752.
21:09:25  127 128	 1492722565	 25467241	 161673.
21:09:25  128 129	 1492722565	 191283281	 165816.
21:09:25  129 130	 1492722565	 353138165	 161855.
21:09:25  130 131	 1492722565	 515031372	 161893.
21:09:25  131 132	 1492722565	 680913660	 165882.
21:09:25  132 133	 1492722565	 814007489	 133094.
21:09:25  133 134	 1492722565	 975840644	 161833.
21:09:26  134 135	 1492722566	 141937819	 166098.
21:09:26  135 136	 1492722566	 304006295	 162068.
21:09:26  136 137	 1492722566	 470706012	 166700.
21:09:26  137 138	 1492722566	 632607313	 161901.
21:09:26  138 139	 1492722566	 798944345	 166337.
21:09:26  139 140	 1492722566	 960700305	 161756.
21:09:27  140 141	 1492722567	 128953154	 168253.
21:09:27  141 142	 1492722567	 274249439	 145296.
21:09:27  142 143	 1492722567	 436215559	 161966.
21:09:27  143 144	 1492722567	 602247022	 166032.
21:09:27  144 145	 1492722567	 763830802	 161584.
21:09:27  145 146	 1492722567	 900816813	 136986.
21:09:28  146 147	 1492722568	 62638460	 161821.
21:09:28  147 148	 1492722568	 224544146	 161906.
21:09:28  148 149	 1492722568	 390129833	 165586.
21:09:28  149 150	 1492722568	 551663644	 161533.
21:09:28  150 151	 1492722568	 717569826	 165907.
21:09:28  151 152	 1492722568	 879087140	 161517.
21:09:29  152 153	 1492722569	 16107214	 137020.
21:09:29  153 154	 1492722569	 177881753	 161774.
21:09:29  154 155	 1492722569	 339751439	 161870.
21:09:29  155 156	 1492722569	 505612154	 165861.
21:09:29  156 157	 1492722569	 667432504	 161820.
21:09:29  157 158	 1492722569	 833324893	 165893.
21:09:29  158 159	 1492722569	 995368578	 162043.
21:09:30  159 160	 1492722570	 161235287	 165867.
21:09:30  160 161	 1492722570	 294393404	 133158.
21:09:30  161 162	 1492722570	 456157293	 161764.
21:09:30  162 163	 1492722570	 621852436	 165695.
21:09:30  163 164	 1492722570	 783626499	 161774.
21:09:30  164 165	 1492722570	 949508361	 165882.
21:09:31  165 166	 1492722571	 111120808	 161612.
21:09:31  166 167	 1492722571	 276940788	 165820.
21:09:31  167 168	 1492722571	 438899091	 161959.
21:09:31  168 169	 1492722571	 571930937	 133032.
21:09:31  169 170	 1492722571	 737512856	 165582.
21:09:31  170 171	 1492722571	 899424664	 161911.
21:09:32  171 172	 1492722572	 65355691	 165931.
21:09:32  172 173	 1492722572	 227072784	 161717.
21:09:32  173 174	 1492722572	 364323818	 137251.
21:09:32  174 175	 1492722572	 526051395	 161728.
21:09:32  175 176	 1492722572	 688021446	 161970.
21:09:32  176 177	 1492722572	 854101433	 166080.
21:09:33  177 178	 1492722573	 15537593	 161436.
21:09:33  178 179	 1492722573	 181292462	 165755.
21:09:33  179 180	 1492722573	 314179453	 132887.
21:09:33  180 181	 1492722573	 479977038	 165798.
21:09:33  181 182	 1492722573	 641891972	 161915.
21:09:33  182 183	 1492722573	 803412031	 161520.
21:09:33  183 184	 1492722573	 969125765	 165713.
21:09:34  184 185	 1492722574	 130628435	 161503.
21:09:34  185 186	 1492722574	 263323040	 132695.
21:09:34  186 187	 1492722574	 428918802	 165595.
21:09:34  187 188	 1492722574	 590399198	 161481.
21:09:34  188 189	 1492722574	 755732052	 165333.
21:09:34  189 190	 1492722574	 888665538	 132933.
21:09:35  190 191	 1492722575	 54407134	 165742.
21:09:35  191 192	 1492722575	 215943395	 161536.
21:09:35  192 193	 1492722575	 381652945	 165710.
21:09:35  193 194	 1492722575	 543277515	 161624.
21:09:35  194 195	 1492722575	 680108888	 136832.
21:09:35  195 196	 1492722575	 841722493	 161613.
21:09:36  196 197	 1492722576	 3203851	 161482.
21:09:36  197 198	 1492722576	 168960505	 165756.
21:09:36  198 199	 1492722576	 330497323	 161537.
21:09:36  199 200	 1492722576	 496308992	 165812.
21:09:36  200 201	 1492722576	 629286579	 132977.
21:09:36  201 202	 1492722576	 790885051	 161599.
21:09:36  202 203	 1492722576	 956799259	 165914.
21:09:37  203 204	 1492722577	 122649219	 165850.
21:09:37  204 205	 1492722577	 284493912	 161845.
21:09:37  205 206	 1492722577	 450040977	 165547.
21:09:37  206 207	 1492722577	 611507061	 161466.
21:09:37  207 208	 1492722577	 743951877	 132445.
21:09:37  208 209	 1492722577	 909576220	 165624.
21:09:38  209 210	 1492722578	 71379759	 161803.
21:09:38  210 211	 1492722578	 237074196	 165695.
21:09:38  211 212	 1492722578	 370232929	 133159.
21:09:38  212 213	 1492722578	 536380039	 166147.
21:09:38  213 214	 1492722578	 697992150	 161612.
21:09:38  214 215	 1492722578	 863655387	 165663.
21:09:39  215 216	 1492722579	 25127567	 161472.
21:09:39  216 217	 1492722579	 162009288	 136882.
21:09:39  217 218	 1492722579	 323582236	 161573.
21:09:39  218 219	 1492722579	 489361669	 165779.
21:09:39  219 220	 1492722579	 651190307	 161829.
21:09:39  220 221	 1492722579	 812797872	 161608.
21:09:39  221 222	 1492722579	 978591965	 165794.
21:09:40  222 223	 1492722580	 140243331	 161651.
21:09:40  223 224	 1492722580	 306630698	 166387.
21:09:40  224 225	 1492722580	 468611468	 161981.
21:09:40  225 226	 1492722580	 601846306	 133235.
21:09:40  226 227	 1492722580	 767639710	 165793.
21:09:40  227 228	 1492722580	 933494819	 165856.
21:09:41  228 229	 1492722581	 95376774	 161881.
21:09:41  229 230	 1492722581	 257537810	 162162.
21:09:41  230 231	 1492722581	 423824697	 166286.
21:09:41  231 232	 1492722581	 585641220	 161817.
21:09:41  232 233	 1492722581	 751593628	 165952.
21:09:41  233 234	 1492722581	 913538146	 161945.
21:09:42  234 235	 1492722582	 79388706	 165850.
21:09:42  235 236	 1492722582	 241043760	 161655.
21:09:42  236 237	 1492722582	 374491411	 133448.
21:09:42  237 238	 1492722582	 540592872	 166102.
21:09:42  238 239	 1492722582	 702576488	 161983.
21:09:42  239 240	 1492722582	 868259769	 165683.
21:09:43  240 241	 1492722583	 30094676	 161835.
21:09:43  241 242	 1492722583	 191968313	 161874.
21:09:43  242 243	 1492722583	 357379288	 165411.
21:09:43  243 244	 1492722583	 519095533	 161716.
21:09:43  244 245	 1492722583	 656287076	 137192.
21:09:43  245 246	 1492722583	 817938325	 161651.
21:09:43  246 247	 1492722583	 984616916	 166679.
21:09:44  247 248	 1492722584	 142829675	 158212.
21:09:44  248 249	 1492722584	 308510838	 165682.
21:09:44  249 250	 1492722584	 470509067	 161998.
21:09:44  250 251	 1492722584	 636292060	 165783.
21:09:44  251 252	 1492722584	 769630271	 133338.
21:09:44  252 253	 1492722584	 935728905	 166099.
21:09:45  253 254	 1492722585	 97471612	 161742.
21:09:45  254 255	 1492722585	 263277477	 165806.
21:09:45  255 256	 1492722585	 424921550	 161644.
21:09:45  256 257	 1492722585	 586500262	 161579.
21:09:45  257 258	 1492722585	 719491325	 132991.
21:09:45  258 259	 1492722585	 885516634	 166025.
21:09:46  259 260	 1492722586	 47146244	 161630.
21:09:46  260 261	 1492722586	 212951746	 165805.
21:09:46  261 262	 1492722586	 374323837	 161373.
21:09:46  262 263	 1492722586	 540129130	 165805.
21:09:46  263 264	 1492722586	 673056899	 132928.
21:09:46  264 265	 1492722586	 838897521	 165840.
21:09:46  265 266	 1492722587	 722694	 161825.
21:09:47  266 267	 1492722587	 166467625	 165745.
21:09:47  267 268	 1492722587	 328283590	 161816.
21:09:47  268 269	 1492722587	 493960548	 165677.
21:09:47  269 270	 1492722587	 627282501	 133322.
21:09:47  270 271	 1492722587	 792893185	 165611.
21:09:47  271 272	 1492722587	 954452265	 161559.
21:09:48  272 273	 1492722588	 116318827	 161867.
21:09:48  273 274	 1492722588	 281980124	 165661.
21:09:48  274 275	 1492722588	 443667595	 161687.
21:09:48  275 276	 1492722588	 609447738	 165780.
21:09:48  276 277	 1492722588	 742702067	 133255.
21:09:48  277 278	 1492722588	 908609260	 165907.
21:09:49  278 279	 1492722589	 69947876	 161339.
21:09:49  279 280	 1492722589	 232023036	 162075.
21:09:49  280 281	 1492722589	 397780930	 165758.
21:09:49  281 282	 1492722589	 530520253	 132739.
21:09:49  282 283	 1492722589	 696434722	 165914.
21:09:49  283 284	 1492722589	 858492416	 162058.
21:09:50  284 285	 1492722590	 24614101	 166122.
21:09:50  285 286	 1492722590	 186617735	 162003.
21:09:50  286 287	 1492722590	 352659917	 166043.
21:09:50  287 288	 1492722590	 514277230	 161617.
21:09:50  288 289	 1492722590	 651017621	 136740.
21:09:50  289 290	 1492722590	 812479555	 161462.
21:09:50  290 291	 1492722590	 977865752	 165386.
21:09:51  291 292	 1492722591	 139399309	 161534.
21:09:51  292 293	 1492722591	 300761796	 161363.
21:09:51  293 294	 1492722591	 466408660	 165646.
21:09:51  294 295	 1492722591	 599376672	 132968.
21:09:51  295 296	 1492722591	 760911733	 161535.
21:09:51  296 297	 1492722591	 926485263	 165574.
21:09:52  297 298	 1492722592	 87766009	 161281.
21:09:52  298 299	 1492722592	 252934809	 165169.
21:09:52  299 300	 1492722592	 385742859	 132808.
21:09:52  300 301	 1492722592	 547291531	 161548.
21:09:52  301 302	 1492722592	 712948918	 165658.
21:09:52  302 303	 1492722592	 874942717	 161993.
21:09:53  303 304	 1492722593	 40518453	 165576.
21:09:53  304 305	 1492722593	 173617172	 133099.
21:09:53  305 306	 1492722593	 339228814	 165612.
21:09:53  306 307	 1492722593	 500950500	 161721.
21:09:53  307 308	 1492722593	 662435011	 161485.
21:09:53  308 309	 1492722593	 828079726	 165644.
21:09:53  309 310	 1492722593	 961037871	 132959.
21:09:54  310 311	 1492722594	 127030930	 165993.
21:09:54  311 312	 1492722594	 288998046	 161967.
21:09:54  312 313	 1492722594	 450970108	 161972.
21:09:54  313 314	 1492722594	 616757105	 165787.
21:09:54  314 315	 1492722594	 778656102	 161899.
21:09:54  315 316	 1492722594	 945064628	 166408.
21:09:55  316 317	 1492722595	 107127818	 162064.
21:09:55  317 318	 1492722595	 279144606	 172016.
21:09:55  318 319	 1492722595	 425022913	 145879.
21:09:55  319 320	 1492722595	 591364989	 166342.
21:09:55  320 321	 1492722595	 752965850	 161601.
21:09:55  321 322	 1492722595	 890057163	 137091.
21:09:56  322 323	 1492722596	 51709863	 161653.
21:09:56  323 324	 1492722596	 213480109	 161770.
21:09:56  324 325	 1492722596	 379409942	 165930.
21:09:56  325 326	 1492722596	 541154363	 161744.
21:09:56  326 327	 1492722596	 678255066	 137101.
21:09:56  327 328	 1492722596	 839875224	 161620.
21:09:57  328 329	 1492722597	 5451889	 165577.
21:09:57  329 330	 1492722597	 167313202	 161861.
21:09:57  330 331	 1492722597	 332754740	 165441.
21:09:57  331 332	 1492722597	 465663346	 132909.
21:09:57  332 333	 1492722597	 627143666	 161480.
21:09:57  333 334	 1492722597	 792482196	 165339.
21:09:57  334 335	 1492722597	 954273465	 161791.
21:09:58  335 336	 1492722598	 119933206	 165660.
21:09:58  336 337	 1492722598	 252832038	 132899.
21:09:58  337 338	 1492722598	 414157248	 161325.
21:09:58  338 339	 1492722598	 580081934	 165925.
21:09:58  339 340	 1492722598	 741852540	 161770.
21:09:58  340 341	 1492722598	 907449348	 165597.
21:09:59  341 342	 1492722599	 40261182	 132812.
21:09:59  342 343	 1492722599	 201989201	 161728.
21:09:59  343 344	 1492722599	 367885262	 165896.
21:09:59  344 345	 1492722599	 529491167	 161606.
21:09:59  345 346	 1492722599	 690697896	 161207.
21:09:59  346 347	 1492722599	 827748291	 137050.
21:09:59  347 348	 1492722599	 989266882	 161519.
21:10:00  348 349	 1492722600	 154928446	 165661.
21:10:00  349 350	 1492722600	 316615637	 161687.
21:10:00  350 351	 1492722600	 482456394	 165841.
21:10:00  351 352	 1492722600	 644303424	 161847.
21:10:00  352 353	 1492722600	 806359428	 162056.
21:10:00  353 354	 1492722600	 972544761	 166185.
21:10:01  354 355	 1492722601	 134075294	 161531.
21:10:01  355 356	 1492722601	 271069542	 136994.
21:10:01  356 357	 1492722601	 432797002	 161728.
21:10:01  357 358	 1492722601	 594615505	 161818.
21:10:01  358 359	 1492722601	 760503795	 165889.
21:10:01  359 360	 1492722601	 922239793	 161735.
21:10:02  360 361	 1492722602	 88073670	 165834.
21:10:02  361 362	 1492722602	 249883622	 161811.
21:10:02  362 363	 1492722602	 415592461	 165708.
21:10:02  363 364	 1492722602	 548726816	 133135.
21:10:02  364 365	 1492722602	 714610905	 165884.
21:10:02  365 366	 1492722602	 876409717	 161798.
21:10:03  366 367	 1492722603	 38231091	 161822.
21:10:03  367 368	 1492722603	 203914581	 165683.
21:10:03  368 369	 1492722603	 365641943	 161728.
21:10:03  369 370	 1492722603	 527401429	 161759.
21:10:03  370 371	 1492722603	 693166017	 165765.
21:10:03  371 372	 1492722603	 854892032	 161726.
21:10:03  372 373	 1492722603	 992078795	 137187.
21:10:04  373 374	 1492722604	 153858629	 161779.
21:10:04  374 375	 1492722604	 315725336	 161867.
21:10:04  375 376	 1492722604	 481385812	 165661.
21:10:04  376 377	 1492722604	 643096225	 161710.
21:10:04  377 378	 1492722604	 808770100	 165674.
21:10:04  378 379	 1492722604	 970621246	 161851.
21:10:05  379 380	 1492722605	 132465985	 161845.
21:10:05  380 381	 1492722605	 298562946	 166097.
21:10:05  381 382	 1492722605	 460576497	 162013.
21:10:05  382 383	 1492722605	 594048373	 133472.
21:10:05  383 384	 1492722605	 760105479	 166057.
21:10:05  384 385	 1492722605	 921986759	 161881.
21:10:06  385 386	 1492722606	 88115138	 166129.
21:10:06  386 387	 1492722606	 249927358	 161812.
21:10:06  387 388	 1492722606	 415846742	 165919.
21:10:06  388 389	 1492722606	 577712126	 161866.
21:10:06  389 390	 1492722606	 739628803	 161917.
21:10:06  390 391	 1492722606	 905673329	 166044.
21:10:07  391 392	 1492722607	 67716241	 162043.
21:10:07  392 393	 1492722607	 233715812	 166000.
21:10:07  393 394	 1492722607	 366773059	 133057.
21:10:07  394 395	 1492722607	 528674640	 161901.
21:10:07  395 396	 1492722607	 694305705	 165631.
21:10:07  396 397	 1492722607	 856150619	 161845.
21:10:08  397 398	 1492722608	 21903578	 165753.
21:10:08  398 399	 1492722608	 183625846	 161723.
21:10:08  399 400	 1492722608	 345436655	 161810.
21:10:08  400 401	 1492722608	 511341305	 165905.
21:10:08  401 402	 1492722608	 644580667	 133239.
21:10:08  402 403	 1492722608	 810418174	 165838.
21:10:08  403 404	 1492722608	 972075436	 161657.
21:10:09  404 405	 1492722609	 133789230	 161714.
21:10:09  405 406	 1492722609	 299452607	 165663.
21:10:09  406 407	 1492722609	 461139494	 161687.
21:10:09  407 408	 1492722609	 627142024	 166003.
21:10:09  408 409	 1492722609	 760244347	 133102.
21:10:09  409 410	 1492722609	 922102738	 161858.
21:10:10  410 411	 1492722610	 88214094	 166112.
21:10:10  411 412	 1492722610	 249909078	 161695.
21:10:10  412 413	 1492722610	 415730536	 165821.
21:10:10  413 414	 1492722610	 577441264	 161711.
21:10:10  414 415	 1492722610	 743194374	 165753.
21:10:10  415 416	 1492722610	 904999002	 161805.
21:10:11  416 417	 1492722611	 66879161	 161880.
21:10:11  417 418	 1492722611	 204002276	 137123.
21:10:11  418 419	 1492722611	 365802829	 161801.
21:10:11  419 420	 1492722611	 527439198	 161636.
21:10:11  420 421	 1492722611	 693047206	 165608.
21:10:11  421 422	 1492722611	 854532440	 161485.
21:10:12  422 423	 1492722612	 20532126	 166000.
21:10:12  423 424	 1492722612	 183003549	 162471.
21:10:12  424 425	 1492722612	 311707730	 128704.
21:10:12  425 426	 1492722612	 477336299	 165629.
21:10:12  426 427	 1492722612	 639126557	 161790.
21:10:12  427 428	 1492722612	 800483812	 161358.
21:10:12  428 429	 1492722612	 966068130	 165584.
21:10:13  429 430	 1492722613	 127941038	 161873.
21:10:13  430 431	 1492722613	 293697952	 165757.
21:10:13  431 432	 1492722613	 426774746	 133076.
21:10:13  432 433	 1492722613	 592593474	 165819.
21:10:13  433 434	 1492722613	 754137853	 161545.
21:10:13  434 435	 1492722613	 919857541	 165719.
21:10:14  435 436	 1492722614	 81440329	 161583.
21:10:14  436 437	 1492722614	 247146215	 165706.
21:10:14  437 438	 1492722614	 408651006	 161505.
21:10:14  438 439	 1492722614	 541879170	 133228.
21:10:14  439 440	 1492722614	 707679399	 165800.
21:10:14  440 441	 1492722614	 869405969	 161727.
21:10:15  441 442	 1492722615	 35447031	 166041.
21:10:15  442 443	 1492722615	 197180462	 161733.
21:10:15  443 444	 1492722615	 358941942	 161762.
21:10:15  444 445	 1492722615	 525070025	 166128.
21:10:15  445 446	 1492722615	 687121210	 162051.
21:10:15  446 447	 1492722615	 852900104	 165779.
21:10:16  447 448	 1492722616	 14950076	 162050.
21:10:16  448 449	 1492722616	 148149052	 133199.
21:10:16  449 450	 1492722616	 313679096	 165530.
21:10:16  450 451	 1492722616	 475275694	 161596.
21:10:16  451 452	 1492722616	 641125030	 165850.
21:10:16  452 453	 1492722616	 802757021	 161632.
21:10:16  453 454	 1492722616	 968357717	 165600.
21:10:17  454 455	 1492722617	 130164331	 161807.
21:10:17  455 456	 1492722617	 267539348	 137375.
21:10:17  456 457	 1492722617	 428989814	 161451.
21:10:17  457 458	 1492722617	 590641131	 161651.
21:10:17  458 459	 1492722617	 756712499	 166071.
21:10:17  459 460	 1492722617	 918004914	 161293.
21:10:18  460 461	 1492722618	 83558468	 165553.
21:10:18  461 462	 1492722618	 216592529	 133034.
21:10:18  462 463	 1492722618	 378041195	 161449.
21:10:18  463 464	 1492722618	 543629165	 165588.
21:10:18  464 465	 1492722618	 705216647	 161587.
21:10:18  465 466	 1492722618	 870740784	 165525.
21:10:19  466 467	 1492722619	 3616481	 132875.
21:10:19  467 468	 1492722619	 165287569	 161671.
21:10:19  468 469	 1492722619	 330652116	 165365.
21:10:19  469 470	 1492722619	 491787064	 161135.
21:10:19  470 471	 1492722619	 657199284	 165412.
21:10:19  471 472	 1492722619	 790186956	 132988.
21:10:19  472 473	 1492722619	 951520642	 161333.
21:10:20  473 474	 1492722620	 117130861	 165611.
21:10:20  474 475	 1492722620	 279122762	 161991.
21:10:20  475 476	 1492722620	 445172473	 166050.
21:10:20  476 477	 1492722620	 606577057	 161405.
21:10:20  477 478	 1492722620	 739579318	 133002.
21:10:20  478 479	 1492722620	 905106771	 165527.
21:10:21  479 480	 1492722621	 66643363	 161537.
21:10:21  480 481	 1492722621	 232483791	 165840.
21:10:21  481 482	 1492722621	 393942830	 161460.
21:10:21  482 483	 1492722621	 559680560	 165738.
21:10:21  483 484	 1492722621	 692848535	 133167.
21:10:21  484 485	 1492722621	 854672368	 161824.
21:10:22  485 486	 1492722622	 20262600	 165590.
21:10:22  486 487	 1492722622	 182047092	 161785.
21:10:22  487 488	 1492722622	 347910828	 165864.
21:10:22  488 489	 1492722622	 509775366	 161864.
21:10:22  489 490	 1492722622	 671766992	 161992.
21:10:22  490 491	 1492722622	 837747194	 165980.
21:10:22  491 492	 1492722622	 970668940	 132922.
21:10:23  492 493	 1492722623	 136507940	 165839.
21:10:23  493 494	 1492722623	 298228230	 161720.
21:10:23  494 495	 1492722623	 452491032	 154263.
21:10:23  495 496	 1492722623	 617970635	 165479.
21:10:23  496 497	 1492722623	 779277334	 161307.
21:10:23  497 498	 1492722623	 911579449	 132302.
21:10:24  498 499	 1492722624	 76973949	 165395.
21:10:24  499 500	 1492722624	 238525354	 161551.
21:10:24  500 501	 1492722624	 403930584	 165405.
21:10:24  501 502	 1492722624	 565425441	 161495.
21:10:24  502 503	 1492722624	 698290202	 132865.
21:10:24  503 504	 1492722624	 863837205	 165547.
21:10:25  504 505	 1492722625	 25486998	 161650.
21:10:25  505 506	 1492722625	 187091227	 161604.
21:10:25  506 507	 1492722625	 352920209	 165829.
21:10:25  507 508	 1492722625	 514163460	 161243.
21:10:25  508 509	 1492722625	 650826014	 136663.
21:10:25  509 510	 1492722625	 812279581	 161453.
21:10:25  510 511	 1492722625	 973490858	 161212.
21:10:26  511 512	 1492722626	 138917875	 165427.
21:10:26  512 513	 1492722626	 271719740	 132801.
21:10:26  513 514	 1492722626	 437194086	 165475.
21:10:26  514 515	 1492722626	 598378661	 161184.
21:10:26  515 516	 1492722626	 763597794	 165220.
21:10:26  516 517	 1492722626	 925150327	 161552.
21:10:27  517 518	 1492722627	 58214036	 133064.
21:10:27  518 519	 1492722627	 223831432	 165617.
21:10:27  519 520	 1492722627	 385333288	 161502.
21:10:27  520 521	 1492722627	 551210490	 165877.
21:10:27  521 522	 1492722627	 712611403	 161401.
21:10:27  522 523	 1492722627	 849222140	 136611.
21:10:28  523 524	 1492722628	 10977358	 161755.
21:10:28  524 525	 1492722628	 176932248	 165955.
21:10:28  525 526	 1492722628	 339109378	 162177.
21:10:28  526 527	 1492722628	 504991397	 165882.
21:10:28  527 528	 1492722628	 666853023	 161862.
21:10:28  528 529	 1492722628	 829069270	 162216.
21:10:28  529 530	 1492722628	 995092834	 166024.
21:10:29  530 531	 1492722629	 156941678	 161848.
21:10:29  531 532	 1492722629	 294384426	 137443.
21:10:29  532 533	 1492722629	 456564375	 162180.
21:10:29  533 534	 1492722629	 622893993	 166330.
21:10:29  534 535	 1492722629	 784377361	 161483.
21:10:29  535 536	 1492722629	 950261366	 165884.
21:10:30  536 537	 1492722630	 112249548	 161988.
21:10:30  537 538	 1492722630	 278457934	 166209.
21:10:30  538 539	 1492722630	 440128247	 161670.
21:10:30  539 540	 1492722630	 605804911	 165677.
21:10:30  540 541	 1492722630	 738811457	 133006.
21:10:30  541 542	 1492722630	 904331803	 165521.
21:10:31  542 543	 1492722631	 65896787	 161565.
21:10:31  543 544	 1492722631	 227565342	 161668.
21:10:31  544 545	 1492722631	 393465377	 165900.
21:10:31  545 546	 1492722631	 555447207	 161982.
21:10:31  546 547	 1492722631	 692802847	 137356.
21:10:31  547 548	 1492722631	 854755774	 161952.
21:10:32  548 549	 1492722632	 20829410	 166074.
21:10:32  549 550	 1492722632	 182998256	 162169.
21:10:32  550 551	 1492722632	 345220983	 162223.
21:10:32  551 552	 1492722632	 511289722	 166068.
21:10:32  552 553	 1492722632	 673204713	 161915.
21:10:32  553 554	 1492722632	 839321018	 166117.
21:10:32  554 555	 1492722633	 1277039	 161956.
21:10:33  555 556	 1492722633	 134315980	 133039.
21:10:33  556 557	 1492722633	 299955193	 165639.
21:10:33  557 558	 1492722633	 461110554	 161155.
21:10:33  558 559	 1492722633	 626738435	 165628.
21:10:33  559 560	 1492722633	 788132382	 161394.
21:10:33  560 561	 1492722633	 920859886	 132728.
21:10:34  561 562	 1492722634	 86667388	 165807.
21:10:34  562 563	 1492722634	 248245347	 161578.
21:10:34  563 564	 1492722634	 413816623	 165571.
21:10:34  564 565	 1492722634	 575319976	 161504.
21:10:34  565 566	 1492722634	 708236001	 132916.
21:10:34  566 567	 1492722634	 874005301	 165769.
21:10:35  567 568	 1492722635	 35895386	 161890.
21:10:35  568 569	 1492722635	 201723631	 165828.
21:10:35  569 570	 1492722635	 363693524	 161970.
21:10:35  570 571	 1492722635	 529673058	 165980.
21:10:35  571 572	 1492722635	 691552348	 161879.
21:10:35  572 573	 1492722635	 857256313	 165704.
21:10:35  573 574	 1492722635	 990435384	 133179.
21:10:36  574 575	 1492722636	 152262105	 161827.
21:10:36  575 576	 1492722636	 318254447	 165992.
21:10:36  576 577	 1492722636	 480054159	 161800.
21:10:36  577 578	 1492722636	 645788549	 165734.
21:10:36  578 579	 1492722636	 807233527	 161445.
21:10:36  579 580	 1492722636	 972596193	 165363.
21:10:37  580 581	 1492722637	 105682332	 133086.
21:10:37  581 582	 1492722637	 271299035	 165617.
21:10:37  582 583	 1492722637	 432619721	 161320.
21:10:37  583 584	 1492722637	 598417379	 165798.
21:10:37  584 585	 1492722637	 759547415	 161130.
21:10:37  585 586	 1492722637	 892413661	 132866.
21:10:38  586 587	 1492722638	 57839621	 165426.
21:10:38  587 588	 1492722638	 219264833	 161426.
21:10:38  588 589	 1492722638	 385000294	 165735.
21:10:38  589 590	 1492722638	 546349086	 161349.
21:10:38  590 591	 1492722638	 678750694	 132401.
21:10:38  591 592	 1492722638	 844337885	 165588.
21:10:39  592 593	 1492722639	 5558031	 161220.
21:10:39  593 594	 1492722639	 170995741	 165437.
21:10:39  594 595	 1492722639	 303820317	 132825.
21:10:39  595 596	 1492722639	 465246520	 161426.
21:10:39  596 597	 1492722639	 630749908	 165504.
21:10:39  597 598	 1492722639	 792406470	 161656.
21:10:39  598 599	 1492722639	 958264621	 165858.
21:10:40  599 600	 1492722640	 119717116	 161453.
21:10:40  600 601	 1492722640	 281841760	 162124.
21:10:40  601 602	 1492722640	 418779171	 136938.
21:10:40  602 603	 1492722640	 579952097	 161173.
21:10:40  603 604	 1492722640	 741302785	 161350.
21:10:40  604 605	 1492722640	 906161425	 164859.
21:10:41  605 606	 1492722641	 38954334	 132793.
21:10:41  606 607	 1492722641	 204700361	 165746.
21:10:41  607 608	 1492722641	 366069820	 161370.
21:10:41  608 609	 1492722641	 531488452	 165418.
21:10:41  609 610	 1492722641	 664227894	 132740.
21:10:41  610 611	 1492722641	 829385403	 165157.
21:10:41  611 612	 1492722641	 991032284	 161647.
21:10:42  612 613	 1492722642	 157062331	 166030.
21:10:42  613 614	 1492722642	 318554768	 161492.
21:10:42  614 615	 1492722642	 451285005	 132731.
21:10:42  615 616	 1492722642	 616794787	 165509.
21:10:42  616 617	 1492722642	 777929412	 161135.
21:10:42  617 618	 1492722642	 943561277	 165632.
21:10:43  618 619	 1492722643	 76291140	 132730.
21:10:43  619 620	 1492722643	 237336716	 161045.
21:10:43  620 621	 1492722643	 403077492	 165741.
21:10:43  621 622	 1492722643	 564192259	 161115.
21:10:43  622 623	 1492722643	 700806033	 136614.
21:10:43  623 624	 1492722643	 862079206	 161273.
21:10:44  624 625	 1492722644	 23201500	 161122.
21:10:44  625 626	 1492722644	 188655286	 165454.
21:10:44  626 627	 1492722644	 350581470	 161926.
21:10:44  627 628	 1492722644	 487207338	 136626.
21:10:44  628 629	 1492722644	 648508619	 161301.
21:10:44  629 630	 1492722644	 810306243	 161798.
21:10:44  630 631	 1492722644	 976103129	 165797.
21:10:45  631 632	 1492722645	 137822588	 161719.
21:10:45  632 633	 1492722645	 303852108	 166030.
21:10:45  633 634	 1492722645	 436933025	 133081.
21:10:45  634 635	 1492722645	 598963201	 162030.
21:10:45  635 636	 1492722645	 764963623	 166000.
21:10:45  636 637	 1492722645	 927346073	 162383.
21:10:46  637 638	 1492722646	 93262622	 165916.
21:10:46  638 639	 1492722646	 255198024	 161936.
21:10:46  639 640	 1492722646	 421440313	 166242.
21:10:46  640 641	 1492722646	 583476896	 162037.
21:10:46  641 642	 1492722646	 749587714	 166110.
21:10:46  642 643	 1492722646	 911509286	 161922.
21:10:47  643 644	 1492722647	 73411006	 161902.
21:10:47  644 645	 1492722647	 239837845	 166427.
21:10:47  645 646	 1492722647	 401560866	 161723.
21:10:47  646 647	 1492722647	 538404877	 136844.
21:10:47  647 648	 1492722647	 700145162	 161740.
21:10:47  648 649	 1492722647	 865418624	 165273.
21:10:48  649 650	 1492722648	 26798130	 161380.
21:10:48  650 651	 1492722648	 188522149	 161724.
21:10:48  651 652	 1492722648	 325430597	 136908.
21:10:48  652 653	 1492722648	 486623876	 161194.
21:10:48  653 654	 1492722648	 648357634	 161733.
21:10:48  654 655	 1492722648	 813891520	 165534.
21:10:48  655 656	 1492722648	 975236995	 161346.
21:10:49  656 657	 1492722649	 112305815	 137069.
21:10:49  657 658	 1492722649	 273726876	 161421.
21:10:49  658 659	 1492722649	 435260823	 161534.
21:10:49  659 660	 1492722649	 600776252	 165515.
21:10:49  660 661	 1492722649	 733417809	 132642.
21:10:49  661 662	 1492722649	 899084088	 165666.
21:10:50  662 663	 1492722650	 60560411	 161476.
21:10:50  663 664	 1492722650	 221900432	 161340.
21:10:50  664 665	 1492722650	 387665830	 165766.
21:10:50  665 666	 1492722650	 520358887	 132693.
21:10:50  666 667	 1492722650	 685984960	 165626.
21:10:50  667 668	 1492722650	 847736358	 161751.
21:10:51  668 669	 1492722651	 13008708	 165272.
21:10:51  669 670	 1492722651	 174450703	 161442.
21:10:51  670 671	 1492722651	 307406196	 132956.
21:10:51  671 672	 1492722651	 472635616	 165229.
21:10:51  672 673	 1492722651	 634090697	 161455.
21:10:51  673 674	 1492722651	 795783837	 161694.
21:10:51  674 675	 1492722651	 961428453	 165644.
21:10:52  675 676	 1492722652	 122881572	 161453.
21:10:52  676 677	 1492722652	 255785345	 132904.
21:10:52  677 678	 1492722652	 420887827	 165103.
21:10:52  678 679	 1492722652	 582314282	 161426.
21:10:52  679 680	 1492722652	 747787035	 165473.
21:10:52  680 681	 1492722652	 880434413	 132647.
21:10:53  681 682	 1492722653	 41859679	 161425.
21:10:53  682 683	 1492722653	 207049711	 165190.
21:10:53  683 684	 1492722653	 368334033	 161285.
21:10:53  684 685	 1492722653	 505575947	 137242.
21:10:53  685 686	 1492722653	 667041314	 161465.
21:10:53  686 687	 1492722653	 832345409	 165304.
21:10:53  687 688	 1492722653	 993889190	 161544.
21:10:54  688 689	 1492722654	 155185534	 161296.
21:10:54  689 690	 1492722654	 291913146	 136728.
21:10:54  690 691	 1492722654	 453446145	 161533.
21:10:54  691 692	 1492722654	 614525432	 161079.
21:10:54  692 693	 1492722654	 780109926	 165585.
21:10:54  693 694	 1492722654	 913146715	 133036.
21:10:55  694 695	 1492722655	 78715716	 165569.
21:10:55  695 696	 1492722655	 240066759	 161351.
21:10:55  696 697	 1492722655	 405548175	 165482.
21:10:55  697 698	 1492722655	 567000423	 161452.
21:10:55  698 699	 1492722655	 699858822	 132859.
21:10:55  699 700	 1492722655	 865230229	 165371.
21:10:56  700 701	 1492722656	 26512887	 161283.
21:10:56  701 702	 1492722656	 187922476	 161409.
21:10:56  702 703	 1492722656	 324473437	 136551.
21:10:56  703 704	 1492722656	 485766819	 161294.
21:10:56  704 705	 1492722656	 651656862	 165890.
21:10:56  705 706	 1492722656	 812740850	 161084.
21:10:56  706 707	 1492722656	 974267243	 161526.
21:10:57  707 708	 1492722657	 107162045	 132895.
21:10:57  708 709	 1492722657	 272322392	 165160.
21:10:57  709 710	 1492722657	 433508857	 161187.
21:10:57  710 711	 1492722657	 595041474	 161532.
21:10:57  711 712	 1492722657	 731902004	 136861.
21:10:57  712 713	 1492722657	 893501027	 161599.
21:10:58  713 714	 1492722658	 55307195	 161806.
21:10:58  714 715	 1492722658	 221048874	 165742.
21:10:58  715 716	 1492722658	 382576592	 161527.
21:10:58  716 717	 1492722658	 548455521	 165879.
21:10:58  717 718	 1492722658	 681691118	 133236.
21:10:58  718 719	 1492722658	 847728018	 166037.
21:10:59  719 720	 1492722659	 9342334	 161614.
21:10:59  720 721	 1492722659	 174835275	 165493.
21:10:59  721 722	 1492722659	 336209665	 161374.
21:10:59  722 723	 1492722659	 469083273	 132874.
21:10:59  723 724	 1492722659	 634434252	 165351.
21:10:59  724 725	 1492722659	 796068223	 161634.
21:10:59  725 726	 1492722659	 957402730	 161334.
21:11:00  726 727	 1492722660	 123037332	 165635.
21:11:00  727 728	 1492722660	 280847488	 157810.
21:11:00  728 729	 1492722660	 417699722	 136852.
21:11:00  729 730	 1492722660	 579043675	 161344.
21:11:00  730 731	 1492722660	 744536005	 165493.
21:11:00  731 732	 1492722660	 906468428	 161932.
21:11:01  732 733	 1492722661	 71950033	 165482.
21:11:01  733 734	 1492722661	 204855246	 132905.
21:11:01  734 735	 1492722661	 366656227	 161801.
21:11:01  735 736	 1492722661	 532448643	 165792.
21:11:01  736 737	 1492722661	 693991861	 161544.
21:11:01  737 738	 1492722661	 859759552	 165767.
21:11:02  738 739	 1492722662	 21622792	 161864.
21:11:02  739 740	 1492722662	 158677293	 137054.
21:11:02  740 741	 1492722662	 320175327	 161498.
21:11:02  741 742	 1492722662	 485702565	 165527.
21:11:02  742 743	 1492722662	 647089477	 161387.
21:11:02  743 744	 1492722662	 808456640	 161367.
21:11:02  744 745	 1492722662	 945410835	 136955.
21:11:03  745 746	 1492722663	 107072486	 161661.
21:11:03  746 747	 1492722663	 268619035	 161547.
21:11:03  747 748	 1492722663	 434416540	 165797.
21:11:03  748 749	 1492722663	 596013097	 161597.
21:11:03  749 750	 1492722663	 761792545	 165779.
21:11:03  750 751	 1492722663	 894777543	 132985.
21:11:04  751 752	 1492722664	 60472829	 165696.
21:11:04  752 753	 1492722664	 221898440	 161425.
21:11:04  753 754	 1492722664	 383529834	 161632.
21:11:04  754 755	 1492722664	 549294705	 165764.
21:11:04  755 756	 1492722664	 711024014	 161730.
21:11:04  756 757	 1492722664	 848187750	 137163.
21:11:05  757 758	 1492722665	 10178815	 161992.
21:11:05  758 759	 1492722665	 175935148	 165756.
21:11:05  759 760	 1492722665	 337443915	 161509.
21:11:05  760 761	 1492722665	 498822748	 161378.
21:11:05  761 762	 1492722665	 660458852	 161637.
21:11:05  762 763	 1492722665	 797453688	 136994.
21:11:05  763 764	 1492722665	 958967985	 161515.
21:11:06  764 765	 1492722666	 124666042	 165698.
21:11:06  765 766	 1492722666	 286111672	 161445.
21:11:06  766 767	 1492722666	 451560720	 165449.
21:11:06  767 768	 1492722666	 613041151	 161481.
21:11:06  768 769	 1492722666	 746000835	 132960.
21:11:06  769 770	 1492722666	 911782985	 165782.
21:11:07  770 771	 1492722667	 73401128	 161618.
21:11:07  771 772	 1492722667	 238825233	 165424.
21:11:07  772 773	 1492722667	 400209797	 161385.
21:11:07  773 774	 1492722667	 561682146	 161472.
21:11:07  774 775	 1492722667	 698695915	 137014.
21:11:07  775 776	 1492722667	 860045444	 161349.
21:11:08  776 777	 1492722668	 21206793	 161162.
21:11:08  777 778	 1492722668	 197708515	 176501.
21:11:08  778 779	 1492722668	 330567226	 132859.
21:11:08  779 780	 1492722668	 491944500	 161377.
21:11:08  780 781	 1492722668	 657557006	 165613.
21:11:08  781 782	 1492722668	 818990302	 161433.
21:11:08  782 783	 1492722668	 984522743	 165532.
21:11:09  783 784	 1492722669	 117569801	 133048.
21:11:09  784 785	 1492722669	 279310857	 161741.
21:11:09  785 786	 1492722669	 444967614	 165656.
21:11:09  786 787	 1492722669	 606072982	 161106.
21:11:09  787 788	 1492722669	 767356233	 161283.
21:11:09  788 789	 1492722669	 904304310	 136948.
21:11:10  789 790	 1492722670	 66333603	 162029.
21:11:10  790 791	 1492722670	 227714360	 161381.
21:11:10  791 792	 1492722670	 393420326	 165706.
21:11:10  792 793	 1492722670	 554889832	 161470.
21:11:10  793 794	 1492722670	 720278361	 165388.
21:11:10  794 795	 1492722670	 853133250	 132855.
21:11:11  795 796	 1492722671	 14566755	 161433.
21:11:11  796 797	 1492722671	 180352383	 165786.
21:11:11  797 798	 1492722671	 341864810	 161513.
21:11:11  798 799	 1492722671	 507439888	 165575.
21:11:11  799 800	 1492722671	 668903761	 161463.
21:11:11  800 801	 1492722671	 830854144	 161951.
21:11:11  801 802	 1492722671	 963975780	 133121.
21:11:12  802 803	 1492722672	 129584061	 165609.
21:11:12  803 804	 1492722672	 291137289	 161553.
21:11:12  804 805	 1492722672	 456746289	 165609.
21:11:12  805 806	 1492722672	 618217488	 161471.
21:11:12  806 807	 1492722672	 779748119	 161531.
21:11:12  807 808	 1492722672	 945549755	 165801.
21:11:13  808 809	 1492722673	 78856812	 133308.
21:11:13  809 810	 1492722673	 244194277	 165337.
21:11:13  810 811	 1492722673	 405935097	 161741.
21:11:13  811 812	 1492722673	 567677136	 161742.
21:11:13  812 813	 1492722673	 733536524	 165859.
21:11:13  813 814	 1492722673	 895319949	 161784.
21:11:14  814 815	 1492722674	 60956572	 165636.
21:11:14  815 816	 1492722674	 222709734	 161754.
21:11:14  816 817	 1492722674	 360167499	 137457.
21:11:14  817 818	 1492722674	 522666710	 162499.
21:11:14  818 819	 1492722674	 689337679	 166671.
21:11:14  819 820	 1492722674	 851373082	 162036.
21:11:15  820 821	 1492722675	 13015069	 161642.
21:11:15  821 822	 1492722675	 178920933	 165906.
21:11:15  822 823	 1492722675	 341275684	 162354.
21:11:15  823 824	 1492722675	 507463679	 166188.
21:11:15  824 825	 1492722675	 669672958	 162210.
21:11:15  825 826	 1492722675	 835996596	 166323.
21:11:15  826 827	 1492722675	 998273450	 162277.
21:11:16  827 828	 1492722676	 135633838	 137361.
21:11:16  828 829	 1492722676	 297902831	 162269.
21:11:16  829 830	 1492722676	 460115753	 162212.
21:11:16  830 831	 1492722676	 626349372	 166234.
21:11:16  831 832	 1492722676	 788363174	 162014.
21:11:16  832 833	 1492722676	 954704841	 166342.
21:11:17  833 834	 1492722677	 116974800	 162269.
21:11:17  834 835	 1492722677	 283369192	 166395.
21:11:17  835 836	 1492722677	 445218313	 161849.
21:11:17  836 837	 1492722677	 611273352	 166055.
21:11:17  837 838	 1492722677	 773422518	 162149.
21:11:17  838 839	 1492722677	 906674895	 133253.
21:11:18  839 840	 1492722678	 72351344	 165676.
21:11:18  840 841	 1492722678	 234808139	 162457.
21:11:18  841 842	 1492722678	 400886990	 166079.
21:11:18  842 843	 1492722678	 563220243	 162333.
21:11:18  843 844	 1492722678	 729587998	 166368.
21:11:18  844 845	 1492722678	 891428034	 161840.
21:11:19  845 846	 1492722679	 28633489	 137205.
21:11:19  846 847	 1492722679	 190750373	 162117.
21:11:19  847 848	 1492722679	 357182626	 166433.
21:11:19  848 849	 1492722679	 523676267	 166493.
21:11:19  849 850	 1492722679	 685877252	 162201.
21:11:19  850 851	 1492722679	 851716244	 165839.
21:11:20  851 852	 1492722680	 13574859	 161859.
21:11:20  852 853	 1492722680	 175436263	 161861.
21:11:20  853 854	 1492722680	 341281741	 165846.
21:11:20  854 855	 1492722680	 474522952	 133241.
21:11:20  855 856	 1492722680	 636344796	 161822.
21:11:20  856 857	 1492722680	 802075115	 165730.
21:11:20  857 858	 1492722680	 963814538	 161739.
21:11:21  858 859	 1492722681	 125440249	 161626.
21:11:21  859 860	 1492722681	 291174095	 165734.
21:11:21  860 861	 1492722681	 452689075	 161515.
21:11:21  861 862	 1492722681	 589883940	 137195.
21:11:21  862 863	 1492722681	 751663279	 161779.
21:11:21  863 864	 1492722681	 913554663	 161891.
21:11:22  864 865	 1492722682	 79283093	 165729.
21:11:22  865 866	 1492722682	 241126105	 161843.
21:11:22  866 867	 1492722682	 402815316	 161689.
21:11:22  867 868	 1492722682	 568722576	 165907.
21:11:22  868 869	 1492722682	 730339822	 161618.
21:11:22  869 870	 1492722682	 896332882	 165993.
21:11:23  870 871	 1492722683	 29837288	 133504.
21:11:23  871 872	 1492722683	 195957865	 166121.
21:11:23  872 873	 1492722683	 357828222	 161870.
21:11:23  873 874	 1492722683	 519535077	 161707.
21:11:23  874 875	 1492722683	 685513453	 165986.
21:11:23  875 876	 1492722683	 847179379	 161658.
21:11:24  876 877	 1492722684	 12947101	 165768.
21:11:24  877 878	 1492722684	 146042056	 133095.
21:11:24  878 879	 1492722684	 307370232	 161328.
21:11:24  879 880	 1492722684	 473151273	 165781.
21:11:24  880 881	 1492722684	 635004633	 161853.
21:11:24  881 882	 1492722684	 800668277	 165664.
21:11:24  882 883	 1492722684	 962457231	 161789.
21:11:25  883 884	 1492722685	 124969696	 162512.
21:11:25  884 885	 1492722685	 282548233	 157579.
21:11:25  885 886	 1492722685	 448311226	 165763.
21:11:25  886 887	 1492722685	 581279922	 132969.
21:11:25  887 888	 1492722685	 742886469	 161606.
21:11:25  888 889	 1492722685	 908502404	 165616.
21:11:26  889 890	 1492722686	 69979930	 161478.
21:11:26  890 891	 1492722686	 235247320	 165267.
21:11:26  891 892	 1492722686	 368152829	 132906.
21:11:26  892 893	 1492722686	 534315292	 166162.
21:11:26  893 894	 1492722686	 695994575	 161679.
21:11:26  894 895	 1492722686	 857905438	 161911.
21:11:27  895 896	 1492722687	 23964677	 166059.
21:11:27  896 897	 1492722687	 186026131	 162062.
21:11:27  897 898	 1492722687	 352047375	 166021.
21:11:27  898 899	 1492722687	 513794021	 161747.
21:11:27  899 900	 1492722687	 679664753	 165870.
21:11:27  900 901	 1492722687	 841544929	 161881.
21:11:28  901 902	 1492722688	 3399685	 161854.
21:11:28  902 903	 1492722688	 169541149	 166142.
21:11:28  903 904	 1492722688	 302868875	 133328.
21:11:28  904 905	 1492722688	 468649077	 165780.
21:11:28  905 906	 1492722688	 630534050	 161885.
21:11:28  906 907	 1492722688	 792575223	 162041.
21:11:28  907 908	 1492722688	 958558646	 165983.
21:11:29  908 909	 1492722689	 120355985	 161798.
21:11:29  909 910	 1492722689	 282286174	 161930.
21:11:29  910 911	 1492722689	 448596746	 166310.
21:11:29  911 912	 1492722689	 610660258	 162064.
21:11:29  912 913	 1492722689	 776513949	 165854.
21:11:29  913 914	 1492722689	 938407568	 161893.
21:11:30  914 915	 1492722690	 100329451	 161922.
21:11:30  915 916	 1492722690	 266307727	 165978.
21:11:30  916 917	 1492722690	 428297895	 161991.
21:11:30  917 918	 1492722690	 565313664	 137015.
21:11:30  918 919	 1492722690	 726940247	 161627.
21:11:30  919 920	 1492722690	 892620720	 165680.
21:11:31  920 921	 1492722691	 54364837	 161745.
21:11:31  921 922	 1492722691	 215993018	 161628.
21:11:31  922 923	 1492722691	 381917438	 165924.
21:11:31  923 924	 1492722691	 543813210	 161896.
21:11:31  924 925	 1492722691	 709726180	 165913.
21:11:31  925 926	 1492722691	 842857296	 133131.
21:11:32  926 927	 1492722692	 4595835	 161739.
21:11:32  927 928	 1492722692	 170556557	 165960.
21:11:32  928 929	 1492722692	 332393239	 161837.
21:11:32  929 930	 1492722692	 494269759	 161876.
21:11:32  930 931	 1492722692	 660406434	 166137.
21:11:32  931 932	 1492722692	 822073466	 161667.
21:11:32  932 933	 1492722692	 987791334	 165718.
21:11:33  933 934	 1492722693	 149387750	 161596.
21:11:33  934 935	 1492722693	 282136123	 132749.
21:11:33  935 936	 1492722693	 447484651	 165348.
21:11:33  936 937	 1492722693	 608788805	 161305.
21:11:33  937 938	 1492722693	 774330393	 165541.
21:11:33  938 939	 1492722693	 935642587	 161312.
21:11:34  939 940	 1492722694	 68744787	 133102.
21:11:34  940 941	 1492722694	 234361047	 165617.
21:11:34  941 942	 1492722694	 396014280	 161653.
21:11:34  942 943	 1492722694	 557717707	 161703.
21:11:34  943 944	 1492722694	 723315726	 165598.
21:11:34  944 945	 1492722694	 884714446	 161399.
21:11:35  945 946	 1492722695	 50302498	 165588.
21:11:35  946 947	 1492722695	 183255985	 132954.
21:11:35  947 948	 1492722695	 344816591	 161560.
21:11:35  948 949	 1492722695	 510306266	 165490.
21:11:35  949 950	 1492722695	 671852795	 161546.
21:11:35  950 951	 1492722695	 837537172	 165685.
21:11:35  951 952	 1492722695	 970341629	 132804.
21:11:36  952 953	 1492722696	 132002928	 161662.
21:11:36  953 954	 1492722696	 297727667	 165724.
21:11:36  954 955	 1492722696	 459424685	 161697.
21:11:36  955 956	 1492722696	 624868240	 165444.
21:11:36  956 957	 1492722696	 786566483	 161698.
21:11:36  957 958	 1492722696	 919281682	 132715.
21:11:37  958 959	 1492722697	 84760084	 165479.
21:11:37  959 960	 1492722697	 246384254	 161624.
21:11:37  960 961	 1492722697	 408024032	 161640.
21:11:37  961 962	 1492722697	 573489999	 165466.
21:11:37  962 963	 1492722697	 706165907	 132676.
21:11:37  963 964	 1492722697	 867650066	 161484.
21:11:38  964 965	 1492722698	 33255057	 165605.
21:11:38  965 966	 1492722698	 194657469	 161402.
21:11:38  966 967	 1492722698	 356139185	 161482.
21:11:38  967 968	 1492722698	 521704552	 165565.
21:11:38  968 969	 1492722698	 654512761	 132808.
21:11:38  969 970	 1492722698	 815695320	 161183.
21:11:38  970 971	 1492722698	 981041949	 165347.
21:11:39  971 972	 1492722699	 142363271	 161321.
21:11:39  972 973	 1492722699	 274978847	 132616.
21:11:39  973 974	 1492722699	 440551022	 165572.
21:11:39  974 975	 1492722699	 601932272	 161381.
21:11:39  975 976	 1492722699	 763535262	 161603.
21:11:39  976 977	 1492722699	 929358375	 165823.
21:11:40  977 978	 1492722700	 91580086	 162222.
21:11:40  978 979	 1492722700	 224613415	 133033.
21:11:40  979 980	 1492722700	 386391153	 161778.
21:11:40  980 981	 1492722700	 551831559	 165440.
21:11:40  981 982	 1492722700	 713392141	 161561.
21:11:40  982 983	 1492722700	 879104378	 165712.
21:11:41  983 984	 1492722701	 12105789	 133001.
21:11:41  984 985	 1492722701	 177810417	 165705.
21:11:41  985 986	 1492722701	 338962014	 161152.
21:11:41  986 987	 1492722701	 471490547	 132528.
21:11:41  987 988	 1492722701	 633769565	 162279.
21:11:41  988 989	 1492722701	 795692139	 161923.
21:11:41  989 990	 1492722701	 961644961	 165953.
21:11:42  990 991	 1492722702	 127490748	 165845.
21:11:42  991 992	 1492722702	 260943140	 133453.
21:11:42  992 993	 1492722702	 422565732	 161622.
21:11:42  993 994	 1492722702	 588482252	 165917.
21:11:42  994 995	 1492722702	 754538045	 166056.
21:11:42  995 996	 1492722702	 916508501	 161970.
21:11:43  996 997	 1492722703	 49754143	 133246.
21:11:43  997 998	 1492722703	 215955391	 166201.
21:11:43  998 999	 1492722703	 377666865	 161712.
21:11:43  999 1000	 1492722703	 543865444	 166198.
21:11:43 1000 1001	 1492722703	 676830380	 132965.
21:11:43 1001 1002	 1492722703	 842756193	 165926.
21:11:44 1002 1003	 1492722704	 4423900	 161668.
21:11:44 1003 1004	 1492722704	 170428140	 166004.
21:11:44 1004 1005	 1492722704	 332179961	 161752.
21:11:44 1005 1006	 1492722704	 469551529	 137371.
21:11:44 1006 1007	 1492722704	 631834422	 162283.
21:11:44 1007 1008	 1492722704	 797628006	 165794.
21:11:44 1008 1009	 1492722704	 959747177	 162119.
21:11:45 1009 1010	 1492722705	 126060409	 166313.
21:11:45 1010 1011	 1492722705	 288106433	 162046.
21:11:45 1011 1012	 1492722705	 425707419	 137601.
21:11:45 1012 1013	 1492722705	 587697224	 161990.
21:11:45 1013 1014	 1492722705	 753755211	 166058.
21:11:45 1014 1015	 1492722705	 915785270	 162030.
21:11:46 1015 1016	 1492722706	 78053554	 162268.
21:11:46 1016 1017	 1492722706	 215267085	 137214.
21:11:46 1017 1018	 1492722706	 377269183	 162002.
21:11:46 1018 1019	 1492722706	 543420684	 166151.
21:11:46 1019 1020	 1492722706	 706397852	 162978.
21:11:46 1020 1021	 1492722706	 864999804	 158602.
21:11:47 1021 1022	 1492722707	 26737339	 161737.
21:11:47 1022 1023	 1492722707	 188102314	 161365.
21:11:47 1023 1024	 1492722707	 324943488	 136841.
21:11:47 1024 1025	 1492722707	 486506250	 161563.
21:11:47 1025 1026	 1492722707	 648140654	 161634.
21:11:47 1026 1027	 1492722707	 814001604	 165861.
21:11:47 1027 1028	 1492722707	 947327470	 133326.
21:11:48 1028 1029	 1492722708	 113435495	 166108.
21:11:48 1029 1030	 1492722708	 275443837	 162009.
21:11:48 1030 1031	 1492722708	 441474493	 166030.
21:11:48 1031 1032	 1492722708	 603358854	 161885.
21:11:48 1032 1033	 1492722708	 769648572	 166289.
21:11:48 1033 1034	 1492722708	 902713139	 133067.
21:11:49 1034 1035	 1492722709	 68320300	 165605.
21:11:49 1035 1036	 1492722709	 230102621	 161782.
21:11:49 1036 1037	 1492722709	 396467873	 166366.
21:11:49 1037 1038	 1492722709	 558809780	 162342.
21:11:49 1038 1039	 1492722709	 696230853	 137421.
21:11:49 1039 1040	 1492722709	 858049849	 161819.
21:11:50 1040 1041	 1492722710	 24078276	 166028.
21:11:50 1041 1042	 1492722710	 185789202	 161711.
21:11:50 1042 1043	 1492722710	 351824614	 166036.
21:11:50 1043 1044	 1492722710	 514195073	 162370.
21:11:50 1044 1045	 1492722710	 651277598	 137082.
21:11:50 1045 1046	 1492722710	 813000772	 161723.
21:11:50 1046 1047	 1492722710	 978897377	 165897.
21:11:51 1047 1048	 1492722711	 140620602	 161723.
21:11:51 1048 1049	 1492722711	 302563978	 161944.
21:11:51 1049 1050	 1492722711	 439578423	 137014.
21:11:51 1050 1051	 1492722711	 601328143	 161750.
21:11:51 1051 1052	 1492722711	 767619087	 166291.
21:11:51 1052 1053	 1492722711	 929645013	 162026.
21:11:52 1053 1054	 1492722712	 95750830	 166106.
21:11:52 1054 1055	 1492722712	 253977071	 158226.
21:11:52 1055 1056	 1492722712	 390798876	 136822.
21:11:52 1056 1057	 1492722712	 552565708	 161767.
21:11:52 1057 1058	 1492722712	 718436470	 165870.
21:11:52 1058 1059	 1492722712	 880194023	 161758.
21:11:53 1059 1060	 1492722713	 17396633	 137202.
21:11:53 1060 1061	 1492722713	 179394797	 161998.
21:11:53 1061 1062	 1492722713	 345236517	 165842.
21:11:53 1062 1063	 1492722713	 506881200	 161645.
21:11:53 1063 1064	 1492722713	 672506643	 165625.
21:11:53 1064 1065	 1492722713	 805433099	 132927.
21:11:53 1065 1066	 1492722713	 971313313	 165880.
21:11:54 1066 1067	 1492722714	 133239408	 161926.
21:11:54 1067 1068	 1492722714	 299190571	 165951.
21:11:54 1068 1069	 1492722714	 432535461	 133345.
21:11:54 1069 1070	 1492722714	 598523482	 165988.
21:11:54 1070 1071	 1492722714	 764361668	 165838.
21:11:54 1071 1072	 1492722714	 926670791	 162310.
21:11:55 1072 1073	 1492722715	 92857148	 166186.
21:11:55 1073 1074	 1492722715	 254858974	 162002.
21:11:55 1074 1075	 1492722715	 388170768	 133311.
21:11:55 1075 1076	 1492722715	 554305525	 166135.
21:11:55 1076 1077	 1492722715	 720433852	 166129.
21:11:55 1077 1078	 1492722715	 882567254	 162133.
21:11:56 1078 1079	 1492722716	 48829923	 166263.
21:11:56 1079 1080	 1492722716	 210834114	 162004.
21:11:56 1080 1081	 1492722716	 348100065	 137266.
21:11:56 1081 1082	 1492722716	 510245669	 162146.
21:11:56 1082 1083	 1492722716	 676066933	 165821.
21:11:56 1083 1084	 1492722716	 838440976	 162374.
21:11:56 1084 1085	 1492722717	 194714	 161753.
21:11:57 1085 1086	 1492722717	 166102894	 165909.
21:11:57 1086 1087	 1492722717	 327915852	 161813.
21:11:57 1087 1088	 1492722717	 465231132	 137315.
21:11:57 1088 1089	 1492722717	 627408017	 162177.
21:11:57 1089 1090	 1492722717	 792836484	 165428.
21:11:57 1090 1091	 1492722717	 954764182	 161928.
21:11:58 1091 1092	 1492722718	 120876633	 166112.
21:11:58 1092 1093	 1492722718	 254041683	 133166.
21:11:58 1093 1094	 1492722718	 420380421	 166338.
21:11:58 1094 1095	 1492722718	 582058293	 161678.
21:11:58 1095 1096	 1492722718	 743907125	 161849.
21:11:58 1096 1097	 1492722718	 909811469	 165904.
21:11:59 1097 1098	 1492722719	 43096949	 133286.
21:11:59 1098 1099	 1492722719	 208790917	 165694.
21:11:59 1099 1100	 1492722719	 370664943	 161874.
21:11:59 1100 1101	 1492722719	 536645707	 165980.
21:11:59 1101 1102	 1492722719	 698749296	 162104.
21:11:59 1102 1103	 1492722719	 831682203	 132933.
21:11:59 1103 1104	 1492722719	 997542643	 165860.
21:12:00 1104 1105	 1492722720	 159492713	 161950.
21:12:00 1105 1106	 1492722720	 325809354	 166317.
21:12:00 1106 1107	 1492722720	 487950860	 162142.
21:12:00 1107 1108	 1492722720	 653817791	 165866.
21:12:00 1108 1109	 1492722720	 815358137	 161541.
21:12:00 1109 1110	 1492722720	 981254629	 165896.
21:12:01 1110 1111	 1492722721	 114437017	 133183.
21:12:01 1111 1112	 1492722721	 276875493	 162438.
21:12:01 1112 1113	 1492722721	 442950628	 166075.
21:12:01 1113 1114	 1492722721	 604681251	 161731.
21:12:01 1114 1115	 1492722721	 770516055	 165835.
21:12:01 1115 1116	 1492722721	 932563320	 162047.
21:12:02 1116 1117	 1492722722	 98539463	 165976.
21:12:02 1117 1118	 1492722722	 260217758	 161678.
21:12:02 1118 1119	 1492722722	 422149178	 161932.
21:12:02 1119 1120	 1492722722	 559390738	 137241.
21:12:02 1120 1121	 1492722722	 721335203	 161945.
21:12:02 1121 1122	 1492722722	 887424075	 166089.
21:12:03 1122 1123	 1492722723	 49358534	 161934.
21:12:03 1123 1124	 1492722723	 211412844	 162055.
21:12:03 1124 1125	 1492722723	 377260797	 165848.
21:12:03 1125 1126	 1492722723	 539244654	 161983.
21:12:03 1126 1127	 1492722723	 701330780	 162086.
21:12:03 1127 1128	 1492722723	 867204633	 165874.
21:12:04 1128 1129	 1492722724	 29273280	 162069.
21:12:04 1129 1130	 1492722724	 195465341	 166192.
21:12:04 1130 1131	 1492722724	 328414399	 132949.
21:12:04 1131 1132	 1492722724	 490105455	 161691.
21:12:04 1132 1133	 1492722724	 656161096	 166056.
21:12:04 1133 1134	 1492722724	 817988039	 161827.
21:12:04 1134 1135	 1492722724	 983775416	 165787.
21:12:05 1135 1136	 1492722725	 145710880	 161936.
21:12:05 1136 1137	 1492722725	 311563989	 165853.
21:12:05 1137 1138	 1492722725	 473466773	 161902.
21:12:05 1138 1139	 1492722725	 606622013	 133156.
21:12:05 1139 1140	 1492722725	 772406308	 165784.
21:12:05 1140 1141	 1492722725	 934143073	 161737.
21:12:06 1141 1142	 1492722726	 96053896	 161911.
21:12:06 1142 1143	 1492722726	 262014747	 165960.
21:12:06 1143 1144	 1492722726	 423923143	 161909.
21:12:06 1144 1145	 1492722726	 589676698	 165753.
21:12:06 1145 1146	 1492722726	 751676208	 162000.
21:12:06 1146 1147	 1492722726	 884882336	 133206.
21:12:07 1147 1148	 1492722727	 50550198	 165668.
21:12:07 1148 1149	 1492722727	 211917477	 161367.
21:12:07 1149 1150	 1492722727	 377390857	 165474.
21:12:07 1150 1151	 1492722727	 538870729	 161479.
21:12:07 1151 1152	 1492722727	 671585299	 132715.
21:12:07 1152 1153	 1492722727	 837003152	 165418.
21:12:07 1153 1154	 1492722727	 998388717	 161385.
21:12:08 1154 1155	 1492722728	 163754579	 165366.
21:12:08 1155 1156	 1492722728	 324970610	 161216.
21:12:08 1156 1157	 1492722728	 457622001	 132652.
21:12:08 1157 1158	 1492722728	 623034825	 165413.
21:12:08 1158 1159	 1492722728	 784529836	 161495.
21:12:08 1159 1160	 1492722728	 945925775	 161395.
21:12:09 1160 1161	 1492722729	 130076480	 184151.
21:12:09 1161 1162	 1492722729	 258765971	 128690.
21:12:09 1162 1163	 1492722729	 420224355	 161458.
21:12:09 1163 1164	 1492722729	 552961811	 132738.
21:12:09 1164 1165	 1492722729	 718325988	 165364.
21:12:09 1165 1166	 1492722729	 879543424	 161217.
21:12:10 1166 1167	 1492722730	 41025314	 161482.
21:12:10 1167 1168	 1492722730	 206610309	 165585.
21:12:10 1168 1169	 1492722730	 339615139	 133005.
21:12:10 1169 1170	 1492722730	 505659215	 166044.
21:12:10 1170 1171	 1492722730	 667339988	 161681.
21:12:10 1171 1172	 1492722730	 832861863	 165522.
21:12:10 1172 1173	 1492722730	 994593771	 161731.
21:12:11 1173 1174	 1492722731	 156136140	 161543.
21:12:11 1174 1175	 1492722731	 293169217	 137033.
21:12:11 1175 1176	 1492722731	 455093766	 161924.
21:12:11 1176 1177	 1492722731	 621229272	 166136.
21:12:11 1177 1178	 1492722731	 783377853	 162160.
21:12:11 1178 1179	 1492722731	 949320853	 165932.
21:12:12 1179 1180	 1492722732	 111209095	 161888.
21:12:12 1180 1181	 1492722732	 277075339	 165866.
21:12:12 1181 1182	 1492722732	 438983263	 161908.
21:12:12 1182 1183	 1492722732	 604895502	 165912.
21:12:12 1183 1184	 1492722732	 766501255	 161606.
21:12:12 1184 1185	 1492722732	 899512504	 133011.
21:12:13 1185 1186	 1492722733	 65340696	 165828.
21:12:13 1186 1187	 1492722733	 226888571	 161548.
21:12:13 1187 1188	 1492722733	 392982941	 166095.
21:12:13 1188 1189	 1492722733	 554603437	 161620.
21:12:13 1189 1190	 1492722733	 720483894	 165881.
21:12:13 1190 1191	 1492722733	 882619402	 162135.
21:12:14 1191 1192	 1492722734	 48733282	 166114.
21:12:14 1192 1193	 1492722734	 181746758	 133013.
21:12:14 1193 1194	 1492722734	 347735868	 165990.
21:12:14 1194 1195	 1492722734	 509825390	 162089.
21:12:14 1195 1196	 1492722734	 675820648	 165995.
21:12:14 1196 1197	 1492722734	 837636415	 161816.
21:12:15 1197 1198	 1492722735	 3515311	 165879.
21:12:15 1198 1199	 1492722735	 161893869	 158379.
21:12:15 1199 1200	 1492722735	 298764211	 136870.
21:12:15 1200 1201	 1492722735	 460095031	 161331.
21:12:15 1201 1202	 1492722735	 625410288	 165315.
21:12:15 1202 1203	 1492722735	 786460465	 161050.
21:12:15 1203 1204	 1492722735	 948057144	 161597.
21:12:16 1204 1205	 1492722736	 85237890	 137181.
21:12:16 1205 1206	 1492722736	 246591472	 161353.
21:12:16 1206 1207	 1492722736	 408073119	 161482.
21:12:16 1207 1208	 1492722736	 573783074	 165710.
21:12:16 1208 1209	 1492722736	 735174231	 161391.
21:12:16 1209 1210	 1492722736	 871982374	 136808.
21:12:17 1210 1211	 1492722737	 33812265	 161830.
21:12:17 1211 1212	 1492722737	 199727838	 165916.
21:12:17 1212 1213	 1492722737	 361194051	 161466.
21:12:17 1213 1214	 1492722737	 522709545	 161515.
21:12:17 1214 1215	 1492722737	 688535949	 165827.
21:12:17 1215 1216	 1492722737	 821480337	 132944.
21:12:17 1216 1217	 1492722737	 986776487	 165296.
21:12:18 1217 1218	 1492722738	 148385919	 161610.
21:12:18 1218 1219	 1492722738	 310179736	 161793.
21:12:18 1219 1220	 1492722738	 476480114	 166301.
21:12:18 1220 1221	 1492722738	 638749534	 162269.
21:12:18 1221 1222	 1492722738	 804734847	 165986.
21:12:18 1222 1223	 1492722738	 937749928	 133015.
21:12:19 1223 1224	 1492722739	 103665125	 165915.
21:12:19 1224 1225	 1492722739	 265393694	 161728.
21:12:19 1225 1226	 1492722739	 431304089	 165911.
21:12:19 1226 1227	 1492722739	 593330352	 162026.
21:12:19 1227 1228	 1492722739	 759430390	 166100.
21:12:19 1228 1229	 1492722739	 921520245	 162090.
21:12:20 1229 1230	 1492722740	 80120947	 158601.
21:12:20 1230 1231	 1492722740	 246051454	 165930.
21:12:20 1231 1232	 1492722740	 407853350	 161802.
21:12:20 1232 1233	 1492722740	 573776529	 165923.
21:12:20 1233 1234	 1492722740	 735441408	 161665.
21:12:20 1234 1235	 1492722740	 868538929	 133098.
21:12:21 1235 1236	 1492722741	 34641416	 166102.
21:12:21 1236 1237	 1492722741	 196710571	 162069.
21:12:21 1237 1238	 1492722741	 358641486	 161931.
21:12:21 1238 1239	 1492722741	 525133015	 166492.
21:12:21 1239 1240	 1492722741	 691581600	 166448.
21:12:21 1240 1241	 1492722741	 854069250	 162488.
21:12:22 1241 1242	 1492722742	 20603111	 166534.
21:12:22 1242 1243	 1492722742	 182812292	 162209.
21:12:22 1243 1244	 1492722742	 348841926	 166030.
21:12:22 1244 1245	 1492722742	 482162008	 133320.
21:12:22 1245 1246	 1492722742	 648895852	 166734.
21:12:22 1246 1247	 1492722742	 811256509	 162360.
21:12:22 1247 1248	 1492722742	 977635492	 166379.
21:12:23 1248 1249	 1492722743	 139959404	 162324.
21:12:23 1249 1250	 1492722743	 306263429	 166304.
21:12:23 1250 1251	 1492722743	 472573968	 166311.
21:12:23 1251 1252	 1492722743	 634639098	 162065.
21:12:23 1252 1253	 1492722743	 801005605	 166366.
21:12:23 1253 1254	 1492722743	 963404224	 162399.
21:12:24 1254 1255	 1492722744	 129734072	 166330.
21:12:24 1255 1256	 1492722744	 291796954	 162063.
21:12:24 1256 1257	 1492722744	 425035561	 133238.
21:12:24 1257 1258	 1492722744	 591270671	 166235.
21:12:24 1258 1259	 1492722744	 753247805	 161977.
21:12:24 1259 1260	 1492722744	 919576079	 166329.
21:12:25 1260 1261	 1492722745	 81646120	 162070.
21:12:25 1261 1262	 1492722745	 248857999	 167212.
21:12:25 1262 1263	 1492722745	 406771911	 157914.
21:12:25 1263 1264	 1492722745	 573050496	 166278.
21:12:25 1264 1265	 1492722745	 735263444	 162213.
21:12:25 1265 1266	 1492722745	 901307434	 166044.
21:12:26 1266 1267	 1492722746	 63312341	 162005.
21:12:26 1267 1268	 1492722746	 200546824	 137235.
21:12:26 1268 1269	 1492722746	 362204353	 161657.
21:12:26 1269 1270	 1492722746	 523966110	 161762.
21:12:26 1270 1271	 1492722746	 689885609	 165919.
21:12:26 1271 1272	 1492722746	 856002803	 166118.
21:12:27 1272 1273	 1492722747	 18375745	 162372.
21:12:27 1273 1274	 1492722747	 152020467	 133645.
21:12:27 1274 1275	 1492722747	 318441628	 166421.
21:12:27 1275 1276	 1492722747	 484585816	 166145.
21:12:27 1276 1277	 1492722747	 646627206	 162041.
21:12:27 1277 1278	 1492722747	 812295743	 165668.
21:12:27 1278 1279	 1492722747	 973983272	 161688.
21:12:28 1279 1280	 1492722748	 139721254	 165738.
21:12:28 1280 1281	 1492722748	 272626487	 132905.
21:12:28 1281 1282	 1492722748	 438359813	 165734.
21:12:28 1282 1283	 1492722748	 600005920	 161646.
21:12:28 1283 1284	 1492722748	 761660475	 161654.
21:12:28 1284 1285	 1492722748	 927183850	 165524.
21:12:29 1285 1286	 1492722749	 60200714	 133016.
21:12:29 1286 1287	 1492722749	 221781459	 161581.
21:12:29 1287 1288	 1492722749	 387243249	 165462.
21:12:29 1288 1289	 1492722749	 548819335	 161576.
21:12:29 1289 1290	 1492722749	 714598571	 165779.
21:12:29 1290 1291	 1492722749	 847615794	 133017.
21:12:30 1291 1292	 1492722750	 13541508	 165926.
21:12:30 1292 1293	 1492722750	 175302466	 161761.
21:12:30 1293 1294	 1492722750	 341106402	 165804.
21:12:30 1294 1295	 1492722750	 502858308	 161752.
21:12:30 1295 1296	 1492722750	 668892522	 166034.
21:12:30 1296 1297	 1492722750	 830575886	 161684.
21:12:30 1297 1298	 1492722750	 963602226	 133026.
21:12:31 1298 1299	 1492722751	 129905683	 166303.
21:12:31 1299 1300	 1492722751	 296172276	 166267.
21:12:31 1300 1301	 1492722751	 457858500	 161686.
21:12:31 1301 1302	 1492722751	 624197278	 166339.
21:12:31 1302 1303	 1492722751	 785951263	 161754.
21:12:31 1303 1304	 1492722751	 952017008	 166066.
21:12:32 1304 1305	 1492722752	 85253680	 133236.
21:12:32 1305 1306	 1492722752	 251054163	 165801.
21:12:32 1306 1307	 1492722752	 412614962	 161561.
21:12:32 1307 1308	 1492722752	 573870577	 161255.
21:12:32 1308 1309	 1492722752	 710703668	 136833.
21:12:32 1309 1310	 1492722752	 872064668	 161361.
21:12:33 1310 1311	 1492722753	 33517554	 161453.
21:12:33 1311 1312	 1492722753	 199033471	 165516.
21:12:33 1312 1313	 1492722753	 360495350	 161462.
21:12:33 1313 1314	 1492722753	 497639873	 137145.
21:12:33 1314 1315	 1492722753	 659296580	 161656.
21:12:33 1315 1316	 1492722753	 824978307	 165682.
21:12:33 1316 1317	 1492722753	 986437030	 161459.
21:12:34 1317 1318	 1492722754	 147944478	 161507.
21:12:34 1318 1319	 1492722754	 284995905	 137052.
21:12:34 1319 1320	 1492722754	 446367208	 161371.
21:12:34 1320 1321	 1492722754	 612302739	 165935.
21:12:34 1321 1322	 1492722754	 773995388	 161693.
21:12:34 1322 1323	 1492722754	 940128418	 166133.
21:12:35 1323 1324	 1492722755	 102319299	 162191.
21:12:35 1324 1325	 1492722755	 264301815	 161983.
21:12:35 1325 1326	 1492722755	 430227084	 165925.
21:12:35 1326 1327	 1492722755	 592016153	 161789.
21:12:35 1327 1328	 1492722755	 725060391	 133044.
21:12:35 1328 1329	 1492722755	 890856559	 165796.
21:12:36 1329 1330	 1492722756	 52569198	 161713.
21:12:36 1330 1331	 1492722756	 218461268	 165892.
21:12:36 1331 1332	 1492722756	 380520396	 162059.
21:12:36 1332 1333	 1492722756	 546494108	 165974.
21:12:36 1333 1334	 1492722756	 709050914	 162557.
21:12:36 1334 1335	 1492722756	 875036517	 165985.
21:12:37 1335 1336	 1492722757	 36918053	 161882.
21:12:37 1336 1337	 1492722757	 170040814	 133123.
21:12:37 1337 1338	 1492722757	 335991875	 165951.
21:12:37 1338 1339	 1492722757	 497838705	 161846.
21:12:37 1339 1340	 1492722757	 663777556	 165939.
21:12:37 1340 1341	 1492722757	 825740038	 161963.
21:12:37 1341 1342	 1492722757	 991543062	 165803.
21:12:38 1342 1343	 1492722758	 153604845	 162062.
21:12:38 1343 1344	 1492722758	 319333602	 165728.
21:12:38 1344 1345	 1492722758	 481046539	 161713.
21:12:38 1345 1346	 1492722758	 642724748	 161679.
21:12:38 1346 1347	 1492722758	 779809570	 137084.
21:12:38 1347 1348	 1492722758	 941726464	 161917.
21:12:39 1348 1349	 1492722759	 107501501	 165775.
21:12:39 1349 1350	 1492722759	 269169421	 161668.
21:12:39 1350 1351	 1492722759	 430764421	 161595.
21:12:39 1351 1352	 1492722759	 596389961	 165626.
21:12:39 1352 1353	 1492722759	 758045135	 161655.
21:12:39 1353 1354	 1492722759	 895143309	 137098.
21:12:40 1354 1355	 1492722760	 56907190	 161764.
21:12:40 1355 1356	 1492722760	 222611464	 165704.
21:12:40 1356 1357	 1492722760	 384317800	 161707.
21:12:40 1357 1358	 1492722760	 550402838	 166085.
21:12:40 1358 1359	 1492722760	 712678936	 162276.
21:12:40 1359 1360	 1492722760	 879186310	 166507.
21:12:41 1360 1361	 1492722761	 40964194	 161778.
21:12:41 1361 1362	 1492722761	 178334641	 137370.
21:12:41 1362 1363	 1492722761	 340407457	 162073.
21:12:41 1363 1364	 1492722761	 506718407	 166311.
21:12:41 1364 1365	 1492722761	 668175815	 161458.
21:12:41 1365 1366	 1492722761	 833682036	 165506.
21:12:41 1366 1367	 1492722761	 966630145	 132948.
21:12:42 1367 1368	 1492722762	 153503229	 186873.
21:12:42 1368 1369	 1492722762	 290608255	 137105.
21:12:42 1369 1370	 1492722762	 452317680	 161709.
21:12:42 1370 1371	 1492722762	 613985526	 161668.
21:12:42 1371 1372	 1492722762	 779630385	 165645.
21:12:42 1372 1373	 1492722762	 940988687	 161358.
21:12:43 1373 1374	 1492722763	 77806840	 136819.
21:12:43 1374 1375	 1492722763	 239295041	 161488.
21:12:43 1375 1376	 1492722763	 404970125	 165675.
21:12:43 1376 1377	 1492722763	 566546538	 161576.
21:12:43 1377 1378	 1492722763	 728138616	 161592.
21:12:43 1378 1379	 1492722763	 893771155	 165633.
21:12:44 1379 1380	 1492722764	 26815153	 133044.
21:12:44 1380 1381	 1492722764	 192550502	 165735.
21:12:44 1381 1382	 1492722764	 354012449	 161462.
21:12:44 1382 1383	 1492722764	 519654586	 165642.
21:12:44 1383 1384	 1492722764	 681561907	 161908.
21:12:44 1384 1385	 1492722764	 847161693	 165599.
21:12:44 1385 1386	 1492722764	 980270605	 133109.
21:12:45 1386 1387	 1492722765	 146299378	 166029.
21:12:45 1387 1388	 1492722765	 308017043	 161718.
21:12:45 1388 1389	 1492722765	 474118907	 166102.
21:12:45 1389 1390	 1492722765	 635992891	 161874.
21:12:45 1390 1391	 1492722765	 797566393	 161573.
21:12:45 1391 1392	 1492722765	 934855406	 137289.
21:12:46 1392 1393	 1492722766	 96833419	 161978.
21:12:46 1393 1394	 1492722766	 262111262	 165278.
21:12:46 1394 1395	 1492722766	 423463339	 161352.
21:12:46 1395 1396	 1492722766	 584940630	 161477.
21:12:46 1396 1397	 1492722766	 750609812	 165670.
21:12:46 1397 1398	 1492722766	 883648623	 133038.
21:12:47 1398 1399	 1492722767	 49278562	 165630.
21:12:47 1399 1400	 1492722767	 210868555	 161590.
21:12:47 1400 1401	 1492722767	 372241382	 161373.
21:12:47 1401 1402	 1492722767	 537844430	 165603.
21:12:47 1402 1403	 1492722767	 699156590	 161312.
21:12:47 1403 1404	 1492722767	 835800417	 136644.
21:12:47 1404 1405	 1492722767	 997200084	 161400.
21:12:48 1405 1406	 1492722768	 158596143	 161396.
21:12:48 1406 1407	 1492722768	 324257562	 165661.
21:12:48 1407 1408	 1492722768	 456777882	 132521.
21:12:48 1408 1409	 1492722768	 622362538	 165584.
21:12:48 1409 1410	 1492722768	 783802237	 161440.
21:12:48 1410 1411	 1492722768	 944742230	 160940.
21:12:49 1411 1412	 1492722769	 81183840	 136442.
21:12:49 1412 1413	 1492722769	 242226265	 161042.
21:12:49 1413 1414	 1492722769	 403501090	 161275.
21:12:49 1414 1415	 1492722769	 569394496	 165893.
21:12:49 1415 1416	 1492722769	 702345523	 132951.
21:12:49 1416 1417	 1492722769	 868148054	 165803.
21:12:50 1417 1418	 1492722770	 30691976	 162544.
21:12:50 1418 1419	 1492722770	 196377619	 165685.
21:12:50 1419 1420	 1492722770	 358309843	 161933.
21:12:50 1420 1421	 1492722770	 524255217	 165945.
21:12:50 1421 1422	 1492722770	 657496173	 133241.
21:12:50 1422 1423	 1492722770	 823403380	 165907.
21:12:50 1423 1424	 1492722770	 985304973	 161902.
21:12:51 1424 1425	 1492722771	 147616228	 162311.
21:12:51 1425 1426	 1492722771	 313498914	 165883.
21:12:51 1426 1427	 1492722771	 479481954	 165983.
21:12:51 1427 1428	 1492722771	 641750400	 162268.
21:12:51 1428 1429	 1492722771	 774754436	 133004.
21:12:51 1429 1430	 1492722771	 940774765	 166020.
21:12:52 1430 1431	 1492722772	 102585197	 161811.
21:12:52 1431 1432	 1492722772	 268145565	 165560.
21:12:52 1432 1433	 1492722772	 401490047	 133345.
21:12:52 1433 1434	 1492722772	 563723096	 162233.
21:12:52 1434 1435	 1492722772	 729599067	 165876.
21:12:52 1435 1436	 1492722772	 891276490	 161677.
21:12:53 1436 1437	 1492722773	 57496257	 166220.
21:12:53 1437 1438	 1492722773	 223506938	 166011.
21:12:53 1438 1439	 1492722773	 382299125	 158792.
21:12:53 1439 1440	 1492722773	 544661707	 162362.
21:12:53 1440 1441	 1492722773	 681781193	 137120.
21:12:53 1441 1442	 1492722773	 844135438	 162354.
21:12:54 1442 1443	 1492722774	 10035108	 165900.
21:12:54 1443 1444	 1492722774	 171964212	 161929.
21:12:54 1444 1445	 1492722774	 337770637	 165806.
21:12:54 1445 1446	 1492722774	 470704329	 132934.
21:12:54 1446 1447	 1492722774	 636812784	 166108.
21:12:54 1447 1448	 1492722774	 798900417	 162088.
21:12:54 1448 1449	 1492722774	 964973815	 166074.
21:12:55 1449 1450	 1492722775	 127330646	 162356.
21:12:55 1450 1451	 1492722775	 264873536	 137543.
21:12:55 1451 1452	 1492722775	 427276293	 162403.
21:12:55 1452 1453	 1492722775	 592730299	 165454.
21:12:55 1453 1454	 1492722775	 754594529	 161864.
21:12:55 1454 1455	 1492722775	 920497857	 165904.
21:12:56 1455 1456	 1492722776	 54108921	 133611.
21:12:56 1456 1457	 1492722776	 220211691	 166102.
21:12:56 1457 1458	 1492722776	 382131129	 161920.
21:12:56 1458 1459	 1492722776	 548173835	 166043.
21:12:56 1459 1460	 1492722776	 710026816	 161853.
21:12:56 1460 1461	 1492722776	 843325423	 133298.
21:12:57 1461 1462	 1492722777	 9532624	 166207.
21:12:57 1462 1463	 1492722777	 171436704	 161904.
21:12:57 1463 1464	 1492722777	 337386221	 165950.
21:12:57 1464 1465	 1492722777	 499148357	 161762.
21:12:57 1465 1466	 1492722777	 665073142	 165925.
21:12:57 1466 1467	 1492722777	 798020498	 132947.
21:12:57 1467 1468	 1492722777	 964148098	 166128.
21:12:58 1468 1469	 1492722778	 126432145	 162284.
21:12:58 1469 1470	 1492722778	 292187420	 165755.
21:12:58 1470 1471	 1492722778	 436657940	 144471.
21:12:58 1471 1472	 1492722778	 602838480	 166180.
21:12:58 1472 1473	 1492722778	 764680076	 161842.
21:12:58 1473 1474	 1492722778	 930107167	 165427.
21:12:59 1474 1475	 1492722779	 63105023	 132998.
21:12:59 1475 1476	 1492722779	 224614743	 161509.
21:12:59 1476 1477	 1492722779	 390049776	 165435.
21:12:59 1477 1478	 1492722779	 551954824	 161906.
21:12:59 1478 1479	 1492722779	 718264146	 166309.
21:12:59 1479 1480	 1492722779	 851771701	 133507.
21:13:00 1480 1481	 1492722780	 17856056	 166085.
21:13:00 1481 1482	 1492722780	 179733919	 161878.
21:13:00 1482 1483	 1492722780	 345593030	 165859.
21:13:00 1483 1484	 1492722780	 507706800	 162114.
21:13:00 1484 1485	 1492722780	 674282880	 166576.
21:13:00 1485 1486	 1492722780	 836825555	 162542.
21:13:00 1486 1487	 1492722781	 2965630	 166140.
21:13:01 1487 1488	 1492722781	 164942482	 161977.
21:13:01 1488 1489	 1492722781	 302548489	 137606.
21:13:01 1489 1490	 1492722781	 464382277	 161834.
21:13:01 1490 1491	 1492722781	 630136737	 165754.
21:13:01 1491 1492	 1492722781	 791991349	 161855.
21:13:01 1492 1493	 1492722781	 954062708	 162071.
21:13:02 1493 1494	 1492722782	 119753010	 165691.
21:13:02 1494 1495	 1492722782	 281518356	 161765.
21:13:02 1495 1496	 1492722782	 418550961	 137033.
21:13:02 1496 1497	 1492722782	 580076702	 161525.
21:13:02 1497 1498	 1492722782	 741628007	 161552.
21:13:02 1498 1499	 1492722782	 907510355	 165882.
21:13:03 1499 1500	 1492722783	 69112008	 161602.
21:13:03 1500 1501	 1492722783	 234779679	 165667.
21:13:03 1501 1502	 1492722783	 367827102	 133048.
21:13:03 1502 1503	 1492722783	 529404806	 161577.
21:13:03 1503 1504	 1492722783	 695083028	 165679.
21:13:03 1504 1505	 1492722783	 856879865	 161797.
21:13:04 1505 1506	 1492722784	 22670684	 165790.
21:13:04 1506 1507	 1492722784	 184408298	 161738.
21:13:04 1507 1508	 1492722784	 317735047	 133327.
21:13:04 1508 1509	 1492722784	 483401079	 165666.
21:13:04 1509 1510	 1492722784	 645038968	 161638.
21:13:04 1510 1511	 1492722784	 810800120	 165761.
21:13:04 1511 1512	 1492722784	 972495777	 161695.
21:13:05 1512 1513	 1492722785	 109692717	 137197.
21:13:05 1513 1514	 1492722785	 271287895	 161596.
21:13:05 1514 1515	 1492722785	 433147097	 161859.
21:13:05 1515 1516	 1492722785	 598795322	 165648.
21:13:05 1516 1517	 1492722785	 760494510	 161699.
21:13:05 1517 1518	 1492722785	 926103161	 165609.
21:13:06 1518 1519	 1492722786	 59076198	 132973.
21:13:06 1519 1520	 1492722786	 224993423	 165917.
21:13:06 1520 1521	 1492722786	 386759586	 161766.
21:13:06 1521 1522	 1492722786	 548389668	 161630.
21:13:06 1522 1523	 1492722786	 714230589	 165841.
21:13:06 1523 1524	 1492722786	 876165311	 161935.
21:13:07 1524 1525	 1492722787	 42067397	 165902.
21:13:07 1525 1526	 1492722787	 203795688	 161728.
21:13:07 1526 1527	 1492722787	 341085241	 137290.
21:13:07 1527 1528	 1492722787	 502941160	 161856.
21:13:07 1528 1529	 1492722787	 669020232	 166079.
21:13:07 1529 1530	 1492722787	 830895257	 161875.
21:13:07 1530 1531	 1492722787	 992834625	 161939.
21:13:08 1531 1532	 1492722788	 158744061	 165910.
21:13:08 1532 1533	 1492722788	 320648866	 161905.
21:13:08 1533 1534	 1492722788	 486684784	 166035.
21:13:08 1534 1535	 1492722788	 648507681	 161823.
21:13:08 1535 1536	 1492722788	 781558131	 133051.
21:13:08 1536 1537	 1492722788	 947755380	 166197.
21:13:09 1537 1538	 1492722789	 109732173	 161977.
21:13:09 1538 1539	 1492722789	 276672187	 166940.
21:13:09 1539 1540	 1492722789	 435064045	 158392.
21:13:09 1540 1541	 1492722789	 597558516	 162494.
21:13:09 1541 1542	 1492722789	 764387386	 166829.
21:13:09 1542 1543	 1492722789	 926963351	 162576.
21:13:10 1543 1544	 1492722790	 93395326	 166432.
21:13:10 1544 1545	 1492722790	 255770745	 162375.
21:13:10 1545 1546	 1492722790	 422358264	 166588.
21:13:10 1546 1547	 1492722790	 584774434	 162416.
21:13:10 1547 1548	 1492722790	 751332727	 166558.
21:13:10 1548 1549	 1492722790	 913473293	 162141.
21:13:11 1549 1550	 1492722791	 50644211	 137171.
21:13:11 1550 1551	 1492722791	 212489326	 161845.
21:13:11 1551 1552	 1492722791	 374085295	 161596.
21:13:11 1552 1553	 1492722791	 539950615	 165865.
21:13:11 1553 1554	 1492722791	 701740250	 161790.
21:13:11 1554 1555	 1492722791	 867343486	 165603.
21:13:12 1555 1556	 1492722792	 29024075	 161681.
21:13:12 1556 1557	 1492722792	 166152514	 137128.
21:13:12 1557 1558	 1492722792	 327482648	 161330.
21:13:12 1558 1559	 1492722792	 488834309	 161352.
21:13:12 1559 1560	 1492722792	 654537767	 165703.
21:13:12 1560 1561	 1492722792	 816022128	 161485.
21:13:12 1561 1562	 1492722792	 953033980	 137012.
21:13:13 1562 1563	 1492722793	 114727989	 161694.
21:13:13 1563 1564	 1492722793	 280433999	 165706.
21:13:13 1564 1565	 1492722793	 442067242	 161633.
21:13:13 1565 1566	 1492722793	 607839400	 165772.
21:13:13 1566 1567	 1492722793	 769646818	 161808.
21:13:13 1567 1568	 1492722793	 902816960	 133170.
21:13:14 1568 1569	 1492722794	 68686542	 165869.
21:13:14 1569 1570	 1492722794	 230396475	 161710.
21:13:14 1570 1571	 1492722794	 396200106	 165804.
21:13:14 1571 1572	 1492722794	 558088311	 161888.
21:13:14 1572 1573	 1492722794	 719960870	 161873.
21:13:14 1573 1574	 1492722794	 856880768	 136919.
21:13:15 1574 1575	 1492722795	 19016221	 162136.
21:13:15 1575 1576	 1492722795	 185113561	 166097.
21:13:15 1576 1577	 1492722795	 346840113	 161727.
21:13:15 1577 1578	 1492722795	 512583471	 165743.
21:13:15 1578 1579	 1492722795	 674377188	 161794.
21:13:15 1579 1580	 1492722795	 807571047	 133194.
21:13:15 1580 1581	 1492722795	 973668890	 166098.
21:13:16 1581 1582	 1492722796	 139570041	 165901.
21:13:16 1582 1583	 1492722796	 301188832	 161619.
21:13:16 1583 1584	 1492722796	 462944443	 161755.
21:13:16 1584 1585	 1492722796	 629487307	 166543.
21:13:16 1585 1586	 1492722796	 791334242	 161847.
21:13:16 1586 1587	 1492722796	 928600701	 137266.
21:13:17 1587 1588	 1492722797	 90678766	 162078.
21:13:17 1588 1589	 1492722797	 256417239	 165739.
21:13:17 1589 1590	 1492722797	 418455006	 162038.
21:13:17 1590 1591	 1492722797	 584410681	 165955.
21:13:17 1591 1592	 1492722797	 717511120	 133101.
21:13:17 1592 1593	 1492722797	 883335414	 165824.
21:13:18 1593 1594	 1492722798	 45289090	 161954.
21:13:18 1594 1595	 1492722798	 211282010	 165993.
21:13:18 1595 1596	 1492722798	 373006970	 161725.
21:13:18 1596 1597	 1492722798	 506455396	 133448.
21:13:18 1597 1598	 1492722798	 672307185	 165852.
21:13:18 1598 1599	 1492722798	 834084160	 161777.
21:13:18 1599 1600	 1492722799	 406653	 166322.
21:13:19 1600 1601	 1492722799	 162131036	 161725.
21:13:19 1601 1602	 1492722799	 327858865	 165728.
21:13:19 1602 1603	 1492722799	 461141485	 133282.
21:13:19 1603 1604	 1492722799	 627178213	 166037.
21:13:19 1604 1605	 1492722799	 789052846	 161875.
21:13:19 1605 1606	 1492722799	 955030182	 165977.
21:13:20 1606 1607	 1492722800	 121170982	 166141.
21:13:20 1607 1608	 1492722800	 254403451	 133232.
21:13:20 1608 1609	 1492722800	 416346397	 161943.
21:13:20 1609 1610	 1492722800	 578557893	 162212.
21:13:20 1610 1611	 1492722800	 744694025	 166136.
21:13:20 1611 1612	 1492722800	 906461494	 161767.
21:13:21 1612 1613	 1492722801	 72472606	 166011.
21:13:21 1613 1614	 1492722801	 234646959	 162175.
21:13:21 1614 1615	 1492722801	 371795065	 137148.
21:13:21 1615 1616	 1492722801	 534039398	 162244.
21:13:21 1616 1617	 1492722801	 700226658	 166187.
21:13:21 1617 1618	 1492722801	 862284632	 162058.
21:13:22 1618 1619	 1492722802	 24329429	 162045.
21:13:22 1619 1620	 1492722802	 161705142	 137376.
21:13:22 1620 1621	 1492722802	 323641246	 161936.
21:13:22 1621 1622	 1492722802	 489785814	 166145.
21:13:22 1622 1623	 1492722802	 651355067	 161569.
21:13:22 1623 1624	 1492722802	 817089403	 165734.
21:13:22 1624 1625	 1492722802	 979051773	 161962.
21:13:23 1625 1626	 1492722803	 140886904	 161836.
21:13:23 1626 1627	 1492722803	 278252916	 137366.
21:13:23 1627 1628	 1492722803	 440147674	 161894.
21:13:23 1628 1629	 1492722803	 601743600	 161596.
21:13:23 1629 1630	 1492722803	 767786942	 166044.
21:13:23 1630 1631	 1492722803	 933538303	 165751.
21:13:24 1631 1632	 1492722804	 95688467	 162150.
21:13:24 1632 1633	 1492722804	 262028449	 166340.
21:13:24 1633 1634	 1492722804	 395177142	 133149.
21:13:24 1634 1635	 1492722804	 561359451	 166182.
21:13:24 1635 1636	 1492722804	 723169854	 161811.
21:13:24 1636 1637	 1492722804	 889002609	 165833.
21:13:25 1637 1638	 1492722805	 22330880	 133328.
21:13:25 1638 1639	 1492722805	 188280462	 165949.
21:13:25 1639 1640	 1492722805	 349897674	 161617.
21:13:25 1640 1641	 1492722805	 515875988	 165979.
21:13:25 1641 1642	 1492722805	 681798170	 165922.
21:13:25 1642 1643	 1492722805	 814894164	 133096.
21:13:25 1643 1644	 1492722805	 976571691	 161677.
21:13:26 1644 1645	 1492722806	 143594899	 167024.
21:13:26 1645 1646	 1492722806	 301966574	 158371.
21:13:26 1646 1647	 1492722806	 467757001	 165791.
21:13:26 1647 1648	 1492722806	 633915273	 166158.
21:13:26 1648 1649	 1492722806	 795845392	 161930.
21:13:26 1649 1650	 1492722806	 928818241	 132973.
21:13:27 1650 1651	 1492722807	 94594932	 165777.
21:13:27 1651 1652	 1492722807	 256394664	 161799.
21:13:27 1652 1653	 1492722807	 422699733	 166305.
21:13:27 1653 1654	 1492722807	 588968307	 166269.
21:13:27 1654 1655	 1492722807	 722093229	 133125.
21:13:27 1655 1656	 1492722807	 888039011	 165946.
21:13:28 1656 1657	 1492722808	 49888399	 161849.
21:13:28 1657 1658	 1492722808	 216050131	 166162.
21:13:28 1658 1659	 1492722808	 349064316	 133014.
21:13:28 1659 1660	 1492722808	 515123006	 166059.
21:13:28 1660 1661	 1492722808	 676790567	 161667.
21:13:28 1661 1662	 1492722808	 842678869	 165889.
21:13:28 1662 1663	 1492722808	 975433694	 132754.
21:13:29 1663 1664	 1492722809	 137281868	 161849.
21:13:29 1664 1665	 1492722809	 303111195	 165829.
21:13:29 1665 1666	 1492722809	 464844757	 161733.
21:13:29 1666 1667	 1492722809	 602178145	 137334.
21:13:29 1667 1668	 1492722809	 768137285	 165959.
21:13:29 1668 1669	 1492722809	 929718930	 161582.
21:13:30 1669 1670	 1492722810	 91755865	 162037.
21:13:30 1670 1671	 1492722810	 257474154	 165718.
21:13:30 1671 1672	 1492722810	 390957307	 133483.
21:13:30 1672 1673	 1492722810	 556942079	 165985.
21:13:30 1673 1674	 1492722810	 718664732	 161722.
21:13:30 1674 1675	 1492722810	 884474009	 165810.
21:13:31 1675 1676	 1492722811	 17733569	 133259.
21:13:31 1676 1677	 1492722811	 183897981	 166165.
21:13:31 1677 1678	 1492722811	 346224010	 162326.
21:13:31 1678 1679	 1492722811	 512365680	 166141.
21:13:31 1679 1680	 1492722811	 674676446	 162311.
21:13:31 1680 1681	 1492722811	 840579089	 165903.
21:13:31 1681 1682	 1492722811	 973813443	 133234.
21:13:32 1682 1683	 1492722812	 139866659	 166053.
21:13:32 1683 1684	 1492722812	 305703129	 165837.
21:13:32 1684 1685	 1492722812	 467443788	 161740.
21:13:32 1685 1686	 1492722812	 604890021	 137447.
21:13:32 1686 1687	 1492722812	 766845670	 161955.
21:13:32 1687 1688	 1492722812	 932725007	 165880.
21:13:33 1688 1689	 1492722813	 94737496	 162012.
21:13:33 1689 1690	 1492722813	 260390984	 165654.
21:13:33 1690 1691	 1492722813	 397557156	 137166.
21:13:33 1691 1692	 1492722813	 559147286	 161590.
21:13:33 1692 1693	 1492722813	 724798382	 165651.
21:13:33 1693 1694	 1492722813	 857845085	 133047.
21:13:34 1694 1695	 1492722814	 23910140	 166065.
21:13:34 1695 1696	 1492722814	 189614067	 165704.
21:13:34 1696 1697	 1492722814	 351672562	 162058.
21:13:34 1697 1698	 1492722814	 517929956	 166258.
21:13:34 1698 1699	 1492722814	 651270361	 133340.
21:13:34 1699 1700	 1492722814	 812897082	 161627.
21:13:34 1700 1701	 1492722814	 978914361	 166017.
21:13:35 1701 1702	 1492722815	 144644471	 165730.
21:13:35 1702 1703	 1492722815	 278157437	 133513.
21:13:35 1703 1704	 1492722815	 444085453	 165928.
21:13:35 1704 1705	 1492722815	 605911444	 161826.
21:13:35 1705 1706	 1492722815	 771739077	 165828.
21:13:35 1706 1707	 1492722815	 933633369	 161894.
21:13:36 1707 1708	 1492722816	 71174538	 137541.
21:13:36 1708 1709	 1492722816	 233016433	 161842.
21:13:36 1709 1710	 1492722816	 398803979	 165788.
21:13:36 1710 1711	 1492722816	 560796875	 161993.
21:13:36 1711 1712	 1492722816	 726837987	 166041.
21:13:36 1712 1713	 1492722816	 885424107	 158586.
21:13:37 1713 1714	 1492722817	 18313431	 132889.
21:13:37 1714 1715	 1492722817	 184497370	 166184.
21:13:37 1715 1716	 1492722817	 350680910	 166184.
21:13:37 1716 1717	 1492722817	 512877798	 162197.
21:13:37 1717 1718	 1492722817	 679100166	 166222.
21:13:37 1718 1719	 1492722817	 812344459	 133244.
21:13:37 1719 1720	 1492722817	 978334785	 165990.
21:13:38 1720 1721	 1492722818	 140499557	 162165.
21:13:38 1721 1722	 1492722818	 306581126	 166082.
21:13:38 1722 1723	 1492722818	 439514936	 132934.
21:13:38 1723 1724	 1492722818	 605519903	 166005.
21:13:38 1724 1725	 1492722818	 767363371	 161843.
21:13:38 1725 1726	 1492722818	 933219604	 165856.
21:13:39 1726 1727	 1492722819	 94818449	 161599.
21:13:39 1727 1728	 1492722819	 232560143	 137742.
21:13:39 1728 1729	 1492722819	 398157126	 165597.
21:13:39 1729 1730	 1492722819	 559992066	 161835.
21:13:39 1730 1731	 1492722819	 726086363	 166094.
21:13:39 1731 1732	 1492722819	 859322270	 133236.
21:13:40 1732 1733	 1492722820	 25219711	 165897.
21:13:40 1733 1734	 1492722820	 187046285	 161827.
21:13:40 1734 1735	 1492722820	 352823234	 165777.
21:13:40 1735 1736	 1492722820	 515274608	 162452.
21:13:40 1736 1737	 1492722820	 652653599	 137378.
21:13:40 1737 1738	 1492722820	 814601985	 161949.
21:13:40 1738 1739	 1492722820	 980591486	 165989.
21:13:41 1739 1740	 1492722821	 142890359	 162299.
21:13:41 1740 1741	 1492722821	 308901732	 166011.
21:13:41 1741 1742	 1492722821	 442041692	 133140.
21:13:41 1742 1743	 1492722821	 608350458	 166309.
21:13:41 1743 1744	 1492722821	 771002672	 162652.
21:13:41 1744 1745	 1492722821	 938084909	 167083.
21:13:42 1745 1746	 1492722822	 96140430	 158055.
21:13:42 1746 1747	 1492722822	 258431881	 162292.
21:13:42 1747 1748	 1492722822	 424712061	 166280.
21:13:42 1748 1749	 1492722822	 586954070	 162242.
21:13:42 1749 1750	 1492722822	 724130630	 137176.
21:13:42 1750 1751	 1492722822	 885906064	 161776.
21:13:43 1751 1752	 1492722823	 52122610	 166216.
21:13:43 1752 1753	 1492722823	 214172031	 162050.
21:13:43 1753 1754	 1492722823	 380522263	 166350.
21:13:43 1754 1755	 1492722823	 542551964	 162030.
21:13:43 1755 1756	 1492722823	 679636238	 137084.
21:13:43 1756 1757	 1492722823	 841581288	 161945.
21:13:44 1757 1758	 1492722824	 7871868	 166291.
21:13:44 1758 1759	 1492722824	 169596130	 161724.
21:13:44 1759 1760	 1492722824	 306999595	 137403.
21:13:44 1760 1761	 1492722824	 468965186	 161966.
21:13:44 1761 1762	 1492722824	 635152949	 166188.
21:13:44 1762 1763	 1492722824	 797183340	 162030.
21:13:44 1763 1764	 1492722824	 963068347	 165885.
21:13:45 1764 1765	 1492722825	 125483738	 162415.
21:13:45 1765 1766	 1492722825	 291853166	 166370.
21:13:45 1766 1767	 1492722825	 454445602	 162592.
21:13:45 1767 1768	 1492722825	 592278022	 137833.
21:13:45 1768 1769	 1492722825	 754490085	 162212.
21:13:45 1769 1770	 1492722825	 920998149	 166508.
21:13:46 1770 1771	 1492722826	 83704482	 162706.
21:13:46 1771 1772	 1492722826	 249947731	 166243.
21:13:46 1772 1773	 1492722826	 416258501	 166311.
21:13:46 1773 1774	 1492722826	 578749692	 162491.
21:13:46 1774 1775	 1492722826	 745292521	 166543.
21:13:46 1775 1776	 1492722826	 907479098	 162187.
21:13:47 1776 1777	 1492722827	 73471369	 165992.
21:13:47 1777 1778	 1492722827	 206555722	 133084.
21:13:47 1778 1779	 1492722827	 372279899	 165725.
21:13:47 1779 1780	 1492722827	 538329665	 166049.
21:13:47 1780 1781	 1492722827	 700145426	 161816.
21:13:47 1781 1782	 1492722827	 833536187	 133391.
21:13:47 1782 1783	 1492722827	 999582243	 166046.
21:13:48 1783 1784	 1492722828	 165292318	 165710.
21:13:48 1784 1785	 1492722828	 326801328	 161509.
21:13:48 1785 1786	 1492722828	 488314490	 161513.
21:13:48 1786 1787	 1492722828	 625374456	 137060.
21:13:48 1787 1788	 1492722828	 786814959	 161441.
21:13:48 1788 1789	 1492722828	 952650545	 165835.
21:13:49 1789 1790	 1492722829	 114225811	 161576.
21:13:49 1790 1791	 1492722829	 275691737	 161465.
21:13:49 1791 1792	 1492722829	 441307806	 165617.
21:13:49 1792 1793	 1492722829	 574734864	 133427.
21:13:49 1793 1794	 1492722829	 740495033	 165760.
21:13:49 1794 1795	 1492722829	 902097048	 161602.
21:13:50 1795 1796	 1492722830	 68228808	 166132.
21:13:50 1796 1797	 1492722830	 230448913	 162220.
21:13:50 1797 1798	 1492722830	 396564679	 166115.
21:13:50 1798 1799	 1492722830	 529409195	 132845.
21:13:50 1799 1800	 1492722830	 695422590	 166013.
21:13:50 1800 1801	 1492722830	 857462609	 162040.
21:13:51 1801 1802	 1492722831	 23542635	 166080.
21:13:51 1802 1803	 1492722831	 186013881	 162472.
21:13:51 1803 1804	 1492722831	 352209643	 166195.
21:13:51 1804 1805	 1492722831	 514345691	 162136.
21:13:51 1805 1806	 1492722831	 651908906	 137564.
21:13:51 1806 1807	 1492722831	 814140790	 162231.
21:13:51 1807 1808	 1492722831	 980472728	 166332.
21:13:52 1808 1809	 1492722832	 142598386	 162126.
21:13:52 1809 1810	 1492722832	 308361628	 165763.
21:13:52 1810 1811	 1492722832	 470309514	 161948.
21:13:52 1811 1812	 1492722832	 603527958	 133219.
21:13:52 1812 1813	 1492722832	 769918518	 166390.
21:13:52 1813 1814	 1492722832	 936169915	 166252.
21:13:53 1814 1815	 1492722833	 98223019	 162053.
21:13:53 1815 1816	 1492722833	 278752771	 180529.
21:13:53 1816 1817	 1492722833	 411783099	 133031.
21:13:53 1817 1818	 1492722833	 577405925	 165623.
21:13:53 1818 1819	 1492722833	 739031100	 161625.
21:13:53 1819 1820	 1492722833	 900479633	 161448.
21:13:54 1820 1821	 1492722834	 66198055	 165719.
21:13:54 1821 1822	 1492722834	 199268040	 133070.
21:13:54 1822 1823	 1492722834	 364986969	 165719.
21:13:54 1823 1824	 1492722834	 526824829	 161838.
21:13:54 1824 1825	 1492722834	 688309624	 161484.
21:13:54 1825 1826	 1492722834	 853990207	 165681.
21:13:55 1826 1827	 1492722835	 15735478	 161745.
21:13:55 1827 1828	 1492722835	 152978522	 137243.
21:13:55 1828 1829	 1492722835	 314434469	 161456.
21:13:55 1829 1830	 1492722835	 479805612	 165371.
21:13:55 1830 1831	 1492722835	 641666421	 161861.
21:13:55 1831 1832	 1492722835	 803724576	 162058.
21:13:55 1832 1833	 1492722835	 969709269	 165985.
21:13:56 1833 1834	 1492722836	 131679499	 161970.
21:13:56 1834 1835	 1492722836	 268872248	 137193.
21:13:56 1835 1836	 1492722836	 430396203	 161524.
21:13:56 1836 1837	 1492722836	 596104241	 165708.
21:13:56 1837 1838	 1492722836	 757524965	 161421.
21:13:56 1838 1839	 1492722836	 923340776	 165815.
21:13:57 1839 1840	 1492722837	 56502787	 133162.
21:13:57 1840 1841	 1492722837	 222392193	 165890.
21:13:57 1841 1842	 1492722837	 384443283	 162051.
21:13:57 1842 1843	 1492722837	 550597107	 166154.
21:13:57 1843 1844	 1492722837	 712393150	 161796.
21:13:57 1844 1845	 1492722837	 877837493	 165444.
21:13:58 1845 1846	 1492722838	 10968302	 133131.
21:13:58 1846 1847	 1492722838	 172580056	 161612.
21:13:58 1847 1848	 1492722838	 337952895	 165373.
21:13:58 1848 1849	 1492722838	 499522192	 161569.
21:13:58 1849 1850	 1492722838	 664827831	 165306.
21:13:58 1850 1851	 1492722838	 797393115	 132565.
21:13:58 1851 1852	 1492722838	 958648224	 161255.
21:13:59 1852 1853	 1492722839	 124361606	 165713.
21:13:59 1853 1854	 1492722839	 286068200	 161707.
21:13:59 1854 1855	 1492722839	 423393982	 137326.
21:13:59 1855 1856	 1492722839	 585407249	 162013.
21:13:59 1856 1857	 1492722839	 751536195	 166129.
21:13:59 1857 1858	 1492722839	 917744421	 166208.
21:14:00 1858 1859	 1492722840	 79785845	 162042.
21:14:00 1859 1860	 1492722840	 241842563	 162056.
21:14:00 1860 1861	 1492722840	 408291268	 166449.
21:14:00 1861 1862	 1492722840	 541934391	 133643.
21:14:00 1862 1863	 1492722840	 708149757	 166215.
21:14:00 1863 1864	 1492722840	 870380654	 162231.
21:14:01 1864 1865	 1492722841	 37146946	 166767.
21:14:01 1865 1866	 1492722841	 199115615	 161968.
21:14:01 1866 1867	 1492722841	 364900414	 165785.
21:14:01 1867 1868	 1492722841	 526665011	 161765.
21:14:01 1868 1869	 1492722841	 692534738	 165869.
21:14:01 1869 1870	 1492722841	 850556228	 158022.
21:14:01 1870 1871	 1492722841	 987874829	 137319.
21:14:02 1871 1872	 1492722842	 149790698	 161915.
21:14:02 1872 1873	 1492722842	 315519413	 165729.
21:14:02 1873 1874	 1492722842	 477386622	 161867.
21:14:02 1874 1875	 1492722842	 643603370	 166217.
21:14:02 1875 1876	 1492722842	 805461089	 161858.
21:14:02 1876 1877	 1492722842	 967370872	 161910.
21:14:03 1877 1878	 1492722843	 133314242	 165943.
21:14:03 1878 1879	 1492722843	 295165675	 161851.
21:14:03 1879 1880	 1492722843	 461040970	 165876.
21:14:03 1880 1881	 1492722843	 594244141	 133203.
21:14:03 1881 1882	 1492722843	 756249724	 162005.
21:14:03 1882 1883	 1492722843	 922004735	 165755.
21:14:04 1883 1884	 1492722844	 83887472	 161883.
21:14:04 1884 1885	 1492722844	 249825628	 165938.
21:14:04 1885 1886	 1492722844	 411795340	 161970.
21:14:04 1886 1887	 1492722844	 577813256	 166018.
21:14:04 1887 1888	 1492722844	 739538124	 161725.
21:14:04 1888 1889	 1492722844	 872645380	 133107.
