02:45:03    0 Step	 time(s)	 time(ns)	 delta(ms)
02:45:03    0 1	 1492483503	 239977155	 916.
02:45:03    1 2	 1492483503	 401375115	 161398.
02:45:03    2 3	 1492483503	 567514690	 166139.
02:45:03    3 4	 1492483503	 729277499	 161763.
02:45:03    4 5	 1492483503	 862516245	 133239.
02:45:04    5 6	 1492483504	 28393948	 165878.
02:45:04    6 7	 1492483504	 190311355	 161917.
02:45:04    7 8	 1492483504	 356167049	 165856.
02:45:04    8 9	 1492483504	 517904859	 161738.
02:45:04    9 10	 1492483504	 679712165	 161807.
02:45:04   10 11	 1492483504	 845679206	 165967.
02:45:04   11 12	 1492483504	 978887607	 133208.
02:45:05   12 13	 1492483505	 144271929	 165385.
02:45:05   13 14	 1492483505	 305978184	 161706.
02:45:05   14 15	 1492483505	 471821298	 165843.
02:45:05   15 16	 1492483505	 633466755	 161646.
02:45:05   16 17	 1492483505	 799412836	 165946.
02:45:05   17 18	 1492483505	 932580118	 133167.
02:45:06   18 19	 1492483506	 94354859	 161775.
02:45:06   19 20	 1492483506	 260099470	 165744.
02:45:06   20 21	 1492483506	 421943393	 161844.
02:45:06   21 22	 1492483506	 587997435	 166054.
02:45:06   22 23	 1492483506	 749974719	 161978.
02:45:06   23 24	 1492483506	 916087180	 166112.
02:45:07   24 25	 1492483507	 77845647	 161758.
02:45:07   25 26	 1492483507	 210877437	 133032.
02:45:07   26 27	 1492483507	 376594333	 165717.
02:45:07   27 28	 1492483507	 538198288	 161604.
02:45:07   28 29	 1492483507	 704024521	 165826.
02:45:07   29 30	 1492483507	 865659843	 161636.
02:45:08   30 31	 1492483508	 31360675	 165701.
02:45:08   31 32	 1492483508	 164262596	 132901.
02:45:08   32 33	 1492483508	 325893191	 161631.
02:45:08   33 34	 1492483508	 491627426	 165734.
02:45:08   34 35	 1492483508	 653409053	 161782.
02:45:08   35 36	 1492483508	 819051491	 165642.
02:45:08   36 37	 1492483508	 980653763	 161603.
02:45:09   37 38	 1492483509	 146296207	 165642.
02:45:09   38 39	 1492483509	 279301129	 133005.
02:45:09   39 40	 1492483509	 445485871	 166185.
02:45:09   40 41	 1492483509	 607432316	 161946.
02:45:09   41 42	 1492483509	 769268207	 161836.
02:45:09   42 43	 1492483509	 934767084	 165499.
02:45:10   43 44	 1492483510	 96134804	 161368.
02:45:10   44 45	 1492483510	 261718973	 165584.
02:45:10   45 46	 1492483510	 394766063	 133047.
02:45:10   46 47	 1492483510	 560259015	 165493.
02:45:10   47 48	 1492483510	 721884134	 161625.
02:45:10   48 49	 1492483510	 883462860	 161579.
02:45:11   49 50	 1492483511	 49160910	 165698.
02:45:11   50 51	 1492483511	 182273110	 133112.
02:45:11   51 52	 1492483511	 348066185	 165793.
02:45:11   52 53	 1492483511	 510012724	 161947.
02:45:11   53 54	 1492483511	 671398276	 161385.
02:45:11   54 55	 1492483511	 837153835	 165756.
02:45:11   55 56	 1492483511	 998829228	 161675.
02:45:12   56 57	 1492483512	 164446512	 165617.
02:45:12   57 58	 1492483512	 297517448	 133071.
02:45:12   58 59	 1492483512	 463269067	 165752.
02:45:12   59 60	 1492483512	 625093066	 161824.
02:45:12   60 61	 1492483512	 786562479	 161469.
02:45:12   61 62	 1492483512	 952003487	 165441.
02:45:13   62 63	 1492483513	 84913470	 132910.
02:45:13   63 64	 1492483513	 250642885	 165730.
02:45:13   64 65	 1492483513	 412689170	 162046.
02:45:13   65 66	 1492483513	 578469928	 165791.
02:45:13   66 67	 1492483513	 739853405	 161373.
02:45:13   67 68	 1492483513	 905628886	 165776.
02:45:14   68 69	 1492483514	 38944308	 133315.
02:45:14   69 70	 1492483514	 229346590	 190402.
02:45:14   70 71	 1492483514	 366947552	 137601.
02:45:14   71 72	 1492483514	 532730832	 165784.
02:45:14   72 73	 1492483514	 694276977	 161546.
02:45:14   73 74	 1492483514	 859871788	 165595.
02:45:14   74 75	 1492483514	 992911876	 133040.
02:45:15   75 76	 1492483515	 154539566	 161627.
02:45:15   76 77	 1492483515	 320472390	 165933.
02:45:15   77 78	 1492483515	 482397630	 161926.
02:45:15   78 79	 1492483515	 648479390	 166081.
02:45:15   79 80	 1492483515	 781691666	 133212.
02:45:15   80 81	 1492483515	 943573073	 161882.
02:45:16   81 82	 1492483516	 109784271	 166211.
02:45:16   82 83	 1492483516	 272257976	 162474.
02:45:16   83 84	 1492483516	 437877988	 165620.
02:45:16   84 85	 1492483516	 599732797	 161855.
02:45:16   85 86	 1492483516	 765524946	 165792.
02:45:16   86 87	 1492483516	 898616828	 133092.
02:45:17   87 88	 1492483517	 60634550	 162017.
02:45:17   88 89	 1492483517	 226200373	 165566.
02:45:17   89 90	 1492483517	 388153398	 161953.
02:45:17   90 91	 1492483517	 553994617	 165841.
02:45:17   91 92	 1492483517	 715542974	 161549.
02:45:17   92 93	 1492483517	 853118243	 137575.
02:45:18   93 94	 1492483518	 15259864	 162142.
02:45:18   94 95	 1492483518	 177302294	 162042.
02:45:18   95 96	 1492483518	 343520644	 166218.
02:45:18   96 97	 1492483518	 505065313	 161545.
02:45:18   97 98	 1492483518	 670796582	 165731.
02:45:18   98 99	 1492483518	 832717121	 161921.
02:45:18   99 100	 1492483518	 995329801	 162613.
02:45:19  100 101	 1492483519	 132694879	 137365.
02:45:19  101 102	 1492483519	 294782273	 162087.
02:45:19  102 103	 1492483519	 460912029	 166130.
02:45:19  103 104	 1492483519	 622718715	 161807.
02:45:19  104 105	 1492483519	 784395129	 161676.
02:45:19  105 106	 1492483519	 950732691	 166337.
02:45:20  106 107	 1492483520	 116607732	 165876.
02:45:20  107 108	 1492483520	 278417582	 161809.
02:45:20  108 109	 1492483520	 411195743	 132779.
02:45:20  109 110	 1492483520	 577307434	 166111.
02:45:20  110 111	 1492483520	 743406208	 166099.
02:45:20  111 112	 1492483520	 905384455	 161978.
02:45:21  112 113	 1492483521	 71119435	 165735.
02:45:21  113 114	 1492483521	 233333128	 162214.
02:45:21  114 115	 1492483521	 366462679	 133129.
02:45:21  115 116	 1492483521	 532469875	 166008.
02:45:21  116 117	 1492483521	 694622539	 162152.
02:45:21  117 118	 1492483521	 860848608	 166226.
02:45:22  118 119	 1492483522	 22875107	 162027.
02:45:22  119 120	 1492483522	 188552691	 165677.
02:45:22  120 121	 1492483522	 350258929	 161707.
02:45:22  121 122	 1492483522	 487554885	 137296.
02:45:22  122 123	 1492483522	 649387757	 161833.
02:45:22  123 124	 1492483522	 811483327	 162095.
02:45:22  124 125	 1492483522	 977850064	 166367.
02:45:23  125 126	 1492483523	 139952443	 162102.
02:45:23  126 127	 1492483523	 305972840	 166021.
02:45:23  127 128	 1492483523	 467879414	 161906.
02:45:23  128 129	 1492483523	 629608142	 161729.
02:45:23  129 130	 1492483523	 795530773	 165923.
02:45:23  130 131	 1492483523	 957340034	 161809.
02:45:24  131 132	 1492483524	 119471286	 162131.
02:45:24  132 133	 1492483524	 285441474	 165970.
02:45:24  133 134	 1492483524	 447567887	 162127.
02:45:24  134 135	 1492483524	 584909199	 137341.
02:45:24  135 136	 1492483524	 746536954	 161628.
02:45:24  136 137	 1492483524	 908457841	 161921.
02:45:25  137 138	 1492483525	 74409027	 165951.
02:45:25  138 139	 1492483525	 240374288	 165965.
02:45:25  139 140	 1492483525	 402238434	 161864.
02:45:25  140 141	 1492483525	 539624483	 137386.
02:45:25  141 142	 1492483525	 701575397	 161951.
02:45:25  142 143	 1492483525	 863550802	 161976.
02:45:26  143 144	 1492483526	 29493163	 165942.
02:45:26  144 145	 1492483526	 191592738	 162100.
02:45:26  145 146	 1492483526	 357619055	 166026.
02:45:26  146 147	 1492483526	 519927526	 162308.
02:45:26  147 148	 1492483526	 686131878	 166205.
02:45:26  148 149	 1492483526	 848146063	 162014.
02:45:26  149 150	 1492483526	 985466789	 137321.
02:45:27  150 151	 1492483527	 147427198	 161960.
02:45:27  151 152	 1492483527	 313848123	 166421.
02:45:27  152 153	 1492483527	 476089578	 162241.
02:45:27  153 154	 1492483527	 642330372	 166241.
02:45:27  154 155	 1492483527	 804554372	 162224.
02:45:27  155 156	 1492483527	 970675572	 166121.
02:45:28  156 157	 1492483528	 132516402	 161841.
02:45:28  157 158	 1492483528	 298652698	 166137.
02:45:28  158 159	 1492483528	 460620483	 161967.
02:45:28  159 160	 1492483528	 598036855	 137417.
02:45:28  160 161	 1492483528	 759935566	 161898.
02:45:28  161 162	 1492483528	 922031628	 162096.
02:45:29  162 163	 1492483529	 87994322	 165963.
02:45:29  163 164	 1492483529	 249626194	 161632.
02:45:29  164 165	 1492483529	 415332510	 165706.
02:45:29  165 166	 1492483529	 576919364	 161587.
02:45:29  166 167	 1492483529	 710080081	 133161.
02:45:29  167 168	 1492483529	 875915554	 165835.
02:45:30  168 169	 1492483530	 37903263	 161988.
02:45:30  169 170	 1492483530	 204103026	 166200.
02:45:30  170 171	 1492483530	 366576218	 162473.
02:45:30  171 172	 1492483530	 532807610	 166231.
02:45:30  172 173	 1492483530	 695062144	 162255.
02:45:30  173 174	 1492483530	 861153548	 166091.
02:45:31  174 175	 1492483531	 23556582	 162403.
02:45:31  175 176	 1492483531	 189841837	 166286.
02:45:31  176 177	 1492483531	 323113360	 133271.
02:45:31  177 178	 1492483531	 485127908	 162015.
02:45:31  178 179	 1492483531	 651543132	 166415.
02:45:31  179 180	 1492483531	 817639690	 166096.
02:45:31  180 181	 1492483531	 979819025	 162180.
02:45:32  181 182	 1492483532	 146171105	 166352.
02:45:32  182 183	 1492483532	 308558436	 162387.
02:45:32  183 184	 1492483532	 474644101	 166086.
02:45:32  184 185	 1492483532	 607956555	 133312.
02:45:32  185 186	 1492483532	 773738444	 165782.
02:45:32  186 187	 1492483532	 935787099	 162049.
02:45:33  187 188	 1492483533	 101657913	 165871.
02:45:33  188 189	 1492483533	 267365800	 165708.
02:45:33  189 190	 1492483533	 429036520	 161670.
02:45:33  190 191	 1492483533	 590732448	 161696.
02:45:33  191 192	 1492483533	 728154662	 137422.
02:45:33  192 193	 1492483533	 890339937	 162186.
02:45:34  193 194	 1492483534	 56117539	 165777.
02:45:34  194 195	 1492483534	 217890418	 161773.
02:45:34  195 196	 1492483534	 383831258	 165941.
02:45:34  196 197	 1492483534	 545550971	 161720.
02:45:34  197 198	 1492483534	 682806120	 137255.
02:45:34  198 199	 1492483534	 844559391	 161753.
02:45:35  199 200	 1492483535	 6399655	 161840.
02:45:35  200 201	 1492483535	 172577892	 166179.
02:45:35  201 202	 1492483535	 334439624	 161862.
02:45:35  202 203	 1492483535	 500302908	 165863.
02:45:35  203 204	 1492483535	 633407755	 133105.
02:45:35  204 205	 1492483535	 799351305	 165943.
02:45:35  205 206	 1492483535	 961103068	 161752.
02:45:36  206 207	 1492483536	 126935444	 165832.
02:45:36  207 208	 1492483536	 288865840	 161931.
02:45:36  208 209	 1492483536	 455158852	 166293.
02:45:36  209 210	 1492483536	 617318419	 162159.
02:45:36  210 211	 1492483536	 754634295	 137316.
02:45:36  211 212	 1492483536	 916438712	 161805.
02:45:37  212 213	 1492483537	 78108082	 161669.
02:45:37  213 214	 1492483537	 244007740	 165900.
02:45:37  214 215	 1492483537	 405702789	 161695.
02:45:37  215 216	 1492483537	 571800743	 166098.
02:45:37  216 217	 1492483537	 705365403	 133564.
02:45:37  217 218	 1492483537	 871572127	 166207.
02:45:38  218 219	 1492483538	 33410047	 161838.
02:45:38  219 220	 1492483538	 199485426	 166075.
02:45:38  220 221	 1492483538	 361495502	 162010.
02:45:38  221 222	 1492483538	 523373806	 161879.
02:45:38  222 223	 1492483538	 689525031	 166151.
02:45:38  223 224	 1492483538	 855720030	 166195.
02:45:39  224 225	 1492483539	 17878546	 162158.
02:45:39  225 226	 1492483539	 151149762	 133272.
02:45:39  226 227	 1492483539	 317459539	 166309.
02:45:39  227 228	 1492483539	 483778206	 166319.
02:45:39  228 229	 1492483539	 645417701	 161639.
02:45:39  229 230	 1492483539	 811281820	 165865.
02:45:39  230 231	 1492483539	 973133250	 161851.
02:45:40  231 232	 1492483540	 110502512	 137369.
02:45:40  232 233	 1492483540	 272164678	 161662.
02:45:40  233 234	 1492483540	 437965421	 165801.
02:45:40  234 235	 1492483540	 599966925	 162002.
02:45:40  235 236	 1492483540	 765880602	 165913.
02:45:40  236 237	 1492483540	 927775910	 161896.
02:45:41  237 238	 1492483541	 89508433	 161732.
02:45:41  238 239	 1492483541	 226764651	 137256.
02:45:41  239 240	 1492483541	 388717234	 161953.
02:45:41  240 241	 1492483541	 554898290	 166181.
02:45:41  241 242	 1492483541	 716974714	 162077.
02:45:41  242 243	 1492483541	 883595558	 166620.
02:45:42  243 244	 1492483542	 45487975	 161893.
02:45:42  244 245	 1492483542	 211530488	 166042.
02:45:42  245 246	 1492483542	 344589033	 133059.
02:45:42  246 247	 1492483542	 506937593	 162348.
02:45:42  247 248	 1492483542	 673114068	 166177.
02:45:42  248 249	 1492483542	 834405465	 161291.
02:45:42  249 250	 1492483543	 90662	 165686.
02:45:43  250 251	 1492483543	 161748047	 161657.
02:45:43  251 252	 1492483543	 299324179	 137576.
02:45:43  252 253	 1492483543	 461435493	 162111.
02:45:43  253 254	 1492483543	 627087119	 165652.
02:45:43  254 255	 1492483543	 788510740	 161424.
02:45:43  255 256	 1492483543	 954367695	 165856.
02:45:44  256 257	 1492483544	 116098777	 161732.
02:45:44  257 258	 1492483544	 249413387	 133314.
02:45:44  258 259	 1492483544	 415719781	 166307.
02:45:44  259 260	 1492483544	 577536479	 161816.
02:45:44  260 261	 1492483544	 743260172	 165724.
02:45:44  261 262	 1492483544	 904880126	 161620.
02:45:45  262 263	 1492483545	 70537878	 165658.
02:45:45  263 264	 1492483545	 203325070	 132787.
02:45:45  264 265	 1492483545	 365165750	 161841.
02:45:45  265 266	 1492483545	 530934446	 165768.
02:45:45  266 267	 1492483545	 692334564	 161400.
02:45:45  267 268	 1492483545	 858308132	 165974.
02:45:45  268 269	 1492483545	 991150789	 132843.
02:45:46  269 270	 1492483546	 156763851	 165613.
02:45:46  270 271	 1492483546	 318353373	 161589.
02:45:46  271 272	 1492483546	 480324372	 161971.
02:45:46  272 273	 1492483546	 647532816	 167209.
02:45:46  273 274	 1492483546	 809165160	 161632.
02:45:46  274 275	 1492483546	 946275756	 137111.
02:45:47  275 276	 1492483547	 108071620	 161796.
02:45:47  276 277	 1492483547	 273966744	 165895.
02:45:47  277 278	 1492483547	 435583832	 161617.
02:45:47  278 279	 1492483547	 601129869	 165546.
02:45:47  279 280	 1492483547	 734099915	 132970.
02:45:47  280 281	 1492483547	 895434721	 161335.
02:45:48  281 282	 1492483548	 61096850	 165662.
02:45:48  282 283	 1492483548	 247470445	 186373.
02:45:48  283 284	 1492483548	 385236251	 137766.
02:45:48  284 285	 1492483548	 550978419	 165742.
02:45:48  285 286	 1492483548	 683918457	 132940.
02:45:48  286 287	 1492483548	 845197444	 161279.
02:45:49  287 288	 1492483549	 11353550	 166156.
02:45:49  288 289	 1492483549	 177237722	 165884.
02:45:49  289 290	 1492483549	 339184547	 161947.
02:45:49  290 291	 1492483549	 472287457	 133103.
02:45:49  291 292	 1492483549	 637807852	 165521.
02:45:49  292 293	 1492483549	 799277172	 161469.
02:45:49  293 294	 1492483549	 965363794	 166087.
02:45:50  294 295	 1492483550	 127437575	 162073.
02:45:50  295 296	 1492483550	 293382719	 165946.
02:45:50  296 297	 1492483550	 426406697	 133023.
02:45:50  297 298	 1492483550	 591876780	 165471.
02:45:50  298 299	 1492483550	 753455967	 161579.
02:45:50  299 300	 1492483550	 915137882	 161682.
02:45:51  300 301	 1492483551	 80918562	 165780.
02:45:51  301 302	 1492483551	 213991914	 133074.
02:45:51  302 303	 1492483551	 375498776	 161507.
02:45:51  303 304	 1492483551	 541134571	 165635.
02:45:51  304 305	 1492483551	 702776169	 161642.
02:45:51  305 306	 1492483551	 868360400	 165584.
02:45:52  306 307	 1492483552	 30051823	 161692.
02:45:52  307 308	 1492483552	 162972791	 132921.
02:45:52  308 309	 1492483552	 328589541	 165616.
02:45:52  309 310	 1492483552	 489880558	 161291.
02:45:52  310 311	 1492483552	 655484715	 165604.
02:45:52  311 312	 1492483552	 816805973	 161322.
02:45:52  312 313	 1492483552	 949641749	 132836.
02:45:53  313 314	 1492483553	 115380210	 165738.
02:45:53  314 315	 1492483553	 277076408	 161696.
02:45:53  315 316	 1492483553	 439044471	 161968.
02:45:53  316 317	 1492483553	 604707975	 165664.
02:45:53  317 318	 1492483553	 766433391	 161725.
02:45:53  318 319	 1492483553	 932429146	 165996.
02:45:54  319 320	 1492483554	 94676964	 162248.
02:45:54  320 321	 1492483554	 227987222	 133310.
02:45:54  321 322	 1492483554	 394118670	 166131.
02:45:54  322 323	 1492483554	 556140712	 162023.
02:45:54  323 324	 1492483554	 722184105	 166043.
02:45:54  324 325	 1492483554	 883934973	 161751.
02:45:55  325 326	 1492483555	 49785997	 165851.
02:45:55  326 327	 1492483555	 183218794	 133433.
02:45:55  327 328	 1492483555	 349553849	 166335.
02:45:55  328 329	 1492483555	 511081627	 161527.
02:45:55  329 330	 1492483555	 676996193	 165915.
02:45:55  330 331	 1492483555	 838518345	 161522.
02:45:55  331 332	 1492483556	 190130	 161672.
02:45:56  332 333	 1492483556	 166073732	 165884.
02:45:56  333 334	 1492483556	 327805590	 161731.
02:45:56  334 335	 1492483556	 460879566	 133074.
02:45:56  335 336	 1492483556	 626832155	 165953.
02:45:56  336 337	 1492483556	 788648144	 161816.
02:45:56  337 338	 1492483556	 954454031	 165806.
02:45:57  338 339	 1492483557	 116318371	 161864.
02:45:57  339 340	 1492483557	 282147381	 165829.
02:45:57  340 341	 1492483557	 443993138	 161846.
02:45:57  341 342	 1492483557	 609796109	 165803.
02:45:57  342 343	 1492483557	 771543655	 161747.
02:45:57  343 344	 1492483557	 904974309	 133431.
02:45:58  344 345	 1492483558	 71166307	 166192.
02:45:58  345 346	 1492483558	 233101918	 161936.
02:45:58  346 347	 1492483558	 399120455	 166018.
02:45:58  347 348	 1492483558	 560958902	 161839.
02:45:58  348 349	 1492483558	 722853084	 161894.
02:45:58  349 350	 1492483558	 888684013	 165831.
02:45:59  350 351	 1492483559	 50687735	 162004.
02:45:59  351 352	 1492483559	 216923477	 166235.
02:45:59  352 353	 1492483559	 379062712	 162140.
02:45:59  353 354	 1492483559	 541063661	 162000.
02:45:59  354 355	 1492483559	 707093085	 166030.
02:45:59  355 356	 1492483559	 872957375	 165864.
02:46:00  356 357	 1492483560	 6218944	 133262.
02:46:00  357 358	 1492483560	 168271424	 162052.
02:46:00  358 359	 1492483560	 334162591	 165891.
02:46:00  359 360	 1492483560	 496041601	 161879.
02:46:00  360 361	 1492483560	 657706424	 161665.
02:46:00  361 362	 1492483560	 823581034	 165875.
02:46:00  362 363	 1492483560	 985304562	 161723.
02:46:01  363 364	 1492483561	 151259632	 165955.
02:46:01  364 365	 1492483561	 312968979	 161710.
02:46:01  365 366	 1492483561	 446219973	 133251.
02:46:01  366 367	 1492483561	 611928997	 165709.
02:46:01  367 368	 1492483561	 773637729	 161709.
02:46:01  368 369	 1492483561	 935429624	 161791.
02:46:02  369 370	 1492483562	 101303727	 165875.
02:46:02  370 371	 1492483562	 263302960	 161999.
02:46:02  371 372	 1492483562	 429340098	 166037.
02:46:02  372 373	 1492483562	 591300611	 161960.
02:46:02  373 374	 1492483562	 757243312	 165943.
02:46:02  374 375	 1492483562	 919091355	 161848.
02:46:03  375 376	 1492483563	 52283476	 133192.
02:46:03  376 377	 1492483563	 218110414	 165827.
02:46:03  377 378	 1492483563	 379989217	 161879.
02:46:03  378 379	 1492483563	 545882129	 165893.
02:46:03  379 380	 1492483563	 707665338	 161783.
02:46:03  380 381	 1492483563	 873660916	 165996.
02:46:04  381 382	 1492483564	 35684163	 162023.
02:46:04  382 383	 1492483564	 201773618	 166089.
02:46:04  383 384	 1492483564	 363578261	 161805.
02:46:04  384 385	 1492483564	 529357299	 165779.
02:46:04  385 386	 1492483564	 662492489	 133135.
02:46:04  386 387	 1492483564	 824141956	 161650.
02:46:04  387 388	 1492483564	 989835701	 165693.
02:46:05  388 389	 1492483565	 175841991	 186007.
02:46:05  389 390	 1492483565	 317065957	 141224.
02:46:05  390 391	 1492483565	 482918664	 165852.
02:46:05  391 392	 1492483565	 644605414	 161687.
02:46:05  392 393	 1492483565	 777571050	 132966.
02:46:05  393 394	 1492483565	 943436886	 165866.
02:46:06  394 395	 1492483566	 105228986	 161792.
02:46:06  395 396	 1492483566	 266946927	 161718.
02:46:06  396 397	 1492483566	 432706374	 165759.
02:46:06  397 398	 1492483566	 594532841	 161827.
02:46:06  398 399	 1492483566	 760367423	 165834.
02:46:06  399 400	 1492483566	 922196161	 161829.
02:46:07  400 401	 1492483567	 87816897	 165621.
02:46:07  401 402	 1492483567	 220856315	 133039.
02:46:07  402 403	 1492483567	 382489065	 161633.
02:46:07  403 404	 1492483567	 548441414	 165952.
02:46:07  404 405	 1492483567	 710121516	 161680.
02:46:07  405 406	 1492483567	 875965875	 165845.
02:46:08  406 407	 1492483568	 37580684	 161614.
02:46:08  407 408	 1492483568	 203335856	 165756.
02:46:08  408 409	 1492483568	 336509768	 133174.
02:46:08  409 410	 1492483568	 498173892	 161664.
02:46:08  410 411	 1492483568	 663794544	 165620.
02:46:08  411 412	 1492483568	 825546222	 161752.
02:46:08  412 413	 1492483568	 991255191	 165709.
02:46:09  413 414	 1492483569	 152575072	 161320.
02:46:09  414 415	 1492483569	 289582685	 137007.
02:46:09  415 416	 1492483569	 451344323	 161762.
02:46:09  416 417	 1492483569	 617050706	 165707.
02:46:09  417 418	 1492483569	 778632205	 161581.
02:46:09  418 419	 1492483569	 940167965	 161536.
02:46:10  419 420	 1492483570	 105953283	 165785.
02:46:10  420 421	 1492483570	 267564582	 161611.
02:46:10  421 422	 1492483570	 404652438	 137088.
02:46:10  422 423	 1492483570	 566386326	 161734.
02:46:10  423 424	 1492483570	 732264758	 165879.
02:46:10  424 425	 1492483570	 893978884	 161714.
02:46:11  425 426	 1492483571	 55719504	 161740.
02:46:11  426 427	 1492483571	 221532676	 165813.
02:46:11  427 428	 1492483571	 383348627	 161816.
02:46:11  428 429	 1492483571	 549155327	 165807.
02:46:11  429 430	 1492483571	 682213075	 133058.
02:46:11  430 431	 1492483571	 843841950	 161629.
02:46:12  431 432	 1492483572	 5817986	 161976.
02:46:12  432 433	 1492483572	 171560356	 165742.
02:46:12  433 434	 1492483572	 337338070	 165778.
02:46:12  434 435	 1492483572	 499159151	 161821.
02:46:12  435 436	 1492483572	 661127396	 161968.
02:46:12  436 437	 1492483572	 826765827	 165639.
02:46:12  437 438	 1492483572	 959767594	 133001.
02:46:13  438 439	 1492483573	 121620414	 161853.
02:46:13  439 440	 1492483573	 287566136	 165946.
02:46:13  440 441	 1492483573	 449242379	 161676.
02:46:13  441 442	 1492483573	 615225029	 165983.
02:46:13  442 443	 1492483573	 777063290	 161838.
02:46:13  443 444	 1492483573	 938778602	 161715.
02:46:14  444 445	 1492483574	 104602404	 165824.
02:46:14  445 446	 1492483574	 266368912	 161767.
02:46:14  446 447	 1492483574	 403547996	 137179.
02:46:14  447 448	 1492483574	 565474191	 161926.
02:46:14  448 449	 1492483574	 731210027	 165736.
02:46:14  449 450	 1492483574	 892889356	 161679.
02:46:15  450 451	 1492483575	 58687073	 165798.
02:46:15  451 452	 1492483575	 220548464	 161861.
02:46:15  452 453	 1492483575	 382385659	 161838.
02:46:15  453 454	 1492483575	 548255134	 165869.
02:46:15  454 455	 1492483575	 710084091	 161829.
02:46:15  455 456	 1492483575	 847274387	 137190.
02:46:16  456 457	 1492483576	 8994492	 161720.
02:46:16  457 458	 1492483576	 174998256	 166004.
02:46:16  458 459	 1492483576	 387036655	 212039.
02:46:16  459 460	 1492483576	 495843448	 108806.
02:46:16  460 461	 1492483576	 657564827	 161722.
02:46:16  461 462	 1492483576	 823401480	 165836.
02:46:16  462 463	 1492483576	 985156745	 161756.
02:46:17  463 464	 1492483577	 146932380	 161775.
02:46:17  464 465	 1492483577	 312655557	 165723.
02:46:17  465 466	 1492483577	 474464591	 161809.
02:46:17  466 467	 1492483577	 611547731	 137084.
02:46:17  467 468	 1492483577	 773467169	 161919.
02:46:17  468 469	 1492483577	 939401510	 165934.
02:46:18  469 470	 1492483578	 101150914	 161750.
02:46:18  470 471	 1492483578	 266986614	 165835.
02:46:18  471 472	 1492483578	 428849597	 161863.
02:46:18  472 473	 1492483578	 590555857	 161707.
02:46:18  473 474	 1492483578	 756685332	 166129.
02:46:18  474 475	 1492483578	 918687492	 162002.
02:46:19  475 476	 1492483579	 80541529	 161854.
02:46:19  476 477	 1492483579	 246362098	 165821.
02:46:19  477 478	 1492483579	 379317945	 132956.
02:46:19  478 479	 1492483579	 544964124	 165646.
02:46:19  479 480	 1492483579	 706730548	 161767.
02:46:19  480 481	 1492483579	 868438062	 161707.
02:46:20  481 482	 1492483580	 34209401	 165771.
02:46:20  482 483	 1492483580	 195882150	 161673.
02:46:20  483 484	 1492483580	 361688136	 165806.
02:46:20  484 485	 1492483580	 494622922	 132935.
02:46:20  485 486	 1492483580	 656310993	 161688.
02:46:20  486 487	 1492483580	 818055925	 161745.
02:46:20  487 488	 1492483580	 983799536	 165743.
02:46:21  488 489	 1492483581	 145606375	 161807.
02:46:21  489 490	 1492483581	 311236470	 165630.
02:46:21  490 491	 1492483581	 472860392	 161624.
02:46:21  491 492	 1492483581	 634961756	 162102.
02:46:21  492 493	 1492483581	 801026908	 166065.
02:46:21  493 494	 1492483581	 963141429	 162114.
02:46:22  494 495	 1492483582	 124159252	 161018.
02:46:22  495 496	 1492483582	 285997900	 161839.
02:46:22  496 497	 1492483582	 447539145	 161541.
02:46:22  497 498	 1492483582	 613088989	 165550.
02:46:22  498 499	 1492483582	 774813218	 161724.
02:46:22  499 500	 1492483582	 911844479	 137031.
02:46:23  500 501	 1492483583	 73370977	 161527.
02:46:23  501 502	 1492483583	 238881562	 165510.
02:46:23  502 503	 1492483583	 400366682	 161485.
02:46:23  503 504	 1492483583	 562071457	 161705.
02:46:23  504 505	 1492483583	 727701077	 165630.
02:46:23  505 506	 1492483583	 860498775	 132797.
02:46:24  506 507	 1492483584	 26153254	 165655.
02:46:24  507 508	 1492483584	 187902754	 161750.
02:46:24  508 509	 1492483584	 349618175	 161715.
02:46:24  509 510	 1492483584	 515688513	 166070.
02:46:24  510 511	 1492483584	 677209493	 161521.
02:46:24  511 512	 1492483584	 814377919	 137169.
02:46:24  512 513	 1492483584	 975904084	 161526.
02:46:25  513 514	 1492483585	 137240682	 161336.
02:46:25  514 515	 1492483585	 303034038	 165794.
02:46:25  515 516	 1492483585	 468766945	 165733.
02:46:25  516 517	 1492483585	 630347388	 161580.
02:46:25  517 518	 1492483585	 763388369	 133041.
02:46:25  518 519	 1492483585	 929227340	 165839.
02:46:26  519 520	 1492483586	 90900794	 161674.
02:46:26  520 521	 1492483586	 256753598	 165852.
02:46:26  521 522	 1492483586	 418746814	 161994.
02:46:26  522 523	 1492483586	 584608576	 165861.
02:46:26  523 524	 1492483586	 746308103	 161700.
02:46:26  524 525	 1492483586	 908298274	 161990.
02:46:27  525 526	 1492483587	 45382969	 137085.
02:46:27  526 527	 1492483587	 206991416	 161608.
02:46:27  527 528	 1492483587	 372848963	 165858.
02:46:27  528 529	 1492483587	 534714264	 161865.
02:46:27  529 530	 1492483587	 696311250	 161597.
02:46:27  530 531	 1492483587	 862183499	 165872.
02:46:28  531 532	 1492483588	 23996752	 161814.
02:46:28  532 533	 1492483588	 185603298	 161606.
02:46:28  533 534	 1492483588	 351634027	 166031.
02:46:28  534 535	 1492483588	 513663689	 162029.
02:46:28  535 536	 1492483588	 650841116	 137178.
02:46:28  536 537	 1492483588	 812845897	 162005.
02:46:28  537 538	 1492483588	 974711216	 161865.
02:46:29  538 539	 1492483589	 140837366	 166126.
02:46:29  539 540	 1492483589	 302762459	 161925.
02:46:29  540 541	 1492483589	 468462550	 165700.
02:46:29  541 542	 1492483589	 630267172	 161805.
02:46:29  542 543	 1492483589	 796174985	 165908.
02:46:29  543 544	 1492483589	 957885257	 161710.
02:46:30  544 545	 1492483590	 123662674	 165777.
02:46:30  545 546	 1492483590	 285511290	 161849.
02:46:30  546 547	 1492483590	 447359548	 161848.
02:46:30  547 548	 1492483590	 584302313	 136943.
02:46:30  548 549	 1492483590	 746523040	 162221.
02:46:30  549 550	 1492483590	 912596536	 166073.
02:46:31  550 551	 1492483591	 74666056	 162070.
02:46:31  551 552	 1492483591	 240914949	 166249.
02:46:31  552 553	 1492483591	 402769343	 161854.
02:46:31  553 554	 1492483591	 569031416	 166262.
02:46:31  554 555	 1492483591	 730803065	 161772.
02:46:31  555 556	 1492483591	 867836085	 137033.
02:46:32  556 557	 1492483592	 29470698	 161634.
02:46:32  557 558	 1492483592	 195213313	 165743.
02:46:32  558 559	 1492483592	 356844296	 161631.
02:46:32  559 560	 1492483592	 518604292	 161760.
02:46:32  560 561	 1492483592	 684278923	 165675.
02:46:32  561 562	 1492483592	 845943464	 161664.
02:46:33  562 563	 1492483593	 11540073	 165597.
02:46:33  563 564	 1492483593	 144580890	 133041.
02:46:33  564 565	 1492483593	 310253216	 165672.
02:46:33  565 566	 1492483593	 471929258	 161676.
02:46:33  566 567	 1492483593	 633430720	 161502.
02:46:33  567 568	 1492483593	 798973915	 165543.
02:46:33  568 569	 1492483593	 960409157	 161435.
02:46:34  569 570	 1492483594	 126214846	 165806.
02:46:34  570 571	 1492483594	 258968075	 132753.
02:46:34  571 572	 1492483594	 420543092	 161575.
02:46:34  572 573	 1492483594	 586323192	 165780.
02:46:34  573 574	 1492483594	 748090802	 161768.
02:46:34  574 575	 1492483594	 914256614	 166165.
02:46:35  575 576	 1492483595	 76004222	 161748.
02:46:35  576 577	 1492483595	 213078315	 137074.
02:46:35  577 578	 1492483595	 374886629	 161808.
02:46:35  578 579	 1492483595	 540659952	 165774.
02:46:35  579 580	 1492483595	 702179121	 161519.
02:46:35  580 581	 1492483595	 867791029	 165612.
02:46:35  581 582	 1492483596	 697845	 132907.
02:46:36  582 583	 1492483596	 166291626	 165593.
02:46:36  583 584	 1492483596	 328226501	 161935.
02:46:36  584 585	 1492483596	 490173600	 161947.
02:46:36  585 586	 1492483596	 656558532	 166385.
02:46:36  586 587	 1492483596	 818765059	 162207.
02:46:36  587 588	 1492483596	 984743104	 166066.
02:46:37  588 589	 1492483597	 147106465	 162275.
02:46:37  589 590	 1492483597	 309270632	 162164.
02:46:37  590 591	 1492483597	 475337671	 166067.
02:46:37  591 592	 1492483597	 608369373	 133032.
02:46:37  592 593	 1492483597	 774090680	 165722.
02:46:37  593 594	 1492483597	 936242244	 162151.
02:46:38  594 595	 1492483598	 102175182	 165933.
02:46:38  595 596	 1492483598	 264234296	 162059.
02:46:38  596 597	 1492483598	 426105394	 161871.
02:46:38  597 598	 1492483598	 592247162	 166142.
02:46:38  598 599	 1492483598	 725476821	 133230.
02:46:38  599 600	 1492483598	 891640799	 166164.
02:46:39  600 601	 1492483599	 88222298	 196581.
02:46:39  601 602	 1492483599	 205058075	 116836.
02:46:39  602 603	 1492483599	 366729277	 161671.
02:46:39  603 604	 1492483599	 532687723	 165959.
02:46:39  604 605	 1492483599	 694604363	 161916.
02:46:39  605 606	 1492483599	 860113044	 165509.
02:46:40  606 607	 1492483600	 21890599	 161777.
02:46:40  607 608	 1492483600	 159323208	 137433.
02:46:40  608 609	 1492483600	 321021038	 161698.
02:46:40  609 610	 1492483600	 482865442	 161844.
02:46:40  610 611	 1492483600	 648615835	 165751.
02:46:40  611 612	 1492483600	 810217698	 161601.
02:46:40  612 613	 1492483600	 947129996	 136913.
02:46:41  613 614	 1492483601	 108796219	 161666.
02:46:41  614 615	 1492483601	 274323031	 165527.
02:46:41  615 616	 1492483601	 435928630	 161605.
02:46:41  616 617	 1492483601	 602778844	 166851.
02:46:41  617 618	 1492483601	 765046205	 162267.
02:46:41  618 619	 1492483601	 931408021	 166362.
02:46:42  619 620	 1492483602	 64842057	 133434.
02:46:42  620 621	 1492483602	 230466152	 165624.
02:46:42  621 622	 1492483602	 392015542	 161549.
02:46:42  622 623	 1492483602	 557702874	 165688.
02:46:42  623 624	 1492483602	 719260088	 161557.
02:46:42  624 625	 1492483602	 852552650	 133292.
02:46:43  625 626	 1492483603	 18496275	 165944.
02:46:43  626 627	 1492483603	 180279376	 161783.
02:46:43  627 628	 1492483603	 346201845	 165923.
02:46:43  628 629	 1492483603	 508246295	 162044.
02:46:43  629 630	 1492483603	 674694914	 166449.
02:46:43  630 631	 1492483603	 836631647	 161936.
02:46:43  631 632	 1492483603	 998623795	 161993.
02:46:44  632 633	 1492483604	 135545893	 136922.
02:46:44  633 634	 1492483604	 297542081	 161996.
02:46:44  634 635	 1492483604	 463211042	 165669.
02:46:44  635 636	 1492483604	 625028995	 161818.
02:46:44  636 637	 1492483604	 790510582	 165481.
02:46:44  637 638	 1492483604	 952572396	 162062.
02:46:45  638 639	 1492483605	 85733153	 133161.
02:46:45  639 640	 1492483605	 251393513	 165660.
02:46:45  640 641	 1492483605	 413612981	 162220.
02:46:45  641 642	 1492483605	 579443989	 165831.
02:46:45  642 643	 1492483605	 741187270	 161743.
02:46:45  643 644	 1492483605	 906937571	 165750.
02:46:46  644 645	 1492483606	 68588987	 161652.
02:46:46  645 646	 1492483606	 201777703	 133188.
02:46:46  646 647	 1492483606	 367679767	 165903.
02:46:46  647 648	 1492483606	 529788166	 162108.
02:46:46  648 649	 1492483606	 695782072	 165994.
02:46:46  649 650	 1492483606	 857657419	 161875.
02:46:47  650 651	 1492483607	 19575768	 161919.
02:46:47  651 652	 1492483607	 185678331	 166102.
02:46:47  652 653	 1492483607	 347530630	 161852.
02:46:47  653 654	 1492483607	 509309254	 161779.
02:46:47  654 655	 1492483607	 675034376	 165725.
02:46:47  655 656	 1492483607	 836656188	 161622.
02:46:47  656 657	 1492483607	 973733536	 137077.
02:46:48  657 658	 1492483608	 135724084	 161991.
02:46:48  658 659	 1492483608	 301290866	 165567.
02:46:48  659 660	 1492483608	 463198217	 161907.
02:46:48  660 661	 1492483608	 629161304	 165963.
02:46:48  661 662	 1492483608	 791224294	 162063.
02:46:48  662 663	 1492483608	 953261783	 162038.
02:46:49  663 664	 1492483609	 90431599	 137169.
02:46:49  664 665	 1492483609	 252325784	 161895.
02:46:49  665 666	 1492483609	 418998902	 166673.
02:46:49  666 667	 1492483609	 580747490	 161748.
02:46:49  667 668	 1492483609	 746693390	 165946.
02:46:49  668 669	 1492483609	 908746166	 162053.
02:46:50  669 670	 1492483610	 74709078	 165963.
02:46:50  670 671	 1492483610	 236346385	 161637.
02:46:50  671 672	 1492483610	 402353289	 166007.
02:46:50  672 673	 1492483610	 535757030	 133404.
02:46:50  673 674	 1492483610	 701922754	 166166.
02:46:50  674 675	 1492483610	 863505424	 161582.
02:46:51  675 676	 1492483611	 25197464	 161692.
02:46:51  676 677	 1492483611	 190857244	 165660.
02:46:51  677 678	 1492483611	 352507960	 161651.
02:46:51  678 679	 1492483611	 485442437	 132934.
02:46:51  679 680	 1492483611	 651334555	 165892.
02:46:51  680 681	 1492483611	 817116183	 165782.
02:46:51  681 682	 1492483611	 978944888	 161829.
02:46:52  682 683	 1492483612	 140658749	 161714.
02:46:52  683 684	 1492483612	 306560545	 165902.
02:46:52  684 685	 1492483612	 439478868	 132918.
02:46:52  685 686	 1492483612	 605472861	 165994.
02:46:52  686 687	 1492483612	 767113665	 161641.
02:46:52  687 688	 1492483612	 932800218	 165686.
02:46:53  688 689	 1492483613	 94624120	 161824.
02:46:53  689 690	 1492483613	 256622260	 161998.
02:46:53  690 691	 1492483613	 422685574	 166063.
02:46:53  691 692	 1492483613	 584616653	 161931.
02:46:53  692 693	 1492483613	 722385830	 137770.
02:46:53  693 694	 1492483613	 884291839	 161906.
02:46:54  694 695	 1492483614	 46255776	 161964.
02:46:54  695 696	 1492483614	 212203392	 165947.
02:46:54  696 697	 1492483614	 374018631	 161815.
02:46:54  697 698	 1492483614	 539890561	 165872.
02:46:54  698 699	 1492483614	 701922745	 162033.
02:46:54  699 700	 1492483614	 863935112	 162012.
02:46:55  700 701	 1492483615	 30398691	 166463.
02:46:55  701 702	 1492483615	 192395174	 161997.
02:46:55  702 703	 1492483615	 358678308	 166283.
02:46:55  703 704	 1492483615	 491899723	 133222.
02:46:55  704 705	 1492483615	 657964865	 166065.
02:46:55  705 706	 1492483615	 819780562	 161815.
02:46:56  706 707	 1492483616	 8310861	 188531.
02:46:56  707 708	 1492483616	 133219414	 124908.
02:46:56  708 709	 1492483616	 299032312	 165813.
02:46:56  709 710	 1492483616	 461130664	 162098.
02:46:56  710 711	 1492483616	 626965811	 165836.
02:46:56  711 712	 1492483616	 788715542	 161749.
02:46:56  712 713	 1492483616	 925594039	 136879.
02:46:57  713 714	 1492483617	 87456739	 161863.
02:46:57  714 715	 1492483617	 248926102	 161469.
02:46:57  715 716	 1492483617	 414905714	 165980.
02:46:57  716 717	 1492483617	 577285575	 162379.
02:46:57  717 718	 1492483617	 743200708	 165916.
02:46:57  718 719	 1492483617	 876447685	 133246.
02:46:58  719 720	 1492483618	 42645627	 166198.
02:46:58  720 721	 1492483618	 204539069	 161894.
02:46:58  721 722	 1492483618	 371095775	 166557.
02:46:58  722 723	 1492483618	 533402454	 162306.
02:46:58  723 724	 1492483618	 699626474	 166224.
02:46:58  724 725	 1492483618	 861498725	 161873.
02:46:59  725 726	 1492483619	 27605411	 166106.
02:46:59  726 727	 1492483619	 189636335	 162031.
02:46:59  727 728	 1492483619	 355707356	 166071.
02:46:59  728 729	 1492483619	 517991432	 162284.
02:46:59  729 730	 1492483619	 683969221	 165978.
02:46:59  730 731	 1492483619	 846032619	 162063.
02:46:59  731 732	 1492483619	 979034360	 133002.
02:47:00  732 733	 1492483620	 144936611	 165902.
02:47:00  733 734	 1492483620	 306813541	 161877.
02:47:00  734 735	 1492483620	 472567581	 165754.
02:47:00  735 736	 1492483620	 634575609	 162009.
02:47:00  736 737	 1492483620	 800508707	 165932.
02:47:00  737 738	 1492483620	 933746332	 133238.
02:47:01  738 739	 1492483621	 99477874	 165732.
02:47:01  739 740	 1492483621	 265046267	 165568.
02:47:01  740 741	 1492483621	 426571740	 161525.
02:47:01  741 742	 1492483621	 592138498	 165567.
02:47:01  742 743	 1492483621	 753830563	 161692.
02:47:01  743 744	 1492483621	 887066496	 133236.
02:47:02  744 745	 1492483622	 52840741	 165774.
02:47:02  745 746	 1492483622	 214390200	 161550.
02:47:02  746 747	 1492483622	 380385205	 165995.
02:47:02  747 748	 1492483622	 541811025	 161426.
02:47:02  748 749	 1492483622	 707319141	 165508.
02:47:02  749 750	 1492483622	 840318240	 132999.
02:47:02  750 751	 1492483623	 1700672	 161382.
02:47:03  751 752	 1492483623	 167397343	 165697.
02:47:03  752 753	 1492483623	 329155321	 161758.
02:47:03  753 754	 1492483623	 495207355	 166052.
02:47:03  754 755	 1492483623	 656845682	 161639.
02:47:03  755 756	 1492483623	 822303522	 165457.
02:47:03  756 757	 1492483623	 955399666	 133097.
02:47:04  757 758	 1492483624	 116968155	 161568.
02:47:04  758 759	 1492483624	 283140815	 166173.
02:47:04  759 760	 1492483624	 445166143	 162025.
02:47:04  760 761	 1492483624	 611594491	 166428.
02:47:04  761 762	 1492483624	 773245151	 161651.
02:47:04  762 763	 1492483624	 939030071	 165785.
02:47:05  763 764	 1492483625	 101227672	 162197.
02:47:05  764 765	 1492483625	 263461714	 162235.
02:47:05  765 766	 1492483625	 429957388	 166495.
02:47:05  766 767	 1492483625	 563364269	 133407.
02:47:05  767 768	 1492483625	 725333171	 161969.
02:47:05  768 769	 1492483625	 891419383	 166086.
02:47:06  769 770	 1492483626	 53390410	 161971.
02:47:06  770 771	 1492483626	 219304703	 165915.
02:47:06  771 772	 1492483626	 381244193	 161939.
02:47:06  772 773	 1492483626	 547765769	 166522.
02:47:06  773 774	 1492483626	 709546448	 161780.
02:47:06  774 775	 1492483626	 875613492	 166067.
02:47:07  775 776	 1492483627	 37973270	 162360.
02:47:07  776 777	 1492483627	 175316626	 137343.
02:47:07  777 778	 1492483627	 362409000	 187093.
02:47:07  778 779	 1492483627	 499724566	 137315.
02:47:07  779 780	 1492483627	 661653379	 161929.
02:47:07  780 781	 1492483627	 827177794	 165525.
02:47:07  781 782	 1492483627	 989119808	 161942.
02:47:08  782 783	 1492483628	 150940340	 161820.
02:47:08  783 784	 1492483628	 316863985	 165924.
02:47:08  784 785	 1492483628	 450121962	 133258.
02:47:08  785 786	 1492483628	 616190122	 166068.
02:47:08  786 787	 1492483628	 777905736	 161716.
02:47:08  787 788	 1492483628	 943702941	 165797.
02:47:09  788 789	 1492483629	 105763214	 162060.
02:47:09  789 790	 1492483629	 243042857	 137280.
02:47:09  790 791	 1492483629	 405027309	 161984.
02:47:09  791 792	 1492483629	 571156424	 166129.
02:47:09  792 793	 1492483629	 733218773	 162063.
02:47:09  793 794	 1492483629	 895003139	 161784.
02:47:10  794 795	 1492483630	 32095816	 137093.
02:47:10  795 796	 1492483630	 194037246	 161941.
02:47:10  796 797	 1492483630	 360285337	 166248.
02:47:10  797 798	 1492483630	 522386209	 162101.
02:47:10  798 799	 1492483630	 688681591	 166295.
02:47:10  799 800	 1492483630	 821827250	 133146.
02:47:10  800 801	 1492483630	 987600665	 165773.
02:47:11  801 802	 1492483631	 154252596	 166652.
02:47:11  802 803	 1492483631	 316406353	 162154.
02:47:11  803 804	 1492483631	 478620463	 162214.
02:47:11  804 805	 1492483631	 645083884	 166464.
02:47:11  805 806	 1492483631	 811004917	 165921.
02:47:11  806 807	 1492483631	 944033758	 133029.
02:47:12  807 808	 1492483632	 105846908	 161813.
02:47:12  808 809	 1492483632	 271930525	 166083.
02:47:12  809 810	 1492483632	 437932509	 166002.
02:47:12  810 811	 1492483632	 600372874	 162441.
02:47:12  811 812	 1492483632	 766772088	 166399.
02:47:12  812 813	 1492483632	 929347775	 162576.
02:47:13  813 814	 1492483633	 66469423	 137121.
02:47:13  814 815	 1492483633	 228745732	 162277.
02:47:13  815 816	 1492483633	 395380819	 166635.
02:47:13  816 817	 1492483633	 557639985	 162259.
02:47:13  817 818	 1492483633	 723985323	 166345.
02:47:13  818 819	 1492483633	 886551057	 162566.
02:47:14  819 820	 1492483634	 53155385	 166604.
02:47:14  820 821	 1492483634	 186435108	 133280.
02:47:14  821 822	 1492483634	 352744511	 166309.
02:47:14  822 823	 1492483634	 514598601	 161854.
02:47:14  823 824	 1492483634	 680535175	 165937.
02:47:14  824 825	 1492483634	 842628929	 162094.
02:47:15  825 826	 1492483635	 8448466	 165819.
02:47:15  826 827	 1492483635	 141767306	 133319.
02:47:15  827 828	 1492483635	 308215448	 166448.
02:47:15  828 829	 1492483635	 470251488	 162036.
02:47:15  829 830	 1492483635	 636656757	 166406.
02:47:15  830 831	 1492483635	 803186831	 166530.
02:47:15  831 832	 1492483635	 965718379	 162531.
02:47:16  832 833	 1492483636	 132495352	 166777.
02:47:16  833 834	 1492483636	 294413306	 161918.
02:47:16  834 835	 1492483636	 460428200	 166015.
02:47:16  835 836	 1492483636	 622327988	 161900.
02:47:16  836 837	 1492483636	 755473516	 133145.
02:47:16  837 838	 1492483636	 921260402	 165787.
02:47:17  838 839	 1492483637	 82939039	 161679.
02:47:17  839 840	 1492483637	 248605580	 165666.
02:47:17  840 841	 1492483637	 410526591	 161921.
02:47:17  841 842	 1492483637	 576481472	 165955.
02:47:17  842 843	 1492483637	 738355712	 161874.
02:47:17  843 844	 1492483637	 871721811	 133367.
02:47:18  844 845	 1492483638	 37540214	 165818.
02:47:18  845 846	 1492483638	 198975630	 161436.
02:47:18  846 847	 1492483638	 364753162	 165777.
02:47:18  847 848	 1492483638	 526426609	 161673.
02:47:18  848 849	 1492483638	 802569951	 276144.
02:47:18  849 850	 1492483638	 919366161	 116796.
02:47:19  850 851	 1492483639	 85163125	 165797.
02:47:19  851 852	 1492483639	 246591705	 161429.
02:47:19  852 853	 1492483639	 412651320	 166059.
02:47:19  853 854	 1492483639	 574505652	 161854.
02:47:19  854 855	 1492483639	 740275506	 165770.
02:47:19  855 856	 1492483639	 902293474	 162018.
02:47:20  856 857	 1492483640	 39931777	 137639.
02:47:20  857 858	 1492483640	 202129921	 162198.
02:47:20  858 859	 1492483640	 367878278	 165748.
02:47:20  859 860	 1492483640	 529697278	 161819.
02:47:20  860 861	 1492483640	 691610323	 161913.
02:47:20  861 862	 1492483640	 857924572	 166314.
02:47:21  862 863	 1492483641	 20375400	 162451.
02:47:21  863 864	 1492483641	 186652861	 166278.
02:47:21  864 865	 1492483641	 324127355	 137474.
02:47:21  865 866	 1492483641	 486427647	 162300.
02:47:21  866 867	 1492483641	 652761740	 166335.
02:47:21  867 868	 1492483641	 815085191	 162323.
02:47:21  868 869	 1492483641	 981181567	 166096.
02:47:22  869 870	 1492483642	 143284891	 162104.
02:47:22  870 871	 1492483642	 280907703	 137622.
02:47:22  871 872	 1492483642	 443082913	 162176.
02:47:22  872 873	 1492483642	 608742949	 165660.
02:47:22  873 874	 1492483642	 770327868	 161585.
02:47:22  874 875	 1492483642	 932575919	 162248.
02:47:23  875 876	 1492483643	 98433493	 165857.
02:47:23  876 877	 1492483643	 231091834	 132659.
02:47:23  877 878	 1492483643	 396966900	 165875.
02:47:23  878 879	 1492483643	 558498775	 161532.
02:47:23  879 880	 1492483643	 724282083	 165783.
02:47:23  880 881	 1492483643	 885757783	 161476.
02:47:24  881 882	 1492483644	 47574579	 161816.
02:47:24  882 883	 1492483644	 213163260	 165589.
02:47:24  883 884	 1492483644	 491413592	 278250.
02:47:24  884 885	 1492483644	 620473547	 129060.
02:47:24  885 886	 1492483644	 786207527	 165734.
02:47:24  886 887	 1492483644	 947860674	 161653.
02:47:25  887 888	 1492483645	 109494041	 161634.
02:47:25  888 889	 1492483645	 275376323	 165882.
02:47:25  889 890	 1492483645	 408585669	 133209.
02:47:25  890 891	 1492483645	 574496692	 165912.
02:47:25  891 892	 1492483645	 736794987	 162298.
02:47:25  892 893	 1492483645	 902912215	 166117.
02:47:26  893 894	 1492483646	 69143941	 166232.
02:47:26  894 895	 1492483646	 232011492	 162867.
02:47:26  895 896	 1492483646	 398742916	 166732.
02:47:26  896 897	 1492483646	 561479008	 162736.
02:47:26  897 898	 1492483646	 728236085	 166757.
02:47:26  898 899	 1492483646	 889984246	 161748.
02:47:27  899 900	 1492483647	 27338962	 137355.
02:47:27  900 901	 1492483647	 189640224	 162301.
02:47:27  901 902	 1492483647	 356137663	 166497.
02:47:27  902 903	 1492483647	 518090158	 161953.
02:47:27  903 904	 1492483647	 683861090	 165771.
02:47:27  904 905	 1492483647	 845560236	 161699.
02:47:28  905 906	 1492483648	 7705497	 162145.
02:47:28  906 907	 1492483648	 173856006	 166151.
02:47:28  907 908	 1492483648	 307110461	 133254.
02:47:28  908 909	 1492483648	 473257744	 166148.
02:47:28  909 910	 1492483648	 635195792	 161938.
02:47:28  910 911	 1492483648	 801566534	 166370.
02:47:28  911 912	 1492483648	 963219461	 161653.
02:47:29  912 913	 1492483649	 129041308	 165822.
02:47:29  913 914	 1492483649	 290717292	 161676.
02:47:29  914 915	 1492483649	 423683641	 132967.
02:47:29  915 916	 1492483649	 589755224	 166071.
02:47:29  916 917	 1492483649	 751438560	 161683.
02:47:29  917 918	 1492483649	 917526436	 166088.
02:47:30  918 919	 1492483650	 196546195	 279020.
02:47:30  919 920	 1492483650	 338326699	 141780.
02:47:30  920 921	 1492483650	 500006480	 161680.
02:47:30  921 922	 1492483650	 637396676	 137390.
02:47:30  922 923	 1492483650	 799128879	 161733.
02:47:30  923 924	 1492483650	 964807626	 165678.
02:47:31  924 925	 1492483651	 126409577	 161602.
02:47:31  925 926	 1492483651	 288035432	 161626.
02:47:31  926 927	 1492483651	 453941782	 165907.
02:47:31  927 928	 1492483651	 615785978	 161844.
02:47:31  928 929	 1492483651	 753023274	 137237.
02:47:31  929 930	 1492483651	 914653341	 161630.
02:47:32  930 931	 1492483652	 80422184	 165769.
02:47:32  931 932	 1492483652	 242292634	 161870.
02:47:32  932 933	 1492483652	 404219026	 161927.
02:47:32  933 934	 1492483652	 570258771	 166040.
02:47:32  934 935	 1492483652	 732237024	 161978.
02:47:32  935 936	 1492483652	 897703858	 165467.
02:47:33  936 937	 1492483653	 30595906	 132892.
02:47:33  937 938	 1492483653	 196137896	 165542.
02:47:33  938 939	 1492483653	 357853807	 161716.
02:47:33  939 940	 1492483653	 523688320	 165834.
02:47:33  940 941	 1492483653	 685257625	 161569.
02:47:33  941 942	 1492483653	 847078196	 161821.
02:47:33  942 943	 1492483653	 984211037	 137133.
02:47:34  943 944	 1492483654	 145976050	 161765.
02:47:34  944 945	 1492483654	 311917069	 165941.
02:47:34  945 946	 1492483654	 473748825	 161832.
02:47:34  946 947	 1492483654	 639597308	 165848.
02:47:34  947 948	 1492483654	 801133113	 161536.
02:47:34  948 949	 1492483654	 962973403	 161840.
02:47:35  949 950	 1492483655	 100297216	 137324.
02:47:35  950 951	 1492483655	 262074868	 161778.
02:47:35  951 952	 1492483655	 424033017	 161958.
02:47:35  952 953	 1492483655	 590200024	 166167.
02:47:35  953 954	 1492483655	 752030053	 161830.
02:47:35  954 955	 1492483655	 917800769	 165771.
02:47:36  955 956	 1492483656	 79822584	 162021.
02:47:36  956 957	 1492483656	 245698171	 165876.
02:47:36  957 958	 1492483656	 379139498	 133441.
02:47:36  958 959	 1492483656	 545472701	 166333.
02:47:36  959 960	 1492483656	 707741392	 162269.
02:47:36  960 961	 1492483656	 873899977	 166159.
02:47:37  961 962	 1492483657	 35987899	 162088.
02:47:37  962 963	 1492483657	 202140524	 166152.
02:47:37  963 964	 1492483657	 364063820	 161924.
02:47:37  964 965	 1492483657	 530250947	 166187.
02:47:37  965 966	 1492483657	 692190409	 161939.
02:47:37  966 967	 1492483657	 829365961	 137176.
02:47:37  967 968	 1492483657	 991422183	 162056.
02:47:38  968 969	 1492483658	 153484767	 162063.
02:47:38  969 970	 1492483658	 319789452	 166304.
02:47:38  970 971	 1492483658	 486044666	 166256.
02:47:38  971 972	 1492483658	 647801928	 161757.
02:47:38  972 973	 1492483658	 813523298	 165721.
02:47:38  973 974	 1492483658	 946867381	 133344.
02:47:39  974 975	 1492483659	 112622477	 165755.
02:47:39  975 976	 1492483659	 274668087	 162046.
02:47:39  976 977	 1492483659	 436369600	 161701.
02:47:39  977 978	 1492483659	 602128337	 165759.
02:47:39  978 979	 1492483659	 764094201	 161966.
02:47:39  979 980	 1492483659	 930089888	 165996.
02:47:40  980 981	 1492483660	 63140323	 133050.
02:47:40  981 982	 1492483660	 228931909	 165792.
02:47:40  982 983	 1492483660	 390469287	 161537.
02:47:40  983 984	 1492483660	 552408318	 161939.
02:47:40  984 985	 1492483660	 718226037	 165818.
02:47:40  985 986	 1492483660	 879884080	 161658.
02:47:41  986 987	 1492483661	 45569581	 165685.
02:47:41  987 988	 1492483661	 438677953	 393109.
02:47:41  988 989	 1492483661	 571790768	 133113.
02:47:41  989 990	 1492483661	 737604605	 165813.
02:47:41  990 991	 1492483661	 899341795	 161738.
02:47:42  991 992	 1492483662	 65056030	 165714.
02:47:42  992 993	 1492483662	 226652176	 161596.
02:47:42  993 994	 1492483662	 392427724	 165776.
02:47:42  994 995	 1492483662	 554246735	 161819.
02:47:42  995 996	 1492483662	 687470939	 133224.
02:47:42  996 997	 1492483662	 853187920	 165717.
02:47:43  997 998	 1492483663	 14844364	 161656.
02:47:43  998 999	 1492483663	 180301115	 165457.
02:47:43  999 1000	 1492483663	 342174515	 161873.
02:47:43 1000 1001	 1492483663	 508096804	 165923.
02:47:43 1001 1002	 1492483663	 641364576	 133267.
02:47:43 1002 1003	 1492483663	 807274905	 165911.
02:47:43 1003 1004	 1492483663	 969312655	 162037.
02:47:44 1004 1005	 1492483664	 131269243	 161957.
02:47:44 1005 1006	 1492483664	 297108559	 165839.
02:47:44 1006 1007	 1492483664	 459008214	 161900.
02:47:44 1007 1008	 1492483664	 625575736	 166568.
02:47:44 1008 1009	 1492483664	 787632278	 162056.
02:47:44 1009 1010	 1492483664	 925219011	 137587.
02:47:45 1010 1011	 1492483665	 87326963	 162108.
02:47:45 1011 1012	 1492483665	 253329722	 166003.
02:47:45 1012 1013	 1492483665	 415760588	 162431.
02:47:45 1013 1014	 1492483665	 582097357	 166336.
02:47:45 1014 1015	 1492483665	 747776054	 165679.
02:47:45 1015 1016	 1492483665	 880631527	 132855.
02:47:46 1016 1017	 1492483666	 46613543	 165982.
02:47:46 1017 1018	 1492483666	 208690289	 162077.
02:47:46 1018 1019	 1492483666	 374936116	 166246.
02:47:46 1019 1020	 1492483666	 537152156	 162216.
02:47:46 1020 1021	 1492483666	 699290694	 162139.
02:47:46 1021 1022	 1492483666	 865640064	 166349.
02:47:46 1022 1023	 1492483666	 998823072	 133183.
02:47:47 1023 1024	 1492483667	 164717951	 165895.
02:47:47 1024 1025	 1492483667	 326662733	 161945.
02:47:47 1025 1026	 1492483667	 492901558	 166238.
02:47:47 1026 1027	 1492483667	 658905671	 166005.
02:47:47 1027 1028	 1492483667	 821289520	 162383.
02:47:47 1028 1029	 1492483667	 983385009	 162096.
02:47:48 1029 1030	 1492483668	 149207499	 165822.
02:47:48 1030 1031	 1492483668	 282535216	 133328.
02:47:48 1031 1032	 1492483668	 448484843	 165950.
02:47:48 1032 1033	 1492483668	 610413169	 161928.
02:47:48 1033 1034	 1492483668	 776278955	 165866.
02:47:48 1034 1035	 1492483668	 938192318	 161913.
02:47:49 1035 1036	 1492483669	 103992039	 165800.
02:47:49 1036 1037	 1492483669	 237055532	 133063.
02:47:49 1037 1038	 1492483669	 403110865	 166056.
02:47:49 1038 1039	 1492483669	 565334877	 162224.
02:47:49 1039 1040	 1492483669	 727565497	 162230.
02:47:49 1040 1041	 1492483669	 893421872	 165857.
02:47:50 1041 1042	 1492483670	 59146217	 165724.
02:47:50 1042 1043	 1492483670	 192083024	 132937.
02:47:50 1043 1044	 1492483670	 358152631	 166069.
02:47:50 1044 1045	 1492483670	 519897588	 161745.
02:47:50 1045 1046	 1492483670	 682220221	 162323.
02:47:50 1046 1047	 1492483670	 848124594	 165904.
02:47:51 1047 1048	 1492483671	 14671875	 166548.
02:47:51 1048 1049	 1492483671	 176526007	 161854.
02:47:51 1049 1050	 1492483671	 313809554	 137283.
02:47:51 1050 1051	 1492483671	 475654159	 161845.
02:47:51 1051 1052	 1492483671	 641833043	 166179.
02:47:51 1052 1053	 1492483671	 803538247	 161705.
02:47:51 1053 1054	 1492483671	 969321076	 165783.
02:47:52 1054 1055	 1492483672	 151829662	 182508.
02:47:52 1055 1056	 1492483672	 264542401	 112713.
02:47:52 1056 1057	 1492483672	 430463605	 165921.
02:47:52 1057 1058	 1492483672	 592229828	 161767.
02:47:52 1058 1059	 1492483672	 754112501	 161882.
02:47:52 1059 1060	 1492483672	 920027532	 165915.
02:47:53 1060 1061	 1492483673	 81909060	 161882.
02:47:53 1061 1062	 1492483673	 219127543	 137218.
02:47:53 1062 1063	 1492483673	 381037664	 161910.
02:47:53 1063 1064	 1492483673	 546940571	 165903.
02:47:53 1064 1065	 1492483673	 708666221	 161726.
02:47:53 1065 1066	 1492483673	 874403864	 165738.
02:47:54 1066 1067	 1492483674	 7604382	 133200.
02:47:54 1067 1068	 1492483674	 173602000	 165998.
02:47:54 1068 1069	 1492483674	 335940228	 162338.
02:47:54 1069 1070	 1492483674	 501828958	 165889.
02:47:54 1070 1071	 1492483674	 663778884	 161950.
02:47:54 1071 1072	 1492483674	 829905770	 166127.
02:47:54 1072 1073	 1492483674	 991970889	 162065.
02:47:55 1073 1074	 1492483675	 129613590	 166258.
02:47:55 1074 1075	 1492483675	 291463775	 133235.
02:47:55 1075 1076	 1492483675	 457435507	 165971.
02:47:55 1076 1077	 1492483675	 619561381	 162126.
02:47:55 1077 1078	 1492483675	 781334603	 161773.
02:47:55 1078 1079	 1492483675	 947279480	 165945.
02:47:56 1079 1080	 1492483676	 113364670	 166085.
02:47:56 1080 1081	 1492483676	 246409491	 133045.
02:47:56 1081 1082	 1492483676	 408006963	 161598.
02:47:56 1082 1083	 1492483676	 573678032	 165671.
02:47:56 1083 1084	 1492483676	 735493112	 161815.
02:47:56 1084 1085	 1492483676	 901327631	 165835.
02:47:57 1085 1086	 1492483677	 63008317	 161680.
02:47:57 1086 1087	 1492483677	 228620202	 165612.
02:47:57 1087 1088	 1492483677	 361861052	 133241.
02:47:57 1088 1089	 1492483677	 523647267	 161786.
02:47:57 1089 1090	 1492483677	 689393712	 165747.
02:47:57 1090 1091	 1492483677	 851073001	 161679.
02:47:58 1091 1092	 1492483678	 16851260	 165778.
02:47:58 1092 1093	 1492483678	 178301502	 161450.
02:47:58 1093 1094	 1492483678	 339874552	 161573.
02:47:58 1094 1095	 1492483678	 477050620	 137176.
02:47:58 1095 1096	 1492483678	 638943312	 161893.
02:47:58 1096 1097	 1492483678	 804761355	 165818.
02:47:58 1097 1098	 1492483678	 966499106	 161738.
02:47:59 1098 1099	 1492483679	 127990609	 161491.
02:47:59 1099 1100	 1492483679	 293557311	 165567.
02:47:59 1100 1101	 1492483679	 455443040	 161886.
02:47:59 1101 1102	 1492483679	 621674368	 166231.
02:47:59 1102 1103	 1492483679	 754895544	 133221.
02:47:59 1103 1104	 1492483679	 921184238	 166289.
02:48:00 1104 1105	 1492483680	 82793527	 161609.
02:48:00 1105 1106	 1492483680	 248571578	 165778.
02:48:00 1106 1107	 1492483680	 410262806	 161692.
02:48:00 1107 1108	 1492483680	 576354412	 166091.
02:48:00 1108 1109	 1492483680	 738029607	 161675.
02:48:00 1109 1110	 1492483680	 899948903	 161920.
02:48:01 1110 1111	 1492483681	 37045920	 137097.
02:48:01 1111 1112	 1492483681	 198507191	 161461.
02:48:01 1112 1113	 1492483681	 360099728	 161593.
02:48:01 1113 1114	 1492483681	 526286345	 166186.
02:48:01 1114 1115	 1492483681	 691896615	 165610.
02:48:01 1115 1116	 1492483681	 853571104	 161675.
02:48:02 1116 1117	 1492483682	 15458914	 161888.
02:48:02 1117 1118	 1492483682	 152871797	 137413.
02:48:02 1118 1119	 1492483682	 314767074	 161895.
02:48:02 1119 1120	 1492483682	 476493813	 161727.
02:48:02 1120 1121	 1492483682	 642426659	 165932.
02:48:02 1121 1122	 1492483682	 804207969	 161782.
02:48:02 1122 1123	 1492483682	 970007842	 165800.
02:48:03 1123 1124	 1492483683	 131791680	 161783.
02:48:03 1124 1125	 1492483683	 297563272	 165772.
02:48:03 1125 1126	 1492483683	 459554724	 161992.
02:48:03 1126 1127	 1492483683	 592507196	 132952.
02:48:03 1127 1128	 1492483683	 758291655	 165785.
02:48:03 1128 1129	 1492483683	 919995049	 161703.
02:48:04 1129 1130	 1492483684	 81846730	 161852.
02:48:04 1130 1131	 1492483684	 247891662	 166044.
02:48:04 1131 1132	 1492483684	 409652939	 161762.
02:48:04 1132 1133	 1492483684	 575399529	 165746.
02:48:04 1133 1134	 1492483684	 736937987	 161539.
02:48:04 1134 1135	 1492483684	 869991321	 133053.
02:48:05 1135 1136	 1492483685	 36005872	 166015.
02:48:05 1136 1137	 1492483685	 198059203	 162053.
02:48:05 1137 1138	 1492483685	 364413390	 166354.
02:48:05 1138 1139	 1492483685	 526375885	 161963.
02:48:05 1139 1140	 1492483685	 692100234	 165724.
02:48:05 1140 1141	 1492483685	 854023332	 161923.
02:48:06 1141 1142	 1492483686	 20399468	 166376.
02:48:06 1142 1143	 1492483686	 182312077	 161913.
02:48:06 1143 1144	 1492483686	 315542562	 133230.
02:48:06 1144 1145	 1492483686	 481527214	 165985.
02:48:06 1145 1146	 1492483686	 643197816	 161671.
02:48:06 1146 1147	 1492483686	 809237369	 166039.
02:48:06 1147 1148	 1492483686	 971378122	 162141.
02:48:07 1148 1149	 1492483687	 137234502	 165856.
02:48:07 1149 1150	 1492483687	 299277084	 162043.
02:48:07 1150 1151	 1492483687	 461050001	 161773.
02:48:07 1151 1152	 1492483687	 626794541	 165744.
02:48:07 1152 1153	 1492483687	 760067324	 133273.
02:48:07 1153 1154	 1492483687	 925895087	 165828.
02:48:08 1154 1155	 1492483688	 87969855	 162075.
02:48:08 1155 1156	 1492483688	 249524202	 161554.
02:48:08 1156 1157	 1492483688	 415851296	 166327.
02:48:08 1157 1158	 1492483688	 577769389	 161918.
02:48:08 1158 1159	 1492483688	 743468624	 165699.
02:48:08 1159 1160	 1492483688	 905510611	 162042.
02:48:09 1160 1161	 1492483689	 163253079	 257743.
02:48:09 1161 1162	 1492483689	 288169823	 124917.
02:48:09 1162 1163	 1492483689	 454307861	 166138.
02:48:09 1163 1164	 1492483689	 616301856	 161994.
02:48:09 1164 1165	 1492483689	 782733991	 166432.
02:48:09 1165 1166	 1492483689	 915996250	 133262.
02:48:10 1166 1167	 1492483690	 78031728	 162036.
02:48:10 1167 1168	 1492483690	 244392086	 166360.
02:48:10 1168 1169	 1492483690	 406359092	 161967.
02:48:10 1169 1170	 1492483690	 572561865	 166203.
02:48:10 1170 1171	 1492483690	 734342908	 161781.
02:48:10 1171 1172	 1492483690	 900080156	 165737.
02:48:11 1172 1173	 1492483691	 33174310	 133094.
02:48:11 1173 1174	 1492483691	 195061867	 161888.
02:48:11 1174 1175	 1492483691	 361257461	 166195.
02:48:11 1175 1176	 1492483691	 523012728	 161756.
02:48:11 1176 1177	 1492483691	 688583717	 165571.
02:48:11 1177 1178	 1492483691	 850718093	 162134.
02:48:11 1178 1179	 1492483691	 988184251	 137466.
02:48:12 1179 1180	 1492483692	 149685934	 161502.
02:48:12 1180 1181	 1492483692	 311770316	 162084.
02:48:12 1181 1182	 1492483692	 477777367	 166007.
02:48:12 1182 1183	 1492483692	 643303751	 165527.
02:48:12 1183 1184	 1492483692	 776044290	 132740.
02:48:12 1184 1185	 1492483692	 938073466	 162029.
02:48:13 1185 1186	 1492483693	 103744163	 165671.
02:48:13 1186 1187	 1492483693	 265580808	 161837.
02:48:13 1187 1188	 1492483693	 431676559	 166095.
02:48:13 1188 1189	 1492483693	 593528752	 161853.
02:48:13 1189 1190	 1492483693	 730989830	 137461.
02:48:13 1190 1191	 1492483693	 892815760	 161826.
02:48:14 1191 1192	 1492483694	 59146373	 166330.
02:48:14 1192 1193	 1492483694	 221299400	 162153.
02:48:14 1193 1194	 1492483694	 387315590	 166017.
02:48:14 1194 1195	 1492483694	 549434848	 162119.
02:48:14 1195 1196	 1492483694	 715356432	 165921.
02:48:14 1196 1197	 1492483694	 848465200	 133109.
02:48:15 1197 1198	 1492483695	 14233450	 165768.
02:48:15 1198 1199	 1492483695	 176195780	 161963.
02:48:15 1199 1200	 1492483695	 337835879	 161640.
02:48:15 1200 1201	 1492483695	 503859935	 166024.
02:48:15 1201 1202	 1492483695	 665794152	 161934.
02:48:15 1202 1203	 1492483695	 831415429	 165621.
02:48:15 1203 1204	 1492483695	 964645170	 133230.
02:48:16 1204 1205	 1492483696	 131026435	 166381.
02:48:16 1205 1206	 1492483696	 292890647	 161864.
02:48:16 1206 1207	 1492483696	 459298275	 166408.
02:48:16 1207 1208	 1492483696	 621466102	 162168.
02:48:16 1208 1209	 1492483696	 787910440	 166444.
02:48:16 1209 1210	 1492483696	 949844150	 161934.
02:48:17 1210 1211	 1492483697	 116208619	 166364.
02:48:17 1211 1212	 1492483697	 277828649	 161620.
02:48:17 1212 1213	 1492483697	 415245842	 137418.
02:48:17 1213 1214	 1492483697	 577210119	 161964.
02:48:17 1214 1215	 1492483697	 743327264	 166117.
02:48:17 1215 1216	 1492483697	 904981802	 161655.
02:48:18 1216 1217	 1492483698	 70996741	 166015.
02:48:18 1217 1218	 1492483698	 204016809	 133020.
02:48:18 1218 1219	 1492483698	 370009608	 165992.
02:48:18 1219 1220	 1492483698	 536230596	 166221.
02:48:18 1220 1221	 1492483698	 698727832	 162498.
02:48:18 1221 1222	 1492483698	 864936431	 166208.
02:48:19 1222 1223	 1492483699	 27198141	 162262.
02:48:19 1223 1224	 1492483699	 193026435	 165828.
02:48:19 1224 1225	 1492483699	 326408058	 133382.
02:48:19 1225 1226	 1492483699	 488538017	 162130.
02:48:19 1226 1227	 1492483699	 654832388	 166294.
02:48:19 1227 1228	 1492483699	 820797570	 165965.
02:48:19 1228 1229	 1492483699	 982695132	 161898.
02:48:20 1229 1230	 1492483700	 143652161	 160957.
02:48:20 1230 1231	 1492483700	 309845904	 166194.
02:48:20 1231 1232	 1492483700	 476338768	 166493.
02:48:20 1232 1233	 1492483700	 638841706	 162502.
02:48:20 1233 1234	 1492483700	 804993571	 166152.
02:48:20 1234 1235	 1492483700	 938209249	 133216.
02:48:21 1235 1236	 1492483701	 104420259	 166211.
02:48:21 1236 1237	 1492483701	 267080428	 162660.
02:48:21 1237 1238	 1492483701	 433587683	 166507.
02:48:21 1238 1239	 1492483701	 596045322	 162458.
02:48:21 1239 1240	 1492483701	 762123518	 166078.
02:48:21 1240 1241	 1492483701	 924143229	 162020.
02:48:22 1241 1242	 1492483702	 90488560	 166345.
02:48:22 1242 1243	 1492483702	 223692049	 133204.
02:48:22 1243 1244	 1492483702	 390005707	 166313.
02:48:22 1244 1245	 1492483702	 552530364	 162525.
02:48:22 1245 1246	 1492483702	 718843343	 166313.
02:48:22 1246 1247	 1492483702	 880889913	 162047.
02:48:23 1247 1248	 1492483703	 18110278	 137220.
02:48:23 1248 1249	 1492483703	 184341922	 166232.
02:48:23 1249 1250	 1492483703	 346918847	 162577.
02:48:23 1250 1251	 1492483703	 512994932	 166076.
02:48:23 1251 1252	 1492483703	 675141807	 162147.
02:48:23 1252 1253	 1492483703	 841399666	 166257.
02:48:23 1253 1254	 1492483703	 975011739	 133613.
02:48:24 1254 1255	 1492483704	 142001266	 166989.
02:48:24 1255 1256	 1492483704	 304111851	 162111.
02:48:24 1256 1257	 1492483704	 470326252	 166214.
02:48:24 1257 1258	 1492483704	 632878602	 162552.
02:48:24 1258 1259	 1492483704	 799123995	 166246.
02:48:24 1259 1260	 1492483704	 964996363	 165872.
02:48:25 1260 1261	 1492483705	 127047594	 162051.
02:48:25 1261 1262	 1492483705	 264105659	 137058.
02:48:25 1262 1263	 1492483705	 430364369	 166259.
02:48:25 1263 1264	 1492483705	 592661332	 162297.
02:48:25 1264 1265	 1492483705	 759002353	 166341.
02:48:25 1265 1266	 1492483705	 920986518	 161984.
02:48:26 1266 1267	 1492483706	 87239708	 166253.
02:48:26 1267 1268	 1492483706	 249583840	 162345.
02:48:26 1268 1269	 1492483706	 387082037	 137498.
02:48:26 1269 1270	 1492483706	 549210036	 162128.
02:48:26 1270 1271	 1492483706	 711430900	 162221.
02:48:26 1271 1272	 1492483706	 877252389	 165821.
02:48:27 1272 1273	 1492483707	 39630386	 162378.
02:48:27 1273 1274	 1492483707	 205713771	 166084.
02:48:27 1274 1275	 1492483707	 371614320	 165900.
02:48:27 1275 1276	 1492483707	 504894339	 133280.
02:48:27 1276 1277	 1492483707	 666917795	 162024.
02:48:27 1277 1278	 1492483707	 833347673	 166429.
02:48:27 1278 1279	 1492483707	 995680606	 162333.
02:48:28 1279 1280	 1492483708	 161968306	 166288.
02:48:28 1280 1281	 1492483708	 324062828	 162095.
02:48:28 1281 1282	 1492483708	 490037099	 165974.
02:48:28 1282 1283	 1492483708	 652018691	 161982.
02:48:28 1283 1284	 1492483708	 789413203	 137394.
02:48:28 1284 1285	 1492483708	 951485859	 162073.
02:48:29 1285 1286	 1492483709	 117323144	 165837.
02:48:29 1286 1287	 1492483709	 279428420	 162105.
02:48:29 1287 1288	 1492483709	 445065737	 165638.
02:48:29 1288 1289	 1492483709	 606651291	 161585.
02:48:29 1289 1290	 1492483709	 739685419	 133034.
02:48:29 1290 1291	 1492483709	 905416527	 165732.
02:48:30 1291 1292	 1492483710	 66648020	 161231.
02:48:30 1292 1293	 1492483710	 232106599	 165458.
02:48:30 1293 1294	 1492483710	 393527545	 161421.
02:48:30 1294 1295	 1492483710	 526266983	 132740.
02:48:30 1295 1296	 1492483710	 691744538	 165477.
02:48:30 1296 1297	 1492483710	 853238782	 161495.
02:48:31 1297 1298	 1492483711	 19107002	 165868.
02:48:31 1298 1299	 1492483711	 152297556	 133190.
02:48:31 1299 1300	 1492483711	 318085787	 165789.
02:48:31 1300 1301	 1492483711	 479753386	 161667.
02:48:31 1301 1302	 1492483711	 645480918	 165728.
02:48:31 1302 1303	 1492483711	 807063070	 161582.
02:48:31 1303 1304	 1492483711	 940090223	 133027.
02:48:32 1304 1305	 1492483712	 105943385	 165853.
02:48:32 1305 1306	 1492483712	 271658545	 165715.
02:48:32 1306 1307	 1492483712	 433957581	 162299.
02:48:32 1307 1308	 1492483712	 599920760	 165964.
02:48:32 1308 1309	 1492483712	 761659415	 161738.
02:48:32 1309 1310	 1492483712	 895058969	 133400.
02:48:33 1310 1311	 1492483713	 61382058	 166323.
02:48:33 1311 1312	 1492483713	 223267340	 161885.
02:48:33 1312 1313	 1492483713	 389750489	 166483.
02:48:33 1313 1314	 1492483713	 551861214	 162111.
02:48:33 1314 1315	 1492483713	 718302172	 166441.
02:48:33 1315 1316	 1492483713	 879980224	 161678.
02:48:34 1316 1317	 1492483714	 46258495	 166278.
02:48:34 1317 1318	 1492483714	 208683258	 162425.
02:48:34 1318 1319	 1492483714	 375197737	 166515.
02:48:34 1319 1320	 1492483714	 537103242	 161905.
02:48:34 1320 1321	 1492483714	 674339307	 137236.
02:48:34 1321 1322	 1492483714	 836442700	 162104.
02:48:35 1322 1323	 1492483715	 2611364	 166168.
02:48:35 1323 1324	 1492483715	 164595558	 161984.
02:48:35 1324 1325	 1492483715	 326228461	 161633.
02:48:35 1325 1326	 1492483715	 492368103	 166140.
02:48:35 1326 1327	 1492483715	 654141685	 161773.
02:48:35 1327 1328	 1492483715	 820522153	 166381.
02:48:35 1328 1329	 1492483715	 953814648	 133292.
02:48:36 1329 1330	 1492483716	 119568944	 165755.
02:48:36 1330 1331	 1492483716	 281540104	 161971.
02:48:36 1331 1332	 1492483716	 448242257	 166702.
02:48:36 1332 1333	 1492483716	 610246109	 162004.
02:48:36 1333 1334	 1492483716	 776064902	 165819.
02:48:36 1334 1335	 1492483716	 938411067	 162346.
02:48:37 1335 1336	 1492483717	 104295837	 165885.
02:48:37 1336 1337	 1492483717	 266193599	 161897.
02:48:37 1337 1338	 1492483717	 428092680	 161899.
02:48:37 1338 1339	 1492483717	 565279398	 137187.
02:48:37 1339 1340	 1492483717	 726969499	 161690.
02:48:37 1340 1341	 1492483717	 892873292	 165904.
02:48:38 1341 1342	 1492483718	 54679293	 161806.
02:48:38 1342 1343	 1492483718	 220635355	 165956.
02:48:38 1343 1344	 1492483718	 382872615	 162237.
02:48:38 1344 1345	 1492483718	 548882401	 166010.
02:48:38 1345 1346	 1492483718	 682430844	 133549.
02:48:38 1346 1347	 1492483718	 844408916	 161978.
02:48:39 1347 1348	 1492483719	 10748792	 166340.
02:48:39 1348 1349	 1492483719	 173136790	 162388.
02:48:39 1349 1350	 1492483719	 339324376	 166187.
02:48:39 1350 1351	 1492483719	 501214976	 161891.
02:48:39 1351 1352	 1492483719	 667016569	 165801.
02:48:39 1352 1353	 1492483719	 828844066	 161828.
02:48:39 1353 1354	 1492483719	 994839017	 165995.
02:48:40 1354 1355	 1492483720	 128184809	 133346.
02:48:40 1355 1356	 1492483720	 293847355	 165662.
02:48:40 1356 1357	 1492483720	 455685603	 161838.
02:48:40 1357 1358	 1492483720	 621649595	 165964.
02:48:40 1358 1359	 1492483720	 783766671	 162117.
02:48:40 1359 1360	 1492483720	 949826776	 166061.
02:48:41 1360 1361	 1492483721	 111653729	 161827.
02:48:41 1361 1362	 1492483721	 249242862	 137589.
02:48:41 1362 1363	 1492483721	 411411956	 162169.
02:48:41 1363 1364	 1492483721	 577546233	 166134.
02:48:41 1364 1365	 1492483721	 739218595	 161672.
02:48:41 1365 1366	 1492483721	 905274137	 166056.
02:48:42 1366 1367	 1492483722	 67133533	 161859.
02:48:42 1367 1368	 1492483722	 248158526	 181025.
02:48:42 1368 1369	 1492483722	 377411301	 129253.
02:48:42 1369 1370	 1492483722	 539735322	 162324.
02:48:42 1370 1371	 1492483722	 706177670	 166442.
02:48:42 1371 1372	 1492483722	 867952072	 161775.
02:48:43 1372 1373	 1492483723	 34122501	 166170.
02:48:43 1373 1374	 1492483723	 196011106	 161889.
02:48:43 1374 1375	 1492483723	 333430566	 137419.
02:48:43 1375 1376	 1492483723	 495884070	 162454.
02:48:43 1376 1377	 1492483723	 662168130	 166284.
02:48:43 1377 1378	 1492483723	 824227148	 162059.
02:48:43 1378 1379	 1492483723	 990425958	 166199.
02:48:44 1379 1380	 1492483724	 152941281	 162515.
02:48:44 1380 1381	 1492483724	 315028249	 162087.
02:48:44 1381 1382	 1492483724	 480743179	 165715.
02:48:44 1382 1383	 1492483724	 642313726	 161571.
02:48:44 1383 1384	 1492483724	 808785458	 166471.
02:48:44 1384 1385	 1492483724	 942173614	 133388.
02:48:45 1385 1386	 1492483725	 108081827	 165909.
02:48:45 1386 1387	 1492483725	 269999522	 161917.
02:48:45 1387 1388	 1492483725	 436073224	 166074.
02:48:45 1388 1389	 1492483725	 597964538	 161891.
02:48:45 1389 1390	 1492483725	 763887132	 165923.
02:48:45 1390 1391	 1492483725	 926078413	 162191.
02:48:46 1391 1392	 1492483726	 92398459	 166320.
02:48:46 1392 1393	 1492483726	 225756009	 133358.
02:48:46 1393 1394	 1492483726	 392188585	 166432.
02:48:46 1394 1395	 1492483726	 554292157	 162104.
02:48:46 1395 1396	 1492483726	 720372572	 166080.
02:48:46 1396 1397	 1492483726	 882128083	 161756.
02:48:47 1397 1398	 1492483727	 48068414	 165940.
02:48:47 1398 1399	 1492483727	 210375091	 162307.
02:48:47 1399 1400	 1492483727	 372476489	 162101.
02:48:47 1400 1401	 1492483727	 509417311	 136941.
02:48:47 1401 1402	 1492483727	 671236749	 161820.
02:48:48 1402 1403	 1492483728	 134229581	 462992.
02:48:48 1403 1404	 1492483728	 263195342	 128966.
02:48:48 1404 1405	 1492483728	 425267698	 162072.
02:48:48 1405 1406	 1492483728	 591908985	 166642.
02:48:48 1406 1407	 1492483728	 753535543	 161626.
02:48:48 1407 1408	 1492483728	 919503142	 165968.
02:48:49 1408 1409	 1492483729	 52718982	 133216.
02:48:49 1409 1410	 1492483729	 218619513	 165900.
02:48:49 1410 1411	 1492483729	 380806717	 162188.
02:48:49 1411 1412	 1492483729	 546576163	 165769.
02:48:49 1412 1413	 1492483729	 708650048	 162074.
02:48:49 1413 1414	 1492483729	 874972085	 166322.
02:48:50 1414 1415	 1492483730	 37035261	 162063.
02:48:50 1415 1416	 1492483730	 174060792	 137026.
02:48:50 1416 1417	 1492483730	 335885215	 161824.
02:48:50 1417 1418	 1492483730	 497759784	 161875.
02:48:50 1418 1419	 1492483730	 663839560	 166079.
02:48:50 1419 1420	 1492483730	 825514401	 161675.
02:48:50 1420 1421	 1492483730	 991408028	 165894.
02:48:51 1421 1422	 1492483731	 153064454	 161656.
02:48:51 1422 1423	 1492483731	 290243102	 137179.
02:48:51 1423 1424	 1492483731	 452205452	 161962.
02:48:51 1424 1425	 1492483731	 614007783	 161803.
02:48:51 1425 1426	 1492483731	 779834004	 165826.
02:48:51 1426 1427	 1492483731	 941708568	 161874.
02:48:52 1427 1428	 1492483732	 107541621	 165833.
02:48:52 1428 1429	 1492483732	 269318756	 161778.
02:48:52 1429 1430	 1492483732	 435678006	 166359.
02:48:52 1430 1431	 1492483732	 568868283	 133190.
02:48:52 1431 1432	 1492483732	 734790897	 165923.
02:48:52 1432 1433	 1492483732	 896604728	 161813.
02:48:53 1433 1434	 1492483733	 62462823	 165859.
02:48:53 1434 1435	 1492483733	 224210060	 161747.
02:48:53 1435 1436	 1492483733	 386244883	 162035.
02:48:53 1436 1437	 1492483733	 552271469	 166026.
02:48:53 1437 1438	 1492483733	 714144650	 161873.
02:48:53 1438 1439	 1492483733	 851409896	 137266.
02:48:54 1439 1440	 1492483734	 13300199	 161890.
02:48:54 1440 1441	 1492483734	 175188398	 161888.
02:48:54 1441 1442	 1492483734	 341231983	 166044.
02:48:54 1442 1443	 1492483734	 507162264	 165930.
02:48:54 1443 1444	 1492483734	 669110536	 161948.
02:48:54 1444 1445	 1492483734	 835001529	 165891.
02:48:54 1445 1446	 1492483734	 968091943	 133091.
02:48:55 1446 1447	 1492483735	 130252913	 162161.
02:48:55 1447 1448	 1492483735	 296676089	 166423.
02:48:55 1448 1449	 1492483735	 458466245	 161790.
02:48:55 1449 1450	 1492483735	 624997041	 166531.
02:48:55 1450 1451	 1492483735	 787027798	 162031.
02:48:55 1451 1452	 1492483735	 953191983	 166164.
02:48:56 1452 1453	 1492483736	 86308692	 133117.
02:48:56 1453 1454	 1492483736	 252259151	 165950.
02:48:56 1454 1455	 1492483736	 414405047	 162146.
02:48:56 1455 1456	 1492483736	 577059865	 162655.
02:48:56 1456 1457	 1492483736	 743288951	 166229.
02:48:56 1457 1458	 1492483736	 909415536	 166126.
02:48:57 1458 1459	 1492483737	 71768430	 162353.
02:48:57 1459 1460	 1492483737	 237504849	 165737.
02:48:57 1460 1461	 1492483737	 370797375	 133292.
02:48:57 1461 1462	 1492483737	 536573874	 165777.
02:48:57 1462 1463	 1492483737	 698250369	 161676.
02:48:57 1463 1464	 1492483737	 864159607	 165909.
02:48:58 1464 1465	 1492483738	 26290228	 162131.
02:48:58 1465 1466	 1492483738	 192267332	 165977.
02:48:58 1466 1467	 1492483738	 325857504	 133590.
02:48:58 1467 1468	 1492483738	 487795643	 161938.
02:48:58 1468 1469	 1492483738	 653641064	 165846.
02:48:58 1469 1470	 1492483738	 815673480	 162032.
02:48:58 1470 1471	 1492483738	 985433343	 169760.
02:48:59 1471 1472	 1492483739	 147371277	 161938.
02:48:59 1472 1473	 1492483739	 280415348	 133044.
02:48:59 1473 1474	 1492483739	 446150090	 165735.
02:48:59 1474 1475	 1492483739	 608323035	 162173.
02:48:59 1475 1476	 1492483739	 774154018	 165831.
02:48:59 1476 1477	 1492483739	 936473815	 162320.
02:49:00 1477 1478	 1492483740	 103017506	 166544.
02:49:00 1478 1479	 1492483740	 264928681	 161910.
02:49:00 1479 1480	 1492483740	 430906323	 165978.
02:49:00 1480 1481	 1492483740	 564280689	 133374.
02:49:00 1481 1482	 1492483740	 730175780	 165896.
02:49:00 1482 1483	 1492483740	 891898090	 161722.
02:49:01 1483 1484	 1492483741	 57716633	 165818.
02:49:01 1484 1485	 1492483741	 219600739	 161885.
02:49:01 1485 1486	 1492483741	 385731128	 166130.
02:49:01 1486 1487	 1492483741	 518860217	 133129.
02:49:01 1487 1488	 1492483741	 684730866	 165871.
02:49:01 1488 1489	 1492483741	 846468349	 161737.
02:49:02 1489 1490	 1492483742	 8201794	 161736.
02:49:02 1490 1491	 1492483742	 174084416	 165880.
02:49:02 1491 1492	 1492483742	 335822184	 161738.
02:49:02 1492 1493	 1492483742	 501792410	 165970.
02:49:02 1493 1494	 1492483742	 663601097	 161809.
02:49:02 1494 1495	 1492483742	 796537719	 132937.
02:49:02 1495 1496	 1492483742	 962268334	 165730.
02:49:03 1496 1497	 1492483743	 124023956	 161756.
02:49:03 1497 1498	 1492483743	 289710096	 165686.
02:49:03 1498 1499	 1492483743	 451459632	 161750.
02:49:03 1499 1500	 1492483743	 613168321	 161708.
02:49:03 1500 1501	 1492483743	 779000389	 165832.
02:49:03 1501 1502	 1492483743	 912027999	 133028.
02:49:04 1502 1503	 1492483744	 111257668	 199229.
02:49:04 1503 1504	 1492483744	 236386919	 125130.
02:49:04 1504 1505	 1492483744	 398314626	 161927.
02:49:04 1505 1506	 1492483744	 564133891	 165820.
02:49:04 1506 1507	 1492483744	 725735329	 161601.
02:49:04 1507 1508	 1492483744	 891509896	 165775.
02:49:05 1508 1509	 1492483745	 53057461	 161547.
02:49:05 1509 1510	 1492483745	 214720538	 161663.
02:49:05 1510 1511	 1492483745	 380730686	 166010.
02:49:05 1511 1512	 1492483745	 513603571	 132873.
02:49:05 1512 1513	 1492483745	 679490750	 165888.
02:49:05 1513 1514	 1492483745	 841137899	 161647.
02:49:06 1514 1515	 1492483746	 2865516	 161727.
02:49:06 1515 1516	 1492483746	 168648630	 165783.
02:49:06 1516 1517	 1492483746	 330643406	 161995.
02:49:06 1517 1518	 1492483746	 496605361	 165962.
02:49:06 1518 1519	 1492483746	 658522550	 161917.
02:49:06 1519 1520	 1492483746	 824413481	 165891.
02:49:06 1520 1521	 1492483746	 957938949	 133526.
02:49:07 1521 1522	 1492483747	 123829396	 165890.
02:49:07 1522 1523	 1492483747	 285574121	 161745.
02:49:07 1523 1524	 1492483747	 447306542	 161732.
02:49:07 1524 1525	 1492483747	 613091261	 165785.
02:49:07 1525 1526	 1492483747	 774792679	 161701.
02:49:07 1526 1527	 1492483747	 936771120	 161979.
02:49:08 1527 1528	 1492483748	 102533436	 165762.
02:49:08 1528 1529	 1492483748	 260873003	 158340.
02:49:08 1529 1530	 1492483748	 422694977	 161822.
02:49:08 1530 1531	 1492483748	 588727349	 166032.
02:49:08 1531 1532	 1492483748	 721641076	 132914.
02:49:08 1532 1533	 1492483748	 883384268	 161743.
02:49:09 1533 1534	 1492483749	 49235144	 165851.
02:49:09 1534 1535	 1492483749	 210890246	 161655.
02:49:09 1535 1536	 1492483749	 372670295	 161780.
02:49:09 1536 1537	 1492483749	 538525822	 165856.
02:49:09 1537 1538	 1492483749	 700764527	 162239.
02:49:09 1538 1539	 1492483749	 866906008	 166141.
02:49:09 1539 1540	 1492483750	 262417	 133356.
02:49:10 1540 1541	 1492483750	 162082590	 161820.
02:49:10 1541 1542	 1492483750	 328101445	 166019.
02:49:10 1542 1543	 1492483750	 490015096	 161914.
02:49:10 1543 1544	 1492483750	 656191442	 166176.
02:49:10 1544 1545	 1492483750	 817813128	 161622.
02:49:10 1545 1546	 1492483750	 983650379	 165837.
02:49:11 1546 1547	 1492483751	 145385808	 161736.
02:49:11 1547 1548	 1492483751	 282778543	 137392.
02:49:11 1548 1549	 1492483751	 444593654	 161815.
02:49:11 1549 1550	 1492483751	 605953458	 161360.
02:49:11 1550 1551	 1492483751	 772087933	 166135.
02:49:11 1551 1552	 1492483751	 933927850	 161840.
02:49:12 1552 1553	 1492483752	 99708533	 165780.
02:49:12 1553 1554	 1492483752	 233081403	 133373.
02:49:12 1554 1555	 1492483752	 399518685	 166437.
02:49:12 1555 1556	 1492483752	 561621552	 162103.
02:49:12 1556 1557	 1492483752	 727616099	 165995.
02:49:12 1557 1558	 1492483752	 889937579	 162321.
02:49:13 1558 1559	 1492483753	 55953901	 166017.
02:49:13 1559 1560	 1492483753	 217608731	 161655.
02:49:13 1560 1561	 1492483753	 379525531	 161916.
02:49:13 1561 1562	 1492483753	 516997352	 137472.
02:49:13 1562 1563	 1492483753	 678864160	 161867.
02:49:13 1563 1564	 1492483753	 844730308	 165866.
02:49:14 1564 1565	 1492483754	 6691608	 161961.
02:49:14 1565 1566	 1492483754	 173216100	 166525.
02:49:14 1566 1567	 1492483754	 335251935	 162036.
02:49:14 1567 1568	 1492483754	 500904937	 165653.
02:49:14 1568 1569	 1492483754	 662675377	 161770.
02:49:14 1569 1570	 1492483754	 824666935	 161992.
02:49:14 1570 1571	 1492483754	 962044731	 137378.
02:49:15 1571 1572	 1492483755	 123823978	 161779.
02:49:15 1572 1573	 1492483755	 289766985	 165943.
02:49:15 1573 1574	 1492483755	 451977142	 162210.
02:49:15 1574 1575	 1492483755	 613848521	 161871.
02:49:15 1575 1576	 1492483755	 780007541	 166159.
02:49:15 1576 1577	 1492483755	 941627216	 161620.
02:49:16 1577 1578	 1492483756	 107838303	 166211.
02:49:16 1578 1579	 1492483756	 269753576	 161915.
02:49:16 1579 1580	 1492483756	 436109413	 166356.
02:49:16 1580 1581	 1492483756	 569517929	 133409.
02:49:16 1581 1582	 1492483756	 735748278	 166230.
02:49:16 1582 1583	 1492483756	 897630476	 161882.
02:49:17 1583 1584	 1492483757	 63890536	 166260.
02:49:17 1584 1585	 1492483757	 225841702	 161952.
02:49:17 1585 1586	 1492483757	 391857797	 166016.
02:49:17 1586 1587	 1492483757	 553481531	 161623.
02:49:17 1587 1588	 1492483757	 715192910	 161712.
02:49:17 1588 1589	 1492483757	 852358594	 137165.
02:49:18 1589 1590	 1492483758	 14156488	 161798.
02:49:18 1590 1591	 1492483758	 180225713	 166069.
02:49:18 1591 1592	 1492483758	 342597941	 162373.
02:49:18 1592 1593	 1492483758	 508990068	 166392.
02:49:18 1593 1594	 1492483758	 670901055	 161911.
02:49:18 1594 1595	 1492483758	 832434539	 161533.
02:49:18 1595 1596	 1492483758	 998535079	 166101.
02:49:19 1596 1597	 1492483759	 160070197	 161535.
02:49:19 1597 1598	 1492483759	 297254018	 137184.
02:49:19 1598 1599	 1492483759	 459004078	 161750.
02:49:19 1599 1600	 1492483759	 624865750	 165862.
02:49:19 1600 1601	 1492483759	 786972827	 162107.
02:49:19 1601 1602	 1492483759	 953337473	 166364.
02:49:20 1602 1603	 1492483760	 115823894	 162487.
02:49:20 1603 1604	 1492483760	 281505579	 165681.
02:49:20 1604 1605	 1492483760	 414964014	 133459.
02:49:20 1605 1606	 1492483760	 581442745	 166479.
02:49:20 1606 1607	 1492483760	 743133893	 161691.
02:49:20 1607 1608	 1492483760	 908987733	 165854.
02:49:21 1608 1609	 1492483761	 70951156	 161963.
02:49:21 1609 1610	 1492483761	 306155640	 235204.
02:49:21 1610 1611	 1492483761	 468374736	 162220.
02:49:21 1611 1612	 1492483761	 605581400	 137206.
02:49:21 1612 1613	 1492483761	 767563345	 161982.
02:49:21 1613 1614	 1492483761	 933319475	 165757.
02:49:22 1614 1615	 1492483762	 95296428	 161976.
02:49:22 1615 1616	 1492483762	 261498395	 166202.
02:49:22 1616 1617	 1492483762	 423890757	 162393.
02:49:22 1617 1618	 1492483762	 561586203	 137695.
02:49:22 1618 1619	 1492483762	 723833838	 162248.
02:49:22 1619 1620	 1492483762	 889854666	 166020.
02:49:23 1620 1621	 1492483763	 51745303	 161891.
02:49:23 1621 1622	 1492483763	 218139721	 166395.
02:49:23 1622 1623	 1492483763	 380146543	 162006.
02:49:23 1623 1624	 1492483763	 517541351	 137395.
02:49:23 1624 1625	 1492483763	 679768169	 162227.
02:49:23 1625 1626	 1492483763	 846428802	 166661.
02:49:24 1626 1627	 1492483764	 8953018	 162524.
02:49:24 1627 1628	 1492483764	 175550112	 166597.
02:49:24 1628 1629	 1492483764	 337922470	 162372.
02:49:24 1629 1630	 1492483764	 504609150	 166687.
02:49:24 1630 1631	 1492483764	 667198639	 162589.
02:49:24 1631 1632	 1492483764	 833339417	 166141.
02:49:24 1632 1633	 1492483764	 995951751	 162613.
02:49:25 1633 1634	 1492483765	 162328625	 166376.
02:49:25 1634 1635	 1492483765	 295830168	 133502.
02:49:25 1635 1636	 1492483765	 461913270	 166083.
02:49:25 1636 1637	 1492483765	 628264024	 166351.
02:49:25 1637 1638	 1492483765	 790033083	 161769.
02:49:25 1638 1639	 1492483765	 956303149	 166270.
02:49:26 1639 1640	 1492483766	 118648067	 162345.
02:49:26 1640 1641	 1492483766	 256253718	 137606.
02:49:26 1641 1642	 1492483766	 418456387	 162202.
02:49:26 1642 1643	 1492483766	 584962727	 166507.
02:49:26 1643 1644	 1492483766	 747365331	 162402.
02:49:26 1644 1645	 1492483766	 913422489	 166057.
02:49:27 1645 1646	 1492483767	 75862964	 162441.
02:49:27 1646 1647	 1492483767	 242160175	 166297.
02:49:27 1647 1648	 1492483767	 408098517	 165938.
02:49:27 1648 1649	 1492483767	 541608770	 133511.
02:49:27 1649 1650	 1492483767	 707766898	 166158.
02:49:27 1650 1651	 1492483767	 869874334	 162107.
02:49:28 1651 1652	 1492483768	 36179220	 166305.
02:49:28 1652 1653	 1492483768	 198073430	 161894.
02:49:28 1653 1654	 1492483768	 331216817	 133144.
02:49:28 1654 1655	 1492483768	 497618954	 166402.
02:49:28 1655 1656	 1492483768	 659553741	 161935.
02:49:28 1656 1657	 1492483768	 825891410	 166337.
02:49:28 1657 1658	 1492483768	 992132016	 166241.
02:49:29 1658 1659	 1492483769	 153808852	 161677.
02:49:29 1659 1660	 1492483769	 291261586	 137452.
02:49:29 1660 1661	 1492483769	 453271507	 162010.
02:49:29 1661 1662	 1492483769	 615574828	 162304.
02:49:29 1662 1663	 1492483769	 781868241	 166293.
02:49:29 1663 1664	 1492483769	 947793375	 165925.
02:49:30 1664 1665	 1492483770	 109846773	 162054.
02:49:30 1665 1666	 1492483770	 247801158	 137954.
02:49:30 1666 1667	 1492483770	 409887841	 162087.
02:49:30 1667 1668	 1492483770	 571940838	 162053.
02:49:30 1668 1669	 1492483770	 738081665	 166140.
02:49:30 1669 1670	 1492483770	 900269415	 162188.
02:49:31 1670 1671	 1492483771	 66380551	 166111.
02:49:31 1671 1672	 1492483771	 228240724	 161861.
02:49:31 1672 1673	 1492483771	 365329203	 137088.
02:49:31 1673 1674	 1492483771	 527133640	 161804.
02:49:31 1674 1675	 1492483771	 693316657	 166183.
02:49:31 1675 1676	 1492483771	 854992089	 161676.
02:49:32 1676 1677	 1492483772	 21519892	 166528.
02:49:32 1677 1678	 1492483772	 183482852	 161963.
02:49:32 1678 1679	 1492483772	 349341026	 165858.
02:49:32 1679 1680	 1492483772	 482409469	 133068.
02:49:32 1680 1681	 1492483772	 648673643	 166264.
02:49:32 1681 1682	 1492483772	 810598063	 161925.
02:49:32 1682 1683	 1492483772	 976575822	 165978.
02:49:33 1683 1684	 1492483773	 138319144	 161743.
02:49:33 1684 1685	 1492483773	 303849882	 165531.
02:49:33 1685 1686	 1492483773	 465698734	 161849.
02:49:33 1686 1687	 1492483773	 631491526	 165792.
02:49:33 1687 1688	 1492483773	 764299013	 132808.
02:49:33 1688 1689	 1492483773	 926567766	 162269.
02:49:34 1689 1690	 1492483774	 92468198	 165900.
02:49:34 1690 1691	 1492483774	 254490852	 162023.
02:49:34 1691 1692	 1492483774	 420519792	 166029.
02:49:34 1692 1693	 1492483774	 582567213	 162047.
02:49:34 1693 1694	 1492483774	 744710213	 162143.
02:49:34 1694 1695	 1492483774	 910677482	 165967.
02:49:35 1695 1696	 1492483775	 72712514	 162035.
02:49:35 1696 1697	 1492483775	 210012870	 137301.
02:49:35 1697 1698	 1492483775	 372340374	 162327.
02:49:35 1698 1699	 1492483775	 538249778	 165910.
02:49:35 1699 1700	 1492483775	 699961112	 161711.
02:49:35 1700 1701	 1492483775	 861676267	 161715.
02:49:36 1701 1702	 1492483776	 27452264	 165776.
02:49:36 1702 1703	 1492483776	 189107032	 161655.
02:49:36 1703 1704	 1492483776	 350801003	 161694.
02:49:36 1704 1705	 1492483776	 516802954	 166002.
02:49:36 1705 1706	 1492483776	 682947975	 166145.
02:49:36 1706 1707	 1492483776	 816004910	 133057.
02:49:36 1707 1708	 1492483776	 977383099	 161378.
02:49:37 1708 1709	 1492483777	 143015534	 165632.
02:49:37 1709 1710	 1492483777	 304423114	 161408.
02:49:37 1710 1711	 1492483777	 466129218	 161706.
02:49:37 1711 1712	 1492483777	 632033114	 165904.
02:49:37 1712 1713	 1492483777	 875429640	 243396.
02:49:38 1713 1714	 1492483778	 8266307	 132837.
02:49:38 1714 1715	 1492483778	 169449353	 161183.
02:49:38 1715 1716	 1492483778	 334934046	 165485.
02:49:38 1716 1717	 1492483778	 496393322	 161459.
02:49:38 1717 1718	 1492483778	 629170124	 132777.
02:49:38 1718 1719	 1492483778	 794414061	 165244.
02:49:38 1719 1720	 1492483778	 955873145	 161459.
02:49:39 1720 1721	 1492483779	 121289612	 165416.
02:49:39 1721 1722	 1492483779	 282574745	 161286.
02:49:39 1722 1723	 1492483779	 415532967	 132958.
02:49:39 1723 1724	 1492483779	 580954887	 165422.
02:49:39 1724 1725	 1492483779	 742279013	 161324.
02:49:39 1725 1726	 1492483779	 908275711	 165997.
02:49:40 1726 1727	 1492483780	 69850173	 161574.
02:49:40 1727 1728	 1492483780	 207005296	 137155.
02:49:40 1728 1729	 1492483780	 368610876	 161606.
02:49:40 1729 1730	 1492483780	 529729400	 161118.
02:49:40 1730 1731	 1492483780	 695235787	 165507.
02:49:40 1731 1732	 1492483780	 856711001	 161475.
02:49:40 1732 1733	 1492483780	 993449104	 136738.
02:49:41 1733 1734	 1492483781	 155015993	 161567.
02:49:41 1734 1735	 1492483781	 316612624	 161596.
02:49:41 1735 1736	 1492483781	 482152555	 165540.
02:49:41 1736 1737	 1492483781	 644035001	 161883.
02:49:41 1737 1738	 1492483781	 809696526	 165661.
02:49:41 1738 1739	 1492483781	 942574870	 132879.
02:49:42 1739 1740	 1492483782	 104495356	 161920.
02:49:42 1740 1741	 1492483782	 269970867	 165476.
02:49:42 1741 1742	 1492483782	 431612441	 161641.
02:49:42 1742 1743	 1492483782	 597398150	 165786.
02:49:42 1743 1744	 1492483782	 759135702	 161737.
02:49:42 1744 1745	 1492483782	 926041181	 166906.
02:49:43 1745 1746	 1492483783	 79804209	 153763.
02:49:43 1746 1747	 1492483783	 216635149	 136831.
02:49:43 1747 1748	 1492483783	 378253855	 161619.
02:49:43 1748 1749	 1492483783	 543978594	 165724.
02:49:43 1749 1750	 1492483783	 705402261	 161424.
02:49:43 1750 1751	 1492483783	 867187100	 161785.
02:49:43 1751 1752	 1492483784	 3974616	 136787.
02:49:44 1752 1753	 1492483784	 165120259	 161146.
02:49:44 1753 1754	 1492483784	 331037215	 165917.
02:49:44 1754 1755	 1492483784	 492636884	 161600.
02:49:44 1755 1756	 1492483784	 654345814	 161709.
02:49:44 1756 1757	 1492483784	 819901132	 165555.
02:49:44 1757 1758	 1492483784	 952756278	 132855.
02:49:45 1758 1759	 1492483785	 114502903	 161747.
02:49:45 1759 1760	 1492483785	 280459964	 165957.
02:49:45 1760 1761	 1492483785	 442566706	 162106.
02:49:45 1761 1762	 1492483785	 608723090	 166157.
02:49:45 1762 1763	 1492483785	 774622897	 165900.
02:49:45 1763 1764	 1492483785	 936536315	 161913.
02:49:46 1764 1765	 1492483786	 73937419	 137401.
02:49:46 1765 1766	 1492483786	 235982260	 162045.
02:49:46 1766 1767	 1492483786	 402251034	 166269.
02:49:46 1767 1768	 1492483786	 564250973	 162000.
02:49:46 1768 1769	 1492483786	 730288538	 166037.
02:49:46 1769 1770	 1492483786	 892133063	 161845.
02:49:47 1770 1771	 1492483787	 53970000	 161837.
02:49:47 1771 1772	 1492483787	 219910293	 165940.
02:49:47 1772 1773	 1492483787	 352919114	 133009.
02:49:47 1773 1774	 1492483787	 518770764	 165852.
02:49:47 1774 1775	 1492483787	 680701545	 161930.
02:49:47 1775 1776	 1492483787	 846576731	 165876.
02:49:48 1776 1777	 1492483788	 8689420	 162112.
02:49:48 1777 1778	 1492483788	 174417645	 165728.
02:49:48 1778 1779	 1492483788	 336090907	 161674.
02:49:48 1779 1780	 1492483788	 502036510	 165945.
02:49:48 1780 1781	 1492483788	 663580527	 161544.
02:49:48 1781 1782	 1492483788	 796468989	 132889.
02:49:48 1782 1783	 1492483788	 962155937	 165687.
02:49:49 1783 1784	 1492483789	 123588459	 161432.
02:49:49 1784 1785	 1492483789	 289162895	 165575.
02:49:49 1785 1786	 1492483789	 451097441	 161934.
02:49:49 1786 1787	 1492483789	 583899719	 132803.
02:49:49 1787 1788	 1492483789	 749666240	 165766.
02:49:49 1788 1789	 1492483789	 911510166	 161844.
02:49:50 1789 1790	 1492483790	 77160904	 165651.
02:49:50 1790 1791	 1492483790	 238990785	 161830.
02:49:50 1791 1792	 1492483790	 400573017	 161582.
02:49:50 1792 1793	 1492483790	 566336688	 165763.
02:49:50 1793 1794	 1492483790	 699237940	 132902.
02:49:50 1794 1795	 1492483790	 864369275	 165131.
02:49:51 1795 1796	 1492483791	 25446932	 161078.
02:49:51 1796 1797	 1492483791	 190952393	 165505.
02:49:51 1797 1798	 1492483791	 324000883	 133049.
02:49:51 1798 1799	 1492483791	 489779871	 165779.
02:49:51 1799 1800	 1492483791	 651692273	 161912.
02:49:51 1800 1801	 1492483791	 813830295	 162138.
02:49:51 1801 1802	 1492483791	 980130779	 166301.
02:49:52 1802 1803	 1492483792	 141893748	 161763.
02:49:52 1803 1804	 1492483792	 308045589	 166151.
02:49:52 1804 1805	 1492483792	 441212800	 133168.
02:49:52 1805 1806	 1492483792	 607458377	 166245.
02:49:52 1806 1807	 1492483792	 769238817	 161781.
02:49:52 1807 1808	 1492483792	 935444498	 166205.
02:49:53 1808 1809	 1492483793	 97228195	 161784.
02:49:53 1809 1810	 1492483793	 262984210	 165756.
02:49:53 1810 1811	 1492483793	 424689365	 161705.
02:49:53 1811 1812	 1492483793	 590391956	 165703.
02:49:53 1812 1813	 1492483793	 723182767	 132791.
02:49:53 1813 1814	 1492483793	 884835284	 161652.
02:49:54 1814 1815	 1492483794	 50515321	 165680.
02:49:54 1815 1816	 1492483794	 294898605	 244383.
02:49:54 1816 1817	 1492483794	 404043266	 109145.
02:49:54 1817 1818	 1492483794	 565350767	 161308.
02:49:54 1818 1819	 1492483794	 727127820	 161777.
02:49:54 1819 1820	 1492483794	 893344198	 166216.
02:49:55 1820 1821	 1492483795	 59737500	 166393.
02:49:55 1821 1822	 1492483795	 192715810	 132979.
02:49:55 1822 1823	 1492483795	 354439765	 161724.
02:49:55 1823 1824	 1492483795	 520713094	 166273.
02:49:55 1824 1825	 1492483795	 682641165	 161928.
02:49:55 1825 1826	 1492483795	 848435360	 165794.
02:49:56 1826 1827	 1492483796	 10715919	 162281.
02:49:56 1827 1828	 1492483796	 172857197	 162141.
02:49:56 1828 1829	 1492483796	 338840408	 165983.
02:49:56 1829 1830	 1492483796	 471790346	 132950.
02:49:56 1830 1831	 1492483796	 637912492	 166122.
02:49:56 1831 1832	 1492483796	 799630943	 161719.
02:49:56 1832 1833	 1492483796	 965128230	 165497.
02:49:57 1833 1834	 1492483797	 126609351	 161481.
02:49:57 1834 1835	 1492483797	 263406390	 136797.
02:49:57 1835 1836	 1492483797	 424779470	 161373.
02:49:57 1836 1837	 1492483797	 586336353	 161557.
02:49:57 1837 1838	 1492483797	 751880324	 165544.
02:49:57 1838 1839	 1492483797	 913221079	 161341.
02:49:58 1839 1840	 1492483798	 79058095	 165837.
02:49:58 1840 1841	 1492483798	 212378647	 133320.
02:49:58 1841 1842	 1492483798	 378401686	 166023.
02:49:58 1842 1843	 1492483798	 540188130	 161787.
02:49:58 1843 1844	 1492483798	 701965415	 161777.
02:49:58 1844 1845	 1492483798	 867887401	 165922.
02:49:59 1845 1846	 1492483799	 29606935	 161720.
02:49:59 1846 1847	 1492483799	 195278718	 165672.
02:49:59 1847 1848	 1492483799	 328473349	 133194.
02:49:59 1848 1849	 1492483799	 494402839	 165930.
02:49:59 1849 1850	 1492483799	 656138710	 161735.
02:49:59 1850 1851	 1492483799	 821874043	 165736.
02:49:59 1851 1852	 1492483799	 983825877	 161952.
02:50:00 1852 1853	 1492483800	 149342214	 165516.
02:50:00 1853 1854	 1492483800	 282297083	 132955.
02:50:00 1854 1855	 1492483800	 444030516	 161733.
02:50:00 1855 1856	 1492483800	 609502159	 165472.
02:50:00 1856 1857	 1492483800	 770865075	 161363.
02:50:00 1857 1858	 1492483800	 936579082	 165714.
02:50:01 1858 1859	 1492483801	 98350601	 161772.
02:50:01 1859 1860	 1492483801	 235311963	 136961.
02:50:01 1860 1861	 1492483801	 397001357	 161689.
02:50:01 1861 1862	 1492483801	 558848767	 161848.
02:50:01 1862 1863	 1492483801	 724531725	 165683.
02:50:01 1863 1864	 1492483801	 886142408	 161610.
02:50:02 1864 1865	 1492483802	 51809443	 165667.
02:50:02 1865 1866	 1492483802	 213632316	 161823.
02:50:02 1866 1867	 1492483802	 379779054	 166147.
02:50:02 1867 1868	 1492483802	 512890655	 133111.
02:50:02 1868 1869	 1492483802	 674788260	 161898.
02:50:02 1869 1870	 1492483802	 840727466	 165939.
02:50:02 1870 1871	 1492483803	 2311042	 161584.
02:50:03 1871 1872	 1492483803	 168037501	 165726.
02:50:03 1872 1873	 1492483803	 329665076	 161628.
