13:50:37    0 Step	 time(s)	 time(ns)	 delta(ms)
13:50:37    0 1	 1492696237	 132425895	 916.
13:50:37    1 2	 1492696237	 294593030	 162167.
13:50:37    2 3	 1492696237	 461047815	 166455.
13:50:37    3 4	 1492696237	 623567769	 162519.
13:50:37    4 5	 1492696237	 789605077	 166038.
13:50:37    5 6	 1492696237	 951485397	 161880.
13:50:38    6 7	 1492696238	 117727281	 166242.
13:50:38    7 8	 1492696238	 279511013	 161784.
13:50:38    8 9	 1492696238	 412242557	 132731.
13:50:38    9 10	 1492696238	 578127366	 165885.
13:50:38   10 11	 1492696238	 744362862	 166236.
13:50:38   11 12	 1492696238	 906278091	 161915.
13:50:39   12 13	 1492696239	 72303824	 166026.
13:50:39   13 14	 1492696239	 234520657	 162216.
13:50:39   14 15	 1492696239	 400922715	 166402.
13:50:39   15 16	 1492696239	 534351552	 133429.
13:50:39   16 17	 1492696239	 700500390	 166149.
13:50:39   17 18	 1492696239	 862568629	 162068.
13:50:40   18 19	 1492696240	 28718165	 166150.
13:50:40   19 20	 1492696240	 191011944	 162294.
13:50:40   20 21	 1492696240	 357208133	 166196.
13:50:40   21 22	 1492696240	 519182530	 161974.
13:50:40   22 23	 1492696240	 684942273	 165760.
13:50:40   23 24	 1492696240	 817893639	 132951.
13:50:40   24 25	 1492696240	 979422414	 161529.
13:50:41   25 26	 1492696241	 145314727	 165892.
13:50:41   26 27	 1492696241	 307313780	 161999.
13:50:41   27 28	 1492696241	 473197333	 165884.
13:50:41   28 29	 1492696241	 635296276	 162099.
13:50:41   29 30	 1492696241	 772388914	 137093.
13:50:41   30 31	 1492696241	 934027939	 161639.
13:50:42   31 32	 1492696242	 100047426	 166019.
13:50:42   32 33	 1492696242	 262370635	 162323.
13:50:42   33 34	 1492696242	 428739348	 166369.
13:50:42   34 35	 1492696242	 591061947	 162323.
13:50:42   35 36	 1492696242	 757314799	 166252.
13:50:42   36 37	 1492696242	 890707582	 133393.
13:50:43   37 38	 1492696243	 56512464	 165805.
13:50:43   38 39	 1492696243	 218486032	 161974.
13:50:43   39 40	 1492696243	 384140974	 165655.
13:50:43   40 41	 1492696243	 545986462	 161845.
13:50:43   41 42	 1492696243	 679043541	 133057.
13:50:43   42 43	 1492696243	 845139881	 166097.
13:50:44   43 44	 1492696244	 7487076	 162347.
13:50:44   44 45	 1492696244	 173469503	 165982.
13:50:44   45 46	 1492696244	 339397878	 165929.
13:50:44   46 47	 1492696244	 501261428	 161863.
13:50:44   47 48	 1492696244	 638817773	 137556.
13:50:44   48 49	 1492696244	 800854898	 162038.
13:50:44   49 50	 1492696244	 967124238	 166269.
13:50:45   50 51	 1492696245	 129169967	 162046.
13:50:45   51 52	 1492696245	 295193194	 166023.
13:50:45   52 53	 1492696245	 428486558	 133293.
13:50:45   53 54	 1492696245	 594961793	 166476.
13:50:45   54 55	 1492696245	 757446366	 162484.
13:50:45   55 56	 1492696245	 923682077	 166236.
13:50:46   56 57	 1492696246	 86205418	 162523.
13:50:46   57 58	 1492696246	 252755162	 166550.
13:50:46   58 59	 1492696246	 414615234	 161860.
13:50:46   59 60	 1492696246	 580805378	 166190.
13:50:46   60 61	 1492696246	 742608992	 161804.
13:50:46   61 62	 1492696246	 875464839	 132856.
13:50:47   62 63	 1492696247	 40909472	 165444.
13:50:47   63 64	 1492696247	 202489943	 161581.
13:50:47   64 65	 1492696247	 368400605	 165910.
13:50:47   65 66	 1492696247	 501738590	 133338.
13:50:47   66 67	 1492696247	 667911581	 166173.
13:50:47   67 68	 1492696247	 829743040	 161832.
13:50:47   68 69	 1492696247	 995957286	 166214.
13:50:48   69 70	 1492696248	 158762551	 162805.
13:50:48   70 71	 1492696248	 320761492	 161999.
13:50:48   71 72	 1492696248	 482461677	 161700.
13:50:48   72 73	 1492696248	 619618238	 137157.
13:50:48   73 74	 1492696248	 781460648	 161842.
13:50:48   74 75	 1492696248	 947192287	 165732.
13:50:49   75 76	 1492696249	 109078485	 161886.
13:50:49   76 77	 1492696249	 275176263	 166098.
13:50:49   77 78	 1492696249	 408171747	 132995.
13:50:49   78 79	 1492696249	 574134093	 165963.
13:50:49   79 80	 1492696249	 735848382	 161714.
13:50:49   80 81	 1492696249	 901858765	 166011.
13:50:50   81 82	 1492696250	 35071864	 133213.
13:50:50   82 83	 1492696250	 201043005	 165971.
13:50:50   83 84	 1492696250	 366984894	 165942.
13:50:50   84 85	 1492696250	 529019330	 162034.
13:50:50   85 86	 1492696250	 666140582	 137121.
13:50:50   86 87	 1492696250	 827497441	 161357.
13:50:50   87 88	 1492696250	 993111403	 165614.
13:50:51   88 89	 1492696251	 154788456	 161677.
13:50:51   89 90	 1492696251	 316291601	 161503.
13:50:51   90 91	 1492696251	 481792878	 165502.
13:50:51   91 92	 1492696251	 614948543	 133155.
13:50:51   92 93	 1492696251	 780673551	 165725.
13:50:51   93 94	 1492696251	 942115612	 161442.
13:50:52   94 95	 1492696252	 107698024	 165583.
13:50:52   95 96	 1492696252	 269463477	 161765.
13:50:52   96 97	 1492696252	 431301216	 161838.
13:50:52   97 98	 1492696252	 597194758	 165893.
13:50:52   98 99	 1492696252	 730588425	 133394.
13:50:52   99 100	 1492696252	 896593323	 166005.
13:50:53  100 101	 1492696253	 62701108	 166108.
13:50:53  101 102	 1492696253	 224930845	 162230.
13:50:53  102 103	 1492696253	 390798253	 165867.
13:50:53  103 104	 1492696253	 524236124	 133438.
13:50:53  104 105	 1492696253	 690014835	 165778.
13:50:53  105 106	 1492696253	 851740134	 161726.
13:50:54  106 107	 1492696254	 18247365	 166507.
13:50:54  107 108	 1492696254	 180219999	 161973.
13:50:54  108 109	 1492696254	 317861158	 137641.
13:50:54  109 110	 1492696254	 483992036	 166131.
13:50:54  110 111	 1492696254	 646344932	 162353.
13:50:54  111 112	 1492696254	 812447227	 166102.
13:50:54  112 113	 1492696254	 974578005	 162131.
13:50:55  113 114	 1492696255	 140524153	 165946.
13:50:55  114 115	 1492696255	 274014829	 133491.
13:50:55  115 116	 1492696255	 440088320	 166073.
13:50:55  116 117	 1492696255	 601608872	 161521.
13:50:55  117 118	 1492696255	 767298900	 165690.
13:50:55  118 119	 1492696255	 929499483	 162200.
13:50:56  119 120	 1492696256	 66781255	 137282.
13:50:56  120 121	 1492696256	 228775057	 161994.
13:50:56  121 122	 1492696256	 394252120	 165477.
13:50:56  122 123	 1492696256	 560398662	 166146.
13:50:56  123 124	 1492696256	 722505578	 162107.
13:50:56  124 125	 1492696256	 888718862	 166214.
13:50:57  125 126	 1492696257	 22106100	 133387.
13:50:57  126 127	 1492696257	 187945662	 165839.
13:50:57  127 128	 1492696257	 349855145	 161910.
13:50:57  128 129	 1492696257	 516265865	 166411.
13:50:57  129 130	 1492696257	 678302399	 162036.
13:50:57  130 131	 1492696257	 815479603	 137177.
13:50:57  131 132	 1492696257	 977534464	 162055.
13:50:58  132 133	 1492696258	 143730956	 166197.
13:50:58  133 134	 1492696258	 306014914	 162284.
13:50:58  134 135	 1492696258	 472049796	 166035.
13:50:58  135 136	 1492696258	 605705191	 133655.
13:50:58  136 137	 1492696258	 771849054	 166144.
13:50:58  137 138	 1492696258	 937868108	 166019.
13:50:59  138 139	 1492696259	 99989103	 162121.
13:50:59  139 140	 1492696259	 266354013	 166365.
13:50:59  140 141	 1492696259	 399999668	 133645.
13:50:59  141 142	 1492696259	 566335143	 166336.
13:50:59  142 143	 1492696259	 728386896	 162052.
13:50:59  143 144	 1492696259	 894312826	 165926.
13:51:00  144 145	 1492696260	 57075543	 162762.
13:51:00  145 146	 1492696260	 223081308	 166006.
13:51:00  146 147	 1492696260	 356446236	 133365.
13:51:00  147 148	 1492696260	 522788627	 166342.
13:51:00  148 149	 1492696260	 684603885	 161816.
13:51:00  149 150	 1492696260	 850902582	 166298.
13:51:01  150 151	 1492696261	 12607088	 161705.
13:51:01  151 152	 1492696261	 174025811	 161419.
13:51:01  152 153	 1492696261	 339698787	 165673.
13:51:01  153 154	 1492696261	 501198742	 161499.
13:51:01  154 155	 1492696261	 638141584	 136943.
13:51:01  155 156	 1492696261	 799676177	 161535.
13:51:01  156 157	 1492696261	 961070528	 161394.
13:51:02  157 158	 1492696262	 126668009	 165598.
13:51:02  158 159	 1492696262	 287847420	 161179.
13:51:02  159 160	 1492696262	 424718841	 136872.
13:51:02  160 161	 1492696262	 586018945	 161300.
13:51:02  161 162	 1492696262	 747511732	 161492.
13:51:02  162 163	 1492696262	 913218795	 165708.
13:51:03  163 164	 1492696263	 74821437	 161602.
13:51:03  164 165	 1492696263	 240536464	 165715.
13:51:03  165 166	 1492696263	 373526321	 132990.
13:51:03  166 167	 1492696263	 535222264	 161696.
13:51:03  167 168	 1492696263	 700857832	 165636.
13:51:03  168 169	 1492696263	 862431244	 161573.
13:51:04  169 170	 1492696264	 28407680	 165976.
13:51:04  170 171	 1492696264	 190339202	 161932.
13:51:04  171 172	 1492696264	 356404881	 166066.
13:51:04  172 173	 1492696264	 489224813	 132820.
13:51:04  173 174	 1492696264	 650862613	 161638.
13:51:04  174 175	 1492696264	 816522480	 165659.
13:51:04  175 176	 1492696264	 979136764	 162615.
13:51:05  176 177	 1492696265	 137261689	 158124.
13:51:05  177 178	 1492696265	 303240040	 165979.
13:51:05  178 179	 1492696265	 464859492	 161619.
13:51:05  179 180	 1492696265	 630927801	 166069.
13:51:05  180 181	 1492696265	 763886554	 132958.
13:51:05  181 182	 1492696265	 929287950	 165402.
13:51:06  182 183	 1492696266	 91018046	 161730.
13:51:06  183 184	 1492696266	 256581653	 165563.
13:51:06  184 185	 1492696266	 418443963	 161863.
13:51:06  185 186	 1492696266	 579998378	 161554.
13:51:06  186 187	 1492696266	 716904262	 136906.
13:51:06  187 188	 1492696266	 878579390	 161675.
13:51:07  188 189	 1492696267	 40393108	 161814.
13:51:07  189 190	 1492696267	 206211839	 165819.
13:51:07  190 191	 1492696267	 368059562	 161847.
13:51:07  191 192	 1492696267	 533885391	 165826.
13:51:07  192 193	 1492696267	 695332857	 161448.
13:51:07  193 194	 1492696267	 828495405	 133162.
13:51:07  194 195	 1492696267	 994145633	 165650.
13:51:08  195 196	 1492696268	 156091019	 161946.
13:51:08  196 197	 1492696268	 321639720	 165548.
13:51:08  197 198	 1492696268	 483068750	 161429.
13:51:08  198 199	 1492696268	 648542987	 165475.
13:51:08  199 200	 1492696268	 781278865	 132736.
13:51:08  200 201	 1492696268	 942835847	 161557.
13:51:09  201 202	 1492696269	 108536752	 165700.
13:51:09  202 203	 1492696269	 270224887	 161689.
13:51:09  203 204	 1492696269	 431794720	 161569.
13:51:09  204 205	 1492696269	 597479248	 165685.
13:51:09  205 206	 1492696269	 730606242	 133127.
13:51:09  206 207	 1492696269	 896460600	 165854.
13:51:10  207 208	 1492696270	 58074323	 161614.
13:51:10  208 209	 1492696270	 220033273	 161959.
13:51:10  209 210	 1492696270	 385890456	 165857.
13:51:10  210 211	 1492696270	 547429410	 161539.
13:51:10  211 212	 1492696270	 712985286	 165556.
13:51:10  212 213	 1492696270	 874753427	 161768.
13:51:11  213 214	 1492696271	 7546554	 132793.
13:51:11  214 215	 1492696271	 173320052	 165774.
13:51:11  215 216	 1492696271	 335087405	 161767.
13:51:11  216 217	 1492696271	 500873999	 165787.
13:51:11  217 218	 1492696271	 662844890	 161971.
13:51:11  218 219	 1492696271	 824807805	 161963.
13:51:11  219 220	 1492696271	 962056802	 137249.
13:51:12  220 221	 1492696272	 128040339	 165983.
13:51:12  221 222	 1492696272	 290076385	 162036.
13:51:12  222 223	 1492696272	 456471181	 166395.
13:51:12  223 224	 1492696272	 618537744	 162066.
13:51:12  224 225	 1492696272	 784644051	 166107.
13:51:12  225 226	 1492696272	 917989087	 133345.
13:51:13  226 227	 1492696273	 83677267	 165688.
13:51:13  227 228	 1492696273	 245590569	 161914.
13:51:13  228 229	 1492696273	 411803347	 166212.
13:51:13  229 230	 1492696273	 573411781	 161609.
13:51:13  230 231	 1492696273	 739225033	 165813.
13:51:13  231 232	 1492696273	 901203659	 161978.
13:51:14  232 233	 1492696274	 38582922	 137380.
13:51:14  233 234	 1492696274	 200629703	 162046.
13:51:14  234 235	 1492696274	 362864818	 162236.
13:51:14  235 236	 1492696274	 528858957	 165994.
13:51:14  236 237	 1492696274	 690755197	 161896.
13:51:14  237 238	 1492696274	 856893548	 166138.
13:51:15  238 239	 1492696275	 18891200	 161998.
13:51:15  239 240	 1492696275	 180902829	 162012.
13:51:15  240 241	 1492696275	 346815905	 165913.
13:51:15  241 242	 1492696275	 509105107	 162289.
13:51:15  242 243	 1492696275	 675402217	 166297.
13:51:15  243 244	 1492696275	 837140147	 161738.
13:51:16  244 245	 1492696276	 3057230	 165917.
13:51:16  245 246	 1492696276	 164736428	 161679.
13:51:16  246 247	 1492696276	 330930138	 166194.
13:51:16  247 248	 1492696276	 492687067	 161757.
13:51:16  248 249	 1492696276	 655107238	 162420.
13:51:16  249 250	 1492696276	 820924652	 165817.
13:51:16  250 251	 1492696276	 953850760	 132926.
13:51:17  251 252	 1492696277	 115897477	 162047.
13:51:17  252 253	 1492696277	 281783786	 165887.
13:51:17  253 254	 1492696277	 443434876	 161651.
13:51:17  254 255	 1492696277	 609053540	 165618.
13:51:17  255 256	 1492696277	 770784219	 161731.
13:51:17  256 257	 1492696277	 936520172	 165736.
13:51:18  257 258	 1492696278	 69381107	 132861.
13:51:18  258 259	 1492696278	 230695053	 161314.
13:51:18  259 260	 1492696278	 396300277	 165605.
13:51:18  260 261	 1492696278	 557793678	 161493.
13:51:18  261 262	 1492696278	 723500281	 165707.
13:51:18  262 263	 1492696278	 885036715	 161536.
13:51:19  263 264	 1492696279	 17941531	 132905.
13:51:19  264 265	 1492696279	 183674223	 165733.
13:51:19  265 266	 1492696279	 345292829	 161619.
13:51:19  266 267	 1492696279	 506918110	 161625.
13:51:19  267 268	 1492696279	 672472434	 165554.
13:51:19  268 269	 1492696279	 834244685	 161772.
13:51:19  269 270	 1492696279	 999672913	 165429.
13:51:20  270 271	 1492696280	 132790872	 133118.
13:51:20  271 272	 1492696280	 294371868	 161581.
13:51:20  272 273	 1492696280	 459960243	 165588.
13:51:20  273 274	 1492696280	 621584968	 161625.
13:51:20  274 275	 1492696280	 787241684	 165656.
13:51:20  275 276	 1492696280	 948707486	 161466.
13:51:21  276 277	 1492696281	 81366907	 132660.
13:51:21  277 278	 1492696281	 246718540	 165351.
13:51:21  278 279	 1492696281	 407944470	 161226.
13:51:21  279 280	 1492696281	 573352420	 165408.
13:51:21  280 281	 1492696281	 706123378	 132771.
13:51:21  281 282	 1492696281	 871683495	 165560.
13:51:22  282 283	 1492696282	 33867071	 162184.
13:51:22  283 284	 1492696282	 191125661	 157258.
13:51:22  284 285	 1492696282	 356855112	 165730.
13:51:22  285 286	 1492696282	 518251281	 161396.
13:51:22  286 287	 1492696282	 655292492	 137041.
13:51:22  287 288	 1492696282	 816569366	 161277.
13:51:22  288 289	 1492696282	 982575671	 166006.
13:51:23  289 290	 1492696283	 144110500	 161535.
13:51:23  290 291	 1492696283	 305601444	 161491.
13:51:23  291 292	 1492696283	 442826906	 137226.
13:51:23  292 293	 1492696283	 604383940	 161557.
13:51:23  293 294	 1492696283	 770137859	 165754.
13:51:23  294 295	 1492696283	 931247900	 161110.
13:51:24  295 296	 1492696284	 92343984	 161096.
13:51:24  296 297	 1492696284	 229049371	 136705.
13:51:24  297 298	 1492696284	 390134722	 161086.
13:51:24  298 299	 1492696284	 555690832	 165556.
13:51:24  299 300	 1492696284	 716941941	 161251.
13:51:24  300 301	 1492696284	 849460903	 132519.
13:51:25  301 302	 1492696285	 14718401	 165257.
13:51:25  302 303	 1492696285	 176211574	 161493.
13:51:25  303 304	 1492696285	 341629128	 165418.
13:51:25  304 305	 1492696285	 503359226	 161730.
13:51:25  305 306	 1492696285	 636254748	 132895.
13:51:25  306 307	 1492696285	 801462520	 165208.
13:51:25  307 308	 1492696285	 962752734	 161290.
13:51:26  308 309	 1492696286	 128208616	 165457.
13:51:26  309 310	 1492696286	 261064428	 132855.
13:51:26  310 311	 1492696286	 422672328	 161608.
13:51:26  311 312	 1492696286	 588897095	 166225.
13:51:26  312 313	 1492696286	 751117839	 162221.
13:51:26  313 314	 1492696286	 917094265	 165976.
13:51:27  314 315	 1492696287	 79130883	 162037.
13:51:27  315 316	 1492696287	 245597258	 166466.
13:51:27  316 317	 1492696287	 408338892	 162742.
13:51:27  317 318	 1492696287	 574873590	 166534.
13:51:27  318 319	 1492696287	 737254979	 162382.
13:51:27  319 320	 1492696287	 903694296	 166439.
13:51:28  320 321	 1492696288	 37318216	 133624.
13:51:28  321 322	 1492696288	 203454841	 166137.
13:51:28  322 323	 1492696288	 365286844	 161831.
13:51:28  323 324	 1492696288	 531209020	 165923.
13:51:28  324 325	 1492696288	 692679262	 161470.
13:51:28  325 326	 1492696288	 829542462	 136863.
13:51:28  326 327	 1492696288	 990984299	 161442.
13:51:29  327 328	 1492696289	 152627196	 161643.
13:51:29  328 329	 1492696289	 318821632	 166194.
13:51:29  329 330	 1492696289	 484901192	 166080.
13:51:29  330 331	 1492696289	 618207506	 133306.
13:51:29  331 332	 1492696289	 780104006	 161897.
13:51:29  332 333	 1492696289	 945801118	 165697.
13:51:30  333 334	 1492696290	 107956306	 162155.
13:51:30  334 335	 1492696290	 269881573	 161925.
13:51:30  335 336	 1492696290	 436508074	 166627.
13:51:30  336 337	 1492696290	 598704071	 162196.
13:51:30  337 338	 1492696290	 764778291	 166074.
13:51:30  338 339	 1492696290	 926590979	 161813.
13:51:31  339 340	 1492696291	 63913246	 137322.
13:51:31  340 341	 1492696291	 225685301	 161772.
13:51:31  341 342	 1492696291	 387768422	 162083.
13:51:31  342 343	 1492696291	 554159070	 166391.
13:51:31  343 344	 1492696291	 716357083	 162198.
13:51:31  344 345	 1492696291	 881845181	 165488.
13:51:32  345 346	 1492696292	 43273127	 161428.
13:51:32  346 347	 1492696292	 205000368	 161727.
13:51:32  347 348	 1492696292	 341975498	 136975.
13:51:32  348 349	 1492696292	 503610167	 161635.
13:51:32  349 350	 1492696292	 668908526	 165298.
13:51:32  350 351	 1492696292	 829977421	 161069.
13:51:32  351 352	 1492696292	 962376435	 132399.
13:51:33  352 353	 1492696293	 128244457	 165868.
13:51:33  353 354	 1492696293	 285465293	 157221.
13:51:33  354 355	 1492696293	 446960451	 161495.
13:51:33  355 356	 1492696293	 612674206	 165714.
13:51:33  356 357	 1492696293	 745434665	 132760.
13:51:33  357 358	 1492696293	 911576281	 166142.
13:51:34  358 359	 1492696294	 73562396	 161986.
13:51:34  359 360	 1492696294	 239545305	 165983.
13:51:34  360 361	 1492696294	 401627272	 162082.
13:51:34  361 362	 1492696294	 538858217	 137231.
13:51:34  362 363	 1492696294	 700329784	 161471.
13:51:34  363 364	 1492696294	 861684796	 161355.
13:51:35  364 365	 1492696295	 27145381	 165461.
13:51:35  365 366	 1492696295	 188440051	 161295.
13:51:35  366 367	 1492696295	 325439583	 136999.
13:51:35  367 368	 1492696295	 486992524	 161553.
13:51:35  368 369	 1492696295	 648239420	 161247.
13:51:35  369 370	 1492696295	 814191355	 165952.
13:51:35  370 371	 1492696295	 975594946	 161404.
13:51:36  371 372	 1492696296	 112637044	 137042.
13:51:36  372 373	 1492696296	 274394933	 161758.
13:51:36  373 374	 1492696296	 440190264	 165795.
13:51:36  374 375	 1492696296	 602169945	 161980.
13:51:36  375 376	 1492696296	 767723213	 165553.
13:51:36  376 377	 1492696296	 929261173	 161538.
13:51:37  377 378	 1492696297	 62177273	 132916.
13:51:37  378 379	 1492696297	 227461306	 165284.
13:51:37  379 380	 1492696297	 389007114	 161546.
13:51:37  380 381	 1492696297	 550242233	 161235.
13:51:37  381 382	 1492696297	 716078265	 165836.
13:51:37  382 383	 1492696297	 877787712	 161709.
13:51:38  383 384	 1492696298	 10735260	 132948.
13:51:38  384 385	 1492696298	 176280904	 165546.
13:51:38  385 386	 1492696298	 337931049	 161650.
13:51:38  386 387	 1492696298	 499347065	 161416.
13:51:38  387 388	 1492696298	 664885623	 165538.
13:51:38  388 389	 1492696298	 802021975	 137137.
13:51:38  389 390	 1492696298	 963564003	 161542.
13:51:39  390 391	 1492696299	 129380226	 165816.
13:51:39  391 392	 1492696299	 291037621	 161657.
13:51:39  392 393	 1492696299	 428218890	 137182.
13:51:39  393 394	 1492696299	 590029990	 161811.
13:51:39  394 395	 1492696299	 755876413	 165846.
13:51:39  395 396	 1492696299	 917639818	 161763.
13:51:40  396 397	 1492696300	 83723607	 166084.
13:51:40  397 398	 1492696300	 216874194	 133151.
13:51:40  398 399	 1492696300	 382652568	 165778.
13:51:40  399 400	 1492696300	 544483531	 161831.
13:51:40  400 401	 1492696300	 710319320	 165836.
13:51:40  401 402	 1492696300	 872285477	 161966.
13:51:41  402 403	 1492696301	 9594274	 137309.
13:51:41  403 404	 1492696301	 171498586	 161904.
13:51:41  404 405	 1492696301	 337494181	 165996.
13:51:41  405 406	 1492696301	 499434734	 161940.
13:51:41  406 407	 1492696301	 636593937	 137160.
13:51:41  407 408	 1492696301	 798676032	 162082.
13:51:41  408 409	 1492696301	 964918075	 166242.
13:51:42  409 410	 1492696302	 126960991	 162043.
13:51:42  410 411	 1492696302	 292614160	 165653.
13:51:42  411 412	 1492696302	 458760232	 166146.
13:51:42  412 413	 1492696302	 592085225	 133325.
13:51:42  413 414	 1492696302	 753688477	 161603.
13:51:42  414 415	 1492696302	 919588519	 165900.
13:51:43  415 416	 1492696303	 86044541	 166456.
13:51:43  416 417	 1492696303	 239665548	 153621.
13:51:43  417 418	 1492696303	 376945652	 137280.
13:51:43  418 419	 1492696303	 538662730	 161717.
13:51:43  419 420	 1492696303	 704847961	 166186.
13:51:43  420 421	 1492696303	 866426184	 161578.
13:51:44  421 422	 1492696304	 3591073	 137165.
13:51:44  422 423	 1492696304	 169698182	 166107.
13:51:44  423 424	 1492696304	 346079482	 176381.
13:51:44  424 425	 1492696304	 478998630	 132919.
13:51:44  425 426	 1492696304	 644842596	 165844.
13:51:44  426 427	 1492696304	 810602605	 165760.
13:51:44  427 428	 1492696304	 972307054	 161705.
13:51:45  428 429	 1492696305	 139136050	 166829.
13:51:45  429 430	 1492696305	 301366731	 162230.
13:51:45  430 431	 1492696305	 438728757	 137362.
13:51:45  431 432	 1492696305	 601046245	 162318.
13:51:45  432 433	 1492696305	 766897937	 165852.
13:51:45  433 434	 1492696305	 928324125	 161426.
13:51:46  434 435	 1492696306	 65390625	 137066.
13:51:46  435 436	 1492696306	 231236460	 165846.
13:51:46  436 437	 1492696306	 393496032	 162260.
13:51:46  437 438	 1492696306	 555684162	 162188.
13:51:46  438 439	 1492696306	 721820069	 166136.
13:51:46  439 440	 1492696306	 854796110	 132976.
13:51:47  440 441	 1492696307	 21105905	 166310.
13:51:47  441 442	 1492696307	 187379437	 166273.
13:51:47  442 443	 1492696307	 349452236	 162073.
13:51:47  443 444	 1492696307	 515409776	 165957.
13:51:47  444 445	 1492696307	 677526309	 162117.
13:51:47  445 446	 1492696307	 810606111	 133080.
13:51:47  446 447	 1492696307	 976311898	 165706.
13:51:48  447 448	 1492696308	 142177215	 165865.
13:51:48  448 449	 1492696308	 304089854	 161913.
13:51:48  449 450	 1492696308	 441516102	 137426.
13:51:48  450 451	 1492696308	 603544051	 162028.
13:51:48  451 452	 1492696308	 769650769	 166107.
13:51:48  452 453	 1492696308	 931895711	 162244.
13:51:49  453 454	 1492696309	 97943410	 166048.
13:51:49  454 455	 1492696309	 259638257	 161695.
13:51:49  455 456	 1492696309	 393070012	 133432.
13:51:49  456 457	 1492696309	 559704933	 166635.
13:51:49  457 458	 1492696309	 725668948	 165964.
13:51:49  458 459	 1492696309	 887566467	 161897.
13:51:50  459 460	 1492696310	 54216237	 166650.
13:51:50  460 461	 1492696310	 212131256	 157915.
13:51:50  461 462	 1492696310	 374505796	 162375.
13:51:50  462 463	 1492696310	 512008325	 137502.
13:51:50  463 464	 1492696310	 673898704	 161890.
13:51:50  464 465	 1492696310	 839856417	 165958.
13:51:50  465 466	 1492696311	 2272994	 162417.
13:51:51  466 467	 1492696311	 168484554	 166211.
13:51:51  467 468	 1492696311	 301470088	 132986.
13:51:51  468 469	 1492696311	 467560683	 166090.
13:51:51  469 470	 1492696311	 629457764	 161897.
13:51:51  470 471	 1492696311	 795476514	 166019.
13:51:51  471 472	 1492696311	 961545574	 166069.
13:51:52  472 473	 1492696312	 94777911	 133233.
13:51:52  473 474	 1492696312	 260621874	 165844.
13:51:52  474 475	 1492696312	 422171612	 161549.
13:51:52  475 476	 1492696312	 588148849	 165978.
13:51:52  476 477	 1492696312	 750125474	 161976.
13:51:52  477 478	 1492696312	 887306769	 137181.
13:51:53  478 479	 1492696313	 49199846	 161894.
13:51:53  479 480	 1492696313	 211580867	 162381.
13:51:53  480 481	 1492696313	 373506727	 161925.
13:51:53  481 482	 1492696313	 539526506	 166020.
13:51:53  482 483	 1492696313	 701334262	 161808.
13:51:53  483 484	 1492696313	 838749090	 137415.
13:51:53  484 485	 1492696314	 509525	 161760.
13:51:54  485 486	 1492696314	 166992863	 166484.
13:51:54  486 487	 1492696314	 328730496	 161737.
13:51:54  487 488	 1492696314	 495065958	 166336.
13:51:54  488 489	 1492696314	 657239386	 162173.
13:51:54  489 490	 1492696314	 794347772	 137108.
13:51:54  490 491	 1492696314	 956350532	 162003.
13:51:55  491 492	 1492696315	 122401017	 166051.
13:51:55  492 493	 1492696315	 284506401	 162105.
13:51:55  493 494	 1492696315	 449941316	 165435.
13:51:55  494 495	 1492696315	 612420948	 162480.
13:51:55  495 496	 1492696315	 749741157	 137320.
13:51:55  496 497	 1492696315	 911542575	 161801.
13:51:56  497 498	 1492696316	 77599266	 166057.
13:51:56  498 499	 1492696316	 243494200	 165895.
13:51:56  499 500	 1492696316	 376510636	 133016.
13:51:56  500 501	 1492696316	 537939583	 161429.
13:51:56  501 502	 1492696316	 702977974	 165039.
13:51:56  502 503	 1492696316	 863928920	 160951.
13:51:56  503 504	 1492696317	 584088	 136655.
13:51:57  504 505	 1492696317	 161776265	 161192.
13:51:57  505 506	 1492696317	 323206347	 161430.
13:51:57  506 507	 1492696317	 488539968	 165334.
13:51:57  507 508	 1492696317	 621880074	 133340.
13:51:57  508 509	 1492696317	 787966602	 166086.
13:51:57  509 510	 1492696317	 949819953	 161854.
13:51:58  510 511	 1492696318	 115847826	 166028.
13:51:58  511 512	 1492696318	 277833158	 161985.
13:51:58  512 513	 1492696318	 415016996	 137184.
13:51:58  513 514	 1492696318	 577260661	 162243.
13:51:58  514 515	 1492696318	 742933617	 165673.
13:51:58  515 516	 1492696318	 904624223	 161691.
13:51:59  516 517	 1492696319	 66596784	 161973.
13:51:59  517 518	 1492696319	 232756132	 166159.
13:51:59  518 519	 1492696319	 398936143	 166180.
13:51:59  519 520	 1492696319	 532453487	 133517.
13:51:59  520 521	 1492696319	 694256582	 161803.
13:51:59  521 522	 1492696319	 859875617	 165619.
13:52:00  522 523	 1492696320	 25973641	 166098.
13:52:00  523 524	 1492696320	 187482132	 161509.
13:52:00  524 525	 1492696320	 320507785	 133025.
13:52:00  525 526	 1492696320	 486563593	 166056.
13:52:00  526 527	 1492696320	 648592148	 162029.
13:52:00  527 528	 1492696320	 810391822	 161800.
13:52:00  528 529	 1492696320	 976482194	 166090.
13:52:01  529 530	 1492696321	 138690027	 162208.
13:52:01  530 531	 1492696321	 300443542	 161753.
13:52:01  531 532	 1492696321	 462084449	 161641.
13:52:01  532 533	 1492696321	 628088006	 166004.
13:52:01  533 534	 1492696321	 790006461	 161918.
13:52:01  534 535	 1492696321	 951746643	 161740.
13:52:02  535 536	 1492696322	 88909224	 137163.
13:52:02  536 537	 1492696322	 250314093	 161405.
13:52:02  537 538	 1492696322	 415925528	 165611.
13:52:02  538 539	 1492696322	 577385704	 161460.
13:52:02  539 540	 1492696322	 742765193	 165380.
13:52:02  540 541	 1492696322	 875750222	 132985.
13:52:03  541 542	 1492696323	 37436941	 161687.
13:52:03  542 543	 1492696323	 203221189	 165784.
13:52:03  543 544	 1492696323	 365046136	 161825.
13:52:03  544 545	 1492696323	 530909598	 165863.
13:52:03  545 546	 1492696323	 692693756	 161784.
13:52:03  546 547	 1492696323	 858638934	 165946.
13:52:04  547 548	 1492696324	 20587772	 161949.
13:52:04  548 549	 1492696324	 153717395	 133129.
13:52:04  549 550	 1492696324	 319590985	 165874.
13:52:04  550 551	 1492696324	 481237396	 161646.
13:52:04  551 552	 1492696324	 643734302	 162497.
13:52:04  552 553	 1492696324	 805690424	 161956.
13:52:04  553 554	 1492696324	 971866780	 166176.
13:52:05  554 555	 1492696325	 134137752	 162271.
13:52:05  555 556	 1492696325	 296177706	 162040.
13:52:05  556 557	 1492696325	 462243529	 166066.
13:52:05  557 558	 1492696325	 623907912	 161665.
13:52:05  558 559	 1492696325	 760718419	 136810.
13:52:05  559 560	 1492696325	 922784629	 162066.
13:52:06  560 561	 1492696326	 88712771	 165928.
13:52:06  561 562	 1492696326	 250692511	 161980.
13:52:06  562 563	 1492696326	 416374101	 165682.
13:52:06  563 564	 1492696326	 578280586	 161906.
13:52:06  564 565	 1492696326	 744277014	 165997.
13:52:06  565 566	 1492696326	 906329657	 162052.
13:52:07  566 567	 1492696327	 39554869	 133226.
13:52:07  567 568	 1492696327	 205283740	 165728.
13:52:07  568 569	 1492696327	 367307751	 162024.
13:52:07  569 570	 1492696327	 533491607	 166184.
13:52:07  570 571	 1492696327	 699497803	 166007.
13:52:07  571 572	 1492696327	 861310544	 161812.
13:52:08  572 573	 1492696328	 22980883	 161671.
13:52:08  573 574	 1492696328	 160066569	 137085.
13:52:08  574 575	 1492696328	 321828416	 161762.
13:52:08  575 576	 1492696328	 483619339	 161791.
13:52:08  576 577	 1492696328	 649492113	 165873.
13:52:08  577 578	 1492696328	 810976351	 161484.
13:52:08  578 579	 1492696328	 976515164	 165539.
13:52:09  579 580	 1492696329	 109835426	 133320.
13:52:09  580 581	 1492696329	 275909514	 166074.
13:52:09  581 582	 1492696329	 438185301	 162276.
13:52:09  582 583	 1492696329	 604423069	 166238.
13:52:09  583 584	 1492696329	 766301601	 161879.
13:52:09  584 585	 1492696329	 928150284	 161848.
13:52:10  585 586	 1492696330	 94128794	 165979.
13:52:10  586 587	 1492696330	 227446052	 133317.
13:52:10  587 588	 1492696330	 393436732	 165990.
13:52:10  588 589	 1492696330	 555634398	 162198.
13:52:10  589 590	 1492696330	 721902149	 166268.
13:52:10  590 591	 1492696330	 887871627	 165969.
13:52:11  591 592	 1492696331	 21142785	 133271.
13:52:11  592 593	 1492696331	 182852934	 161711.
13:52:11  593 594	 1492696331	 349420231	 166567.
13:52:11  594 595	 1492696331	 511323191	 161903.
13:52:11  595 596	 1492696331	 677271791	 165949.
13:52:11  596 597	 1492696331	 810376385	 133104.
13:52:11  597 598	 1492696331	 976605048	 166229.
13:52:12  598 599	 1492696332	 142622725	 166017.
13:52:12  599 600	 1492696332	 304450289	 161828.
13:52:12  600 601	 1492696332	 471322052	 166872.
13:52:12  601 602	 1492696332	 633240124	 161918.
13:52:12  602 603	 1492696332	 799787335	 166547.
13:52:12  603 604	 1492696332	 933287343	 133500.
13:52:13  604 605	 1492696333	 99533946	 166247.
13:52:13  605 606	 1492696333	 261542905	 162009.
13:52:13  606 607	 1492696333	 427708636	 166165.
13:52:13  607 608	 1492696333	 589867475	 162159.
13:52:13  608 609	 1492696333	 756139442	 166272.
13:52:13  609 610	 1492696333	 889637542	 133498.
13:52:14  610 611	 1492696334	 55943901	 166307.
13:52:14  611 612	 1492696334	 217808675	 161864.
13:52:14  612 613	 1492696334	 383883038	 166075.
13:52:14  613 614	 1492696334	 545350424	 161467.
13:52:14  614 615	 1492696334	 711013557	 165663.
13:52:14  615 616	 1492696334	 844084726	 133072.
13:52:15  616 617	 1492696335	 10361765	 166277.
13:52:15  617 618	 1492696335	 172335207	 161973.
13:52:15  618 619	 1492696335	 338058100	 165723.
13:52:15  619 620	 1492696335	 500239011	 162181.
13:52:15  620 621	 1492696335	 637977207	 137738.
13:52:15  621 622	 1492696335	 799729308	 161752.
13:52:15  622 623	 1492696335	 965763926	 166035.
13:52:16  623 624	 1492696336	 127797464	 162033.
13:52:16  624 625	 1492696336	 293872929	 166076.
13:52:16  625 626	 1492696336	 427521023	 133648.
13:52:16  626 627	 1492696336	 593659138	 166138.
13:52:16  627 628	 1492696336	 755465470	 161806.
13:52:16  628 629	 1492696336	 921504301	 166039.
13:52:17  629 630	 1492696337	 83750436	 162246.
13:52:17  630 631	 1492696337	 249814462	 166064.
13:52:17  631 632	 1492696337	 383300703	 133486.
13:52:17  632 633	 1492696337	 549290803	 165991.
13:52:17  633 634	 1492696337	 711433331	 162142.
13:52:17  634 635	 1492696337	 877639256	 166206.
13:52:18  635 636	 1492696338	 39017207	 161378.
13:52:18  636 637	 1492696338	 201479148	 162462.
13:52:18  637 638	 1492696338	 334827232	 133348.
13:52:18  638 639	 1492696338	 500977264	 166150.
13:52:18  639 640	 1492696338	 667177356	 166200.
13:52:18  640 641	 1492696338	 829478535	 162301.
13:52:18  641 642	 1492696338	 995895316	 166417.
13:52:19  642 643	 1492696339	 129168096	 133273.
13:52:19  643 644	 1492696339	 294736353	 165568.
13:52:19  644 645	 1492696339	 456539571	 161803.
13:52:19  645 646	 1492696339	 622533530	 165994.
13:52:19  646 647	 1492696339	 784338623	 161805.
13:52:19  647 648	 1492696339	 950935123	 166597.
13:52:20  648 649	 1492696340	 113135854	 162201.
13:52:20  649 650	 1492696340	 250859675	 137723.
13:52:20  650 651	 1492696340	 413461683	 162602.
13:52:20  651 652	 1492696340	 579607770	 166146.
13:52:20  652 653	 1492696340	 741718075	 162111.
13:52:20  653 654	 1492696340	 904189027	 162471.
13:52:21  654 655	 1492696341	 70321133	 166132.
13:52:21  655 656	 1492696341	 232855200	 162534.
13:52:21  656 657	 1492696341	 399404382	 166549.
13:52:21  657 658	 1492696341	 561326569	 161922.
13:52:21  658 659	 1492696341	 727285512	 165959.
13:52:21  659 660	 1492696341	 889124835	 161840.
13:52:22  660 661	 1492696342	 54871752	 165746.
13:52:22  661 662	 1492696342	 188045744	 133174.
13:52:22  662 663	 1492696342	 349890355	 161845.
13:52:22  663 664	 1492696342	 515493005	 165603.
13:52:22  664 665	 1492696342	 677522324	 162029.
13:52:22  665 666	 1492696342	 839643062	 162121.
13:52:23  666 667	 1492696343	 6009021	 166366.
13:52:23  667 668	 1492696343	 168136987	 162128.
13:52:23  668 669	 1492696343	 334700032	 166563.
13:52:23  669 670	 1492696343	 497068255	 162368.
13:52:23  670 671	 1492696343	 630459951	 133392.
13:52:23  671 672	 1492696343	 796929006	 166469.
13:52:23  672 673	 1492696343	 963045171	 166116.
13:52:24  673 674	 1492696344	 125193162	 162148.
13:52:24  674 675	 1492696344	 291556511	 166363.
13:52:24  675 676	 1492696344	 453708544	 162152.
13:52:24  676 677	 1492696344	 620301303	 166593.
13:52:24  677 678	 1492696344	 782594654	 162293.
13:52:24  678 679	 1492696344	 919902027	 137308.
13:52:25  679 680	 1492696345	 81808658	 161906.
13:52:25  680 681	 1492696345	 247648785	 165840.
13:52:25  681 682	 1492696345	 409512685	 161864.
13:52:25  682 683	 1492696345	 575738407	 166226.
13:52:25  683 684	 1492696345	 737962953	 162225.
13:52:25  684 685	 1492696345	 875509637	 137546.
13:52:26  685 686	 1492696346	 41730844	 166221.
13:52:26  686 687	 1492696346	 203543616	 161813.
13:52:26  687 688	 1492696346	 369585448	 166042.
13:52:26  688 689	 1492696346	 531685601	 162100.
13:52:26  689 690	 1492696346	 697691667	 166006.
13:52:26  690 691	 1492696346	 860120173	 162429.
13:52:26  691 692	 1492696346	 997938324	 137818.
13:52:27  692 693	 1492696347	 159998770	 162060.
13:52:27  693 694	 1492696347	 326343900	 166346.
13:52:27  694 695	 1492696347	 488439727	 162095.
13:52:27  695 696	 1492696347	 654538783	 166100.
13:52:27  696 697	 1492696347	 816187990	 161649.
13:52:27  697 698	 1492696347	 977948852	 161761.
13:52:28  698 699	 1492696348	 143762374	 165813.
13:52:28  699 700	 1492696348	 276860633	 133098.
13:52:28  700 701	 1492696348	 442494625	 165634.
13:52:28  701 702	 1492696348	 604147161	 161653.
13:52:28  702 703	 1492696348	 765907962	 161761.
13:52:28  703 704	 1492696348	 931718037	 165810.
13:52:29  704 705	 1492696349	 93665065	 161947.
13:52:29  705 706	 1492696349	 226843422	 133178.
13:52:29  706 707	 1492696349	 392525957	 165683.
13:52:29  707 708	 1492696349	 554150974	 161625.
13:52:29  708 709	 1492696349	 719717088	 165566.
13:52:29  709 710	 1492696349	 881636732	 161919.
13:52:30  710 711	 1492696350	 47617622	 165981.
13:52:30  711 712	 1492696350	 209247286	 161630.
13:52:30  712 713	 1492696350	 342500577	 133253.
13:52:30  713 714	 1492696350	 508391057	 165891.
13:52:30  714 715	 1492696350	 670111985	 161721.
13:52:30  715 716	 1492696350	 835608854	 165497.
13:52:30  716 717	 1492696350	 997597335	 161988.
13:52:31  717 718	 1492696351	 163772318	 166175.
13:52:31  718 719	 1492696351	 297026333	 133254.
13:52:31  719 720	 1492696351	 463545231	 166519.
13:52:31  720 721	 1492696351	 625243132	 161698.
13:52:31  721 722	 1492696351	 791633430	 166390.
13:52:31  722 723	 1492696351	 953645318	 162012.
13:52:32  723 724	 1492696352	 119444168	 165799.
13:52:32  724 725	 1492696352	 281465788	 162022.
13:52:32  725 726	 1492696352	 419015209	 137549.
13:52:32  726 727	 1492696352	 580893545	 161878.
13:52:32  727 728	 1492696352	 746954082	 166061.
13:52:32  728 729	 1492696352	 908562376	 161608.
13:52:33  729 730	 1492696353	 74927193	 166365.
13:52:33  730 731	 1492696353	 208203197	 133276.
13:52:33  731 732	 1492696353	 374025722	 165822.
13:52:33  732 733	 1492696353	 535964469	 161939.
13:52:33  733 734	 1492696353	 701809921	 165846.
13:52:33  734 735	 1492696353	 863437154	 161627.
13:52:33  735 736	 1492696354	 947223	 137510.
13:52:34  736 737	 1492696354	 162771131	 161824.
13:52:34  737 738	 1492696354	 328729596	 165958.
13:52:34  738 739	 1492696354	 490232606	 161503.
13:52:34  739 740	 1492696354	 627074211	 136842.
13:52:34  740 741	 1492696354	 789081857	 162008.
13:52:34  741 742	 1492696354	 947764017	 158682.
13:52:35  742 743	 1492696355	 113654791	 165891.
13:52:35  743 744	 1492696355	 275835999	 162181.
13:52:35  744 745	 1492696355	 441877478	 166041.
13:52:35  745 746	 1492696355	 604162387	 162285.
13:52:35  746 747	 1492696355	 741672746	 137510.
13:52:35  747 748	 1492696355	 903733233	 162061.
13:52:36  748 749	 1492696356	 69709970	 165977.
13:52:36  749 750	 1492696356	 231621131	 161911.
13:52:36  750 751	 1492696356	 397642604	 166021.
13:52:36  751 752	 1492696356	 556053137	 158411.
13:52:36  752 753	 1492696356	 721875315	 165822.
13:52:36  753 754	 1492696356	 855207915	 133333.
13:52:37  754 755	 1492696357	 21120143	 165912.
13:52:37  755 756	 1492696357	 182805407	 161685.
13:52:37  756 757	 1492696357	 345212641	 162407.
13:52:37  757 758	 1492696357	 511790848	 166579.
13:52:37  758 759	 1492696357	 673885521	 162094.
13:52:37  759 760	 1492696357	 806926488	 133041.
13:52:37  760 761	 1492696357	 973076880	 166151.
13:52:38  761 762	 1492696358	 134822504	 161745.
13:52:38  762 763	 1492696358	 300948445	 166126.
13:52:38  763 764	 1492696358	 463038826	 162090.
13:52:38  764 765	 1492696358	 600308820	 137271.
13:52:38  765 766	 1492696358	 762439347	 162130.
13:52:38  766 767	 1492696358	 928782646	 166343.
13:52:39  767 768	 1492696359	 94733325	 165951.
13:52:39  768 769	 1492696359	 256192996	 161460.
13:52:39  769 770	 1492696359	 389551757	 133358.
13:52:39  770 771	 1492696359	 555547356	 165996.
13:52:39  771 772	 1492696359	 721560335	 166013.
13:52:39  772 773	 1492696359	 883286076	 161726.
13:52:40  773 774	 1492696360	 49591511	 166305.
13:52:40  774 775	 1492696360	 211631643	 162040.
13:52:40  775 776	 1492696360	 374043766	 162413.
13:52:40  776 777	 1492696360	 511580048	 137536.
13:52:40  777 778	 1492696360	 673461112	 161881.
13:52:40  778 779	 1492696360	 839499276	 166038.
13:52:40  779 780	 1492696361	 1428736	 161929.
13:52:41  780 781	 1492696361	 167772503	 166344.
13:52:41  781 782	 1492696361	 300940272	 133168.
13:52:41  782 783	 1492696361	 467111481	 166171.
13:52:41  783 784	 1492696361	 629168135	 162057.
13:52:41  784 785	 1492696361	 795518857	 166351.
13:52:41  785 786	 1492696361	 961085685	 165566.
13:52:42  786 787	 1492696362	 94433062	 133348.
13:52:42  787 788	 1492696362	 256450002	 162017.
13:52:42  788 789	 1492696362	 422533197	 166083.
13:52:42  789 790	 1492696362	 584752109	 162219.
13:52:42  790 791	 1492696362	 750847801	 166096.
13:52:42  791 792	 1492696362	 884241331	 133393.
13:52:43  792 793	 1492696363	 50404865	 166164.
13:52:43  793 794	 1492696363	 212219396	 161814.
13:52:43  794 795	 1492696363	 377774330	 165555.
13:52:43  795 796	 1492696363	 539514711	 161740.
13:52:43  796 797	 1492696363	 705745402	 166231.
13:52:43  797 798	 1492696363	 838564591	 132819.
13:52:44  798 799	 1492696364	 4917806	 166353.
13:52:44  799 800	 1492696364	 166766093	 161849.
13:52:44  800 801	 1492696364	 332473915	 165708.
13:52:44  801 802	 1492696364	 494388858	 161915.
13:52:44  802 803	 1492696364	 631636737	 137247.
13:52:44  803 804	 1492696364	 793692464	 162056.
13:52:44  804 805	 1492696364	 955740251	 162048.
13:52:45  805 806	 1492696365	 121416750	 165676.
13:52:45  806 807	 1492696365	 283085748	 161669.
13:52:45  807 808	 1492696365	 448876339	 165791.
13:52:45  808 809	 1492696365	 610850184	 161974.
13:52:45  809 810	 1492696365	 772631405	 161781.
13:52:45  810 811	 1492696365	 909900045	 137269.
13:52:46  811 812	 1492696366	 71900370	 162000.
13:52:46  812 813	 1492696366	 233793508	 161893.
13:52:46  813 814	 1492696366	 399874284	 166081.
13:52:46  814 815	 1492696366	 561697105	 161823.
13:52:46  815 816	 1492696366	 723370075	 161673.
13:52:46  816 817	 1492696366	 889167354	 165797.
13:52:47  817 818	 1492696367	 51060171	 161893.
13:52:47  818 819	 1492696367	 216816362	 165756.
13:52:47  819 820	 1492696367	 378758992	 161943.
13:52:47  820 821	 1492696367	 540559279	 161800.
13:52:47  821 822	 1492696367	 677542956	 136984.
13:52:47  822 823	 1492696367	 839612778	 162069.
13:52:47  823 824	 1492696368	 1636743	 162024.
13:52:48  824 825	 1492696368	 164034947	 162399.
13:52:48  825 826	 1492696368	 326146764	 162111.
13:52:48  826 827	 1492696368	 492395877	 166250.
13:52:48  827 828	 1492696368	 654306116	 161910.
13:52:48  828 829	 1492696368	 816379208	 162073.
13:52:48  829 830	 1492696368	 982428429	 166049.
13:52:49  830 831	 1492696369	 144281246	 161853.
13:52:49  831 832	 1492696369	 310099826	 165819.
13:52:49  832 833	 1492696369	 471859104	 161759.
13:52:49  833 834	 1492696369	 633633426	 161774.
13:52:49  834 835	 1492696369	 799339401	 165706.
13:52:49  835 836	 1492696369	 960946433	 161607.
13:52:50  836 837	 1492696370	 98201151	 137255.
13:52:50  837 838	 1492696370	 259960363	 161759.
13:52:50  838 839	 1492696370	 426088248	 166128.
13:52:50  839 840	 1492696370	 588058819	 161971.
13:52:50  840 841	 1492696370	 749790906	 161732.
13:52:50  841 842	 1492696370	 915624619	 165833.
13:52:51  842 843	 1492696371	 77401654	 161777.
13:52:51  843 844	 1492696371	 243366992	 165966.
13:52:51  844 845	 1492696371	 405088684	 161721.
13:52:51  845 846	 1492696371	 538147205	 133059.
13:52:51  846 847	 1492696371	 704045365	 165898.
13:52:51  847 848	 1492696371	 866049714	 162004.
13:52:52  848 849	 1492696372	 33039453	 166990.
13:52:52  849 850	 1492696372	 190813143	 157774.
13:52:52  850 851	 1492696372	 352732998	 161920.
13:52:52  851 852	 1492696372	 514345112	 161612.
13:52:52  852 853	 1492696372	 680398128	 166053.
13:52:52  853 854	 1492696372	 817696912	 137299.
13:52:52  854 855	 1492696372	 979061641	 161364.
13:52:53  855 856	 1492696373	 140532220	 161471.
13:52:53  856 857	 1492696373	 306854578	 166322.
13:52:53  857 858	 1492696373	 468534758	 161680.
13:52:53  858 859	 1492696373	 605685369	 137151.
13:52:53  859 860	 1492696373	 767262396	 161577.
13:52:53  860 861	 1492696373	 932855369	 165593.
13:52:54  861 862	 1492696374	 94467891	 161613.
13:52:54  862 863	 1492696374	 256540053	 162072.
13:52:54  863 864	 1492696374	 422644858	 166105.
13:52:54  864 865	 1492696374	 584673413	 162028.
13:52:54  865 866	 1492696374	 721894817	 137222.
13:52:54  866 867	 1492696374	 884008301	 162113.
13:52:55  867 868	 1492696375	 49785640	 165777.
13:52:55  868 869	 1492696375	 211441861	 161657.
13:52:55  869 870	 1492696375	 377419002	 165977.
13:52:55  870 871	 1492696375	 510449940	 133031.
13:52:55  871 872	 1492696375	 676403310	 165953.
13:52:55  872 873	 1492696375	 838442015	 162039.
13:52:56  873 874	 1492696376	 4312022	 165870.
13:52:56  874 875	 1492696376	 166839778	 162528.
13:52:56  875 876	 1492696376	 333175007	 166335.
13:52:56  876 877	 1492696376	 495276011	 162101.
13:52:56  877 878	 1492696376	 628293715	 133017.
13:52:56  878 879	 1492696376	 794377718	 166084.
13:52:56  879 880	 1492696376	 960149276	 165772.
13:52:57  880 881	 1492696377	 122263851	 162115.
13:52:57  881 882	 1492696377	 284405597	 162141.
13:52:57  882 883	 1492696377	 450242533	 165837.
13:52:57  883 884	 1492696377	 587419221	 137177.
13:52:57  884 885	 1492696377	 749491319	 162072.
13:52:57  885 886	 1492696377	 915309572	 165818.
13:52:58  886 887	 1492696378	 77242575	 161933.
13:52:58  887 888	 1492696378	 243254614	 166012.
13:52:58  888 889	 1492696378	 405215847	 161962.
13:52:58  889 890	 1492696378	 542691896	 137476.
13:52:58  890 891	 1492696378	 704524358	 161832.
13:52:58  891 892	 1492696378	 870681594	 166157.
13:52:59  892 893	 1492696379	 32763938	 162083.
13:52:59  893 894	 1492696379	 195185967	 162422.
13:52:59  894 895	 1492696379	 361543851	 166358.
13:52:59  895 896	 1492696379	 527968239	 166424.
13:52:59  896 897	 1492696379	 689907018	 161939.
13:52:59  897 898	 1492696379	 827173043	 137266.
13:52:59  898 899	 1492696379	 989327955	 162155.
13:53:00  899 900	 1492696380	 155663109	 166335.
13:53:00  900 901	 1492696380	 317942503	 162279.
13:53:00  901 902	 1492696380	 483910833	 165969.
13:53:00  902 903	 1492696380	 645348730	 161437.
13:53:00  903 904	 1492696380	 811659713	 166311.
13:53:00  904 905	 1492696380	 944981667	 133322.
13:53:01  905 906	 1492696381	 106782604	 161801.
13:53:01  906 907	 1492696381	 272408601	 165626.
13:53:01  907 908	 1492696381	 433878310	 161470.
13:53:01  908 909	 1492696381	 595497851	 161620.
13:53:01  909 910	 1492696381	 761189905	 165692.
13:53:01  910 911	 1492696381	 894136987	 132947.
13:53:02  911 912	 1492696382	 60020044	 165883.
13:53:02  912 913	 1492696382	 221541886	 161522.
13:53:02  913 914	 1492696382	 383106117	 161564.
13:53:02  914 915	 1492696382	 548673104	 165567.
13:53:02  915 916	 1492696382	 710103329	 161430.
13:53:02  916 917	 1492696382	 843157476	 133054.
13:53:03  917 918	 1492696383	 8920836	 165763.
13:53:03  918 919	 1492696383	 170562748	 161642.
13:53:03  919 920	 1492696383	 332264874	 161703.
13:53:03  920 921	 1492696383	 497787774	 165522.
13:53:03  921 922	 1492696383	 659715842	 161929.
13:53:03  922 923	 1492696383	 796601979	 136886.
13:53:03  923 924	 1492696383	 958174437	 161572.
13:53:04  924 925	 1492696384	 124375222	 166201.
13:53:04  925 926	 1492696384	 285904192	 161529.
13:53:04  926 927	 1492696384	 447937130	 162033.
13:53:04  927 928	 1492696384	 609493236	 161556.
13:53:04  928 929	 1492696384	 774943955	 165451.
13:53:04  929 930	 1492696384	 907789990	 132846.
13:53:05  930 931	 1492696385	 69401015	 161611.
13:53:05  931 932	 1492696385	 235282437	 165881.
13:53:05  932 933	 1492696385	 396883170	 161601.
13:53:05  933 934	 1492696385	 558610341	 161727.
13:53:05  934 935	 1492696385	 723955367	 165345.
13:53:05  935 936	 1492696385	 856842250	 132887.
13:53:06  936 937	 1492696386	 22327074	 165485.
13:53:06  937 938	 1492696386	 183695822	 161369.
13:53:06  938 939	 1492696386	 345195252	 161499.
13:53:06  939 940	 1492696386	 510788155	 165593.
13:53:06  940 941	 1492696386	 643500316	 132712.
13:53:06  941 942	 1492696386	 808815952	 165316.
13:53:06  942 943	 1492696386	 970517531	 161701.
13:53:07  943 944	 1492696387	 132099006	 161582.
13:53:07  944 945	 1492696387	 297936169	 165837.
13:53:07  945 946	 1492696387	 459610714	 161674.
13:53:07  946 947	 1492696387	 621444922	 161835.
13:53:07  947 948	 1492696387	 758547508	 137102.
13:53:07  948 949	 1492696387	 920173369	 161626.
13:53:08  949 950	 1492696388	 81898250	 161725.
13:53:08  950 951	 1492696388	 247802009	 165904.
13:53:08  951 952	 1492696388	 409692260	 161890.
13:53:08  952 953	 1492696388	 575763799	 166071.
13:53:08  953 954	 1492696388	 738086109	 162323.
13:53:08  954 955	 1492696388	 904834242	 166748.
13:53:09  955 956	 1492696389	 62569718	 157735.
13:53:09  956 957	 1492696389	 200147932	 137579.
13:53:09  957 958	 1492696389	 362093751	 161945.
13:53:09  958 959	 1492696389	 527975959	 165883.
13:53:09  959 960	 1492696389	 689754496	 161778.
13:53:09  960 961	 1492696389	 855613441	 165859.
13:53:09  961 962	 1492696389	 988584586	 132971.
13:53:10  962 963	 1492696390	 154915887	 166332.
13:53:10  963 964	 1492696390	 316808984	 161893.
13:53:10  964 965	 1492696390	 482566209	 165757.
13:53:10  965 966	 1492696390	 644055823	 161490.
13:53:10  966 967	 1492696390	 781179348	 137123.
13:53:10  967 968	 1492696390	 943166590	 161987.
13:53:11  968 969	 1492696391	 109374443	 166208.
13:53:11  969 970	 1492696391	 270974496	 161600.
13:53:11  970 971	 1492696391	 407775066	 136801.
13:53:11  971 972	 1492696391	 570153550	 162378.
13:53:11  972 973	 1492696391	 736013240	 165860.
13:53:11  973 974	 1492696391	 897893878	 161881.
13:53:12  974 975	 1492696392	 64029604	 166135.
13:53:12  975 976	 1492696392	 225859315	 161830.
13:53:12  976 977	 1492696392	 363097084	 137238.
13:53:12  977 978	 1492696392	 525272381	 162175.
13:53:12  978 979	 1492696392	 691537726	 166265.
13:53:12  979 980	 1492696392	 853863697	 162326.
13:53:13  980 981	 1492696393	 20022045	 166159.
13:53:13  981 982	 1492696393	 153268609	 133246.
13:53:13  982 983	 1492696393	 319500515	 166232.
13:53:13  983 984	 1492696393	 481604645	 162104.
13:53:13  984 985	 1492696393	 648216096	 166612.
13:53:13  985 986	 1492696393	 809992985	 161777.
13:53:13  986 987	 1492696393	 976218418	 166225.
13:53:14  987 988	 1492696394	 135009177	 158791.
13:53:14  988 989	 1492696394	 296872061	 161863.
13:53:14  989 990	 1492696394	 462893257	 166021.
13:53:14  990 991	 1492696394	 596443921	 133551.
13:53:14  991 992	 1492696394	 762220056	 165776.
13:53:14  992 993	 1492696394	 924459711	 162240.
13:53:15  993 994	 1492696395	 90285221	 165825.
13:53:15  994 995	 1492696395	 252037235	 161752.
13:53:15  995 996	 1492696395	 418048794	 166012.
13:53:15  996 997	 1492696395	 551281175	 133232.
13:53:15  997 998	 1492696395	 717196406	 165915.
13:53:15  998 999	 1492696395	 879294195	 162098.
13:53:16  999 1000	 1492696396	 45428957	 166135.
13:53:16 1000 1001	 1492696396	 207228737	 161799.
13:53:16 1001 1002	 1492696396	 368901459	 161673.
13:53:16 1002 1003	 1492696396	 505990930	 137090.
13:53:16 1003 1004	 1492696396	 667355712	 161364.
13:53:16 1004 1005	 1492696396	 832878972	 165524.
13:53:16 1005 1006	 1492696396	 994263325	 161384.
13:53:17 1006 1007	 1492696397	 155581169	 161318.
13:53:17 1007 1008	 1492696397	 288464917	 132884.
13:53:17 1008 1009	 1492696397	 454013062	 165548.
13:53:17 1009 1010	 1492696397	 619682477	 165669.
13:53:17 1010 1011	 1492696397	 781001091	 161319.
13:53:17 1011 1012	 1492696397	 942406369	 161405.
13:53:18 1012 1013	 1492696398	 104437593	 162031.
13:53:18 1013 1014	 1492696398	 241835947	 137399.
13:53:18 1014 1015	 1492696398	 403632164	 161796.
13:53:18 1015 1016	 1492696398	 569456849	 165825.
13:53:18 1016 1017	 1492696398	 731435495	 161978.
13:53:18 1017 1018	 1492696398	 897501997	 166067.
13:53:19 1018 1019	 1492696399	 59227872	 161726.
13:53:19 1019 1020	 1492696399	 225815971	 166588.
13:53:19 1020 1021	 1492696399	 383575587	 157760.
13:53:19 1021 1022	 1492696399	 545429286	 161853.
13:53:19 1022 1023	 1492696399	 678838184	 133409.
13:53:19 1023 1024	 1492696399	 844853170	 166015.
13:53:20 1024 1025	 1492696400	 6887593	 162034.
13:53:20 1025 1026	 1492696400	 172729126	 165842.
13:53:20 1026 1027	 1492696400	 334705026	 161976.
13:53:20 1027 1028	 1492696400	 500914999	 166210.
13:53:20 1028 1029	 1492696400	 662882224	 161967.
13:53:20 1029 1030	 1492696400	 828823272	 165941.
13:53:20 1030 1031	 1492696400	 990649487	 161826.
13:53:21 1031 1032	 1492696401	 128014759	 137365.
13:53:21 1032 1033	 1492696401	 289767808	 161753.
13:53:21 1033 1034	 1492696401	 455818166	 166051.
13:53:21 1034 1035	 1492696401	 617764575	 161946.
13:53:21 1035 1036	 1492696401	 779740457	 161976.
13:53:21 1036 1037	 1492696401	 945719309	 165979.
13:53:22 1037 1038	 1492696402	 107670993	 161952.
13:53:22 1038 1039	 1492696402	 245070888	 137400.
13:53:22 1039 1040	 1492696402	 406959210	 161888.
13:53:22 1040 1041	 1492696402	 573302987	 166344.
13:53:22 1041 1042	 1492696402	 735507308	 162204.
13:53:22 1042 1043	 1492696402	 901733914	 166227.
13:53:23 1043 1044	 1492696403	 63498475	 161764.
13:53:23 1044 1045	 1492696403	 229218519	 165720.
13:53:23 1045 1046	 1492696403	 391156438	 161938.
13:53:23 1046 1047	 1492696403	 524696599	 133540.
13:53:23 1047 1048	 1492696403	 690938730	 166242.
13:53:23 1048 1049	 1492696403	 852783508	 161845.
13:53:24 1049 1050	 1492696404	 18790004	 166007.
13:53:24 1050 1051	 1492696404	 180709373	 161919.
13:53:24 1051 1052	 1492696404	 347211986	 166503.
13:53:24 1052 1053	 1492696404	 480505799	 133294.
13:53:24 1053 1054	 1492696404	 646421063	 165915.
13:53:24 1054 1055	 1492696404	 808550458	 162129.
13:53:24 1055 1056	 1492696404	 974591487	 166041.
13:53:25 1056 1057	 1492696405	 140889560	 166298.
13:53:25 1057 1058	 1492696405	 302826882	 161938.
13:53:25 1058 1059	 1492696405	 436441416	 133614.
13:53:25 1059 1060	 1492696405	 602574158	 166133.
13:53:25 1060 1061	 1492696405	 764220178	 161646.
13:53:25 1061 1062	 1492696405	 929900641	 165680.
13:53:26 1062 1063	 1492696406	 95685200	 165785.
13:53:26 1063 1064	 1492696406	 228674087	 132989.
13:53:26 1064 1065	 1492696406	 394820126	 166146.
13:53:26 1065 1066	 1492696406	 556827964	 162008.
13:53:26 1066 1067	 1492696406	 718409163	 161581.
13:53:26 1067 1068	 1492696406	 884462649	 166053.
13:53:27 1068 1069	 1492696407	 42755023	 158293.
13:53:27 1069 1070	 1492696407	 205199238	 162444.
13:53:27 1070 1071	 1492696407	 342468298	 137269.
13:53:27 1071 1072	 1492696407	 504916746	 162448.
13:53:27 1072 1073	 1492696407	 671150875	 166235.
13:53:27 1073 1074	 1492696407	 832719557	 161568.
13:53:27 1074 1075	 1492696407	 998606445	 165887.
13:53:28 1075 1076	 1492696408	 131770168	 133164.
13:53:28 1076 1077	 1492696408	 297663757	 165893.
13:53:28 1077 1078	 1492696408	 459510457	 161847.
13:53:28 1078 1079	 1492696408	 625672701	 166162.
13:53:28 1079 1080	 1492696408	 787501678	 161829.
13:53:28 1080 1081	 1492696408	 953718043	 166217.
13:53:29 1081 1082	 1492696409	 87025065	 133307.
13:53:29 1082 1083	 1492696409	 252917882	 165893.
13:53:29 1083 1084	 1492696409	 415009199	 162091.
13:53:29 1084 1085	 1492696409	 581516381	 166507.
13:53:29 1085 1086	 1492696409	 743537525	 162021.
13:53:29 1086 1087	 1492696409	 910016690	 166479.
13:53:30 1087 1088	 1492696410	 43305755	 133289.
13:53:30 1088 1089	 1492696410	 209754358	 166449.
13:53:30 1089 1090	 1492696410	 371478525	 161724.
13:53:30 1090 1091	 1492696410	 537920106	 166442.
13:53:30 1091 1092	 1492696410	 704041588	 166121.
13:53:30 1092 1093	 1492696410	 866062330	 162021.
13:53:30 1093 1094	 1492696410	 999328271	 133266.
13:53:31 1094 1095	 1492696411	 165804488	 166476.
13:53:31 1095 1096	 1492696411	 328211238	 162407.
13:53:31 1096 1097	 1492696411	 494242344	 166031.
13:53:31 1097 1098	 1492696411	 656152019	 161910.
13:53:31 1098 1099	 1492696411	 822195336	 166043.
13:53:31 1099 1100	 1492696411	 955598948	 133404.
13:53:32 1100 1101	 1492696412	 121797752	 166198.
13:53:32 1101 1102	 1492696412	 284020800	 162223.
13:53:32 1102 1103	 1492696412	 450266475	 166246.
13:53:32 1103 1104	 1492696412	 612329280	 162063.
13:53:32 1104 1105	 1492696412	 778312493	 165983.
13:53:32 1105 1106	 1492696412	 911475862	 133164.
13:53:33 1106 1107	 1492696413	 77340360	 165864.
13:53:33 1107 1108	 1492696413	 239495169	 162155.
13:53:33 1108 1109	 1492696413	 405495684	 166000.
13:53:33 1109 1110	 1492696413	 538648481	 133153.
13:53:33 1110 1111	 1492696413	 704585962	 165938.
13:53:33 1111 1112	 1492696413	 866923592	 162337.
13:53:34 1112 1113	 1492696414	 29261452	 162338.
13:53:34 1113 1114	 1492696414	 195562572	 166301.
13:53:34 1114 1115	 1492696414	 357650765	 162088.
13:53:34 1115 1116	 1492696414	 491001875	 133352.
13:53:34 1116 1117	 1492696414	 657106761	 166104.
13:53:34 1117 1118	 1492696414	 819013162	 161907.
13:53:34 1118 1119	 1492696414	 985101149	 166088.
13:53:35 1119 1120	 1492696415	 151106359	 166005.
13:53:35 1120 1121	 1492696415	 284031748	 132925.
13:53:35 1121 1122	 1492696415	 449691504	 165660.
13:53:35 1122 1123	 1492696415	 611757033	 162066.
13:53:35 1123 1124	 1492696415	 777715504	 165958.
13:53:35 1124 1125	 1492696415	 939693102	 161978.
13:53:36 1125 1126	 1492696416	 98341783	 158648.
13:53:36 1126 1127	 1492696416	 235434445	 137093.
13:53:36 1127 1128	 1492696416	 397314703	 161880.
13:53:36 1128 1129	 1492696416	 562988271	 165674.
13:53:36 1129 1130	 1492696416	 724826623	 161838.
13:53:36 1130 1131	 1492696416	 862253784	 137427.
13:53:37 1131 1132	 1492696417	 23836995	 161584.
13:53:37 1132 1133	 1492696417	 185698919	 161862.
13:53:37 1133 1134	 1492696417	 352033600	 166334.
13:53:37 1134 1135	 1492696417	 513705543	 161672.
13:53:37 1135 1136	 1492696417	 650557497	 136852.
13:53:37 1136 1137	 1492696417	 811744722	 161187.
13:53:37 1137 1138	 1492696417	 973386453	 161642.
13:53:38 1138 1139	 1492696418	 138957126	 165571.
13:53:38 1139 1140	 1492696418	 300386620	 161429.
13:53:38 1140 1141	 1492696418	 432942947	 132557.
13:53:38 1141 1142	 1492696418	 598211499	 165268.
13:53:38 1142 1143	 1492696418	 759420568	 161209.
13:53:38 1143 1144	 1492696418	 924995108	 165575.
13:53:39 1144 1145	 1492696419	 86797768	 161802.
13:53:39 1145 1146	 1492696419	 252492739	 165695.
13:53:39 1146 1147	 1492696419	 385532963	 133041.
13:53:39 1147 1148	 1492696419	 547000773	 161467.
13:53:39 1148 1149	 1492696419	 712817049	 165817.
13:53:39 1149 1150	 1492696419	 874105975	 161289.
13:53:40 1150 1151	 1492696420	 39785466	 165679.
13:53:40 1151 1152	 1492696420	 201329747	 161545.
13:53:40 1152 1153	 1492696420	 334506252	 133176.
13:53:40 1153 1154	 1492696420	 500092133	 165586.
13:53:40 1154 1155	 1492696420	 662628750	 162536.
13:53:40 1155 1156	 1492696420	 828707120	 166079.
13:53:40 1156 1157	 1492696420	 990653944	 161947.
13:53:41 1157 1158	 1492696421	 127989118	 137335.
13:53:41 1158 1159	 1492696421	 289716946	 161728.
13:53:41 1159 1160	 1492696421	 455688406	 165971.
13:53:41 1160 1161	 1492696421	 621797189	 166109.
13:53:41 1161 1162	 1492696421	 783709727	 161912.
13:53:41 1162 1163	 1492696421	 917124059	 133415.
13:53:42 1163 1164	 1492696422	 83251617	 166127.
13:53:42 1164 1165	 1492696422	 245133965	 161883.
13:53:42 1165 1166	 1492696422	 410853090	 165719.
13:53:42 1166 1167	 1492696422	 543827461	 132974.
13:53:42 1167 1168	 1492696422	 709642155	 165815.
13:53:42 1168 1169	 1492696422	 871065163	 161423.
13:53:43 1169 1170	 1492696423	 7965067	 136900.
13:53:43 1170 1171	 1492696423	 173959995	 165995.
13:53:43 1171 1172	 1492696423	 336131874	 162172.
13:53:43 1172 1173	 1492696423	 502023315	 165891.
13:53:43 1173 1174	 1492696423	 664028666	 162005.
13:53:43 1174 1175	 1492696423	 830714017	 166686.
13:53:43 1175 1176	 1492696423	 992907550	 162193.
13:53:44 1176 1177	 1492696424	 130526769	 137620.
13:53:44 1177 1178	 1492696424	 292776229	 162249.
13:53:44 1178 1179	 1492696424	 459122969	 166347.
13:53:44 1179 1180	 1492696424	 621683481	 162560.
13:53:44 1180 1181	 1492696424	 787772383	 166089.
13:53:44 1181 1182	 1492696424	 950160025	 162388.
13:53:45 1182 1183	 1492696425	 116303006	 166143.
13:53:45 1183 1184	 1492696425	 278832826	 162530.
13:53:45 1184 1185	 1492696425	 416423969	 137591.
13:53:45 1185 1186	 1492696425	 578631997	 162208.
13:53:45 1186 1187	 1492696425	 744998671	 166366.
13:53:45 1187 1188	 1492696425	 907433059	 162435.
13:53:46 1188 1189	 1492696426	 73978438	 166545.
13:53:46 1189 1190	 1492696426	 236060213	 162082.
13:53:46 1190 1191	 1492696426	 402061770	 166001.
13:53:46 1191 1192	 1492696426	 563900393	 161839.
13:53:46 1192 1193	 1492696426	 725708124	 161808.
13:53:46 1193 1194	 1492696426	 862930710	 137222.
13:53:47 1194 1195	 1492696427	 25064873	 162135.
13:53:47 1195 1196	 1492696427	 190823492	 165758.
13:53:47 1196 1197	 1492696427	 352905451	 162082.
13:53:47 1197 1198	 1492696427	 514745630	 161840.
13:53:47 1198 1199	 1492696427	 680439737	 165694.
13:53:47 1199 1200	 1492696427	 842403808	 161965.
13:53:48 1200 1201	 1492696428	 8335652	 165931.
13:53:48 1201 1202	 1492696428	 170160833	 161826.
13:53:48 1202 1203	 1492696428	 332216070	 162055.
13:53:48 1203 1204	 1492696428	 469480204	 137264.
13:53:48 1204 1205	 1492696428	 631225190	 161745.
13:53:48 1205 1206	 1492696428	 796853648	 165628.
13:53:48 1206 1207	 1492696428	 958943468	 162090.
13:53:49 1207 1208	 1492696429	 125260058	 166317.
13:53:49 1208 1209	 1492696429	 287676412	 162416.
13:53:49 1209 1210	 1492696429	 453738989	 166063.
13:53:49 1210 1211	 1492696429	 587147936	 133409.
13:53:49 1211 1212	 1492696429	 748889138	 161741.
13:53:49 1212 1213	 1492696429	 915214093	 166325.
13:53:50 1213 1214	 1492696430	 77765030	 162551.
13:53:50 1214 1215	 1492696430	 244124804	 166360.
13:53:50 1215 1216	 1492696430	 406358583	 162233.
13:53:50 1216 1217	 1492696430	 572612692	 166254.
13:53:50 1217 1218	 1492696430	 705875085	 133263.
13:53:50 1218 1219	 1492696430	 871795454	 165920.
13:53:51 1219 1220	 1492696431	 33479894	 161685.
13:53:51 1220 1221	 1492696431	 199934605	 166454.
13:53:51 1221 1222	 1492696431	 361852498	 161918.
13:53:51 1222 1223	 1492696431	 499075786	 137223.
13:53:51 1223 1224	 1492696431	 661064512	 161989.
13:53:51 1224 1225	 1492696431	 827243427	 166179.
13:53:51 1225 1226	 1492696431	 989347028	 162104.
13:53:52 1226 1227	 1492696432	 156099272	 166752.
13:53:52 1227 1228	 1492696432	 321990928	 165892.
13:53:52 1228 1229	 1492696432	 484165840	 162175.
13:53:52 1229 1230	 1492696432	 643079699	 158913.
13:53:52 1230 1231	 1492696432	 776026447	 132947.
13:53:52 1231 1232	 1492696432	 941915070	 165889.
13:53:53 1232 1233	 1492696433	 104031217	 162116.
13:53:53 1233 1234	 1492696433	 270052369	 166021.
13:53:53 1234 1235	 1492696433	 431897490	 161845.
13:53:53 1235 1236	 1492696433	 569203139	 137306.
13:53:53 1236 1237	 1492696433	 731832807	 162630.
13:53:53 1237 1238	 1492696433	 893788570	 161955.
13:53:54 1238 1239	 1492696434	 60127125	 166339.
13:53:54 1239 1240	 1492696434	 222033568	 161906.
13:53:54 1240 1241	 1492696434	 388388034	 166355.
13:53:54 1241 1242	 1492696434	 521406761	 133018.
13:53:54 1242 1243	 1492696434	 687333535	 165927.
13:53:54 1243 1244	 1492696434	 849034356	 161701.
13:53:55 1244 1245	 1492696435	 15452095	 166418.
13:53:55 1245 1246	 1492696435	 177209304	 161757.
13:53:55 1246 1247	 1492696435	 314434513	 137225.
13:53:55 1247 1248	 1492696435	 476518980	 162085.
13:53:55 1248 1249	 1492696435	 643285638	 166766.
13:53:55 1249 1250	 1492696435	 805221270	 161936.
13:53:55 1250 1251	 1492696435	 971308244	 166087.
13:53:56 1251 1252	 1492696436	 133228426	 161920.
13:53:56 1252 1253	 1492696436	 270607059	 137379.
13:53:56 1253 1254	 1492696436	 432621951	 162015.
13:53:56 1254 1255	 1492696436	 599239987	 166618.
13:53:56 1255 1256	 1492696436	 761059224	 161819.
13:53:56 1256 1257	 1492696436	 922688195	 161629.
13:53:57 1257 1258	 1492696437	 81669707	 158981.
13:53:57 1258 1259	 1492696437	 247695294	 166026.
13:53:57 1259 1260	 1492696437	 414101634	 166406.
13:53:57 1260 1261	 1492696437	 547452151	 133351.
13:53:57 1261 1262	 1492696437	 714428782	 166976.
13:53:57 1262 1263	 1492696437	 872697907	 158270.
13:53:58 1263 1264	 1492696438	 34984250	 162286.
13:53:58 1264 1265	 1492696438	 200582406	 165598.
13:53:58 1265 1266	 1492696438	 362980072	 162398.
13:53:58 1266 1267	 1492696438	 528903814	 165924.
13:53:58 1267 1268	 1492696438	 691101477	 162197.
13:53:58 1268 1269	 1492696438	 828243955	 137143.
13:53:58 1269 1270	 1492696438	 990233756	 161989.
13:53:59 1270 1271	 1492696439	 156425853	 166193.
13:53:59 1271 1272	 1492696439	 318633236	 162207.
13:53:59 1272 1273	 1492696439	 484755449	 166122.
13:53:59 1273 1274	 1492696439	 647475629	 162720.
13:53:59 1274 1275	 1492696439	 813375944	 165901.
13:53:59 1275 1276	 1492696439	 946723775	 133347.
13:54:00 1276 1277	 1492696440	 112820293	 166097.
13:54:00 1277 1278	 1492696440	 274788599	 161968.
13:54:00 1278 1279	 1492696440	 440898217	 166110.
13:54:00 1279 1280	 1492696440	 602800140	 161902.
13:54:00 1280 1281	 1492696440	 740349361	 137549.
13:54:00 1281 1282	 1492696440	 902084443	 161735.
13:54:01 1282 1283	 1492696441	 67913996	 165830.
13:54:01 1283 1284	 1492696441	 229869805	 161955.
13:54:01 1284 1285	 1492696441	 391674181	 161805.
13:54:01 1285 1286	 1492696441	 528643623	 136970.
13:54:01 1286 1287	 1492696441	 690282645	 161638.
13:54:01 1287 1288	 1492696441	 852105602	 161823.
13:54:02 1288 1289	 1492696442	 17927388	 165822.
13:54:02 1289 1290	 1492696442	 179547169	 161620.
13:54:02 1290 1291	 1492696442	 344941891	 165395.
13:54:02 1291 1292	 1492696442	 477572775	 132630.
13:54:02 1292 1293	 1492696442	 643084279	 165512.
13:54:02 1293 1294	 1492696442	 804357128	 161273.
13:54:02 1294 1295	 1492696442	 965443858	 161087.
13:54:03 1295 1296	 1492696443	 102456270	 137012.
13:54:03 1296 1297	 1492696443	 264776134	 162320.
13:54:03 1297 1298	 1492696443	 422313106	 157537.
13:54:03 1298 1299	 1492696443	 587841459	 165528.
13:54:03 1299 1300	 1492696443	 749226958	 161386.
13:54:03 1300 1301	 1492696443	 914907705	 165680.
13:54:04 1301 1302	 1492696444	 76609870	 161703.
13:54:04 1302 1303	 1492696444	 209827184	 133217.
13:54:04 1303 1304	 1492696444	 375522052	 165695.
13:54:04 1304 1305	 1492696444	 537339974	 161818.
13:54:04 1305 1306	 1492696444	 703285255	 165945.
13:54:04 1306 1307	 1492696444	 865130211	 161845.
13:54:05 1307 1308	 1492696445	 26940291	 161810.
13:54:05 1308 1309	 1492696445	 192947938	 166008.
13:54:05 1309 1310	 1492696445	 326086134	 133138.
13:54:05 1310 1311	 1492696445	 492116877	 166031.
13:54:05 1311 1312	 1492696445	 657980680	 165863.
13:54:05 1312 1313	 1492696445	 819734476	 161754.
13:54:05 1313 1314	 1492696445	 981493158	 161759.
13:54:06 1314 1315	 1492696446	 143711846	 162219.
13:54:06 1315 1316	 1492696446	 309584036	 165872.
13:54:06 1316 1317	 1492696446	 471241895	 161658.
13:54:06 1317 1318	 1492696446	 633256824	 162015.
13:54:06 1318 1319	 1492696446	 799216312	 165959.
13:54:06 1319 1320	 1492696446	 961238415	 162022.
13:54:07 1320 1321	 1492696447	 94316382	 133078.
13:54:07 1321 1322	 1492696447	 260415771	 166100.
13:54:07 1322 1323	 1492696447	 422113028	 161697.
13:54:07 1323 1324	 1492696447	 587615810	 165503.
13:54:07 1324 1325	 1492696447	 749486735	 161870.
13:54:07 1325 1326	 1492696447	 915458151	 165972.
13:54:08 1326 1327	 1492696448	 77732682	 162274.
13:54:08 1327 1328	 1492696448	 243671724	 165939.
13:54:08 1328 1329	 1492696448	 377155209	 133484.
13:54:08 1329 1330	 1492696448	 539069809	 161915.
13:54:08 1330 1331	 1492696448	 704896723	 165826.
13:54:08 1331 1332	 1492696448	 866948063	 162052.
13:54:09 1332 1333	 1492696449	 32620793	 165673.
13:54:09 1333 1334	 1492696449	 194850567	 162229.
13:54:09 1334 1335	 1492696449	 360975220	 166125.
13:54:09 1335 1336	 1492696449	 494134092	 133159.
13:54:09 1336 1337	 1492696449	 659770074	 165636.
13:54:09 1337 1338	 1492696449	 821753391	 161983.
13:54:09 1338 1339	 1492696449	 987306570	 165553.
13:54:10 1339 1340	 1492696450	 148950002	 161644.
13:54:10 1340 1341	 1492696450	 282147257	 133197.
13:54:10 1341 1342	 1492696450	 448022880	 165876.
13:54:10 1342 1343	 1492696450	 609894531	 161871.
13:54:10 1343 1344	 1492696450	 771442491	 161548.
13:54:10 1344 1345	 1492696450	 937262970	 165821.
13:54:11 1345 1346	 1492696451	 98869715	 161606.
13:54:11 1346 1347	 1492696451	 264484210	 165615.
13:54:11 1347 1348	 1492696451	 426205686	 161721.
13:54:11 1348 1349	 1492696451	 558982179	 132777.
13:54:11 1349 1350	 1492696451	 720618161	 161636.
13:54:11 1350 1351	 1492696451	 886306000	 165688.
13:54:12 1351 1352	 1492696452	 47985800	 161680.
13:54:12 1352 1353	 1492696452	 209475614	 161489.
13:54:12 1353 1354	 1492696452	 374947253	 165472.
13:54:12 1354 1355	 1492696452	 507923640	 132976.
13:54:12 1355 1356	 1492696452	 669683691	 161760.
13:54:12 1356 1357	 1492696452	 835236321	 165553.
13:54:12 1357 1358	 1492696452	 996832232	 161596.
13:54:13 1358 1359	 1492696453	 158379230	 161547.
13:54:13 1359 1360	 1492696453	 324069614	 165690.
13:54:13 1360 1361	 1492696453	 485491386	 161422.
13:54:13 1361 1362	 1492696453	 622906063	 137415.
13:54:13 1362 1363	 1492696453	 785011423	 162105.
13:54:13 1363 1364	 1492696453	 947208478	 162197.
13:54:14 1364 1365	 1492696454	 113609076	 166401.
13:54:14 1365 1366	 1492696454	 279814044	 166205.
13:54:14 1366 1367	 1492696454	 442052730	 162238.
13:54:14 1367 1368	 1492696454	 604111191	 162059.
13:54:14 1368 1369	 1492696454	 770288191	 166177.
13:54:14 1369 1370	 1492696454	 932170488	 161882.
13:54:15 1370 1371	 1492696455	 65577054	 133407.
13:54:15 1371 1372	 1492696455	 231781679	 166204.
13:54:15 1372 1373	 1492696455	 393587684	 161806.
13:54:15 1373 1374	 1492696455	 559777730	 166190.
13:54:15 1374 1375	 1492696455	 721686472	 161909.
13:54:15 1375 1376	 1492696455	 883370044	 161684.
13:54:16 1376 1377	 1492696456	 48937956	 165568.
13:54:16 1377 1378	 1492696456	 210583018	 161645.
13:54:16 1378 1379	 1492696456	 376275642	 165692.
13:54:16 1379 1380	 1492696456	 509211514	 132936.
13:54:16 1380 1381	 1492696456	 670794905	 161584.
13:54:16 1381 1382	 1492696456	 836231828	 165437.
13:54:16 1382 1383	 1492696456	 997749395	 161517.
13:54:17 1383 1384	 1492696457	 159243956	 161495.
13:54:17 1384 1385	 1492696457	 324875759	 165631.
13:54:17 1385 1386	 1492696457	 457963256	 133088.
13:54:17 1386 1387	 1492696457	 624165535	 166202.
13:54:17 1387 1388	 1492696457	 786050821	 161886.
13:54:17 1388 1389	 1492696457	 952088430	 166037.
13:54:18 1389 1390	 1492696458	 118124085	 166036.
13:54:18 1390 1391	 1492696458	 251634279	 133510.
13:54:18 1391 1392	 1492696458	 417419837	 165786.
13:54:18 1392 1393	 1492696458	 579607039	 162187.
13:54:18 1393 1394	 1492696458	 745645469	 166038.
13:54:18 1394 1395	 1492696458	 907735215	 162090.
13:54:19 1395 1396	 1492696459	 73519897	 165785.
13:54:19 1396 1397	 1492696459	 206285524	 132765.
13:54:19 1397 1398	 1492696459	 368102310	 161817.
13:54:19 1398 1399	 1492696459	 534337559	 166235.
13:54:19 1399 1400	 1492696459	 696310693	 161973.
13:54:19 1400 1401	 1492696459	 862609104	 166299.
13:54:19 1401 1402	 1492696459	 999971975	 137363.
13:54:20 1402 1403	 1492696460	 162001742	 162029.
13:54:20 1403 1404	 1492696460	 320652107	 158651.
13:54:20 1404 1405	 1492696460	 486698880	 166047.
13:54:20 1405 1406	 1492696460	 649081134	 162382.
13:54:20 1406 1407	 1492696460	 815699518	 166618.
13:54:20 1407 1408	 1492696460	 977985894	 162287.
13:54:21 1408 1409	 1492696461	 144094613	 166109.
13:54:21 1409 1410	 1492696461	 306573948	 162479.
13:54:21 1410 1411	 1492696461	 468937140	 162363.
13:54:21 1411 1412	 1492696461	 635091305	 166154.
13:54:21 1412 1413	 1492696461	 801294860	 166204.
13:54:21 1413 1414	 1492696461	 934616563	 133321.
13:54:22 1414 1415	 1492696462	 97106616	 162490.
13:54:22 1415 1416	 1492696462	 263214898	 166109.
13:54:22 1416 1417	 1492696462	 424796121	 161581.
13:54:22 1417 1418	 1492696462	 590858479	 166062.
13:54:22 1418 1419	 1492696462	 752865130	 162007.
13:54:22 1419 1420	 1492696462	 889900171	 137035.
13:54:23 1420 1421	 1492696463	 51923986	 162024.
13:54:23 1421 1422	 1492696463	 218423140	 166499.
13:54:23 1422 1423	 1492696463	 380496656	 162073.
13:54:23 1423 1424	 1492696463	 546908847	 166413.
13:54:23 1424 1425	 1492696463	 709018906	 162110.
13:54:23 1425 1426	 1492696463	 875295827	 166277.
13:54:24 1426 1427	 1492696464	 8433969	 133138.
13:54:24 1427 1428	 1492696464	 174674604	 166240.
13:54:24 1428 1429	 1492696464	 336983656	 162309.
13:54:24 1429 1430	 1492696464	 503220619	 166237.
13:54:24 1430 1431	 1492696464	 665218379	 161998.
13:54:24 1431 1432	 1492696464	 827292168	 162074.
13:54:24 1432 1433	 1492696464	 993445543	 166153.
13:54:25 1433 1434	 1492696465	 130829830	 137384.
13:54:25 1434 1435	 1492696465	 292905836	 162076.
13:54:25 1435 1436	 1492696465	 458909303	 166004.
13:54:25 1436 1437	 1492696465	 621074624	 162165.
13:54:25 1437 1438	 1492696465	 787196759	 166122.
13:54:25 1438 1439	 1492696465	 948983142	 161787.
13:54:26 1439 1440	 1492696466	 82359783	 133376.
13:54:26 1440 1441	 1492696466	 248557847	 166199.
13:54:26 1441 1442	 1492696466	 410395334	 161837.
13:54:26 1442 1443	 1492696466	 576275680	 165880.
13:54:26 1443 1444	 1492696466	 709347309	 133072.
13:54:26 1444 1445	 1492696466	 875661465	 166314.
13:54:27 1445 1446	 1492696467	 37208240	 161547.
13:54:27 1446 1447	 1492696467	 203164566	 165956.
13:54:27 1447 1448	 1492696467	 364910599	 161746.
13:54:27 1448 1449	 1492696467	 501881508	 136971.
13:54:27 1449 1450	 1492696467	 663906083	 162025.
13:54:27 1450 1451	 1492696467	 830068768	 166162.
13:54:27 1451 1452	 1492696467	 992052994	 161985.
13:54:28 1452 1453	 1492696468	 158595276	 166542.
13:54:28 1453 1454	 1492696468	 291598640	 133003.
13:54:28 1454 1455	 1492696468	 457856635	 166258.
13:54:28 1455 1456	 1492696468	 619696792	 161840.
13:54:28 1456 1457	 1492696468	 785774165	 166078.
13:54:28 1457 1458	 1492696468	 951966575	 166192.
13:54:29 1458 1459	 1492696469	 85212619	 133246.
13:54:29 1459 1460	 1492696469	 246893982	 161682.
13:54:29 1460 1461	 1492696469	 412946301	 166052.
13:54:29 1461 1462	 1492696469	 579108320	 166162.
13:54:29 1462 1463	 1492696469	 741060026	 161952.
13:54:29 1463 1464	 1492696469	 873858390	 132798.
13:54:30 1464 1465	 1492696470	 40088947	 166231.
13:54:30 1465 1466	 1492696470	 202246737	 162157.
13:54:30 1466 1467	 1492696470	 368356690	 166110.
13:54:30 1467 1468	 1492696470	 534353730	 165997.
13:54:30 1468 1469	 1492696470	 667551390	 133198.
13:54:30 1469 1470	 1492696470	 829687777	 162136.
13:54:30 1470 1471	 1492696470	 995608362	 165921.
13:54:31 1471 1472	 1492696471	 157779470	 162171.
13:54:31 1472 1473	 1492696471	 324055468	 166276.
13:54:31 1473 1474	 1492696471	 485758610	 161703.
13:54:31 1474 1475	 1492696471	 623185829	 137427.
13:54:31 1475 1476	 1492696471	 785368885	 162184.
13:54:31 1476 1477	 1492696471	 951654946	 166286.
13:54:32 1477 1478	 1492696472	 117445014	 165790.
13:54:32 1478 1479	 1492696472	 279593808	 162148.
13:54:32 1479 1480	 1492696472	 412783578	 133190.
13:54:32 1480 1481	 1492696472	 578974391	 166191.
13:54:32 1481 1482	 1492696472	 744823647	 165849.
13:54:32 1482 1483	 1492696472	 906913824	 162091.
13:54:33 1483 1484	 1492696473	 72570906	 165657.
13:54:33 1484 1485	 1492696473	 209806600	 137235.
13:54:33 1485 1486	 1492696473	 372038366	 162232.
13:54:33 1486 1487	 1492696473	 538209000	 166171.
13:54:33 1487 1488	 1492696473	 699896294	 161687.
13:54:33 1488 1489	 1492696473	 866056944	 166161.
13:54:33 1489 1490	 1492696473	 999180976	 133124.
13:54:34 1490 1491	 1492696474	 165707295	 166526.
13:54:34 1491 1492	 1492696474	 327559388	 161852.
13:54:34 1492 1493	 1492696474	 493759579	 166200.
13:54:34 1493 1494	 1492696474	 660186164	 166427.
13:54:34 1494 1495	 1492696474	 822064359	 161878.
13:54:34 1495 1496	 1492696474	 984195283	 162131.
13:54:35 1496 1497	 1492696475	 121628186	 137433.
13:54:35 1497 1498	 1492696475	 283653579	 162025.
13:54:35 1498 1499	 1492696475	 445818133	 162165.
13:54:35 1499 1500	 1492696475	 612403064	 166585.
13:54:35 1500 1501	 1492696475	 778668871	 166266.
13:54:35 1501 1502	 1492696475	 941072266	 162403.
13:54:36 1502 1503	 1492696476	 106932537	 165860.
13:54:36 1503 1504	 1492696476	 240445353	 133513.
13:54:36 1504 1505	 1492696476	 406420412	 165975.
13:54:36 1505 1506	 1492696476	 568723163	 162303.
13:54:36 1506 1507	 1492696476	 730542677	 161819.
13:54:36 1507 1508	 1492696476	 896684030	 166142.
13:54:37 1508 1509	 1492696477	 58829185	 162145.
13:54:37 1509 1510	 1492696477	 233711118	 174882.
13:54:37 1510 1511	 1492696477	 358805948	 125095.
13:54:37 1511 1512	 1492696477	 520966692	 162160.
13:54:37 1512 1513	 1492696477	 687470349	 166504.
13:54:37 1513 1514	 1492696477	 849372635	 161902.
13:54:38 1514 1515	 1492696478	 11184603	 161812.
13:54:38 1515 1516	 1492696478	 177094377	 165910.
13:54:38 1516 1517	 1492696478	 314095410	 137001.
13:54:38 1517 1518	 1492696478	 476239324	 162144.
13:54:38 1518 1519	 1492696478	 642229740	 165990.
13:54:38 1519 1520	 1492696478	 804128598	 161899.
13:54:38 1520 1521	 1492696478	 970158874	 166031.
13:54:39 1521 1522	 1492696479	 136040846	 165882.
13:54:39 1522 1523	 1492696479	 269285418	 133244.
13:54:39 1523 1524	 1492696479	 435201897	 165917.
13:54:39 1524 1525	 1492696479	 597174258	 161972.
13:54:39 1525 1526	 1492696479	 763223430	 166049.
13:54:39 1526 1527	 1492696479	 896112292	 132889.
13:54:40 1527 1528	 1492696480	 58323125	 162211.
13:54:40 1528 1529	 1492696480	 224571990	 166249.
13:54:40 1529 1530	 1492696480	 387041522	 162469.
13:54:40 1530 1531	 1492696480	 553135511	 166094.
13:54:40 1531 1532	 1492696480	 714940013	 161805.
13:54:40 1532 1533	 1492696480	 852338425	 137398.
13:54:41 1533 1534	 1492696481	 14560790	 162223.
13:54:41 1534 1535	 1492696481	 180536189	 165975.
13:54:41 1535 1536	 1492696481	 342521693	 161985.
13:54:41 1536 1537	 1492696481	 508515666	 165994.
13:54:41 1537 1538	 1492696481	 641738416	 133223.
13:54:41 1538 1539	 1492696481	 807650605	 165912.
13:54:41 1539 1540	 1492696481	 969566734	 161916.
13:54:42 1540 1541	 1492696482	 135818737	 166252.
13:54:42 1541 1542	 1492696482	 298097648	 162279.
13:54:42 1542 1543	 1492696482	 431256852	 133160.
13:54:42 1543 1544	 1492696482	 597367752	 166110.
13:54:42 1544 1545	 1492696482	 763591657	 166224.
13:54:42 1545 1546	 1492696482	 925263719	 161672.
13:54:43 1546 1547	 1492696483	 86987557	 161724.
13:54:43 1547 1548	 1492696483	 224454543	 137467.
13:54:43 1548 1549	 1492696483	 386360583	 161906.
13:54:43 1549 1550	 1492696483	 552395734	 166035.
13:54:43 1550 1551	 1492696483	 714448594	 162053.
13:54:43 1551 1552	 1492696483	 880570850	 166123.
13:54:44 1552 1553	 1492696484	 42500995	 161930.
13:54:44 1553 1554	 1492696484	 179739944	 137239.
13:54:44 1554 1555	 1492696484	 341358831	 161619.
13:54:44 1555 1556	 1492696484	 507402841	 166044.
13:54:44 1556 1557	 1492696484	 669181576	 161778.
13:54:44 1557 1558	 1492696484	 806308465	 137127.
13:54:44 1558 1559	 1492696484	 968299212	 161991.
13:54:45 1559 1560	 1492696485	 134639975	 166341.
13:54:45 1560 1561	 1492696485	 296702560	 162062.
13:54:45 1561 1562	 1492696485	 463053207	 166351.
13:54:45 1562 1563	 1492696485	 625545655	 162492.
13:54:45 1563 1564	 1492696485	 762961767	 137416.
13:54:45 1564 1565	 1492696485	 924987822	 162027.
13:54:46 1565 1566	 1492696486	 90978651	 165990.
13:54:46 1566 1567	 1492696486	 252546630	 161568.
13:54:46 1567 1568	 1492696486	 418907463	 166361.
13:54:46 1568 1569	 1492696486	 580844457	 161937.
13:54:46 1569 1570	 1492696486	 714320491	 133476.
13:54:46 1570 1571	 1492696486	 879922690	 165602.
13:54:47 1571 1572	 1492696487	 41962539	 162040.
13:54:47 1572 1573	 1492696487	 208390881	 166429.
13:54:47 1573 1574	 1492696487	 341430926	 133040.
13:54:47 1574 1575	 1492696487	 507514719	 166083.
13:54:47 1575 1576	 1492696487	 669112957	 161599.
13:54:47 1576 1577	 1492696487	 834621941	 165509.
13:54:47 1577 1578	 1492696487	 996546777	 161924.
13:54:48 1578 1579	 1492696488	 130113859	 133568.
13:54:48 1579 1580	 1492696488	 296047625	 165933.
13:54:48 1580 1581	 1492696488	 462500924	 166454.
13:54:48 1581 1582	 1492696488	 624594241	 162093.
13:54:48 1582 1583	 1492696488	 790707894	 166114.
13:54:48 1583 1584	 1492696488	 952561085	 161853.
13:54:49 1584 1585	 1492696489	 85819961	 133259.
13:54:49 1585 1586	 1492696489	 251713958	 165894.
13:54:49 1586 1587	 1492696489	 413595959	 161882.
13:54:49 1587 1588	 1492696489	 579766340	 166170.
13:54:49 1588 1589	 1492696489	 741636273	 161870.
13:54:49 1589 1590	 1492696489	 878867720	 137231.
13:54:50 1590 1591	 1492696490	 40853966	 161987.
13:54:50 1591 1592	 1492696490	 207204644	 166350.
13:54:50 1592 1593	 1492696490	 369166984	 161963.
13:54:50 1593 1594	 1492696490	 535241207	 166074.
13:54:50 1594 1595	 1492696490	 696799886	 161559.
13:54:50 1595 1596	 1492696490	 833568808	 136769.
13:54:50 1596 1597	 1492696490	 995372206	 161803.
13:54:51 1597 1598	 1492696491	 161219690	 165847.
13:54:51 1598 1599	 1492696491	 323102065	 161883.
13:54:51 1599 1600	 1492696491	 460854632	 137752.
13:54:51 1600 1601	 1492696491	 622967205	 162113.
13:54:51 1601 1602	 1492696491	 789035379	 166068.
13:54:51 1602 1603	 1492696491	 951147209	 162112.
13:54:52 1603 1604	 1492696492	 113702781	 162556.
13:54:52 1604 1605	 1492696492	 279542106	 165839.
13:54:52 1605 1606	 1492696492	 413048400	 133506.
13:54:52 1606 1607	 1492696492	 579312008	 166264.
13:54:52 1607 1608	 1492696492	 741343288	 162031.
13:54:52 1608 1609	 1492696492	 906981257	 165638.
13:54:53 1609 1610	 1492696493	 69236334	 162255.
13:54:53 1610 1611	 1492696493	 206458003	 137222.
13:54:53 1611 1612	 1492696493	 368352307	 161894.
13:54:53 1612 1613	 1492696493	 534759146	 166407.
13:54:53 1613 1614	 1492696493	 696747499	 161988.
13:54:53 1614 1615	 1492696493	 863132028	 166385.
13:54:54 1615 1616	 1492696494	 25975620	 162843.
13:54:54 1616 1617	 1492696494	 184390271	 158415.
13:54:54 1617 1618	 1492696494	 350725657	 166336.
13:54:54 1618 1619	 1492696494	 513351807	 162626.
13:54:54 1619 1620	 1492696494	 650274568	 136922.
13:54:54 1620 1621	 1492696494	 811683371	 161409.
13:54:54 1621 1622	 1492696494	 973349224	 161666.
13:54:55 1622 1623	 1492696495	 139396088	 166047.
13:54:55 1623 1624	 1492696495	 301135913	 161740.
13:54:55 1624 1625	 1492696495	 467465458	 166329.
13:54:55 1625 1626	 1492696495	 630008500	 162543.
13:54:55 1626 1627	 1492696495	 767256186	 137248.
13:54:55 1627 1628	 1492696495	 928869418	 161613.
13:54:56 1628 1629	 1492696496	 94651639	 165782.
13:54:56 1629 1630	 1492696496	 256412800	 161761.
13:54:56 1630 1631	 1492696496	 389626021	 133214.
13:54:56 1631 1632	 1492696496	 555247255	 165621.
13:54:56 1632 1633	 1492696496	 720798054	 165551.
13:54:56 1633 1634	 1492696496	 882064191	 161266.
13:54:57 1634 1635	 1492696497	 14946672	 132882.
13:54:57 1635 1636	 1492696497	 180853208	 165907.
13:54:57 1636 1637	 1492696497	 346944981	 166092.
13:54:57 1637 1638	 1492696497	 509034937	 162090.
13:54:57 1638 1639	 1492696497	 646297689	 137262.
13:54:57 1639 1640	 1492696497	 808540974	 162244.
13:54:57 1640 1641	 1492696497	 970387001	 161846.
13:54:58 1641 1642	 1492696498	 136230722	 165843.
13:54:58 1642 1643	 1492696498	 298299079	 162069.
13:54:58 1643 1644	 1492696498	 435556099	 137257.
13:54:58 1644 1645	 1492696498	 597714144	 162158.
13:54:58 1645 1646	 1492696498	 763615442	 165901.
13:54:58 1646 1647	 1492696498	 925767743	 162152.
13:54:59 1647 1648	 1492696499	 91918430	 166151.
13:54:59 1648 1649	 1492696499	 225070364	 133152.
13:54:59 1649 1650	 1492696499	 391077072	 166007.
13:54:59 1650 1651	 1492696499	 553179859	 162103.
13:54:59 1651 1652	 1492696499	 719702199	 166522.
13:54:59 1652 1653	 1492696499	 881866120	 162164.
13:55:00 1653 1654	 1492696500	 48265427	 166399.
13:55:00 1654 1655	 1492696500	 181755887	 133491.
13:55:00 1655 1656	 1492696500	 348035609	 166279.
13:55:00 1656 1657	 1492696500	 510059005	 162024.
13:55:00 1657 1658	 1492696500	 676614765	 166555.
13:55:00 1658 1659	 1492696500	 838947721	 162333.
13:55:00 1659 1660	 1492696501	 552399	 161605.
13:55:01 1660 1661	 1492696501	 166186622	 165634.
13:55:01 1661 1662	 1492696501	 327934761	 161749.
13:55:01 1662 1663	 1492696501	 464991547	 137056.
13:55:01 1663 1664	 1492696501	 626657593	 161666.
13:55:01 1664 1665	 1492696501	 788389406	 161732.
13:55:01 1665 1666	 1492696501	 954204858	 165816.
13:55:02 1666 1667	 1492696502	 115879219	 161674.
13:55:02 1667 1668	 1492696502	 281500098	 165621.
13:55:02 1668 1669	 1492696502	 443184909	 161685.
13:55:02 1669 1670	 1492696502	 576108931	 132924.
13:55:02 1670 1671	 1492696502	 741222074	 165113.
13:55:02 1671 1672	 1492696502	 902390397	 161168.
13:55:03 1672 1673	 1492696503	 63585595	 161195.
13:55:03 1673 1674	 1492696503	 196187617	 132602.
13:55:03 1674 1675	 1492696503	 361714038	 165527.
13:55:03 1675 1676	 1492696503	 523449407	 161735.
13:55:03 1676 1677	 1492696503	 689192612	 165743.
13:55:03 1677 1678	 1492696503	 850650198	 161458.
13:55:04 1678 1679	 1492696504	 11971443	 161321.
13:55:04 1679 1680	 1492696504	 148934007	 136963.
13:55:04 1680 1681	 1492696504	 310616188	 161682.
13:55:04 1681 1682	 1492696504	 472424841	 161809.
13:55:04 1682 1683	 1492696504	 638669794	 166244.
13:55:04 1683 1684	 1492696504	 800973923	 162305.
13:55:04 1684 1685	 1492696504	 966886340	 165912.
13:55:05 1685 1686	 1492696505	 128600766	 161714.
13:55:05 1686 1687	 1492696505	 295256810	 166657.
13:55:05 1687 1688	 1492696505	 452957570	 157700.
13:55:05 1688 1689	 1492696505	 614877116	 161920.
13:55:05 1689 1690	 1492696505	 776671621	 161795.
13:55:05 1690 1691	 1492696505	 913681931	 137010.
13:55:06 1691 1692	 1492696506	 75682208	 162000.
13:55:06 1692 1693	 1492696506	 241871744	 166189.
13:55:06 1693 1694	 1492696506	 404150590	 162280.
13:55:06 1694 1695	 1492696506	 570256245	 166105.
13:55:06 1695 1696	 1492696506	 731793708	 161537.
13:55:06 1696 1697	 1492696506	 893788531	 161995.
13:55:07 1697 1698	 1492696507	 59531451	 165743.
13:55:07 1698 1699	 1492696507	 221370605	 161839.
13:55:07 1699 1700	 1492696507	 383288610	 161918.
13:55:07 1700 1701	 1492696507	 520522948	 137235.
13:55:07 1701 1702	 1492696507	 682354196	 161831.
13:55:07 1702 1703	 1492696507	 848293577	 165939.
13:55:08 1703 1704	 1492696508	 10032059	 161739.
13:55:08 1704 1705	 1492696508	 175837445	 165805.
13:55:08 1705 1706	 1492696508	 337546125	 161709.
13:55:08 1706 1707	 1492696508	 499259573	 161713.
13:55:08 1707 1708	 1492696508	 665034784	 165775.
13:55:08 1708 1709	 1492696508	 798167396	 133133.
13:55:08 1709 1710	 1492696508	 959937079	 161770.
13:55:09 1710 1711	 1492696509	 125609516	 165672.
13:55:09 1711 1712	 1492696509	 287258994	 161650.
13:55:09 1712 1713	 1492696509	 448835672	 161576.
13:55:09 1713 1714	 1492696509	 614718458	 165883.
13:55:09 1714 1715	 1492696509	 776389362	 161671.
13:55:09 1715 1716	 1492696509	 913337523	 136948.
13:55:10 1716 1717	 1492696510	 75033515	 161696.
13:55:10 1717 1718	 1492696510	 236700350	 161667.
13:55:10 1718 1719	 1492696510	 402338263	 165638.
13:55:10 1719 1720	 1492696510	 563920057	 161582.
13:55:10 1720 1721	 1492696510	 729717142	 165797.
13:55:10 1721 1722	 1492696510	 862832268	 133115.
13:55:11 1722 1723	 1492696511	 24675747	 161843.
13:55:11 1723 1724	 1492696511	 190481758	 165806.
13:55:11 1724 1725	 1492696511	 352417155	 161936.
13:55:11 1725 1726	 1492696511	 518236531	 165819.
13:55:11 1726 1727	 1492696511	 680117925	 161882.
13:55:11 1727 1728	 1492696511	 842207074	 162089.
13:55:12 1728 1729	 1492696512	 7981824	 165775.
13:55:12 1729 1730	 1492696512	 141097218	 133115.
13:55:12 1730 1731	 1492696512	 306852684	 165755.
13:55:12 1731 1732	 1492696512	 468518174	 161666.
13:55:12 1732 1733	 1492696512	 634425908	 165908.
13:55:12 1733 1734	 1492696512	 795807879	 161382.
13:55:12 1734 1735	 1492696512	 932734296	 136926.
13:55:13 1735 1736	 1492696513	 98794827	 166061.
13:55:13 1736 1737	 1492696513	 260608787	 161814.
13:55:13 1737 1738	 1492696513	 426540032	 165931.
13:55:13 1738 1739	 1492696513	 588720250	 162180.
13:55:13 1739 1740	 1492696513	 750931245	 162211.
13:55:13 1740 1741	 1492696513	 916711929	 165781.
13:55:14 1741 1742	 1492696514	 49888076	 133176.
13:55:14 1742 1743	 1492696514	 215790612	 165902.
13:55:14 1743 1744	 1492696514	 377684230	 161894.
13:55:14 1744 1745	 1492696514	 543471359	 165787.
13:55:14 1745 1746	 1492696514	 705329164	 161858.
13:55:14 1746 1747	 1492696514	 866960042	 161631.
13:55:15 1747 1748	 1492696515	 32875209	 165915.
13:55:15 1748 1749	 1492696515	 194513729	 161639.
13:55:15 1749 1750	 1492696515	 327658900	 133145.
13:55:15 1750 1751	 1492696515	 493495177	 165836.
13:55:15 1751 1752	 1492696515	 655377947	 161883.
13:55:15 1752 1753	 1492696515	 821288480	 165910.
13:55:15 1753 1754	 1492696515	 983357790	 162069.
13:55:16 1754 1755	 1492696516	 145285697	 161928.
13:55:16 1755 1756	 1492696516	 311410084	 166125.
13:55:16 1756 1757	 1492696516	 473529006	 162119.
13:55:16 1757 1758	 1492696516	 639719854	 166191.
13:55:16 1758 1759	 1492696516	 773153186	 133433.
13:55:16 1759 1760	 1492696516	 939539563	 166386.
13:55:17 1760 1761	 1492696517	 101822457	 162283.
13:55:17 1761 1762	 1492696517	 268254649	 166432.
13:55:17 1762 1763	 1492696517	 430196336	 161942.
13:55:17 1763 1764	 1492696517	 596014107	 165818.
13:55:17 1764 1765	 1492696517	 757580985	 161567.
13:55:17 1765 1766	 1492696517	 890360405	 132779.
13:55:18 1766 1767	 1492696518	 56018917	 165659.
13:55:18 1767 1768	 1492696518	 217978573	 161959.
13:55:18 1768 1769	 1492696518	 383979140	 166001.
13:55:18 1769 1770	 1492696518	 545937640	 161958.
13:55:18 1770 1771	 1492696518	 707988632	 162051.
13:55:18 1771 1772	 1492696518	 874245264	 166257.
13:55:19 1772 1773	 1492696519	 36350917	 162106.
13:55:19 1773 1774	 1492696519	 173540062	 137189.
13:55:19 1774 1775	 1492696519	 335395217	 161855.
13:55:19 1775 1776	 1492696519	 497047706	 161652.
13:55:19 1776 1777	 1492696519	 662935849	 165889.
13:55:19 1777 1778	 1492696519	 824485541	 161549.
13:55:19 1778 1779	 1492696519	 990029513	 165544.
13:55:20 1779 1780	 1492696520	 122956703	 132927.
13:55:20 1780 1781	 1492696520	 284561793	 161605.
13:55:20 1781 1782	 1492696520	 450281254	 165720.
13:55:20 1782 1783	 1492696520	 611897066	 161616.
13:55:20 1783 1784	 1492696520	 777853119	 165956.
13:55:20 1784 1785	 1492696520	 939709975	 161857.
13:55:21 1785 1786	 1492696521	 101725220	 162015.
13:55:21 1786 1787	 1492696521	 267614157	 165889.
13:55:21 1787 1788	 1492696521	 429648519	 162034.
13:55:21 1788 1789	 1492696521	 562967716	 133319.
13:55:21 1789 1790	 1492696521	 728898065	 165931.
13:55:21 1790 1791	 1492696521	 890820007	 161922.
13:55:22 1791 1792	 1492696522	 56566184	 165746.
13:55:22 1792 1793	 1492696522	 215269275	 158703.
13:55:22 1793 1794	 1492696522	 376916218	 161647.
13:55:22 1794 1795	 1492696522	 542612141	 165696.
13:55:22 1795 1796	 1492696522	 704346460	 161734.
13:55:22 1796 1797	 1492696522	 865916300	 161570.
13:55:22 1797 1798	 1492696523	 3196170	 137280.
13:55:23 1798 1799	 1492696523	 164657655	 161461.
13:55:23 1799 1800	 1492696523	 330458090	 165801.
13:55:23 1800 1801	 1492696523	 492424897	 161967.
13:55:23 1801 1802	 1492696523	 654532288	 162107.
13:55:23 1802 1803	 1492696523	 820441077	 165909.
13:55:23 1803 1804	 1492696523	 982118587	 161677.
13:55:24 1804 1805	 1492696524	 148148405	 166030.
13:55:24 1805 1806	 1492696524	 281491319	 133343.
13:55:24 1806 1807	 1492696524	 447630497	 166139.
13:55:24 1807 1808	 1492696524	 609622092	 161992.
13:55:24 1808 1809	 1492696524	 775758958	 166137.
13:55:24 1809 1810	 1492696524	 937897315	 162138.
13:55:25 1810 1811	 1492696525	 99776048	 161879.
13:55:25 1811 1812	 1492696525	 265974928	 166199.
13:55:25 1812 1813	 1492696525	 431762343	 165787.
13:55:25 1813 1814	 1492696525	 593273265	 161511.
13:55:25 1814 1815	 1492696525	 726026773	 132753.
13:55:25 1815 1816	 1492696525	 891761026	 165735.
13:55:26 1816 1817	 1492696526	 53010888	 161250.
13:55:26 1817 1818	 1492696526	 218480489	 165469.
13:55:26 1818 1819	 1492696526	 351278252	 132798.
13:55:26 1819 1820	 1492696526	 512568854	 161291.
13:55:26 1820 1821	 1492696526	 678050581	 165481.
13:55:26 1821 1822	 1492696526	 839525577	 161475.
13:55:26 1822 1823	 1492696527	 719719	 161194.
13:55:27 1823 1824	 1492696527	 137447293	 136728.
13:55:27 1824 1825	 1492696527	 298900675	 161453.
13:55:27 1825 1826	 1492696527	 460261154	 161361.
13:55:27 1826 1827	 1492696527	 626072709	 165811.
13:55:27 1827 1828	 1492696527	 758911348	 132839.
13:55:27 1828 1829	 1492696527	 924425329	 165514.
13:55:28 1829 1830	 1492696528	 86272968	 161848.
13:55:28 1830 1831	 1492696528	 247981620	 161708.
13:55:28 1831 1832	 1492696528	 413462570	 165481.
13:55:28 1832 1833	 1492696528	 575099116	 161637.
13:55:28 1833 1834	 1492696528	 712015572	 136916.
13:55:28 1834 1835	 1492696528	 873682411	 161667.
13:55:29 1835 1836	 1492696529	 35168201	 161486.
13:55:29 1836 1837	 1492696529	 200653763	 165485.
13:55:29 1837 1838	 1492696529	 362332539	 161679.
13:55:29 1838 1839	 1492696529	 523868994	 161537.
13:55:29 1839 1840	 1492696529	 685567395	 161698.
13:55:29 1840 1841	 1492696529	 822765510	 137198.
13:55:29 1841 1842	 1492696529	 984238995	 161474.
13:55:30 1842 1843	 1492696530	 145714168	 161475.
13:55:30 1843 1844	 1492696530	 311775482	 166061.
13:55:30 1844 1845	 1492696530	 473190258	 161415.
13:55:30 1845 1846	 1492696530	 638959536	 165769.
13:55:30 1846 1847	 1492696530	 771907784	 132948.
13:55:30 1847 1848	 1492696530	 933109112	 161202.
13:55:31 1848 1849	 1492696531	 98543492	 165434.
13:55:31 1849 1850	 1492696531	 260216073	 161673.
13:55:31 1850 1851	 1492696531	 425601860	 165386.
13:55:31 1851 1852	 1492696531	 558903105	 133301.
13:55:31 1852 1853	 1492696531	 720617249	 161714.
13:55:31 1853 1854	 1492696531	 886290840	 165674.
13:55:32 1854 1855	 1492696532	 48387814	 162097.
13:55:32 1855 1856	 1492696532	 210134932	 161747.
13:55:32 1856 1857	 1492696532	 375846132	 165711.
13:55:32 1857 1858	 1492696532	 537682506	 161836.
13:55:32 1858 1859	 1492696532	 703439061	 165757.
13:55:32 1859 1860	 1492696532	 836203340	 132764.
13:55:32 1860 1861	 1492696532	 997363297	 161160.
13:55:33 1861 1862	 1492696533	 162971124	 165608.
13:55:33 1862 1863	 1492696533	 295910276	 132939.
13:55:33 1863 1864	 1492696533	 461841982	 165932.
13:55:33 1864 1865	 1492696533	 623308500	 161466.
13:55:33 1865 1866	 1492696533	 784903357	 161595.
13:55:33 1866 1867	 1492696533	 950612807	 165710.
13:55:34 1867 1868	 1492696534	 112616893	 162004.
13:55:34 1868 1869	 1492696534	 249982617	 137365.
13:55:34 1869 1870	 1492696534	 412076040	 162094.
13:55:34 1870 1871	 1492696534	 578419129	 166343.
13:55:34 1871 1872	 1492696534	 740271160	 161852.
13:55:34 1872 1873	 1492696534	 906357851	 166087.
13:55:35 1873 1874	 1492696535	 68382979	 162025.
13:55:35 1874 1875	 1492696535	 234684136	 166301.
13:55:35 1875 1876	 1492696535	 396847722	 162163.
13:55:35 1876 1877	 1492696535	 563129335	 166282.
13:55:35 1877 1878	 1492696535	 725333996	 162205.
13:55:35 1878 1879	 1492696535	 891162527	 165828.
13:55:36 1879 1880	 1492696536	 24035489	 132873.
13:55:36 1880 1881	 1492696536	 185581591	 161546.
13:55:36 1881 1882	 1492696536	 351364128	 165783.
13:55:36 1882 1883	 1492696536	 513060401	 161696.
13:55:36 1883 1884	 1492696536	 678737729	 165677.
13:55:36 1884 1885	 1492696536	 840395024	 161658.
13:55:36 1885 1886	 1492696536	 973239362	 132844.
13:55:37 1886 1887	 1492696537	 138694234	 165455.
