01:54:17    0 Step	 time(s)	 time(ns)	 delta(ms)
01:54:17    0 1	 1492566857	 793607558	 959.
01:54:17    1 2	 1492566857	 959887122	 166280.
01:54:18    2 3	 1492566858	 121792259	 161905.
01:54:18    3 4	 1492566858	 283752701	 161960.
01:54:18    4 5	 1492566858	 421027964	 137276.
01:54:18    5 6	 1492566858	 587712732	 166684.
01:54:18    6 7	 1492566858	 749472394	 161760.
01:54:18    7 8	 1492566858	 911702548	 162231.
01:54:19    8 9	 1492566859	 77570412	 165867.
01:54:19    9 10	 1492566859	 239666229	 162096.
01:54:19   10 11	 1492566859	 405555968	 165890.
01:54:19   11 12	 1492566859	 567664465	 162108.
01:54:19   12 13	 1492566859	 733799079	 166135.
01:54:19   13 14	 1492566859	 895978594	 162179.
01:54:20   14 15	 1492566860	 57995710	 162017.
01:54:20   15 16	 1492566860	 224046890	 166052.
01:54:20   16 17	 1492566860	 386114478	 162067.
01:54:20   17 18	 1492566860	 552445768	 166332.
01:54:20   18 19	 1492566860	 714299675	 161853.
01:54:20   19 20	 1492566860	 880340246	 166041.
01:54:21   20 21	 1492566861	 42316969	 161977.
01:54:21   21 22	 1492566861	 175552890	 133236.
01:54:21   22 23	 1492566861	 341619578	 166066.
01:54:21   23 24	 1492566861	 503570411	 161951.
01:54:21   24 25	 1492566861	 669520219	 165950.
01:54:21   25 26	 1492566861	 831426842	 161907.
01:54:21   26 27	 1492566861	 996950589	 165523.
01:54:22   27 28	 1492566862	 159021050	 162071.
01:54:22   28 29	 1492566862	 320633040	 161612.
01:54:22   29 30	 1492566862	 486606353	 165973.
01:54:22   30 31	 1492566862	 619591310	 132985.
01:54:22   31 32	 1492566862	 781435982	 161845.
01:54:22   32 33	 1492566862	 947261821	 165826.
01:54:23   33 34	 1492566863	 109159885	 161898.
01:54:23   34 35	 1492566863	 285285317	 176125.
01:54:23   35 36	 1492566863	 422373945	 137089.
01:54:23   36 37	 1492566863	 584104671	 161730.
01:54:23   37 38	 1492566863	 750122888	 166019.
01:54:23   38 39	 1492566863	 912189780	 162067.
01:54:24   39 40	 1492566864	 78189813	 166000.
01:54:24   40 41	 1492566864	 240036966	 161847.
01:54:24   41 42	 1492566864	 373312772	 133276.
01:54:24   42 43	 1492566864	 539574073	 166261.
01:54:24   43 44	 1492566864	 701664667	 162090.
01:54:24   44 45	 1492566864	 867382781	 165719.
01:54:25   45 46	 1492566865	 29364151	 161981.
01:54:25   46 47	 1492566865	 195381866	 166018.
01:54:25   47 48	 1492566865	 357604729	 162222.
01:54:25   48 49	 1492566865	 495252962	 137649.
01:54:25   49 50	 1492566865	 657276686	 162024.
01:54:25   50 51	 1492566865	 823261478	 165984.
01:54:25   51 52	 1492566865	 985348372	 162087.
01:54:26   52 53	 1492566866	 151707767	 166359.
01:54:26   53 54	 1492566866	 313710770	 162004.
01:54:26   54 55	 1492566866	 479973522	 166262.
01:54:26   55 56	 1492566866	 613262952	 133290.
01:54:26   56 57	 1492566866	 779342452	 166079.
01:54:26   57 58	 1492566866	 941655233	 162313.
01:54:27   58 59	 1492566867	 103546993	 161892.
01:54:27   59 60	 1492566867	 269686285	 166139.
01:54:27   60 61	 1492566867	 431371255	 161685.
01:54:27   61 62	 1492566867	 568815725	 137444.
01:54:27   62 63	 1492566867	 730996799	 162182.
01:54:27   63 64	 1492566867	 897134334	 166137.
01:54:28   64 65	 1492566868	 59506477	 162372.
01:54:28   65 66	 1492566868	 225351031	 165845.
01:54:28   66 67	 1492566868	 387556526	 162205.
01:54:28   67 68	 1492566868	 554069708	 166513.
01:54:28   68 69	 1492566868	 715839155	 161770.
01:54:28   69 70	 1492566868	 853418972	 137580.
01:54:29   70 71	 1492566869	 15303630	 161884.
01:54:29   71 72	 1492566869	 181555786	 166253.
01:54:29   72 73	 1492566869	 343697813	 162142.
01:54:29   73 74	 1492566869	 509586594	 165888.
01:54:29   74 75	 1492566869	 671253760	 161667.
01:54:29   75 76	 1492566869	 837155298	 165902.
01:54:29   76 77	 1492566869	 970238464	 133083.
01:54:30   77 78	 1492566870	 132026625	 161788.
01:54:30   78 79	 1492566870	 297587820	 165562.
01:54:30   79 80	 1492566870	 459499465	 161911.
01:54:30   80 81	 1492566870	 625388745	 165890.
01:54:30   81 82	 1492566870	 787365471	 161976.
01:54:30   82 83	 1492566870	 953434318	 166069.
01:54:31   83 84	 1492566871	 86755603	 133321.
01:54:31   84 85	 1492566871	 252611999	 165857.
01:54:31   85 86	 1492566871	 414583649	 161971.
01:54:31   86 87	 1492566871	 580608666	 166025.
01:54:31   87 88	 1492566871	 742816716	 162208.
01:54:31   88 89	 1492566871	 904870592	 162054.
01:54:32   89 90	 1492566872	 70581652	 165711.
01:54:32   90 91	 1492566872	 203874010	 133293.
01:54:32   91 92	 1492566872	 369939330	 166065.
01:54:32   92 93	 1492566872	 531956654	 162017.
01:54:32   93 94	 1492566872	 698042640	 166086.
01:54:32   94 95	 1492566872	 860141859	 162100.
01:54:33   95 96	 1492566873	 26391090	 166249.
01:54:33   96 97	 1492566873	 159884678	 133493.
01:54:33   97 98	 1492566873	 325679360	 165795.
01:54:33   98 99	 1492566873	 487184675	 161505.
01:54:33   99 100	 1492566873	 653764711	 166580.
01:54:33  100 101	 1492566873	 819866177	 166102.
01:54:33  101 102	 1492566873	 953169153	 133303.
01:54:34  102 103	 1492566874	 114964956	 161796.
01:54:34  103 104	 1492566874	 281039989	 166075.
01:54:34  104 105	 1492566874	 447572041	 166532.
01:54:34  105 106	 1492566874	 609810269	 162238.
01:54:34  106 107	 1492566874	 775497894	 165688.
01:54:34  107 108	 1492566874	 908458652	 132960.
01:54:35  108 109	 1492566875	 74245055	 165787.
01:54:35  109 110	 1492566875	 236534281	 162289.
01:54:35  110 111	 1492566875	 402987792	 166454.
01:54:35  111 112	 1492566875	 565331769	 162343.
01:54:35  112 113	 1492566875	 731607267	 166276.
01:54:35  113 114	 1492566875	 894157803	 162551.
01:54:36  114 115	 1492566876	 60476695	 166318.
01:54:36  115 116	 1492566876	 194086755	 133610.
01:54:36  116 117	 1492566876	 360413426	 166327.
01:54:36  117 118	 1492566876	 522589243	 162176.
01:54:36  118 119	 1492566876	 688510097	 165921.
01:54:36  119 120	 1492566876	 854727658	 166217.
01:54:37  120 121	 1492566877	 16515757	 161788.
01:54:37  121 122	 1492566877	 149917862	 133403.
01:54:37  122 123	 1492566877	 316053193	 166135.
01:54:37  123 124	 1492566877	 477950402	 161897.
01:54:37  124 125	 1492566877	 644062586	 166112.
01:54:37  125 126	 1492566877	 806133809	 162072.
01:54:37  126 127	 1492566877	 972303103	 166169.
01:54:38  127 128	 1492566878	 105292563	 132989.
01:54:38  128 129	 1492566878	 271220290	 165928.
01:54:38  129 130	 1492566878	 437284289	 166064.
01:54:38  130 131	 1492566878	 599055828	 161772.
01:54:38  131 132	 1492566878	 736206082	 137150.
01:54:38  132 133	 1492566878	 898434153	 162228.
01:54:39  133 134	 1492566879	 64933200	 166499.
01:54:39  134 135	 1492566879	 226616450	 161683.
01:54:39  135 136	 1492566879	 392949339	 166333.
01:54:39  136 137	 1492566879	 554860353	 161911.
01:54:39  137 138	 1492566879	 692643278	 137783.
01:54:39  138 139	 1492566879	 854734979	 162092.
01:54:40  139 140	 1492566880	 21166286	 166431.
01:54:40  140 141	 1492566880	 184144027	 162978.
01:54:40  141 142	 1492566880	 341910225	 157766.
01:54:40  142 143	 1492566880	 507806220	 165896.
01:54:40  143 144	 1492566880	 674014767	 166208.
01:54:40  144 145	 1492566880	 807493554	 133479.
01:54:40  145 146	 1492566880	 973999075	 166506.
01:54:41  146 147	 1492566881	 136197591	 162198.
01:54:41  147 148	 1492566881	 302523333	 166326.
01:54:41  148 149	 1492566881	 468531483	 166008.
01:54:41  149 150	 1492566881	 630468292	 161937.
01:54:41  150 151	 1492566881	 763946238	 133478.
01:54:41  151 152	 1492566881	 929840502	 165894.
01:54:42  152 153	 1492566882	 95875293	 166035.
01:54:42  153 154	 1492566882	 257575576	 161700.
01:54:42  154 155	 1492566882	 423209980	 165635.
01:54:42  155 156	 1492566882	 556344202	 133134.
01:54:42  156 157	 1492566882	 722071994	 165728.
01:54:42  157 158	 1492566882	 883671421	 161599.
01:54:43  158 159	 1492566883	 49803198	 166132.
01:54:43  159 160	 1492566883	 182985720	 133182.
01:54:43  160 161	 1492566883	 348832811	 165848.
01:54:43  161 162	 1492566883	 510986063	 162153.
01:54:43  162 163	 1492566883	 677583298	 166597.
01:54:43  163 164	 1492566883	 839486590	 161903.
01:54:43  164 165	 1492566883	 976609924	 137124.
01:54:44  165 166	 1492566884	 138585942	 161976.
01:54:44  166 167	 1492566884	 304927675	 166341.
01:54:44  167 168	 1492566884	 466628910	 161702.
01:54:44  168 169	 1492566884	 632845103	 166216.
01:54:44  169 170	 1492566884	 794818176	 161973.
01:54:44  170 171	 1492566884	 932016133	 137198.
01:54:45  171 172	 1492566885	 94149759	 162133.
01:54:45  172 173	 1492566885	 255777462	 161628.
01:54:45  173 174	 1492566885	 421969624	 166192.
01:54:45  174 175	 1492566885	 588291001	 166322.
01:54:45  175 176	 1492566885	 750126885	 161836.
01:54:45  176 177	 1492566885	 912080410	 161953.
01:54:46  177 178	 1492566886	 49316264	 137236.
01:54:46  178 179	 1492566886	 211145115	 161829.
01:54:46  179 180	 1492566886	 377201627	 166056.
01:54:46  180 181	 1492566886	 539372524	 162171.
01:54:46  181 182	 1492566886	 705469237	 166097.
01:54:46  182 183	 1492566886	 838761464	 133292.
01:54:47  183 184	 1492566887	 4414478	 165653.
01:54:47  184 185	 1492566887	 166593069	 162179.
01:54:47  185 186	 1492566887	 332885119	 166292.
01:54:47  186 187	 1492566887	 494737314	 161852.
01:54:47  187 188	 1492566887	 632358698	 137621.
01:54:47  188 189	 1492566887	 794494189	 162136.
01:54:47  189 190	 1492566887	 960716233	 166222.
01:54:48  190 191	 1492566888	 122803517	 162087.
01:54:48  191 192	 1492566888	 288649500	 165846.
01:54:48  192 193	 1492566888	 450660830	 162012.
01:54:48  193 194	 1492566888	 616898654	 166237.
01:54:48  194 195	 1492566888	 750379026	 133481.
01:54:48  195 196	 1492566888	 916401058	 166022.
01:54:49  196 197	 1492566889	 78677473	 162276.
01:54:49  197 198	 1492566889	 244889839	 166213.
01:54:49  198 199	 1492566889	 411133847	 166244.
01:54:49  199 200	 1492566889	 573489860	 162356.
01:54:49  200 201	 1492566889	 710393565	 136903.
01:54:49  201 202	 1492566889	 872649297	 162256.
01:54:50  202 203	 1492566890	 38596139	 165947.
01:54:50  203 204	 1492566890	 200442643	 161846.
01:54:50  204 205	 1492566890	 366497137	 166055.
01:54:50  205 206	 1492566890	 528739745	 162243.
01:54:50  206 207	 1492566890	 666242528	 137502.
01:54:50  207 208	 1492566890	 828306559	 162064.
01:54:50  208 209	 1492566890	 994828858	 166523.
01:54:51  209 210	 1492566891	 157094114	 162265.
01:54:51  210 211	 1492566891	 323316250	 166222.
01:54:51  211 212	 1492566891	 485418727	 162102.
01:54:51  212 213	 1492566891	 651489134	 166071.
01:54:51  213 214	 1492566891	 784520875	 133032.
01:54:51  214 215	 1492566891	 950380612	 165859.
01:54:52  215 216	 1492566892	 112515286	 162135.
01:54:52  216 217	 1492566892	 278809585	 166294.
01:54:52  217 218	 1492566892	 441033426	 162224.
01:54:52  218 219	 1492566892	 578585097	 137552.
01:54:52  219 220	 1492566892	 740379842	 161795.
01:54:52  220 221	 1492566892	 906800709	 166420.
01:54:53  221 222	 1492566893	 73214725	 166414.
01:54:53  222 223	 1492566893	 235127663	 161913.
01:54:53  223 224	 1492566893	 401521677	 166394.
01:54:53  224 225	 1492566893	 563755308	 162234.
01:54:53  225 226	 1492566893	 729841578	 166086.
01:54:53  226 227	 1492566893	 863215526	 133374.
01:54:54  227 228	 1492566894	 29553298	 166338.
01:54:54  228 229	 1492566894	 192163562	 162610.
01:54:54  229 230	 1492566894	 359202516	 167039.
01:54:54  230 231	 1492566894	 521419261	 162217.
01:54:54  231 232	 1492566894	 688208995	 166790.
01:54:54  232 233	 1492566894	 850014326	 161805.
01:54:55  233 234	 1492566895	 15875338	 165861.
01:54:55  234 235	 1492566895	 177587563	 161712.
01:54:55  235 236	 1492566895	 339303352	 161716.
01:54:55  236 237	 1492566895	 505127527	 165824.
01:54:55  237 238	 1492566895	 667181278	 162054.
01:54:55  238 239	 1492566895	 804138501	 136957.
01:54:55  239 240	 1492566895	 965499044	 161361.
01:54:56  240 241	 1492566896	 127229345	 161730.
01:54:56  241 242	 1492566896	 292629851	 165401.
01:54:56  242 243	 1492566896	 454243392	 161613.
01:54:56  243 244	 1492566896	 591310920	 137068.
01:54:56  244 245	 1492566896	 752731652	 161420.
01:54:56  245 246	 1492566896	 914684099	 161953.
01:54:57  246 247	 1492566897	 99419379	 184735.
01:54:57  247 248	 1492566897	 233127029	 133708.
01:54:57  248 249	 1492566897	 399334148	 166207.
01:54:57  249 250	 1492566897	 561516147	 162182.
01:54:57  250 251	 1492566897	 727459582	 165943.
01:54:57  251 252	 1492566897	 889648803	 162190.
01:54:58  252 253	 1492566898	 55548802	 165900.
01:54:58  253 254	 1492566898	 217422062	 161873.
01:54:58  254 255	 1492566898	 383277300	 165855.
01:54:58  255 256	 1492566898	 516454688	 133177.
01:54:58  256 257	 1492566898	 682258160	 165804.
01:54:58  257 258	 1492566898	 843981801	 161724.
01:54:59  258 259	 1492566899	 9272154	 165290.
01:54:59  259 260	 1492566899	 142125547	 132853.
01:54:59  260 261	 1492566899	 303754975	 161630.
01:54:59  261 262	 1492566899	 469108147	 165353.
01:54:59  262 263	 1492566899	 630801767	 161693.
01:54:59  263 264	 1492566899	 796516197	 165715.
01:54:59  264 265	 1492566899	 957771123	 161255.
01:55:00  265 266	 1492566900	 90845333	 133074.
01:55:00  266 267	 1492566900	 256673475	 165828.
01:55:00  267 268	 1492566900	 417949992	 161277.
01:55:00  268 269	 1492566900	 583665788	 165716.
01:55:00  269 270	 1492566900	 744972341	 161306.
01:55:00  270 271	 1492566900	 877767266	 132795.
01:55:01  271 272	 1492566901	 43397920	 165631.
01:55:01  272 273	 1492566901	 205009829	 161612.
01:55:01  273 274	 1492566901	 366714709	 161704.
01:55:01  274 275	 1492566901	 532457847	 165744.
01:55:01  275 276	 1492566901	 693885890	 161428.
01:55:01  276 277	 1492566901	 831014031	 137128.
01:55:01  277 278	 1492566901	 992684763	 161670.
01:55:02  278 279	 1492566902	 158509936	 165826.
01:55:02  279 280	 1492566902	 320350874	 161841.
01:55:02  280 281	 1492566902	 481964851	 161614.
01:55:02  281 282	 1492566902	 647850325	 165885.
01:55:02  282 283	 1492566902	 809632140	 161782.
01:55:02  283 284	 1492566902	 975518042	 165886.
01:55:03  284 285	 1492566903	 137225004	 161707.
01:55:03  285 286	 1492566903	 270299909	 133075.
01:55:03  286 287	 1492566903	 436142763	 165842.
01:55:03  287 288	 1492566903	 597840880	 161699.
01:55:03  288 289	 1492566903	 763821800	 165981.
01:55:03  289 290	 1492566903	 925690884	 161869.
01:55:04  290 291	 1492566904	 87408986	 161718.
01:55:04  291 292	 1492566904	 253191345	 165782.
01:55:04  292 293	 1492566904	 414952215	 161761.
01:55:04  293 294	 1492566904	 580760073	 165808.
01:55:04  294 295	 1492566904	 742503952	 161744.
01:55:04  295 296	 1492566904	 875789139	 133285.
01:55:05  296 297	 1492566905	 41742291	 165953.
01:55:05  297 298	 1492566905	 203622094	 161880.
01:55:05  298 299	 1492566905	 369360001	 165738.
01:55:05  299 300	 1492566905	 531318091	 161958.
01:55:05  300 301	 1492566905	 693431378	 162113.
01:55:05  301 302	 1492566905	 859149113	 165718.
01:55:06  302 303	 1492566906	 20608078	 161459.
01:55:06  303 304	 1492566906	 186319496	 165711.
01:55:06  304 305	 1492566906	 319472367	 133153.
01:55:06  305 306	 1492566906	 485427442	 165955.
01:55:06  306 307	 1492566906	 647081119	 161654.
01:55:06  307 308	 1492566906	 808883583	 161802.
01:55:06  308 309	 1492566906	 974766370	 165883.
01:55:07  309 310	 1492566907	 136501044	 161735.
01:55:07  310 311	 1492566907	 298174596	 161673.
01:55:07  311 312	 1492566907	 463840279	 165666.
01:55:07  312 313	 1492566907	 625699587	 161859.
01:55:07  313 314	 1492566907	 762887013	 137188.
01:55:07  314 315	 1492566907	 924686923	 161800.
01:55:08  315 316	 1492566908	 86222757	 161535.
01:55:08  316 317	 1492566908	 251961348	 165739.
01:55:08  317 318	 1492566908	 413588861	 161628.
01:55:08  318 319	 1492566908	 579128554	 165539.
01:55:08  319 320	 1492566908	 740637310	 161509.
01:55:08  320 321	 1492566908	 873657704	 133020.
01:55:09  321 322	 1492566909	 39264024	 165607.
01:55:09  322 323	 1492566909	 200941857	 161678.
01:55:09  323 324	 1492566909	 366645965	 165704.
01:55:09  324 325	 1492566909	 528278271	 161632.
01:55:09  325 326	 1492566909	 689828423	 161550.
01:55:09  326 327	 1492566909	 826877745	 137049.
01:55:09  327 328	 1492566909	 988509154	 161632.
01:55:10  328 329	 1492566910	 154357861	 165849.
01:55:10  329 330	 1492566910	 316110107	 161752.
01:55:10  330 331	 1492566910	 481841496	 165731.
01:55:10  331 332	 1492566910	 643537387	 161696.
01:55:10  332 333	 1492566910	 809251378	 165714.
01:55:10  333 334	 1492566910	 942171324	 132920.
01:55:11  334 335	 1492566911	 103938305	 161767.
01:55:11  335 336	 1492566911	 269759379	 165821.
01:55:11  336 337	 1492566911	 431408623	 161649.
01:55:11  337 338	 1492566911	 597352011	 165944.
01:55:11  338 339	 1492566911	 759132005	 161780.
01:55:11  339 340	 1492566911	 924837709	 165705.
01:55:12  340 341	 1492566912	 86809247	 161972.
01:55:12  341 342	 1492566912	 224233967	 137425.
01:55:12  342 343	 1492566912	 385753037	 161519.
01:55:12  343 344	 1492566912	 547392349	 161639.
01:55:12  344 345	 1492566912	 713221551	 165829.
01:55:12  345 346	 1492566912	 875275529	 162054.
01:55:13  346 347	 1492566913	 41037337	 165762.
01:55:13  347 348	 1492566913	 202885090	 161848.
01:55:13  348 349	 1492566913	 368953680	 166068.
01:55:13  349 350	 1492566913	 502004528	 133051.
01:55:13  350 351	 1492566913	 663886894	 161883.
01:55:13  351 352	 1492566913	 829618564	 165731.
01:55:13  352 353	 1492566913	 991976928	 162359.
01:55:14  353 354	 1492566914	 149475611	 157498.
01:55:14  354 355	 1492566914	 315294159	 165819.
01:55:14  355 356	 1492566914	 477140340	 161846.
01:55:14  356 357	 1492566914	 638854908	 161715.
01:55:14  357 358	 1492566914	 804415106	 165560.
01:55:14  358 359	 1492566914	 966341996	 161927.
01:55:15  359 360	 1492566915	 99490883	 133149.
01:55:15  360 361	 1492566915	 265101722	 165611.
01:55:15  361 362	 1492566915	 426829854	 161728.
01:55:15  362 363	 1492566915	 588321648	 161491.
01:55:15  363 364	 1492566915	 754011703	 165690.
01:55:15  364 365	 1492566915	 912499929	 158489.
01:55:16  365 366	 1492566916	 74259044	 161759.
01:55:16  366 367	 1492566916	 240243433	 165984.
01:55:16  367 368	 1492566916	 402258219	 162015.
01:55:16  368 369	 1492566916	 568080345	 165822.
01:55:16  369 370	 1492566916	 701134432	 133054.
01:55:16  370 371	 1492566916	 862707662	 161573.
01:55:17  371 372	 1492566917	 28414410	 165707.
01:55:17  372 373	 1492566917	 190100917	 161687.
01:55:17  373 374	 1492566917	 356164824	 166064.
01:55:17  374 375	 1492566917	 518106723	 161941.
01:55:17  375 376	 1492566917	 683862324	 165756.
01:55:17  376 377	 1492566917	 816884962	 133023.
01:55:17  377 378	 1492566917	 978492731	 161607.
01:55:18  378 379	 1492566918	 144404675	 165912.
01:55:18  379 380	 1492566918	 306128313	 161724.
01:55:18  380 381	 1492566918	 472003742	 165875.
01:55:18  381 382	 1492566918	 633500852	 161498.
01:55:18  382 383	 1492566918	 770306645	 136805.
01:55:18  383 384	 1492566918	 931678354	 161372.
01:55:19  384 385	 1492566919	 93480957	 161803.
01:55:19  385 386	 1492566919	 259290445	 165809.
01:55:19  386 387	 1492566919	 421156570	 161866.
01:55:19  387 388	 1492566919	 586867421	 165711.
01:55:19  388 389	 1492566919	 719729791	 132863.
01:55:19  389 390	 1492566919	 881637147	 161907.
01:55:20  390 391	 1492566920	 47421883	 165785.
01:55:20  391 392	 1492566920	 208986953	 161565.
01:55:20  392 393	 1492566920	 370972947	 161986.
01:55:20  393 394	 1492566920	 537151726	 166178.
01:55:20  394 395	 1492566920	 699076206	 161925.
01:55:20  395 396	 1492566920	 864605152	 165529.
01:55:21  396 397	 1492566921	 26803072	 162198.
01:55:21  397 398	 1492566921	 164547080	 137744.
01:55:21  398 399	 1492566921	 326416420	 161869.
01:55:21  399 400	 1492566921	 492785508	 166369.
01:55:21  400 401	 1492566921	 654947115	 162162.
01:55:21  401 402	 1492566921	 816931883	 161985.
01:55:21  402 403	 1492566921	 983206537	 166274.
01:55:22  403 404	 1492566922	 145113235	 161907.
01:55:22  404 405	 1492566922	 311001645	 165888.
01:55:22  405 406	 1492566922	 472816632	 161815.
01:55:22  406 407	 1492566922	 605674563	 132858.
01:55:22  407 408	 1492566922	 771291181	 165617.
01:55:22  408 409	 1492566922	 933483766	 162192.
01:55:23  409 410	 1492566923	 99471350	 165988.
01:55:23  410 411	 1492566923	 261601794	 162131.
01:55:23  411 412	 1492566923	 427982053	 166380.
01:55:23  412 413	 1492566923	 589897842	 161916.
01:55:23  413 414	 1492566923	 752014712	 162116.
01:55:23  414 415	 1492566923	 918393964	 166380.
01:55:24  415 416	 1492566924	 84404909	 166011.
01:55:24  416 417	 1492566924	 246303870	 161899.
01:55:24  417 418	 1492566924	 408320742	 162017.
01:55:24  418 419	 1492566924	 545884498	 137563.
01:55:24  419 420	 1492566924	 707737371	 161853.
01:55:24  420 421	 1492566924	 873985644	 166248.
01:55:25  421 422	 1492566925	 35994323	 162009.
01:55:25  422 423	 1492566925	 202227515	 166233.
01:55:25  423 424	 1492566925	 364317041	 162090.
01:55:25  424 425	 1492566925	 530494785	 166178.
01:55:25  425 426	 1492566925	 692664087	 162169.
01:55:25  426 427	 1492566925	 829783005	 137119.
01:55:25  427 428	 1492566925	 991218985	 161436.
01:55:26  428 429	 1492566926	 152953159	 161734.
01:55:26  429 430	 1492566926	 318913359	 165960.
01:55:26  430 431	 1492566926	 480737018	 161824.
01:55:26  431 432	 1492566926	 646577213	 165840.
01:55:26  432 433	 1492566926	 808327023	 161750.
01:55:26  433 434	 1492566926	 941317907	 132991.
01:55:27  434 435	 1492566927	 107294731	 165976.
01:55:27  435 436	 1492566927	 269011054	 161717.
01:55:27  436 437	 1492566927	 434251897	 165241.
01:55:27  437 438	 1492566927	 596165668	 161913.
01:55:27  438 439	 1492566927	 757533552	 161368.
01:55:27  439 440	 1492566927	 894561649	 137028.
01:55:28  440 441	 1492566928	 56041044	 161480.
01:55:28  441 442	 1492566928	 217369672	 161328.
01:55:28  442 443	 1492566928	 383185526	 165816.
01:55:28  443 444	 1492566928	 549056600	 165871.
01:55:28  444 445	 1492566928	 681772575	 132716.
01:55:28  445 446	 1492566928	 843585480	 161813.
01:55:29  446 447	 1492566929	 8888357	 165303.
01:55:29  447 448	 1492566929	 170248991	 161361.
01:55:29  448 449	 1492566929	 335822378	 165573.
01:55:29  449 450	 1492566929	 468599285	 132777.
01:55:29  450 451	 1492566929	 629790911	 161192.
01:55:29  451 452	 1492566929	 795639562	 165848.
01:55:29  452 453	 1492566929	 956861661	 161222.
01:55:30  453 454	 1492566930	 118571290	 161710.
01:55:30  454 455	 1492566930	 255475859	 136905.
01:55:30  455 456	 1492566930	 416806855	 161331.
01:55:30  456 457	 1492566930	 582721373	 165914.
01:55:30  457 458	 1492566930	 744197254	 161476.
01:55:30  458 459	 1492566930	 909521797	 165325.
01:55:31  459 460	 1492566931	 68093831	 158572.
01:55:31  460 461	 1492566931	 200878846	 132785.
01:55:31  461 462	 1492566931	 366382331	 165503.
01:55:31  462 463	 1492566931	 528087609	 161705.
01:55:31  463 464	 1492566931	 693471708	 165384.
01:55:31  464 465	 1492566931	 854855268	 161384.
01:55:31  465 466	 1492566931	 987947838	 133093.
01:55:32  466 467	 1492566932	 153220593	 165272.
01:55:32  467 468	 1492566932	 314832830	 161613.
01:55:32  468 469	 1492566932	 480488516	 165655.
01:55:32  469 470	 1492566932	 641820382	 161332.
01:55:32  470 471	 1492566932	 779001654	 137181.
01:55:32  471 472	 1492566932	 940435833	 161435.
01:55:33  472 473	 1492566933	 101779471	 161343.
01:55:33  473 474	 1492566933	 267808539	 166029.
01:55:33  474 475	 1492566933	 428989963	 161182.
01:55:33  475 476	 1492566933	 565570737	 136580.
01:55:33  476 477	 1492566933	 727228196	 161658.
01:55:33  477 478	 1492566933	 888653795	 161426.
01:55:34  478 479	 1492566934	 54197086	 165543.
01:55:34  479 480	 1492566934	 216074663	 161877.
01:55:34  480 481	 1492566934	 353149234	 137075.
01:55:34  481 482	 1492566934	 514810359	 161661.
01:55:34  482 483	 1492566934	 676472748	 161662.
01:55:34  483 484	 1492566934	 841889409	 165417.
01:55:35  484 485	 1492566935	 7512505	 165623.
01:55:35  485 486	 1492566935	 140336754	 132824.
01:55:35  486 487	 1492566935	 301856719	 161520.
01:55:35  487 488	 1492566935	 467791871	 165936.
01:55:35  488 489	 1492566935	 629253115	 161461.
01:55:35  489 490	 1492566935	 794589785	 165337.
01:55:35  490 491	 1492566935	 927856797	 133267.
01:55:36  491 492	 1492566936	 93187974	 165331.
01:55:36  492 493	 1492566936	 254946010	 161758.
01:55:36  493 494	 1492566936	 417045193	 162099.
01:55:36  494 495	 1492566936	 582850009	 165805.
01:55:36  495 496	 1492566936	 744561443	 161711.
01:55:36  496 497	 1492566936	 910311604	 165750.
01:55:37  497 498	 1492566937	 42997687	 132686.
01:55:37  498 499	 1492566937	 204632937	 161636.
01:55:37  499 500	 1492566937	 370009611	 165376.
01:55:37  500 501	 1492566937	 531325037	 161316.
01:55:37  501 502	 1492566937	 696926651	 165601.
01:55:37  502 503	 1492566937	 830072789	 133147.
01:55:37  503 504	 1492566937	 991415079	 161342.
01:55:38  504 505	 1492566938	 157196653	 165781.
01:55:38  505 506	 1492566938	 318601400	 161405.
01:55:38  506 507	 1492566938	 484590465	 165989.
01:55:38  507 508	 1492566938	 646125934	 161536.
01:55:38  508 509	 1492566938	 779084249	 132958.
01:55:38  509 510	 1492566938	 944381383	 165297.
01:55:39  510 511	 1492566939	 106124155	 161743.
01:55:39  511 512	 1492566939	 271579037	 165455.
01:55:39  512 513	 1492566939	 433323951	 161745.
01:55:39  513 514	 1492566939	 570191455	 136867.
01:55:39  514 515	 1492566939	 731669866	 161479.
01:55:39  515 516	 1492566939	 893156668	 161486.
01:55:40  516 517	 1492566940	 58767070	 165611.
01:55:40  517 518	 1492566940	 220226553	 161459.
01:55:40  518 519	 1492566940	 353526868	 133301.
01:55:40  519 520	 1492566940	 519055224	 165528.
01:55:40  520 521	 1492566940	 680526001	 161471.
01:55:40  521 522	 1492566940	 846213697	 165687.
01:55:41  522 523	 1492566941	 7655862	 161443.
01:55:41  523 524	 1492566941	 140590680	 132934.
01:55:41  524 525	 1492566941	 306280284	 165690.
01:55:41  525 526	 1492566941	 467881670	 161601.
01:55:41  526 527	 1492566941	 633890276	 166009.
01:55:41  527 528	 1492566941	 795433342	 161543.
01:55:41  528 529	 1492566941	 961257536	 165824.
01:55:42  529 530	 1492566942	 119318816	 158062.
01:55:42  530 531	 1492566942	 251743614	 132424.
01:55:42  531 532	 1492566942	 416909842	 165167.
01:55:42  532 533	 1492566942	 578495802	 161586.
01:55:42  533 534	 1492566942	 711026242	 132530.
01:55:42  534 535	 1492566942	 876108508	 165082.
01:55:43  535 536	 1492566943	 41822052	 165714.
01:55:43  536 537	 1492566943	 203557313	 161735.
01:55:43  537 538	 1492566943	 365240951	 161684.
01:55:43  538 539	 1492566943	 530483740	 165243.
01:55:43  539 540	 1492566943	 663402396	 132918.
01:55:43  540 541	 1492566943	 824729488	 161327.
01:55:43  541 542	 1492566943	 990171218	 165442.
01:55:44  542 543	 1492566944	 151650110	 161479.
01:55:44  543 544	 1492566944	 288890570	 137240.
01:55:44  544 545	 1492566944	 450220730	 161330.
01:55:44  545 546	 1492566944	 615940029	 165720.
01:55:44  546 547	 1492566944	 777328178	 161388.
01:55:44  547 548	 1492566944	 938939976	 161612.
01:55:45  548 549	 1492566945	 75945863	 137006.
01:55:45  549 550	 1492566945	 237572247	 161626.
01:55:45  550 551	 1492566945	 403280729	 165708.
01:55:45  551 552	 1492566945	 564744683	 161464.
01:55:45  552 553	 1492566945	 730078702	 165334.
01:55:45  553 554	 1492566945	 891737936	 161660.
01:55:46  554 555	 1492566946	 28945772	 137207.
01:55:46  555 556	 1492566946	 190978085	 162033.
01:55:46  556 557	 1492566946	 356682672	 165704.
01:55:46  557 558	 1492566946	 519040728	 162358.
01:55:46  558 559	 1492566946	 685045605	 166005.
01:55:46  559 560	 1492566946	 818337917	 133293.
01:55:46  560 561	 1492566946	 980169901	 161832.
01:55:47  561 562	 1492566947	 146455899	 166286.
01:55:47  562 563	 1492566947	 313243852	 166788.
01:55:47  563 564	 1492566947	 475080028	 161836.
01:55:47  564 565	 1492566947	 641248667	 166168.
01:55:47  565 566	 1492566947	 774637262	 133389.
01:55:47  566 567	 1492566947	 936768872	 162132.
01:55:48  567 568	 1492566948	 103103408	 166334.
01:55:48  568 569	 1492566948	 265109083	 162006.
01:55:48  569 570	 1492566948	 431544021	 166435.
01:55:48  570 571	 1492566948	 593503661	 161959.
01:55:48  571 572	 1492566948	 759603411	 166100.
01:55:48  572 573	 1492566948	 892739588	 133136.
01:55:49  573 574	 1492566949	 58723187	 165984.
01:55:49  574 575	 1492566949	 220924705	 162201.
01:55:49  575 576	 1492566949	 387161867	 166238.
01:55:49  576 577	 1492566949	 548969272	 161807.
01:55:49  577 578	 1492566949	 686266715	 137297.
01:55:49  578 579	 1492566949	 847615261	 161349.
01:55:50  579 580	 1492566950	 13297747	 165682.
01:55:50  580 581	 1492566950	 146342853	 133046.
01:55:50  581 582	 1492566950	 311839972	 165497.
01:55:50  582 583	 1492566950	 473418197	 161578.
01:55:50  583 584	 1492566950	 639272947	 165855.
01:55:50  584 585	 1492566950	 772239889	 132967.
01:55:50  585 586	 1492566950	 938521592	 166281.
01:55:51  586 587	 1492566951	 100595268	 162074.
01:55:51  587 588	 1492566951	 266501944	 165907.
01:55:51  588 589	 1492566951	 428802677	 162300.
01:55:51  589 590	 1492566951	 594955172	 166153.
01:55:51  590 591	 1492566951	 728022129	 133067.
01:55:51  591 592	 1492566951	 894037726	 166015.
01:55:52  592 593	 1492566952	 56003754	 161966.
01:55:52  593 594	 1492566952	 221788025	 165785.
01:55:52  594 595	 1492566952	 355054958	 133267.
01:55:52  595 596	 1492566952	 521162097	 166107.
01:55:52  596 597	 1492566952	 687445933	 166284.
01:55:52  597 598	 1492566952	 849193244	 161747.
01:55:53  598 599	 1492566953	 15120055	 165927.
01:55:53  599 600	 1492566953	 148446084	 133326.
01:55:53  600 601	 1492566953	 315015341	 166569.
01:55:53  601 602	 1492566953	 477253848	 162239.
01:55:53  602 603	 1492566953	 643329106	 166075.
01:55:53  603 604	 1492566953	 805590981	 162262.
01:55:53  604 605	 1492566953	 971859472	 166268.
01:55:54  605 606	 1492566954	 133669939	 161811.
01:55:54  606 607	 1492566954	 271674046	 138004.
01:55:54  607 608	 1492566954	 433917786	 162244.
01:55:54  608 609	 1492566954	 599979450	 166061.
01:55:54  609 610	 1492566954	 761764241	 161785.
01:55:54  610 611	 1492566954	 927712658	 165948.
01:55:55  611 612	 1492566955	 61033656	 133321.
01:55:55  612 613	 1492566955	 226524877	 165492.
01:55:55  613 614	 1492566955	 388323498	 161798.
01:55:55  614 615	 1492566955	 554277401	 165954.
01:55:55  615 616	 1492566955	 716587962	 162311.
01:55:55  616 617	 1492566955	 882922099	 166334.
01:55:56  617 618	 1492566956	 16415347	 133493.
01:55:56  618 619	 1492566956	 182799002	 166384.
01:55:56  619 620	 1492566956	 344413512	 161614.
01:55:56  620 621	 1492566956	 510443386	 166030.
01:55:56  621 622	 1492566956	 672487813	 162045.
01:55:56  622 623	 1492566956	 809608718	 137120.
01:55:56  623 624	 1492566956	 971161917	 161554.
01:55:57  624 625	 1492566957	 136484618	 165322.
01:55:57  625 626	 1492566957	 297689392	 161205.
01:55:57  626 627	 1492566957	 434664195	 136975.
01:55:57  627 628	 1492566957	 596165237	 161501.
01:55:57  628 629	 1492566957	 762021739	 165856.
01:55:57  629 630	 1492566957	 924119332	 162098.
01:55:58  630 631	 1492566958	 61344097	 137225.
01:55:58  631 632	 1492566958	 223680464	 162336.
01:55:58  632 633	 1492566958	 389840213	 166160.
01:55:58  633 634	 1492566958	 551963351	 162123.
01:55:58  634 635	 1492566958	 714016875	 162054.
01:55:58  635 636	 1492566958	 880271558	 166254.
01:55:59  636 637	 1492566959	 39019617	 158748.
01:55:59  637 638	 1492566959	 176169537	 137150.
01:55:59  638 639	 1492566959	 338026895	 161858.
01:55:59  639 640	 1492566959	 504349286	 166322.
01:55:59  640 641	 1492566959	 666495720	 162146.
01:55:59  641 642	 1492566959	 832350195	 165855.
01:55:59  642 643	 1492566959	 965385236	 133035.
01:56:00  643 644	 1492566960	 126932039	 161547.
01:56:00  644 645	 1492566960	 292444949	 165513.
01:56:00  645 646	 1492566960	 453986046	 161541.
01:56:00  646 647	 1492566960	 619651427	 165665.
01:56:00  647 648	 1492566960	 781648243	 161997.
01:56:00  648 649	 1492566960	 947607657	 165959.
01:56:01  649 650	 1492566961	 109448970	 161842.
01:56:01  650 651	 1492566961	 242308693	 132859.
01:56:01  651 652	 1492566961	 408178605	 165870.
01:56:01  652 653	 1492566961	 569860848	 161683.
01:56:01  653 654	 1492566961	 735595084	 165734.
01:56:01  654 655	 1492566961	 897275171	 161680.
01:56:02  655 656	 1492566962	 63034340	 165759.
01:56:02  656 657	 1492566962	 195793436	 132759.
01:56:02  657 658	 1492566962	 357329475	 161536.
01:56:02  658 659	 1492566962	 523019945	 165691.
01:56:02  659 660	 1492566962	 684540491	 161520.
01:56:02  660 661	 1492566962	 845832106	 161292.
01:56:02  661 662	 1492566962	 982973013	 137141.
01:56:03  662 663	 1492566963	 144459709	 161486.
01:56:03  663 664	 1492566963	 309953114	 165494.
01:56:03  664 665	 1492566963	 471663451	 161710.
01:56:03  665 666	 1492566963	 637116414	 165453.
01:56:03  666 667	 1492566963	 769974796	 132859.
01:56:03  667 668	 1492566963	 931281025	 161306.
01:56:04  668 669	 1492566964	 96867785	 165587.
01:56:04  669 670	 1492566964	 258573414	 161705.
01:56:04  670 671	 1492566964	 424342245	 165769.
01:56:04  671 672	 1492566964	 557355577	 133013.
01:56:04  672 673	 1492566964	 718847091	 161492.
01:56:04  673 674	 1492566964	 884597465	 165750.
01:56:05  674 675	 1492566965	 46283074	 161686.
01:56:05  675 676	 1492566965	 211977499	 165694.
01:56:05  676 677	 1492566965	 373694050	 161717.
01:56:05  677 678	 1492566965	 506656227	 132962.
01:56:05  678 679	 1492566965	 672284107	 165628.
01:56:05  679 680	 1492566965	 833829033	 161545.
01:56:05  680 681	 1492566965	 999670773	 165841.
01:56:06  681 682	 1492566966	 161515828	 161846.
01:56:06  682 683	 1492566966	 298485132	 136969.
01:56:06  683 684	 1492566966	 460483699	 161998.
01:56:06  684 685	 1492566966	 626485040	 166002.
01:56:06  685 686	 1492566966	 788407718	 161922.
01:56:06  686 687	 1492566966	 950318525	 161911.
01:56:07  687 688	 1492566967	 116143727	 165825.
01:56:07  688 689	 1492566967	 278023220	 161880.
01:56:07  689 690	 1492566967	 443853532	 165830.
01:56:07  690 691	 1492566967	 605682147	 161829.
01:56:07  691 692	 1492566967	 738721854	 133040.
01:56:07  692 693	 1492566967	 904714175	 165992.
01:56:08  693 694	 1492566968	 66994339	 162280.
01:56:08  694 695	 1492566968	 233302190	 166308.
01:56:08  695 696	 1492566968	 395324586	 162022.
01:56:08  696 697	 1492566968	 561732480	 166408.
01:56:08  697 698	 1492566968	 723690576	 161958.
01:56:08  698 699	 1492566968	 889475436	 165785.
01:56:09  699 700	 1492566969	 51544305	 162069.
01:56:09  700 701	 1492566969	 217415304	 165871.
01:56:09  701 702	 1492566969	 379028589	 161613.
01:56:09  702 703	 1492566969	 540767401	 161739.
01:56:09  703 704	 1492566969	 678132174	 137365.
01:56:09  704 705	 1492566969	 840116138	 161984.
01:56:09  705 706	 1492566970	 1689947	 161574.
01:56:10  706 707	 1492566970	 168391246	 166701.
01:56:10  707 708	 1492566970	 326160745	 157769.
01:56:10  708 709	 1492566970	 488075885	 161916.
01:56:10  709 710	 1492566970	 649655024	 161579.
01:56:10  710 711	 1492566970	 815327421	 165672.
01:56:10  711 712	 1492566970	 977013778	 161687.
01:56:11  712 713	 1492566971	 110074985	 133061.
01:56:11  713 714	 1492566971	 275741013	 165666.
01:56:11  714 715	 1492566971	 437335698	 161595.
01:56:11  715 716	 1492566971	 603038651	 165702.
01:56:11  716 717	 1492566971	 764609101	 161571.
01:56:11  717 718	 1492566971	 926496560	 161887.
01:56:12  718 719	 1492566972	 92405499	 165909.
01:56:12  719 720	 1492566972	 254142973	 161738.
01:56:12  720 721	 1492566972	 391462584	 137319.
01:56:12  721 722	 1492566972	 553783974	 162322.
01:56:12  722 723	 1492566972	 719969410	 166185.
01:56:12  723 724	 1492566972	 881715327	 161746.
01:56:13  724 725	 1492566973	 47873864	 166159.
01:56:13  725 726	 1492566973	 210193664	 162319.
01:56:13  726 727	 1492566973	 343628790	 133436.
01:56:13  727 728	 1492566973	 509621386	 165992.
01:56:13  728 729	 1492566973	 675438993	 165818.
01:56:13  729 730	 1492566973	 837322036	 161883.
01:56:14  730 731	 1492566974	 3653512	 166331.
01:56:14  731 732	 1492566974	 166016536	 162363.
01:56:14  732 733	 1492566974	 303132676	 137116.
01:56:14  733 734	 1492566974	 465467528	 162335.
01:56:14  734 735	 1492566974	 631143996	 165677.
01:56:14  735 736	 1492566974	 793095970	 161952.
01:56:14  736 737	 1492566974	 958700605	 165604.
01:56:15  737 738	 1492566975	 91917456	 133217.
01:56:15  738 739	 1492566975	 257945160	 166028.
01:56:15  739 740	 1492566975	 420351530	 162406.
01:56:15  740 741	 1492566975	 586091511	 165740.
01:56:15  741 742	 1492566975	 748106814	 162016.
01:56:15  742 743	 1492566975	 880984103	 132877.
01:56:16  743 744	 1492566976	 46567085	 165583.
01:56:16  744 745	 1492566976	 208386121	 161819.
01:56:16  745 746	 1492566976	 374922421	 166536.
01:56:16  746 747	 1492566976	 537093417	 162171.
01:56:16  747 748	 1492566976	 702960152	 165867.
01:56:16  748 749	 1492566976	 864747642	 161787.
01:56:16  749 750	 1492566977	 1730784	 136984.
01:56:17  750 751	 1492566977	 163196358	 161465.
01:56:17  751 752	 1492566977	 324821081	 161625.
01:56:17  752 753	 1492566977	 490201112	 165380.
01:56:17  753 754	 1492566977	 651395048	 161194.
01:56:17  754 755	 1492566977	 788366021	 136971.
01:56:17  755 756	 1492566977	 950024373	 161658.
01:56:18  756 757	 1492566978	 115741847	 165718.
01:56:18  757 758	 1492566978	 277227783	 161485.
01:56:18  758 759	 1492566978	 438904300	 161677.
01:56:18  759 760	 1492566978	 604673866	 165770.
01:56:18  760 761	 1492566978	 737802649	 133128.
01:56:18  761 762	 1492566978	 903448150	 165646.
01:56:19  762 763	 1492566979	 65165018	 161717.
01:56:19  763 764	 1492566979	 230778325	 165613.
01:56:19  764 765	 1492566979	 392413080	 161635.
01:56:19  765 766	 1492566979	 558061987	 165649.
01:56:19  766 767	 1492566979	 691078497	 133016.
01:56:19  767 768	 1492566979	 853099002	 162021.
01:56:20  768 769	 1492566980	 19149414	 166050.
01:56:20  769 770	 1492566980	 181261231	 162112.
01:56:20  770 771	 1492566980	 347283103	 166022.
01:56:20  771 772	 1492566980	 509569305	 162286.
01:56:20  772 773	 1492566980	 675444332	 165875.
01:56:20  773 774	 1492566980	 808360608	 132916.
01:56:20  774 775	 1492566980	 973948930	 165589.
01:56:21  775 776	 1492566981	 135629428	 161680.
01:56:21  776 777	 1492566981	 297129701	 161500.
01:56:21  777 778	 1492566981	 462776177	 165647.
01:56:21  778 779	 1492566981	 624465305	 161689.
01:56:21  779 780	 1492566981	 789927674	 165463.
01:56:21  780 781	 1492566981	 922968784	 133040.
01:56:22  781 782	 1492566982	 84332168	 161364.
01:56:22  782 783	 1492566982	 249796449	 165464.
01:56:22  783 784	 1492566982	 411428851	 161633.
01:56:22  784 785	 1492566982	 577253776	 165825.
01:56:22  785 786	 1492566982	 710288416	 133034.
01:56:22  786 787	 1492566982	 876552188	 166264.
01:56:23  787 788	 1492566983	 38855825	 162304.
01:56:23  788 789	 1492566983	 204980500	 166124.
01:56:23  789 790	 1492566983	 366967139	 161987.
01:56:23  790 791	 1492566983	 529000851	 162034.
01:56:23  791 792	 1492566983	 695071746	 166070.
01:56:23  792 793	 1492566983	 828209085	 133138.
01:56:23  793 794	 1492566983	 994584541	 166375.
01:56:24  794 795	 1492566984	 156733855	 162150.
01:56:24  795 796	 1492566984	 318785795	 162052.
01:56:24  796 797	 1492566984	 484645993	 165860.
01:56:24  797 798	 1492566984	 646561644	 161915.
01:56:24  798 799	 1492566984	 812881426	 166320.
01:56:24  799 800	 1492566984	 974658069	 161777.
01:56:25  800 801	 1492566985	 112199447	 137541.
01:56:25  801 802	 1492566985	 274000356	 161801.
01:56:25  802 803	 1492566985	 440134474	 166134.
01:56:25  803 804	 1492566985	 602151931	 162018.
01:56:25  804 805	 1492566985	 764281137	 162129.
01:56:25  805 806	 1492566985	 930423652	 166142.
01:56:26  806 807	 1492566986	 92214918	 161792.
01:56:26  807 808	 1492566986	 258213394	 165998.
01:56:26  808 809	 1492566986	 391739488	 133526.
01:56:26  809 810	 1492566986	 557780109	 166041.
01:56:26  810 811	 1492566986	 719548906	 161769.
01:56:26  811 812	 1492566986	 885908639	 166359.
01:56:27  812 813	 1492566987	 48800061	 162892.
01:56:27  813 814	 1492566987	 206630859	 157831.
01:56:27  814 815	 1492566987	 372864474	 166233.
01:56:27  815 816	 1492566987	 534921217	 162057.
01:56:27  816 817	 1492566987	 701222326	 166301.
01:56:27  817 818	 1492566987	 834889805	 133668.
01:56:27  818 819	 1492566988	 1349704	 166459.
01:56:28  819 820	 1492566988	 163531317	 162182.
01:56:28  820 821	 1492566988	 329833734	 166302.
01:56:28  821 822	 1492566988	 491957155	 162124.
01:56:28  822 823	 1492566988	 657997423	 166040.
01:56:28  823 824	 1492566988	 820259821	 162263.
01:56:28  824 825	 1492566988	 957739809	 137480.
01:56:29  825 826	 1492566989	 124189494	 166449.
01:56:29  826 827	 1492566989	 286181682	 161992.
01:56:29  827 828	 1492566989	 452234654	 166053.
01:56:29  828 829	 1492566989	 614266277	 162032.
01:56:29  829 830	 1492566989	 776117329	 161851.
01:56:29  830 831	 1492566989	 942118600	 166001.
01:56:30  831 832	 1492566990	 104464127	 162346.
01:56:30  832 833	 1492566990	 241782511	 137318.
01:56:30  833 834	 1492566990	 403589618	 161808.
01:56:30  834 835	 1492566990	 569593743	 166003.
01:56:30  835 836	 1492566990	 731628883	 162036.
01:56:30  836 837	 1492566990	 897793543	 166164.
01:56:31  837 838	 1492566991	 59799982	 162007.
01:56:31  838 839	 1492566991	 197416078	 137616.
01:56:31  839 840	 1492566991	 359223492	 161807.
01:56:31  840 841	 1492566991	 525347833	 166125.
01:56:31  841 842	 1492566991	 687355368	 162007.
01:56:31  842 843	 1492566991	 853582586	 166227.
01:56:32  843 844	 1492566992	 15439888	 161858.
01:56:32  844 845	 1492566992	 177430192	 161990.
01:56:32  845 846	 1492566992	 343927402	 166497.
01:56:32  846 847	 1492566992	 477484960	 133558.
01:56:32  847 848	 1492566992	 643650404	 166165.
01:56:32  848 849	 1492566992	 805637361	 161987.
01:56:32  849 850	 1492566992	 971832875	 166196.
01:56:33  850 851	 1492566993	 134066853	 162234.
01:56:33  851 852	 1492566993	 300454059	 166387.
01:56:33  852 853	 1492566993	 462135445	 161681.
01:56:33  853 854	 1492566993	 628051588	 165916.
01:56:33  854 855	 1492566993	 790098502	 162047.
01:56:33  855 856	 1492566993	 927298444	 137200.
01:56:34  856 857	 1492566994	 89379548	 162081.
01:56:34  857 858	 1492566994	 255575709	 166196.
01:56:34  858 859	 1492566994	 417330282	 161755.
01:56:34  859 860	 1492566994	 579066159	 161736.
01:56:34  860 861	 1492566994	 744893198	 165827.
01:56:34  861 862	 1492566994	 877946696	 133053.
01:56:35  862 863	 1492566995	 39824908	 161879.
01:56:35  863 864	 1492566995	 205721694	 165896.
01:56:35  864 865	 1492566995	 367382269	 161661.
01:56:35  865 866	 1492566995	 533337215	 165955.
01:56:35  866 867	 1492566995	 699608014	 166271.
01:56:35  867 868	 1492566995	 861861145	 162253.
01:56:36  868 869	 1492566996	 27779820	 165919.
01:56:36  869 870	 1492566996	 160914877	 133135.
01:56:36  870 871	 1492566996	 322693063	 161778.
01:56:36  871 872	 1492566996	 488677167	 165984.
01:56:36  872 873	 1492566996	 650506521	 161829.
01:56:36  873 874	 1492566996	 812340027	 161834.
01:56:36  874 875	 1492566996	 978132089	 165792.
01:56:37  875 876	 1492566997	 140226589	 162094.
01:56:37  876 877	 1492566997	 302144589	 161918.
01:56:37  877 878	 1492566997	 468496827	 166353.
01:56:37  878 879	 1492566997	 630073034	 161576.
01:56:37  879 880	 1492566997	 795561324	 165488.
01:56:37  880 881	 1492566997	 928522903	 132962.
01:56:38  881 882	 1492566998	 90048767	 161525.
01:56:38  882 883	 1492566998	 256271036	 166223.
01:56:38  883 884	 1492566998	 422431959	 166161.
01:56:38  884 885	 1492566998	 584527630	 162095.
01:56:38  885 886	 1492566998	 750637658	 166110.
01:56:38  886 887	 1492566998	 883668720	 133031.
01:56:39  887 888	 1492566999	 49578620	 165910.
01:56:39  888 889	 1492566999	 211527719	 161949.
01:56:39  889 890	 1492566999	 377233714	 165706.
01:56:39  890 891	 1492566999	 539387709	 162154.
01:56:39  891 892	 1492566999	 676893996	 137507.
01:56:39  892 893	 1492566999	 838802644	 161908.
01:56:39  893 894	 1492567000	 4760439	 165958.
01:56:40  894 895	 1492567000	 166581070	 161821.
01:56:40  895 896	 1492567000	 332478522	 165897.
01:56:40  896 897	 1492567000	 494825370	 162347.
01:56:40  897 898	 1492567000	 631975296	 137150.
01:56:40  898 899	 1492567000	 793928175	 161953.
01:56:40  899 900	 1492567000	 960231577	 166303.
01:56:41  900 901	 1492567001	 122489101	 162258.
01:56:41  901 902	 1492567001	 284468796	 161980.
01:56:41  902 903	 1492567001	 450718585	 166249.
01:56:41  903 904	 1492567001	 612679579	 161961.
01:56:41  904 905	 1492567001	 778699130	 166020.
01:56:41  905 906	 1492567001	 940844127	 162145.
01:56:42  906 907	 1492567002	 106950676	 166106.
01:56:42  907 908	 1492567002	 268881381	 161931.
01:56:42  908 909	 1492567002	 406342561	 137461.
01:56:42  909 910	 1492567002	 568204359	 161862.
01:56:42  910 911	 1492567002	 734198953	 165995.
01:56:42  911 912	 1492567002	 895667539	 161468.
01:56:43  912 913	 1492567003	 61330572	 165663.
01:56:43  913 914	 1492567003	 194368214	 133038.
01:56:43  914 915	 1492567003	 360124628	 165756.
01:56:43  915 916	 1492567003	 525854364	 165730.
01:56:43  916 917	 1492567003	 687521242	 161667.
01:56:43  917 918	 1492567003	 824838794	 137318.
01:56:43  918 919	 1492567003	 986644474	 161805.
01:56:44  919 920	 1492567004	 149339968	 162696.
01:56:44  920 921	 1492567004	 311508946	 162169.
01:56:44  921 922	 1492567004	 473243332	 161734.
01:56:44  922 923	 1492567004	 638947397	 165704.
01:56:44  923 924	 1492567004	 804761970	 165815.
01:56:44  924 925	 1492567004	 937521722	 132759.
01:56:45  925 926	 1492567005	 98808975	 161288.
01:56:45  926 927	 1492567005	 264457167	 165648.
01:56:45  927 928	 1492567005	 426201450	 161744.
01:56:45  928 929	 1492567005	 592016155	 165815.
01:56:45  929 930	 1492567005	 754065505	 162049.
01:56:45  930 931	 1492567005	 920278641	 166213.
01:56:46  931 932	 1492567006	 53332437	 133054.
01:56:46  932 933	 1492567006	 218804771	 165472.
01:56:46  933 934	 1492567006	 380811596	 162007.
01:56:46  934 935	 1492567006	 542454829	 161644.
01:56:46  935 936	 1492567006	 708233329	 165778.
01:56:46  936 937	 1492567006	 869923472	 161690.
01:56:47  937 938	 1492567007	 7218788	 137296.
01:56:47  938 939	 1492567007	 168848883	 161630.
01:56:47  939 940	 1492567007	 334897491	 166048.
01:56:47  940 941	 1492567007	 496880311	 161983.
01:56:47  941 942	 1492567007	 662653801	 165774.
01:56:47  942 943	 1492567007	 824437176	 161783.
01:56:47  943 944	 1492567007	 990663560	 166226.
01:56:48  944 945	 1492567008	 124180065	 133517.
01:56:48  945 946	 1492567008	 290354367	 166174.
01:56:48  946 947	 1492567008	 452637519	 162283.
01:56:48  947 948	 1492567008	 618818992	 166182.
01:56:48  948 949	 1492567008	 780517195	 161698.
01:56:48  949 950	 1492567008	 946444058	 165927.
01:56:49  950 951	 1492567009	 108132353	 161688.
01:56:49  951 952	 1492567009	 245264833	 137133.
01:56:49  952 953	 1492567009	 407392832	 162128.
01:56:49  953 954	 1492567009	 573724362	 166331.
01:56:49  954 955	 1492567009	 735684573	 161960.
01:56:49  955 956	 1492567009	 872509425	 136825.
01:56:50  956 957	 1492567010	 38074120	 165565.
01:56:50  957 958	 1492567010	 199601301	 161527.
01:56:50  958 959	 1492567010	 360916898	 161316.
01:56:50  959 960	 1492567010	 497775272	 136858.
01:56:50  960 961	 1492567010	 659276147	 161501.
01:56:50  961 962	 1492567010	 824757514	 165481.
01:56:50  962 963	 1492567010	 986166582	 161409.
01:56:51  963 964	 1492567011	 152407087	 166241.
01:56:51  964 965	 1492567011	 285874773	 133468.
01:56:51  965 966	 1492567011	 452113789	 166239.
01:56:51  966 967	 1492567011	 614364512	 162250.
01:56:51  967 968	 1492567011	 776178520	 161814.
01:56:51  968 969	 1492567011	 942224640	 166046.
01:56:52  969 970	 1492567012	 108310063	 166086.
01:56:52  970 971	 1492567012	 241465766	 133155.
01:56:52  971 972	 1492567012	 407784279	 166319.
01:56:52  972 973	 1492567012	 569882197	 162098.
01:56:52  973 974	 1492567012	 736075468	 166193.
01:56:52  974 975	 1492567012	 898337411	 162262.
01:56:53  975 976	 1492567013	 64639486	 166302.
01:56:53  976 977	 1492567013	 197704536	 133065.
01:56:53  977 978	 1492567013	 363462194	 165758.
01:56:53  978 979	 1492567013	 525331817	 161870.
01:56:53  979 980	 1492567013	 662356451	 137024.
01:56:53  980 981	 1492567013	 824411032	 162055.
01:56:53  981 982	 1492567013	 990782524	 166371.
01:56:54  982 983	 1492567014	 156774430	 165992.
01:56:54  983 984	 1492567014	 318847245	 162073.
01:56:54  984 985	 1492567014	 480942878	 162096.
01:56:54  985 986	 1492567014	 618298031	 137355.
01:56:54  986 987	 1492567014	 780478265	 162180.
01:56:54  987 988	 1492567014	 939266907	 158789.
01:56:55  988 989	 1492567015	 101355376	 162088.
01:56:55  989 990	 1492567015	 267220537	 165865.
01:56:55  990 991	 1492567015	 429319113	 162099.
01:56:55  991 992	 1492567015	 566452247	 137133.
01:56:55  992 993	 1492567015	 728589277	 162137.
01:56:55  993 994	 1492567015	 894810519	 166221.
01:56:56  994 995	 1492567016	 56879991	 162070.
01:56:56  995 996	 1492567016	 222977640	 166097.
01:56:56  996 997	 1492567016	 385055912	 162079.
01:56:56  997 998	 1492567016	 522703341	 137647.
01:56:56  998 999	 1492567016	 684476376	 161773.
01:56:56  999 1000	 1492567016	 850050244	 165574.
01:56:57 1000 1001	 1492567017	 12035245	 161985.
01:56:57 1001 1002	 1492567017	 178029798	 165995.
01:56:57 1002 1003	 1492567017	 311144958	 133115.
01:56:57 1003 1004	 1492567017	 477269691	 166124.
01:56:57 1004 1005	 1492567017	 639035608	 161766.
01:56:57 1005 1006	 1492567017	 805106792	 166072.
01:56:57 1006 1007	 1492567017	 938400846	 133294.
01:56:58 1007 1008	 1492567018	 104589065	 166188.
01:56:58 1008 1009	 1492567018	 266484429	 161895.
01:56:58 1009 1010	 1492567018	 432547944	 166064.
01:56:58 1010 1011	 1492567018	 594407461	 161859.
01:56:58 1011 1012	 1492567018	 760728884	 166322.
01:56:58 1012 1013	 1492567018	 893596420	 132867.
01:56:59 1013 1014	 1492567019	 59991162	 166395.
01:56:59 1014 1015	 1492567019	 221756787	 161765.
01:56:59 1015 1016	 1492567019	 383884628	 162128.
01:56:59 1016 1017	 1492567019	 550449924	 166566.
01:56:59 1017 1018	 1492567019	 712708184	 162258.
01:56:59 1018 1019	 1492567019	 878991759	 166283.
01:57:00 1019 1020	 1492567020	 37308587	 158318.
01:57:00 1020 1021	 1492567020	 170257957	 132949.
01:57:00 1021 1022	 1492567020	 335981242	 165723.
01:57:00 1022 1023	 1492567020	 498088006	 162107.
01:57:00 1023 1024	 1492567020	 660187399	 162099.
01:57:00 1024 1025	 1492567020	 826543498	 166356.
01:57:00 1025 1026	 1492567020	 988220897	 161678.
01:57:01 1026 1027	 1492567021	 154196979	 165976.
01:57:01 1027 1028	 1492567021	 315932578	 161735.
01:57:01 1028 1029	 1492567021	 481709400	 165777.
01:57:01 1029 1030	 1492567021	 643330657	 161621.
01:57:01 1030 1031	 1492567021	 776343421	 133013.
01:57:01 1031 1032	 1492567021	 941894101	 165551.
01:57:02 1032 1033	 1492567022	 103546207	 161652.
01:57:02 1033 1034	 1492567022	 269081276	 165535.
01:57:02 1034 1035	 1492567022	 430955663	 161874.
01:57:02 1035 1036	 1492567022	 592752496	 161797.
01:57:02 1036 1037	 1492567022	 729960836	 137209.
01:57:02 1037 1038	 1492567022	 891640770	 161680.
01:57:03 1038 1039	 1492567023	 57223995	 165583.
01:57:03 1039 1040	 1492567023	 218930093	 161706.
01:57:03 1040 1041	 1492567023	 384510246	 165580.
01:57:03 1041 1042	 1492567023	 517429935	 132920.
01:57:03 1042 1043	 1492567023	 678649110	 161219.
01:57:03 1043 1044	 1492567023	 843986168	 165337.
01:57:04 1044 1045	 1492567024	 5114982	 161129.
01:57:04 1045 1046	 1492567024	 137736931	 132622.
01:57:04 1046 1047	 1492567024	 303136241	 165399.
01:57:04 1047 1048	 1492567024	 464664655	 161528.
01:57:04 1048 1049	 1492567024	 630096861	 165433.
01:57:04 1049 1050	 1492567024	 791769516	 161672.
01:57:04 1050 1051	 1492567024	 929361520	 137592.
01:57:05 1051 1052	 1492567025	 95236686	 165875.
01:57:05 1052 1053	 1492567025	 257002018	 161766.
01:57:05 1053 1054	 1492567025	 418930223	 161928.
01:57:05 1054 1055	 1492567025	 580688870	 161759.
01:57:05 1055 1056	 1492567025	 746214039	 165525.
01:57:05 1056 1057	 1492567025	 908631800	 162418.
01:57:06 1057 1058	 1492567026	 46022029	 137390.
01:57:06 1058 1059	 1492567026	 207966016	 161944.
01:57:06 1059 1060	 1492567026	 373788420	 165822.
01:57:06 1060 1061	 1492567026	 535604570	 161816.
01:57:06 1061 1062	 1492567026	 701448083	 165844.
01:57:06 1062 1063	 1492567026	 863307153	 161859.
01:57:07 1063 1064	 1492567027	 24998365	 161691.
01:57:07 1064 1065	 1492567027	 190977765	 165979.
01:57:07 1065 1066	 1492567027	 352657857	 161681.
01:57:07 1066 1067	 1492567027	 489857399	 137199.
01:57:07 1067 1068	 1492567027	 651504846	 161648.
01:57:07 1068 1069	 1492567027	 812902035	 161397.
01:57:07 1069 1070	 1492567027	 978773370	 165871.
01:57:08 1070 1071	 1492567028	 140457978	 161685.
01:57:08 1071 1072	 1492567028	 273196467	 132738.
01:57:08 1072 1073	 1492567028	 438756537	 165560.
01:57:08 1073 1074	 1492567028	 600075023	 161319.
01:57:08 1074 1075	 1492567028	 765968830	 165894.
01:57:08 1075 1076	 1492567028	 927724239	 161755.
01:57:09 1076 1077	 1492567029	 64997826	 137274.
01:57:09 1077 1078	 1492567029	 227247189	 162249.
01:57:09 1078 1079	 1492567029	 393437562	 166190.
01:57:09 1079 1080	 1492567029	 555336986	 161900.
01:57:09 1080 1081	 1492567029	 720932687	 165595.
01:57:09 1081 1082	 1492567029	 882945628	 162013.
01:57:10 1082 1083	 1492567030	 20025521	 137080.
01:57:10 1083 1084	 1492567030	 181963222	 161938.
01:57:10 1084 1085	 1492567030	 347735626	 165772.
01:57:10 1085 1086	 1492567030	 509547376	 161812.
01:57:10 1086 1087	 1492567030	 674742680	 165195.
01:57:10 1087 1088	 1492567030	 836443985	 161702.
01:57:10 1088 1089	 1492567030	 969234310	 132790.
01:57:11 1089 1090	 1492567031	 135133409	 165899.
01:57:11 1090 1091	 1492567031	 297495657	 162362.
01:57:11 1091 1092	 1492567031	 454935897	 157441.
01:57:11 1092 1093	 1492567031	 620712496	 165776.
01:57:11 1093 1094	 1492567031	 782056000	 161344.
01:57:11 1094 1095	 1492567031	 915055691	 132999.
01:57:12 1095 1096	 1492567032	 81052938	 165998.
01:57:12 1096 1097	 1492567032	 247235832	 166183.
01:57:12 1097 1098	 1492567032	 408860849	 161625.
01:57:12 1098 1099	 1492567032	 541982830	 133122.
01:57:12 1099 1100	 1492567032	 707783156	 165800.
01:57:12 1100 1101	 1492567032	 869465818	 161683.
01:57:13 1101 1102	 1492567033	 35577454	 166111.
01:57:13 1102 1103	 1492567033	 168711116	 133134.
01:57:13 1103 1104	 1492567033	 334781763	 166070.
01:57:13 1104 1105	 1492567033	 496386919	 161606.
01:57:13 1105 1106	 1492567033	 662399686	 166012.
01:57:13 1106 1107	 1492567033	 795451936	 133053.
01:57:13 1107 1108	 1492567033	 961256408	 165804.
01:57:14 1108 1109	 1492567034	 123293910	 162038.
01:57:14 1109 1110	 1492567034	 289070122	 165776.
01:57:14 1110 1111	 1492567034	 450616856	 161547.
01:57:14 1111 1112	 1492567034	 587947587	 137330.
01:57:14 1112 1113	 1492567034	 750053218	 162106.
01:57:14 1113 1114	 1492567034	 916098337	 166045.
01:57:15 1114 1115	 1492567035	 78066530	 161968.
01:57:15 1115 1116	 1492567035	 244191217	 166125.
01:57:15 1116 1117	 1492567035	 377380369	 133189.
01:57:15 1117 1118	 1492567035	 543504512	 166124.
01:57:15 1118 1119	 1492567035	 705381303	 161877.
01:57:15 1119 1120	 1492567035	 871583677	 166202.
01:57:16 1120 1121	 1492567036	 33387910	 161805.
01:57:16 1121 1122	 1492567036	 170970771	 137582.
01:57:16 1122 1123	 1492567036	 332577155	 161607.
01:57:16 1123 1124	 1492567036	 498666205	 166089.
01:57:16 1124 1125	 1492567036	 660833939	 162168.
01:57:16 1125 1126	 1492567036	 826890733	 166056.
01:57:16 1126 1127	 1492567036	 960278659	 133388.
01:57:17 1127 1128	 1492567037	 126145857	 165868.
01:57:17 1128 1129	 1492567037	 292170414	 166024.
01:57:17 1129 1130	 1492567037	 454603006	 162433.
01:57:17 1130 1131	 1492567037	 620766279	 166163.
01:57:17 1131 1132	 1492567037	 782789169	 162023.
01:57:17 1132 1133	 1492567037	 919591683	 136802.
01:57:18 1133 1134	 1492567038	 81253877	 161663.
01:57:18 1134 1135	 1492567038	 246620722	 165366.
01:57:18 1135 1136	 1492567038	 379532369	 132912.
01:57:18 1136 1137	 1492567038	 545546712	 166014.
01:57:18 1137 1138	 1492567038	 707411061	 161865.
01:57:18 1138 1139	 1492567038	 873830256	 166419.
01:57:19 1139 1140	 1492567039	 36012900	 162183.
01:57:19 1140 1141	 1492567039	 202267740	 166254.
01:57:19 1141 1142	 1492567039	 335300410	 133033.
01:57:19 1142 1143	 1492567039	 501234664	 165934.
01:57:19 1143 1144	 1492567039	 663630950	 162397.
01:57:19 1144 1145	 1492567039	 830207359	 166576.
01:57:19 1145 1146	 1492567039	 992392228	 162185.
01:57:20 1146 1147	 1492567040	 158583061	 166191.
01:57:20 1147 1148	 1492567040	 324555219	 165972.
01:57:20 1148 1149	 1492567040	 457709934	 133155.
01:57:20 1149 1150	 1492567040	 620045355	 162335.
01:57:20 1150 1151	 1492567040	 786209862	 166165.
01:57:20 1151 1152	 1492567040	 952479824	 166270.
01:57:21 1152 1153	 1492567041	 114259105	 161779.
01:57:21 1153 1154	 1492567041	 276142464	 161883.
01:57:21 1154 1155	 1492567041	 413529797	 137388.
01:57:21 1155 1156	 1492567041	 575874817	 162345.
01:57:21 1156 1157	 1492567041	 741589681	 165717.
01:57:21 1157 1158	 1492567041	 908059122	 166467.
01:57:22 1158 1159	 1492567042	 70098417	 162039.
01:57:22 1159 1160	 1492567042	 203035971	 132938.
01:57:22 1160 1161	 1492567042	 369268856	 166233.
01:57:22 1161 1162	 1492567042	 535673915	 166405.
01:57:22 1162 1163	 1492567042	 697900401	 162226.
01:57:22 1163 1164	 1492567042	 863724876	 165825.
01:57:23 1164 1165	 1492567043	 25839453	 162114.
01:57:23 1165 1166	 1492567043	 163366552	 137527.
01:57:23 1166 1167	 1492567043	 325461637	 162095.
01:57:23 1167 1168	 1492567043	 491981121	 166520.
01:57:23 1168 1169	 1492567043	 654312860	 162332.
01:57:23 1169 1170	 1492567043	 820320003	 166007.
01:57:23 1170 1171	 1492567043	 982375718	 162056.
01:57:24 1171 1172	 1492567044	 119659759	 137283.
01:57:24 1172 1173	 1492567044	 281480895	 161822.
01:57:24 1173 1174	 1492567044	 447699406	 166218.
01:57:24 1174 1175	 1492567044	 610121623	 162422.
01:57:24 1175 1176	 1492567044	 776289159	 166168.
01:57:24 1176 1177	 1492567044	 938304238	 162015.
01:57:25 1177 1178	 1492567045	 76320222	 138016.
01:57:25 1178 1179	 1492567045	 238338625	 162018.
01:57:25 1179 1180	 1492567045	 404845505	 166507.
01:57:25 1180 1181	 1492567045	 567047814	 162203.
01:57:25 1181 1182	 1492567045	 733759634	 166711.
01:57:25 1182 1183	 1492567045	 895866013	 162107.
01:57:26 1183 1184	 1492567046	 62040092	 166174.
01:57:26 1184 1185	 1492567046	 224031598	 161991.
01:57:26 1185 1186	 1492567046	 389994443	 165963.
01:57:26 1186 1187	 1492567046	 523452868	 133459.
01:57:26 1187 1188	 1492567046	 689538252	 166085.
01:57:26 1188 1189	 1492567046	 851330464	 161792.
01:57:27 1189 1190	 1492567047	 13499996	 162170.
01:57:27 1190 1191	 1492567047	 179642144	 166142.
01:57:27 1191 1192	 1492567047	 341925190	 162283.
01:57:27 1192 1193	 1492567047	 508031058	 166106.
01:57:27 1193 1194	 1492567047	 669990316	 161959.
01:57:27 1194 1195	 1492567047	 836329765	 166339.
01:57:27 1195 1196	 1492567047	 998209327	 161880.
01:57:28 1196 1197	 1492567048	 160906181	 162697.
01:57:28 1197 1198	 1492567048	 319102698	 158196.
01:57:28 1198 1199	 1492567048	 485210529	 166108.
01:57:28 1199 1200	 1492567048	 646853563	 161643.
01:57:28 1200 1201	 1492567048	 812993234	 166140.
01:57:28 1201 1202	 1492567048	 945895359	 132902.
01:57:29 1202 1203	 1492567049	 112332058	 166437.
01:57:29 1203 1204	 1492567049	 274051250	 161719.
01:57:29 1204 1205	 1492567049	 439724517	 165673.
01:57:29 1205 1206	 1492567049	 601726600	 162003.
01:57:29 1206 1207	 1492567049	 739068106	 137341.
01:57:29 1207 1208	 1492567049	 901153850	 162086.
01:57:30 1208 1209	 1492567050	 67329749	 166175.
01:57:30 1209 1210	 1492567050	 233943910	 166615.
01:57:30 1210 1211	 1492567050	 396262602	 162318.
01:57:30 1211 1212	 1492567050	 562401981	 166140.
01:57:30 1212 1213	 1492567050	 724637344	 162235.
01:57:30 1213 1214	 1492567050	 857935574	 133298.
01:57:31 1214 1215	 1492567051	 24319180	 166384.
01:57:31 1215 1216	 1492567051	 190690282	 166371.
01:57:31 1216 1217	 1492567051	 352827502	 162137.
01:57:31 1217 1218	 1492567051	 514808466	 161981.
01:57:31 1218 1219	 1492567051	 680782052	 165974.
01:57:31 1219 1220	 1492567051	 842788346	 162006.
01:57:32 1220 1221	 1492567052	 9110554	 166322.
01:57:32 1221 1222	 1492567052	 171283383	 162173.
01:57:32 1222 1223	 1492567052	 337489739	 166206.
01:57:32 1223 1224	 1492567052	 470878654	 133389.
01:57:32 1224 1225	 1492567052	 637191566	 166313.
01:57:32 1225 1226	 1492567052	 799425853	 162235.
01:57:32 1226 1227	 1492567052	 965888363	 166462.
01:57:33 1227 1228	 1492567053	 128097386	 162209.
01:57:33 1228 1229	 1492567053	 293961570	 165864.
01:57:33 1229 1230	 1492567053	 452597193	 158636.
01:57:33 1230 1231	 1492567053	 619032887	 166436.
01:57:33 1231 1232	 1492567053	 781059190	 162026.
01:57:33 1232 1233	 1492567053	 947168483	 166109.
01:57:34 1233 1234	 1492567054	 80402205	 133234.
01:57:34 1234 1235	 1492567054	 242346273	 161944.
01:57:34 1235 1236	 1492567054	 408154106	 165808.
01:57:34 1236 1237	 1492567054	 570043217	 161889.
01:57:34 1237 1238	 1492567054	 736044681	 166001.
01:57:34 1238 1239	 1492567054	 897807671	 161763.
01:57:35 1239 1240	 1492567055	 63313717	 165506.
01:57:35 1240 1241	 1492567055	 196428284	 133115.
01:57:35 1241 1242	 1492567055	 358462154	 162034.
01:57:35 1242 1243	 1492567055	 524521825	 166060.
01:57:35 1243 1244	 1492567055	 686143609	 161621.
01:57:35 1244 1245	 1492567055	 851811083	 165668.
01:57:36 1245 1246	 1492567056	 13517901	 161707.
01:57:36 1246 1247	 1492567056	 179543972	 166026.
01:57:36 1247 1248	 1492567056	 312738346	 133194.
01:57:36 1248 1249	 1492567056	 474848230	 162110.
01:57:36 1249 1250	 1492567056	 641279534	 166431.
01:57:36 1250 1251	 1492567056	 803721213	 162442.
01:57:36 1251 1252	 1492567056	 969770152	 166049.
01:57:37 1252 1253	 1492567057	 135816078	 166046.
01:57:37 1253 1254	 1492567057	 298085875	 162270.
01:57:37 1254 1255	 1492567057	 464426894	 166341.
01:57:37 1255 1256	 1492567057	 626239456	 161812.
01:57:37 1256 1257	 1492567057	 759114778	 132875.
01:57:37 1257 1258	 1492567057	 924854687	 165740.
01:57:38 1258 1259	 1492567058	 86665698	 161811.
01:57:38 1259 1260	 1492567058	 252479725	 165814.
01:57:38 1260 1261	 1492567058	 414792108	 162313.
01:57:38 1261 1262	 1492567058	 580691155	 165899.
01:57:38 1262 1263	 1492567058	 713766447	 133075.
01:57:38 1263 1264	 1492567058	 879459989	 165694.
01:57:39 1264 1265	 1492567059	 41220183	 161760.
01:57:39 1265 1266	 1492567059	 207246927	 166027.
01:57:39 1266 1267	 1492567059	 369042262	 161795.
01:57:39 1267 1268	 1492567059	 506774706	 137732.
01:57:39 1268 1269	 1492567059	 668383878	 161610.
01:57:39 1269 1270	 1492567059	 834579467	 166195.
01:57:39 1270 1271	 1492567059	 996190085	 161611.
01:57:40 1271 1272	 1492567060	 162229821	 166040.
01:57:40 1272 1273	 1492567060	 324487919	 162258.
01:57:40 1273 1274	 1492567060	 461977100	 137489.
01:57:40 1274 1275	 1492567060	 623505578	 161528.
01:57:40 1275 1276	 1492567060	 789378488	 165873.
01:57:40 1276 1277	 1492567060	 951153822	 161776.
01:57:41 1277 1278	 1492567061	 117748502	 166594.
01:57:41 1278 1279	 1492567061	 280088270	 162340.
01:57:41 1279 1280	 1492567061	 446240839	 166153.
01:57:41 1280 1281	 1492567061	 579428935	 133188.
01:57:41 1281 1282	 1492567061	 745418640	 165989.
01:57:41 1282 1283	 1492567061	 907282711	 161864.
01:57:42 1283 1284	 1492567062	 73464484	 166182.
01:57:42 1284 1285	 1492567062	 235612168	 162148.
01:57:42 1285 1286	 1492567062	 401226455	 165614.
01:57:42 1286 1287	 1492567062	 534420919	 133195.
01:57:42 1287 1288	 1492567062	 696105871	 161685.
01:57:42 1288 1289	 1492567062	 861936502	 165830.
01:57:43 1289 1290	 1492567063	 23664528	 161728.
01:57:43 1290 1291	 1492567063	 190202970	 166539.
01:57:43 1291 1292	 1492567063	 322931665	 132728.
01:57:43 1292 1293	 1492567063	 489458252	 166527.
01:57:43 1293 1294	 1492567063	 651233161	 161775.
01:57:43 1294 1295	 1492567063	 816738850	 165506.
01:57:43 1295 1296	 1492567063	 978039732	 161300.
01:57:44 1296 1297	 1492567064	 139727404	 161688.
01:57:44 1297 1298	 1492567064	 276860375	 137133.
01:57:44 1298 1299	 1492567064	 438236350	 161376.
01:57:44 1299 1300	 1492567064	 599379660	 161143.
01:57:44 1300 1301	 1492567064	 764670196	 165291.
01:57:44 1301 1302	 1492567064	 897675908	 133006.
01:57:45 1302 1303	 1492567065	 63152024	 165476.
01:57:45 1303 1304	 1492567065	 224802712	 161650.
01:57:45 1304 1305	 1492567065	 386182542	 161380.
01:57:45 1305 1306	 1492567065	 552033263	 165851.
01:57:45 1306 1307	 1492567065	 713925486	 161892.
01:57:45 1307 1308	 1492567065	 851210995	 137286.
01:57:46 1308 1309	 1492567066	 13334011	 162123.
01:57:46 1309 1310	 1492567066	 179157145	 165823.
01:57:46 1310 1311	 1492567066	 341265144	 162108.
01:57:46 1311 1312	 1492567066	 507640631	 166375.
01:57:46 1312 1313	 1492567066	 669857448	 162217.
01:57:46 1313 1314	 1492567066	 807080703	 137223.
01:57:46 1314 1315	 1492567066	 969137086	 162057.
01:57:47 1315 1316	 1492567067	 135110805	 165974.
01:57:47 1316 1317	 1492567067	 296786596	 161675.
01:57:47 1317 1318	 1492567067	 462939128	 166153.
01:57:47 1318 1319	 1492567067	 596447606	 133508.
01:57:47 1319 1320	 1492567067	 762280161	 165833.
01:57:47 1320 1321	 1492567067	 924232740	 161952.
01:57:48 1321 1322	 1492567068	 90199041	 165967.
01:57:48 1322 1323	 1492567068	 252216065	 162017.
01:57:48 1323 1324	 1492567068	 418263723	 166047.
01:57:48 1324 1325	 1492567068	 551884363	 133621.
01:57:48 1325 1326	 1492567068	 717800445	 165916.
01:57:48 1326 1327	 1492567068	 880123262	 162323.
01:57:49 1327 1328	 1492567069	 46452956	 166330.
01:57:49 1328 1329	 1492567069	 208292520	 161839.
01:57:49 1329 1330	 1492567069	 374063842	 165772.
01:57:49 1330 1331	 1492567069	 536143363	 162079.
01:57:49 1331 1332	 1492567069	 669500262	 133357.
01:57:49 1332 1333	 1492567069	 835712445	 166212.
01:57:49 1333 1334	 1492567069	 997523867	 161812.
01:57:50 1334 1335	 1492567070	 163117556	 165593.
01:57:50 1335 1336	 1492567070	 325174571	 162057.
01:57:50 1336 1337	 1492567070	 462246053	 137072.
01:57:50 1337 1338	 1492567070	 624205744	 161959.
01:57:50 1338 1339	 1492567070	 790014965	 165810.
01:57:50 1339 1340	 1492567070	 952037679	 162022.
01:57:51 1340 1341	 1492567071	 118053355	 166016.
01:57:51 1341 1342	 1492567071	 280256790	 162204.
01:57:51 1342 1343	 1492567071	 446339638	 166082.
01:57:51 1343 1344	 1492567071	 579576691	 133237.
01:57:51 1344 1345	 1492567071	 745650218	 166074.
01:57:51 1345 1346	 1492567071	 907646604	 161996.
01:57:52 1346 1347	 1492567072	 73497865	 165852.
01:57:52 1347 1348	 1492567072	 235306160	 161808.
01:57:52 1348 1349	 1492567072	 401670148	 166364.
01:57:52 1349 1350	 1492567072	 535096460	 133426.
01:57:52 1350 1351	 1492567072	 701384549	 166288.
01:57:52 1351 1352	 1492567072	 863516057	 162132.
01:57:53 1352 1353	 1492567073	 29539025	 166023.
01:57:53 1353 1354	 1492567073	 191752371	 162213.
01:57:53 1354 1355	 1492567073	 329020166	 137268.
01:57:53 1355 1356	 1492567073	 491126619	 162106.
01:57:53 1356 1357	 1492567073	 657622291	 166496.
01:57:53 1357 1358	 1492567073	 823409440	 165787.
01:57:53 1358 1359	 1492567073	 985381449	 161972.
01:57:54 1359 1360	 1492567074	 147428623	 162047.
01:57:54 1360 1361	 1492567074	 313612128	 166184.
01:57:54 1361 1362	 1492567074	 480006138	 166394.
01:57:54 1362 1363	 1492567074	 613321393	 133315.
01:57:54 1363 1364	 1492567074	 775265307	 161944.
01:57:54 1364 1365	 1492567074	 941482935	 166218.
01:57:55 1365 1366	 1492567075	 103555323	 162072.
01:57:55 1366 1367	 1492567075	 269267260	 165712.
01:57:55 1367 1368	 1492567075	 402502591	 133235.
01:57:55 1368 1369	 1492567075	 568304687	 165802.
01:57:55 1369 1370	 1492567075	 730026380	 161722.
01:57:55 1370 1371	 1492567075	 895762830	 165737.
01:57:56 1371 1372	 1492567076	 57792459	 162029.
01:57:56 1372 1373	 1492567076	 195210046	 137418.
01:57:56 1373 1374	 1492567076	 357129495	 161919.
01:57:56 1374 1375	 1492567076	 523022417	 165893.
01:57:56 1375 1376	 1492567076	 685043598	 162021.
01:57:56 1376 1377	 1492567076	 851374750	 166331.
01:57:57 1377 1378	 1492567077	 13011855	 161638.
01:57:57 1378 1379	 1492567077	 178781812	 165770.
01:57:57 1379 1380	 1492567077	 311944692	 133162.
01:57:57 1380 1381	 1492567077	 477943197	 165999.
01:57:57 1381 1382	 1492567077	 640188044	 162245.
01:57:57 1382 1383	 1492567077	 806180308	 165992.
01:57:57 1383 1384	 1492567077	 967981952	 161802.
01:57:58 1384 1385	 1492567078	 105312912	 137331.
01:57:58 1385 1386	 1492567078	 267194953	 161882.
01:57:58 1386 1387	 1492567078	 433663917	 166469.
01:57:58 1387 1388	 1492567078	 595700829	 162037.
01:57:58 1388 1389	 1492567078	 761743648	 166042.
01:57:58 1389 1390	 1492567078	 923704841	 161962.
01:57:59 1390 1391	 1492567079	 90279675	 166574.
01:57:59 1391 1392	 1492567079	 252496994	 162218.
01:57:59 1392 1393	 1492567079	 418829202	 166332.
01:57:59 1393 1394	 1492567079	 552362290	 133533.
01:57:59 1394 1395	 1492567079	 718464905	 166103.
01:57:59 1395 1396	 1492567079	 880956891	 162492.
01:58:00 1396 1397	 1492567080	 43277497	 162320.
01:58:00 1397 1398	 1492567080	 209545980	 166269.
01:58:00 1398 1399	 1492567080	 376095978	 166550.
01:58:00 1399 1400	 1492567080	 538391031	 162295.
01:58:00 1400 1401	 1492567080	 704463168	 166072.
01:58:00 1401 1402	 1492567080	 866631500	 162168.
01:58:01 1402 1403	 1492567081	 33693632	 167062.
01:58:01 1403 1404	 1492567081	 191354596	 157661.
01:58:01 1404 1405	 1492567081	 353163942	 161810.
01:58:01 1405 1406	 1492567081	 519039831	 165876.
01:58:01 1406 1407	 1492567081	 680709732	 161670.
01:58:01 1407 1408	 1492567081	 817996303	 137286.
01:58:01 1408 1409	 1492567081	 979943942	 161948.
01:58:02 1409 1410	 1492567082	 146058115	 166114.
01:58:02 1410 1411	 1492567082	 307920060	 161862.
01:58:02 1411 1412	 1492567082	 469970072	 162050.
01:58:02 1412 1413	 1492567082	 635911717	 165941.
01:58:02 1413 1414	 1492567082	 797253149	 161342.
01:58:02 1414 1415	 1492567082	 962724680	 165471.
01:58:03 1415 1416	 1492567083	 95577732	 132853.
01:58:03 1416 1417	 1492567083	 257065204	 161488.
01:58:03 1417 1418	 1492567083	 422907652	 165842.
01:58:03 1418 1419	 1492567083	 584357547	 161450.
01:58:03 1419 1420	 1492567083	 749929358	 165572.
01:58:03 1420 1421	 1492567083	 883038787	 133109.
01:58:04 1421 1422	 1492567084	 44355487	 161317.
01:58:04 1422 1423	 1492567084	 209971957	 165617.
01:58:04 1423 1424	 1492567084	 371430197	 161458.
01:58:04 1424 1425	 1492567084	 537178667	 165748.
01:58:04 1425 1426	 1492567084	 698834864	 161657.
01:58:04 1426 1427	 1492567084	 836192381	 137357.
01:58:04 1427 1428	 1492567085	 2209228	 166017.
01:58:05 1428 1429	 1492567085	 163928355	 161719.
01:58:05 1429 1430	 1492567085	 329897791	 165970.
01:58:05 1430 1431	 1492567085	 491731759	 161833.
01:58:05 1431 1432	 1492567085	 653518283	 161787.
01:58:05 1432 1433	 1492567085	 819324936	 165807.
01:58:05 1433 1434	 1492567085	 981147157	 161822.
01:58:06 1434 1435	 1492567086	 147040155	 165893.
01:58:06 1435 1436	 1492567086	 280224833	 133185.
01:58:06 1436 1437	 1492567086	 442254599	 162029.
01:58:06 1437 1438	 1492567086	 608015453	 165761.
01:58:06 1438 1439	 1492567086	 769827896	 161813.
01:58:06 1439 1440	 1492567086	 935642613	 165814.
01:58:07 1440 1441	 1492567087	 97230254	 161588.
01:58:07 1441 1442	 1492567087	 258933473	 161703.
01:58:07 1442 1443	 1492567087	 395955971	 137023.
01:58:07 1443 1444	 1492567087	 557749492	 161793.
01:58:07 1444 1445	 1492567087	 723564857	 165816.
01:58:07 1445 1446	 1492567087	 885398651	 161833.
01:58:08 1446 1447	 1492567088	 51583110	 166185.
01:58:08 1447 1448	 1492567088	 213630309	 162047.
01:58:08 1448 1449	 1492567088	 375570930	 161941.
01:58:08 1449 1450	 1492567088	 541622711	 166051.
01:58:08 1450 1451	 1492567088	 703367189	 161745.
01:58:08 1451 1452	 1492567088	 840581373	 137214.
01:58:08 1452 1453	 1492567089	 2521259	 161940.
01:58:09 1453 1454	 1492567089	 164279128	 161758.
01:58:09 1454 1455	 1492567089	 330142222	 165863.
01:58:09 1455 1456	 1492567089	 492072215	 161930.
01:58:09 1456 1457	 1492567089	 657806622	 165734.
01:58:09 1457 1458	 1492567089	 819699948	 161894.
01:58:09 1458 1459	 1492567089	 985747661	 166047.
01:58:10 1459 1460	 1492567090	 118700481	 132953.
01:58:10 1460 1461	 1492567090	 280063452	 161363.
01:58:10 1461 1462	 1492567090	 445875915	 165813.
01:58:10 1462 1463	 1492567090	 607870764	 161995.
01:58:10 1463 1464	 1492567090	 773629103	 165758.
01:58:10 1464 1465	 1492567090	 935597283	 161968.
01:58:11 1465 1466	 1492567091	 101537183	 165940.
01:58:11 1466 1467	 1492567091	 263629369	 162092.
01:58:11 1467 1468	 1492567091	 400980136	 137351.
01:58:11 1468 1469	 1492567091	 562793470	 161813.
01:58:11 1469 1470	 1492567091	 724502458	 161709.
01:58:11 1470 1471	 1492567091	 890371121	 165869.
01:58:12 1471 1472	 1492567092	 52126578	 161755.
01:58:12 1472 1473	 1492567092	 218025672	 165899.
01:58:12 1473 1474	 1492567092	 379718782	 161694.
01:58:12 1474 1475	 1492567092	 512719723	 133000.
01:58:12 1475 1476	 1492567092	 678537031	 165818.
01:58:12 1476 1477	 1492567092	 840657511	 162120.
01:58:13 1477 1478	 1492567093	 6500478	 165843.
01:58:13 1478 1479	 1492567093	 168224219	 161724.
01:58:13 1479 1480	 1492567093	 330090834	 161867.
01:58:13 1480 1481	 1492567093	 495568763	 165478.
01:58:13 1481 1482	 1492567093	 657260840	 161692.
01:58:13 1482 1483	 1492567093	 794404608	 137143.
01:58:13 1483 1484	 1492567093	 956379476	 161975.
01:58:14 1484 1485	 1492567094	 122543954	 166165.
01:58:14 1485 1486	 1492567094	 284750011	 162206.
01:58:14 1486 1487	 1492567094	 450948327	 166198.
01:58:14 1487 1488	 1492567094	 613111129	 162163.
01:58:14 1488 1489	 1492567094	 779506823	 166396.
01:58:14 1489 1490	 1492567094	 941661631	 162154.
01:58:15 1490 1491	 1492567095	 103722988	 162062.
01:58:15 1491 1492	 1492567095	 269919545	 166196.
01:58:15 1492 1493	 1492567095	 436322136	 166403.
01:58:15 1493 1494	 1492567095	 598817545	 162495.
01:58:15 1494 1495	 1492567095	 736015146	 137198.
01:58:15 1495 1496	 1492567095	 898346733	 162331.
01:58:16 1496 1497	 1492567096	 60466934	 162121.
01:58:16 1497 1498	 1492567096	 226729206	 166262.
01:58:16 1498 1499	 1492567096	 388706860	 161978.
01:58:16 1499 1500	 1492567096	 555202877	 166496.
01:58:16 1500 1501	 1492567096	 717419591	 162216.
01:58:16 1501 1502	 1492567096	 883986746	 166567.
01:58:17 1502 1503	 1492567097	 46567809	 162582.
01:58:17 1503 1504	 1492567097	 208637411	 162069.
01:58:17 1504 1505	 1492567097	 374218242	 165581.
01:58:17 1505 1506	 1492567097	 507448668	 133230.
01:58:17 1506 1507	 1492567097	 673178130	 165730.
01:58:17 1507 1508	 1492567097	 834754775	 161576.
01:58:17 1508 1509	 1492567097	 997453644	 162700.
01:58:18 1509 1510	 1492567098	 159151307	 161697.
01:58:18 1510 1511	 1492567098	 320736702	 161585.
01:58:18 1511 1512	 1492567098	 482231171	 161495.
01:58:18 1512 1513	 1492567098	 648265406	 166034.
01:58:18 1513 1514	 1492567098	 810040005	 161775.
01:58:18 1514 1515	 1492567098	 971695158	 161655.
01:58:19 1515 1516	 1492567099	 108879800	 137185.
01:58:19 1516 1517	 1492567099	 270672528	 161792.
01:58:19 1517 1518	 1492567099	 436478502	 165806.
01:58:19 1518 1519	 1492567099	 598464964	 161987.
01:58:19 1519 1520	 1492567099	 760495850	 162031.
01:58:19 1520 1521	 1492567099	 926042362	 165546.
01:58:20 1521 1522	 1492567100	 87659483	 161617.
01:58:20 1522 1523	 1492567100	 224912906	 137254.
01:58:20 1523 1524	 1492567100	 386688508	 161775.
01:58:20 1524 1525	 1492567100	 552573591	 165885.
01:58:20 1525 1526	 1492567100	 714180585	 161607.
01:58:20 1526 1527	 1492567100	 876084396	 161904.
01:58:21 1527 1528	 1492567101	 41919640	 165835.
01:58:21 1528 1529	 1492567101	 203702926	 161784.
01:58:21 1529 1530	 1492567101	 369508239	 165805.
01:58:21 1530 1531	 1492567101	 502697279	 133189.
01:58:21 1531 1532	 1492567101	 668500853	 165804.
01:58:21 1532 1533	 1492567101	 829994032	 161493.
01:58:21 1533 1534	 1492567101	 991921660	 161927.
01:58:22 1534 1535	 1492567102	 157801557	 165880.
01:58:22 1535 1536	 1492567102	 319339711	 161538.
01:58:22 1536 1537	 1492567102	 452586280	 133247.
01:58:22 1537 1538	 1492567102	 618288254	 165702.
01:58:22 1538 1539	 1492567102	 779735729	 161448.
01:58:22 1539 1540	 1492567102	 945423479	 165687.
01:58:23 1540 1541	 1492567103	 106838582	 161415.
01:58:23 1541 1542	 1492567103	 268746477	 161908.
01:58:23 1542 1543	 1492567103	 405683828	 136938.
01:58:23 1543 1544	 1492567103	 567713730	 162029.
01:58:23 1544 1545	 1492567103	 733497345	 165784.
01:58:23 1545 1546	 1492567103	 895021817	 161525.
01:58:24 1546 1547	 1492567104	 32426700	 137404.
01:58:24 1547 1548	 1492567104	 194045569	 161619.
01:58:24 1548 1549	 1492567104	 360109417	 166064.
01:58:24 1549 1550	 1492567104	 522016412	 161907.
01:58:24 1550 1551	 1492567104	 687600066	 165584.
01:58:24 1551 1552	 1492567104	 820717506	 133117.
01:58:24 1552 1553	 1492567104	 986265681	 165548.
01:58:25 1553 1554	 1492567105	 148019775	 161754.
01:58:25 1554 1555	 1492567105	 313676823	 165658.
01:58:25 1555 1556	 1492567105	 475754538	 162077.
01:58:25 1556 1557	 1492567105	 612542812	 136789.
01:58:25 1557 1558	 1492567105	 773977156	 161434.
01:58:25 1558 1559	 1492567105	 939741927	 165765.
01:58:26 1559 1560	 1492567106	 101381581	 161639.
01:58:26 1560 1561	 1492567106	 238413482	 137032.
01:58:26 1561 1562	 1492567106	 400701019	 162288.
01:58:26 1562 1563	 1492567106	 566920390	 166219.
01:58:26 1563 1564	 1492567106	 728626952	 161707.
01:58:26 1564 1565	 1492567106	 894142038	 165515.
01:58:27 1565 1566	 1492567107	 55496293	 161354.
01:58:27 1566 1567	 1492567107	 188700506	 133204.
01:58:27 1567 1568	 1492567107	 354382658	 165682.
01:58:27 1568 1569	 1492567107	 516557800	 162176.
01:58:27 1569 1570	 1492567107	 682885970	 166328.
01:58:27 1570 1571	 1492567107	 844845986	 161960.
01:58:28 1571 1572	 1492567108	 11312500	 166466.
01:58:28 1572 1573	 1492567108	 173551031	 162239.
01:58:28 1573 1574	 1492567108	 311041962	 137491.
01:58:28 1574 1575	 1492567108	 473175962	 162134.
01:58:28 1575 1576	 1492567108	 639436121	 166260.
01:58:28 1576 1577	 1492567108	 801439899	 162004.
01:58:28 1577 1578	 1492567108	 967240794	 165801.
01:58:29 1578 1579	 1492567109	 100178949	 132938.
01:58:29 1579 1580	 1492567109	 267095176	 166916.
01:58:29 1580 1581	 1492567109	 425114949	 158020.
01:58:29 1581 1582	 1492567109	 587059061	 161944.
01:58:29 1582 1583	 1492567109	 753374320	 166315.
01:58:29 1583 1584	 1492567109	 915211182	 161837.
01:58:30 1584 1585	 1492567110	 81120688	 165909.
01:58:30 1585 1586	 1492567110	 243070899	 161951.
01:58:30 1586 1587	 1492567110	 380509424	 137438.
01:58:30 1587 1588	 1492567110	 542676332	 162167.
01:58:30 1588 1589	 1492567110	 708830811	 166155.
01:58:30 1589 1590	 1492567110	 870669180	 161838.
01:58:31 1590 1591	 1492567111	 37321613	 166652.
01:58:31 1591 1592	 1492567111	 199942095	 162621.
01:58:31 1592 1593	 1492567111	 366135007	 166193.
01:58:31 1593 1594	 1492567111	 532585065	 166450.
01:58:31 1594 1595	 1492567111	 695013943	 162429.
01:58:31 1595 1596	 1492567111	 832643412	 137629.
01:58:31 1596 1597	 1492567111	 994763048	 162120.
01:58:32 1597 1598	 1492567112	 156608614	 161845.
01:58:32 1598 1599	 1492567112	 322846636	 166238.
01:58:32 1599 1600	 1492567112	 484907608	 162061.
01:58:32 1600 1601	 1492567112	 651184496	 166277.
01:58:32 1601 1602	 1492567112	 813398366	 162214.
01:58:32 1602 1603	 1492567112	 979576668	 166178.
01:58:33 1603 1604	 1492567113	 141879265	 162303.
01:58:33 1604 1605	 1492567113	 304255902	 162377.
01:58:33 1605 1606	 1492567113	 470653046	 166397.
01:58:33 1606 1607	 1492567113	 632408329	 161755.
01:58:33 1607 1608	 1492567113	 794641044	 162233.
01:58:33 1608 1609	 1492567113	 960752848	 166112.
01:58:34 1609 1610	 1492567114	 122781159	 162028.
01:58:34 1610 1611	 1492567114	 288824114	 166043.
01:58:34 1611 1612	 1492567114	 451008747	 162184.
01:58:34 1612 1613	 1492567114	 612864227	 161856.
01:58:34 1613 1614	 1492567114	 779009782	 166145.
01:58:34 1614 1615	 1492567114	 941182089	 162173.
01:58:35 1615 1616	 1492567115	 107208069	 166026.
01:58:35 1616 1617	 1492567115	 269243170	 162035.
01:58:35 1617 1618	 1492567115	 435403411	 166160.
01:58:35 1618 1619	 1492567115	 597461998	 162059.
01:58:35 1619 1620	 1492567115	 759832253	 162370.
01:58:35 1620 1621	 1492567115	 926501644	 166669.
01:58:36 1621 1622	 1492567116	 93083120	 166582.
01:58:36 1622 1623	 1492567116	 255773070	 162690.
01:58:36 1623 1624	 1492567116	 422095247	 166322.
01:58:36 1624 1625	 1492567116	 555316976	 133222.
01:58:36 1625 1626	 1492567116	 721821407	 166504.
01:58:36 1626 1627	 1492567116	 884429139	 162608.
01:58:37 1627 1628	 1492567117	 50906662	 166477.
01:58:37 1628 1629	 1492567117	 213261508	 162355.
01:58:37 1629 1630	 1492567117	 379718031	 166457.
01:58:37 1630 1631	 1492567117	 542154986	 162437.
01:58:37 1631 1632	 1492567117	 708567675	 166413.
01:58:37 1632 1633	 1492567117	 870765394	 162197.
01:58:38 1633 1634	 1492567118	 37136298	 166371.
01:58:38 1634 1635	 1492567118	 199559298	 162423.
01:58:38 1635 1636	 1492567118	 365365579	 165807.
01:58:38 1636 1637	 1492567118	 498543112	 133177.
01:58:38 1637 1638	 1492567118	 664264404	 165721.
01:58:38 1638 1639	 1492567118	 825950128	 161686.
01:58:38 1639 1640	 1492567118	 987535802	 161586.
01:58:39 1640 1641	 1492567119	 153207656	 165671.
01:58:39 1641 1642	 1492567119	 286067477	 132860.
01:58:39 1642 1643	 1492567119	 451881666	 165814.
01:58:39 1643 1644	 1492567119	 613659504	 161778.
01:58:39 1644 1645	 1492567119	 775560904	 161902.
01:58:39 1645 1646	 1492567119	 941325843	 165765.
01:58:40 1646 1647	 1492567120	 107386363	 166060.
01:58:40 1647 1648	 1492567120	 269049933	 161664.
01:58:40 1648 1649	 1492567120	 430940478	 161890.
01:58:40 1649 1650	 1492567120	 568256572	 137316.
01:58:40 1650 1651	 1492567120	 734183609	 165927.
01:58:40 1651 1652	 1492567120	 896182302	 161999.
01:58:41 1652 1653	 1492567121	 58249640	 162067.
01:58:41 1653 1654	 1492567121	 224045208	 165796.
01:58:41 1654 1655	 1492567121	 385454651	 161409.
01:58:41 1655 1656	 1492567121	 551871966	 166418.
01:58:41 1656 1657	 1492567121	 713768453	 161896.
01:58:41 1657 1658	 1492567121	 846571246	 132803.
01:58:42 1658 1659	 1492567122	 12394876	 165824.
01:58:42 1659 1660	 1492567122	 174066550	 161671.
01:58:42 1660 1661	 1492567122	 340017943	 165952.
01:58:42 1661 1662	 1492567122	 502020368	 162002.
01:58:42 1662 1663	 1492567122	 668050620	 166030.
01:58:42 1663 1664	 1492567122	 830558689	 162508.
01:58:42 1664 1665	 1492567122	 996907734	 166349.
01:58:43 1665 1666	 1492567123	 129845182	 132938.
01:58:43 1666 1667	 1492567123	 295692747	 165847.
01:58:43 1667 1668	 1492567123	 457259587	 161567.
01:58:43 1668 1669	 1492567123	 623368301	 166109.
01:58:43 1669 1670	 1492567123	 785467472	 162099.
01:58:43 1670 1671	 1492567123	 922524903	 137058.
01:58:44 1671 1672	 1492567124	 84428196	 161903.
01:58:44 1672 1673	 1492567124	 250380376	 165952.
01:58:44 1673 1674	 1492567124	 412306107	 161926.
01:58:44 1674 1675	 1492567124	 549580782	 137275.
01:58:44 1675 1676	 1492567124	 711430751	 161849.
01:58:44 1676 1677	 1492567124	 877205869	 165776.
01:58:45 1677 1678	 1492567125	 39430658	 162224.
01:58:45 1678 1679	 1492567125	 205471987	 166042.
01:58:45 1679 1680	 1492567125	 367277166	 161805.
01:58:45 1680 1681	 1492567125	 505002359	 137725.
01:58:45 1681 1682	 1492567125	 667611604	 162609.
01:58:45 1682 1683	 1492567125	 833807705	 166196.
01:58:45 1683 1684	 1492567125	 996270197	 162463.
01:58:46 1684 1685	 1492567126	 162599117	 166329.
01:58:46 1685 1686	 1492567126	 324731638	 162132.
01:58:46 1686 1687	 1492567126	 491144391	 166413.
01:58:46 1687 1688	 1492567126	 657655857	 166512.
01:58:46 1688 1689	 1492567126	 820092717	 162436.
01:58:46 1689 1690	 1492567126	 986705075	 166613.
01:58:47 1690 1691	 1492567127	 148596479	 161891.
01:58:47 1691 1692	 1492567127	 310463953	 161868.
01:58:47 1692 1693	 1492567127	 476441264	 165977.
01:58:47 1693 1694	 1492567127	 609735517	 133294.
01:58:47 1694 1695	 1492567127	 775595157	 165860.
01:58:47 1695 1696	 1492567127	 937260069	 161665.
01:58:48 1696 1697	 1492567128	 99224568	 161964.
01:58:48 1697 1698	 1492567128	 264839066	 165615.
01:58:48 1698 1699	 1492567128	 426575274	 161736.
01:58:48 1699 1700	 1492567128	 592445238	 165870.
01:58:48 1700 1701	 1492567128	 754327817	 161883.
01:58:48 1701 1702	 1492567128	 920045865	 165718.
01:58:49 1702 1703	 1492567129	 53275676	 133229.
01:58:49 1703 1704	 1492567129	 219665550	 166390.
01:58:49 1704 1705	 1492567129	 381859717	 162194.
01:58:49 1705 1706	 1492567129	 548173498	 166314.
01:58:49 1706 1707	 1492567129	 709984898	 161812.
01:58:49 1707 1708	 1492567129	 876089100	 166104.
01:58:50 1708 1709	 1492567130	 37965887	 161877.
01:58:50 1709 1710	 1492567130	 174951889	 136986.
01:58:50 1710 1711	 1492567130	 336974433	 162022.
01:58:50 1711 1712	 1492567130	 503219058	 166245.
01:58:50 1712 1713	 1492567130	 665305467	 162086.
01:58:50 1713 1714	 1492567130	 826891373	 161586.
01:58:50 1714 1715	 1492567130	 964209235	 137318.
01:58:51 1715 1716	 1492567131	 130406631	 166197.
01:58:51 1716 1717	 1492567131	 291900639	 161494.
01:58:51 1717 1718	 1492567131	 457969049	 166069.
01:58:51 1718 1719	 1492567131	 620121568	 162152.
01:58:51 1719 1720	 1492567131	 753099228	 132978.
01:58:51 1720 1721	 1492567131	 918814323	 165715.
01:58:52 1721 1722	 1492567132	 102322294	 183508.
01:58:52 1722 1723	 1492567132	 235246697	 132924.
01:58:52 1723 1724	 1492567132	 396759197	 161513.
01:58:52 1724 1725	 1492567132	 562580818	 165822.
01:58:52 1725 1726	 1492567132	 724199404	 161618.
01:58:52 1726 1727	 1492567132	 890163152	 165964.
01:58:53 1727 1728	 1492567133	 51756739	 161593.
01:58:53 1728 1729	 1492567133	 184659710	 132903.
01:58:53 1729 1730	 1492567133	 350629147	 165970.
01:58:53 1730 1731	 1492567133	 512321127	 161692.
01:58:53 1731 1732	 1492567133	 678115158	 165794.
01:58:53 1732 1733	 1492567133	 839605769	 161490.
01:58:53 1733 1734	 1492567134	 1249379	 161644.
01:58:54 1734 1735	 1492567134	 138189059	 136940.
01:58:54 1735 1736	 1492567134	 299885798	 161697.
01:58:54 1736 1737	 1492567134	 465434471	 165548.
01:58:54 1737 1738	 1492567134	 626985690	 161551.
01:58:54 1738 1739	 1492567134	 792504010	 165519.
01:58:54 1739 1740	 1492567134	 925293741	 132789.
01:58:55 1740 1741	 1492567135	 90828414	 165535.
01:58:55 1741 1742	 1492567135	 252336782	 161508.
01:58:55 1742 1743	 1492567135	 418046699	 165710.
01:58:55 1743 1744	 1492567135	 579772171	 161726.
01:58:55 1744 1745	 1492567135	 716783611	 137011.
01:58:55 1745 1746	 1492567135	 878882939	 162100.
01:58:56 1746 1747	 1492567136	 44952207	 166069.
01:58:56 1747 1748	 1492567136	 206955602	 162003.
01:58:56 1748 1749	 1492567136	 372538639	 165583.
01:58:56 1749 1750	 1492567136	 506042708	 133504.
01:58:56 1750 1751	 1492567136	 671962073	 165920.
01:58:56 1751 1752	 1492567136	 833677462	 161715.
01:58:56 1752 1753	 1492567136	 995145440	 161468.
01:58:57 1753 1754	 1492567137	 161152512	 166007.
01:58:57 1754 1755	 1492567137	 294007371	 132855.
01:58:57 1755 1756	 1492567137	 460188617	 166181.
01:58:57 1756 1757	 1492567137	 622314219	 162126.
01:58:57 1757 1758	 1492567137	 788232216	 165918.
01:58:57 1758 1759	 1492567137	 950048513	 161816.
01:58:58 1759 1760	 1492567138	 87309143	 137261.
01:58:58 1760 1761	 1492567138	 249296768	 161987.
01:58:58 1761 1762	 1492567138	 415272444	 165976.
01:58:58 1762 1763	 1492567138	 576908167	 161636.
01:58:58 1763 1764	 1492567138	 742675541	 165767.
01:58:58 1764 1765	 1492567138	 876296205	 133621.
01:58:59 1765 1766	 1492567139	 42452693	 166156.
01:58:59 1766 1767	 1492567139	 204392369	 161940.
01:58:59 1767 1768	 1492567139	 370157600	 165765.
01:58:59 1768 1769	 1492567139	 532083178	 161926.
01:58:59 1769 1770	 1492567139	 669305562	 137222.
01:58:59 1770 1771	 1492567139	 831464961	 162160.
01:58:59 1771 1772	 1492567139	 997285657	 165820.
01:59:00 1772 1773	 1492567140	 159452861	 162168.
01:59:00 1773 1774	 1492567140	 325621543	 166168.
01:59:00 1774 1775	 1492567140	 487390922	 161770.
01:59:00 1775 1776	 1492567140	 624479296	 137088.
01:59:00 1776 1777	 1492567140	 786080047	 161601.
01:59:00 1777 1778	 1492567140	 947757373	 161677.
01:59:01 1778 1779	 1492567141	 113588711	 165831.
01:59:01 1779 1780	 1492567141	 275039477	 161451.
01:59:01 1780 1781	 1492567141	 440908646	 165869.
01:59:01 1781 1782	 1492567141	 602716052	 161808.
01:59:01 1782 1783	 1492567141	 764163443	 161447.
01:59:01 1783 1784	 1492567141	 900838408	 136675.
01:59:02 1784 1785	 1492567142	 62526840	 161689.
01:59:02 1785 1786	 1492567142	 228139596	 165612.
01:59:02 1786 1787	 1492567142	 389732220	 161593.
01:59:02 1787 1788	 1492567142	 555611130	 165879.
01:59:02 1788 1789	 1492567142	 688520298	 132909.
01:59:02 1789 1790	 1492567142	 850184224	 161664.
01:59:03 1790 1791	 1492567143	 15884607	 165700.
01:59:03 1791 1792	 1492567143	 177617899	 161734.
01:59:03 1792 1793	 1492567143	 336049858	 158432.
01:59:03 1793 1794	 1492567143	 501662388	 165612.
01:59:03 1794 1795	 1492567143	 663146965	 161485.
01:59:03 1795 1796	 1492567143	 800069638	 136922.
01:59:03 1796 1797	 1492567143	 961677342	 161608.
01:59:04 1797 1798	 1492567144	 123564394	 161887.
01:59:04 1798 1799	 1492567144	 289329029	 165765.
01:59:04 1799 1800	 1492567144	 451289256	 161960.
01:59:04 1800 1801	 1492567144	 613073996	 161785.
01:59:04 1801 1802	 1492567144	 778756070	 165682.
01:59:04 1802 1803	 1492567144	 911897530	 133141.
01:59:05 1803 1804	 1492567145	 77543815	 165647.
01:59:05 1804 1805	 1492567145	 239202846	 161659.
01:59:05 1805 1806	 1492567145	 405013161	 165810.
01:59:05 1806 1807	 1492567145	 566830304	 161817.
01:59:05 1807 1808	 1492567145	 732567947	 165738.
01:59:05 1808 1809	 1492567145	 865599658	 133031.
01:59:06 1809 1810	 1492567146	 31659985	 166061.
01:59:06 1810 1811	 1492567146	 193603681	 161943.
01:59:06 1811 1812	 1492567146	 359477116	 165874.
01:59:06 1812 1813	 1492567146	 521497433	 162020.
01:59:06 1813 1814	 1492567146	 683299554	 161802.
01:59:06 1814 1815	 1492567146	 849375254	 166076.
01:59:07 1815 1816	 1492567147	 11074899	 161700.
01:59:07 1816 1817	 1492567147	 148041374	 136966.
01:59:07 1817 1818	 1492567147	 309659289	 161618.
01:59:07 1818 1819	 1492567147	 475188506	 165529.
01:59:07 1819 1820	 1492567147	 636711578	 161523.
01:59:07 1820 1821	 1492567147	 802118564	 165407.
01:59:07 1821 1822	 1492567147	 935011992	 132894.
01:59:08 1822 1823	 1492567148	 96662883	 161651.
01:59:08 1823 1824	 1492567148	 262331535	 165668.
01:59:08 1824 1825	 1492567148	 424078097	 161747.
01:59:08 1825 1826	 1492567148	 589749079	 165671.
01:59:08 1826 1827	 1492567148	 751377793	 161629.
01:59:08 1827 1828	 1492567148	 884492473	 133114.
01:59:09 1828 1829	 1492567149	 50485987	 165994.
01:59:09 1829 1830	 1492567149	 212278043	 161792.
01:59:09 1830 1831	 1492567149	 374172280	 161894.
01:59:09 1831 1832	 1492567149	 540068332	 165896.
01:59:09 1832 1833	 1492567149	 701774459	 161706.
01:59:09 1833 1834	 1492567149	 867863876	 166090.
01:59:10 1834 1835	 1492567150	 29710134	 161846.
01:59:10 1835 1836	 1492567150	 195625848	 165916.
01:59:10 1836 1837	 1492567150	 328774696	 133148.
01:59:10 1837 1838	 1492567150	 490589451	 161815.
01:59:10 1838 1839	 1492567150	 656462886	 165874.
01:59:10 1839 1840	 1492567150	 818260287	 161797.
01:59:10 1840 1841	 1492567150	 979960938	 161701.
01:59:11 1841 1842	 1492567151	 145610651	 165649.
01:59:11 1842 1843	 1492567151	 307691868	 162082.
01:59:11 1843 1844	 1492567151	 473192146	 165500.
01:59:11 1844 1845	 1492567151	 606289755	 133097.
01:59:11 1845 1846	 1492567151	 767950433	 161661.
01:59:11 1846 1847	 1492567151	 933685795	 165735.
01:59:12 1847 1848	 1492567152	 95428750	 161744.
01:59:12 1848 1849	 1492567152	 261309179	 165880.
01:59:12 1849 1850	 1492567152	 423192010	 161883.
01:59:12 1850 1851	 1492567152	 584917821	 161726.
01:59:12 1851 1852	 1492567152	 750770117	 165852.
01:59:12 1852 1853	 1492567152	 883402784	 132632.
01:59:13 1853 1854	 1492567153	 49287687	 165885.
01:59:13 1854 1855	 1492567153	 210985280	 161698.
01:59:13 1855 1856	 1492567153	 372294641	 161309.
01:59:13 1856 1857	 1492567153	 537843275	 165549.
01:59:13 1857 1858	 1492567153	 699334826	 161492.
01:59:13 1858 1859	 1492567153	 836274340	 136939.
01:59:13 1859 1860	 1492567153	 997980728	 161706.
01:59:14 1860 1861	 1492567154	 159381066	 161401.
01:59:14 1861 1862	 1492567154	 325382448	 166001.
01:59:14 1862 1863	 1492567154	 491351911	 165970.
01:59:14 1863 1864	 1492567154	 653509460	 162157.
01:59:14 1864 1865	 1492567154	 815325674	 161816.
01:59:14 1865 1866	 1492567154	 952173240	 136848.
01:59:15 1866 1867	 1492567155	 114024099	 161851.
01:59:15 1867 1868	 1492567155	 280027783	 166004.
01:59:15 1868 1869	 1492567155	 442226651	 162198.
01:59:15 1869 1870	 1492567155	 607985009	 165759.
01:59:15 1870 1871	 1492567155	 741091429	 133106.
01:59:15 1871 1872	 1492567155	 906936058	 165845.
01:59:16 1872 1873	 1492567156	 68880360	 161944.
01:59:16 1873 1874	 1492567156	 235044010	 166164.
01:59:16 1874 1875	 1492567156	 401492807	 166449.
01:59:16 1875 1876	 1492567156	 563835041	 162342.
01:59:16 1876 1877	 1492567156	 696917309	 133082.
01:59:16 1877 1878	 1492567156	 862662419	 165745.
01:59:17 1878 1879	 1492567157	 24550303	 161888.
01:59:17 1879 1880	 1492567157	 190690979	 166141.
01:59:17 1880 1881	 1492567157	 352986165	 162295.
01:59:17 1881 1882	 1492567157	 519048900	 166063.
01:59:17 1882 1883	 1492567157	 680897833	 161849.
01:59:17 1883 1884	 1492567157	 842900874	 162003.
