20:13:28    0 Step	 time(s)	 time(ns)	 delta(ms)
20:13:28    0 1	 1492632808	 382237831	 912.
20:13:28    1 2	 1492632808	 544261352	 162024.
20:13:28    2 3	 1492632808	 710723511	 166462.
20:13:28    3 4	 1492632808	 872797895	 162075.
20:13:29    4 5	 1492632809	 38490559	 165692.
20:13:29    5 6	 1492632809	 200672496	 162182.
20:13:29    6 7	 1492632809	 338297323	 137625.
20:13:29    7 8	 1492632809	 500393168	 162096.
20:13:29    8 9	 1492632809	 666495716	 166102.
20:13:29    9 10	 1492632809	 832827547	 166332.
20:13:29   10 11	 1492632809	 994977800	 162150.
20:13:30   11 12	 1492632810	 161125508	 166148.
20:13:30   12 13	 1492632810	 294208135	 133083.
20:13:30   13 14	 1492632810	 456146167	 161938.
20:13:30   14 15	 1492632810	 622093610	 165947.
20:13:30   15 16	 1492632810	 788106868	 166014.
20:13:30   16 17	 1492632810	 950208965	 162102.
20:13:31   17 18	 1492632811	 116321753	 166112.
20:13:31   18 19	 1492632811	 249562931	 133242.
20:13:31   19 20	 1492632811	 415703238	 166140.
20:13:31   20 21	 1492632811	 577794134	 162091.
20:13:31   21 22	 1492632811	 743685111	 165891.
20:13:31   22 23	 1492632811	 905824434	 162139.
20:13:32   23 24	 1492632812	 72264100	 166440.
20:13:32   24 25	 1492632812	 205447353	 133183.
20:13:32   25 26	 1492632812	 371726753	 166279.
20:13:32   26 27	 1492632812	 533789111	 162063.
20:13:32   27 28	 1492632812	 699833904	 166045.
20:13:32   28 29	 1492632812	 861812136	 161978.
20:13:33   29 30	 1492632813	 27733503	 165921.
20:13:33   30 31	 1492632813	 190068052	 162335.
20:13:33   31 32	 1492632813	 327221499	 137153.
20:13:33   32 33	 1492632813	 489397121	 162176.
20:13:33   33 34	 1492632813	 655505277	 166108.
20:13:33   34 35	 1492632813	 817862129	 162357.
20:13:33   35 36	 1492632813	 975460249	 157598.
20:13:34   36 37	 1492632814	 136973845	 161514.
20:13:34   37 38	 1492632814	 302738688	 165764.
20:13:34   38 39	 1492632814	 464230583	 161492.
20:13:34   39 40	 1492632814	 596952291	 132722.
20:13:34   40 41	 1492632814	 762810869	 165859.
20:13:34   41 42	 1492632814	 924515807	 161704.
20:13:35   42 43	 1492632815	 90350143	 165835.
20:13:35   43 44	 1492632815	 251990130	 161640.
20:13:35   44 45	 1492632815	 389192332	 137202.
20:13:35   45 46	 1492632815	 551016698	 161824.
20:13:35   46 47	 1492632815	 716717582	 165701.
20:13:35   47 48	 1492632815	 878295289	 161578.
20:13:36   48 49	 1492632816	 15225203	 136930.
20:13:36   49 50	 1492632816	 176813440	 161588.
20:13:36   50 51	 1492632816	 342693209	 165880.
20:13:36   51 52	 1492632816	 504276683	 161583.
20:13:36   52 53	 1492632816	 641233556	 136957.
20:13:36   53 54	 1492632816	 802840793	 161608.
20:13:36   54 55	 1492632816	 968921934	 166081.
20:13:37   55 56	 1492632817	 135264756	 166342.
20:13:37   56 57	 1492632817	 297490145	 162226.
20:13:37   57 58	 1492632817	 463627020	 166137.
20:13:37   58 59	 1492632817	 625845193	 162218.
20:13:37   59 60	 1492632817	 763411195	 137566.
20:13:37   60 61	 1492632817	 925280744	 161869.
20:13:38   61 62	 1492632818	 87251213	 161971.
20:13:38   62 63	 1492632818	 253429380	 166178.
20:13:38   63 64	 1492632818	 419182684	 165753.
20:13:38   64 65	 1492632818	 581369951	 162188.
20:13:38   65 66	 1492632818	 719169052	 137799.
20:13:38   66 67	 1492632818	 881174405	 162005.
20:13:39   67 68	 1492632819	 47312857	 166139.
20:13:39   68 69	 1492632819	 209188237	 161875.
20:13:39   69 70	 1492632819	 371492205	 162304.
20:13:39   70 71	 1492632819	 537274245	 165782.
20:13:39   71 72	 1492632819	 670605625	 133331.
20:13:39   72 73	 1492632819	 836513771	 165908.
20:13:39   73 74	 1492632819	 998305587	 161792.
20:13:40   74 75	 1492632820	 164517477	 166212.
20:13:40   75 76	 1492632820	 326608369	 162091.
20:13:40   76 77	 1492632820	 492670778	 166062.
20:13:40   77 78	 1492632820	 625905642	 133235.
20:13:40   78 79	 1492632820	 792018712	 166113.
20:13:40   79 80	 1492632820	 953652196	 161634.
20:13:41   80 81	 1492632821	 119261793	 165610.
20:13:41   81 82	 1492632821	 281260014	 161998.
20:13:41   82 83	 1492632821	 418435599	 137175.
20:13:41   83 84	 1492632821	 580218245	 161783.
20:13:41   84 85	 1492632821	 746038384	 165820.
20:13:41   85 86	 1492632821	 907912530	 161874.
20:13:42   86 87	 1492632822	 74029171	 166117.
20:13:42   87 88	 1492632822	 207191236	 133162.
20:13:42   88 89	 1492632822	 373078838	 165888.
20:13:42   89 90	 1492632822	 535250418	 162171.
20:13:42   90 91	 1492632822	 701616812	 166367.
20:13:42   91 92	 1492632822	 863410445	 161793.
20:13:42   92 93	 1492632823	 695357	 137285.
20:13:43   93 94	 1492632823	 162290097	 161595.
20:13:43   94 95	 1492632823	 328112407	 165822.
20:13:43   95 96	 1492632823	 489799084	 161687.
20:13:43   96 97	 1492632823	 626958206	 137159.
20:13:43   97 98	 1492632823	 789083669	 162125.
20:13:43   98 99	 1492632823	 955196259	 166113.
20:13:44   99 100	 1492632824	 116979650	 161783.
20:13:44  100 101	 1492632824	 282859003	 165880.
20:13:44  101 102	 1492632824	 416007915	 133149.
20:13:44  102 103	 1492632824	 577926740	 161918.
20:13:44  103 104	 1492632824	 743445678	 165519.
20:13:44  104 105	 1492632824	 905282692	 161837.
20:13:45  105 106	 1492632825	 72435567	 167153.
20:13:45  106 107	 1492632825	 230676785	 158242.
20:13:45  107 108	 1492632825	 396805151	 166128.
20:13:45  108 109	 1492632825	 530195803	 133391.
20:13:45  109 110	 1492632825	 696510775	 166314.
20:13:45  110 111	 1492632825	 858762230	 162252.
20:13:46  111 112	 1492632826	 24753625	 165991.
20:13:46  112 113	 1492632826	 187061656	 162308.
20:13:46  113 114	 1492632826	 349638675	 162577.
20:13:46  114 115	 1492632826	 515812969	 166175.
20:13:46  115 116	 1492632826	 681992523	 166179.
20:13:46  116 117	 1492632826	 843992095	 162000.
20:13:47  117 118	 1492632827	 6505434	 162513.
20:13:47  118 119	 1492632827	 143906779	 137401.
20:13:47  119 120	 1492632827	 305878938	 161973.
20:13:47  120 121	 1492632827	 471972226	 166093.
20:13:47  121 122	 1492632827	 633934415	 161962.
20:13:47  122 123	 1492632827	 800254379	 166320.
20:13:47  123 124	 1492632827	 962443596	 162189.
20:13:48  124 125	 1492632828	 128293117	 165850.
20:13:48  125 126	 1492632828	 261644741	 133351.
20:13:48  126 127	 1492632828	 427512646	 165868.
20:13:48  127 128	 1492632828	 589386379	 161874.
20:13:48  128 129	 1492632828	 755502657	 166116.
20:13:48  129 130	 1492632828	 917600800	 162099.
20:13:49  130 131	 1492632829	 83529533	 165928.
20:13:49  131 132	 1492632829	 216686975	 133158.
20:13:49  132 133	 1492632829	 382167307	 165480.
20:13:49  133 134	 1492632829	 543661051	 161494.
20:13:49  134 135	 1492632829	 676542746	 132881.
20:13:49  135 136	 1492632829	 841935521	 165393.
20:13:49  136 137	 1492632830	 3659465	 161724.
20:13:50  137 138	 1492632830	 169605875	 165947.
20:13:50  138 139	 1492632830	 302743500	 133137.
20:13:50  139 140	 1492632830	 468337439	 165594.
20:13:50  140 141	 1492632830	 629903175	 161566.
20:13:50  141 142	 1492632830	 795547740	 165644.
20:13:50  142 143	 1492632830	 928518640	 132971.
20:13:51  143 144	 1492632831	 94690286	 166172.
20:13:51  144 145	 1492632831	 256874705	 162185.
20:13:51  145 146	 1492632831	 422678216	 165803.
20:13:51  146 147	 1492632831	 584583303	 161905.
20:13:51  147 148	 1492632831	 746551006	 161968.
20:13:51  148 149	 1492632831	 912388555	 165837.
20:13:52  149 150	 1492632832	 45447245	 133059.
20:13:52  150 151	 1492632832	 211308044	 165861.
20:13:52  151 152	 1492632832	 372734150	 161426.
20:13:52  152 153	 1492632832	 534457359	 161723.
20:13:52  153 154	 1492632832	 700120974	 165664.
20:13:52  154 155	 1492632832	 832849832	 132729.
20:13:52  155 156	 1492632832	 998187655	 165337.
20:13:53  156 157	 1492632833	 160168240	 161981.
20:13:53  157 158	 1492632833	 321561482	 161393.
20:13:53  158 159	 1492632833	 487644535	 166083.
20:13:53  159 160	 1492632833	 620580417	 132936.
20:13:53  160 161	 1492632833	 786277353	 165697.
20:13:53  161 162	 1492632833	 947875745	 161598.
20:13:54  162 163	 1492632834	 109549600	 161674.
20:13:54  163 164	 1492632834	 275513870	 165965.
20:13:54  164 165	 1492632834	 408466446	 132952.
20:13:54  165 166	 1492632834	 574295902	 165830.
20:13:54  166 167	 1492632834	 739860935	 165565.
20:13:54  167 168	 1492632834	 901328086	 161467.
20:13:55  168 169	 1492632835	 62863401	 161535.
20:13:55  169 170	 1492632835	 199709186	 136846.
20:13:55  170 171	 1492632835	 361732537	 162023.
20:13:55  171 172	 1492632835	 527678491	 165946.
20:13:55  172 173	 1492632835	 689373371	 161695.
20:13:55  173 174	 1492632835	 855001375	 165628.
20:13:56  174 175	 1492632836	 16622153	 161621.
20:13:56  175 176	 1492632836	 178697477	 162075.
20:13:56  176 177	 1492632836	 315839800	 137143.
20:13:56  177 178	 1492632836	 477778307	 161938.
20:13:56  178 179	 1492632836	 643464286	 165686.
20:13:56  179 180	 1492632836	 805205473	 161741.
20:13:56  180 181	 1492632836	 970827275	 165622.
20:13:57  181 182	 1492632837	 132628106	 161801.
20:13:57  182 183	 1492632837	 265697145	 133069.
20:13:57  183 184	 1492632837	 431395169	 165698.
20:13:57  184 185	 1492632837	 593048020	 161653.
20:13:57  185 186	 1492632837	 759048853	 166000.
20:13:57  186 187	 1492632837	 920961025	 161913.
20:13:58  187 188	 1492632838	 83000478	 162039.
20:13:58  188 189	 1492632838	 220216567	 137216.
20:13:58  189 190	 1492632838	 385993017	 165777.
20:13:58  190 191	 1492632838	 548010438	 162017.
20:13:58  191 192	 1492632838	 714068693	 166058.
20:13:58  192 193	 1492632838	 876032542	 161964.
20:13:59  193 194	 1492632839	 13309463	 137277.
20:13:59  194 195	 1492632839	 175091998	 161783.
20:13:59  195 196	 1492632839	 340640546	 165548.
20:13:59  196 197	 1492632839	 502353860	 161714.
20:13:59  197 198	 1492632839	 668227667	 165873.
20:13:59  198 199	 1492632839	 830008614	 161781.
20:13:59  199 200	 1492632839	 967217250	 137209.
20:14:00  200 201	 1492632840	 129005362	 161788.
20:14:00  201 202	 1492632840	 294857051	 165852.
20:14:00  202 203	 1492632840	 456700377	 161843.
20:14:00  203 204	 1492632840	 622952395	 166252.
20:14:00  204 205	 1492632840	 784803221	 161851.
20:14:00  205 206	 1492632840	 946497049	 161694.
20:14:01  206 207	 1492632841	 83651006	 137154.
20:14:01  207 208	 1492632841	 245348911	 161698.
20:14:01  208 209	 1492632841	 411155759	 165806.
20:14:01  209 210	 1492632841	 572794954	 161640.
20:14:01  210 211	 1492632841	 738443238	 165648.
20:14:01  211 212	 1492632841	 899971942	 161529.
20:14:02  212 213	 1492632842	 65861307	 165889.
20:14:02  213 214	 1492632842	 198924751	 133063.
20:14:02  214 215	 1492632842	 360612551	 161688.
20:14:02  215 216	 1492632842	 526360987	 165749.
20:14:02  216 217	 1492632842	 688181293	 161820.
20:14:02  217 218	 1492632842	 853970324	 165789.
20:14:03  218 219	 1492632843	 15780770	 161810.
20:14:03  219 220	 1492632843	 181536140	 165756.
20:14:03  220 221	 1492632843	 343325333	 161789.
20:14:03  221 222	 1492632843	 476346015	 133021.
20:14:03  222 223	 1492632843	 642054947	 165709.
20:14:03  223 224	 1492632843	 803735652	 161680.
20:14:03  224 225	 1492632843	 965392188	 161657.
20:14:04  225 226	 1492632844	 131147165	 165755.
20:14:04  226 227	 1492632844	 292722619	 161575.
20:14:04  227 228	 1492632844	 429658938	 136937.
20:14:04  228 229	 1492632844	 591708491	 162049.
20:14:04  229 230	 1492632844	 753583319	 161875.
20:14:04  230 231	 1492632844	 919466033	 165883.
20:14:05  231 232	 1492632845	 81087790	 161622.
20:14:05  232 233	 1492632845	 247133405	 166045.
20:14:05  233 234	 1492632845	 408977390	 161844.
20:14:05  234 235	 1492632845	 574913569	 165936.
20:14:05  235 236	 1492632845	 736708701	 161795.
20:14:05  236 237	 1492632845	 898546127	 161838.
20:14:06  237 238	 1492632846	 35865049	 137319.
20:14:06  238 239	 1492632846	 197729220	 161864.
20:14:06  239 240	 1492632846	 363570617	 165841.
20:14:06  240 241	 1492632846	 525394554	 161824.
20:14:06  241 242	 1492632846	 687235107	 161841.
20:14:06  242 243	 1492632846	 853202365	 165967.
20:14:07  243 244	 1492632847	 14974437	 161772.
20:14:07  244 245	 1492632847	 176511089	 161537.
20:14:07  245 246	 1492632847	 313533418	 137022.
20:14:07  246 247	 1492632847	 475672878	 162140.
20:14:07  247 248	 1492632847	 637327724	 161654.
20:14:07  248 249	 1492632847	 803444629	 166117.
20:14:07  249 250	 1492632847	 965068261	 161624.
20:14:08  250 251	 1492632848	 130603786	 165536.
20:14:08  251 252	 1492632848	 292121767	 161517.
20:14:08  252 253	 1492632848	 458156060	 166035.
20:14:08  253 254	 1492632848	 591450783	 133294.
20:14:08  254 255	 1492632848	 752995145	 161545.
20:14:08  255 256	 1492632848	 919010709	 166015.
20:14:09  256 257	 1492632849	 80639276	 161629.
20:14:09  257 258	 1492632849	 246454877	 165816.
20:14:09  258 259	 1492632849	 408109076	 161654.
20:14:09  259 260	 1492632849	 569574315	 161465.
20:14:09  260 261	 1492632849	 706613804	 137040.
20:14:09  261 262	 1492632849	 868625057	 162011.
20:14:10  262 263	 1492632850	 34427036	 165802.
20:14:10  263 264	 1492632850	 196058509	 161631.
20:14:10  264 265	 1492632850	 362016640	 165958.
20:14:10  265 266	 1492632850	 523964848	 161949.
20:14:10  266 267	 1492632850	 685452026	 161487.
20:14:10  267 268	 1492632850	 822508768	 137056.
20:14:10  268 269	 1492632850	 984294906	 161787.
20:14:11  269 270	 1492632851	 146283797	 161989.
20:14:11  270 271	 1492632851	 311996407	 165712.
20:14:11  271 272	 1492632851	 473809407	 161813.
20:14:11  272 273	 1492632851	 639633058	 165824.
20:14:11  273 274	 1492632851	 801358100	 161725.
20:14:11  274 275	 1492632851	 938698555	 137340.
20:14:12  275 276	 1492632852	 100323737	 161625.
20:14:12  276 277	 1492632852	 266326204	 166003.
20:14:12  277 278	 1492632852	 428074755	 161748.
20:14:12  278 279	 1492632852	 589785902	 161712.
20:14:12  279 280	 1492632852	 755702187	 165916.
20:14:12  280 281	 1492632852	 917394238	 161692.
20:14:13  281 282	 1492632853	 83072435	 165678.
20:14:13  282 283	 1492632853	 241501486	 158429.
20:14:13  283 284	 1492632853	 378504163	 137003.
20:14:13  284 285	 1492632853	 540794811	 162291.
20:14:13  285 286	 1492632853	 706997722	 166203.
20:14:13  286 287	 1492632853	 868830070	 161832.
20:14:14  287 288	 1492632854	 34592348	 165762.
20:14:14  288 289	 1492632854	 196574406	 161982.
20:14:14  289 290	 1492632854	 333796679	 137222.
20:14:14  290 291	 1492632854	 495474668	 161678.
20:14:14  291 292	 1492632854	 657346649	 161872.
20:14:14  292 293	 1492632854	 823245364	 165899.
20:14:14  293 294	 1492632854	 989221238	 165976.
20:14:15  294 295	 1492632855	 122635960	 133415.
20:14:15  295 296	 1492632855	 288438190	 165802.
20:14:15  296 297	 1492632855	 454582134	 166144.
20:14:15  297 298	 1492632855	 616605203	 162023.
20:14:15  298 299	 1492632855	 778504501	 161899.
20:14:15  299 300	 1492632855	 944794195	 166290.
20:14:16  300 301	 1492632856	 78019780	 133225.
20:14:16  301 302	 1492632856	 244176574	 166157.
20:14:16  302 303	 1492632856	 410142417	 165966.
20:14:16  303 304	 1492632856	 572047138	 161905.
20:14:16  304 305	 1492632856	 734046375	 161999.
20:14:16  305 306	 1492632856	 871126194	 137080.
20:14:17  306 307	 1492632857	 37026926	 165901.
20:14:17  307 308	 1492632857	 198394316	 161367.
20:14:17  308 309	 1492632857	 360278761	 161884.
20:14:17  309 310	 1492632857	 521980486	 161702.
20:14:17  310 311	 1492632857	 688149259	 166169.
20:14:17  311 312	 1492632857	 821370816	 133222.
20:14:17  312 313	 1492632857	 987795322	 166424.
20:14:18  313 314	 1492632858	 153679117	 165884.
20:14:18  314 315	 1492632858	 315245662	 161566.
20:14:18  315 316	 1492632858	 448494326	 133249.
20:14:18  316 317	 1492632858	 614311787	 165818.
20:14:18  317 318	 1492632858	 776062255	 161750.
20:14:18  318 319	 1492632858	 941358457	 165296.
20:14:19  319 320	 1492632859	 78101373	 136743.
20:14:19  320 321	 1492632859	 239632247	 161531.
20:14:19  321 322	 1492632859	 405240703	 165608.
20:14:19  322 323	 1492632859	 538077504	 132837.
20:14:19  323 324	 1492632859	 704107692	 166030.
20:14:19  324 325	 1492632859	 865930839	 161824.
20:14:20  325 326	 1492632860	 31953542	 166022.
20:14:20  326 327	 1492632860	 193690791	 161738.
20:14:20  327 328	 1492632860	 359819705	 166128.
20:14:20  328 329	 1492632860	 492939370	 133120.
20:14:20  329 330	 1492632860	 659050407	 166111.
20:14:20  330 331	 1492632860	 824613498	 165563.
20:14:20  331 332	 1492632860	 986608721	 161995.
20:14:21  332 333	 1492632861	 152861771	 166253.
20:14:21  333 334	 1492632861	 285961397	 133100.
20:14:21  334 335	 1492632861	 451864840	 165904.
20:14:21  335 336	 1492632861	 614006348	 162141.
20:14:21  336 337	 1492632861	 779857904	 165852.
20:14:21  337 338	 1492632861	 917508606	 137650.
20:14:22  338 339	 1492632862	 79366247	 161858.
20:14:22  339 340	 1492632862	 244771402	 165405.
20:14:22  340 341	 1492632862	 406396446	 161625.
20:14:22  341 342	 1492632862	 543832366	 137436.
20:14:22  342 343	 1492632862	 705774145	 161942.
20:14:22  343 344	 1492632862	 871757064	 165983.
20:14:23  344 345	 1492632863	 33830920	 162074.
20:14:23  345 346	 1492632863	 199673981	 165843.
20:14:23  346 347	 1492632863	 361584755	 161910.
20:14:23  347 348	 1492632863	 498662359	 137078.
20:14:23  348 349	 1492632863	 660236886	 161575.
20:14:23  349 350	 1492632863	 826036975	 165800.
20:14:23  350 351	 1492632863	 988066920	 162030.
20:14:24  351 352	 1492632864	 154240444	 166173.
20:14:24  352 353	 1492632864	 312673797	 158434.
20:14:24  353 354	 1492632864	 449881849	 137208.
20:14:24  354 355	 1492632864	 611999684	 162117.
20:14:24  355 356	 1492632864	 778181389	 166182.
20:14:24  356 357	 1492632864	 944360828	 166180.
20:14:25  357 358	 1492632865	 106209044	 161848.
20:14:25  358 359	 1492632865	 243562473	 137353.
20:14:25  359 360	 1492632865	 405356107	 161794.
20:14:25  360 361	 1492632865	 571522610	 166166.
20:14:25  361 362	 1492632865	 733633229	 162111.
20:14:25  362 363	 1492632865	 899367310	 165734.
20:14:26  363 364	 1492632866	 32308658	 132941.
20:14:26  364 365	 1492632866	 194138525	 161830.
20:14:26  365 366	 1492632866	 360340815	 166203.
20:14:26  366 367	 1492632866	 526428477	 166087.
20:14:26  367 368	 1492632866	 688463599	 162035.
20:14:26  368 369	 1492632866	 825886281	 137423.
20:14:26  369 370	 1492632866	 987493909	 161608.
20:14:27  370 371	 1492632867	 153540794	 166047.
20:14:27  371 372	 1492632867	 315283856	 161743.
20:14:27  372 373	 1492632867	 481483390	 166199.
20:14:27  373 374	 1492632867	 614738728	 133255.
20:14:27  374 375	 1492632867	 781138852	 166400.
20:14:27  375 376	 1492632867	 942667009	 161529.
20:14:28  376 377	 1492632868	 108651951	 165985.
20:14:28  377 378	 1492632868	 270871259	 162219.
20:14:28  378 379	 1492632868	 437455874	 166585.
20:14:28  379 380	 1492632868	 570898454	 133442.
20:14:28  380 381	 1492632868	 737089910	 166192.
20:14:28  381 382	 1492632868	 903427168	 166337.
20:14:29  382 383	 1492632869	 65707777	 162280.
20:14:29  383 384	 1492632869	 227794254	 162087.
20:14:29  384 385	 1492632869	 394093070	 166299.
20:14:29  385 386	 1492632869	 560155995	 166063.
20:14:29  386 387	 1492632869	 722243160	 162087.
20:14:29  387 388	 1492632869	 855479981	 133237.
20:14:30  388 389	 1492632870	 21451140	 165971.
20:14:30  389 390	 1492632870	 187510912	 166060.
20:14:30  390 391	 1492632870	 349768295	 162257.
20:14:30  391 392	 1492632870	 516157302	 166389.
20:14:30  392 393	 1492632870	 678535232	 162378.
20:14:30  393 394	 1492632870	 844463493	 165928.
20:14:31  394 395	 1492632871	 6140074	 161677.
20:14:31  395 396	 1492632871	 143805486	 137665.
20:14:31  396 397	 1492632871	 305971221	 162166.
20:14:31  397 398	 1492632871	 472586152	 166615.
20:14:31  398 399	 1492632871	 635004008	 162418.
20:14:31  399 400	 1492632871	 800837639	 165833.
20:14:31  400 401	 1492632871	 962682289	 161845.
20:14:32  401 402	 1492632872	 128601301	 165919.
20:14:32  402 403	 1492632872	 261782531	 133181.
20:14:32  403 404	 1492632872	 428104811	 166322.
20:14:32  404 405	 1492632872	 594338072	 166234.
20:14:32  405 406	 1492632872	 756476738	 162138.
20:14:32  406 407	 1492632872	 922905390	 166429.
20:14:33  407 408	 1492632873	 84678265	 161773.
20:14:33  408 409	 1492632873	 250469168	 165791.
20:14:33  409 410	 1492632873	 383767193	 133298.
20:14:33  410 411	 1492632873	 549829198	 166062.
20:14:33  411 412	 1492632873	 711776397	 161947.
20:14:33  412 413	 1492632873	 877886588	 166110.
20:14:34  413 414	 1492632874	 40054209	 162168.
20:14:34  414 415	 1492632874	 177492014	 137438.
20:14:34  415 416	 1492632874	 339629866	 162138.
20:14:34  416 417	 1492632874	 501195788	 161566.
20:14:34  417 418	 1492632874	 667251588	 166055.
20:14:34  418 419	 1492632874	 829151650	 161900.
20:14:34  419 420	 1492632874	 995041993	 165891.
20:14:35  420 421	 1492632875	 156651948	 161610.
20:14:35  421 422	 1492632875	 293883312	 137231.
20:14:35  422 423	 1492632875	 455636294	 161753.
20:14:35  423 424	 1492632875	 617352820	 161717.
20:14:35  424 425	 1492632875	 783238644	 165885.
20:14:35  425 426	 1492632875	 944935482	 161697.
20:14:36  426 427	 1492632876	 110364414	 165429.
20:14:36  427 428	 1492632876	 243073540	 132709.
20:14:36  428 429	 1492632876	 408669286	 165596.
20:14:36  429 430	 1492632876	 570101104	 161432.
20:14:36  430 431	 1492632876	 731608336	 161507.
20:14:36  431 432	 1492632876	 868491906	 136884.
20:14:37  432 433	 1492632877	 30008563	 161516.
20:14:37  433 434	 1492632877	 195660978	 165653.
20:14:37  434 435	 1492632877	 357136482	 161475.
20:14:37  435 436	 1492632877	 522740976	 165605.
20:14:37  436 437	 1492632877	 655814797	 133073.
20:14:37  437 438	 1492632877	 817434993	 161621.
20:14:37  438 439	 1492632877	 983049222	 165614.
20:14:38  439 440	 1492632878	 144920481	 161871.
20:14:38  440 441	 1492632878	 310617305	 165697.
20:14:38  441 442	 1492632878	 472226536	 161609.
20:14:38  442 443	 1492632878	 609453110	 137227.
20:14:38  443 444	 1492632878	 771383968	 161931.
20:14:38  444 445	 1492632878	 933321304	 161937.
20:14:39  445 446	 1492632879	 98973499	 165652.
20:14:39  446 447	 1492632879	 264801718	 165828.
20:14:39  447 448	 1492632879	 426699268	 161898.
20:14:39  448 449	 1492632879	 588302031	 161603.
20:14:39  449 450	 1492632879	 754153156	 165851.
20:14:39  450 451	 1492632879	 887209294	 133056.
20:14:40  451 452	 1492632880	 49010588	 161801.
20:14:40  452 453	 1492632880	 215064055	 166054.
20:14:40  453 454	 1492632880	 376671889	 161608.
20:14:40  454 455	 1492632880	 542166226	 165494.
20:14:40  455 456	 1492632880	 703626113	 161460.
20:14:40  456 457	 1492632880	 869357925	 165732.
20:14:40  457 458	 1492632881	 2332680	 132974.
20:14:41  458 459	 1492632881	 168293523	 165961.
20:14:41  459 460	 1492632881	 326797037	 158504.
20:14:41  460 461	 1492632881	 488597217	 161800.
20:14:41  461 462	 1492632881	 654636450	 166039.
20:14:41  462 463	 1492632881	 816370039	 161734.
20:14:41  463 464	 1492632881	 982093738	 165723.
20:14:42  464 465	 1492632882	 115287741	 133194.
20:14:42  465 466	 1492632882	 276857367	 161570.
20:14:42  466 467	 1492632882	 442580844	 165724.
20:14:42  467 468	 1492632882	 604320080	 161739.
20:14:42  468 469	 1492632882	 770146729	 165826.
20:14:42  469 470	 1492632882	 932115705	 161970.
20:14:43  470 471	 1492632883	 65491188	 133375.
20:14:43  471 472	 1492632883	 231415798	 165925.
20:14:43  472 473	 1492632883	 397295106	 165879.
20:14:43  473 474	 1492632883	 558909207	 161614.
20:14:43  474 475	 1492632883	 720639693	 161730.
20:14:43  475 476	 1492632883	 857868067	 137229.
20:14:44  476 477	 1492632884	 24167817	 166300.
20:14:44  477 478	 1492632884	 186033357	 161865.
20:14:44  478 479	 1492632884	 351978436	 165945.
20:14:44  479 480	 1492632884	 513829678	 161851.
20:14:44  480 481	 1492632884	 679907733	 166078.
20:14:44  481 482	 1492632884	 817271534	 137364.
20:14:44  482 483	 1492632884	 979317555	 162046.
20:14:45  483 484	 1492632885	 145371571	 166054.
20:14:45  484 485	 1492632885	 307308939	 161938.
20:14:45  485 486	 1492632885	 473066917	 165758.
20:14:45  486 487	 1492632885	 606153863	 133087.
20:14:45  487 488	 1492632885	 772709862	 166556.
20:14:45  488 489	 1492632885	 934763446	 162053.
20:14:46  489 490	 1492632886	 100780591	 166017.
20:14:46  490 491	 1492632886	 266445166	 165665.
20:14:46  491 492	 1492632886	 428326336	 161881.
20:14:46  492 493	 1492632886	 565725782	 137399.
20:14:46  493 494	 1492632886	 727420749	 161695.
20:14:46  494 495	 1492632886	 889271000	 161851.
20:14:47  495 496	 1492632887	 55783182	 166512.
20:14:47  496 497	 1492632887	 221813269	 166030.
20:14:47  497 498	 1492632887	 383804757	 161991.
20:14:47  498 499	 1492632887	 521230723	 137426.
20:14:47  499 500	 1492632887	 683197202	 161967.
20:14:47  500 501	 1492632887	 849229243	 166032.
20:14:48  501 502	 1492632888	 11366376	 162137.
20:14:48  502 503	 1492632888	 177300022	 165934.
20:14:48  503 504	 1492632888	 339024230	 161724.
20:14:48  504 505	 1492632888	 476354747	 137330.
20:14:48  505 506	 1492632888	 638272156	 161918.
20:14:48  506 507	 1492632888	 803999076	 165727.
20:14:48  507 508	 1492632888	 965680286	 161681.
20:14:49  508 509	 1492632889	 131797212	 166117.
20:14:49  509 510	 1492632889	 293425968	 161629.
20:14:49  510 511	 1492632889	 426136818	 132711.
20:14:49  511 512	 1492632889	 591326124	 165189.
20:14:49  512 513	 1492632889	 752761499	 161435.
20:14:49  513 514	 1492632889	 918354828	 165594.
20:14:50  514 515	 1492632890	 80097654	 161742.
20:14:50  515 516	 1492632890	 213028525	 132931.
20:14:50  516 517	 1492632890	 378703421	 165675.
20:14:50  517 518	 1492632890	 540404864	 161702.
20:14:50  518 519	 1492632890	 706288419	 165883.
20:14:50  519 520	 1492632890	 868032062	 161744.
20:14:51  520 521	 1492632891	 29727223	 161695.
20:14:51  521 522	 1492632891	 166761420	 137034.
20:14:51  522 523	 1492632891	 328331878	 161571.
20:14:51  523 524	 1492632891	 494515383	 166183.
20:14:51  524 525	 1492632891	 656403806	 161889.
20:14:51  525 526	 1492632891	 822136797	 165732.
20:14:51  526 527	 1492632891	 983857112	 161721.
20:14:52  527 528	 1492632892	 116877417	 133020.
20:14:52  528 529	 1492632892	 282781455	 165904.
20:14:52  529 530	 1492632892	 444420305	 161639.
20:14:52  530 531	 1492632892	 610544036	 166124.
20:14:52  531 532	 1492632892	 772347299	 161803.
20:14:52  532 533	 1492632892	 938703406	 166356.
20:14:53  533 534	 1492632893	 100384391	 161681.
20:14:53  534 535	 1492632893	 237838500	 137454.
20:14:53  535 536	 1492632893	 403416546	 165578.
20:14:53  536 537	 1492632893	 565669884	 162254.
20:14:53  537 538	 1492632893	 731892402	 166222.
20:14:53  538 539	 1492632893	 893543113	 161651.
20:14:54  539 540	 1492632894	 55563458	 162020.
20:14:54  540 541	 1492632894	 192651963	 137089.
20:14:54  541 542	 1492632894	 354402508	 161750.
20:14:54  542 543	 1492632894	 520010262	 165608.
20:14:54  543 544	 1492632894	 685976834	 165967.
20:14:54  544 545	 1492632894	 819160314	 133183.
20:14:54  545 546	 1492632894	 980744914	 161585.
20:14:55  546 547	 1492632895	 147031196	 166286.
20:14:55  547 548	 1492632895	 312538012	 165507.
20:14:55  548 549	 1492632895	 445326045	 132788.
20:14:55  549 550	 1492632895	 610857400	 165531.
20:14:55  550 551	 1492632895	 772395306	 161538.
20:14:55  551 552	 1492632895	 909231669	 136836.
20:14:56  552 553	 1492632896	 70686240	 161455.
20:14:56  553 554	 1492632896	 236073096	 165387.
20:14:56  554 555	 1492632896	 397282723	 161209.
20:14:56  555 556	 1492632896	 534434392	 137152.
20:14:56  556 557	 1492632896	 695842054	 161408.
20:14:56  557 558	 1492632896	 861525300	 165683.
20:14:56  558 559	 1492632896	 994626389	 133101.
20:14:57  559 560	 1492632897	 160650594	 166024.
20:14:57  560 561	 1492632897	 322308807	 161659.
20:14:57  561 562	 1492632897	 488287252	 165978.
20:14:57  562 563	 1492632897	 650230964	 161944.
20:14:57  563 564	 1492632897	 787428115	 137197.
20:14:57  564 565	 1492632897	 949537527	 162109.
20:14:58  565 566	 1492632898	 116375416	 166838.
20:14:58  566 567	 1492632898	 274246437	 157871.
20:14:58  567 568	 1492632898	 436226044	 161980.
20:14:58  568 569	 1492632898	 601912164	 165686.
20:14:58  569 570	 1492632898	 735132983	 133221.
20:14:58  570 571	 1492632898	 901085927	 165953.
20:14:59  571 572	 1492632899	 66757454	 165671.
20:14:59  572 573	 1492632899	 228252888	 161496.
20:14:59  573 574	 1492632899	 365253228	 137000.
20:14:59  574 575	 1492632899	 526795565	 161542.
20:14:59  575 576	 1492632899	 692445575	 165650.
20:14:59  576 577	 1492632899	 854348801	 161904.
20:14:59  577 578	 1492632899	 987455188	 133106.
20:15:00  578 579	 1492632900	 153127855	 165673.
20:15:00  579 580	 1492632900	 314689072	 161561.
20:15:00  580 581	 1492632900	 480438625	 165749.
20:15:00  581 582	 1492632900	 642314567	 161876.
20:15:00  582 583	 1492632900	 807968412	 165654.
20:15:00  583 584	 1492632900	 940832599	 132864.
20:15:01  584 585	 1492632901	 102125404	 161293.
20:15:01  585 586	 1492632901	 267944560	 165819.
20:15:01  586 587	 1492632901	 433865042	 165921.
20:15:01  587 588	 1492632901	 595571198	 161706.
20:15:01  588 589	 1492632901	 757315437	 161744.
20:15:01  589 590	 1492632901	 894331522	 137016.
20:15:02  590 591	 1492632902	 55831199	 161500.
20:15:02  591 592	 1492632902	 216961546	 161130.
20:15:02  592 593	 1492632902	 382397699	 165436.
20:15:02  593 594	 1492632902	 543870064	 161473.
20:15:02  594 595	 1492632902	 680946765	 137076.
20:15:02  595 596	 1492632902	 842813689	 161867.
20:15:03  596 597	 1492632903	 8263077	 165450.
20:15:03  597 598	 1492632903	 169965634	 161702.
20:15:03  598 599	 1492632903	 331736993	 161772.
20:15:03  599 600	 1492632903	 497472055	 165735.
20:15:03  600 601	 1492632903	 659200606	 161728.
20:15:03  601 602	 1492632903	 825004974	 165805.
20:15:03  602 603	 1492632903	 962159312	 137154.
20:15:04  603 604	 1492632904	 123734588	 161575.
20:15:04  604 605	 1492632904	 284970144	 161236.
20:15:04  605 606	 1492632904	 450285731	 165315.
20:15:04  606 607	 1492632904	 583006080	 132721.
20:15:04  607 608	 1492632904	 748504590	 165498.
20:15:04  608 609	 1492632904	 910124542	 161620.
20:15:05  609 610	 1492632905	 76081284	 165957.
20:15:05  610 611	 1492632905	 237596464	 161515.
20:15:05  611 612	 1492632905	 403530421	 165934.
20:15:05  612 613	 1492632905	 565378325	 161848.
20:15:05  613 614	 1492632905	 731407337	 166029.
20:15:05  614 615	 1492632905	 864745283	 133338.
20:15:06  615 616	 1492632906	 26274436	 161529.
20:15:06  616 617	 1492632906	 191982561	 165708.
20:15:06  617 618	 1492632906	 353933373	 161951.
20:15:06  618 619	 1492632906	 519785060	 165852.
20:15:06  619 620	 1492632906	 681782475	 161997.
20:15:06  620 621	 1492632906	 843890064	 162108.
20:15:07  621 622	 1492632907	 10185270	 166295.
20:15:07  622 623	 1492632907	 171927193	 161742.
20:15:07  623 624	 1492632907	 337833709	 165906.
20:15:07  624 625	 1492632907	 470929796	 133097.
20:15:07  625 626	 1492632907	 632573734	 161643.
20:15:07  626 627	 1492632907	 798428841	 165856.
20:15:07  627 628	 1492632907	 960335666	 161906.
20:15:08  628 629	 1492632908	 126266939	 165932.
20:15:08  629 630	 1492632908	 287717213	 161450.
20:15:08  630 631	 1492632908	 453344447	 165627.
20:15:08  631 632	 1492632908	 615127166	 161783.
20:15:08  632 633	 1492632908	 748034107	 132907.
20:15:08  633 634	 1492632908	 913703218	 165669.
20:15:09  634 635	 1492632909	 75309202	 161606.
20:15:09  635 636	 1492632909	 236862700	 161553.
20:15:09  636 637	 1492632909	 399520573	 162658.
20:15:09  637 638	 1492632909	 561116116	 161596.
20:15:09  638 639	 1492632909	 722809015	 161693.
20:15:09  639 640	 1492632909	 859793849	 136985.
20:15:10  640 641	 1492632910	 21351389	 161557.
20:15:10  641 642	 1492632910	 187012561	 165661.
20:15:10  642 643	 1492632910	 348581111	 161569.
20:15:10  643 644	 1492632910	 510505659	 161924.
20:15:10  644 645	 1492632910	 676443326	 165938.
20:15:10  645 646	 1492632910	 838343602	 161900.
20:15:10  646 647	 1492632911	 4291707	 165948.
20:15:11  647 648	 1492632911	 166372222	 162081.
20:15:11  648 649	 1492632911	 299429859	 133058.
20:15:11  649 650	 1492632911	 465357044	 165927.
20:15:11  650 651	 1492632911	 627365212	 162008.
20:15:11  651 652	 1492632911	 793447406	 166082.
20:15:11  652 653	 1492632911	 955517496	 162070.
20:15:12  653 654	 1492632912	 121848562	 166331.
20:15:12  654 655	 1492632912	 284116150	 162268.
20:15:12  655 656	 1492632912	 450567145	 166451.
20:15:12  656 657	 1492632912	 612666839	 162100.
20:15:12  657 658	 1492632912	 778658276	 165991.
20:15:12  658 659	 1492632912	 940614273	 161956.
20:15:13  659 660	 1492632913	 102644497	 162030.
20:15:13  660 661	 1492632913	 268634532	 165990.
20:15:13  661 662	 1492632913	 430629527	 161995.
20:15:13  662 663	 1492632913	 568244204	 137615.
20:15:13  663 664	 1492632913	 730292457	 162048.
20:15:13  664 665	 1492632913	 892200942	 161909.
20:15:14  665 666	 1492632914	 58414865	 166214.
20:15:14  666 667	 1492632914	 220477077	 162062.
20:15:14  667 668	 1492632914	 386411848	 165935.
20:15:14  668 669	 1492632914	 548630026	 162218.
20:15:14  669 670	 1492632914	 714694251	 166064.
20:15:14  670 671	 1492632914	 876486176	 161792.
20:15:15  671 672	 1492632915	 38465952	 161980.
20:15:15  672 673	 1492632915	 204391313	 165925.
20:15:15  673 674	 1492632915	 337712568	 133321.
20:15:15  674 675	 1492632915	 503936218	 166224.
20:15:15  675 676	 1492632915	 665805989	 161870.
20:15:15  676 677	 1492632915	 831604224	 165798.
20:15:15  677 678	 1492632915	 993610495	 162006.
20:15:16  678 679	 1492632916	 155441351	 161831.
20:15:16  679 680	 1492632916	 321495388	 166054.
20:15:16  680 681	 1492632916	 483750173	 162255.
20:15:16  681 682	 1492632916	 650024758	 166274.
20:15:16  682 683	 1492632916	 812046190	 162022.
20:15:16  683 684	 1492632916	 974090869	 162045.
20:15:17  684 685	 1492632917	 140024284	 165933.
20:15:17  685 686	 1492632917	 301991527	 161967.
20:15:17  686 687	 1492632917	 500745987	 198755.
20:15:17  687 688	 1492632917	 663449569	 162703.
20:15:17  688 689	 1492632917	 829598662	 166149.
20:15:17  689 690	 1492632917	 991726625	 162128.
20:15:18  690 691	 1492632918	 153624734	 161898.
20:15:18  691 692	 1492632918	 352217594	 198593.
20:15:18  692 693	 1492632918	 485161738	 132944.
20:15:18  693 694	 1492632918	 651096955	 165936.
20:15:18  694 695	 1492632918	 812884713	 161787.
20:15:18  695 696	 1492632918	 980526840	 167643.
20:15:19  696 697	 1492632919	 142264050	 161737.
20:15:19  697 698	 1492632919	 309376717	 167112.
20:15:19  698 699	 1492632919	 471021990	 161646.
20:15:19  699 700	 1492632919	 637199594	 166177.
20:15:19  700 701	 1492632919	 798684075	 161485.
20:15:19  701 702	 1492632919	 964368202	 165684.
20:15:20  702 703	 1492632920	 126060450	 161692.
20:15:20  703 704	 1492632920	 287668307	 161608.
20:15:20  704 705	 1492632920	 424816823	 137149.
20:15:20  705 706	 1492632920	 590835281	 166018.
20:15:20  706 707	 1492632920	 752779034	 161944.
20:15:20  707 708	 1492632920	 914709644	 161930.
20:15:21  708 709	 1492632921	 80867860	 166159.
20:15:21  709 710	 1492632921	 242714966	 161847.
20:15:21  710 711	 1492632921	 380068696	 137353.
20:15:21  711 712	 1492632921	 542573209	 162505.
20:15:21  712 713	 1492632921	 709046808	 166474.
20:15:21  713 714	 1492632921	 871371559	 162324.
20:15:22  714 715	 1492632922	 37727977	 166357.
20:15:22  715 716	 1492632922	 199849876	 162122.
20:15:22  716 717	 1492632922	 366116675	 166267.
20:15:22  717 718	 1492632922	 528229097	 162112.
20:15:22  718 719	 1492632922	 694780674	 166551.
20:15:22  719 720	 1492632922	 856626870	 161847.
20:15:22  720 721	 1492632922	 993934705	 137307.
20:15:23  721 722	 1492632923	 160201439	 166267.
20:15:23  722 723	 1492632923	 322317023	 162116.
20:15:23  723 724	 1492632923	 488583033	 166266.
20:15:23  724 725	 1492632923	 650636904	 162054.
20:15:23  725 726	 1492632923	 783929514	 133292.
20:15:23  726 727	 1492632923	 950121886	 166193.
20:15:24  727 728	 1492632924	 116074251	 165952.
20:15:24  728 729	 1492632924	 278123619	 162049.
20:15:24  729 730	 1492632924	 443954945	 165832.
20:15:24  730 731	 1492632924	 605959636	 162005.
20:15:24  731 732	 1492632924	 739146196	 133186.
20:15:24  732 733	 1492632924	 905439651	 166294.
20:15:25  733 734	 1492632925	 71757125	 166317.
20:15:25  734 735	 1492632925	 233757009	 162000.
20:15:25  735 736	 1492632925	 400427116	 166670.
20:15:25  736 737	 1492632925	 562433813	 162006.
20:15:25  737 738	 1492632925	 724660022	 162227.
20:15:25  738 739	 1492632925	 890461815	 165802.
20:15:26  739 740	 1492632926	 27797957	 137336.
20:15:26  740 741	 1492632926	 189690215	 161892.
20:15:26  741 742	 1492632926	 344475172	 154785.
20:15:26  742 743	 1492632926	 510411125	 165936.
20:15:26  743 744	 1492632926	 672419713	 162008.
20:15:26  744 745	 1492632926	 838256169	 165837.
20:15:26  745 746	 1492632926	 999967113	 161711.
20:15:27  746 747	 1492632927	 165867099	 165900.
20:15:27  747 748	 1492632927	 299380921	 133514.
20:15:27  748 749	 1492632927	 465703740	 166322.
20:15:27  749 750	 1492632927	 627563140	 161860.
20:15:27  750 751	 1492632927	 793516164	 165953.
20:15:27  751 752	 1492632927	 955263953	 161748.
20:15:28  752 753	 1492632928	 120928702	 165664.
20:15:28  753 754	 1492632928	 253920380	 132992.
20:15:28  754 755	 1492632928	 419713690	 165793.
20:15:28  755 756	 1492632928	 581366937	 161654.
20:15:28  756 757	 1492632928	 742907055	 161540.
20:15:28  757 758	 1492632928	 908682928	 165776.
20:15:29  758 759	 1492632929	 74665830	 165983.
20:15:29  759 760	 1492632929	 207699705	 133033.
20:15:29  760 761	 1492632929	 369389330	 161690.
20:15:29  761 762	 1492632929	 535088077	 165699.
20:15:29  762 763	 1492632929	 696780165	 161692.
20:15:29  763 764	 1492632929	 862576917	 165797.
20:15:30  764 765	 1492632930	 24372102	 161795.
20:15:30  765 766	 1492632930	 190023713	 165651.
20:15:30  766 767	 1492632930	 323122787	 133099.
20:15:30  767 768	 1492632930	 488729686	 165607.
20:15:30  768 769	 1492632930	 650525954	 161797.
20:15:30  769 770	 1492632930	 812262737	 161736.
20:15:30  770 771	 1492632930	 978139517	 165877.
20:15:31  771 772	 1492632931	 140207564	 162068.
20:15:31  772 773	 1492632931	 306371075	 166164.
20:15:31  773 774	 1492632931	 439657983	 133287.
20:15:31  774 775	 1492632931	 605469543	 165811.
20:15:31  775 776	 1492632931	 767686282	 162217.
20:15:31  776 777	 1492632931	 933546375	 165860.
20:15:32  777 778	 1492632932	 95831026	 162285.
20:15:32  778 779	 1492632932	 261603092	 165772.
20:15:32  779 780	 1492632932	 423305251	 161702.
20:15:32  780 781	 1492632932	 560244476	 136939.
20:15:32  781 782	 1492632932	 721681512	 161437.
20:15:32  782 783	 1492632932	 883227679	 161546.
20:15:33  783 784	 1492632933	 48694954	 165468.
20:15:33  784 785	 1492632933	 210111605	 161416.
20:15:33  785 786	 1492632933	 342855424	 132744.
20:15:33  786 787	 1492632933	 508581916	 165727.
20:15:33  787 788	 1492632933	 670075671	 161493.
20:15:33  788 789	 1492632933	 835752354	 165677.
20:15:33  789 790	 1492632933	 969117624	 133365.
20:15:34  790 791	 1492632934	 135006926	 165890.
20:15:34  791 792	 1492632934	 296926446	 161919.
20:15:34  792 793	 1492632934	 462808274	 165882.
20:15:34  793 794	 1492632934	 596039815	 133232.
20:15:34  794 795	 1492632934	 757726551	 161686.
20:15:34  795 796	 1492632934	 923486541	 165760.
20:15:35  796 797	 1492632935	 85297829	 161812.
20:15:35  797 798	 1492632935	 251226625	 165928.
20:15:35  798 799	 1492632935	 384606364	 133380.
20:15:35  799 800	 1492632935	 550425230	 165819.
20:15:35  800 801	 1492632935	 712066167	 161641.
20:15:35  801 802	 1492632935	 878015265	 165949.
20:15:36  802 803	 1492632936	 39662937	 161648.
20:15:36  803 804	 1492632936	 176929218	 137266.
20:15:36  804 805	 1492632936	 368291098	 191362.
20:15:36  805 806	 1492632936	 534981496	 166690.
20:15:36  806 807	 1492632936	 668573292	 133592.
20:15:36  807 808	 1492632936	 835130353	 166557.
20:15:36  808 809	 1492632936	 997270654	 162140.
20:15:37  809 810	 1492632937	 163764920	 166495.
20:15:37  810 811	 1492632937	 326209715	 162444.
20:15:37  811 812	 1492632937	 492699295	 166490.
20:15:37  812 813	 1492632937	 654966679	 162267.
20:15:37  813 814	 1492632937	 821307069	 166341.
20:15:37  814 815	 1492632937	 983720285	 162413.
20:15:38  815 816	 1492632938	 150158404	 166438.
20:15:38  816 817	 1492632938	 312584707	 162426.
20:15:38  817 818	 1492632938	 479054401	 166470.
20:15:38  818 819	 1492632938	 612564325	 133510.
20:15:38  819 820	 1492632938	 778433142	 165869.
20:15:38  820 821	 1492632938	 940616044	 162183.
20:15:39  821 822	 1492632939	 106886651	 166270.
20:15:39  822 823	 1492632939	 269314089	 162428.
20:15:39  823 824	 1492632939	 431490288	 162176.
20:15:39  824 825	 1492632939	 597626237	 166136.
20:15:39  825 826	 1492632939	 759767824	 162142.
20:15:39  826 827	 1492632939	 925781108	 166013.
20:15:40  827 828	 1492632940	 87698870	 161918.
20:15:40  828 829	 1492632940	 249639514	 161940.
20:15:40  829 830	 1492632940	 386720908	 137082.
20:15:40  830 831	 1492632940	 548858207	 162137.
20:15:40  831 832	 1492632940	 714720026	 165862.
20:15:40  832 833	 1492632940	 876518892	 161799.
20:15:41  833 834	 1492632941	 38373843	 161855.
20:15:41  834 835	 1492632941	 204485789	 166111.
20:15:41  835 836	 1492632941	 366270122	 161785.
20:15:41  836 837	 1492632941	 503484978	 137215.
20:15:41  837 838	 1492632941	 665051451	 161566.
20:15:41  838 839	 1492632941	 830872075	 165821.
20:15:41  839 840	 1492632941	 992753370	 161881.
20:15:42  840 841	 1492632942	 158789743	 166036.
20:15:42  841 842	 1492632942	 320904390	 162115.
20:15:42  842 843	 1492632942	 482678988	 161775.
20:15:42  843 844	 1492632942	 648451646	 165772.
20:15:42  844 845	 1492632942	 781459448	 133008.
20:15:42  845 846	 1492632942	 947279521	 165820.
20:15:43  846 847	 1492632943	 109085362	 161806.
20:15:43  847 848	 1492632943	 270921753	 161836.
20:15:43  848 849	 1492632943	 436564752	 165643.
20:15:43  849 850	 1492632943	 598132136	 161568.
20:15:43  850 851	 1492632943	 730980753	 132848.
20:15:43  851 852	 1492632943	 896451309	 165471.
20:15:44  852 853	 1492632944	 58234020	 161783.
20:15:44  853 854	 1492632944	 219938109	 161704.
20:15:44  854 855	 1492632944	 385794285	 165856.
20:15:44  855 856	 1492632944	 547471775	 161677.
20:15:44  856 857	 1492632944	 684428616	 136957.
20:15:44  857 858	 1492632944	 846045353	 161617.
20:15:45  858 859	 1492632945	 7985872	 161941.
20:15:45  859 860	 1492632945	 173898448	 165912.
20:15:45  860 861	 1492632945	 335765741	 161867.
20:15:45  861 862	 1492632945	 497215266	 161450.
20:15:45  862 863	 1492632945	 634398391	 137183.
20:15:45  863 864	 1492632945	 800499627	 166101.
20:15:45  864 865	 1492632945	 962300018	 161801.
20:15:46  865 866	 1492632946	 124425980	 162126.
20:15:46  866 867	 1492632946	 290662741	 166236.
20:15:46  867 868	 1492632946	 452606015	 161944.
20:15:46  868 869	 1492632946	 618608720	 166002.
20:15:46  869 870	 1492632946	 751778634	 133170.
20:15:46  870 871	 1492632946	 913459101	 161681.
20:15:47  871 872	 1492632947	 79403796	 165945.
20:15:47  872 873	 1492632947	 240984219	 161580.
20:15:47  873 874	 1492632947	 403246747	 162262.
20:15:47  874 875	 1492632947	 540477061	 137231.
20:15:47  875 876	 1492632947	 702378624	 161901.
20:15:47  876 877	 1492632947	 868304629	 165926.
20:15:48  877 878	 1492632948	 30212105	 161908.
20:15:48  878 879	 1492632948	 196230907	 166019.
20:15:48  879 880	 1492632948	 329094468	 132863.
20:15:48  880 881	 1492632948	 494846198	 165752.
20:15:48  881 882	 1492632948	 656501668	 161655.
20:15:48  882 883	 1492632948	 822336745	 165835.
20:15:48  883 884	 1492632948	 984220845	 161885.
20:15:49  884 885	 1492632949	 117079192	 132858.
20:15:49  885 886	 1492632949	 278899961	 161821.
20:15:49  886 887	 1492632949	 444562434	 165662.
20:15:49  887 888	 1492632949	 606385584	 161823.
20:15:49  888 889	 1492632949	 743546454	 137161.
20:15:49  889 890	 1492632949	 905266572	 161720.
20:15:50  890 891	 1492632950	 67060669	 161794.
20:15:50  891 892	 1492632950	 233020826	 165961.
20:15:50  892 893	 1492632950	 394663956	 161643.
20:15:50  893 894	 1492632950	 560549365	 165885.
20:15:50  894 895	 1492632950	 722371335	 161822.
20:15:50  895 896	 1492632950	 884221739	 161850.
20:15:51  896 897	 1492632951	 21522619	 137301.
20:15:51  897 898	 1492632951	 183267596	 161745.
20:15:51  898 899	 1492632951	 349188358	 165921.
20:15:51  899 900	 1492632951	 511626675	 162438.
20:15:51  900 901	 1492632951	 678200977	 166575.
20:15:51  901 902	 1492632951	 844539195	 166338.
20:15:52  902 903	 1492632952	 6362319	 161823.
20:15:52  903 904	 1492632952	 139702675	 133340.
20:15:52  904 905	 1492632952	 306058245	 166356.
20:15:52  905 906	 1492632952	 468484365	 162426.
20:15:52  906 907	 1492632952	 634606486	 166122.
20:15:52  907 908	 1492632952	 800686690	 166081.
20:15:52  908 909	 1492632952	 962626951	 161940.
20:15:53  909 910	 1492632953	 128800770	 166173.
20:15:53  910 911	 1492632953	 262106008	 133306.
20:15:53  911 912	 1492632953	 428070522	 165964.
20:15:53  912 913	 1492632953	 590067372	 161997.
20:15:53  913 914	 1492632953	 756423902	 166357.
20:15:53  914 915	 1492632953	 918353405	 161929.
20:15:54  915 916	 1492632954	 55561179	 137208.
20:15:54  916 917	 1492632954	 217578135	 162017.
20:15:54  917 918	 1492632954	 383658269	 166080.
20:15:54  918 919	 1492632954	 545345103	 161687.
20:15:54  919 920	 1492632954	 682515282	 137170.
20:15:54  920 921	 1492632954	 844545467	 162030.
20:15:55  921 922	 1492632955	 10749272	 166204.
20:15:55  922 923	 1492632955	 176841087	 166092.
20:15:55  923 924	 1492632955	 338891226	 162050.
20:15:55  924 925	 1492632955	 504868035	 165977.
20:15:55  925 926	 1492632955	 637962982	 133095.
20:15:55  926 927	 1492632955	 804012252	 166049.
20:15:55  927 928	 1492632955	 966117091	 162105.
20:15:56  928 929	 1492632956	 132753610	 166636.
20:15:56  929 930	 1492632956	 294765318	 162012.
20:15:56  930 931	 1492632956	 461022542	 166257.
20:15:56  931 932	 1492632956	 594318054	 133296.
20:15:56  932 933	 1492632956	 759985619	 165667.
20:15:56  933 934	 1492632956	 921770832	 161786.
20:15:57  934 935	 1492632957	 88051041	 166280.
20:15:57  935 936	 1492632957	 249880691	 161829.
20:15:57  936 937	 1492632957	 387127936	 137248.
20:15:57  937 938	 1492632957	 549313355	 162185.
20:15:57  938 939	 1492632957	 715878342	 166565.
20:15:57  939 940	 1492632957	 877668335	 161790.
20:15:58  940 941	 1492632958	 43493039	 165825.
20:15:58  941 942	 1492632958	 205802757	 162309.
20:15:58  942 943	 1492632958	 372060199	 166258.
20:15:58  943 944	 1492632958	 505555431	 133495.
20:15:58  944 945	 1492632958	 671768056	 166213.
20:15:58  945 946	 1492632958	 837888227	 166120.
20:15:58  946 947	 1492632958	 999824530	 161936.
20:15:59  947 948	 1492632959	 166312640	 166488.
20:15:59  948 949	 1492632959	 328872305	 162560.
20:15:59  949 950	 1492632959	 466338799	 137467.
20:15:59  950 951	 1492632959	 628585273	 162246.
20:15:59  951 952	 1492632959	 790824243	 162239.
20:15:59  952 953	 1492632959	 957325170	 166501.
20:16:00  953 954	 1492632960	 123719023	 166394.
20:16:00  954 955	 1492632960	 286387326	 162668.
20:16:00  955 956	 1492632960	 444248293	 157861.
20:16:00  956 957	 1492632960	 610280922	 166033.
20:16:00  957 958	 1492632960	 747557467	 137276.
20:16:00  958 959	 1492632960	 909343398	 161786.
20:16:01  959 960	 1492632961	 71037629	 161694.
20:16:01  960 961	 1492632961	 236757715	 165720.
20:16:01  961 962	 1492632961	 398618818	 161862.
20:16:01  962 963	 1492632961	 560285049	 161666.
20:16:01  963 964	 1492632961	 697411649	 137126.
20:16:01  964 965	 1492632961	 859081701	 161670.
20:16:02  965 966	 1492632962	 24842896	 165762.
20:16:02  966 967	 1492632962	 186514546	 161671.
20:16:02  967 968	 1492632962	 348279438	 161765.
20:16:02  968 969	 1492632962	 514238158	 165959.
20:16:02  969 970	 1492632962	 675940189	 161702.
20:16:02  970 971	 1492632962	 841738326	 165798.
20:16:02  971 972	 1492632962	 974651041	 132913.
20:16:03  972 973	 1492632963	 136416202	 161765.
20:16:03  973 974	 1492632963	 302324903	 165909.
20:16:03  974 975	 1492632963	 464172976	 161848.
20:16:03  975 976	 1492632963	 629937987	 165765.
20:16:03  976 977	 1492632963	 791757031	 161819.
20:16:03  977 978	 1492632963	 953288286	 161531.
20:16:04  978 979	 1492632964	 90406295	 137118.
20:16:04  979 980	 1492632964	 252086155	 161680.
20:16:04  980 981	 1492632964	 417973308	 165887.
20:16:04  981 982	 1492632964	 579821407	 161848.
20:16:04  982 983	 1492632964	 745597254	 165776.
20:16:04  983 984	 1492632964	 907247889	 161651.
20:16:05  984 985	 1492632965	 73129260	 165881.
20:16:05  985 986	 1492632965	 234967989	 161839.
20:16:05  986 987	 1492632965	 368016815	 133049.
20:16:05  987 988	 1492632965	 533910954	 165894.
20:16:05  988 989	 1492632965	 695477093	 161566.
20:16:05  989 990	 1492632965	 861550408	 166073.
20:16:06  990 991	 1492632966	 23227631	 161678.
20:16:06  991 992	 1492632966	 188761956	 165534.
20:16:06  992 993	 1492632966	 321755727	 132993.
20:16:06  993 994	 1492632966	 487429352	 165674.
20:16:06  994 995	 1492632966	 649211230	 161782.
20:16:06  995 996	 1492632966	 811060983	 161850.
20:16:06  996 997	 1492632966	 969859540	 158798.
20:16:07  997 998	 1492632967	 135455915	 165597.
20:16:07  998 999	 1492632967	 296901457	 161445.
20:16:07  999 1000	 1492632967	 458835650	 161934.
20:16:07 1000 1001	 1492632967	 624895197	 166060.
20:16:07 1001 1002	 1492632967	 758388627	 133493.
20:16:07 1002 1003	 1492632967	 920184077	 161796.
20:16:08 1003 1004	 1492632968	 86088419	 165904.
20:16:08 1004 1005	 1492632968	 247754322	 161666.
20:16:08 1005 1006	 1492632968	 413487571	 165733.
20:16:08 1006 1007	 1492632968	 575114972	 161628.
20:16:08 1007 1008	 1492632968	 740994850	 165880.
20:16:08 1008 1009	 1492632968	 873990161	 132995.
20:16:09 1009 1010	 1492632969	 35742977	 161753.
20:16:09 1010 1011	 1492632969	 201538769	 165795.
20:16:09 1011 1012	 1492632969	 363369716	 161831.
20:16:09 1012 1013	 1492632969	 529078140	 165709.
20:16:09 1013 1014	 1492632969	 691091791	 162013.
20:16:09 1014 1015	 1492632969	 857251624	 166160.
20:16:09 1015 1016	 1492632969	 990688162	 133437.
20:16:10 1016 1017	 1492632970	 156417912	 165730.
20:16:10 1017 1018	 1492632970	 318457709	 162039.
20:16:10 1018 1019	 1492632970	 484727907	 166271.
20:16:10 1019 1020	 1492632970	 647205905	 162478.
20:16:10 1020 1021	 1492632970	 805029616	 157823.
20:16:10 1021 1022	 1492632970	 970837218	 165808.
20:16:11 1022 1023	 1492632971	 132554530	 161717.
20:16:11 1023 1024	 1492632971	 294269151	 161715.
20:16:11 1024 1025	 1492632971	 460252735	 165983.
20:16:11 1025 1026	 1492632971	 593582115	 133330.
20:16:11 1026 1027	 1492632971	 759466003	 165884.
20:16:11 1027 1028	 1492632971	 921188457	 161722.
20:16:12 1028 1029	 1492632972	 82912885	 161725.
20:16:12 1029 1030	 1492632972	 248850862	 165938.
20:16:12 1030 1031	 1492632972	 411351418	 162500.
20:16:12 1031 1032	 1492632972	 577600208	 166249.
20:16:12 1032 1033	 1492632972	 743719426	 166119.
20:16:12 1033 1034	 1492632972	 905619108	 161900.
20:16:13 1034 1035	 1492632973	 38620047	 133001.
20:16:13 1035 1036	 1492632973	 204550771	 165930.
20:16:13 1036 1037	 1492632973	 366027529	 161477.
20:16:13 1037 1038	 1492632973	 532497767	 166470.
20:16:13 1038 1039	 1492632973	 690646126	 158149.
20:16:13 1039 1040	 1492632973	 856750509	 166104.
20:16:13 1040 1041	 1492632973	 990198689	 133448.
20:16:14 1041 1042	 1492632974	 157038235	 166840.
20:16:14 1042 1043	 1492632974	 319553798	 162516.
20:16:14 1043 1044	 1492632974	 485871686	 166317.
20:16:14 1044 1045	 1492632974	 647662228	 161791.
20:16:14 1045 1046	 1492632974	 813694046	 166032.
20:16:14 1046 1047	 1492632974	 975485786	 161791.
20:16:15 1047 1048	 1492632975	 141609513	 166124.
20:16:15 1048 1049	 1492632975	 274620745	 133011.
20:16:15 1049 1050	 1492632975	 440491599	 165871.
20:16:15 1050 1051	 1492632975	 602224024	 161733.
20:16:15 1051 1052	 1492632975	 763978618	 161754.
20:16:15 1052 1053	 1492632975	 929715384	 165737.
20:16:16 1053 1054	 1492632976	 91494442	 161779.
20:16:16 1054 1055	 1492632976	 264467994	 172974.
20:16:16 1055 1056	 1492632976	 397448664	 132980.
20:16:16 1056 1057	 1492632976	 559150654	 161702.
20:16:16 1057 1058	 1492632976	 724833099	 165683.
20:16:16 1058 1059	 1492632976	 886446732	 161613.
20:16:17 1059 1060	 1492632977	 48269162	 161823.
20:16:17 1060 1061	 1492632977	 214158937	 165890.
20:16:17 1061 1062	 1492632977	 376261154	 162102.
20:16:17 1062 1063	 1492632977	 513535385	 137274.
20:16:17 1063 1064	 1492632977	 674995817	 161461.
20:16:17 1064 1065	 1492632977	 840886910	 165891.
20:16:18 1065 1066	 1492632978	 2541888	 161655.
20:16:18 1066 1067	 1492632978	 164115930	 161574.
20:16:18 1067 1068	 1492632978	 297039173	 132923.
20:16:18 1068 1069	 1492632978	 462983879	 165945.
20:16:18 1069 1070	 1492632978	 624249138	 161265.
20:16:18 1070 1071	 1492632978	 785569881	 161321.
20:16:18 1071 1072	 1492632978	 951260969	 165691.
20:16:19 1072 1073	 1492632979	 88230010	 136969.
20:16:19 1073 1074	 1492632979	 249872739	 161642.
20:16:19 1074 1075	 1492632979	 415398444	 165526.
20:16:19 1075 1076	 1492632979	 576942404	 161544.
20:16:19 1076 1077	 1492632979	 714047737	 137105.
20:16:19 1077 1078	 1492632979	 875240515	 161193.
20:16:20 1078 1079	 1492632980	 40755112	 165515.
20:16:20 1079 1080	 1492632980	 202422572	 161667.
20:16:20 1080 1081	 1492632980	 367945627	 165523.
20:16:20 1081 1082	 1492632980	 529566755	 161621.
20:16:20 1082 1083	 1492632980	 662954909	 133389.
20:16:20 1083 1084	 1492632980	 824876897	 161922.
20:16:20 1084 1085	 1492632980	 991057491	 166180.
20:16:21 1085 1086	 1492632981	 153056202	 161999.
20:16:21 1086 1087	 1492632981	 319234778	 166179.
20:16:21 1087 1088	 1492632981	 481124771	 161889.
20:16:21 1088 1089	 1492632981	 647272582	 166148.
20:16:21 1089 1090	 1492632981	 809424314	 162152.
20:16:21 1090 1091	 1492632981	 975847365	 166423.
20:16:22 1091 1092	 1492632982	 142130949	 166284.
20:16:22 1092 1093	 1492632982	 304316996	 162186.
20:16:22 1093 1094	 1492632982	 466530714	 162213.
20:16:22 1094 1095	 1492632982	 603444244	 136914.
20:16:22 1095 1096	 1492632982	 764673564	 161229.
20:16:22 1096 1097	 1492632982	 930438581	 165765.
20:16:23 1097 1098	 1492632983	 91730921	 161293.
20:16:23 1098 1099	 1492632983	 228600577	 136869.
20:16:23 1099 1100	 1492632983	 390063823	 161464.
20:16:23 1100 1101	 1492632983	 555586523	 165522.
20:16:23 1101 1102	 1492632983	 716981936	 161396.
20:16:23 1102 1103	 1492632983	 879041370	 162059.
20:16:24 1103 1104	 1492632984	 44522488	 165481.
20:16:24 1104 1105	 1492632984	 177589125	 133067.
20:16:24 1105 1106	 1492632984	 343466209	 165877.
20:16:24 1106 1107	 1492632984	 505017186	 161551.
20:16:24 1107 1108	 1492632984	 666643214	 161626.
20:16:24 1108 1109	 1492632984	 832002657	 165359.
20:16:24 1109 1110	 1492632984	 964837558	 132835.
20:16:25 1110 1111	 1492632985	 131150880	 166314.
20:16:25 1111 1112	 1492632985	 292505371	 161354.
20:16:25 1112 1113	 1492632985	 453980499	 161475.
20:16:25 1113 1114	 1492632985	 619402948	 165423.
20:16:25 1114 1115	 1492632985	 780936519	 161533.
20:16:25 1115 1116	 1492632985	 918170829	 137235.
20:16:26 1116 1117	 1492632986	 79783311	 161612.
20:16:26 1117 1118	 1492632986	 241100083	 161317.
20:16:26 1118 1119	 1492632986	 402633292	 161533.
20:16:26 1119 1120	 1492632986	 568480370	 165847.
20:16:26 1120 1121	 1492632986	 730326992	 161847.
20:16:26 1121 1122	 1492632986	 867533202	 137206.
20:16:27 1122 1123	 1492632987	 28914785	 161381.
20:16:27 1123 1124	 1492632987	 194534353	 165620.
20:16:27 1124 1125	 1492632987	 356043611	 161509.
20:16:27 1125 1126	 1492632987	 521652189	 165609.
20:16:27 1126 1127	 1492632987	 683155511	 161503.
20:16:27 1127 1128	 1492632987	 820624772	 137469.
20:16:27 1128 1129	 1492632987	 981906560	 161282.
20:16:28 1129 1130	 1492632988	 143717439	 161811.
20:16:28 1130 1131	 1492632988	 305451106	 161734.
20:16:28 1131 1132	 1492632988	 466781493	 161330.
20:16:28 1132 1133	 1492632988	 632726179	 165945.
20:16:28 1133 1134	 1492632988	 765811162	 133085.
20:16:28 1134 1135	 1492632988	 931497982	 165687.
20:16:29 1135 1136	 1492632989	 93177211	 161679.
20:16:29 1136 1137	 1492632989	 254820176	 161643.
20:16:29 1137 1138	 1492632989	 420501211	 165681.
20:16:29 1138 1139	 1492632989	 581799039	 161298.
20:16:29 1139 1140	 1492632989	 718716675	 136917.
20:16:29 1140 1141	 1492632989	 879804657	 161088.
20:16:30 1141 1142	 1492632990	 41475875	 161672.
20:16:30 1142 1143	 1492632990	 207466497	 165990.
20:16:30 1143 1144	 1492632990	 372852242	 165386.
20:16:30 1144 1145	 1492632990	 531128985	 158277.
20:16:30 1145 1146	 1492632990	 664064050	 132935.
20:16:30 1146 1147	 1492632990	 825340448	 161276.
20:16:30 1147 1148	 1492632990	 990602735	 165263.
20:16:31 1148 1149	 1492632991	 152447070	 161844.
20:16:31 1149 1150	 1492632991	 313985907	 161539.
20:16:31 1150 1151	 1492632991	 451348215	 137362.
20:16:31 1151 1152	 1492632991	 617446411	 166098.
20:16:31 1152 1153	 1492632991	 779500910	 162055.
20:16:31 1153 1154	 1492632991	 941024311	 161523.
20:16:32 1154 1155	 1492632992	 106841396	 165817.
20:16:32 1155 1156	 1492632992	 239662427	 132821.
20:16:32 1156 1157	 1492632992	 405818782	 166156.
20:16:32 1157 1158	 1492632992	 567612934	 161795.
20:16:32 1158 1159	 1492632992	 733200465	 165587.
20:16:32 1159 1160	 1492632992	 895021852	 161822.
20:16:33 1160 1161	 1492632993	 61560045	 166538.
20:16:33 1161 1162	 1492632993	 218994206	 157434.
20:16:33 1162 1163	 1492632993	 351755142	 132761.
20:16:33 1163 1164	 1492632993	 513192593	 161437.
20:16:33 1164 1165	 1492632993	 678581924	 165390.
20:16:33 1165 1166	 1492632993	 839956530	 161374.
20:16:34 1166 1167	 1492632994	 1262471	 161306.
20:16:34 1167 1168	 1492632994	 138166742	 136904.
20:16:34 1168 1169	 1492632994	 299619274	 161453.
20:16:34 1169 1170	 1492632994	 465149318	 165530.
20:16:34 1170 1171	 1492632994	 626394993	 161246.
20:16:34 1171 1172	 1492632994	 759070011	 132675.
20:16:34 1172 1173	 1492632994	 924248175	 165178.
20:16:35 1173 1174	 1492632995	 85275795	 161027.
20:16:35 1174 1175	 1492632995	 250586628	 165311.
20:16:35 1175 1176	 1492632995	 383204221	 132618.
20:16:35 1176 1177	 1492632995	 544361292	 161157.
20:16:35 1177 1178	 1492632995	 709746553	 165385.
20:16:35 1178 1179	 1492632995	 870976273	 161230.
20:16:36 1179 1180	 1492632996	 3642089	 132666.
20:16:36 1180 1181	 1492632996	 169027735	 165385.
20:16:36 1181 1182	 1492632996	 330559922	 161533.
20:16:36 1182 1183	 1492632996	 495963641	 165403.
20:16:36 1183 1184	 1492632996	 628738561	 132775.
20:16:36 1184 1185	 1492632996	 794110761	 165372.
20:16:36 1185 1186	 1492632996	 955701523	 161591.
20:16:37 1186 1187	 1492632997	 116976682	 161275.
20:16:37 1187 1188	 1492632997	 283016700	 166040.
20:16:37 1188 1189	 1492632997	 416341730	 133325.
20:16:37 1189 1190	 1492632997	 582444444	 166103.
20:16:37 1190 1191	 1492632997	 744344739	 161900.
20:16:37 1191 1192	 1492632997	 910400303	 166056.
20:16:38 1192 1193	 1492632998	 72513180	 162113.
20:16:38 1193 1194	 1492632998	 239073949	 166561.
20:16:38 1194 1195	 1492632998	 400986065	 161912.
20:16:38 1195 1196	 1492632998	 566998658	 166012.
20:16:38 1196 1197	 1492632998	 729117490	 162119.
20:16:38 1197 1198	 1492632998	 866399525	 137282.
20:16:39 1198 1199	 1492632999	 28445416	 162046.
20:16:39 1199 1200	 1492632999	 194704854	 166260.
20:16:39 1200 1201	 1492632999	 356608034	 161903.
20:16:39 1201 1202	 1492632999	 522362892	 165755.
20:16:39 1202 1203	 1492632999	 684866278	 162503.
20:16:39 1203 1204	 1492632999	 846561138	 161695.
20:16:40 1204 1205	 1492633000	 12252388	 165691.
20:16:40 1205 1206	 1492633000	 174255316	 162003.
20:16:40 1206 1207	 1492633000	 307289601	 133034.
20:16:40 1207 1208	 1492633000	 473007251	 165718.
20:16:40 1208 1209	 1492633000	 634685645	 161678.
20:16:40 1209 1210	 1492633000	 800111541	 165426.
20:16:40 1210 1211	 1492633000	 961369290	 161258.
20:16:41 1211 1212	 1492633001	 127366205	 165997.
20:16:41 1212 1213	 1492633001	 260883472	 133517.
20:16:41 1213 1214	 1492633001	 422921751	 162038.
20:16:41 1214 1215	 1492633001	 588925619	 166004.
20:16:41 1215 1216	 1492633001	 755221493	 166296.
20:16:41 1216 1217	 1492633001	 917222121	 162001.
20:16:42 1217 1218	 1492633002	 83303113	 166081.
20:16:42 1218 1219	 1492633002	 244820853	 161518.
20:16:42 1219 1220	 1492633002	 406741739	 161920.
20:16:42 1220 1221	 1492633002	 569428332	 162687.
20:16:42 1221 1222	 1492633002	 735508685	 166080.
20:16:42 1222 1223	 1492633002	 897843263	 162335.
20:16:43 1223 1224	 1492633003	 59598446	 161755.
20:16:43 1224 1225	 1492633003	 192783448	 133185.
20:16:43 1225 1226	 1492633003	 354104036	 161321.
20:16:43 1226 1227	 1492633003	 519918462	 165814.
20:16:43 1227 1228	 1492633003	 685461721	 165544.
20:16:43 1228 1229	 1492633003	 846833871	 161372.
20:16:44 1229 1230	 1492633004	 5123070	 158289.
20:16:44 1230 1231	 1492633004	 138135803	 133012.
20:16:44 1231 1232	 1492633004	 299666873	 161532.
20:16:44 1232 1233	 1492633004	 465500905	 165834.
20:16:44 1233 1234	 1492633004	 627464328	 161963.
20:16:44 1234 1235	 1492633004	 793219559	 165755.
20:16:44 1235 1236	 1492633004	 955018606	 161799.
20:16:45 1236 1237	 1492633005	 120849329	 165831.
20:16:45 1237 1238	 1492633005	 282708504	 161859.
20:16:45 1238 1239	 1492633005	 415846184	 133138.
20:16:45 1239 1240	 1492633005	 581741745	 165895.
20:16:45 1240 1241	 1492633005	 743429501	 161688.
20:16:45 1241 1242	 1492633005	 909107255	 165678.
20:16:46 1242 1243	 1492633006	 70829552	 161722.
20:16:46 1243 1244	 1492633006	 236373740	 165544.
20:16:46 1244 1245	 1492633006	 398038579	 161665.
20:16:46 1245 1246	 1492633006	 535005482	 136967.
20:16:46 1246 1247	 1492633006	 696412385	 161407.
20:16:46 1247 1248	 1492633006	 857960229	 161548.
20:16:47 1248 1249	 1492633007	 23472581	 165513.
20:16:47 1249 1250	 1492633007	 185066986	 161594.
20:16:47 1250 1251	 1492633007	 317643140	 132576.
20:16:47 1251 1252	 1492633007	 483325595	 165682.
20:16:47 1252 1253	 1492633007	 645001231	 161676.
20:16:47 1253 1254	 1492633007	 810646014	 165645.
20:16:47 1254 1255	 1492633007	 972559161	 161913.
20:16:48 1255 1256	 1492633008	 138394367	 165835.
20:16:48 1256 1257	 1492633008	 271224474	 132830.
20:16:48 1257 1258	 1492633008	 432913305	 161689.
20:16:48 1258 1259	 1492633008	 598664009	 165751.
20:16:48 1259 1260	 1492633008	 760258638	 161594.
20:16:48 1260 1261	 1492633008	 926022959	 165765.
20:16:49 1261 1262	 1492633009	 88274123	 162251.
20:16:49 1262 1263	 1492633009	 245926382	 157652.
20:16:49 1263 1264	 1492633009	 407608097	 161682.
20:16:49 1264 1265	 1492633009	 544496983	 136889.
20:16:49 1265 1266	 1492633009	 705979635	 161482.
20:16:49 1266 1267	 1492633009	 867763515	 161784.
20:16:50 1267 1268	 1492633010	 33656467	 165893.
20:16:50 1268 1269	 1492633010	 195382840	 161727.
20:16:50 1269 1270	 1492633010	 357192442	 161809.
20:16:50 1270 1271	 1492633010	 522986889	 165795.
20:16:50 1271 1272	 1492633010	 655657711	 132670.
20:16:50 1272 1273	 1492633010	 821267573	 165610.
20:16:50 1273 1274	 1492633010	 982582796	 161316.
20:16:51 1274 1275	 1492633011	 148173900	 165591.
20:16:51 1275 1276	 1492633011	 309537022	 161363.
20:16:51 1276 1277	 1492633011	 471313489	 161776.
20:16:51 1277 1278	 1492633011	 604131602	 132818.
20:16:51 1278 1279	 1492633011	 769797035	 165666.
20:16:51 1279 1280	 1492633011	 931206471	 161409.
20:16:52 1280 1281	 1492633012	 96624525	 165418.
20:16:52 1281 1282	 1492633012	 258451542	 161827.
20:16:52 1282 1283	 1492633012	 391452395	 133001.
20:16:52 1283 1284	 1492633012	 556992078	 165540.
20:16:52 1284 1285	 1492633012	 718814380	 161822.
20:16:52 1285 1286	 1492633012	 880286414	 161472.
20:16:53 1286 1287	 1492633013	 45983693	 165697.
20:16:53 1287 1288	 1492633013	 207695256	 161712.
20:16:53 1288 1289	 1492633013	 340774724	 133079.
20:16:53 1289 1290	 1492633013	 506457523	 165683.
20:16:53 1290 1291	 1492633013	 668260761	 161803.
20:16:53 1291 1292	 1492633013	 833845128	 165585.
20:16:53 1292 1293	 1492633013	 995361253	 161516.
20:16:54 1293 1294	 1492633014	 128239777	 132878.
20:16:54 1294 1295	 1492633014	 293879956	 165641.
20:16:54 1295 1296	 1492633014	 455773997	 161894.
20:16:54 1296 1297	 1492633014	 621391780	 165617.
20:16:54 1297 1298	 1492633014	 782998862	 161608.
20:16:54 1298 1299	 1492633014	 948862094	 165863.
20:16:55 1299 1300	 1492633015	 81875508	 133013.
20:16:55 1300 1301	 1492633015	 243215374	 161340.
20:16:55 1301 1302	 1492633015	 409240222	 166025.
20:16:55 1302 1303	 1492633015	 570793285	 161553.
20:16:55 1303 1304	 1492633015	 736419908	 165627.
20:16:55 1304 1305	 1492633015	 898270966	 161851.
20:16:56 1305 1306	 1492633016	 31082178	 132811.
20:16:56 1306 1307	 1492633016	 196666735	 165584.
20:16:56 1307 1308	 1492633016	 358430816	 161765.
20:16:56 1308 1309	 1492633016	 524257991	 165827.
20:16:56 1309 1310	 1492633016	 686021343	 161763.
20:16:56 1310 1311	 1492633016	 852104715	 166083.
20:16:57 1311 1312	 1492633017	 13656336	 161552.
20:16:57 1312 1313	 1492633017	 146952440	 133296.
20:16:57 1313 1314	 1492633017	 312482418	 165530.
20:16:57 1314 1315	 1492633017	 473908863	 161427.
20:16:57 1315 1316	 1492633017	 639802242	 165893.
20:16:57 1316 1317	 1492633017	 800863088	 161061.
20:16:57 1317 1318	 1492633017	 937669671	 136806.
20:16:58 1318 1319	 1492633018	 99640499	 161971.
20:16:58 1319 1320	 1492633018	 260878632	 161238.
20:16:58 1320 1321	 1492633018	 426640161	 165762.
20:16:58 1321 1322	 1492633018	 588278456	 161638.
20:16:58 1322 1323	 1492633018	 725232234	 136954.
20:16:58 1323 1324	 1492633018	 886694710	 161462.
20:16:59 1324 1325	 1492633019	 48026357	 161332.
20:16:59 1325 1326	 1492633019	 213092953	 165067.
20:16:59 1326 1327	 1492633019	 345801446	 132708.
20:16:59 1327 1328	 1492633019	 507004784	 161204.
20:16:59 1328 1329	 1492633019	 672018960	 165014.
20:16:59 1329 1330	 1492633019	 804913765	 132894.
20:16:59 1330 1331	 1492633019	 970142032	 165229.
20:17:00 1331 1332	 1492633020	 132480127	 162338.
20:17:00 1332 1333	 1492633020	 290039829	 157560.
20:17:00 1333 1334	 1492633020	 451182660	 161142.
20:17:00 1334 1335	 1492633020	 583759387	 132577.
20:17:00 1335 1336	 1492633020	 749511324	 165752.
20:17:00 1336 1337	 1492633020	 910657205	 161146.
20:17:01 1337 1338	 1492633021	 76425861	 165769.
20:17:01 1338 1339	 1492633021	 238070677	 161644.
20:17:01 1339 1340	 1492633021	 407375057	 169305.
20:17:01 1340 1341	 1492633021	 569054099	 161679.
20:17:01 1341 1342	 1492633021	 734881667	 165827.
20:17:01 1342 1343	 1492633021	 896710478	 161829.
20:17:02 1343 1344	 1492633022	 62218168	 165508.
20:17:02 1344 1345	 1492633022	 223550096	 161332.
20:17:02 1345 1346	 1492633022	 385311654	 161761.
20:17:02 1346 1347	 1492633022	 522526088	 137215.
20:17:02 1347 1348	 1492633022	 683846534	 161320.
20:17:02 1348 1349	 1492633022	 845230688	 161384.
20:17:03 1349 1350	 1492633023	 10883289	 165653.
20:17:03 1350 1351	 1492633023	 172105690	 161222.
20:17:03 1351 1352	 1492633023	 309042194	 136937.
20:17:03 1352 1353	 1492633023	 470749077	 161707.
20:17:03 1353 1354	 1492633023	 636313375	 165564.
20:17:03 1354 1355	 1492633023	 797931163	 161618.
20:17:03 1355 1356	 1492633023	 959621262	 161690.
20:17:04 1356 1357	 1492633024	 96601174	 136980.
20:17:04 1357 1358	 1492633024	 258140773	 161539.
20:17:04 1358 1359	 1492633024	 419929221	 161789.
20:17:04 1359 1360	 1492633024	 585622596	 165694.
20:17:04 1360 1361	 1492633024	 747111547	 161488.
20:17:04 1361 1362	 1492633024	 908806540	 161695.
20:17:05 1362 1363	 1492633025	 45850600	 137044.
20:17:05 1363 1364	 1492633025	 207571352	 161721.
20:17:05 1364 1365	 1492633025	 373335024	 165764.
20:17:05 1365 1366	 1492633025	 534825568	 161490.
20:17:05 1366 1367	 1492633025	 696207548	 161382.
20:17:05 1367 1368	 1492633025	 862035972	 165829.
20:17:06 1368 1369	 1492633026	 23963308	 161927.
20:17:06 1369 1370	 1492633026	 156978304	 133015.
20:17:06 1370 1371	 1492633026	 322650802	 165673.
20:17:06 1371 1372	 1492633026	 484532366	 161881.
20:17:06 1372 1373	 1492633026	 646252450	 161720.
20:17:06 1373 1374	 1492633026	 811852067	 165600.
20:17:06 1374 1375	 1492633026	 973646273	 161794.
20:17:07 1375 1376	 1492633027	 139131902	 165486.
20:17:07 1376 1377	 1492633027	 271944293	 132812.
20:17:07 1377 1378	 1492633027	 437788464	 165844.
20:17:07 1378 1379	 1492633027	 599730524	 161942.
20:17:07 1379 1380	 1492633027	 761331306	 161601.
20:17:07 1380 1381	 1492633027	 926952710	 165621.
20:17:08 1381 1382	 1492633028	 88670629	 161718.
20:17:08 1382 1383	 1492633028	 225458955	 136789.
20:17:08 1383 1384	 1492633028	 386997637	 161538.
20:17:08 1384 1385	 1492633028	 548873541	 161876.
20:17:08 1385 1386	 1492633028	 714609437	 165736.
20:17:08 1386 1387	 1492633028	 876141369	 161532.
20:17:09 1387 1388	 1492633029	 41867345	 165726.
20:17:09 1388 1389	 1492633029	 203518193	 161651.
20:17:09 1389 1390	 1492633029	 336356729	 132838.
20:17:09 1390 1391	 1492633029	 497932106	 161576.
20:17:09 1391 1392	 1492633029	 663601773	 165669.
20:17:09 1392 1393	 1492633029	 825156812	 161556.
20:17:09 1393 1394	 1492633029	 990875661	 165718.
20:17:10 1394 1395	 1492633030	 152962010	 162087.
20:17:10 1395 1396	 1492633030	 290672773	 137710.
20:17:10 1396 1397	 1492633030	 452618779	 161947.
20:17:10 1397 1398	 1492633030	 618942178	 166323.
20:17:10 1398 1399	 1492633030	 781006686	 162064.
20:17:10 1399 1400	 1492633030	 947065116	 166059.
20:17:11 1400 1401	 1492633031	 108760109	 161695.
20:17:11 1401 1402	 1492633031	 274598142	 165838.
20:17:11 1402 1403	 1492633031	 407594396	 132996.
20:17:11 1403 1404	 1492633031	 569431607	 161837.
20:17:11 1404 1405	 1492633031	 735313373	 165882.
20:17:11 1405 1406	 1492633031	 896905967	 161593.
20:17:12 1406 1407	 1492633032	 58348365	 161442.
20:17:12 1407 1408	 1492633032	 224165164	 165817.
20:17:12 1408 1409	 1492633032	 357408783	 133243.
20:17:12 1409 1410	 1492633032	 523352413	 165944.
20:17:12 1410 1411	 1492633032	 685098965	 161747.
20:17:12 1411 1412	 1492633032	 850842641	 165743.
20:17:13 1412 1413	 1492633033	 12526572	 161684.
20:17:13 1413 1414	 1492633033	 174360589	 161834.
20:17:13 1414 1415	 1492633033	 311340234	 136980.
20:17:13 1415 1416	 1492633033	 473045575	 161705.
20:17:13 1416 1417	 1492633033	 634971395	 161926.
20:17:13 1417 1418	 1492633033	 800765387	 165794.
20:17:13 1418 1419	 1492633033	 962429373	 161664.
20:17:14 1419 1420	 1492633034	 128558068	 166129.
20:17:14 1420 1421	 1492633034	 290627676	 162069.
20:17:14 1421 1422	 1492633034	 456771996	 166145.
20:17:14 1422 1423	 1492633034	 618824146	 162052.
20:17:14 1423 1424	 1492633034	 751763637	 132939.
20:17:14 1424 1425	 1492633034	 917721151	 165958.
20:17:15 1425 1426	 1492633035	 79947711	 162226.
20:17:15 1426 1427	 1492633035	 246084448	 166137.
20:17:15 1427 1428	 1492633035	 412301393	 166217.
20:17:15 1428 1429	 1492633035	 574096070	 161795.
20:17:15 1429 1430	 1492633035	 707470784	 133374.
20:17:15 1430 1431	 1492633035	 873661327	 166191.
20:17:16 1431 1432	 1492633036	 35795831	 162135.
20:17:16 1432 1433	 1492633036	 202640982	 166845.
20:17:16 1433 1434	 1492633036	 360341870	 157701.
20:17:16 1434 1435	 1492633036	 522611779	 162269.
20:17:16 1435 1436	 1492633036	 688593184	 165982.
20:17:16 1436 1437	 1492633036	 850856919	 162264.
20:17:16 1437 1438	 1492633036	 988196273	 137339.
20:17:17 1438 1439	 1492633037	 175265959	 187070.
20:17:17 1439 1440	 1492633037	 308219258	 132953.
20:17:17 1440 1441	 1492633037	 474426211	 166207.
20:17:17 1441 1442	 1492633037	 636197117	 161771.
20:17:17 1442 1443	 1492633037	 802604881	 166408.
20:17:17 1443 1444	 1492633037	 964669588	 162064.
20:17:18 1444 1445	 1492633038	 101793189	 137124.
20:17:18 1445 1446	 1492633038	 263228392	 161435.
20:17:18 1446 1447	 1492633038	 424599119	 161371.
20:17:18 1447 1448	 1492633038	 589960619	 165361.
20:17:18 1448 1449	 1492633038	 752191425	 162231.
20:17:18 1449 1450	 1492633038	 918130508	 165939.
20:17:19 1450 1451	 1492633039	 51563165	 133433.
20:17:19 1451 1452	 1492633039	 217937459	 166374.
20:17:19 1452 1453	 1492633039	 379940101	 162003.
20:17:19 1453 1454	 1492633039	 545832736	 165892.
20:17:19 1454 1455	 1492633039	 707595205	 161763.
20:17:19 1455 1456	 1492633039	 869500253	 161905.
20:17:20 1456 1457	 1492633040	 6571564	 137071.
20:17:20 1457 1458	 1492633040	 168635681	 162064.
20:17:20 1458 1459	 1492633040	 334648123	 166013.
20:17:20 1459 1460	 1492633040	 496539223	 161891.
20:17:20 1460 1461	 1492633040	 633805050	 137266.
20:17:20 1461 1462	 1492633040	 795772075	 161967.
20:17:20 1462 1463	 1492633040	 961596679	 165824.
20:17:21 1463 1464	 1492633041	 123428464	 161832.
20:17:21 1464 1465	 1492633041	 289108855	 165681.
20:17:21 1465 1466	 1492633041	 422318818	 133210.
20:17:21 1466 1467	 1492633041	 588521131	 166202.
20:17:21 1467 1468	 1492633041	 750427872	 161907.
20:17:21 1468 1469	 1492633041	 912334564	 161906.
20:17:22 1469 1470	 1492633042	 78123237	 165789.
20:17:22 1470 1471	 1492633042	 239526041	 161403.
20:17:22 1471 1472	 1492633042	 376700672	 137174.
20:17:22 1472 1473	 1492633042	 538189158	 161489.
20:17:22 1473 1474	 1492633042	 704033523	 165844.
20:17:22 1474 1475	 1492633042	 861466583	 157433.
20:17:23 1475 1476	 1492633043	 27260311	 165794.
20:17:23 1476 1477	 1492633043	 188887943	 161628.
20:17:23 1477 1478	 1492633043	 354537445	 165649.
20:17:23 1478 1479	 1492633043	 487513066	 132976.
20:17:23 1479 1480	 1492633043	 649112151	 161599.
20:17:23 1480 1481	 1492633043	 814657619	 165545.
20:17:23 1481 1482	 1492633043	 976210866	 161554.
20:17:24 1482 1483	 1492633044	 141898532	 165687.
20:17:24 1483 1484	 1492633044	 303412843	 161515.
20:17:24 1484 1485	 1492633044	 436244191	 132831.
20:17:24 1485 1486	 1492633044	 602366067	 166122.
20:17:24 1486 1487	 1492633044	 763965500	 161599.
20:17:24 1487 1488	 1492633044	 929952051	 165987.
20:17:25 1488 1489	 1492633045	 92393161	 162441.
20:17:25 1489 1490	 1492633045	 258274096	 165881.
20:17:25 1490 1491	 1492633045	 395850482	 137576.
20:17:25 1491 1492	 1492633045	 557449742	 161599.
20:17:25 1492 1493	 1492633045	 722977944	 165529.
20:17:25 1493 1494	 1492633045	 884991824	 162014.
20:17:26 1494 1495	 1492633046	 50730632	 165738.
20:17:26 1495 1496	 1492633046	 183864786	 133134.
20:17:26 1496 1497	 1492633046	 345225167	 161361.
20:17:26 1497 1498	 1492633046	 510899792	 165674.
20:17:26 1498 1499	 1492633046	 643765799	 132866.
20:17:26 1499 1500	 1492633046	 805575736	 161810.
20:17:26 1500 1501	 1492633046	 971507489	 165932.
20:17:27 1501 1502	 1492633047	 133372641	 161865.
20:17:27 1502 1503	 1492633047	 299253421	 165881.
20:17:27 1503 1504	 1492633047	 461376349	 162123.
20:17:27 1504 1505	 1492633047	 627479080	 166103.
20:17:27 1505 1506	 1492633047	 760668396	 133189.
20:17:27 1506 1507	 1492633047	 926648891	 165981.
20:17:28 1507 1508	 1492633048	 88653995	 162005.
20:17:28 1508 1509	 1492633048	 255766243	 167112.
20:17:28 1509 1510	 1492633048	 409336437	 153570.
20:17:28 1510 1511	 1492633048	 575466923	 166131.
20:17:28 1511 1512	 1492633048	 708307283	 132840.
20:17:28 1512 1513	 1492633048	 874087553	 165780.
20:17:29 1513 1514	 1492633049	 36148910	 162062.
20:17:29 1514 1515	 1492633049	 202055508	 165906.
20:17:29 1515 1516	 1492633049	 364200126	 162145.
20:17:29 1516 1517	 1492633049	 529955521	 165755.
20:17:29 1517 1518	 1492633049	 663359618	 133404.
20:17:29 1518 1519	 1492633049	 829677536	 166318.
20:17:29 1519 1520	 1492633049	 991567474	 161890.
20:17:30 1520 1521	 1492633050	 157492673	 165925.
20:17:30 1521 1522	 1492633050	 319804576	 162312.
20:17:30 1522 1523	 1492633050	 485720880	 165917.
20:17:30 1523 1524	 1492633050	 618932629	 133211.
20:17:30 1524 1525	 1492633050	 784618637	 165686.
20:17:30 1525 1526	 1492633050	 946826116	 162208.
20:17:31 1526 1527	 1492633051	 112994154	 166168.
20:17:31 1527 1528	 1492633051	 274780724	 161786.
20:17:31 1528 1529	 1492633051	 407976093	 133196.
20:17:31 1529 1530	 1492633051	 574037905	 166062.
20:17:31 1530 1531	 1492633051	 736032078	 161994.
20:17:31 1531 1532	 1492633051	 901690682	 165658.
20:17:32 1532 1533	 1492633052	 67433654	 165743.
20:17:32 1533 1534	 1492633052	 229497320	 162064.
20:17:32 1534 1535	 1492633052	 362700960	 133204.
20:17:32 1535 1536	 1492633052	 528823596	 166122.
20:17:32 1536 1537	 1492633052	 690353475	 161530.
20:17:32 1537 1538	 1492633052	 856640123	 166287.
20:17:33 1538 1539	 1492633053	 18646334	 162006.
20:17:33 1539 1540	 1492633053	 155723316	 137077.
20:17:33 1540 1541	 1492633053	 317352730	 161629.
20:17:33 1541 1542	 1492633053	 482917092	 165565.
20:17:33 1542 1543	 1492633053	 644731064	 161814.
20:17:33 1543 1544	 1492633053	 810787942	 166057.
20:17:33 1544 1545	 1492633053	 943815831	 133028.
20:17:34 1545 1546	 1492633054	 109921388	 166105.
20:17:34 1546 1547	 1492633054	 271479907	 161559.
20:17:34 1547 1548	 1492633054	 437792670	 166312.
20:17:34 1548 1549	 1492633054	 600174819	 162383.
20:17:34 1549 1550	 1492633054	 765953204	 165778.
20:17:34 1550 1551	 1492633054	 927807606	 161854.
20:17:35 1551 1552	 1492633055	 60819961	 133013.
20:17:35 1552 1553	 1492633055	 226742148	 165922.
20:17:35 1553 1554	 1492633055	 388552164	 161810.
20:17:35 1554 1555	 1492633055	 554122106	 165570.
20:17:35 1555 1556	 1492633055	 715776788	 161654.
20:17:35 1556 1557	 1492633055	 852886551	 137110.
20:17:36 1557 1558	 1492633056	 14884531	 161998.
20:17:36 1558 1559	 1492633056	 181103588	 166219.
20:17:36 1559 1560	 1492633056	 342664860	 161562.
20:17:36 1560 1561	 1492633056	 509272215	 166607.
20:17:36 1561 1562	 1492633056	 642616763	 133344.
20:17:36 1562 1563	 1492633056	 808933438	 166317.
20:17:36 1563 1564	 1492633056	 970692031	 161759.
20:17:37 1564 1565	 1492633057	 137094154	 166402.
20:17:37 1565 1566	 1492633057	 299061648	 161967.
20:17:37 1566 1567	 1492633057	 464966129	 165905.
20:17:37 1567 1568	 1492633057	 597978983	 133013.
20:17:37 1568 1569	 1492633057	 763933165	 165954.
20:17:37 1569 1570	 1492633057	 925977688	 162044.
20:17:38 1570 1571	 1492633058	 92216089	 166239.
20:17:38 1571 1572	 1492633058	 254262548	 162046.
20:17:38 1572 1573	 1492633058	 419956147	 165694.
20:17:38 1573 1574	 1492633058	 553285992	 133330.
20:17:38 1574 1575	 1492633058	 719373445	 166087.
20:17:38 1575 1576	 1492633058	 881467735	 162094.
20:17:39 1576 1577	 1492633059	 47167023	 165700.
20:17:39 1577 1578	 1492633059	 209010257	 161843.
20:17:39 1578 1579	 1492633059	 346201781	 137192.
20:17:39 1579 1580	 1492633059	 508114456	 161912.
20:17:39 1580 1581	 1492633059	 670125007	 162011.
20:17:39 1581 1582	 1492633059	 835869397	 165744.
20:17:39 1582 1583	 1492633059	 997647992	 161779.
20:17:40 1583 1584	 1492633060	 163394378	 165746.
20:17:40 1584 1585	 1492633060	 324979953	 161586.
20:17:40 1585 1586	 1492633060	 490854234	 165874.
20:17:40 1586 1587	 1492633060	 652514743	 161660.
20:17:40 1587 1588	 1492633060	 785525798	 133012.
20:17:40 1588 1589	 1492633060	 951647702	 166121.
20:17:41 1589 1590	 1492633061	 113362830	 161716.
20:17:41 1590 1591	 1492633061	 275178187	 161815.
20:17:41 1591 1592	 1492633061	 441365072	 166187.
20:17:41 1592 1593	 1492633061	 603156681	 161791.
20:17:41 1593 1594	 1492633061	 769067855	 165912.
20:17:41 1594 1595	 1492633061	 930871270	 161803.
20:17:42 1595 1596	 1492633062	 92652344	 161781.
20:17:42 1596 1597	 1492633062	 258565344	 165913.
20:17:42 1597 1598	 1492633062	 420447649	 161882.
20:17:42 1598 1599	 1492633062	 553597958	 133151.
20:17:42 1599 1600	 1492633062	 719489694	 165891.
20:17:42 1600 1601	 1492633062	 881336326	 161847.
20:17:43 1601 1602	 1492633063	 47290488	 165954.
20:17:43 1602 1603	 1492633063	 209174951	 161885.
20:17:43 1603 1604	 1492633063	 370867180	 161692.
20:17:43 1604 1605	 1492633063	 536740002	 165873.
20:17:43 1605 1606	 1492633063	 698540364	 161800.
20:17:43 1606 1607	 1492633063	 864262168	 165722.
20:17:44 1607 1608	 1492633064	 26085716	 161823.
20:17:44 1608 1609	 1492633064	 159379849	 133295.
20:17:44 1609 1610	 1492633064	 325519023	 166139.
20:17:44 1610 1611	 1492633064	 487432410	 161913.
20:17:44 1611 1612	 1492633064	 649405665	 161973.
20:17:44 1612 1613	 1492633064	 815337353	 165932.
20:17:44 1613 1614	 1492633064	 977263447	 161926.
20:17:45 1614 1615	 1492633065	 143299871	 166037.
20:17:45 1615 1616	 1492633065	 294577242	 151277.
20:17:45 1616 1617	 1492633065	 456763538	 162186.
20:17:45 1617 1618	 1492633065	 622503865	 165741.
20:17:45 1618 1619	 1492633065	 784008651	 161504.
20:17:45 1619 1620	 1492633065	 949491049	 165483.
20:17:46 1620 1621	 1492633066	 82404261	 132913.
20:17:46 1621 1622	 1492633066	 243606731	 161202.
20:17:46 1622 1623	 1492633066	 409260188	 165654.
20:17:46 1623 1624	 1492633066	 570875045	 161615.
20:17:46 1624 1625	 1492633066	 736395268	 165520.
20:17:46 1625 1626	 1492633066	 869255850	 132861.
20:17:47 1626 1627	 1492633067	 34955249	 165699.
20:17:47 1627 1628	 1492633067	 196694763	 161739.
20:17:47 1628 1629	 1492633067	 362233260	 165539.
20:17:47 1629 1630	 1492633067	 524055275	 161822.
20:17:47 1630 1631	 1492633067	 689839018	 165784.
20:17:47 1631 1632	 1492633067	 822965211	 133126.
20:17:47 1632 1633	 1492633067	 988665325	 165700.
20:17:48 1633 1634	 1492633068	 150390918	 161726.
20:17:48 1634 1635	 1492633068	 316157191	 165766.
20:17:48 1635 1636	 1492633068	 477641737	 161484.
20:17:48 1636 1637	 1492633068	 639079071	 161438.
20:17:48 1637 1638	 1492633068	 772044316	 132965.
20:17:48 1638 1639	 1492633068	 937937018	 165893.
20:17:49 1639 1640	 1492633069	 103692284	 165755.
20:17:49 1640 1641	 1492633069	 265636742	 161944.
20:17:49 1641 1642	 1492633069	 431166098	 165530.
20:17:49 1642 1643	 1492633069	 564475433	 133309.
20:17:49 1643 1644	 1492633069	 726487153	 162012.
20:17:49 1644 1645	 1492633069	 892363823	 165877.
20:17:50 1645 1646	 1492633070	 54257590	 161894.
20:17:50 1646 1647	 1492633070	 220177125	 165919.
20:17:50 1647 1648	 1492633070	 382186631	 162009.
20:17:50 1648 1649	 1492633070	 543780422	 161594.
20:17:50 1649 1650	 1492633070	 681050821	 137271.
20:17:50 1650 1651	 1492633070	 842979231	 161928.
20:17:51 1651 1652	 1492633071	 8575719	 165596.
20:17:51 1652 1653	 1492633071	 170400640	 161825.
20:17:51 1653 1654	 1492633071	 335982651	 165582.
20:17:51 1654 1655	 1492633071	 469041361	 133059.
20:17:51 1655 1656	 1492633071	 634921988	 165881.
20:17:51 1656 1657	 1492633071	 796781974	 161860.
20:17:51 1657 1658	 1492633071	 962635140	 165853.
20:17:52 1658 1659	 1492633072	 124389457	 161754.
20:17:52 1659 1660	 1492633072	 257715692	 133326.
20:17:52 1660 1661	 1492633072	 423450351	 165735.
20:17:52 1661 1662	 1492633072	 585202123	 161752.
20:17:52 1662 1663	 1492633072	 750889885	 165688.
20:17:52 1663 1664	 1492633072	 887754232	 136864.
20:17:53 1664 1665	 1492633073	 49298895	 161545.
20:17:53 1665 1666	 1492633073	 214862377	 165563.
20:17:53 1666 1667	 1492633073	 376497902	 161636.
20:17:53 1667 1668	 1492633073	 542328401	 165830.
20:17:53 1668 1669	 1492633073	 675297857	 132970.
20:17:53 1669 1670	 1492633073	 836883501	 161585.
20:17:54 1670 1671	 1492633074	 2724013	 165841.
20:17:54 1671 1672	 1492633074	 164329507	 161605.
20:17:54 1672 1673	 1492633074	 326146406	 161817.
20:17:54 1673 1674	 1492633074	 492048062	 165902.
20:17:54 1674 1675	 1492633074	 653899762	 161851.
20:17:54 1675 1676	 1492633074	 790975406	 137076.
20:17:54 1676 1677	 1492633074	 952436184	 161461.
20:17:55 1677 1678	 1492633075	 117952476	 165516.
20:17:55 1678 1679	 1492633075	 279412381	 161460.
20:17:55 1679 1680	 1492633075	 440959517	 161547.
20:17:55 1680 1681	 1492633075	 574040354	 133081.
20:17:55 1681 1682	 1492633075	 739628401	 165588.
20:17:55 1682 1683	 1492633075	 901071951	 161444.
20:17:56 1683 1684	 1492633076	 66905372	 165833.
20:17:56 1684 1685	 1492633076	 228566626	 161661.
20:17:56 1685 1686	 1492633076	 390430646	 161864.
20:17:56 1686 1687	 1492633076	 556025269	 165595.
20:17:56 1687 1688	 1492633076	 688913730	 132888.
20:17:56 1688 1689	 1492633076	 850209079	 161296.
20:17:57 1689 1690	 1492633077	 15784278	 165575.
20:17:57 1690 1691	 1492633077	 177349895	 161566.
20:17:57 1691 1692	 1492633077	 342986069	 165636.
20:17:57 1692 1693	 1492633077	 475746518	 132760.
20:17:57 1693 1694	 1492633077	 637087347	 161341.
20:17:57 1694 1695	 1492633077	 802737547	 165650.
20:17:57 1695 1696	 1492633077	 964896058	 162159.
20:17:58 1696 1697	 1492633078	 130932874	 166037.
20:17:58 1697 1698	 1492633078	 297267087	 166334.
20:17:58 1698 1699	 1492633078	 459569854	 162303.
20:17:58 1699 1700	 1492633078	 593318702	 133748.
20:17:58 1700 1701	 1492633078	 759893036	 166575.
20:17:58 1701 1702	 1492633078	 922328165	 162435.
20:17:59 1702 1703	 1492633079	 88398743	 166070.
20:17:59 1703 1704	 1492633079	 254278713	 165880.
20:17:59 1704 1705	 1492633079	 416273322	 161995.
20:17:59 1705 1706	 1492633079	 582522196	 166249.
20:17:59 1706 1707	 1492633079	 744672151	 162150.
20:17:59 1707 1708	 1492633079	 910684155	 166012.
20:18:00 1708 1709	 1492633080	 43992726	 133308.
20:18:00 1709 1710	 1492633080	 205717170	 161725.
20:18:00 1710 1711	 1492633080	 371404283	 165687.
20:18:00 1711 1712	 1492633080	 532977785	 161573.
20:18:00 1712 1713	 1492633080	 698715155	 165738.
20:18:00 1713 1714	 1492633080	 860404509	 161689.
20:18:01 1714 1715	 1492633081	 22043937	 161640.
20:18:01 1715 1716	 1492633081	 159363873	 137320.
20:18:01 1716 1717	 1492633081	 320994194	 161630.
20:18:01 1717 1718	 1492633081	 482635329	 161641.
20:18:01 1718 1719	 1492633081	 648394189	 165759.
20:18:01 1719 1720	 1492633081	 810234697	 161840.
20:18:01 1720 1721	 1492633081	 976018654	 165784.
20:18:02 1721 1722	 1492633082	 148891825	 172874.
20:18:02 1722 1723	 1492633082	 282183023	 133291.
20:18:02 1723 1724	 1492633082	 444024241	 161841.
20:18:02 1724 1725	 1492633082	 605758790	 161734.
20:18:02 1725 1726	 1492633082	 771562056	 165804.
20:18:02 1726 1727	 1492633082	 933472549	 161910.
20:18:03 1727 1728	 1492633083	 99273231	 165801.
20:18:03 1728 1729	 1492633083	 261035942	 161763.
20:18:03 1729 1730	 1492633083	 394213328	 133177.
20:18:03 1730 1731	 1492633083	 560020410	 165807.
20:18:03 1731 1732	 1492633083	 721688882	 161669.
20:18:03 1732 1733	 1492633083	 887585507	 165896.
20:18:04 1733 1734	 1492633084	 49461181	 161876.
20:18:04 1734 1735	 1492633084	 211234480	 161773.
20:18:04 1735 1736	 1492633084	 376977347	 165743.
20:18:04 1736 1737	 1492633084	 538842338	 161865.
20:18:04 1737 1738	 1492633084	 675865560	 137023.
20:18:04 1738 1739	 1492633084	 837580534	 161715.
20:18:04 1739 1740	 1492633084	 999295859	 161716.
20:18:05 1740 1741	 1492633085	 165295425	 165999.
20:18:05 1741 1742	 1492633085	 327126221	 161831.
20:18:05 1742 1743	 1492633085	 492868714	 165742.
20:18:05 1743 1744	 1492633085	 654678745	 161810.
20:18:05 1744 1745	 1492633085	 791562344	 136884.
20:18:05 1745 1746	 1492633085	 949410230	 157848.
20:18:06 1746 1747	 1492633086	 114984857	 165575.
20:18:06 1747 1748	 1492633086	 276553140	 161568.
20:18:06 1748 1749	 1492633086	 442210692	 165657.
20:18:06 1749 1750	 1492633086	 603509457	 161299.
20:18:06 1750 1751	 1492633086	 736327090	 132818.
20:18:06 1751 1752	 1492633086	 902446830	 166120.
20:18:07 1752 1753	 1492633087	 64461693	 162014.
20:18:07 1753 1754	 1492633087	 225972088	 161511.
20:18:07 1754 1755	 1492633087	 391567812	 165596.
20:18:07 1755 1756	 1492633087	 553227880	 161660.
20:18:07 1756 1757	 1492633087	 718906794	 165679.
20:18:07 1757 1758	 1492633087	 851819672	 132912.
20:18:08 1758 1759	 1492633088	 13193437	 161374.
20:18:08 1759 1760	 1492633088	 178661708	 165468.
20:18:08 1760 1761	 1492633088	 340109920	 161449.
20:18:08 1761 1762	 1492633088	 501674570	 161564.
20:18:08 1762 1763	 1492633088	 638901841	 137228.
20:18:08 1763 1764	 1492633088	 800781416	 161879.
20:18:08 1764 1765	 1492633088	 966370560	 165589.
20:18:09 1765 1766	 1492633089	 127986100	 161616.
20:18:09 1766 1767	 1492633089	 289504741	 161518.
20:18:09 1767 1768	 1492633089	 455135890	 165632.
20:18:09 1768 1769	 1492633089	 616799326	 161663.
20:18:09 1769 1770	 1492633089	 753683654	 136884.
20:18:09 1770 1771	 1492633089	 915254595	 161572.
20:18:10 1771 1772	 1492633090	 76698617	 161443.
20:18:10 1772 1773	 1492633090	 242353148	 165655.
20:18:10 1773 1774	 1492633090	 404398752	 162045.
20:18:10 1774 1775	 1492633090	 570309193	 165911.
20:18:10 1775 1776	 1492633090	 732306875	 161998.
20:18:10 1776 1777	 1492633090	 898846327	 166539.
20:18:11 1777 1778	 1492633091	 32408512	 133562.
20:18:11 1778 1779	 1492633091	 198021948	 165614.
20:18:11 1779 1780	 1492633091	 360269999	 162248.
20:18:11 1780 1781	 1492633091	 526662311	 166392.
20:18:11 1781 1782	 1492633091	 688702848	 162041.
20:18:11 1782 1783	 1492633091	 854594751	 165891.
20:18:12 1783 1784	 1492633092	 16389969	 161796.
20:18:12 1784 1785	 1492633092	 178256087	 161866.
20:18:12 1785 1786	 1492633092	 344384008	 166128.
20:18:12 1786 1787	 1492633092	 506278017	 161894.
20:18:12 1787 1788	 1492633092	 668175160	 161897.
20:18:12 1788 1789	 1492633092	 834122431	 165947.
20:18:12 1789 1790	 1492633092	 996229482	 162107.
20:18:13 1790 1791	 1492633093	 162347703	 166118.
20:18:13 1791 1792	 1492633093	 335005099	 172658.
20:18:13 1792 1793	 1492633093	 468294402	 133289.
20:18:13 1793 1794	 1492633093	 634144496	 165850.
20:18:13 1794 1795	 1492633093	 796009492	 161865.
20:18:13 1795 1796	 1492633093	 961888312	 165879.
20:18:14 1796 1797	 1492633094	 123982979	 162095.
20:18:14 1797 1798	 1492633094	 285929977	 161947.
20:18:14 1798 1799	 1492633094	 451759399	 165829.
20:18:14 1799 1800	 1492633094	 584820656	 133061.
20:18:14 1800 1801	 1492633094	 746545216	 161725.
20:18:14 1801 1802	 1492633094	 912497857	 165953.
20:18:15 1802 1803	 1492633095	 74375267	 161877.
20:18:15 1803 1804	 1492633095	 236162713	 161787.
20:18:15 1804 1805	 1492633095	 402206718	 166044.
20:18:15 1805 1806	 1492633095	 564069117	 161863.
20:18:15 1806 1807	 1492633095	 729978680	 165909.
20:18:15 1807 1808	 1492633095	 891558699	 161580.
20:18:16 1808 1809	 1492633096	 28513643	 136955.
20:18:16 1809 1810	 1492633096	 190377867	 161865.
20:18:16 1810 1811	 1492633096	 352099939	 161722.
20:18:16 1811 1812	 1492633096	 518018906	 165919.
20:18:16 1812 1813	 1492633096	 679831253	 161812.
20:18:16 1813 1814	 1492633096	 845648598	 165817.
20:18:17 1814 1815	 1492633097	 7471922	 161824.
20:18:17 1815 1816	 1492633097	 169194011	 161722.
20:18:17 1816 1817	 1492633097	 306409662	 137215.
20:18:17 1817 1818	 1492633097	 468359000	 161950.
20:18:17 1818 1819	 1492633097	 634282282	 165923.
20:18:17 1819 1820	 1492633097	 796009191	 161727.
20:18:17 1820 1821	 1492633097	 957488142	 161479.
20:18:18 1821 1822	 1492633098	 123333625	 165845.
20:18:18 1822 1823	 1492633098	 285193299	 161860.
20:18:18 1823 1824	 1492633098	 451349667	 166156.
20:18:18 1824 1825	 1492633098	 613244799	 161896.
20:18:18 1825 1826	 1492633098	 746373101	 133128.
20:18:18 1826 1827	 1492633098	 912187788	 165815.
20:18:19 1827 1828	 1492633099	 74960535	 162772.
20:18:19 1828 1829	 1492633099	 236695874	 161736.
20:18:19 1829 1830	 1492633099	 398518156	 161822.
20:18:19 1830 1831	 1492633099	 564556758	 166038.
20:18:19 1831 1832	 1492633099	 726256579	 161700.
20:18:19 1832 1833	 1492633099	 888156674	 161900.
20:18:20 1833 1834	 1492633100	 53943770	 165787.
20:18:20 1834 1835	 1492633100	 187064606	 133121.
20:18:20 1835 1836	 1492633100	 352900736	 165836.
20:18:20 1836 1837	 1492633100	 514571542	 161671.
20:18:20 1837 1838	 1492633100	 675897200	 161326.
20:18:20 1838 1839	 1492633100	 841747137	 165850.
20:18:21 1839 1840	 1492633101	 3340280	 161593.
20:18:21 1840 1841	 1492633101	 169043503	 165703.
20:18:21 1841 1842	 1492633101	 301895295	 132852.
20:18:21 1842 1843	 1492633101	 467505784	 165610.
20:18:21 1843 1844	 1492633101	 629074480	 161569.
20:18:21 1844 1845	 1492633101	 790814027	 161740.
20:18:21 1845 1846	 1492633101	 956722966	 165909.
20:18:22 1846 1847	 1492633102	 118383417	 161660.
20:18:22 1847 1848	 1492633102	 284335541	 165952.
20:18:22 1848 1849	 1492633102	 417427417	 133092.
20:18:22 1849 1850	 1492633102	 583631770	 166204.
20:18:22 1850 1851	 1492633102	 745332887	 161702.
20:18:22 1851 1852	 1492633102	 907067341	 161734.
20:18:23 1852 1853	 1492633103	 72763702	 165696.
20:18:23 1853 1854	 1492633103	 234486180	 161723.
20:18:23 1854 1855	 1492633103	 400001514	 165515.
20:18:23 1855 1856	 1492633103	 533021908	 133021.
20:18:23 1856 1857	 1492633103	 694496178	 161474.
20:18:23 1857 1858	 1492633103	 860309339	 165813.
20:18:24 1858 1859	 1492633104	 22246086	 161937.
20:18:24 1859 1860	 1492633104	 187950528	 165704.
20:18:24 1860 1861	 1492633104	 349411073	 161461.
20:18:24 1861 1862	 1492633104	 486493997	 137083.
20:18:24 1862 1863	 1492633104	 648220203	 161726.
20:18:24 1863 1864	 1492633104	 809692388	 161472.
20:18:24 1864 1865	 1492633104	 975569259	 165877.
20:18:25 1865 1866	 1492633105	 137257254	 161688.
20:18:25 1866 1867	 1492633105	 302956387	 165699.
20:18:25 1867 1868	 1492633105	 435842606	 132886.
20:18:25 1868 1869	 1492633105	 597160054	 161318.
20:18:25 1869 1870	 1492633105	 762814936	 165655.
20:18:25 1870 1871	 1492633105	 924513197	 161698.
20:18:26 1871 1872	 1492633106	 90389433	 165876.
20:18:26 1872 1873	 1492633106	 251868973	 161480.
20:18:26 1873 1874	 1492633106	 384868510	 132999.
20:18:26 1874 1875	 1492633106	 550930109	 166062.
20:18:26 1875 1876	 1492633106	 712784053	 161854.
20:18:26 1876 1877	 1492633106	 879122406	 166338.
20:18:27 1877 1878	 1492633107	 41266514	 162144.
20:18:27 1878 1879	 1492633107	 207135665	 165869.
20:18:27 1879 1880	 1492633107	 340410661	 133275.
20:18:27 1880 1881	 1492633107	 506438354	 166028.
20:18:27 1881 1882	 1492633107	 667919733	 161481.
20:18:27 1882 1883	 1492633107	 833439667	 165520.
20:18:27 1883 1884	 1492633107	 994919557	 161480.
20:18:28 1884 1885	 1492633108	 160412858	 165494.
20:18:28 1885 1886	 1492633108	 293329328	 132916.
20:18:28 1886 1887	 1492633108	 454860334	 161531.
