10:33:57    0 Step	 time(s)	 time(ns)	 delta(ms)
10:33:57    0 1	 1492770837	 864607270	 912.
10:33:58    1 2	 1492770838	 31243011	 166636.
10:33:58    2 3	 1492770838	 193046646	 161803.
10:33:58    3 4	 1492770838	 359408498	 166362.
10:33:58    4 5	 1492770838	 521685034	 162277.
10:33:58    5 6	 1492770838	 688069578	 166384.
10:33:58    6 7	 1492770838	 850142566	 162073.
10:33:58    7 8	 1492770838	 987642307	 137500.
10:33:59    8 9	 1492770839	 149731759	 162089.
10:33:59    9 10	 1492770839	 315756046	 166025.
10:33:59   10 11	 1492770839	 481689292	 165933.
10:33:59   11 12	 1492770839	 643474032	 161785.
10:33:59   12 13	 1492770839	 780579468	 137105.
10:33:59   13 14	 1492770839	 942326723	 161747.
10:34:00   14 15	 1492770840	 108494257	 166168.
10:34:00   15 16	 1492770840	 270759261	 162265.
10:34:00   16 17	 1492770840	 436784796	 166025.
10:34:00   17 18	 1492770840	 598600373	 161816.
10:34:00   18 19	 1492770840	 760327800	 161727.
10:34:00   19 20	 1492770840	 897477610	 137150.
10:34:01   20 21	 1492770841	 58960379	 161483.
10:34:01   21 22	 1492770841	 220388152	 161428.
10:34:01   22 23	 1492770841	 386162676	 165774.
10:34:01   23 24	 1492770841	 547850911	 161689.
10:34:01   24 25	 1492770841	 713614363	 165763.
10:34:01   25 26	 1492770841	 875339057	 161725.
10:34:02   26 27	 1492770842	 8396732	 133057.
10:34:02   27 28	 1492770842	 174189031	 165793.
10:34:02   28 29	 1492770842	 335945254	 161756.
10:34:02   29 30	 1492770842	 501826948	 165882.
10:34:02   30 31	 1492770842	 664000933	 162174.
10:34:02   31 32	 1492770842	 825433256	 161432.
10:34:02   32 33	 1492770842	 991391584	 165958.
10:34:03   33 34	 1492770843	 153137056	 161746.
10:34:03   34 35	 1492770843	 333525667	 180388.
10:34:03   35 36	 1492770843	 466810764	 133285.
10:34:03   36 37	 1492770843	 632632809	 165823.
10:34:03   37 38	 1492770843	 794199637	 161566.
10:34:03   38 39	 1492770843	 927203864	 133005.
10:34:04   39 40	 1492770844	 93089094	 165885.
10:34:04   40 41	 1492770844	 254854514	 161765.
10:34:04   41 42	 1492770844	 420689884	 165836.
10:34:04   42 43	 1492770844	 582268611	 161578.
10:34:04   43 44	 1492770844	 747987488	 165719.
10:34:04   44 45	 1492770844	 909798791	 161812.
10:34:05   45 46	 1492770845	 47036827	 137238.
10:34:05   46 47	 1492770845	 208915658	 161878.
10:34:05   47 48	 1492770845	 370640546	 161725.
10:34:05   48 49	 1492770845	 536429404	 165789.
10:34:05   49 50	 1492770845	 698395428	 161966.
10:34:05   50 51	 1492770845	 864239051	 165844.
10:34:05   51 52	 1492770845	 997373708	 133134.
10:34:06   52 53	 1492770846	 163213812	 165841.
10:34:06   53 54	 1492770846	 324873378	 161659.
10:34:06   54 55	 1492770846	 486463148	 161590.
10:34:06   55 56	 1492770846	 652312947	 165850.
10:34:06   56 57	 1492770846	 813977514	 161664.
10:34:06   57 58	 1492770846	 980274436	 166297.
10:34:07   58 59	 1492770847	 113464403	 133190.
10:34:07   59 60	 1492770847	 274796029	 161332.
10:34:07   60 61	 1492770847	 440375988	 165580.
10:34:07   61 62	 1492770847	 601754648	 161378.
10:34:07   62 63	 1492770847	 767347552	 165593.
10:34:07   63 64	 1492770847	 900181749	 132835.
10:34:08   64 65	 1492770848	 65829081	 165647.
10:34:08   65 66	 1492770848	 227352225	 161523.
10:34:08   66 67	 1492770848	 388832219	 161480.
10:34:08   67 68	 1492770848	 554506110	 165674.
10:34:08   68 69	 1492770848	 687360975	 132855.
10:34:08   69 70	 1492770848	 853346491	 165985.
10:34:09   70 71	 1492770849	 10709732	 157363.
10:34:09   71 72	 1492770849	 172252087	 161543.
10:34:09   72 73	 1492770849	 337690749	 165438.
10:34:09   73 74	 1492770849	 470566091	 132876.
10:34:09   74 75	 1492770849	 636194484	 165628.
10:34:09   75 76	 1492770849	 797919499	 161725.
10:34:09   76 77	 1492770849	 959479594	 161560.
10:34:10   77 78	 1492770850	 125127675	 165648.
10:34:10   78 79	 1492770850	 287056805	 161929.
10:34:10   79 80	 1492770850	 424339375	 137283.
10:34:10   80 81	 1492770850	 590406142	 166067.
10:34:10   81 82	 1492770850	 752385573	 161979.
10:34:10   82 83	 1492770850	 918413122	 166028.
10:34:11   83 84	 1492770851	 80482894	 162070.
10:34:11   84 85	 1492770851	 247008057	 166525.
10:34:11   85 86	 1492770851	 409058072	 162050.
10:34:11   86 87	 1492770851	 575034181	 165976.
10:34:11   87 88	 1492770851	 708832798	 133798.
10:34:11   88 89	 1492770851	 874969717	 166137.
10:34:12   89 90	 1492770852	 37150226	 162181.
10:34:12   90 91	 1492770852	 203432433	 166282.
10:34:12   91 92	 1492770852	 365320796	 161888.
10:34:12   92 93	 1492770852	 531560398	 166240.
10:34:12   93 94	 1492770852	 693801344	 162241.
10:34:12   94 95	 1492770852	 859895910	 166095.
10:34:12   95 96	 1492770852	 993425965	 133530.
10:34:13   96 97	 1492770853	 159206856	 165781.
10:34:13   97 98	 1492770853	 321355674	 162148.
10:34:13   98 99	 1492770853	 487428693	 166073.
10:34:13   99 100	 1492770853	 649705551	 162277.
10:34:13  100 101	 1492770853	 815669019	 165964.
10:34:13  101 102	 1492770853	 977307623	 161638.
10:34:14  102 103	 1492770854	 143704992	 166398.
10:34:14  103 104	 1492770854	 277246352	 133541.
10:34:14  104 105	 1492770854	 443652603	 166406.
10:34:14  105 106	 1492770854	 605839082	 162187.
10:34:14  106 107	 1492770854	 771611743	 165772.
10:34:14  107 108	 1492770854	 933197012	 161586.
10:34:15  108 109	 1492770855	 99553130	 166356.
10:34:15  109 110	 1492770855	 261434623	 161881.
10:34:15  110 111	 1492770855	 398793271	 137359.
10:34:15  111 112	 1492770855	 560644370	 161851.
10:34:15  112 113	 1492770855	 726555295	 165911.
10:34:15  113 114	 1492770855	 888941732	 162386.
10:34:16  114 115	 1492770856	 55382982	 166442.
10:34:16  115 116	 1492770856	 217728311	 162345.
10:34:16  116 117	 1492770856	 380062941	 162335.
10:34:16  117 118	 1492770856	 546284541	 166221.
10:34:16  118 119	 1492770856	 712640244	 166356.
10:34:16  119 120	 1492770856	 874808341	 162168.
10:34:17  120 121	 1492770857	 8463996	 133656.
10:34:17  121 122	 1492770857	 174953868	 166490.
10:34:17  122 123	 1492770857	 341454353	 166500.
10:34:17  123 124	 1492770857	 503796590	 162342.
10:34:17  124 125	 1492770857	 666028104	 162232.
10:34:17  125 126	 1492770857	 832291933	 166264.
10:34:17  126 127	 1492770857	 998147190	 165855.
10:34:18  127 128	 1492770858	 159937859	 161791.
10:34:18  128 129	 1492770858	 293323010	 133385.
10:34:18  129 130	 1492770858	 459432345	 166109.
10:34:18  130 131	 1492770858	 621239808	 161808.
10:34:18  131 132	 1492770858	 787506676	 166266.
10:34:18  132 133	 1492770858	 949723479	 162217.
10:34:19  133 134	 1492770859	 115982684	 166259.
10:34:19  134 135	 1492770859	 281974389	 165992.
10:34:19  135 136	 1492770859	 415295394	 133321.
10:34:19  136 137	 1492770859	 577380305	 162085.
10:34:19  137 138	 1492770859	 743409876	 166030.
10:34:19  138 139	 1492770859	 905060314	 161650.
10:34:20  139 140	 1492770860	 71290584	 166230.
10:34:20  140 141	 1492770860	 234152473	 162862.
10:34:20  141 142	 1492770860	 396302223	 162150.
10:34:20  142 143	 1492770860	 529381829	 133079.
10:34:20  143 144	 1492770860	 695392830	 166012.
10:34:20  144 145	 1492770860	 857511662	 162118.
10:34:21  145 146	 1492770861	 23529479	 166018.
10:34:21  146 147	 1492770861	 185041456	 161512.
10:34:21  147 148	 1492770861	 350683023	 165642.
10:34:21  148 149	 1492770861	 483913952	 133231.
10:34:21  149 150	 1492770861	 650140131	 166226.
10:34:21  150 151	 1492770861	 812282954	 162143.
10:34:21  151 152	 1492770861	 978400560	 166117.
10:34:22  152 153	 1492770862	 140361806	 161962.
10:34:22  153 154	 1492770862	 306018762	 165657.
10:34:22  154 155	 1492770862	 467997040	 161978.
10:34:22  155 156	 1492770862	 634114752	 166117.
10:34:22  156 157	 1492770862	 795840733	 161727.
10:34:22  157 158	 1492770862	 929093669	 133252.
10:34:23  158 159	 1492770863	 94959399	 165866.
10:34:23  159 160	 1492770863	 256600663	 161641.
10:34:23  160 161	 1492770863	 422457289	 165857.
10:34:23  161 162	 1492770863	 584423842	 161967.
10:34:23  162 163	 1492770863	 750071823	 165648.
10:34:23  163 164	 1492770863	 911570165	 161498.
10:34:24  164 165	 1492770864	 73520814	 161951.
10:34:24  165 166	 1492770864	 210759763	 137238.
10:34:24  166 167	 1492770864	 372904079	 162145.
10:34:24  167 168	 1492770864	 538935010	 166031.
10:34:24  168 169	 1492770864	 700612950	 161678.
10:34:24  169 170	 1492770864	 862089450	 161476.
10:34:25  170 171	 1492770865	 27896621	 165807.
10:34:25  171 172	 1492770865	 189377132	 161481.
10:34:25  172 173	 1492770865	 355305362	 165928.
10:34:25  173 174	 1492770865	 488451277	 133146.
10:34:25  174 175	 1492770865	 654405112	 165954.
10:34:25  175 176	 1492770865	 816370219	 161965.
10:34:25  176 177	 1492770865	 982240094	 165870.
10:34:26  177 178	 1492770866	 144043474	 161803.
10:34:26  178 179	 1492770866	 306106797	 162064.
10:34:26  179 180	 1492770866	 472173683	 166066.
10:34:26  180 181	 1492770866	 634143350	 161970.
10:34:26  181 182	 1492770866	 799813304	 165670.
10:34:26  182 183	 1492770866	 932853924	 133041.
10:34:27  183 184	 1492770867	 94532521	 161678.
10:34:27  184 185	 1492770867	 260048238	 165516.
10:34:27  185 186	 1492770867	 421522397	 161474.
10:34:27  186 187	 1492770867	 587100181	 165578.
10:34:27  187 188	 1492770867	 720216173	 133116.
10:34:27  188 189	 1492770867	 881869876	 161654.
10:34:28  189 190	 1492770868	 48305782	 166436.
10:34:28  190 191	 1492770868	 209979238	 161673.
10:34:28  191 192	 1492770868	 376025068	 166046.
10:34:28  192 193	 1492770868	 538087986	 162063.
10:34:28  193 194	 1492770868	 703570673	 165482.
10:34:28  194 195	 1492770868	 865292545	 161722.
10:34:28  195 196	 1492770868	 998188384	 132896.
10:34:29  196 197	 1492770869	 163605121	 165417.
10:34:29  197 198	 1492770869	 325428025	 161823.
10:34:29  198 199	 1492770869	 491234164	 165806.
10:34:29  199 200	 1492770869	 652782638	 161548.
10:34:29  200 201	 1492770869	 818619747	 165837.
10:34:29  201 202	 1492770869	 951372830	 132753.
10:34:30  202 203	 1492770870	 113206560	 161834.
10:34:30  203 204	 1492770870	 279033193	 165827.
10:34:30  204 205	 1492770870	 440494530	 161461.
10:34:30  205 206	 1492770870	 606488037	 165994.
10:34:30  206 207	 1492770870	 768548809	 162061.
10:34:30  207 208	 1492770870	 929940485	 161391.
10:34:31  208 209	 1492770871	 67104536	 137164.
10:34:31  209 210	 1492770871	 228781349	 161677.
10:34:31  210 211	 1492770871	 394467762	 165686.
10:34:31  211 212	 1492770871	 556319274	 161852.
10:34:31  212 213	 1492770871	 718141189	 161822.
10:34:31  213 214	 1492770871	 883576853	 165436.
10:34:32  214 215	 1492770872	 16932807	 133355.
10:34:32  215 216	 1492770872	 182537750	 165605.
10:34:32  216 217	 1492770872	 343994519	 161457.
10:34:32  217 218	 1492770872	 510217115	 166223.
10:34:32  218 219	 1492770872	 672052991	 161836.
10:34:32  219 220	 1492770872	 833844045	 161791.
10:34:32  220 221	 1492770872	 999591352	 165747.
10:34:33  221 222	 1492770873	 132545590	 132954.
10:34:33  222 223	 1492770873	 298255371	 165710.
10:34:33  223 224	 1492770873	 460047619	 161792.
10:34:33  224 225	 1492770873	 621630225	 161583.
10:34:33  225 226	 1492770873	 787341630	 165711.
10:34:33  226 227	 1492770873	 949203302	 161862.
10:34:34  227 228	 1492770874	 114881477	 165678.
10:34:34  228 229	 1492770874	 247719346	 132838.
10:34:34  229 230	 1492770874	 409391531	 161672.
10:34:34  230 231	 1492770874	 574847831	 165456.
10:34:34  231 232	 1492770874	 736379121	 161532.
10:34:34  232 233	 1492770874	 901986601	 165607.
10:34:35  233 234	 1492770875	 35020957	 133035.
10:34:35  234 235	 1492770875	 196563295	 161542.
10:34:35  235 236	 1492770875	 362183474	 165620.
10:34:35  236 237	 1492770875	 524174702	 161991.
10:34:35  237 238	 1492770875	 685582575	 161408.
10:34:35  238 239	 1492770875	 851263035	 165681.
10:34:36  239 240	 1492770876	 12719539	 161456.
10:34:36  240 241	 1492770876	 145568051	 132849.
10:34:36  241 242	 1492770876	 311091041	 165523.
10:34:36  242 243	 1492770876	 472608908	 161518.
10:34:36  243 244	 1492770876	 638168903	 165560.
10:34:36  244 245	 1492770876	 799865099	 161696.
10:34:36  245 246	 1492770876	 961700249	 161835.
10:34:37  246 247	 1492770877	 123774121	 162074.
10:34:37  247 248	 1492770877	 260940128	 137166.
10:34:37  248 249	 1492770877	 422519246	 161579.
10:34:37  249 250	 1492770877	 587965323	 165446.
10:34:37  250 251	 1492770877	 749664118	 161699.
10:34:37  251 252	 1492770877	 911686744	 162022.
10:34:38  252 253	 1492770878	 77658469	 165972.
10:34:38  253 254	 1492770878	 210878188	 133220.
10:34:38  254 255	 1492770878	 376604014	 165726.
10:34:38  255 256	 1492770878	 538554363	 161950.
10:34:38  256 257	 1492770878	 704585578	 166031.
10:34:38  257 258	 1492770878	 866177816	 161593.
10:34:39  258 259	 1492770879	 31706328	 165528.
10:34:39  259 260	 1492770879	 193983437	 162277.
10:34:39  260 261	 1492770879	 326812838	 132830.
10:34:39  261 262	 1492770879	 492523536	 165710.
10:34:39  262 263	 1492770879	 655123823	 162601.
10:34:39  263 264	 1492770879	 820648534	 165524.
10:34:39  264 265	 1492770879	 982271708	 161623.
10:34:40  265 266	 1492770880	 148122817	 165852.
10:34:40  266 267	 1492770880	 309628185	 161505.
10:34:40  267 268	 1492770880	 442996300	 133368.
10:34:40  268 269	 1492770880	 608900947	 165905.
10:34:40  269 270	 1492770880	 770106668	 161205.
10:34:40  270 271	 1492770880	 935782043	 165676.
10:34:41  271 272	 1492770881	 97325171	 161543.
10:34:41  272 273	 1492770881	 258811778	 161487.
10:34:41  273 274	 1492770881	 396129706	 137317.
10:34:41  274 275	 1492770881	 557637997	 161509.
10:34:41  275 276	 1492770881	 723215196	 165577.
10:34:41  276 277	 1492770881	 885177075	 161962.
10:34:42  277 278	 1492770882	 51400366	 166223.
10:34:42  278 279	 1492770882	 213446862	 162047.
10:34:42  279 280	 1492770882	 350828986	 137382.
10:34:42  280 281	 1492770882	 513183989	 162355.
10:34:42  281 282	 1492770882	 679659815	 166476.
10:34:42  282 283	 1492770882	 841460980	 161801.
10:34:43  283 284	 1492770883	 7450571	 165989.
10:34:43  284 285	 1492770883	 169558264	 162108.
10:34:43  285 286	 1492770883	 335974467	 166416.
10:34:43  286 287	 1492770883	 498526505	 162552.
10:34:43  287 288	 1492770883	 664825776	 166299.
10:34:43  288 289	 1492770883	 826568248	 161743.
10:34:43  289 290	 1492770883	 959342918	 132775.
10:34:44  290 291	 1492770884	 124998935	 165656.
10:34:44  291 292	 1492770884	 286812761	 161813.
10:34:44  292 293	 1492770884	 452630379	 165818.
10:34:44  293 294	 1492770884	 614724982	 162095.
10:34:44  294 295	 1492770884	 780514662	 165789.
10:34:44  295 296	 1492770884	 942172724	 161658.
10:34:45  296 297	 1492770885	 75194411	 133022.
10:34:45  297 298	 1492770885	 240882374	 165688.
10:34:45  298 299	 1492770885	 402568758	 161686.
10:34:45  299 300	 1492770885	 568611564	 166043.
10:34:45  300 301	 1492770885	 730362803	 161754.
10:34:45  301 302	 1492770885	 892198649	 161833.
10:34:46  302 303	 1492770886	 58188354	 165990.
10:34:46  303 304	 1492770886	 220330745	 162142.
10:34:46  304 305	 1492770886	 386713112	 166383.
10:34:46  305 306	 1492770886	 520115157	 133402.
10:34:46  306 307	 1492770886	 686125916	 166011.
10:34:46  307 308	 1492770886	 848223602	 162097.
10:34:47  308 309	 1492770887	 14376384	 166153.
10:34:47  309 310	 1492770887	 175785811	 161410.
10:34:47  310 311	 1492770887	 341378207	 165592.
10:34:47  311 312	 1492770887	 503245282	 161867.
10:34:47  312 313	 1492770887	 636074650	 132829.
10:34:47  313 314	 1492770887	 797591652	 161517.
10:34:47  314 315	 1492770887	 963449252	 165858.
10:34:48  315 316	 1492770888	 124881834	 161433.
10:34:48  316 317	 1492770888	 290905764	 166024.
10:34:48  317 318	 1492770888	 452928425	 162022.
10:34:48  318 319	 1492770888	 590510652	 137582.
10:34:48  319 320	 1492770888	 752511677	 162001.
10:34:48  320 321	 1492770888	 914523047	 162012.
10:34:49  321 322	 1492770889	 80608754	 166085.
10:34:49  322 323	 1492770889	 242419019	 161811.
10:34:49  323 324	 1492770889	 408325323	 165906.
10:34:49  324 325	 1492770889	 570221655	 161896.
10:34:49  325 326	 1492770889	 736220517	 165999.
10:34:49  326 327	 1492770889	 869591456	 133371.
10:34:50  327 328	 1492770890	 35462599	 165871.
10:34:50  328 329	 1492770890	 197574302	 162112.
10:34:50  329 330	 1492770890	 363433699	 165860.
10:34:50  330 331	 1492770890	 524904441	 161470.
10:34:50  331 332	 1492770890	 686615294	 161711.
10:34:50  332 333	 1492770890	 823456841	 136842.
10:34:50  333 334	 1492770890	 984750922	 161294.
10:34:51  334 335	 1492770891	 150505154	 165754.
10:34:51  335 336	 1492770891	 312178997	 161674.
10:34:51  336 337	 1492770891	 478089310	 165910.
10:34:51  337 338	 1492770891	 640194541	 162105.
10:34:51  338 339	 1492770891	 801930971	 161737.
10:34:51  339 340	 1492770891	 938959857	 137029.
10:34:52  340 341	 1492770892	 100701894	 161742.
10:34:52  341 342	 1492770892	 266243363	 165541.
10:34:52  342 343	 1492770892	 427799109	 161556.
10:34:52  343 344	 1492770892	 593746145	 165947.
10:34:52  344 345	 1492770892	 755250556	 161504.
10:34:52  345 346	 1492770892	 888403615	 133153.
10:34:53  346 347	 1492770893	 54211562	 165808.
10:34:53  347 348	 1492770893	 215775488	 161564.
10:34:53  348 349	 1492770893	 381744627	 165969.
10:34:53  349 350	 1492770893	 543504879	 161761.
10:34:53  350 351	 1492770893	 709167702	 165662.
10:34:53  351 352	 1492770893	 870987235	 161820.
10:34:54  352 353	 1492770894	 32790251	 161803.
10:34:54  353 354	 1492770894	 165754365	 132964.
10:34:54  354 355	 1492770894	 328113557	 162359.
10:34:54  355 356	 1492770894	 493721821	 165609.
10:34:54  356 357	 1492770894	 655792578	 162070.
10:34:54  357 358	 1492770894	 821218187	 165426.
10:34:54  358 359	 1492770894	 982301061	 161083.
10:34:55  359 360	 1492770895	 115461121	 133160.
10:34:55  360 361	 1492770895	 280884251	 165423.
10:34:55  361 362	 1492770895	 442100718	 161216.
10:34:55  362 363	 1492770895	 607962114	 165862.
10:34:55  363 364	 1492770895	 769189280	 161227.
10:34:55  364 365	 1492770895	 901927824	 132739.
10:34:56  365 366	 1492770896	 67623837	 165696.
10:34:56  366 367	 1492770896	 228908139	 161284.
10:34:56  367 368	 1492770896	 394689023	 165781.
10:34:56  368 369	 1492770896	 556553818	 161865.
10:34:56  369 370	 1492770896	 693442726	 136889.
10:34:56  370 371	 1492770896	 855121898	 161679.
10:34:57  371 372	 1492770897	 16785688	 161663.
10:34:57  372 373	 1492770897	 182650437	 165865.
10:34:57  373 374	 1492770897	 344713189	 162063.
10:34:57  374 375	 1492770897	 510225711	 165512.
10:34:57  375 376	 1492770897	 671869105	 161644.
10:34:57  376 377	 1492770897	 804994742	 133125.
10:34:57  377 378	 1492770897	 970328443	 165334.
10:34:58  378 379	 1492770898	 132065726	 161738.
10:34:58  379 380	 1492770898	 297844523	 165778.
10:34:58  380 381	 1492770898	 459096017	 161252.
10:34:58  381 382	 1492770898	 596211023	 137115.
10:34:58  382 383	 1492770898	 757911392	 161700.
10:34:58  383 384	 1492770898	 919470573	 161559.
10:34:59  384 385	 1492770899	 85055443	 165585.
10:34:59  385 386	 1492770899	 246455380	 161400.
10:34:59  386 387	 1492770899	 412176099	 165721.
10:34:59  387 388	 1492770899	 545189939	 133014.
10:34:59  388 389	 1492770899	 706643173	 161453.
10:34:59  389 390	 1492770899	 872388943	 165746.
10:35:00  390 391	 1492770900	 33830432	 161441.
10:35:00  391 392	 1492770900	 199294948	 165465.
10:35:00  392 393	 1492770900	 332278267	 132983.
10:35:00  393 394	 1492770900	 494008823	 161730.
10:35:00  394 395	 1492770900	 659702217	 165694.
10:35:00  395 396	 1492770900	 821673678	 161971.
10:35:00  396 397	 1492770900	 987358985	 165686.
10:35:01  397 398	 1492770901	 149051727	 161692.
10:35:01  398 399	 1492770901	 310933455	 161882.
10:35:01  399 400	 1492770901	 444118520	 133185.
10:35:01  400 401	 1492770901	 609864207	 165746.
10:35:01  401 402	 1492770901	 771586687	 161722.
10:35:01  402 403	 1492770901	 937498219	 165912.
10:35:02  403 404	 1492770902	 99209465	 161711.
10:35:02  404 405	 1492770902	 264814236	 165605.
10:35:02  405 406	 1492770902	 426571676	 161757.
10:35:02  406 407	 1492770902	 588140245	 161569.
10:35:02  407 408	 1492770902	 725007903	 136868.
10:35:02  408 409	 1492770902	 886617523	 161609.
10:35:03  409 410	 1492770903	 48419038	 161802.
10:35:03  410 411	 1492770903	 214095393	 165676.
10:35:03  411 412	 1492770903	 375511217	 161416.
10:35:03  412 413	 1492770903	 541265643	 165754.
10:35:03  413 414	 1492770903	 674059322	 132794.
10:35:03  414 415	 1492770903	 835523566	 161464.
10:35:03  415 416	 1492770904	 1139078	 165616.
10:35:04  416 417	 1492770904	 162560281	 161421.
10:35:04  417 418	 1492770904	 324262719	 161702.
10:35:04  418 419	 1492770904	 489905654	 165643.
10:35:04  419 420	 1492770904	 622565853	 132661.
10:35:04  420 421	 1492770904	 788109176	 165543.
10:35:04  421 422	 1492770904	 949856700	 161747.
10:35:05  422 423	 1492770905	 115738793	 165883.
10:35:05  423 424	 1492770905	 278066656	 162327.
10:35:05  424 425	 1492770905	 435732871	 157667.
10:35:05  425 426	 1492770905	 596998938	 161266.
10:35:05  426 427	 1492770905	 762944798	 165945.
10:35:05  427 428	 1492770905	 895825211	 132881.
10:35:06  428 429	 1492770906	 61531194	 165706.
10:35:06  429 430	 1492770906	 222930214	 161399.
10:35:06  430 431	 1492770906	 384677430	 161747.
10:35:06  431 432	 1492770906	 550337150	 165660.
10:35:06  432 433	 1492770906	 711973296	 161636.
10:35:06  433 434	 1492770906	 877880092	 165907.
10:35:07  434 435	 1492770907	 10684531	 132804.
10:35:07  435 436	 1492770907	 172091192	 161407.
10:35:07  436 437	 1492770907	 337949618	 165858.
10:35:07  437 438	 1492770907	 499672937	 161724.
10:35:07  438 439	 1492770907	 661342620	 161669.
10:35:07  439 440	 1492770907	 827071747	 165729.
10:35:07  440 441	 1492770907	 959782831	 132711.
10:35:08  441 442	 1492770908	 125266337	 165484.
10:35:08  442 443	 1492770908	 286782577	 161516.
10:35:08  443 444	 1492770908	 452326100	 165544.
10:35:08  444 445	 1492770908	 613871516	 161545.
10:35:08  445 446	 1492770908	 779467123	 165596.
10:35:08  446 447	 1492770908	 912676146	 133209.
10:35:09  447 448	 1492770909	 74160861	 161485.
10:35:09  448 449	 1492770909	 240016402	 165855.
10:35:09  449 450	 1492770909	 401819201	 161803.
10:35:09  450 451	 1492770909	 567555349	 165736.
10:35:09  451 452	 1492770909	 729136524	 161581.
10:35:09  452 453	 1492770909	 894869451	 165733.
10:35:10  453 454	 1492770910	 27773762	 132904.
10:35:10  454 455	 1492770910	 189080271	 161307.
10:35:10  455 456	 1492770910	 354797338	 165717.
10:35:10  456 457	 1492770910	 516261870	 161465.
10:35:10  457 458	 1492770910	 681810415	 165548.
10:35:10  458 459	 1492770910	 843733821	 161924.
10:35:11  459 460	 1492770911	 9718678	 165984.
10:35:11  460 461	 1492770911	 142761551	 133043.
10:35:11  461 462	 1492770911	 304419820	 161659.
10:35:11  462 463	 1492770911	 470181225	 165761.
10:35:11  463 464	 1492770911	 631863808	 161683.
10:35:11  464 465	 1492770911	 793749148	 161885.
10:35:11  465 466	 1492770911	 959499062	 165750.
10:35:12  466 467	 1492770912	 121088339	 161589.
10:35:12  467 468	 1492770912	 286899595	 165811.
10:35:12  468 469	 1492770912	 419939432	 133040.
10:35:12  469 470	 1492770912	 585718305	 165779.
10:35:12  470 471	 1492770912	 747486104	 161768.
10:35:12  471 472	 1492770912	 913232595	 165746.
10:35:13  472 473	 1492770913	 75130673	 161899.
10:35:13  473 474	 1492770913	 236946425	 161815.
10:35:13  474 475	 1492770913	 402678364	 165732.
10:35:13  475 476	 1492770913	 535722560	 133044.
10:35:13  476 477	 1492770913	 701624065	 165902.
10:35:13  477 478	 1492770913	 863382734	 161758.
10:35:14  478 479	 1492770914	 29190900	 165809.
10:35:14  479 480	 1492770914	 190914756	 161723.
10:35:14  480 481	 1492770914	 352596839	 161683.
10:35:14  481 482	 1492770914	 518538914	 165942.
10:35:14  482 483	 1492770914	 680311007	 161772.
10:35:14  483 484	 1492770914	 817340229	 137029.
10:35:14  484 485	 1492770914	 978988774	 161649.
10:35:15  485 486	 1492770915	 140745452	 161756.
10:35:15  486 487	 1492770915	 306690321	 165945.
10:35:15  487 488	 1492770915	 468783661	 162093.
10:35:15  488 489	 1492770915	 634770115	 165987.
10:35:15  489 490	 1492770915	 800948090	 166178.
10:35:15  490 491	 1492770915	 963293186	 162345.
10:35:16  491 492	 1492770916	 129588681	 166295.
10:35:16  492 493	 1492770916	 263257778	 133669.
10:35:16  493 494	 1492770916	 429293680	 166036.
10:35:16  494 495	 1492770916	 591136280	 161843.
10:35:16  495 496	 1492770916	 753050980	 161915.
10:35:16  496 497	 1492770916	 918948143	 165897.
10:35:17  497 498	 1492770917	 80718166	 161770.
10:35:17  498 499	 1492770917	 246520920	 165803.
10:35:17  499 500	 1492770917	 379535302	 133014.
10:35:17  500 501	 1492770917	 545664567	 166129.
10:35:17  501 502	 1492770917	 707516898	 161853.
10:35:17  502 503	 1492770917	 873353153	 165836.
10:35:18  503 504	 1492770918	 35053884	 161701.
10:35:18  504 505	 1492770918	 200814533	 165760.
10:35:18  505 506	 1492770918	 362443331	 161629.
10:35:18  506 507	 1492770918	 495382788	 132939.
10:35:18  507 508	 1492770918	 661162184	 165780.
10:35:18  508 509	 1492770918	 822695295	 161533.
10:35:18  509 510	 1492770918	 988239057	 165544.
10:35:19  510 511	 1492770919	 149859012	 161620.
10:35:19  511 512	 1492770919	 315664012	 165805.
10:35:19  512 513	 1492770919	 477289090	 161625.
10:35:19  513 514	 1492770919	 610205478	 132916.
10:35:19  514 515	 1492770919	 775903896	 165699.
10:35:19  515 516	 1492770919	 937678259	 161774.
10:35:20  516 517	 1492770920	 103393157	 165715.
10:35:20  517 518	 1492770920	 265245981	 161853.
10:35:20  518 519	 1492770920	 430888819	 165643.
10:35:20  519 520	 1492770920	 563902416	 133013.
10:35:20  520 521	 1492770920	 725519554	 161617.
10:35:20  521 522	 1492770920	 891284425	 165765.
10:35:21  522 523	 1492770921	 52990087	 161706.
10:35:21  523 524	 1492770921	 218726081	 165736.
10:35:21  524 525	 1492770921	 380640944	 161915.
10:35:21  525 526	 1492770921	 546568191	 165927.
10:35:21  526 527	 1492770921	 679499622	 132931.
10:35:21  527 528	 1492770921	 845511806	 166013.
10:35:22  528 529	 1492770922	 7198199	 161686.
10:35:22  529 530	 1492770922	 187046629	 179848.
10:35:22  530 531	 1492770922	 324692467	 137646.
10:35:22  531 532	 1492770922	 491027205	 166335.
10:35:22  532 533	 1492770922	 653051478	 162024.
10:35:22  533 534	 1492770922	 819220054	 166169.
10:35:22  534 535	 1492770922	 981353240	 162133.
10:35:23  535 536	 1492770923	 147718622	 166365.
10:35:23  536 537	 1492770923	 309755446	 162037.
10:35:23  537 538	 1492770923	 476081321	 166326.
10:35:23  538 539	 1492770923	 613757529	 137676.
10:35:23  539 540	 1492770923	 775543914	 161787.
10:35:23  540 541	 1492770923	 941689731	 166145.
10:35:24  541 542	 1492770924	 103794523	 162105.
10:35:24  542 543	 1492770924	 269844547	 166050.
10:35:24  543 544	 1492770924	 432010863	 162167.
10:35:24  544 545	 1492770924	 598513733	 166502.
10:35:24  545 546	 1492770924	 732027882	 133515.
10:35:24  546 547	 1492770924	 898188352	 166160.
10:35:25  547 548	 1492770925	 60042774	 161854.
10:35:25  548 549	 1492770925	 225731606	 165689.
10:35:25  549 550	 1492770925	 387707130	 161976.
10:35:25  550 551	 1492770925	 553461461	 165754.
10:35:25  551 552	 1492770925	 686784113	 133323.
10:35:25  552 553	 1492770925	 852866816	 166082.
10:35:26  553 554	 1492770926	 15169208	 162303.
10:35:26  554 555	 1492770926	 176837331	 161668.
10:35:26  555 556	 1492770926	 342747817	 165911.
10:35:26  556 557	 1492770926	 504809678	 162061.
10:35:26  557 558	 1492770926	 642224173	 137415.
10:35:26  558 559	 1492770926	 804033730	 161809.
10:35:26  559 560	 1492770926	 969889264	 165856.
10:35:27  560 561	 1492770927	 136049837	 166161.
10:35:27  561 562	 1492770927	 297997471	 161947.
10:35:27  562 563	 1492770927	 464412173	 166415.
10:35:27  563 564	 1492770927	 597635627	 133223.
10:35:27  564 565	 1492770927	 759976458	 162341.
10:35:27  565 566	 1492770927	 925935137	 165959.
10:35:28  566 567	 1492770928	 88312731	 162377.
10:35:28  567 568	 1492770928	 254421131	 166109.
10:35:28  568 569	 1492770928	 420893293	 166472.
10:35:28  569 570	 1492770928	 582924331	 162031.
10:35:28  570 571	 1492770928	 748978727	 166054.
10:35:28  571 572	 1492770928	 911209153	 162231.
10:35:29  572 573	 1492770929	 44678991	 133470.
10:35:29  573 574	 1492770929	 210997433	 166318.
10:35:29  574 575	 1492770929	 373470409	 162473.
10:35:29  575 576	 1492770929	 539966304	 166496.
10:35:29  576 577	 1492770929	 702289247	 162323.
10:35:29  577 578	 1492770929	 868645511	 166356.
10:35:30  578 579	 1492770930	 30523897	 161879.
10:35:30  579 580	 1492770930	 196238794	 165715.
10:35:30  580 581	 1492770930	 329328175	 133089.
10:35:30  581 582	 1492770930	 495309008	 165981.
10:35:30  582 583	 1492770930	 657313631	 162004.
10:35:30  583 584	 1492770930	 823589828	 166277.
10:35:30  584 585	 1492770930	 985694870	 162105.
10:35:31  585 586	 1492770931	 151929245	 166234.
10:35:31  586 587	 1492770931	 284894645	 132965.
10:35:31  587 588	 1492770931	 450600091	 165706.
10:35:31  588 589	 1492770931	 612546515	 161946.
10:35:31  589 590	 1492770931	 778687981	 166142.
10:35:31  590 591	 1492770931	 940929849	 162242.
10:35:32  591 592	 1492770932	 106679510	 165749.
10:35:32  592 593	 1492770932	 239743633	 133064.
10:35:32  593 594	 1492770932	 405948244	 166205.
10:35:32  594 595	 1492770932	 567906904	 161959.
10:35:32  595 596	 1492770932	 733793950	 165887.
10:35:32  596 597	 1492770932	 895891406	 162097.
10:35:33  597 598	 1492770933	 62061513	 166170.
10:35:33  598 599	 1492770933	 195439374	 133378.
10:35:33  599 600	 1492770933	 361629721	 166190.
10:35:33  600 601	 1492770933	 523806228	 162177.
10:35:33  601 602	 1492770933	 689995978	 166190.
10:35:33  602 603	 1492770933	 852533982	 162538.
10:35:34  603 604	 1492770934	 18733260	 166199.
10:35:34  604 605	 1492770934	 181291602	 162558.
10:35:34  605 606	 1492770934	 347670885	 166380.
10:35:34  606 607	 1492770934	 481332987	 133662.
10:35:34  607 608	 1492770934	 647213736	 165880.
10:35:34  608 609	 1492770934	 809009255	 161796.
10:35:34  609 610	 1492770934	 974694399	 165685.
10:35:35  610 611	 1492770935	 136780132	 162086.
10:35:35  611 612	 1492770935	 274186852	 137407.
10:35:35  612 613	 1492770935	 436063063	 161876.
10:35:35  613 614	 1492770935	 602051848	 165989.
10:35:35  614 615	 1492770935	 763962922	 161911.
10:35:35  615 616	 1492770935	 929798958	 165836.
10:35:36  616 617	 1492770936	 63000102	 133201.
10:35:36  617 618	 1492770936	 229287738	 166287.
10:35:36  618 619	 1492770936	 391349838	 162063.
10:35:36  619 620	 1492770936	 557921978	 166572.
10:35:36  620 621	 1492770936	 724633620	 166712.
10:35:36  621 622	 1492770936	 887156736	 162522.
10:35:37  622 623	 1492770937	 53049906	 165894.
10:35:37  623 624	 1492770937	 214917331	 161867.
10:35:37  624 625	 1492770937	 348266162	 133349.
10:35:37  625 626	 1492770937	 514359809	 166094.
10:35:37  626 627	 1492770937	 676611471	 162251.
10:35:37  627 628	 1492770937	 842804783	 166193.
10:35:38  628 629	 1492770938	 5032571	 162228.
10:35:38  629 630	 1492770938	 171412598	 166380.
10:35:38  630 631	 1492770938	 333695254	 162283.
10:35:38  631 632	 1492770938	 470846732	 137151.
10:35:38  632 633	 1492770938	 637293605	 166447.
10:35:38  633 634	 1492770938	 799429000	 162136.
10:35:38  634 635	 1492770938	 961702861	 162274.
10:35:39  635 636	 1492770939	 128592535	 166889.
10:35:39  636 637	 1492770939	 286872630	 158280.
10:35:39  637 638	 1492770939	 452637244	 165765.
10:35:39  638 639	 1492770939	 614609939	 161973.
10:35:39  639 640	 1492770939	 780522589	 165912.
10:35:39  640 641	 1492770939	 913844885	 133323.
10:35:40  641 642	 1492770940	 79891332	 166046.
10:35:40  642 643	 1492770940	 241973288	 162082.
10:35:40  643 644	 1492770940	 408331583	 166358.
10:35:40  644 645	 1492770940	 570462664	 162131.
10:35:40  645 646	 1492770940	 736598556	 166136.
10:35:40  646 647	 1492770940	 898760895	 162163.
10:35:41  647 648	 1492770941	 36196101	 137435.
10:35:41  648 649	 1492770941	 197973471	 161777.
10:35:41  649 650	 1492770941	 363827180	 165854.
10:35:41  650 651	 1492770941	 525838490	 162011.
10:35:41  651 652	 1492770941	 691851170	 166013.
10:35:41  652 653	 1492770941	 853829700	 161978.
10:35:41  653 654	 1492770941	 991547730	 137718.
10:35:42  654 655	 1492770942	 153702627	 162155.
10:35:42  655 656	 1492770942	 319664561	 165962.
10:35:42  656 657	 1492770942	 481728568	 162064.
10:35:42  657 658	 1492770942	 647764401	 166036.
10:35:42  658 659	 1492770942	 809843006	 162079.
10:35:42  659 660	 1492770942	 975954660	 166111.
10:35:43  660 661	 1492770943	 109206337	 133252.
10:35:43  661 662	 1492770943	 275192647	 165986.
10:35:43  662 663	 1492770943	 437236615	 162044.
10:35:43  663 664	 1492770943	 603279528	 166043.
10:35:43  664 665	 1492770943	 769165189	 165886.
10:35:43  665 666	 1492770943	 902323771	 133158.
10:35:44  666 667	 1492770944	 68494901	 166172.
10:35:44  667 668	 1492770944	 230539601	 162044.
10:35:44  668 669	 1492770944	 396633906	 166095.
10:35:44  669 670	 1492770944	 558708731	 162074.
10:35:44  670 671	 1492770944	 696050503	 137342.
10:35:44  671 672	 1492770944	 857752155	 161702.
10:35:45  672 673	 1492770945	 23937119	 166185.
10:35:45  673 674	 1492770945	 185929051	 161992.
10:35:45  674 675	 1492770945	 352100270	 166171.
10:35:45  675 676	 1492770945	 514402595	 162302.
10:35:45  676 677	 1492770945	 680688225	 166286.
10:35:45  677 678	 1492770945	 842623079	 161935.
10:35:45  678 679	 1492770945	 980005359	 137382.
10:35:46  679 680	 1492770946	 141793282	 161788.
10:35:46  680 681	 1492770946	 307750839	 165957.
10:35:46  681 682	 1492770946	 469764557	 162014.
10:35:46  682 683	 1492770946	 636131323	 166367.
10:35:46  683 684	 1492770946	 798104939	 161974.
10:35:46  684 685	 1492770946	 935361819	 137257.
10:35:47  685 686	 1492770947	 97636498	 162274.
10:35:47  686 687	 1492770947	 263774460	 166138.
10:35:47  687 688	 1492770947	 425996878	 162223.
10:35:47  688 689	 1492770947	 592174847	 166178.
10:35:47  689 690	 1492770947	 754242850	 162068.
10:35:47  690 691	 1492770947	 891135902	 136893.
10:35:48  691 692	 1492770948	 53112835	 161977.
10:35:48  692 693	 1492770948	 218859252	 165746.
10:35:48  693 694	 1492770948	 381016058	 162157.
10:35:48  694 695	 1492770948	 547343920	 166328.
10:35:48  695 696	 1492770948	 680779362	 133435.
10:35:48  696 697	 1492770948	 843040441	 162261.
10:35:49  697 698	 1492770949	 9308649	 166268.
10:35:49  698 699	 1492770949	 170977330	 161669.
10:35:49  699 700	 1492770949	 336836845	 165860.
10:35:49  700 701	 1492770949	 503236934	 166400.
10:35:49  701 702	 1492770949	 665364875	 162128.
10:35:49  702 703	 1492770949	 802342954	 136978.
10:35:49  703 704	 1492770949	 964408912	 162066.
10:35:50  704 705	 1492770950	 131135031	 166726.
10:35:50  705 706	 1492770950	 293178573	 162043.
10:35:50  706 707	 1492770950	 455318057	 162140.
10:35:50  707 708	 1492770950	 621695377	 166377.
10:35:50  708 709	 1492770950	 783533313	 161838.
10:35:50  709 710	 1492770950	 921135065	 137602.
10:35:51  710 711	 1492770951	 82978576	 161843.
10:35:51  711 712	 1492770951	 249186458	 166208.
10:35:51  712 713	 1492770951	 411176124	 161990.
10:35:51  713 714	 1492770951	 577653274	 166477.
10:35:51  714 715	 1492770951	 739977087	 162324.
10:35:51  715 716	 1492770951	 906085137	 166108.
10:35:52  716 717	 1492770952	 39318336	 133233.
10:35:52  717 718	 1492770952	 205607318	 166289.
10:35:52  718 719	 1492770952	 367896331	 162289.
10:35:52  719 720	 1492770952	 534374242	 166478.
10:35:52  720 721	 1492770952	 696688943	 162315.
10:35:52  721 722	 1492770952	 863204344	 166515.
10:35:53  722 723	 1492770953	 29643880	 166440.
10:35:53  723 724	 1492770953	 192073587	 162429.
10:35:53  724 725	 1492770953	 358274441	 166201.
10:35:53  725 726	 1492770953	 520846540	 162572.
10:35:53  726 727	 1492770953	 687052661	 166206.
10:35:53  727 728	 1492770953	 820384550	 133332.
10:35:53  728 729	 1492770953	 986341935	 165958.
10:35:54  729 730	 1492770954	 152655651	 166313.
10:35:54  730 731	 1492770954	 314796280	 162141.
10:35:54  731 732	 1492770954	 477291751	 162495.
10:35:54  732 733	 1492770954	 643720698	 166429.
10:35:54  733 734	 1492770954	 805984266	 162264.
10:35:54  734 735	 1492770954	 972243559	 166259.
10:35:55  735 736	 1492770955	 109903098	 137660.
10:35:55  736 737	 1492770955	 272023067	 162120.
10:35:55  737 738	 1492770955	 438531886	 166509.
10:35:55  738 739	 1492770955	 600437472	 161905.
10:35:55  739 740	 1492770955	 762483534	 162046.
10:35:55  740 741	 1492770955	 928975493	 166492.
10:35:56  741 742	 1492770956	 88034551	 159059.
10:35:56  742 743	 1492770956	 254649076	 166615.
10:35:56  743 744	 1492770956	 416741462	 162092.
10:35:56  744 745	 1492770956	 582988757	 166248.
10:35:56  745 746	 1492770956	 716504481	 133515.
10:35:56  746 747	 1492770956	 882467717	 165963.
10:35:57  747 748	 1492770957	 48548055	 166081.
10:35:57  748 749	 1492770957	 210676050	 162128.
10:35:57  749 750	 1492770957	 377022000	 166346.
10:35:57  750 751	 1492770957	 539504616	 162482.
10:35:57  751 752	 1492770957	 676791179	 137287.
10:35:57  752 753	 1492770957	 838655377	 161864.
10:35:58  753 754	 1492770958	 4593361	 165938.
10:35:58  754 755	 1492770958	 166567778	 161974.
10:35:58  755 756	 1492770958	 332450490	 165883.
10:35:58  756 757	 1492770958	 465815564	 133365.
10:35:58  757 758	 1492770958	 631618764	 165803.
10:35:58  758 759	 1492770958	 793485904	 161868.
10:35:58  759 760	 1492770958	 959431450	 165945.
10:35:59  760 761	 1492770959	 125622089	 166191.
10:35:59  761 762	 1492770959	 258683206	 133061.
10:35:59  762 763	 1492770959	 424655183	 165972.
10:35:59  763 764	 1492770959	 586486718	 161831.
10:35:59  764 765	 1492770959	 748903378	 162417.
10:35:59  765 766	 1492770959	 915070379	 166167.
10:36:00  766 767	 1492770960	 77057715	 161987.
10:36:00  767 768	 1492770960	 214326719	 137269.
10:36:00  768 769	 1492770960	 376033074	 161707.
10:36:00  769 770	 1492770960	 542320774	 166287.
10:36:00  770 771	 1492770960	 704597988	 162278.
10:36:00  771 772	 1492770960	 871172042	 166574.
10:36:01  772 773	 1492770961	 33212735	 162040.
10:36:01  773 774	 1492770961	 199289462	 166077.
10:36:01  774 775	 1492770961	 365118094	 165829.
10:36:01  775 776	 1492770961	 498159341	 133041.
10:36:01  776 777	 1492770961	 659615079	 161456.
10:36:01  777 778	 1492770961	 825429254	 165814.
10:36:01  778 779	 1492770961	 987254640	 161825.
10:36:02  779 780	 1492770962	 153240212	 165986.
10:36:02  780 781	 1492770962	 314383577	 161143.
10:36:02  781 782	 1492770962	 451176431	 136793.
10:36:02  782 783	 1492770962	 612726072	 161550.
10:36:02  783 784	 1492770962	 774369743	 161643.
10:36:02  784 785	 1492770962	 940296907	 165928.
10:36:03  785 786	 1492770963	 101785178	 161488.
10:36:03  786 787	 1492770963	 234565503	 132780.
10:36:03  787 788	 1492770963	 400136545	 165571.
10:36:03  788 789	 1492770963	 561634286	 161498.
10:36:03  789 790	 1492770963	 727287137	 165653.
10:36:03  790 791	 1492770963	 888568997	 161282.
10:36:04  791 792	 1492770964	 21182753	 132613.
10:36:04  792 793	 1492770964	 186582657	 165400.
10:36:04  793 794	 1492770964	 347874732	 161292.
10:36:04  794 795	 1492770964	 513577260	 165703.
10:36:04  795 796	 1492770964	 675283002	 161706.
10:36:04  796 797	 1492770964	 841269027	 165986.
10:36:04  797 798	 1492770964	 974308031	 133039.
10:36:05  798 799	 1492770965	 139987613	 165679.
10:36:05  799 800	 1492770965	 301467952	 161481.
10:36:05  800 801	 1492770965	 467369071	 165901.
10:36:05  801 802	 1492770965	 629086657	 161717.
10:36:05  802 803	 1492770965	 795092888	 166007.
10:36:05  803 804	 1492770965	 927964363	 132871.
10:36:06  804 805	 1492770966	 89578523	 161614.
10:36:06  805 806	 1492770966	 255245059	 165667.
10:36:06  806 807	 1492770966	 417091760	 161846.
10:36:06  807 808	 1492770966	 583001396	 165910.
10:36:06  808 809	 1492770966	 744729258	 161728.
10:36:06  809 810	 1492770966	 877673747	 132944.
10:36:07  810 811	 1492770967	 43171585	 165498.
10:36:07  811 812	 1492770967	 204802746	 161631.
10:36:07  812 813	 1492770967	 370632938	 165831.
10:36:07  813 814	 1492770967	 532538135	 161905.
10:36:07  814 815	 1492770967	 698451976	 165914.
10:36:07  815 816	 1492770967	 831679726	 133227.
10:36:07  816 817	 1492770967	 997376964	 165698.
10:36:08  817 818	 1492770968	 159177699	 161800.
10:36:08  818 819	 1492770968	 324756502	 165579.
10:36:08  819 820	 1492770968	 486326436	 161570.
10:36:08  820 821	 1492770968	 652131803	 165806.
10:36:08  821 822	 1492770968	 785574326	 133442.
10:36:08  822 823	 1492770968	 951994032	 166420.
10:36:09  823 824	 1492770969	 114010958	 162017.
10:36:09  824 825	 1492770969	 279862491	 165851.
10:36:09  825 826	 1492770969	 441536098	 161674.
10:36:09  826 827	 1492770969	 607297611	 165761.
10:36:09  827 828	 1492770969	 740387938	 133091.
10:36:09  828 829	 1492770969	 902191700	 161803.
10:36:10  829 830	 1492770970	 68802621	 166611.
10:36:10  830 831	 1492770970	 230569480	 161767.
10:36:10  831 832	 1492770970	 396291315	 165722.
10:36:10  832 833	 1492770970	 562373524	 166082.
10:36:10  833 834	 1492770970	 695652914	 133280.
10:36:10  834 835	 1492770970	 857850159	 162197.
10:36:11  835 836	 1492770971	 24165951	 166316.
10:36:11  836 837	 1492770971	 190781767	 166615.
10:36:11  837 838	 1492770971	 352718542	 161937.
10:36:11  838 839	 1492770971	 519123446	 166405.
10:36:11  839 840	 1492770971	 681535423	 162412.
10:36:11  840 841	 1492770971	 847739173	 166204.
10:36:12  841 842	 1492770972	 9821611	 162082.
10:36:12  842 843	 1492770972	 147552130	 137731.
10:36:12  843 844	 1492770972	 309489436	 161937.
10:36:12  844 845	 1492770972	 475594268	 166105.
10:36:12  845 846	 1492770972	 637673614	 162079.
10:36:12  846 847	 1492770972	 803871032	 166198.
10:36:12  847 848	 1492770972	 965891692	 162020.
10:36:13  848 849	 1492770973	 132777862	 166887.
10:36:13  849 850	 1492770973	 290541382	 157763.
10:36:13  850 851	 1492770973	 456977534	 166436.
10:36:13  851 852	 1492770973	 619007479	 162030.
10:36:13  852 853	 1492770973	 752052357	 133045.
10:36:13  853 854	 1492770973	 918048910	 165997.
10:36:14  854 855	 1492770974	 79747390	 161698.
10:36:14  855 856	 1492770974	 245539730	 165792.
10:36:14  856 857	 1492770974	 407401425	 161862.
10:36:14  857 858	 1492770974	 572980901	 165580.
10:36:14  858 859	 1492770974	 734698395	 161717.
10:36:14  859 860	 1492770974	 871570751	 136872.
10:36:15  860 861	 1492770975	 33324492	 161754.
10:36:15  861 862	 1492770975	 199313241	 165989.
10:36:15  862 863	 1492770975	 361222286	 161909.
10:36:15  863 864	 1492770975	 527221484	 165999.
10:36:15  864 865	 1492770975	 688902359	 161681.
10:36:15  865 866	 1492770975	 850659348	 161757.
10:36:15  866 867	 1492770975	 988012551	 137353.
10:36:16  867 868	 1492770976	 150180163	 162168.
10:36:16  868 869	 1492770976	 316317455	 166137.
10:36:16  869 870	 1492770976	 478050862	 161734.
10:36:16  870 871	 1492770976	 643838161	 165787.
10:36:16  871 872	 1492770976	 805359405	 161521.
10:36:16  872 873	 1492770976	 971032947	 165674.
10:36:17  873 874	 1492770977	 103984443	 132951.
10:36:17  874 875	 1492770977	 269391790	 165407.
10:36:17  875 876	 1492770977	 431023022	 161632.
10:36:17  876 877	 1492770977	 592551768	 161528.
10:36:17  877 878	 1492770977	 758078292	 165527.
10:36:17  878 879	 1492770977	 919625017	 161547.
10:36:18  879 880	 1492770978	 56671640	 137046.
10:36:18  880 881	 1492770978	 218859034	 162188.
10:36:18  881 882	 1492770978	 381060297	 162201.
10:36:18  882 883	 1492770978	 547117248	 166057.
10:36:18  883 884	 1492770978	 709001196	 161884.
10:36:18  884 885	 1492770978	 874889612	 165888.
10:36:19  885 886	 1492770979	 37020490	 162131.
10:36:19  886 887	 1492770979	 202662958	 165643.
10:36:19  887 888	 1492770979	 364485206	 161822.
10:36:19  888 889	 1492770979	 497592737	 133107.
10:36:19  889 890	 1492770979	 663450569	 165858.
10:36:19  890 891	 1492770979	 825677905	 162228.
10:36:19  891 892	 1492770979	 987853082	 162175.
10:36:20  892 893	 1492770980	 154090928	 166238.
10:36:20  893 894	 1492770980	 316003646	 161912.
10:36:20  894 895	 1492770980	 481815598	 165812.
10:36:20  895 896	 1492770980	 643942705	 162127.
10:36:20  896 897	 1492770980	 809685208	 165743.
10:36:20  897 898	 1492770980	 942709687	 133024.
10:36:21  898 899	 1492770981	 108531806	 165823.
10:36:21  899 900	 1492770981	 274586471	 166054.
10:36:21  900 901	 1492770981	 436678180	 162092.
10:36:21  901 902	 1492770981	 598637154	 161959.
10:36:21  902 903	 1492770981	 764646232	 166009.
10:36:21  903 904	 1492770981	 926787329	 162141.
10:36:22  904 905	 1492770982	 92443951	 165657.
10:36:22  905 906	 1492770982	 225930087	 133486.
10:36:22  906 907	 1492770982	 391749401	 165819.
10:36:22  907 908	 1492770982	 553600266	 161851.
10:36:22  908 909	 1492770982	 715387281	 161787.
10:36:22  909 910	 1492770982	 881446238	 166070.
10:36:23  910 911	 1492770983	 43499862	 162043.
10:36:23  911 912	 1492770983	 180789878	 137290.
10:36:23  912 913	 1492770983	 346841369	 166051.
10:36:23  913 914	 1492770983	 508989169	 162148.
10:36:23  914 915	 1492770983	 674874126	 165885.
10:36:23  915 916	 1492770983	 836639689	 161765.
10:36:23  916 917	 1492770983	 998662837	 162024.
10:36:24  917 918	 1492770984	 164727353	 166064.
10:36:24  918 919	 1492770984	 327288177	 162561.
10:36:24  919 920	 1492770984	 493634690	 166346.
10:36:24  920 921	 1492770984	 656066462	 162432.
10:36:24  921 922	 1492770984	 793499750	 137433.
10:36:24  922 923	 1492770984	 955662594	 162163.
10:36:25  923 924	 1492770985	 121638264	 165976.
10:36:25  924 925	 1492770985	 283451463	 161813.
10:36:25  925 926	 1492770985	 449656035	 166205.
10:36:25  926 927	 1492770985	 611977427	 162321.
10:36:25  927 928	 1492770985	 778175550	 166198.
10:36:25  928 929	 1492770985	 940042112	 161867.
10:36:26  929 930	 1492770986	 77754383	 137712.
10:36:26  930 931	 1492770986	 239738902	 161985.
10:36:26  931 932	 1492770986	 405888115	 166149.
10:36:26  932 933	 1492770986	 567962375	 162074.
10:36:26  933 934	 1492770986	 733991705	 166029.
10:36:26  934 935	 1492770986	 896082140	 162091.
10:36:27  935 936	 1492770987	 62026177	 165944.
10:36:27  936 937	 1492770987	 195050230	 133024.
10:36:27  937 938	 1492770987	 357087337	 162037.
10:36:27  938 939	 1492770987	 523434423	 166347.
10:36:27  939 940	 1492770987	 685305942	 161872.
10:36:27  940 941	 1492770987	 850931692	 165625.
10:36:28  941 942	 1492770988	 12673622	 161742.
10:36:28  942 943	 1492770988	 178674757	 166001.
10:36:28  943 944	 1492770988	 340546940	 161873.
10:36:28  944 945	 1492770988	 502717359	 162170.
10:36:28  945 946	 1492770988	 639912746	 137195.
10:36:28  946 947	 1492770988	 801971788	 162059.
10:36:28  947 948	 1492770988	 968093949	 166123.
10:36:29  948 949	 1492770989	 130120316	 162026.
10:36:29  949 950	 1492770989	 292090610	 161970.
10:36:29  950 951	 1492770989	 458467739	 166377.
10:36:29  951 952	 1492770989	 620362256	 161895.
10:36:29  952 953	 1492770989	 786649525	 166287.
10:36:29  953 954	 1492770989	 948218147	 161569.
10:36:30  954 955	 1492770990	 111111586	 162893.
10:36:30  955 956	 1492770990	 273182824	 162072.
10:36:30  956 957	 1492770990	 434712859	 161530.
10:36:30  957 958	 1492770990	 596319743	 161606.
10:36:30  958 959	 1492770990	 762331915	 166013.
10:36:30  959 960	 1492770990	 895691223	 133359.
10:36:31  960 961	 1492770991	 61684596	 165993.
10:36:31  961 962	 1492770991	 223787195	 162103.
10:36:31  962 963	 1492770991	 390114875	 166328.
10:36:31  963 964	 1492770991	 552002926	 161888.
10:36:31  964 965	 1492770991	 717920682	 165917.
10:36:31  965 966	 1492770991	 851184075	 133275.
10:36:32  966 967	 1492770992	 17181475	 165986.
10:36:32  967 968	 1492770992	 178868961	 161688.
10:36:32  968 969	 1492770992	 344926223	 166057.
10:36:32  969 970	 1492770992	 506852374	 161926.
10:36:32  970 971	 1492770992	 673108781	 166257.
10:36:32  971 972	 1492770992	 806275367	 133166.
10:36:32  972 973	 1492770992	 972245462	 165970.
10:36:33  973 974	 1492770993	 134373776	 162128.
10:36:33  974 975	 1492770993	 300253354	 165880.
10:36:33  975 976	 1492770993	 462665373	 162412.
10:36:33  976 977	 1492770993	 629003787	 166338.
10:36:33  977 978	 1492770993	 766563470	 137560.
10:36:33  978 979	 1492770993	 928587612	 162024.
10:36:34  979 980	 1492770994	 94278811	 165692.
10:36:34  980 981	 1492770994	 256554306	 162275.
10:36:34  981 982	 1492770994	 423344261	 166790.
10:36:34  982 983	 1492770994	 586019975	 162676.
10:36:34  983 984	 1492770994	 752745574	 166725.
10:36:34  984 985	 1492770994	 915229979	 162485.
10:36:35  985 986	 1492770995	 81817071	 166587.
10:36:35  986 987	 1492770995	 244030767	 162213.
10:36:35  987 988	 1492770995	 403049772	 159019.
10:36:35  988 989	 1492770995	 540366561	 137317.
10:36:35  989 990	 1492770995	 702365209	 161999.
10:36:35  990 991	 1492770995	 868334160	 165969.
10:36:36  991 992	 1492770996	 30467217	 162133.
10:36:36  992 993	 1492770996	 196486281	 166019.
10:36:36  993 994	 1492770996	 358388608	 161902.
10:36:36  994 995	 1492770996	 495688884	 137301.
10:36:36  995 996	 1492770996	 657638866	 161950.
10:36:36  996 997	 1492770996	 823839832	 166201.
10:36:36  997 998	 1492770996	 986054104	 162214.
10:36:37  998 999	 1492770997	 151936328	 165882.
10:36:37  999 1000	 1492770997	 314483776	 162547.
10:36:37 1000 1001	 1492770997	 480573068	 166090.
10:36:37 1001 1002	 1492770997	 613840154	 133267.
10:36:37 1002 1003	 1492770997	 779905532	 166065.
10:36:37 1003 1004	 1492770997	 941938858	 162034.
10:36:38 1004 1005	 1492770998	 103629885	 161691.
10:36:38 1005 1006	 1492770998	 269751743	 166121.
10:36:38 1006 1007	 1492770998	 407339015	 137588.
10:36:38 1007 1008	 1492770998	 569503940	 162165.
10:36:38 1008 1009	 1492770998	 735510036	 166006.
10:36:38 1009 1010	 1492770998	 897247373	 161737.
10:36:39 1010 1011	 1492770999	 63001656	 165754.
10:36:39 1011 1012	 1492770999	 196017712	 133016.
10:36:39 1012 1013	 1492770999	 361768288	 165751.
10:36:39 1013 1014	 1492770999	 523870532	 162102.
10:36:39 1014 1015	 1492770999	 689773498	 165903.
10:36:39 1015 1016	 1492770999	 852197315	 162424.
10:36:39 1016 1017	 1492770999	 989703091	 137506.
10:36:40 1017 1018	 1492771000	 151352603	 161649.
10:36:40 1018 1019	 1492771000	 317023904	 165672.
10:36:40 1019 1020	 1492771000	 478991159	 161967.
10:36:40 1020 1021	 1492771000	 616197575	 137206.
10:36:40 1021 1022	 1492771000	 778145450	 161948.
10:36:40 1022 1023	 1492771000	 940029127	 161884.
10:36:41 1023 1024	 1492771001	 106083784	 166054.
10:36:41 1024 1025	 1492771001	 268003523	 161920.
10:36:41 1025 1026	 1492771001	 434124236	 166121.
10:36:41 1026 1027	 1492771001	 567288906	 133165.
10:36:41 1027 1028	 1492771001	 733694331	 166405.
10:36:41 1028 1029	 1492771001	 895155264	 161461.
10:36:42 1029 1030	 1492771002	 61021125	 165866.
10:36:42 1030 1031	 1492771002	 222835777	 161814.
10:36:42 1031 1032	 1492771002	 356105982	 133271.
10:36:42 1032 1033	 1492771002	 522241950	 166136.
10:36:42 1033 1034	 1492771002	 683749252	 161507.
10:36:42 1034 1035	 1492771002	 849702442	 165953.
10:36:43 1035 1036	 1492771003	 11402650	 161700.
10:36:43 1036 1037	 1492771003	 177952447	 166550.
10:36:43 1037 1038	 1492771003	 311212409	 133260.
10:36:43 1038 1039	 1492771003	 477414325	 166202.
10:36:43 1039 1040	 1492771003	 643634949	 166221.
10:36:43 1040 1041	 1492771003	 805475066	 161840.
10:36:43 1041 1042	 1492771003	 967758465	 162283.
10:36:44 1042 1043	 1492771004	 133764271	 166006.
10:36:44 1043 1044	 1492771004	 267170202	 133406.
10:36:44 1044 1045	 1492771004	 433138995	 165969.
10:36:44 1045 1046	 1492771004	 594685253	 161546.
10:36:44 1046 1047	 1492771004	 760057459	 165372.
10:36:44 1047 1048	 1492771004	 893245650	 133188.
10:36:45 1048 1049	 1492771005	 59671526	 166426.
10:36:45 1049 1050	 1492771005	 221673212	 162002.
10:36:45 1050 1051	 1492771005	 387319977	 165647.
10:36:45 1051 1052	 1492771005	 549436563	 162116.
10:36:45 1052 1053	 1492771005	 715622126	 166186.
10:36:45 1053 1054	 1492771005	 881743718	 166121.
10:36:46 1054 1055	 1492771006	 45139862	 163397.
10:36:46 1055 1056	 1492771006	 203223138	 158083.
10:36:46 1056 1057	 1492771006	 340373633	 137150.
10:36:46 1057 1058	 1492771006	 502288668	 161915.
10:36:46 1058 1059	 1492771006	 668335723	 166047.
10:36:46 1059 1060	 1492771006	 830440158	 162105.
10:36:46 1060 1061	 1492771006	 996814875	 166375.
10:36:47 1061 1062	 1492771007	 158776016	 161961.
10:36:47 1062 1063	 1492771007	 296169699	 137393.
10:36:47 1063 1064	 1492771007	 458144797	 161975.
10:36:47 1064 1065	 1492771007	 624100588	 165956.
10:36:47 1065 1066	 1492771007	 786212883	 162113.
10:36:47 1066 1067	 1492771007	 952339573	 166126.
10:36:48 1067 1068	 1492771008	 85506596	 133167.
10:36:48 1068 1069	 1492771008	 251669537	 166163.
10:36:48 1069 1070	 1492771008	 413675186	 162006.
10:36:48 1070 1071	 1492771008	 580314230	 166639.
10:36:48 1071 1072	 1492771008	 742520667	 162206.
10:36:48 1072 1073	 1492771008	 908650400	 166130.
10:36:49 1073 1074	 1492771009	 70601469	 161951.
10:36:49 1074 1075	 1492771009	 237111359	 166510.
10:36:49 1075 1076	 1492771009	 370609330	 133498.
10:36:49 1076 1077	 1492771009	 536775169	 166166.
10:36:49 1077 1078	 1492771009	 698656364	 161881.
10:36:49 1078 1079	 1492771009	 864787196	 166131.
10:36:50 1079 1080	 1492771010	 27270074	 162483.
10:36:50 1080 1081	 1492771010	 193565071	 166295.
10:36:50 1081 1082	 1492771010	 355493264	 161928.
10:36:50 1082 1083	 1492771010	 493179518	 137686.
10:36:50 1083 1084	 1492771010	 659282069	 166103.
10:36:50 1084 1085	 1492771010	 820871009	 161589.
10:36:50 1085 1086	 1492771010	 986512594	 165641.
10:36:51 1086 1087	 1492771011	 152567268	 166055.
10:36:51 1087 1088	 1492771011	 285955610	 133388.
10:36:51 1088 1089	 1492771011	 452335483	 166380.
10:36:51 1089 1090	 1492771011	 614510603	 162175.
10:36:51 1090 1091	 1492771011	 780887723	 166377.
10:36:51 1091 1092	 1492771011	 942900685	 162013.
10:36:52 1092 1093	 1492771012	 109442041	 166542.
10:36:52 1093 1094	 1492771012	 271640153	 162198.
10:36:52 1094 1095	 1492771012	 408936598	 137296.
10:36:52 1095 1096	 1492771012	 570931496	 161995.
10:36:52 1096 1097	 1492771012	 737065488	 166134.
10:36:52 1097 1098	 1492771012	 899222010	 162157.
10:36:53 1098 1099	 1492771013	 64982879	 165761.
10:36:53 1099 1100	 1492771013	 231108307	 166125.
10:36:53 1100 1101	 1492771013	 364384492	 133276.
10:36:53 1101 1102	 1492771013	 526530425	 162146.
10:36:53 1102 1103	 1492771013	 692303730	 165773.
10:36:53 1103 1104	 1492771013	 854468682	 162165.
10:36:54 1104 1105	 1492771014	 20881488	 166413.
10:36:54 1105 1106	 1492771014	 186960554	 166079.
10:36:54 1106 1107	 1492771014	 320286862	 133327.
10:36:54 1107 1108	 1492771014	 482318094	 162031.
10:36:54 1108 1109	 1492771014	 648787451	 166469.
10:36:54 1109 1110	 1492771014	 810731286	 161944.
10:36:54 1110 1111	 1492771014	 977046696	 166315.
10:36:55 1111 1112	 1492771015	 139254125	 162208.
10:36:55 1112 1113	 1492771015	 305336070	 166082.
10:36:55 1113 1114	 1492771015	 442462441	 137126.
10:36:55 1114 1115	 1492771015	 604421075	 161959.
10:36:55 1115 1116	 1492771015	 770713234	 166292.
10:36:55 1116 1117	 1492771015	 933031899	 162319.
10:36:56 1117 1118	 1492771016	 99217567	 166185.
10:36:56 1118 1119	 1492771016	 261420556	 162203.
10:36:56 1119 1120	 1492771016	 427385885	 165966.
10:36:56 1120 1121	 1492771016	 560578307	 133192.
10:36:56 1121 1122	 1492771016	 726131537	 165553.
10:36:56 1122 1123	 1492771016	 887695428	 161564.
10:36:57 1123 1124	 1492771017	 53259052	 165564.
10:36:57 1124 1125	 1492771017	 186123442	 132864.
10:36:57 1125 1126	 1492771017	 351872887	 165750.
10:36:57 1126 1127	 1492771017	 513849133	 161976.
10:36:57 1127 1128	 1492771017	 679955792	 166106.
10:36:57 1128 1129	 1492771017	 842273875	 162319.
10:36:57 1129 1130	 1492771017	 979661460	 137387.
10:36:58 1130 1131	 1492771018	 142090832	 162430.
10:36:58 1131 1132	 1492771018	 308126876	 166036.
10:36:58 1132 1133	 1492771018	 469975371	 161848.
10:36:58 1133 1134	 1492771018	 636001965	 166027.
10:36:58 1134 1135	 1492771018	 798096193	 162094.
10:36:58 1135 1136	 1492771018	 964481933	 166386.
10:36:59 1136 1137	 1492771019	 127448182	 162966.
10:36:59 1137 1138	 1492771019	 293725437	 166277.
10:36:59 1138 1139	 1492771019	 427085529	 133360.
10:36:59 1139 1140	 1492771019	 593547296	 166462.
10:36:59 1140 1141	 1492771019	 755311463	 161764.
10:36:59 1141 1142	 1492771019	 921053581	 165742.
10:37:00 1142 1143	 1492771020	 82975819	 161923.
10:37:00 1143 1144	 1492771020	 248614348	 165638.
10:37:00 1144 1145	 1492771020	 381986381	 133372.
10:37:00 1145 1146	 1492771020	 547861586	 165875.
10:37:00 1146 1147	 1492771020	 709823727	 161962.
10:37:00 1147 1148	 1492771020	 871932679	 162110.
10:37:01 1148 1149	 1492771021	 37774981	 165842.
10:37:01 1149 1150	 1492771021	 199585922	 161811.
10:37:01 1150 1151	 1492771021	 361146465	 161560.
10:37:01 1151 1152	 1492771021	 526824383	 165678.
10:37:01 1152 1153	 1492771021	 688401207	 161577.
10:37:01 1153 1154	 1492771021	 854220299	 165819.
10:37:02 1154 1155	 1492771022	 16024130	 161804.
10:37:02 1155 1156	 1492771022	 149151921	 133128.
10:37:02 1156 1157	 1492771022	 315001144	 165849.
10:37:02 1157 1158	 1492771022	 476685854	 161685.
10:37:02 1158 1159	 1492771022	 642527290	 165841.
10:37:02 1159 1160	 1492771022	 804273920	 161747.
10:37:02 1160 1161	 1492771022	 980904698	 176630.
10:37:03 1161 1162	 1492771023	 114176780	 133272.
10:37:03 1162 1163	 1492771023	 279954713	 165778.
10:37:03 1163 1164	 1492771023	 441737334	 161783.
10:37:03 1164 1165	 1492771023	 603379413	 161642.
10:37:03 1165 1166	 1492771023	 768949648	 165571.
10:37:03 1166 1167	 1492771023	 930482532	 161532.
10:37:04 1167 1168	 1492771024	 63293070	 132811.
10:37:04 1168 1169	 1492771024	 228692229	 165399.
10:37:04 1169 1170	 1492771024	 390174540	 161482.
10:37:04 1170 1171	 1492771024	 551686313	 161512.
10:37:04 1171 1172	 1492771024	 717666328	 165980.
10:37:04 1172 1173	 1492771024	 879303783	 161637.
10:37:05 1173 1174	 1492771025	 12309536	 133006.
10:37:05 1174 1175	 1492771025	 178291894	 165983.
10:37:05 1175 1176	 1492771025	 340522857	 162231.
10:37:05 1176 1177	 1492771025	 506458843	 165936.
10:37:05 1177 1178	 1492771025	 668195015	 161736.
10:37:05 1178 1179	 1492771025	 834041408	 165846.
10:37:05 1179 1180	 1492771025	 995844306	 161803.
10:37:06 1180 1181	 1492771026	 157550392	 161706.
10:37:06 1181 1182	 1492771026	 294514246	 136964.
10:37:06 1182 1183	 1492771026	 456076974	 161563.
10:37:06 1183 1184	 1492771026	 617723799	 161647.
10:37:06 1184 1185	 1492771026	 783472995	 165749.
10:37:06 1185 1186	 1492771026	 945299654	 161826.
10:37:07 1186 1187	 1492771027	 106903644	 161604.
10:37:07 1187 1188	 1492771027	 272476873	 165574.
10:37:07 1188 1189	 1492771027	 405461814	 132985.
10:37:07 1189 1190	 1492771027	 571224262	 165762.
10:37:07 1190 1191	 1492771027	 732844544	 161620.
10:37:07 1191 1192	 1492771027	 898560729	 165716.
10:37:08 1192 1193	 1492771028	 60166260	 161606.
10:37:08 1193 1194	 1492771028	 221711272	 161545.
10:37:08 1194 1195	 1492771028	 387352531	 165641.
10:37:08 1195 1196	 1492771028	 520392373	 133040.
10:37:08 1196 1197	 1492771028	 681852306	 161460.
10:37:08 1197 1198	 1492771028	 847525906	 165674.
10:37:09 1198 1199	 1492771029	 9234052	 161708.
10:37:09 1199 1200	 1492771029	 170866372	 161632.
10:37:09 1200 1201	 1492771029	 336591170	 165725.
10:37:09 1201 1202	 1492771029	 469588727	 132997.
10:37:09 1202 1203	 1492771029	 635304343	 165716.
10:37:09 1203 1204	 1492771029	 796771779	 161467.
10:37:09 1204 1205	 1492771029	 962905664	 166134.
10:37:10 1205 1206	 1492771030	 124796153	 161891.
10:37:10 1206 1207	 1492771030	 286625078	 161829.
10:37:10 1207 1208	 1492771030	 452272562	 165647.
10:37:10 1208 1209	 1492771030	 585411557	 133139.
10:37:10 1209 1210	 1492771030	 751443083	 166032.
10:37:10 1210 1211	 1492771030	 913640733	 162197.
10:37:11 1211 1212	 1492771031	 80099700	 166459.
10:37:11 1212 1213	 1492771031	 242189752	 162090.
10:37:11 1213 1214	 1492771031	 408091197	 165902.
10:37:11 1214 1215	 1492771031	 570122715	 162031.
10:37:11 1215 1216	 1492771031	 736670129	 166548.
10:37:11 1216 1217	 1492771031	 899094948	 162425.
10:37:12 1217 1218	 1492771032	 32539164	 133444.
10:37:12 1218 1219	 1492771032	 198242100	 165703.
10:37:12 1219 1220	 1492771032	 359828476	 161586.
10:37:12 1220 1221	 1492771032	 526151427	 166323.
10:37:12 1221 1222	 1492771032	 688474767	 162323.
10:37:12 1222 1223	 1492771032	 854618580	 166144.
10:37:12 1223 1224	 1492771032	 987774702	 133156.
10:37:13 1224 1225	 1492771033	 153922862	 166149.
10:37:13 1225 1226	 1492771033	 316036516	 162113.
10:37:13 1226 1227	 1492771033	 482481139	 166445.
10:37:13 1227 1228	 1492771033	 644228087	 161747.
10:37:13 1228 1229	 1492771033	 810190327	 165962.
10:37:13 1229 1230	 1492771033	 950753091	 140563.
10:37:14 1230 1231	 1492771034	 112795424	 162042.
10:37:14 1231 1232	 1492771034	 279467610	 166672.
10:37:14 1232 1233	 1492771034	 445679371	 166212.
10:37:14 1233 1234	 1492771034	 607966368	 162287.
10:37:14 1234 1235	 1492771034	 770232649	 162266.
10:37:14 1235 1236	 1492771034	 936310916	 166079.
10:37:15 1236 1237	 1492771035	 98402365	 162091.
10:37:15 1237 1238	 1492771035	 235637373	 137235.
10:37:15 1238 1239	 1492771035	 397654324	 162017.
10:37:15 1239 1240	 1492771035	 563688797	 166034.
10:37:15 1240 1241	 1492771035	 725608877	 161921.
10:37:15 1241 1242	 1492771035	 891673824	 166064.
10:37:16 1242 1243	 1492771036	 53520827	 161848.
10:37:16 1243 1244	 1492771036	 191227138	 137706.
10:37:16 1244 1245	 1492771036	 353382699	 162155.
10:37:16 1245 1246	 1492771036	 519797178	 166415.
10:37:16 1246 1247	 1492771036	 681591516	 161794.
10:37:16 1247 1248	 1492771036	 848106583	 166515.
10:37:17 1248 1249	 1492771037	 10115122	 162009.
10:37:17 1249 1250	 1492771037	 176089222	 165974.
10:37:17 1250 1251	 1492771037	 309365621	 133276.
10:37:17 1251 1252	 1492771037	 471606627	 162241.
10:37:17 1252 1253	 1492771037	 637772131	 166166.
10:37:17 1253 1254	 1492771037	 799625027	 161853.
10:37:17 1254 1255	 1492771037	 965719755	 166094.
10:37:18 1255 1256	 1492771038	 127700095	 161981.
10:37:18 1256 1257	 1492771038	 293955365	 166255.
10:37:18 1257 1258	 1492771038	 427118345	 133163.
10:37:18 1258 1259	 1492771038	 593110795	 165992.
10:37:18 1259 1260	 1492771038	 754824178	 161714.
10:37:18 1260 1261	 1492771038	 920442179	 165618.
10:37:19 1261 1262	 1492771039	 82681823	 162240.
10:37:19 1262 1263	 1492771039	 240124365	 157442.
10:37:19 1263 1264	 1492771039	 377195717	 137071.
10:37:19 1264 1265	 1492771039	 539187853	 161993.
10:37:19 1265 1266	 1492771039	 704997865	 165810.
10:37:19 1266 1267	 1492771039	 866741419	 161743.
10:37:20 1267 1268	 1492771040	 33047084	 166306.
10:37:20 1268 1269	 1492771040	 195475449	 162428.
10:37:20 1269 1270	 1492771040	 361550302	 166075.
10:37:20 1270 1271	 1492771040	 494671088	 133121.
10:37:20 1271 1272	 1492771040	 660767889	 166097.
10:37:20 1272 1273	 1492771040	 822303796	 161535.
10:37:20 1273 1274	 1492771040	 987875136	 165572.
10:37:21 1274 1275	 1492771041	 121007002	 133132.
10:37:21 1275 1276	 1492771041	 282737680	 161730.
10:37:21 1276 1277	 1492771041	 448545098	 165808.
10:37:21 1277 1278	 1492771041	 614785595	 166240.
10:37:21 1278 1279	 1492771041	 777128983	 162344.
10:37:21 1279 1280	 1492771041	 938973413	 161844.
10:37:22 1280 1281	 1492771042	 76584633	 137611.
10:37:22 1281 1282	 1492771042	 238568478	 161984.
10:37:22 1282 1283	 1492771042	 404489544	 165921.
10:37:22 1283 1284	 1492771042	 566491259	 162002.
10:37:22 1284 1285	 1492771042	 732706314	 166215.
10:37:22 1285 1286	 1492771042	 894779293	 162073.
10:37:23 1286 1287	 1492771043	 60975576	 166196.
10:37:23 1287 1288	 1492771043	 223099429	 162124.
10:37:23 1288 1289	 1492771043	 360648719	 137549.
10:37:23 1289 1290	 1492771043	 522190800	 161543.
10:37:23 1290 1291	 1492771043	 683819961	 161629.
10:37:23 1291 1292	 1492771043	 849646079	 165826.
10:37:24 1292 1293	 1492771044	 10876361	 161230.
10:37:24 1293 1294	 1492771044	 172413059	 161537.
10:37:24 1294 1295	 1492771044	 309337012	 136924.
10:37:24 1295 1296	 1492771044	 471118467	 161781.
10:37:24 1296 1297	 1492771044	 632742893	 161625.
10:37:24 1297 1298	 1492771044	 798182874	 165440.
10:37:24 1298 1299	 1492771044	 959850754	 161667.
10:37:25 1299 1300	 1492771045	 125388202	 165538.
10:37:25 1300 1301	 1492771045	 258276286	 132888.
10:37:25 1301 1302	 1492771045	 419772893	 161497.
10:37:25 1302 1303	 1492771045	 585449483	 165676.
10:37:25 1303 1304	 1492771045	 746846722	 161397.
10:37:25 1304 1305	 1492771045	 908409326	 161563.
10:37:26 1305 1306	 1492771046	 73816586	 165407.
10:37:26 1306 1307	 1492771046	 206581520	 132765.
10:37:26 1307 1308	 1492771046	 372204027	 165623.
10:37:26 1308 1309	 1492771046	 533699609	 161495.
10:37:26 1309 1310	 1492771046	 695162994	 161464.
10:37:26 1310 1311	 1492771046	 861286939	 166124.
10:37:26 1311 1312	 1492771046	 994358195	 133071.
10:37:27 1312 1313	 1492771047	 160164388	 165806.
10:37:27 1313 1314	 1492771047	 322347914	 162184.
10:37:27 1314 1315	 1492771047	 488651993	 166304.
10:37:27 1315 1316	 1492771047	 650740300	 162088.
10:37:27 1316 1317	 1492771047	 817064112	 166324.
10:37:27 1317 1318	 1492771047	 978699418	 161635.
10:37:28 1318 1319	 1492771048	 116309725	 137610.
10:37:28 1319 1320	 1492771048	 278127102	 161818.
10:37:28 1320 1321	 1492771048	 444006794	 165879.
10:37:28 1321 1322	 1492771048	 605666917	 161661.
10:37:28 1322 1323	 1492771048	 772025868	 166359.
10:37:28 1323 1324	 1492771048	 934178006	 162152.
10:37:29 1324 1325	 1492771049	 71541304	 137363.
10:37:29 1325 1326	 1492771049	 233199940	 161659.
10:37:29 1326 1327	 1492771049	 399455119	 166255.
10:37:29 1327 1328	 1492771049	 561120234	 161665.
10:37:29 1328 1329	 1492771049	 723518430	 162398.
10:37:29 1329 1330	 1492771049	 889601265	 166083.
10:37:30 1330 1331	 1492771050	 26796675	 137196.
10:37:30 1331 1332	 1492771050	 189546241	 162749.
10:37:30 1332 1333	 1492771050	 347380081	 157834.
10:37:30 1333 1334	 1492771050	 513340027	 165960.
10:37:30 1334 1335	 1492771050	 675534852	 162195.
10:37:30 1335 1336	 1492771050	 841686845	 166152.
10:37:30 1336 1337	 1492771050	 974963137	 133276.
10:37:31 1337 1338	 1492771051	 141467062	 166504.
10:37:31 1338 1339	 1492771051	 303212997	 161746.
10:37:31 1339 1340	 1492771051	 469363101	 166150.
10:37:31 1340 1341	 1492771051	 631425607	 162062.
10:37:31 1341 1342	 1492771051	 797577294	 166152.
10:37:31 1342 1343	 1492771051	 959588738	 162011.
10:37:32 1343 1344	 1492771052	 97030625	 137442.
10:37:32 1344 1345	 1492771052	 259368415	 162338.
10:37:32 1345 1346	 1492771052	 425548084	 166180.
10:37:32 1346 1347	 1492771052	 588205014	 162657.
10:37:32 1347 1348	 1492771052	 754396884	 166192.
10:37:32 1348 1349	 1492771052	 916642094	 162245.
10:37:33 1349 1350	 1492771053	 83480905	 166839.
10:37:33 1350 1351	 1492771053	 246013954	 162533.
10:37:33 1351 1352	 1492771053	 412436006	 166422.
10:37:33 1352 1353	 1492771053	 574829275	 162393.
10:37:33 1353 1354	 1492771053	 740935793	 166107.
10:37:33 1354 1355	 1492771053	 874513588	 133577.
10:37:34 1355 1356	 1492771054	 40705119	 166192.
10:37:34 1356 1357	 1492771054	 202630717	 161925.
10:37:34 1357 1358	 1492771054	 368498931	 165869.
10:37:34 1358 1359	 1492771054	 530560209	 162061.
10:37:34 1359 1360	 1492771054	 667807142	 137247.
10:37:34 1360 1361	 1492771054	 829471031	 161664.
10:37:34 1361 1362	 1492771054	 995704968	 166234.
10:37:35 1362 1363	 1492771055	 161864313	 166159.
10:37:35 1363 1364	 1492771055	 323737581	 161873.
10:37:35 1364 1365	 1492771055	 456914396	 133177.
10:37:35 1365 1366	 1492771055	 623110043	 166196.
10:37:35 1366 1367	 1492771055	 785238814	 162129.
10:37:35 1367 1368	 1492771055	 951234401	 165995.
10:37:36 1368 1369	 1492771056	 113342825	 162108.
10:37:36 1369 1370	 1492771056	 279496966	 166155.
10:37:36 1370 1371	 1492771056	 441261152	 161764.
10:37:36 1371 1372	 1492771056	 607552566	 166291.
10:37:36 1372 1373	 1492771056	 741105923	 133554.
10:37:36 1373 1374	 1492771056	 907655762	 166550.
10:37:37 1374 1375	 1492771057	 69784982	 162129.
10:37:37 1375 1376	 1492771057	 235550217	 165765.
10:37:37 1376 1377	 1492771057	 397504909	 161955.
10:37:37 1377 1378	 1492771057	 563718935	 166214.
10:37:37 1378 1379	 1492771057	 696705088	 132986.
10:37:37 1379 1380	 1492771057	 862886982	 166182.
10:37:38 1380 1381	 1492771058	 24692777	 161805.
10:37:38 1381 1382	 1492771058	 190804028	 166112.
10:37:38 1382 1383	 1492771058	 353042233	 162238.
10:37:38 1383 1384	 1492771058	 519326953	 166285.
10:37:38 1384 1385	 1492771058	 652762165	 133435.
10:37:38 1385 1386	 1492771058	 819060311	 166298.
10:37:38 1386 1387	 1492771058	 985389952	 166330.
10:37:39 1387 1388	 1492771059	 147623711	 162233.
10:37:39 1388 1389	 1492771059	 313159645	 165536.
10:37:39 1389 1390	 1492771059	 445975280	 132816.
10:37:39 1390 1391	 1492771059	 608268422	 162293.
10:37:39 1391 1392	 1492771059	 774719326	 166451.
10:37:39 1392 1393	 1492771059	 940824022	 166105.
10:37:40 1393 1394	 1492771060	 102827811	 162004.
10:37:40 1394 1395	 1492771060	 269038399	 166210.
10:37:40 1395 1396	 1492771060	 431118240	 162080.
10:37:40 1396 1397	 1492771060	 568120505	 137002.
10:37:40 1397 1398	 1492771060	 730179784	 162059.
10:37:40 1398 1399	 1492771060	 896024399	 165845.
10:37:41 1399 1400	 1492771061	 61530339	 165506.
10:37:41 1400 1401	 1492771061	 194783106	 133253.
10:37:41 1401 1402	 1492771061	 356622594	 161839.
10:37:41 1402 1403	 1492771061	 522469740	 165847.
10:37:41 1403 1404	 1492771061	 688480039	 166011.
10:37:41 1404 1405	 1492771061	 850501629	 162021.
10:37:41 1405 1406	 1492771061	 983916837	 133416.
10:37:42 1406 1407	 1492771062	 149684040	 165767.
10:37:42 1407 1408	 1492771062	 311510692	 161826.
10:37:42 1408 1409	 1492771062	 477945235	 166435.
10:37:42 1409 1410	 1492771062	 643794606	 165849.
10:37:42 1410 1411	 1492771062	 776845844	 133052.
10:37:42 1411 1412	 1492771062	 938774977	 161929.
10:37:43 1412 1413	 1492771063	 104725392	 165950.
10:37:43 1413 1414	 1492771063	 266442850	 161718.
10:37:43 1414 1415	 1492771063	 432690958	 166248.
10:37:43 1415 1416	 1492771063	 595236715	 162545.
10:37:43 1416 1417	 1492771063	 761500506	 166264.
10:37:43 1417 1418	 1492771063	 895089391	 133589.
10:37:44 1418 1419	 1492771064	 61421135	 166332.
10:37:44 1419 1420	 1492771064	 223754387	 162333.
10:37:44 1420 1421	 1492771064	 390114395	 166360.
10:37:44 1421 1422	 1492771064	 552211603	 162097.
10:37:44 1422 1423	 1492771064	 718179174	 165968.
10:37:44 1423 1424	 1492771064	 884370475	 166191.
10:37:45 1424 1425	 1492771065	 46372465	 162002.
10:37:45 1425 1426	 1492771065	 179372929	 133001.
10:37:45 1426 1427	 1492771065	 345109561	 165736.
10:37:45 1427 1428	 1492771065	 506972114	 161863.
10:37:45 1428 1429	 1492771065	 668851786	 161879.
10:37:45 1429 1430	 1492771065	 834557601	 165706.
10:37:45 1430 1431	 1492771065	 996101465	 161544.
10:37:46 1431 1432	 1492771066	 157915953	 161815.
10:37:46 1432 1433	 1492771066	 323748938	 165833.
10:37:46 1433 1434	 1492771066	 456888209	 133139.
10:37:46 1434 1435	 1492771066	 622527541	 165639.
10:37:46 1435 1436	 1492771066	 784543925	 162017.
10:37:46 1436 1437	 1492771066	 946571776	 162027.
10:37:47 1437 1438	 1492771067	 112469809	 165898.
10:37:47 1438 1439	 1492771067	 274844101	 162375.
10:37:47 1439 1440	 1492771067	 436638714	 161794.
10:37:47 1440 1441	 1492771067	 598766519	 162128.
10:37:47 1441 1442	 1492771067	 764778200	 166012.
10:37:47 1442 1443	 1492771067	 926746171	 161968.
10:37:48 1443 1444	 1492771068	 60169929	 133424.
10:37:48 1444 1445	 1492771068	 226319988	 166150.
10:37:48 1445 1446	 1492771068	 392106977	 165787.
10:37:48 1446 1447	 1492771068	 553795254	 161688.
10:37:48 1447 1448	 1492771068	 715354660	 161559.
10:37:48 1448 1449	 1492771068	 881310501	 165956.
10:37:49 1449 1450	 1492771069	 43401487	 162091.
10:37:49 1450 1451	 1492771069	 180920147	 137519.
10:37:49 1451 1452	 1492771069	 342844273	 161924.
10:37:49 1452 1453	 1492771069	 508936725	 166092.
10:37:49 1453 1454	 1492771069	 670548810	 161613.
10:37:49 1454 1455	 1492771069	 836135356	 165586.
10:37:49 1455 1456	 1492771069	 969408321	 133273.
10:37:50 1456 1457	 1492771070	 135163835	 165755.
10:37:50 1457 1458	 1492771070	 296379279	 161216.
10:37:50 1458 1459	 1492771070	 461732413	 165353.
10:37:50 1459 1460	 1492771070	 623402434	 161670.
10:37:50 1460 1461	 1492771070	 760442016	 137040.
10:37:50 1461 1462	 1492771070	 921603008	 161161.
10:37:51 1462 1463	 1492771071	 83400022	 161797.
10:37:51 1463 1464	 1492771071	 249065774	 165665.
10:37:51 1464 1465	 1492771071	 382166385	 133101.
10:37:51 1465 1466	 1492771071	 548304300	 166138.
10:37:51 1466 1467	 1492771071	 710036612	 161733.
10:37:51 1467 1468	 1492771071	 875734115	 165697.
10:37:52 1468 1469	 1492771072	 38009983	 162276.
10:37:52 1469 1470	 1492771072	 175009878	 137000.
10:37:52 1470 1471	 1492771072	 336998039	 161988.
10:37:52 1471 1472	 1492771072	 499211721	 162213.
10:37:52 1472 1473	 1492771072	 664912974	 165702.
10:37:52 1473 1474	 1492771072	 826431532	 161518.
10:37:52 1474 1475	 1492771072	 992292760	 165861.
10:37:53 1475 1476	 1492771073	 153708890	 161417.
10:37:53 1476 1477	 1492771073	 290664733	 136955.
10:37:53 1477 1478	 1492771073	 452153679	 161489.
10:37:53 1478 1479	 1492771073	 618398556	 166245.
10:37:53 1479 1480	 1492771073	 780226015	 161828.
10:37:53 1480 1481	 1492771073	 945760613	 165535.
10:37:54 1481 1482	 1492771074	 78625872	 132865.
10:37:54 1482 1483	 1492771074	 244211710	 165585.
10:37:54 1483 1484	 1492771074	 405592821	 161382.
10:37:54 1484 1485	 1492771074	 571479127	 165886.
10:37:54 1485 1486	 1492771074	 733297256	 161818.
10:37:54 1486 1487	 1492771074	 894876253	 161579.
10:37:55 1487 1488	 1492771075	 60741316	 165865.
10:37:55 1488 1489	 1492771075	 193812392	 133071.
10:37:55 1489 1490	 1492771075	 359856932	 166045.
10:37:55 1490 1491	 1492771075	 521840451	 161983.
10:37:55 1491 1492	 1492771075	 687743852	 165904.
10:37:55 1492 1493	 1492771075	 849759377	 162015.
10:37:56 1493 1494	 1492771076	 11662724	 161903.
10:37:56 1494 1495	 1492771076	 177529791	 165867.
10:37:56 1495 1496	 1492771076	 339757806	 162229.
10:37:56 1496 1497	 1492771076	 477217875	 137460.
10:37:56 1497 1498	 1492771076	 639690033	 162472.
10:37:56 1498 1499	 1492771076	 805603186	 165913.
10:37:56 1499 1500	 1492771076	 967197587	 161594.
10:37:57 1500 1501	 1492771077	 132665092	 165468.
10:37:57 1501 1502	 1492771077	 293991930	 161327.
10:37:57 1502 1503	 1492771077	 455573785	 161581.
10:37:57 1503 1504	 1492771077	 592705259	 137132.
10:37:57 1504 1505	 1492771077	 754520229	 161815.
10:37:57 1505 1506	 1492771077	 920315596	 165795.
10:37:58 1506 1507	 1492771078	 81940702	 161625.
10:37:58 1507 1508	 1492771078	 243755499	 161815.
10:37:58 1508 1509	 1492771078	 409490227	 165735.
10:37:58 1509 1510	 1492771078	 571106407	 161616.
10:37:58 1510 1511	 1492771078	 732936698	 161830.
10:37:58 1511 1512	 1492771078	 898852146	 165916.
10:37:59 1512 1513	 1492771079	 31915796	 133063.
10:37:59 1513 1514	 1492771079	 197736047	 165821.
10:37:59 1514 1515	 1492771079	 359312122	 161576.
10:37:59 1515 1516	 1492771079	 520841382	 161529.
10:37:59 1516 1517	 1492771079	 686415383	 165574.
10:37:59 1517 1518	 1492771079	 848182824	 161768.
10:38:00 1518 1519	 1492771080	 14090122	 165907.
10:38:00 1519 1520	 1492771080	 147137657	 133047.
10:38:00 1520 1521	 1492771080	 308413024	 161276.
10:38:00 1521 1522	 1492771080	 474248877	 165836.
10:38:00 1522 1523	 1492771080	 636180777	 161932.
10:38:00 1523 1524	 1492771080	 802029091	 165848.
10:38:00 1524 1525	 1492771080	 963737930	 161709.
10:38:01 1525 1526	 1492771081	 96750261	 133012.
10:38:01 1526 1527	 1492771081	 262585481	 165835.
10:38:01 1527 1528	 1492771081	 424449343	 161864.
10:38:01 1528 1529	 1492771081	 590197147	 165748.
10:38:01 1529 1530	 1492771081	 751809908	 161613.
10:38:01 1530 1531	 1492771081	 917543655	 165733.
10:38:02 1531 1532	 1492771082	 79111739	 161568.
10:38:02 1532 1533	 1492771082	 240954507	 161843.
10:38:02 1533 1534	 1492771082	 377957609	 137003.
10:38:02 1534 1535	 1492771082	 539429078	 161472.
10:38:02 1535 1536	 1492771082	 705099823	 165671.
10:38:02 1536 1537	 1492771082	 866967067	 161867.
10:38:03 1537 1538	 1492771083	 32434398	 165467.
10:38:03 1538 1539	 1492771083	 193974866	 161541.
10:38:03 1539 1540	 1492771083	 326935066	 132960.
10:38:03 1540 1541	 1492771083	 492470821	 165536.
10:38:03 1541 1542	 1492771083	 654035956	 161565.
10:38:03 1542 1543	 1492771083	 819746744	 165711.
10:38:03 1543 1544	 1492771083	 981450862	 161704.
10:38:04 1544 1545	 1492771084	 143882662	 162431.
10:38:04 1545 1546	 1492771084	 301607271	 157725.
10:38:04 1546 1547	 1492771084	 438750696	 137143.
10:38:04 1547 1548	 1492771084	 600333153	 161583.
10:38:04 1548 1549	 1492771084	 766130091	 165797.
10:38:04 1549 1550	 1492771084	 928048773	 161918.
10:38:05 1550 1551	 1492771085	 93912785	 165864.
10:38:05 1551 1552	 1492771085	 255589036	 161677.
10:38:05 1552 1553	 1492771085	 392771333	 137182.
10:38:05 1553 1554	 1492771085	 554499651	 161728.
10:38:05 1554 1555	 1492771085	 720736652	 166237.
10:38:05 1555 1556	 1492771085	 882689525	 161953.
10:38:06 1556 1557	 1492771086	 48697370	 166008.
10:38:06 1557 1558	 1492771086	 210886145	 162189.
10:38:06 1558 1559	 1492771086	 377159793	 166273.
10:38:06 1559 1560	 1492771086	 539195007	 162036.
10:38:06 1560 1561	 1492771086	 705110499	 165915.
10:38:06 1561 1562	 1492771086	 838037237	 132927.
10:38:06 1562 1563	 1492771086	 999916889	 161880.
10:38:07 1563 1564	 1492771087	 165943937	 166027.
10:38:07 1564 1565	 1492771087	 328128788	 162184.
10:38:07 1565 1566	 1492771087	 494586316	 166458.
10:38:07 1566 1567	 1492771087	 656380648	 161794.
10:38:07 1567 1568	 1492771087	 822577269	 166197.
10:38:07 1568 1569	 1492771087	 984727841	 162151.
10:38:08 1569 1570	 1492771088	 150688690	 165960.
10:38:08 1570 1571	 1492771088	 312621715	 161933.
10:38:08 1571 1572	 1492771088	 478549070	 165928.
10:38:08 1572 1573	 1492771088	 640750966	 162202.
10:38:08 1573 1574	 1492771088	 773930482	 133179.
10:38:08 1574 1575	 1492771088	 940052991	 166123.
10:38:09 1575 1576	 1492771089	 102055658	 162002.
10:38:09 1576 1577	 1492771089	 267992875	 165938.
10:38:09 1577 1578	 1492771089	 430064605	 162071.
10:38:09 1578 1579	 1492771089	 596193891	 166130.
10:38:09 1579 1580	 1492771089	 758180369	 161986.
10:38:09 1580 1581	 1492771089	 924048569	 165868.
10:38:10 1581 1582	 1492771090	 57124589	 133076.
10:38:10 1582 1583	 1492771090	 223358877	 166235.
10:38:10 1583 1584	 1492771090	 385697459	 162338.
10:38:10 1584 1585	 1492771090	 551631261	 165934.
10:38:10 1585 1586	 1492771090	 713500243	 161869.
10:38:10 1586 1587	 1492771090	 879983192	 166483.
10:38:11 1587 1588	 1492771091	 42079376	 162096.
10:38:11 1588 1589	 1492771091	 208565337	 166486.
10:38:11 1589 1590	 1492771091	 342134545	 133569.
10:38:11 1590 1591	 1492771091	 508451943	 166318.
10:38:11 1591 1592	 1492771091	 670189428	 161737.
10:38:11 1592 1593	 1492771091	 836485384	 166296.
10:38:11 1593 1594	 1492771091	 998660733	 162175.
10:38:12 1594 1595	 1492771092	 164958699	 166298.
10:38:12 1595 1596	 1492771092	 327695450	 162737.
10:38:12 1596 1597	 1492771092	 493407802	 165713.
10:38:12 1597 1598	 1492771092	 626607812	 133200.
10:38:12 1598 1599	 1492771092	 792466602	 165858.
10:38:12 1599 1600	 1492771092	 954075785	 161609.
10:38:13 1600 1601	 1492771093	 115520883	 161446.
10:38:13 1601 1602	 1492771093	 281635391	 166114.
10:38:13 1602 1603	 1492771093	 443459850	 161825.
10:38:13 1603 1604	 1492771093	 580828331	 137368.
10:38:13 1604 1605	 1492771093	 742856650	 162028.
10:38:13 1605 1606	 1492771093	 909138966	 166283.
10:38:14 1606 1607	 1492771094	 75391275	 166252.
10:38:14 1607 1608	 1492771094	 237620891	 162230.
10:38:14 1608 1609	 1492771094	 403715917	 166095.
10:38:14 1609 1610	 1492771094	 565536258	 161820.
10:38:14 1610 1611	 1492771094	 698703382	 133167.
10:38:14 1611 1612	 1492771094	 864771927	 166069.
10:38:15 1612 1613	 1492771095	 27019169	 162247.
10:38:15 1613 1614	 1492771095	 193224848	 166206.
10:38:15 1614 1615	 1492771095	 355407530	 162182.
10:38:15 1615 1616	 1492771095	 521980228	 166573.
10:38:15 1616 1617	 1492771095	 684050450	 162070.
10:38:15 1617 1618	 1492771095	 850236828	 166187.
10:38:15 1618 1619	 1492771095	 983601448	 133364.
10:38:16 1619 1620	 1492771096	 149931391	 166330.
10:38:16 1620 1621	 1492771096	 312325880	 162395.
10:38:16 1621 1622	 1492771096	 478645803	 166319.
10:38:16 1622 1623	 1492771096	 640764847	 162120.
10:38:16 1623 1624	 1492771096	 806563133	 165798.
10:38:16 1624 1625	 1492771096	 968920982	 162358.
10:38:17 1625 1626	 1492771097	 105894003	 136973.
10:38:17 1626 1627	 1492771097	 268344764	 162451.
10:38:17 1627 1628	 1492771097	 434505268	 166160.
10:38:17 1628 1629	 1492771097	 596784127	 162279.
10:38:17 1629 1630	 1492771097	 763095315	 166311.
10:38:17 1630 1631	 1492771097	 925497021	 162402.
10:38:18 1631 1632	 1492771098	 92490209	 166993.
10:38:18 1632 1633	 1492771098	 254754097	 162264.
10:38:18 1633 1634	 1492771098	 421143453	 166389.
10:38:18 1634 1635	 1492771098	 583736138	 162593.
10:38:18 1635 1636	 1492771098	 721199186	 137463.
10:38:18 1636 1637	 1492771098	 883431916	 162233.
10:38:19 1637 1638	 1492771099	 49540842	 166109.
10:38:19 1638 1639	 1492771099	 211364049	 161823.
10:38:19 1639 1640	 1492771099	 377145403	 165781.
10:38:19 1640 1641	 1492771099	 510238062	 133093.
10:38:19 1641 1642	 1492771099	 676208927	 165971.
10:38:19 1642 1643	 1492771099	 838244620	 162035.
10:38:20 1643 1644	 1492771100	 4074742	 165830.
10:38:20 1644 1645	 1492771100	 166264449	 162190.
10:38:20 1645 1646	 1492771100	 328264779	 162000.
10:38:20 1646 1647	 1492771100	 465524089	 137260.
10:38:20 1647 1648	 1492771100	 627579100	 162055.
10:38:20 1648 1649	 1492771100	 793714965	 166136.
10:38:20 1649 1650	 1492771100	 955481374	 161766.
10:38:21 1650 1651	 1492771101	 122482919	 167002.
10:38:21 1651 1652	 1492771101	 280651558	 158168.
10:38:21 1652 1653	 1492771101	 442504610	 161853.
10:38:21 1653 1654	 1492771101	 608770299	 166266.
10:38:21 1654 1655	 1492771101	 742191596	 133421.
10:38:21 1655 1656	 1492771101	 908589634	 166398.
10:38:22 1656 1657	 1492771102	 70695443	 162106.
10:38:22 1657 1658	 1492771102	 236699799	 166005.
10:38:22 1658 1659	 1492771102	 398190389	 161490.
10:38:22 1659 1660	 1492771102	 563854071	 165664.
10:38:22 1660 1661	 1492771102	 697398791	 133544.
10:38:22 1661 1662	 1492771102	 863562316	 166164.
10:38:23 1662 1663	 1492771103	 25658592	 162096.
10:38:23 1663 1664	 1492771103	 191423855	 165766.
10:38:23 1664 1665	 1492771103	 353415787	 161991.
10:38:23 1665 1666	 1492771103	 519676099	 166261.
10:38:23 1666 1667	 1492771103	 652907562	 133231.
10:38:23 1667 1668	 1492771103	 818916678	 166009.
10:38:23 1668 1669	 1492771103	 981012492	 162096.
10:38:24 1669 1670	 1492771104	 146925105	 165913.
10:38:24 1670 1671	 1492771104	 313135144	 166210.
10:38:24 1671 1672	 1492771104	 475102261	 161967.
10:38:24 1672 1673	 1492771104	 612997465	 137895.
10:38:24 1673 1674	 1492771104	 775350965	 162354.
10:38:24 1674 1675	 1492771104	 941305512	 165954.
10:38:25 1675 1676	 1492771105	 103777022	 162472.
10:38:25 1676 1677	 1492771105	 269930316	 166153.
10:38:25 1677 1678	 1492771105	 431954647	 162024.
10:38:25 1678 1679	 1492771105	 569242613	 137288.
10:38:25 1679 1680	 1492771105	 730968254	 161726.
10:38:25 1680 1681	 1492771105	 897177492	 166209.
10:38:26 1681 1682	 1492771106	 59228042	 162051.
10:38:26 1682 1683	 1492771106	 225285554	 166057.
10:38:26 1683 1684	 1492771106	 391307251	 166022.
10:38:26 1684 1685	 1492771106	 524448270	 133141.
10:38:26 1685 1686	 1492771106	 686638368	 162190.
10:38:26 1686 1687	 1492771106	 852895466	 166257.
10:38:27 1687 1688	 1492771107	 18708433	 165813.
10:38:27 1688 1689	 1492771107	 180867184	 162159.
10:38:27 1689 1690	 1492771107	 346654363	 165787.
10:38:27 1690 1691	 1492771107	 480198216	 133544.
10:38:27 1691 1692	 1492771107	 646290691	 166092.
10:38:27 1692 1693	 1492771107	 807822241	 161532.
10:38:27 1693 1694	 1492771107	 974074659	 166252.
10:38:28 1694 1695	 1492771108	 135955307	 161881.
10:38:28 1695 1696	 1492771108	 273042866	 137088.
10:38:28 1696 1697	 1492771108	 435234697	 162191.
10:38:28 1697 1698	 1492771108	 601150983	 165917.
10:38:28 1698 1699	 1492771108	 763193578	 162042.
10:38:28 1699 1700	 1492771108	 929163238	 165970.
10:38:29 1700 1701	 1492771109	 62467189	 133304.
10:38:29 1701 1702	 1492771109	 228490807	 166024.
10:38:29 1702 1703	 1492771109	 390618732	 162127.
10:38:29 1703 1704	 1492771109	 552598169	 161980.
10:38:29 1704 1705	 1492771109	 718718050	 166120.
10:38:29 1705 1706	 1492771109	 880734994	 162017.
10:38:30 1706 1707	 1492771110	 47042773	 166307.
10:38:30 1707 1708	 1492771110	 180699142	 133657.
10:38:30 1708 1709	 1492771110	 342818199	 162119.
10:38:30 1709 1710	 1492771110	 508760934	 165943.
10:38:30 1710 1711	 1492771110	 674704278	 165943.
10:38:30 1711 1712	 1492771110	 836761439	 162057.
10:38:30 1712 1713	 1492771111	 2319779	 165558.
10:38:31 1713 1714	 1492771111	 135401050	 133082.
10:38:31 1714 1715	 1492771111	 297238653	 161837.
10:38:31 1715 1716	 1492771111	 463379074	 166141.
10:38:31 1716 1717	 1492771111	 625303455	 161924.
10:38:31 1717 1718	 1492771111	 790857888	 165555.
10:38:31 1718 1719	 1492771111	 923664602	 132806.
10:38:32 1719 1720	 1492771112	 89198438	 165534.
10:38:32 1720 1721	 1492771112	 250373331	 161175.
10:38:32 1721 1722	 1492771112	 415989598	 165616.
10:38:32 1722 1723	 1492771112	 577467749	 161478.
10:38:32 1723 1724	 1492771112	 710453846	 132987.
10:38:32 1724 1725	 1492771112	 875719512	 165265.
10:38:33 1725 1726	 1492771113	 41115413	 165396.
10:38:33 1726 1727	 1492771113	 202781115	 161666.
10:38:33 1727 1728	 1492771113	 364461589	 161680.
10:38:33 1728 1729	 1492771113	 530230782	 165769.
10:38:33 1729 1730	 1492771113	 663039197	 132809.
10:38:33 1730 1731	 1492771113	 828221092	 165182.
10:38:33 1731 1732	 1492771113	 989484772	 161263.
10:38:34 1732 1733	 1492771114	 150943613	 161459.
10:38:34 1733 1734	 1492771114	 316379581	 165436.
10:38:34 1734 1735	 1492771114	 449271068	 132892.
10:38:34 1735 1736	 1492771114	 615180406	 165909.
10:38:34 1736 1737	 1492771114	 776807824	 161628.
10:38:34 1737 1738	 1492771114	 942748493	 165940.
10:38:35 1738 1739	 1492771115	 109188420	 166440.
10:38:35 1739 1740	 1492771115	 271341894	 162154.
10:38:35 1740 1741	 1492771115	 404784558	 133442.
10:38:35 1741 1742	 1492771115	 570546222	 165762.
10:38:35 1742 1743	 1492771115	 736584187	 166038.
10:38:35 1743 1744	 1492771115	 898549102	 161965.
10:38:36 1744 1745	 1492771116	 64732403	 166183.
10:38:36 1745 1746	 1492771116	 197948535	 133216.
10:38:36 1746 1747	 1492771116	 364361275	 166413.
10:38:36 1747 1748	 1492771116	 526451427	 162090.
10:38:36 1748 1749	 1492771116	 692574002	 166123.
10:38:36 1749 1750	 1492771116	 854687947	 162114.
10:38:37 1750 1751	 1492771117	 21148342	 166460.
10:38:37 1751 1752	 1492771117	 182984445	 161836.
10:38:37 1752 1753	 1492771117	 316159893	 133176.
10:38:37 1753 1754	 1492771117	 482051609	 165891.
10:38:37 1754 1755	 1492771117	 643951511	 161900.
10:38:37 1755 1756	 1492771117	 810134847	 166184.
10:38:37 1756 1757	 1492771117	 986903500	 176768.
10:38:38 1757 1758	 1492771118	 120557243	 133654.
10:38:38 1758 1759	 1492771118	 286498037	 165941.
10:38:38 1759 1760	 1492771118	 448529052	 162031.
10:38:38 1760 1761	 1492771118	 614693442	 166164.
10:38:38 1761 1762	 1492771118	 748050558	 133357.
10:38:38 1762 1763	 1492771118	 914001225	 165951.
10:38:39 1763 1764	 1492771119	 75797450	 161796.
10:38:39 1764 1765	 1492771119	 242214699	 166417.
10:38:39 1765 1766	 1492771119	 404453038	 162239.
10:38:39 1766 1767	 1492771119	 570018086	 165565.
10:38:39 1767 1768	 1492771119	 703472723	 133454.
10:38:39 1768 1769	 1492771119	 869576763	 166104.
10:38:40 1769 1770	 1492771120	 31599587	 162023.
10:38:40 1770 1771	 1492771120	 197724671	 166126.
10:38:40 1771 1772	 1492771120	 359458158	 161733.
10:38:40 1772 1773	 1492771120	 496593839	 137136.
10:38:40 1773 1774	 1492771120	 658814973	 162221.
10:38:40 1774 1775	 1492771120	 824741597	 165926.
10:38:40 1775 1776	 1492771120	 986449799	 161708.
10:38:41 1776 1777	 1492771121	 152482546	 166033.
10:38:41 1777 1778	 1492771121	 314736714	 162254.
10:38:41 1778 1779	 1492771121	 448017786	 133281.
10:38:41 1779 1780	 1492771121	 613657872	 165641.
10:38:41 1780 1781	 1492771121	 775103760	 161445.
10:38:41 1781 1782	 1492771121	 940811252	 165708.
10:38:42 1782 1783	 1492771122	 74067878	 133257.
10:38:42 1783 1784	 1492771122	 240491627	 166423.
10:38:42 1784 1785	 1492771122	 407215443	 166724.
10:38:42 1785 1786	 1492771122	 569772002	 162557.
10:38:42 1786 1787	 1492771122	 736046502	 166274.
10:38:42 1787 1788	 1492771122	 898292863	 162247.
10:38:43 1788 1789	 1492771123	 64989235	 166696.
10:38:43 1789 1790	 1492771123	 227688385	 162699.
10:38:43 1790 1791	 1492771123	 393843075	 166155.
10:38:43 1791 1792	 1492771123	 555357284	 161514.
10:38:43 1792 1793	 1492771123	 693084810	 137728.
10:38:43 1793 1794	 1492771123	 855155409	 162070.
10:38:44 1794 1795	 1492771124	 21209438	 166054.
10:38:44 1795 1796	 1492771124	 182964162	 161755.
10:38:44 1796 1797	 1492771124	 348769254	 165805.
10:38:44 1797 1798	 1492771124	 482103134	 133334.
10:38:44 1798 1799	 1492771124	 647924214	 165821.
10:38:44 1799 1800	 1492771124	 809624817	 161701.
10:38:44 1800 1801	 1492771124	 971415832	 161791.
10:38:45 1801 1802	 1492771125	 137751568	 166335.
10:38:45 1802 1803	 1492771125	 304389726	 166638.
10:38:45 1803 1804	 1492771125	 437833484	 133444.
10:38:45 1804 1805	 1492771125	 599634957	 161802.
10:38:45 1805 1806	 1492771125	 765929265	 166294.
10:38:45 1806 1807	 1492771125	 927889281	 161960.
10:38:46 1807 1808	 1492771126	 94075231	 166186.
10:38:46 1808 1809	 1492771126	 260561497	 166486.
10:38:46 1809 1810	 1492771126	 423027098	 162466.
10:38:46 1810 1811	 1492771126	 588818858	 165792.
10:38:46 1811 1812	 1492771126	 721976755	 133157.
10:38:46 1812 1813	 1492771126	 884012861	 162037.
10:38:47 1813 1814	 1492771127	 50636716	 166623.
10:38:47 1814 1815	 1492771127	 216607463	 165971.
10:38:47 1815 1816	 1492771127	 378456357	 161849.
10:38:47 1816 1817	 1492771127	 544728398	 166272.
10:38:47 1817 1818	 1492771127	 706935943	 162208.
10:38:47 1818 1819	 1492771127	 844291908	 137356.
10:38:48 1819 1820	 1492771128	 6527450	 162235.
10:38:48 1820 1821	 1492771128	 172670226	 166143.
10:38:48 1821 1822	 1492771128	 335056158	 162386.
10:38:48 1822 1823	 1492771128	 501247980	 166192.
10:38:48 1823 1824	 1492771128	 663083886	 161836.
10:38:48 1824 1825	 1492771128	 800385676	 137301.
10:38:48 1825 1826	 1492771128	 962680753	 162295.
10:38:49 1826 1827	 1492771129	 128845066	 166165.
10:38:49 1827 1828	 1492771129	 292211595	 163366.
10:38:49 1828 1829	 1492771129	 450134719	 157923.
10:38:49 1829 1830	 1492771129	 616843992	 166710.
10:38:49 1830 1831	 1492771129	 782725755	 165881.
10:38:49 1831 1832	 1492771129	 944309160	 161584.
10:38:50 1832 1833	 1492771130	 77786868	 133478.
10:38:50 1833 1834	 1492771130	 244296567	 166509.
10:38:50 1834 1835	 1492771130	 410951728	 166655.
10:38:50 1835 1836	 1492771130	 572987133	 162036.
10:38:50 1836 1837	 1492771130	 739268745	 166281.
10:38:50 1837 1838	 1492771130	 901572042	 162304.
10:38:51 1838 1839	 1492771131	 67774494	 166202.
10:38:51 1839 1840	 1492771131	 234444054	 166670.
10:38:51 1840 1841	 1492771131	 397119619	 162675.
10:38:51 1841 1842	 1492771131	 534551645	 137432.
10:38:51 1842 1843	 1492771131	 696718293	 162167.
10:38:51 1843 1844	 1492771131	 863005950	 166288.
10:38:52 1844 1845	 1492771132	 25029739	 162023.
10:38:52 1845 1846	 1492771132	 190818357	 165789.
10:38:52 1846 1847	 1492771132	 323720186	 132902.
10:38:52 1847 1848	 1492771132	 489656983	 165937.
10:38:52 1848 1849	 1492771132	 652060157	 162403.
10:38:52 1849 1850	 1492771132	 817953717	 165893.
10:38:52 1850 1851	 1492771132	 980183447	 162230.
10:38:53 1851 1852	 1492771133	 146418025	 166235.
10:38:53 1852 1853	 1492771133	 283713025	 137295.
10:38:53 1853 1854	 1492771133	 445924365	 162211.
10:38:53 1854 1855	 1492771133	 612417959	 166494.
10:38:53 1855 1856	 1492771133	 774077439	 161659.
10:38:53 1856 1857	 1492771133	 940535385	 166458.
10:38:54 1857 1858	 1492771134	 102976064	 162441.
10:38:54 1858 1859	 1492771134	 269076583	 166100.
10:38:54 1859 1860	 1492771134	 431186011	 162110.
10:38:54 1860 1861	 1492771134	 568785380	 137599.
10:38:54 1861 1862	 1492771134	 730914176	 162129.
10:38:54 1862 1863	 1492771134	 896753822	 165839.
10:38:55 1863 1864	 1492771135	 58697281	 161944.
10:38:55 1864 1865	 1492771135	 224681223	 165984.
10:38:55 1865 1866	 1492771135	 357791977	 133111.
10:38:55 1866 1867	 1492771135	 524032668	 166240.
10:38:55 1867 1868	 1492771135	 685848450	 161816.
10:38:55 1868 1869	 1492771135	 852077979	 166230.
10:38:56 1869 1870	 1492771136	 13991988	 161914.
10:38:56 1870 1871	 1492771136	 180168781	 166176.
10:38:56 1871 1872	 1492771136	 313739676	 133571.
10:38:56 1872 1873	 1492771136	 475554039	 161815.
10:38:56 1873 1874	 1492771136	 642074690	 166520.
10:38:56 1874 1875	 1492771136	 808593956	 166520.
10:38:56 1875 1876	 1492771136	 970835949	 162242.
10:38:57 1876 1877	 1492771137	 137094656	 166258.
10:38:57 1877 1878	 1492771137	 298844765	 161750.
10:38:57 1878 1879	 1492771137	 436023039	 137179.
10:38:57 1879 1880	 1492771137	 598108293	 162085.
10:38:57 1880 1881	 1492771137	 764210811	 166103.
10:38:57 1881 1882	 1492771137	 926397316	 162186.
