16:27:46    0 Step	 time(s)	 time(ns)	 delta(ms)
16:27:46    0 1	 1492792066	 378543001	 952.
16:27:46    1 2	 1492792066	 544932858	 166390.
16:27:46    2 3	 1492792066	 711564518	 166631.
16:27:46    3 4	 1492792066	 873763600	 162199.
16:27:47    4 5	 1492792067	 36012013	 162249.
16:27:47    5 6	 1492792067	 202442677	 166430.
16:27:47    6 7	 1492792067	 364225710	 161783.
16:27:47    7 8	 1492792067	 501299425	 137074.
16:27:47    8 9	 1492792067	 663140446	 161841.
16:27:47    9 10	 1492792067	 829419744	 166279.
16:27:47   10 11	 1492792067	 991431753	 162013.
16:27:48   11 12	 1492792068	 157550369	 166118.
16:27:48   12 13	 1492792068	 319071936	 161522.
16:27:48   13 14	 1492792068	 451715860	 132644.
16:27:48   14 15	 1492792068	 617181631	 165465.
16:27:48   15 16	 1492792068	 778358175	 161177.
16:27:48   16 17	 1492792068	 943748735	 165390.
16:27:49   17 18	 1492792069	 105068164	 161320.
16:27:49   18 19	 1492792069	 237788250	 132720.
16:27:49   19 20	 1492792069	 403004873	 165217.
16:27:49   20 21	 1492792069	 564322555	 161317.
16:27:49   21 22	 1492792069	 700996967	 136675.
16:27:49   22 23	 1492792069	 861965739	 160968.
16:27:50   23 24	 1492792070	 23515579	 161550.
16:27:50   24 25	 1492792070	 188753406	 165238.
16:27:50   25 26	 1492792070	 321250293	 132497.
16:27:50   26 27	 1492792070	 486540872	 165291.
16:27:50   27 28	 1492792070	 647532489	 160991.
16:27:50   28 29	 1492792070	 780288864	 132757.
16:27:50   29 30	 1492792070	 945714002	 165425.
16:27:51   30 31	 1492792071	 106779145	 161065.
16:27:51   31 32	 1492792071	 244037145	 137258.
16:27:51   32 33	 1492792071	 405841380	 161804.
16:27:51   33 34	 1492792071	 571558212	 165717.
16:27:51   34 35	 1492792071	 734257691	 162699.
16:27:51   35 36	 1492792071	 891861781	 157605.
16:27:52   36 37	 1492792072	 53291906	 161430.
16:27:52   37 38	 1492792072	 186287193	 132995.
16:27:52   38 39	 1492792072	 352506324	 166219.
16:27:52   39 40	 1492792072	 514454806	 161949.
16:27:52   40 41	 1492792072	 680415797	 165961.
16:27:52   41 42	 1492792072	 842395966	 161980.
16:27:53   42 43	 1492792073	 8198046	 165802.
16:27:53   43 44	 1492792073	 169832501	 161634.
16:27:53   44 45	 1492792073	 335686240	 165854.
16:27:53   45 46	 1492792073	 468801901	 133116.
16:27:53   46 47	 1492792073	 630851131	 162049.
16:27:53   47 48	 1492792073	 796387117	 165536.
16:27:53   48 49	 1492792073	 957655791	 161269.
16:27:54   49 50	 1492792074	 123547320	 165891.
16:27:54   50 51	 1492792074	 285237468	 161690.
16:27:54   51 52	 1492792074	 418515431	 133278.
16:27:54   52 53	 1492792074	 584277173	 165762.
16:27:54   53 54	 1492792074	 746087377	 161810.
16:27:54   54 55	 1492792074	 912183622	 166096.
16:27:55   55 56	 1492792075	 73745634	 161562.
16:27:55   56 57	 1492792075	 210739883	 136995.
16:27:55   57 58	 1492792075	 372413404	 161673.
16:27:55   58 59	 1492792075	 537912872	 165500.
16:27:55   59 60	 1492792075	 699262549	 161349.
16:27:55   60 61	 1492792075	 865184728	 165923.
16:27:55   61 62	 1492792075	 998543281	 133358.
16:27:56   62 63	 1492792076	 160710081	 162167.
16:27:56   63 64	 1492792076	 326488788	 165778.
16:27:56   64 65	 1492792076	 488372757	 161884.
16:27:56   65 66	 1492792076	 654378068	 166006.
16:27:56   66 67	 1492792076	 816036631	 161658.
16:27:56   67 68	 1492792076	 952762094	 136726.
16:27:57   68 69	 1492792077	 114158017	 161396.
16:27:57   69 70	 1492792077	 280421061	 166263.
16:27:57   70 71	 1492792077	 438489568	 158068.
16:27:57   71 72	 1492792077	 600608417	 162119.
16:27:57   72 73	 1492792077	 766701181	 166093.
16:27:57   73 74	 1492792077	 928787907	 162087.
16:27:58   74 75	 1492792078	 94617476	 165829.
16:27:58   75 76	 1492792078	 227559242	 132942.
16:27:58   76 77	 1492792078	 389382657	 161823.
16:27:58   77 78	 1492792078	 555007264	 165625.
16:27:58   78 79	 1492792078	 716490833	 161484.
16:27:58   79 80	 1492792078	 882510528	 166019.
16:27:59   80 81	 1492792079	 16259636	 133749.
16:27:59   81 82	 1492792079	 178199764	 161941.
16:27:59   82 83	 1492792079	 343948479	 165748.
16:27:59   83 84	 1492792079	 506303088	 162355.
16:27:59   84 85	 1492792079	 672504071	 166201.
16:27:59   85 86	 1492792079	 834162688	 161658.
16:27:59   86 87	 1492792079	 971229879	 137068.
16:28:00   87 88	 1492792080	 133117758	 161887.
16:28:00   88 89	 1492792080	 298945878	 165829.
16:28:00   89 90	 1492792080	 460870337	 161924.
16:28:00   90 91	 1492792080	 626503205	 165633.
16:28:00   91 92	 1492792080	 758983436	 132480.
16:28:00   92 93	 1492792080	 924716081	 165733.
16:28:01   93 94	 1492792081	 86381445	 161665.
16:28:01   94 95	 1492792081	 248017767	 161636.
16:28:01   95 96	 1492792081	 413935673	 165918.
16:28:01   96 97	 1492792081	 575440878	 161506.
16:28:01   97 98	 1492792081	 712422021	 136981.
16:28:01   98 99	 1492792081	 873840781	 161419.
16:28:02   99 100	 1492792082	 35492943	 161652.
16:28:02  100 101	 1492792082	 201015453	 165522.
16:28:02  101 102	 1492792082	 362394983	 161380.
16:28:02  102 103	 1492792082	 524077333	 161682.
16:28:02  103 104	 1492792082	 661229770	 137153.
16:28:02  104 105	 1492792082	 823081792	 161852.
16:28:02  105 106	 1492792082	 988937917	 165856.
16:28:03  106 107	 1492792083	 150656803	 161719.
16:28:03  107 108	 1492792083	 312545157	 161888.
16:28:03  108 109	 1492792083	 478379799	 165835.
16:28:03  109 110	 1492792083	 640098327	 161718.
16:28:03  110 111	 1492792083	 805831876	 165734.
16:28:03  111 112	 1492792083	 967496554	 161664.
16:28:04  112 113	 1492792084	 100710306	 133214.
16:28:04  113 114	 1492792084	 266702318	 165992.
16:28:04  114 115	 1492792084	 428595331	 161893.
16:28:04  115 116	 1492792084	 590267531	 161672.
16:28:04  116 117	 1492792084	 756035011	 165768.
16:28:04  117 118	 1492792084	 917695817	 161661.
16:28:05  118 119	 1492792085	 83431487	 165735.
16:28:05  119 120	 1492792085	 245111316	 161680.
16:28:05  120 121	 1492792085	 377839564	 132728.
16:28:05  121 122	 1492792085	 539116736	 161277.
16:28:05  122 123	 1492792085	 704629240	 165513.
16:28:05  123 124	 1492792085	 865995332	 161366.
16:28:06  124 125	 1492792086	 31060254	 165065.
16:28:06  125 126	 1492792086	 163877786	 132818.
16:28:06  126 127	 1492792086	 329266891	 165389.
16:28:06  127 128	 1492792086	 490877151	 161610.
16:28:06  128 129	 1492792086	 656513014	 165636.
16:28:06  129 130	 1492792086	 818380272	 161867.
16:28:06  130 131	 1492792086	 951334595	 132954.
16:28:07  131 132	 1492792087	 116967909	 165634.
16:28:07  132 133	 1492792087	 278571950	 161604.
16:28:07  133 134	 1492792087	 444147884	 165576.
16:28:07  134 135	 1492792087	 606041468	 161893.
16:28:07  135 136	 1492792087	 767275276	 161234.
16:28:07  136 137	 1492792087	 904251785	 136977.
16:28:08  137 138	 1492792088	 65414694	 161162.
16:28:08  138 139	 1492792088	 226651736	 161237.
16:28:08  139 140	 1492792088	 392001187	 165350.
16:28:08  140 141	 1492792088	 553549569	 161548.
16:28:08  141 142	 1492792088	 690547428	 136998.
16:28:08  142 143	 1492792088	 851916347	 161369.
16:28:09  143 144	 1492792089	 17518465	 165602.
16:28:09  144 145	 1492792089	 178869107	 161351.
16:28:09  145 146	 1492792089	 344681357	 165812.
16:28:09  146 147	 1492792089	 477695966	 133015.
16:28:09  147 148	 1492792089	 639519948	 161824.
16:28:09  148 149	 1492792089	 804975193	 165455.
16:28:09  149 150	 1492792089	 966637661	 161662.
16:28:10  150 151	 1492792090	 132578726	 165941.
16:28:10  151 152	 1492792090	 294118672	 161540.
16:28:10  152 153	 1492792090	 427421992	 133304.
16:28:10  153 154	 1492792090	 593447244	 166025.
16:28:10  154 155	 1492792090	 755158462	 161711.
16:28:10  155 156	 1492792090	 920781236	 165623.
16:28:11  156 157	 1492792091	 82380621	 161599.
16:28:11  157 158	 1492792091	 243849003	 161469.
16:28:11  158 159	 1492792091	 380908297	 137059.
16:28:11  159 160	 1492792091	 542597306	 161689.
16:28:11  160 161	 1492792091	 708384200	 165787.
16:28:11  161 162	 1492792091	 870352604	 161968.
16:28:12  162 163	 1492792092	 32326173	 161974.
16:28:12  163 164	 1492792092	 198088782	 165763.
16:28:12  164 165	 1492792092	 359997796	 161909.
16:28:12  165 166	 1492792092	 525981105	 165983.
16:28:12  166 167	 1492792092	 687946936	 161966.
16:28:12  167 168	 1492792092	 849815040	 161868.
16:28:12  168 169	 1492792092	 987035870	 137221.
16:28:13  169 170	 1492792093	 148874346	 161838.
16:28:13  170 171	 1492792093	 315005723	 166131.
16:28:13  171 172	 1492792093	 477523043	 162518.
16:28:13  172 173	 1492792093	 642941441	 165418.
16:28:13  173 174	 1492792093	 804934361	 161993.
16:28:13  174 175	 1492792093	 966898712	 161964.
16:28:14  175 176	 1492792094	 133794105	 166896.
16:28:14  176 177	 1492792094	 291715413	 157921.
16:28:14  177 178	 1492792094	 429441613	 137726.
16:28:14  178 179	 1492792094	 591360955	 161920.
16:28:14  179 180	 1492792094	 757411180	 166050.
16:28:14  180 181	 1492792094	 919141374	 161730.
16:28:15  181 182	 1492792095	 85360392	 166219.
16:28:15  182 183	 1492792095	 218584808	 133225.
16:28:15  183 184	 1492792095	 384379471	 165794.
16:28:15  184 185	 1492792095	 545937163	 161558.
16:28:15  185 186	 1492792095	 711789233	 165852.
16:28:15  186 187	 1492792095	 873561254	 161772.
16:28:16  187 188	 1492792096	 10937586	 137376.
16:28:16  188 189	 1492792096	 172706891	 161770.
16:28:16  189 190	 1492792096	 338541155	 165834.
16:28:16  190 191	 1492792096	 500725346	 162184.
16:28:16  191 192	 1492792096	 666803071	 166078.
16:28:16  192 193	 1492792096	 799564316	 132761.
16:28:16  193 194	 1492792096	 965285942	 165722.
16:28:17  194 195	 1492792097	 131365673	 166079.
16:28:17  195 196	 1492792097	 292735137	 161370.
16:28:17  196 197	 1492792097	 453933672	 161198.
16:28:17  197 198	 1492792097	 591420217	 137487.
16:28:17  198 199	 1492792097	 753295616	 161875.
16:28:17  199 200	 1492792097	 919565508	 166270.
16:28:18  200 201	 1492792098	 81452905	 161888.
16:28:18  201 202	 1492792098	 247545884	 166093.
16:28:18  202 203	 1492792098	 409314383	 161768.
16:28:18  203 204	 1492792098	 574999699	 165685.
16:28:18  204 205	 1492792098	 707974196	 132975.
16:28:18  205 206	 1492792098	 869948033	 161974.
16:28:19  206 207	 1492792099	 35961179	 166013.
16:28:19  207 208	 1492792099	 197775194	 161814.
16:28:19  208 209	 1492792099	 363951241	 166176.
16:28:19  209 210	 1492792099	 525884309	 161933.
16:28:19  210 211	 1492792099	 687680193	 161796.
16:28:19  211 212	 1492792099	 853606927	 165927.
16:28:20  212 213	 1492792100	 15253393	 161646.
16:28:20  213 214	 1492792100	 148066642	 132813.
16:28:20  214 215	 1492792100	 313902801	 165837.
16:28:20  215 216	 1492792100	 476071685	 162168.
16:28:20  216 217	 1492792100	 638076049	 162005.
16:28:20  217 218	 1492792100	 804392218	 166316.
16:28:20  218 219	 1492792100	 966033319	 161641.
16:28:21  219 220	 1492792101	 131730967	 165698.
16:28:21  220 221	 1492792101	 292954751	 161223.
16:28:21  221 222	 1492792101	 454428898	 161475.
16:28:21  222 223	 1492792101	 591429649	 137000.
16:28:21  223 224	 1492792101	 753001966	 161573.
16:28:21  224 225	 1492792101	 914284845	 161283.
16:28:22  225 226	 1492792102	 79871616	 165586.
16:28:22  226 227	 1492792102	 241351344	 161480.
16:28:22  227 228	 1492792102	 374230651	 132879.
16:28:22  228 229	 1492792102	 539766745	 165536.
16:28:22  229 230	 1492792102	 701395788	 161630.
16:28:22  230 231	 1492792102	 866955938	 165560.
16:28:23  231 232	 1492792103	 28702621	 161746.
16:28:23  232 233	 1492792103	 190269880	 161568.
16:28:23  233 234	 1492792103	 327322012	 137052.
16:28:23  234 235	 1492792103	 489091733	 161769.
16:28:23  235 236	 1492792103	 654728332	 165637.
16:28:23  236 237	 1492792103	 816348199	 161620.
16:28:23  237 238	 1492792103	 977887232	 161539.
16:28:24  238 239	 1492792104	 143557592	 165670.
16:28:24  239 240	 1492792104	 305449945	 161893.
16:28:24  240 241	 1492792104	 471398156	 165948.
16:28:24  241 242	 1492792104	 604825448	 133427.
16:28:24  242 243	 1492792104	 766609755	 161785.
16:28:24  243 244	 1492792104	 932389075	 165779.
16:28:25  244 245	 1492792105	 93609154	 161220.
16:28:25  245 246	 1492792105	 255208995	 161600.
16:28:25  246 247	 1492792105	 421278025	 166069.
16:28:25  247 248	 1492792105	 554289790	 133012.
16:28:25  248 249	 1492792105	 719936752	 165647.
16:28:25  249 250	 1492792105	 881347674	 161410.
16:28:26  250 251	 1492792106	 42603069	 161256.
16:28:26  251 252	 1492792106	 179709676	 137106.
16:28:26  252 253	 1492792106	 341682153	 161973.
16:28:26  253 254	 1492792106	 503411755	 161729.
16:28:26  254 255	 1492792106	 669065413	 165654.
16:28:26  255 256	 1492792106	 830758705	 161693.
16:28:26  256 257	 1492792106	 996782519	 166024.
16:28:27  257 258	 1492792107	 158599105	 161817.
16:28:27  258 259	 1492792107	 295866415	 137267.
16:28:27  259 260	 1492792107	 458041737	 162175.
16:28:27  260 261	 1492792107	 620038369	 161997.
16:28:27  261 262	 1492792107	 785670353	 165632.
16:28:27  262 263	 1492792107	 951204112	 165534.
16:28:28  263 264	 1492792108	 84225607	 133021.
16:28:28  264 265	 1492792108	 250139703	 165914.
16:28:28  265 266	 1492792108	 416444478	 166305.
16:28:28  266 267	 1492792108	 578827981	 162384.
16:28:28  267 268	 1492792108	 744504765	 165676.
16:28:28  268 269	 1492792108	 910327989	 165824.
16:28:29  269 270	 1492792109	 43951696	 133623.
16:28:29  270 271	 1492792109	 205878538	 161927.
16:28:29  271 272	 1492792109	 371524596	 165646.
16:28:29  272 273	 1492792109	 533519602	 161995.
16:28:29  273 274	 1492792109	 698993207	 165474.
16:28:29  274 275	 1492792109	 832185040	 133192.
16:28:29  275 276	 1492792109	 997825145	 165640.
16:28:30  276 277	 1492792110	 160114318	 162289.
16:28:30  277 278	 1492792110	 326615712	 166501.
16:28:30  278 279	 1492792110	 488365237	 161750.
16:28:30  279 280	 1492792110	 625335330	 136970.
16:28:30  280 281	 1492792110	 787018163	 161683.
16:28:30  281 282	 1492792110	 952836702	 165818.
16:28:31  282 283	 1492792111	 114886726	 162050.
16:28:31  283 284	 1492792111	 271995230	 157109.
16:28:31  284 285	 1492792111	 408649913	 136655.
16:28:31  285 286	 1492792111	 570193764	 161543.
16:28:31  286 287	 1492792111	 731476607	 161283.
16:28:31  287 288	 1492792111	 896999024	 165523.
16:28:32  288 289	 1492792112	 58398874	 161400.
16:28:32  289 290	 1492792112	 224190230	 165791.
16:28:32  290 291	 1492792112	 357203674	 133013.
16:28:32  291 292	 1492792112	 522973699	 165770.
16:28:32  292 293	 1492792112	 684519983	 161547.
16:28:32  293 294	 1492792112	 846133595	 161613.
16:28:33  294 295	 1492792113	 12022047	 165889.
16:28:33  295 296	 1492792113	 174086513	 162064.
16:28:33  296 297	 1492792113	 340039247	 165953.
16:28:33  297 298	 1492792113	 501778377	 161739.
16:28:33  298 299	 1492792113	 667679786	 165902.
16:28:33  299 300	 1492792113	 800514327	 132834.
16:28:33  300 301	 1492792113	 962086771	 161573.
16:28:34  301 302	 1492792114	 127887672	 165800.
16:28:34  302 303	 1492792114	 289125434	 161238.
16:28:34  303 304	 1492792114	 455049329	 165924.
16:28:34  304 305	 1492792114	 616670535	 161621.
16:28:34  305 306	 1492792114	 749823681	 133153.
16:28:34  306 307	 1492792114	 915493429	 165670.
16:28:35  307 308	 1492792115	 77020318	 161527.
16:28:35  308 309	 1492792115	 242883427	 165863.
16:28:35  309 310	 1492792115	 404664695	 161781.
16:28:35  310 311	 1492792115	 566257092	 161593.
16:28:35  311 312	 1492792115	 703435586	 137178.
16:28:35  312 313	 1492792115	 865018990	 161584.
16:28:36  313 314	 1492792116	 30422270	 165403.
16:28:36  314 315	 1492792116	 191506051	 161084.
16:28:36  315 316	 1492792116	 352965164	 161459.
16:28:36  316 317	 1492792116	 489974351	 137009.
16:28:36  317 318	 1492792116	 651760397	 161786.
16:28:36  318 319	 1492792116	 817172054	 165412.
16:28:36  319 320	 1492792116	 978441050	 161269.
16:28:37  320 321	 1492792117	 143762944	 165322.
16:28:37  321 322	 1492792117	 276658760	 132895.
16:28:37  322 323	 1492792117	 442011266	 165353.
16:28:37  323 324	 1492792117	 603595980	 161585.
16:28:37  324 325	 1492792117	 764799950	 161204.
16:28:37  325 326	 1492792117	 901788571	 136988.
16:28:38  326 327	 1492792118	 63557807	 161769.
16:28:38  327 328	 1492792118	 229550977	 165994.
16:28:38  328 329	 1492792118	 391392300	 161841.
16:28:38  329 330	 1492792118	 553333418	 161941.
16:28:38  330 331	 1492792118	 719058138	 165725.
16:28:38  331 332	 1492792118	 856425855	 137368.
16:28:39  332 333	 1492792119	 18286211	 161860.
16:28:39  333 334	 1492792119	 184270366	 165984.
16:28:39  334 335	 1492792119	 345696427	 161426.
16:28:39  335 336	 1492792119	 482481684	 136785.
16:28:39  336 337	 1492792119	 644009601	 161528.
16:28:39  337 338	 1492792119	 809509590	 165500.
16:28:39  338 339	 1492792119	 971035856	 161527.
16:28:40  339 340	 1492792120	 103872009	 132836.
16:28:40  340 341	 1492792120	 269160084	 165288.
16:28:40  341 342	 1492792120	 430930653	 161770.
16:28:40  342 343	 1492792120	 597021588	 166091.
16:28:40  343 344	 1492792120	 730139483	 133118.
16:28:40  344 345	 1492792120	 891642884	 161504.
16:28:41  345 346	 1492792121	 57252706	 165609.
16:28:41  346 347	 1492792121	 218964720	 161712.
16:28:41  347 348	 1492792121	 356259315	 137295.
16:28:41  348 349	 1492792121	 517944057	 161685.
16:28:41  349 350	 1492792121	 683522237	 165578.
16:28:41  350 351	 1492792121	 845307516	 161785.
16:28:42  351 352	 1492792122	 11135755	 165829.
16:28:42  352 353	 1492792122	 173250648	 162114.
16:28:42  353 354	 1492792122	 306349068	 133099.
16:28:42  354 355	 1492792122	 468236409	 161887.
16:28:42  355 356	 1492792122	 633977197	 165741.
16:28:42  356 357	 1492792122	 799631055	 165654.
16:28:42  357 358	 1492792122	 932846381	 133215.
16:28:43  358 359	 1492792123	 98596068	 165750.
16:28:43  359 360	 1492792123	 259959359	 161363.
16:28:43  360 361	 1492792123	 425402960	 165444.
16:28:43  361 362	 1492792123	 558946352	 133543.
16:28:43  362 363	 1492792123	 724796620	 165850.
16:28:43  363 364	 1492792123	 886713867	 161918.
16:28:44  364 365	 1492792124	 52195940	 165482.
16:28:44  365 366	 1492792124	 185245365	 133049.
16:28:44  366 367	 1492792124	 351191482	 165946.
16:28:44  367 368	 1492792124	 512988070	 161797.
16:28:44  368 369	 1492792124	 678872253	 165884.
16:28:44  369 370	 1492792124	 841142992	 162271.
16:28:45  370 371	 1492792125	 3034770	 161892.
16:28:45  371 372	 1492792125	 140257066	 137222.
16:28:45  372 373	 1492792125	 301985745	 161728.
16:28:45  373 374	 1492792125	 467694287	 165709.
16:28:45  374 375	 1492792125	 629696868	 162003.
16:28:45  375 376	 1492792125	 795475503	 165778.
16:28:45  376 377	 1492792125	 928228221	 132753.
16:28:46  377 378	 1492792126	 93665195	 165437.
16:28:46  378 379	 1492792126	 254986150	 161321.
16:28:46  379 380	 1492792126	 392331157	 137345.
16:28:46  380 381	 1492792126	 554141496	 161810.
16:28:46  381 382	 1492792126	 719928008	 165787.
16:28:46  382 383	 1492792126	 881466576	 161538.
16:28:47  383 384	 1492792127	 43228812	 161763.
16:28:47  384 385	 1492792127	 180048413	 136819.
16:28:47  385 386	 1492792127	 341715824	 161668.
16:28:47  386 387	 1492792127	 507435848	 165720.
16:28:47  387 388	 1492792127	 669630197	 162194.
16:28:47  388 389	 1492792127	 806564431	 136934.
16:28:47  389 390	 1492792127	 968114628	 161550.
16:28:48  390 391	 1492792128	 134107466	 165993.
16:28:48  391 392	 1492792128	 295771726	 161664.
16:28:48  392 393	 1492792128	 461727052	 165956.
16:28:48  393 394	 1492792128	 624114307	 162387.
16:28:48  394 395	 1492792128	 756990854	 132877.
16:28:48  395 396	 1492792128	 922879515	 165888.
16:28:49  396 397	 1492792129	 88778644	 165899.
16:28:49  397 398	 1492792129	 250402041	 161624.
16:28:49  398 399	 1492792129	 383649927	 133248.
16:28:49  399 400	 1492792129	 549474511	 165824.
16:28:49  400 401	 1492792129	 710937747	 161463.
16:28:49  401 402	 1492792129	 876677619	 165740.
16:28:50  402 403	 1492792130	 38757821	 162081.
16:28:50  403 404	 1492792130	 176378731	 137620.
16:28:50  404 405	 1492792130	 338146246	 161768.
16:28:50  405 406	 1492792130	 504123010	 165977.
16:28:50  406 407	 1492792130	 665871892	 161749.
16:28:50  407 408	 1492792130	 831394215	 165522.
16:28:50  408 409	 1492792130	 964745561	 133351.
16:28:51  409 410	 1492792131	 130136090	 165391.
16:28:51  410 411	 1492792131	 292153264	 162017.
16:28:51  411 412	 1492792131	 458115244	 165962.
16:28:51  412 413	 1492792131	 619980566	 161865.
16:28:51  413 414	 1492792131	 756967891	 136988.
16:28:51  414 415	 1492792131	 918783374	 161815.
16:28:52  415 416	 1492792132	 84846594	 166063.
16:28:52  416 417	 1492792132	 246587333	 161741.
16:28:52  417 418	 1492792132	 412537092	 165950.
16:28:52  418 419	 1492792132	 545582095	 133045.
16:28:52  419 420	 1492792132	 707437340	 161855.
16:28:52  420 421	 1492792132	 873196296	 165759.
16:28:53  421 422	 1492792133	 35109657	 161914.
16:28:53  422 423	 1492792133	 200887211	 165777.
16:28:53  423 424	 1492792133	 333695132	 132808.
16:28:53  424 425	 1492792133	 499235036	 165540.
16:28:53  425 426	 1492792133	 661075260	 161840.
16:28:53  426 427	 1492792133	 826796270	 165721.
16:28:53  427 428	 1492792133	 988357568	 161561.
16:28:54  428 429	 1492792134	 121407687	 133050.
16:28:54  429 430	 1492792134	 287035025	 165628.
16:28:54  430 431	 1492792134	 448780759	 161745.
16:28:54  431 432	 1492792134	 615228665	 166448.
16:28:54  432 433	 1492792134	 777278747	 162050.
16:28:54  433 434	 1492792134	 914316857	 137039.
16:28:55  434 435	 1492792135	 75686546	 161369.
16:28:55  435 436	 1492792135	 236993879	 161308.
16:28:55  436 437	 1492792135	 402203555	 165209.
16:28:55  437 438	 1492792135	 563459262	 161256.
16:28:55  438 439	 1492792135	 700250487	 136791.
16:28:55  439 440	 1492792135	 861721125	 161471.
16:28:56  440 441	 1492792136	 27458951	 165738.
16:28:56  441 442	 1492792136	 189434061	 161975.
16:28:56  442 443	 1492792136	 326373685	 136939.
16:28:56  443 444	 1492792136	 487984987	 161612.
16:28:56  444 445	 1492792136	 649989662	 162004.
16:28:56  445 446	 1492792136	 816282525	 166293.
16:28:56  446 447	 1492792136	 978084042	 161802.
16:28:57  447 448	 1492792137	 144173271	 166089.
16:28:57  448 449	 1492792137	 306229620	 162056.
16:28:57  449 450	 1492792137	 443250382	 137021.
16:28:57  450 451	 1492792137	 605166661	 161916.
16:28:57  451 452	 1492792137	 771145198	 165979.
16:28:57  452 453	 1492792137	 932843626	 161698.
16:28:58  453 454	 1492792138	 69957601	 137114.
16:28:58  454 455	 1492792138	 232139323	 162182.
16:28:58  455 456	 1492792138	 398558060	 166419.
16:28:58  456 457	 1492792138	 560599355	 162041.
16:28:58  457 458	 1492792138	 726936570	 166337.
16:28:58  458 459	 1492792138	 888926440	 161990.
16:28:59  459 460	 1492792139	 57597582	 168671.
16:28:59  460 461	 1492792139	 199423542	 141826.
16:28:59  461 462	 1492792139	 365647109	 166224.
16:28:59  462 463	 1492792139	 527927565	 162280.
16:28:59  463 464	 1492792139	 694158859	 166232.
16:28:59  464 465	 1492792139	 856368983	 162210.
16:29:00  465 466	 1492792140	 22574138	 166205.
16:29:00  466 467	 1492792140	 184348265	 161774.
16:29:00  467 468	 1492792140	 317729512	 133381.
16:29:00  468 469	 1492792140	 483740105	 166011.
16:29:00  469 470	 1492792140	 645887272	 162147.
16:29:00  470 471	 1492792140	 811861068	 165974.
16:29:00  471 472	 1492792140	 973366126	 161505.
16:29:01  472 473	 1492792141	 134900860	 161535.
16:29:01  473 474	 1492792141	 300616670	 165715.
16:29:01  474 475	 1492792141	 462313019	 161697.
16:29:01  475 476	 1492792141	 628115403	 165802.
16:29:01  476 477	 1492792141	 761027619	 132912.
16:29:01  477 478	 1492792141	 922642920	 161616.
16:29:02  478 479	 1492792142	 88160607	 165517.
16:29:02  479 480	 1492792142	 249895144	 161735.
16:29:02  480 481	 1492792142	 411402232	 161507.
16:29:02  481 482	 1492792142	 576950752	 165549.
16:29:02  482 483	 1492792142	 709904190	 132953.
16:29:02  483 484	 1492792142	 871368779	 161465.
16:29:03  484 485	 1492792143	 36998040	 165629.
16:29:03  485 486	 1492792143	 198565088	 161567.
16:29:03  486 487	 1492792143	 364179430	 165614.
16:29:03  487 488	 1492792143	 525753856	 161575.
16:29:03  488 489	 1492792143	 658748055	 132994.
16:29:03  489 490	 1492792143	 824498057	 165750.
16:29:03  490 491	 1492792143	 985890793	 161392.
16:29:04  491 492	 1492792144	 147446402	 161556.
16:29:04  492 493	 1492792144	 313278688	 165832.
16:29:04  493 494	 1492792144	 475369622	 162091.
16:29:04  494 495	 1492792144	 640931864	 165563.
16:29:04  495 496	 1492792144	 774341011	 133409.
16:29:04  496 497	 1492792144	 936042669	 161701.
16:29:05  497 498	 1492792145	 101838376	 165796.
16:29:05  498 499	 1492792145	 263298564	 161460.
16:29:05  499 500	 1492792145	 428882292	 165584.
16:29:05  500 501	 1492792145	 590434727	 161552.
16:29:05  501 502	 1492792145	 723400848	 132967.
16:29:05  502 503	 1492792145	 889296865	 165896.
16:29:06  503 504	 1492792146	 50886889	 161590.
16:29:06  504 505	 1492792146	 216184806	 165298.
16:29:06  505 506	 1492792146	 377618948	 161434.
16:29:06  506 507	 1492792146	 514774565	 137155.
16:29:06  507 508	 1492792146	 676746576	 161972.
16:29:06  508 509	 1492792146	 838486259	 161740.
16:29:07  509 510	 1492792147	 4400440	 165914.
16:29:07  510 511	 1492792147	 166136936	 161737.
16:29:07  511 512	 1492792147	 327806152	 161669.
16:29:07  512 513	 1492792147	 493691635	 165885.
16:29:07  513 514	 1492792147	 655609240	 161918.
16:29:07  514 515	 1492792147	 792475213	 136866.
16:29:07  515 516	 1492792147	 953956888	 161482.
16:29:08  516 517	 1492792148	 115903305	 161946.
16:29:08  517 518	 1492792148	 281524259	 165621.
16:29:08  518 519	 1492792148	 443187739	 161663.
16:29:08  519 520	 1492792148	 609156570	 165969.
16:29:08  520 521	 1492792148	 741959740	 132803.
16:29:08  521 522	 1492792148	 907263206	 165304.
16:29:09  522 523	 1492792149	 69001468	 161738.
16:29:09  523 524	 1492792149	 231235103	 162234.
16:29:09  524 525	 1492792149	 368482865	 137248.
16:29:09  525 526	 1492792149	 534416353	 165933.
16:29:09  526 527	 1492792149	 695844154	 161428.
16:29:09  527 528	 1492792149	 857786013	 161942.
16:29:10  528 529	 1492792150	 23475131	 165689.
16:29:10  529 530	 1492792150	 185474708	 161999.
16:29:10  530 531	 1492792150	 318417029	 132943.
16:29:10  531 532	 1492792150	 480488813	 162072.
16:29:10  532 533	 1492792150	 646682918	 166194.
16:29:10  533 534	 1492792150	 809126636	 162443.
16:29:10  534 535	 1492792150	 975358013	 166232.
16:29:11  535 536	 1492792151	 137232758	 161874.
16:29:11  536 537	 1492792151	 274272281	 137040.
16:29:11  537 538	 1492792151	 435984755	 161712.
16:29:11  538 539	 1492792151	 602010680	 166026.
16:29:11  539 540	 1492792151	 764052392	 162042.
16:29:11  540 541	 1492792151	 929850810	 165799.
16:29:12  541 542	 1492792152	 63234607	 133383.
16:29:12  542 543	 1492792152	 225383917	 162150.
16:29:12  543 544	 1492792152	 390900356	 165516.
16:29:12  544 545	 1492792152	 552591295	 161691.
16:29:12  545 546	 1492792152	 718826731	 166235.
16:29:12  546 547	 1492792152	 880191710	 161365.
16:29:13  547 548	 1492792153	 17370958	 137180.
16:29:13  548 549	 1492792153	 179046717	 161675.
16:29:13  549 550	 1492792153	 345066140	 166020.
16:29:13  550 551	 1492792153	 506861966	 161796.
16:29:13  551 552	 1492792153	 672635440	 165773.
16:29:13  552 553	 1492792153	 805972614	 133337.
16:29:13  553 554	 1492792153	 972026140	 166054.
16:29:14  554 555	 1492792154	 134344102	 162318.
16:29:14  555 556	 1492792154	 296379620	 162035.
16:29:14  556 557	 1492792154	 462455421	 166076.
16:29:14  557 558	 1492792154	 624736206	 162281.
16:29:14  558 559	 1492792154	 790573115	 165837.
16:29:14  559 560	 1492792154	 952408769	 161836.
16:29:15  560 561	 1492792155	 89639979	 137231.
16:29:15  561 562	 1492792155	 251957405	 162317.
16:29:15  562 563	 1492792155	 418290552	 166333.
16:29:15  563 564	 1492792155	 580247268	 161957.
16:29:15  564 565	 1492792155	 745726897	 165480.
16:29:15  565 566	 1492792155	 878582701	 132855.
16:29:16  566 567	 1492792156	 44160090	 165578.
16:29:16  567 568	 1492792156	 205896661	 161736.
16:29:16  568 569	 1492792156	 371574924	 165679.
16:29:16  569 570	 1492792156	 533111036	 161536.
16:29:16  570 571	 1492792156	 666277357	 133166.
16:29:16  571 572	 1492792156	 831792775	 165515.
16:29:16  572 573	 1492792156	 994118414	 162326.
16:29:17  573 574	 1492792157	 159814713	 165696.
16:29:17  574 575	 1492792157	 292702512	 132888.
16:29:17  575 576	 1492792157	 458348022	 165646.
16:29:17  576 577	 1492792157	 620690659	 162342.
16:29:17  577 578	 1492792157	 786666474	 165976.
16:29:17  578 579	 1492792157	 948218574	 161552.
16:29:18  579 580	 1492792158	 110431076	 162213.
16:29:18  580 581	 1492792158	 247619040	 137188.
16:29:18  581 582	 1492792158	 413619864	 166001.
16:29:18  582 583	 1492792158	 575695395	 162075.
16:29:18  583 584	 1492792158	 741504112	 165809.
16:29:18  584 585	 1492792158	 903093585	 161589.
16:29:19  585 586	 1492792159	 36348201	 133255.
16:29:19  586 587	 1492792159	 202449368	 166101.
16:29:19  587 588	 1492792159	 363876236	 161427.
16:29:19  588 589	 1492792159	 529909004	 166033.
16:29:19  589 590	 1492792159	 663166255	 133257.
16:29:19  590 591	 1492792159	 829203598	 166037.
16:29:19  591 592	 1492792159	 991126865	 161924.
16:29:20  592 593	 1492792160	 156748236	 165621.
16:29:20  593 594	 1492792160	 318710337	 161962.
16:29:20  594 595	 1492792160	 455693999	 136984.
16:29:20  595 596	 1492792160	 617919353	 162225.
16:29:20  596 597	 1492792160	 783877223	 165958.
16:29:20  597 598	 1492792160	 946060278	 162183.
16:29:21  598 599	 1492792161	 112274144	 166214.
16:29:21  599 600	 1492792161	 274084459	 161810.
16:29:21  600 601	 1492792161	 411054971	 136971.
16:29:21  601 602	 1492792161	 572988240	 161933.
16:29:21  602 603	 1492792161	 738758530	 165770.
16:29:21  603 604	 1492792161	 900241081	 161483.
16:29:22  604 605	 1492792162	 32872906	 132632.
16:29:22  605 606	 1492792162	 198650746	 165777.
16:29:22  606 607	 1492792162	 364447546	 165797.
16:29:22  607 608	 1492792162	 526721354	 162274.
16:29:22  608 609	 1492792162	 663515789	 136795.
16:29:22  609 610	 1492792162	 825045354	 161529.
16:29:22  610 611	 1492792162	 986949711	 161904.
16:29:23  611 612	 1492792163	 152499822	 165551.
16:29:23  612 613	 1492792163	 285907027	 133407.
16:29:23  613 614	 1492792163	 451612261	 165705.
16:29:23  614 615	 1492792163	 613804512	 162192.
16:29:23  615 616	 1492792163	 780025015	 166221.
16:29:23  616 617	 1492792163	 941509179	 161484.
16:29:24  617 618	 1492792164	 78710904	 137202.
16:29:24  618 619	 1492792164	 240039238	 161328.
16:29:24  619 620	 1492792164	 405589471	 165550.
16:29:24  620 621	 1492792164	 567267965	 161679.
16:29:24  621 622	 1492792164	 729491144	 162223.
16:29:24  622 623	 1492792164	 867026083	 137535.
16:29:25  623 624	 1492792165	 28707867	 161682.
16:29:25  624 625	 1492792165	 194345346	 165637.
16:29:25  625 626	 1492792165	 355959916	 161615.
16:29:25  626 627	 1492792165	 521551052	 165591.
16:29:25  627 628	 1492792165	 654957395	 133406.
16:29:25  628 629	 1492792165	 820901129	 165944.
16:29:25  629 630	 1492792165	 982271153	 161370.
16:29:26  630 631	 1492792166	 148347098	 166076.
16:29:26  631 632	 1492792166	 310579845	 162233.
16:29:26  632 633	 1492792166	 447582007	 137002.
16:29:26  633 634	 1492792166	 609409603	 161827.
16:29:26  634 635	 1492792166	 775009408	 165600.
16:29:26  635 636	 1492792166	 937315085	 162306.
16:29:27  636 637	 1492792167	 99622184	 162307.
16:29:27  637 638	 1492792167	 265777012	 166155.
16:29:27  638 639	 1492792167	 399287907	 133511.
16:29:27  639 640	 1492792167	 565286641	 165998.
16:29:27  640 641	 1492792167	 727199755	 161913.
16:29:27  641 642	 1492792167	 892853330	 165654.
16:29:28  642 643	 1492792168	 55205222	 162352.
16:29:28  643 644	 1492792168	 221252426	 166047.
16:29:28  644 645	 1492792168	 354168925	 132917.
16:29:28  645 646	 1492792168	 519650906	 165482.
16:29:28  646 647	 1492792168	 681574721	 161923.
16:29:28  647 648	 1492792168	 818358352	 136784.
16:29:28  648 649	 1492792168	 979940807	 161582.
16:29:29  649 650	 1492792169	 145289967	 165350.
16:29:29  650 651	 1492792169	 307054349	 161764.
16:29:29  651 652	 1492792169	 444331761	 137277.
16:29:29  652 653	 1492792169	 605872805	 161542.
16:29:29  653 654	 1492792169	 771858040	 165985.
16:29:29  654 655	 1492792169	 933466348	 161608.
16:29:30  655 656	 1492792170	 95039143	 161573.
16:29:30  656 657	 1492792170	 232123265	 137084.
16:29:30  657 658	 1492792170	 393751570	 161628.
16:29:30  658 659	 1492792170	 559189033	 165438.
16:29:30  659 660	 1492792170	 720658549	 161469.
16:29:30  660 661	 1492792170	 882025087	 161367.
16:29:31  661 662	 1492792171	 47619606	 165594.
16:29:31  662 663	 1492792171	 180575040	 132956.
16:29:31  663 664	 1492792171	 342076353	 161501.
16:29:31  664 665	 1492792171	 507443934	 165368.
16:29:31  665 666	 1492792171	 669062082	 161618.
16:29:31  666 667	 1492792171	 835411642	 166349.
16:29:31  667 668	 1492792171	 997104154	 161693.
16:29:32  668 669	 1492792172	 130295322	 133191.
16:29:32  669 670	 1492792172	 295761395	 165466.
16:29:32  670 671	 1492792172	 457634693	 161873.
16:29:32  671 672	 1492792172	 623710479	 166076.
16:29:32  672 673	 1492792172	 785960149	 162250.
16:29:32  673 674	 1492792172	 922955936	 136996.
16:29:33  674 675	 1492792173	 84955409	 161999.
16:29:33  675 676	 1492792173	 250290362	 165335.
16:29:33  676 677	 1492792173	 412417557	 162127.
16:29:33  677 678	 1492792173	 578906958	 166490.
16:29:33  678 679	 1492792173	 712671780	 133765.
16:29:33  679 680	 1492792173	 878683852	 166012.
16:29:34  680 681	 1492792174	 41071049	 162387.
16:29:34  681 682	 1492792174	 206995149	 165924.
16:29:34  682 683	 1492792174	 369265252	 162270.
16:29:34  683 684	 1492792174	 535212802	 165948.
16:29:34  684 685	 1492792174	 668477433	 133264.
16:29:34  685 686	 1492792174	 834726323	 166249.
16:29:34  686 687	 1492792174	 997165360	 162439.
16:29:35  687 688	 1492792175	 163461815	 166297.
16:29:35  688 689	 1492792175	 325875510	 162413.
16:29:35  689 690	 1492792175	 491770358	 165895.
16:29:35  690 691	 1492792175	 654073566	 162303.
16:29:35  691 692	 1492792175	 820046987	 165974.
16:29:35  692 693	 1492792175	 953282121	 133235.
16:29:36  693 694	 1492792176	 119817253	 166535.
16:29:36  694 695	 1492792176	 281518063	 161701.
16:29:36  695 696	 1492792176	 447613528	 166095.
16:29:36  696 697	 1492792176	 609493456	 161880.
16:29:36  697 698	 1492792176	 775922156	 166429.
16:29:36  698 699	 1492792176	 909009717	 133087.
16:29:37  699 700	 1492792177	 71004834	 161996.
16:29:37  700 701	 1492792177	 237174276	 166169.
16:29:37  701 702	 1492792177	 399072111	 161898.
16:29:37  702 703	 1492792177	 565184616	 166112.
16:29:37  703 704	 1492792177	 698254786	 133071.
16:29:37  704 705	 1492792177	 863747054	 165492.
16:29:38  705 706	 1492792178	 29198967	 165452.
16:29:38  706 707	 1492792178	 186635217	 157436.
16:29:38  707 708	 1492792178	 323540219	 136905.
16:29:38  708 709	 1492792178	 489120095	 165580.
16:29:38  709 710	 1492792178	 650276929	 161157.
16:29:38  710 711	 1492792178	 787276762	 136999.
16:29:38  711 712	 1492792178	 948715901	 161440.
16:29:39  712 713	 1492792179	 114339124	 165623.
16:29:39  713 714	 1492792179	 247013114	 132674.
16:29:39  714 715	 1492792179	 412930533	 165917.
16:29:39  715 716	 1492792179	 575109366	 162179.
16:29:39  716 717	 1492792179	 740879311	 165770.
16:29:39  717 718	 1492792179	 902693221	 161814.
16:29:40  718 719	 1492792180	 40175649	 137482.
16:29:40  719 720	 1492792180	 202093004	 161918.
16:29:40  720 721	 1492792180	 368395567	 166302.
16:29:40  721 722	 1492792180	 534312773	 165917.
16:29:40  722 723	 1492792180	 695877215	 161565.
16:29:40  723 724	 1492792180	 832803846	 136927.
16:29:40  724 725	 1492792180	 994369882	 161566.
16:29:41  725 726	 1492792181	 156105999	 161736.
16:29:41  726 727	 1492792181	 321894795	 165788.
16:29:41  727 728	 1492792181	 454688278	 132794.
16:29:41  728 729	 1492792181	 620823445	 166135.
16:29:41  729 730	 1492792181	 786679152	 165856.
16:29:41  730 731	 1492792181	 948723665	 162044.
16:29:42  731 732	 1492792182	 110512730	 161789.
16:29:42  732 733	 1492792182	 277201730	 166689.
16:29:42  733 734	 1492792182	 410539540	 133338.
16:29:42  734 735	 1492792182	 576233904	 165695.
16:29:42  735 736	 1492792182	 738122931	 161889.
16:29:42  736 737	 1492792182	 904036711	 165913.
16:29:43  737 738	 1492792183	 66163340	 162127.
16:29:43  738 739	 1492792183	 203445741	 137282.
16:29:43  739 740	 1492792183	 365151829	 161707.
16:29:43  740 741	 1492792183	 531100682	 165948.
16:29:43  741 742	 1492792183	 692811905	 161712.
16:29:43  742 743	 1492792183	 858571895	 165760.
16:29:44  743 744	 1492792184	 20318784	 161747.
16:29:44  744 745	 1492792184	 182074386	 161755.
16:29:44  745 746	 1492792184	 348402467	 166328.
16:29:44  746 747	 1492792184	 510490755	 162089.
16:29:44  747 748	 1492792184	 676618337	 166127.
16:29:44  748 749	 1492792184	 838183969	 161566.
16:29:44  749 750	 1492792184	 971347539	 133163.
16:29:45  750 751	 1492792185	 137062283	 165715.
16:29:45  751 752	 1492792185	 299005155	 161943.
16:29:45  752 753	 1492792185	 464977417	 165972.
16:29:45  753 754	 1492792185	 627388588	 162411.
16:29:45  754 755	 1492792185	 792891814	 165504.
16:29:45  755 756	 1492792185	 954873638	 161981.
16:29:46  756 757	 1492792186	 88091572	 133218.
16:29:46  757 758	 1492792186	 254327729	 166237.
16:29:46  758 759	 1492792186	 420238384	 165910.
16:29:46  759 760	 1492792186	 582428801	 162191.
16:29:46  760 761	 1492792186	 748201488	 165772.
16:29:46  761 762	 1492792186	 881219530	 133018.
16:29:47  762 763	 1492792187	 46836458	 165617.
16:29:47  763 764	 1492792187	 208478897	 161643.
16:29:47  764 765	 1492792187	 374873048	 166394.
16:29:47  765 766	 1492792187	 508189291	 133316.
16:29:47  766 767	 1492792187	 674022161	 165833.
16:29:47  767 768	 1492792187	 835715547	 161693.
16:29:47  768 769	 1492792188	 1636335	 165921.
16:29:48  769 770	 1492792188	 134650636	 133014.
16:29:48  770 771	 1492792188	 300880659	 166230.
16:29:48  771 772	 1492792188	 462349002	 161469.
16:29:48  772 773	 1492792188	 628112385	 165763.
16:29:48  773 774	 1492792188	 793925271	 165813.
16:29:48  774 775	 1492792188	 926907725	 132982.
16:29:49  775 776	 1492792189	 93032031	 166125.
16:29:49  776 777	 1492792189	 254406213	 161374.
16:29:49  777 778	 1492792189	 415861580	 161455.
16:29:49  778 779	 1492792189	 582086973	 166226.
16:29:49  779 780	 1492792189	 715268583	 133181.
16:29:49  780 781	 1492792189	 880924443	 165656.
16:29:50  781 782	 1492792190	 42582331	 161658.
16:29:50  782 783	 1492792190	 208455157	 165873.
16:29:50  783 784	 1492792190	 374323347	 165868.
16:29:50  784 785	 1492792190	 536534351	 162211.
16:29:50  785 786	 1492792190	 698527464	 161993.
16:29:50  786 787	 1492792190	 835476924	 136950.
16:29:50  787 788	 1492792190	 997179147	 161702.
16:29:51  788 789	 1492792191	 162769796	 165591.
16:29:51  789 790	 1492792191	 324872227	 162102.
16:29:51  790 791	 1492792191	 491254327	 166382.
16:29:51  791 792	 1492792191	 653165062	 161911.
16:29:51  792 793	 1492792191	 819342683	 166177.
16:29:51  793 794	 1492792191	 981376960	 162035.
16:29:52  794 795	 1492792192	 118637747	 137260.
16:29:52  795 796	 1492792192	 280346693	 161709.
16:29:52  796 797	 1492792192	 441628247	 161282.
16:29:52  797 798	 1492792192	 607299064	 165671.
16:29:52  798 799	 1492792192	 768781381	 161482.
16:29:52  799 800	 1492792192	 905893010	 137112.
16:29:53  800 801	 1492792193	 67662119	 161769.
16:29:53  801 802	 1492792193	 229470878	 161809.
16:29:53  802 803	 1492792193	 395217633	 165746.
16:29:53  803 804	 1492792193	 557013053	 161796.
16:29:53  804 805	 1492792193	 722802266	 165789.
16:29:53  805 806	 1492792193	 884397145	 161595.
16:29:54  806 807	 1492792194	 21377807	 136981.
16:29:54  807 808	 1492792194	 183076568	 161698.
16:29:54  808 809	 1492792194	 344902317	 161826.
16:29:54  809 810	 1492792194	 510574404	 165672.
16:29:54  810 811	 1492792194	 672347910	 161774.
16:29:54  811 812	 1492792194	 838433295	 166085.
16:29:54  812 813	 1492792195	 184821	 161752.
16:29:55  813 814	 1492792195	 158829246	 158644.
16:29:55  814 815	 1492792195	 325177014	 166348.
16:29:55  815 816	 1492792195	 458247036	 133070.
16:29:55  816 817	 1492792195	 624201909	 165955.
16:29:55  817 818	 1492792195	 786068749	 161866.
16:29:55  818 819	 1492792195	 952273855	 166206.
16:29:56  819 820	 1492792196	 113629387	 161355.
16:29:56  820 821	 1492792196	 250572602	 136943.
16:29:56  821 822	 1492792196	 412615953	 162044.
16:29:56  822 823	 1492792196	 579082169	 166466.
16:29:56  823 824	 1492792196	 741164981	 162083.
16:29:56  824 825	 1492792196	 906876751	 165711.
16:29:57  825 826	 1492792197	 69077516	 162201.
16:29:57  826 827	 1492792197	 202011029	 132934.
16:29:57  827 828	 1492792197	 367388478	 165377.
16:29:57  828 829	 1492792197	 528701362	 161313.
16:29:57  829 830	 1492792197	 694618544	 165917.
16:29:57  830 831	 1492792197	 827431069	 132813.
16:29:57  831 832	 1492792197	 992779686	 165348.
16:29:58  832 833	 1492792198	 153947839	 161169.
16:29:58  833 834	 1492792198	 290840625	 136892.
16:29:58  834 835	 1492792198	 452585535	 161745.
16:29:58  835 836	 1492792198	 618239717	 165654.
16:29:58  836 837	 1492792198	 779743261	 161504.
16:29:58  837 838	 1492792198	 941764797	 162022.
16:29:59  838 839	 1492792199	 78947465	 137182.
16:29:59  839 840	 1492792199	 241093809	 162147.
16:29:59  840 841	 1492792199	 407189633	 166095.
16:29:59  841 842	 1492792199	 569104306	 161915.
16:29:59  842 843	 1492792199	 734811666	 165707.
16:29:59  843 844	 1492792199	 867811976	 133001.
16:30:00  844 845	 1492792200	 33648632	 165836.
16:30:00  845 846	 1492792200	 195075310	 161427.
16:30:00  846 847	 1492792200	 361501680	 166426.
16:30:00  847 848	 1492792200	 523620346	 162119.
16:30:00  848 849	 1492792200	 690025318	 166405.
16:30:00  849 850	 1492792200	 852548240	 162523.
16:30:01  850 851	 1492792201	 18380457	 165832.
16:30:01  851 852	 1492792201	 151029582	 132649.
16:30:01  852 853	 1492792201	 312490718	 161461.
16:30:01  853 854	 1492792201	 478195637	 165705.
16:30:01  854 855	 1492792201	 639803341	 161608.
16:30:01  855 856	 1492792201	 805381984	 165579.
16:30:01  856 857	 1492792201	 938370580	 132988.
16:30:02  857 858	 1492792202	 103978334	 165608.
16:30:02  858 859	 1492792202	 265278691	 161300.
16:30:02  859 860	 1492792202	 426620804	 161343.
16:30:02  860 861	 1492792202	 592066723	 165445.
16:30:02  861 862	 1492792202	 724899964	 132834.
16:30:02  862 863	 1492792202	 890292733	 165392.
16:30:03  863 864	 1492792203	 51745180	 161453.
16:30:03  864 865	 1492792203	 213160014	 161415.
16:30:03  865 866	 1492792203	 378969755	 165809.
16:30:03  866 867	 1492792203	 540553919	 161585.
16:30:03  867 868	 1492792203	 673551973	 132998.
16:30:03  868 869	 1492792203	 839523567	 165971.
16:30:03  869 870	 1492792204	 1348697	 161825.
16:30:04  870 871	 1492792204	 163110821	 161763.
16:30:04  871 872	 1492792204	 329310707	 166199.
16:30:04  872 873	 1492792204	 491411885	 162102.
16:30:04  873 874	 1492792204	 657471843	 166060.
16:30:04  874 875	 1492792204	 819493220	 162021.
16:30:04  875 876	 1492792204	 981387139	 161894.
16:30:05  876 877	 1492792205	 147087589	 165700.
16:30:05  877 878	 1492792205	 280240740	 133153.
16:30:05  878 879	 1492792205	 446099923	 165860.
16:30:05  879 880	 1492792205	 607958088	 161858.
16:30:05  880 881	 1492792205	 769558031	 161600.
16:30:05  881 882	 1492792205	 935332301	 165774.
16:30:06  882 883	 1492792206	 97073811	 161742.
16:30:06  883 884	 1492792206	 263637929	 166564.
16:30:06  884 885	 1492792206	 421212802	 157575.
16:30:06  885 886	 1492792206	 587078555	 165865.
16:30:06  886 887	 1492792206	 748801715	 161723.
16:30:06  887 888	 1492792206	 914742773	 165942.
16:30:07  888 889	 1492792207	 47660814	 132918.
16:30:07  889 890	 1492792207	 213568330	 165907.
16:30:07  890 891	 1492792207	 375450001	 161882.
16:30:07  891 892	 1492792207	 537182439	 161732.
16:30:07  892 893	 1492792207	 702787238	 165605.
16:30:07  893 894	 1492792207	 864476797	 161690.
16:30:08  894 895	 1492792208	 26230873	 161754.
16:30:08  895 896	 1492792208	 191856264	 165625.
16:30:08  896 897	 1492792208	 324878788	 133022.
16:30:08  897 898	 1492792208	 490650876	 165773.
16:30:08  898 899	 1492792208	 652329594	 161678.
16:30:08  899 900	 1492792208	 813904954	 161576.
16:30:08  900 901	 1492792208	 979642629	 165737.
16:30:09  901 902	 1492792209	 141211483	 161569.
16:30:09  902 903	 1492792209	 307103940	 165893.
16:30:09  903 904	 1492792209	 440005010	 132901.
16:30:09  904 905	 1492792209	 601782290	 161777.
16:30:09  905 906	 1492792209	 767295660	 165513.
16:30:09  906 907	 1492792209	 928754789	 161460.
16:30:10  907 908	 1492792210	 94520456	 165765.
16:30:10  908 909	 1492792210	 227457499	 132937.
16:30:10  909 910	 1492792210	 388882168	 161425.
16:30:10  910 911	 1492792210	 554417950	 165536.
16:30:10  911 912	 1492792210	 716009349	 161591.
16:30:10  912 913	 1492792210	 881598749	 165589.
16:30:11  913 914	 1492792211	 14395788	 132798.
16:30:11  914 915	 1492792211	 179925624	 165529.
16:30:11  915 916	 1492792211	 341641195	 161716.
16:30:11  916 917	 1492792211	 503281499	 161640.
16:30:11  917 918	 1492792211	 669074538	 165794.
16:30:11  918 919	 1492792211	 831109251	 162034.
16:30:11  919 920	 1492792211	 964249581	 133140.
16:30:12  920 921	 1492792212	 130061995	 165813.
16:30:12  921 922	 1492792212	 291463452	 161401.
16:30:12  922 923	 1492792212	 457038903	 165576.
16:30:12  923 924	 1492792212	 618311565	 161272.
16:30:12  924 925	 1492792212	 784103358	 165792.
16:30:12  925 926	 1492792212	 917324522	 133221.
16:30:13  926 927	 1492792213	 79131413	 161807.
16:30:13  927 928	 1492792213	 244713103	 165582.
16:30:13  928 929	 1492792213	 406456626	 161743.
16:30:13  929 930	 1492792213	 572143780	 165688.
16:30:13  930 931	 1492792213	 734018822	 161875.
16:30:13  931 932	 1492792213	 871190861	 137172.
16:30:14  932 933	 1492792214	 32790617	 161599.
16:30:14  933 934	 1492792214	 194254223	 161464.
16:30:14  934 935	 1492792214	 360082496	 165828.
16:30:14  935 936	 1492792214	 521872295	 161790.
16:30:14  936 937	 1492792214	 687937576	 166065.
16:30:14  937 938	 1492792214	 820513732	 132576.
16:30:14  938 939	 1492792214	 982724224	 162211.
16:30:15  939 940	 1492792215	 148851076	 166127.
16:30:15  940 941	 1492792215	 310676841	 161826.
16:30:15  941 942	 1492792215	 476791596	 166114.
16:30:15  942 943	 1492792215	 642428112	 165637.
16:30:15  943 944	 1492792215	 775373088	 132945.
16:30:15  944 945	 1492792215	 941089082	 165716.
16:30:16  945 946	 1492792216	 103203258	 162114.
16:30:16  946 947	 1492792216	 269048581	 165845.
16:30:16  947 948	 1492792216	 402122297	 133074.
16:30:16  948 949	 1492792216	 568144025	 166022.
16:30:16  949 950	 1492792216	 734458234	 166314.
16:30:16  950 951	 1492792216	 896434912	 161977.
16:30:17  951 952	 1492792217	 62573817	 166139.
16:30:17  952 953	 1492792217	 195700735	 133126.
16:30:17  953 954	 1492792217	 357680282	 161980.
16:30:17  954 955	 1492792217	 523732825	 166053.
16:30:17  955 956	 1492792217	 689589295	 165856.
16:30:17  956 957	 1492792217	 851563665	 161974.
16:30:18  957 958	 1492792218	 17880669	 166317.
16:30:18  958 959	 1492792218	 151060900	 133181.
16:30:18  959 960	 1492792218	 312661581	 161600.
16:30:18  960 961	 1492792218	 478736335	 166075.
16:30:18  961 962	 1492792218	 640495022	 161759.
16:30:18  962 963	 1492792218	 777589187	 137094.
16:30:18  963 964	 1492792218	 939482629	 161893.
16:30:19  964 965	 1492792219	 105502787	 166021.
16:30:19  965 966	 1492792219	 267479936	 161977.
16:30:19  966 967	 1492792219	 433353892	 165874.
16:30:19  967 968	 1492792219	 595460103	 162106.
16:30:19  968 969	 1492792219	 732926538	 137466.
16:30:19  969 970	 1492792219	 894857738	 161931.
16:30:20  970 971	 1492792220	 60589141	 165732.
16:30:20  971 972	 1492792220	 222440268	 161851.
16:30:20  972 973	 1492792220	 388586750	 166147.
16:30:20  973 974	 1492792220	 550466648	 161879.
16:30:20  974 975	 1492792220	 688053541	 137587.
16:30:20  975 976	 1492792220	 849661079	 161608.
16:30:21  976 977	 1492792221	 11337763	 161676.
16:30:21  977 978	 1492792221	 177174512	 165837.
16:30:21  978 979	 1492792221	 310642018	 133468.
16:30:21  979 980	 1492792221	 476833616	 166192.
16:30:21  980 981	 1492792221	 642827403	 165993.
16:30:21  981 982	 1492792221	 804278036	 161451.
16:30:21  982 983	 1492792221	 970138241	 165860.
16:30:22  983 984	 1492792222	 103141387	 133003.
16:30:22  984 985	 1492792222	 268934789	 165794.
16:30:22  985 986	 1492792222	 430667417	 161732.
16:30:22  986 987	 1492792222	 567378563	 136711.
16:30:22  987 988	 1492792222	 729281021	 161903.
16:30:22  988 989	 1492792222	 891315680	 162034.
16:30:23  989 990	 1492792223	 57327762	 166012.
16:30:23  990 991	 1492792223	 219363687	 162036.
16:30:23  991 992	 1492792223	 385417520	 166054.
16:30:23  992 993	 1492792223	 547740037	 162323.
16:30:23  993 994	 1492792223	 685213170	 137473.
16:30:23  994 995	 1492792223	 846636337	 161423.
16:30:24  995 996	 1492792224	 8103952	 161468.
16:30:24  996 997	 1492792224	 174248235	 166144.
16:30:24  997 998	 1492792224	 336111317	 161863.
16:30:24  998 999	 1492792224	 502021117	 165910.
16:30:24  999 1000	 1492792224	 634842147	 132821.
16:30:24 1000 1001	 1492792224	 800528761	 165686.
16:30:24 1001 1002	 1492792224	 962395543	 161867.
16:30:25 1002 1003	 1492792225	 128447637	 166052.
16:30:25 1003 1004	 1492792225	 261750162	 133303.
16:30:25 1004 1005	 1492792225	 427564673	 165814.
16:30:25 1005 1006	 1492792225	 589417966	 161854.
16:30:25 1006 1007	 1492792225	 755619485	 166201.
16:30:25 1007 1008	 1492792225	 918045725	 162426.
16:30:26 1008 1009	 1492792226	 84343632	 166298.
16:30:26 1009 1010	 1492792226	 246259346	 161916.
16:30:26 1010 1011	 1492792226	 383192674	 136933.
16:30:26 1011 1012	 1492792226	 545298179	 162106.
16:30:26 1012 1013	 1492792226	 711275416	 165977.
16:30:26 1013 1014	 1492792226	 872937970	 161663.
16:30:27 1014 1015	 1492792227	 38763993	 165826.
16:30:27 1015 1016	 1492792227	 172038273	 133274.
16:30:27 1016 1017	 1492792227	 337870043	 165832.
16:30:27 1017 1018	 1492792227	 500038506	 162168.
16:30:27 1018 1019	 1492792227	 666204011	 166166.
16:30:27 1019 1020	 1492792227	 828951541	 162747.
16:30:27 1020 1021	 1492792227	 986304859	 157354.
16:30:28 1021 1022	 1492792228	 119091796	 132787.
16:30:28 1022 1023	 1492792228	 284399331	 165307.
16:30:28 1023 1024	 1492792228	 450336368	 165937.
16:30:28 1024 1025	 1492792228	 612183360	 161847.
16:30:28 1025 1026	 1492792228	 745237051	 133054.
16:30:28 1026 1027	 1492792228	 911131323	 165894.
16:30:29 1027 1028	 1492792229	 72872439	 161741.
16:30:29 1028 1029	 1492792229	 238692907	 165821.
16:30:29 1029 1030	 1492792229	 371707019	 133014.
16:30:29 1030 1031	 1492792229	 537261974	 165555.
16:30:29 1031 1032	 1492792229	 698733683	 161472.
16:30:29 1032 1033	 1492792229	 864264261	 165530.
16:30:29 1033 1034	 1492792229	 997692075	 133428.
16:30:30 1034 1035	 1492792230	 159390594	 161698.
16:30:30 1035 1036	 1492792230	 325830192	 166440.
16:30:30 1036 1037	 1492792230	 488121544	 162291.
16:30:30 1037 1038	 1492792230	 653849197	 165728.
16:30:30 1038 1039	 1492792230	 815688517	 161839.
16:30:30 1039 1040	 1492792230	 981753235	 166065.
16:30:31 1040 1041	 1492792231	 114848598	 133095.
16:30:31 1041 1042	 1492792231	 280646358	 165798.
16:30:31 1042 1043	 1492792231	 441672932	 161027.
16:30:31 1043 1044	 1492792231	 607598083	 165925.
16:30:31 1044 1045	 1492792231	 740477300	 132879.
16:30:31 1045 1046	 1492792231	 906042256	 165565.
16:30:32 1046 1047	 1492792232	 67601719	 161559.
16:30:32 1047 1048	 1492792232	 229348763	 161747.
16:30:32 1048 1049	 1492792232	 366386680	 137038.
16:30:32 1049 1050	 1492792232	 528269576	 161883.
16:30:32 1050 1051	 1492792232	 694434109	 166165.
16:30:32 1051 1052	 1492792232	 856408501	 161974.
16:30:33 1052 1053	 1492792233	 22511766	 166103.
16:30:33 1053 1054	 1492792233	 184675633	 162164.
16:30:33 1054 1055	 1492792233	 351107202	 166432.
16:30:33 1055 1056	 1492792233	 513593272	 162486.
16:30:33 1056 1057	 1492792233	 680183730	 166590.
16:30:33 1057 1058	 1492792233	 813844139	 133661.
16:30:33 1058 1059	 1492792233	 980236954	 166393.
16:30:34 1059 1060	 1492792234	 142639395	 162402.
16:30:34 1060 1061	 1492792234	 309115249	 166476.
16:30:34 1061 1062	 1492792234	 471087418	 161972.
16:30:34 1062 1063	 1492792234	 637024137	 165937.
16:30:34 1063 1064	 1492792234	 799214648	 162190.
16:30:34 1064 1065	 1492792234	 965435596	 166221.
16:30:35 1065 1066	 1492792235	 127805039	 162370.
16:30:35 1066 1067	 1492792235	 293967043	 166162.
16:30:35 1067 1068	 1492792235	 456092574	 162125.
16:30:35 1068 1069	 1492792235	 589657259	 133565.
16:30:35 1069 1070	 1492792235	 756268671	 166611.
16:30:35 1070 1071	 1492792235	 922566917	 166299.
16:30:36 1071 1072	 1492792236	 84872524	 162305.
16:30:36 1072 1073	 1492792236	 246806213	 161934.
16:30:36 1073 1074	 1492792236	 412219085	 165413.
16:30:36 1074 1075	 1492792236	 573841010	 161622.
16:30:36 1075 1076	 1492792236	 739512586	 165671.
16:30:36 1076 1077	 1492792236	 872711497	 133199.
16:30:37 1077 1078	 1492792237	 34306259	 161595.
16:30:37 1078 1079	 1492792237	 199988011	 165682.
16:30:37 1079 1080	 1492792237	 361454471	 161466.
16:30:37 1080 1081	 1492792237	 526436677	 164982.
16:30:37 1081 1082	 1492792237	 659045670	 132609.
16:30:37 1082 1083	 1492792237	 820519897	 161475.
16:30:37 1083 1084	 1492792237	 986412078	 165892.
16:30:38 1084 1085	 1492792238	 148196212	 161784.
16:30:38 1085 1086	 1492792238	 313465138	 165269.
16:30:38 1086 1087	 1492792238	 474907828	 161443.
16:30:38 1087 1088	 1492792238	 607526211	 132618.
16:30:38 1088 1089	 1492792238	 772686658	 165160.
16:30:38 1089 1090	 1492792238	 934199015	 161513.
16:30:39 1090 1091	 1492792239	 100797010	 166598.
16:30:39 1091 1092	 1492792239	 258072588	 157275.
16:30:39 1092 1093	 1492792239	 391124133	 133052.
16:30:39 1093 1094	 1492792239	 556597962	 165474.
16:30:39 1094 1095	 1492792239	 717498799	 160901.
16:30:39 1095 1096	 1492792239	 854190364	 136691.
16:30:40 1096 1097	 1492792240	 15416587	 161226.
16:30:40 1097 1098	 1492792240	 176357144	 160941.
16:30:40 1098 1099	 1492792240	 341378778	 165021.
16:30:40 1099 1100	 1492792240	 473737479	 132359.
16:30:40 1100 1101	 1492792240	 638713867	 164977.
16:30:40 1101 1102	 1492792240	 799608090	 160894.
16:30:40 1102 1103	 1492792240	 932318380	 132710.
16:30:41 1103 1104	 1492792241	 97881514	 165563.
16:30:41 1104 1105	 1492792241	 259249479	 161368.
16:30:41 1105 1106	 1492792241	 396233879	 136985.
16:30:41 1106 1107	 1492792241	 558032314	 161798.
16:30:41 1107 1108	 1492792241	 724052033	 166020.
16:30:41 1108 1109	 1492792241	 885514650	 161462.
16:30:42 1109 1110	 1492792242	 51357010	 165843.
16:30:42 1110 1111	 1492792242	 184365758	 133008.
16:30:42 1111 1112	 1492792242	 350045153	 165680.
16:30:42 1112 1113	 1492792242	 511868675	 161823.
16:30:42 1113 1114	 1492792242	 677427482	 165559.
16:30:42 1114 1115	 1492792242	 811017607	 133590.
16:30:42 1115 1116	 1492792242	 976853734	 165836.
16:30:43 1116 1117	 1492792243	 138928620	 162075.
16:30:43 1117 1118	 1492792243	 304808415	 165880.
16:30:43 1118 1119	 1492792243	 470829524	 166021.
16:30:43 1119 1120	 1492792243	 604175413	 133346.
16:30:43 1120 1121	 1492792243	 770249615	 166074.
16:30:43 1121 1122	 1492792243	 932083343	 161834.
16:30:44 1122 1123	 1492792244	 98141403	 166058.
16:30:44 1123 1124	 1492792244	 260029479	 161888.
16:30:44 1124 1125	 1492792244	 397602231	 137573.
16:30:44 1125 1126	 1492792244	 559574704	 161973.
16:30:44 1126 1127	 1492792244	 725750209	 166175.
16:30:44 1127 1128	 1492792244	 887684993	 161935.
16:30:45 1128 1129	 1492792245	 53951507	 166266.
16:30:45 1129 1130	 1492792245	 215688274	 161737.
16:30:45 1130 1131	 1492792245	 353100437	 137412.
16:30:45 1131 1132	 1492792245	 514998606	 161898.
16:30:45 1132 1133	 1492792245	 681287166	 166289.
16:30:45 1133 1134	 1492792245	 843194109	 161907.
16:30:46 1134 1135	 1492792246	 9548510	 166354.
16:30:46 1135 1136	 1492792246	 171355588	 161807.
16:30:46 1136 1137	 1492792246	 308701370	 137346.
16:30:46 1137 1138	 1492792246	 470441476	 161740.
16:30:46 1138 1139	 1492792246	 636579486	 166138.
16:30:46 1139 1140	 1492792246	 802403988	 165825.
16:30:46 1140 1141	 1492792246	 964007819	 161604.
16:30:47 1141 1142	 1492792247	 101204641	 137196.
16:30:47 1142 1143	 1492792247	 262646458	 161442.
16:30:47 1143 1144	 1492792247	 428863206	 166217.
16:30:47 1144 1145	 1492792247	 590720763	 161857.
16:30:47 1145 1146	 1492792247	 756905860	 166186.
16:30:47 1146 1147	 1492792247	 890270588	 133364.
16:30:48 1147 1148	 1492792248	 56649742	 166379.
16:30:48 1148 1149	 1492792248	 218436116	 161787.
16:30:48 1149 1150	 1492792248	 384251023	 165815.
16:30:48 1150 1151	 1492792248	 546286474	 162035.
16:30:48 1151 1152	 1492792248	 712560287	 166274.
16:30:48 1152 1153	 1492792248	 846035726	 133475.
16:30:49 1153 1154	 1492792249	 11923151	 165888.
16:30:49 1154 1155	 1492792249	 173783647	 161860.
16:30:49 1155 1156	 1492792249	 340108384	 166325.
16:30:49 1156 1157	 1492792249	 502163184	 162055.
16:30:49 1157 1158	 1492792249	 635299497	 133136.
16:30:49 1158 1159	 1492792249	 801122374	 165823.
16:30:49 1159 1160	 1492792249	 963295334	 162173.
16:30:50 1160 1161	 1492792250	 129413833	 166119.
16:30:50 1161 1162	 1492792250	 276977294	 147563.
16:30:50 1162 1163	 1492792250	 442867066	 165890.
16:30:50 1163 1164	 1492792250	 604413367	 161546.
16:30:50 1164 1165	 1492792250	 741606660	 137193.
16:30:50 1165 1166	 1492792250	 903305855	 161700.
16:30:51 1166 1167	 1492792251	 69338435	 166032.
16:30:51 1167 1168	 1492792251	 231146725	 161808.
16:30:51 1168 1169	 1492792251	 396771471	 165625.
16:30:51 1169 1170	 1492792251	 530489675	 133718.
16:30:51 1170 1171	 1492792251	 696847463	 166358.
16:30:51 1171 1172	 1492792251	 858814361	 161967.
16:30:52 1172 1173	 1492792252	 24894707	 166080.
16:30:52 1173 1174	 1492792252	 186318307	 161424.
16:30:52 1174 1175	 1492792252	 352441071	 166123.
16:30:52 1175 1176	 1492792252	 485410861	 132970.
16:30:52 1176 1177	 1492792252	 647218648	 161807.
16:30:52 1177 1178	 1492792252	 813415665	 166197.
16:30:52 1178 1179	 1492792252	 975260126	 161845.
16:30:53 1179 1180	 1492792253	 141745797	 166486.
16:30:53 1180 1181	 1492792253	 308262372	 166516.
16:30:53 1181 1182	 1492792253	 441809119	 133547.
16:30:53 1182 1183	 1492792253	 603944909	 162136.
16:30:53 1183 1184	 1492792253	 769733492	 165788.
16:30:53 1184 1185	 1492792253	 931643390	 161910.
16:30:54 1185 1186	 1492792254	 97363960	 165721.
16:30:54 1186 1187	 1492792254	 230083761	 132719.
16:30:54 1187 1188	 1492792254	 395874990	 165792.
16:30:54 1188 1189	 1492792254	 557690153	 161815.
16:30:54 1189 1190	 1492792254	 723733284	 166043.
16:30:54 1190 1191	 1492792254	 856920508	 133187.
16:30:55 1191 1192	 1492792255	 23018288	 166098.
16:30:55 1192 1193	 1492792255	 184608220	 161590.
16:30:55 1193 1194	 1492792255	 350825487	 166217.
16:30:55 1194 1195	 1492792255	 512508063	 161683.
16:30:55 1195 1196	 1492792255	 650027031	 137519.
16:30:55 1196 1197	 1492792255	 812161756	 162134.
16:30:55 1197 1198	 1492792255	 977952793	 165792.
16:30:56 1198 1199	 1492792256	 139414535	 161461.
16:30:56 1199 1200	 1492792256	 305453440	 166039.
16:30:56 1200 1201	 1492792256	 438593195	 133140.
16:30:56 1201 1202	 1492792256	 604831100	 166238.
16:30:56 1202 1203	 1492792256	 767119511	 162288.
16:30:56 1203 1204	 1492792256	 933429769	 166310.
16:30:57 1204 1205	 1492792257	 95396407	 161967.
16:30:57 1205 1206	 1492792257	 261559322	 166163.
16:30:57 1206 1207	 1492792257	 394685467	 133126.
16:30:57 1207 1208	 1492792257	 560689239	 166004.
16:30:57 1208 1209	 1492792257	 722751639	 162062.
16:30:57 1209 1210	 1492792257	 888176667	 165425.
16:30:58 1210 1211	 1492792258	 50598374	 162422.
16:30:58 1211 1212	 1492792258	 183489634	 132891.
16:30:58 1212 1213	 1492792258	 349283728	 165794.
16:30:58 1213 1214	 1492792258	 515049279	 165766.
16:30:58 1214 1215	 1492792258	 676716530	 161667.
16:30:58 1215 1216	 1492792258	 809772654	 133056.
16:30:58 1216 1217	 1492792258	 976178340	 166406.
16:30:59 1217 1218	 1492792259	 138216800	 162039.
16:30:59 1218 1219	 1492792259	 303592257	 165375.
16:30:59 1219 1220	 1492792259	 436365893	 132774.
16:30:59 1220 1221	 1492792259	 602582528	 166216.
16:30:59 1221 1222	 1492792259	 764339965	 161758.
16:30:59 1222 1223	 1492792259	 930444009	 166104.
16:31:00 1223 1224	 1492792260	 92539826	 162096.
16:31:00 1224 1225	 1492792260	 259082135	 166542.
16:31:00 1225 1226	 1492792260	 392079612	 132997.
16:31:00 1226 1227	 1492792260	 558557416	 166478.
16:31:00 1227 1228	 1492792260	 720476574	 161919.
16:31:00 1228 1229	 1492792260	 882131628	 161655.
16:31:01 1229 1230	 1492792261	 40654046	 158523.
16:31:01 1230 1231	 1492792261	 206236271	 165582.
16:31:01 1231 1232	 1492792261	 368085947	 161850.
16:31:01 1232 1233	 1492792261	 533821065	 165735.
16:31:01 1233 1234	 1492792261	 666888781	 133067.
16:31:01 1234 1235	 1492792261	 828457955	 161570.
16:31:01 1235 1236	 1492792261	 994281842	 165824.
16:31:02 1236 1237	 1492792262	 156020847	 161739.
16:31:02 1237 1238	 1492792262	 321486848	 165466.
16:31:02 1238 1239	 1492792262	 482680951	 161194.
16:31:02 1239 1240	 1492792262	 615572746	 132891.
16:31:02 1240 1241	 1492792262	 781061761	 165489.
16:31:02 1241 1242	 1492792262	 942352263	 161291.
16:31:03 1242 1243	 1492792263	 107761470	 165409.
16:31:03 1243 1244	 1492792263	 268877477	 161116.
16:31:03 1244 1245	 1492792263	 401927382	 133050.
16:31:03 1245 1246	 1492792263	 567395436	 165468.
16:31:03 1246 1247	 1492792263	 728664373	 161269.
16:31:03 1247 1248	 1492792263	 889978522	 161314.
16:31:04 1248 1249	 1492792264	 55632895	 165655.
16:31:04 1249 1250	 1492792264	 217177594	 161544.
16:31:04 1250 1251	 1492792264	 350199742	 133022.
16:31:04 1251 1252	 1492792264	 516083831	 165885.
16:31:04 1252 1253	 1492792264	 677916996	 161833.
16:31:04 1253 1254	 1492792264	 839744485	 161827.
16:31:05 1254 1255	 1492792265	 5651223	 165907.
16:31:05 1255 1256	 1492792265	 167485453	 161834.
16:31:05 1256 1257	 1492792265	 333448777	 165964.
16:31:05 1257 1258	 1492792265	 495097529	 161648.
16:31:05 1258 1259	 1492792265	 656980516	 161883.
16:31:05 1259 1260	 1492792265	 822963486	 165983.
16:31:05 1260 1261	 1492792265	 956176423	 133213.
16:31:06 1261 1262	 1492792266	 147134944	 190959.
16:31:06 1262 1263	 1492792266	 280511181	 133376.
16:31:06 1263 1264	 1492792266	 446272822	 165762.
16:31:06 1264 1265	 1492792266	 608110146	 161837.
16:31:06 1265 1266	 1492792266	 769740422	 161630.
16:31:06 1266 1267	 1492792266	 935464797	 165725.
16:31:07 1267 1268	 1492792267	 97015683	 161551.
16:31:07 1268 1269	 1492792267	 258722790	 161707.
16:31:07 1269 1270	 1492792267	 424450220	 165727.
16:31:07 1270 1271	 1492792267	 557170693	 132720.
16:31:07 1271 1272	 1492792267	 718798176	 161628.
16:31:07 1272 1273	 1492792267	 884301130	 165503.
16:31:08 1273 1274	 1492792268	 45925302	 161624.
16:31:08 1274 1275	 1492792268	 211331530	 165406.
16:31:08 1275 1276	 1492792268	 372899278	 161568.
16:31:08 1276 1277	 1492792268	 506078312	 133179.
16:31:08 1277 1278	 1492792268	 672156309	 166078.
16:31:08 1278 1279	 1492792268	 834163986	 162008.
16:31:08 1279 1280	 1492792269	 651927	 166488.
16:31:09 1280 1281	 1492792269	 163041181	 162389.
16:31:09 1281 1282	 1492792269	 329137488	 166096.
16:31:09 1282 1283	 1492792269	 461912214	 132775.
16:31:09 1283 1284	 1492792269	 628025110	 166113.
16:31:09 1284 1285	 1492792269	 789720769	 161695.
16:31:09 1285 1286	 1492792269	 955508203	 165788.
16:31:10 1286 1287	 1492792270	 117174144	 161666.
16:31:10 1287 1288	 1492792270	 254340642	 137166.
16:31:10 1288 1289	 1492792270	 416420203	 162080.
16:31:10 1289 1290	 1492792270	 578618181	 162198.
16:31:10 1290 1291	 1492792270	 744097480	 165479.
16:31:10 1291 1292	 1492792270	 906074825	 161978.
16:31:11 1292 1293	 1492792271	 71964734	 165889.
16:31:11 1293 1294	 1492792271	 205269392	 133305.
16:31:11 1294 1295	 1492792271	 366993477	 161724.
16:31:11 1295 1296	 1492792271	 532679014	 165686.
16:31:11 1296 1297	 1492792271	 694133833	 161455.
16:31:11 1297 1298	 1492792271	 860002548	 165868.
16:31:12 1298 1299	 1492792272	 21508611	 161506.
16:31:12 1299 1300	 1492792272	 187056916	 165549.
16:31:12 1300 1301	 1492792272	 320224084	 133167.
16:31:12 1301 1302	 1492792272	 482053215	 161829.
16:31:12 1302 1303	 1492792272	 647930312	 165877.
16:31:12 1303 1304	 1492792272	 809686930	 161757.
16:31:12 1304 1305	 1492792272	 971620761	 161933.
16:31:13 1305 1306	 1492792273	 137306509	 165686.
16:31:13 1306 1307	 1492792273	 299063758	 161758.
16:31:13 1307 1308	 1492792273	 460555350	 161491.
16:31:13 1308 1309	 1492792273	 597534019	 136979.
16:31:13 1309 1310	 1492792273	 758976264	 161442.
16:31:13 1310 1311	 1492792273	 924414444	 165438.
16:31:14 1311 1312	 1492792274	 86253027	 161839.
16:31:14 1312 1313	 1492792274	 247904757	 161651.
16:31:14 1313 1314	 1492792274	 409556496	 161652.
16:31:14 1314 1315	 1492792274	 546764801	 137209.
16:31:14 1315 1316	 1492792274	 708241982	 161477.
16:31:14 1316 1317	 1492792274	 869493304	 161251.
16:31:15 1317 1318	 1492792275	 35116538	 165623.
16:31:15 1318 1319	 1492792275	 196716025	 161600.
16:31:15 1319 1320	 1492792275	 362529425	 165813.
16:31:15 1320 1321	 1492792275	 495899301	 133370.
16:31:15 1321 1322	 1492792275	 658151631	 162253.
16:31:15 1322 1323	 1492792275	 824173304	 166021.
16:31:15 1323 1324	 1492792275	 985868572	 161695.
16:31:16 1324 1325	 1492792276	 147701651	 161833.
16:31:16 1325 1326	 1492792276	 313453425	 165752.
16:31:16 1326 1327	 1492792276	 475294337	 161841.
16:31:16 1327 1328	 1492792276	 641341693	 166047.
16:31:16 1328 1329	 1492792276	 803717752	 162376.
16:31:16 1329 1330	 1492792276	 941391074	 137674.
16:31:17 1330 1331	 1492792277	 103606377	 162215.
16:31:17 1331 1332	 1492792277	 269584865	 165979.
16:31:17 1332 1333	 1492792277	 431238739	 161653.
16:31:17 1333 1334	 1492792277	 592571155	 161333.
16:31:17 1334 1335	 1492792277	 758279144	 165708.
16:31:17 1335 1336	 1492792277	 891861902	 133583.
16:31:18 1336 1337	 1492792278	 57957042	 166095.
16:31:18 1337 1338	 1492792278	 220053283	 162096.
16:31:18 1338 1339	 1492792278	 386035535	 165982.
16:31:18 1339 1340	 1492792278	 547918047	 161883.
16:31:18 1340 1341	 1492792278	 709514905	 161597.
16:31:18 1341 1342	 1492792278	 846411203	 136896.
16:31:19 1342 1343	 1492792279	 8502467	 162091.
16:31:19 1343 1344	 1492792279	 174657117	 166155.
16:31:19 1344 1345	 1492792279	 336469001	 161812.
16:31:19 1345 1346	 1492792279	 502187051	 165718.
16:31:19 1346 1347	 1492792279	 663588198	 161401.
16:31:19 1347 1348	 1492792279	 796091316	 132503.
16:31:19 1348 1349	 1492792279	 961525006	 165434.
16:31:20 1349 1350	 1492792280	 123188680	 161663.
16:31:20 1350 1351	 1492792280	 289413275	 166225.
16:31:20 1351 1352	 1492792280	 451503427	 162090.
16:31:20 1352 1353	 1492792280	 617691138	 166188.
16:31:20 1353 1354	 1492792280	 779980892	 162290.
16:31:20 1354 1355	 1492792280	 946126578	 166145.
16:31:21 1355 1356	 1492792281	 108412177	 162286.
16:31:21 1356 1357	 1492792281	 270620340	 162208.
16:31:21 1357 1358	 1492792281	 408169358	 137549.
16:31:21 1358 1359	 1492792281	 569859869	 161691.
16:31:21 1359 1360	 1492792281	 732106137	 162246.
16:31:21 1360 1361	 1492792281	 898519917	 166414.
16:31:22 1361 1362	 1492792282	 60571829	 162052.
16:31:22 1362 1363	 1492792282	 226716126	 166144.
16:31:22 1363 1364	 1492792282	 388494705	 161778.
16:31:22 1364 1365	 1492792282	 554418010	 165924.
16:31:22 1365 1366	 1492792282	 716746177	 162328.
16:31:22 1366 1367	 1492792282	 878187204	 161441.
16:31:23 1367 1368	 1492792283	 40013525	 161826.
16:31:23 1368 1369	 1492792283	 173027673	 133014.
16:31:23 1369 1370	 1492792283	 338134012	 165107.
16:31:23 1370 1371	 1492792283	 499661777	 161528.
16:31:23 1371 1372	 1492792283	 665465482	 165803.
16:31:23 1372 1373	 1492792283	 797999254	 132534.
16:31:23 1373 1374	 1492792283	 959967363	 161968.
16:31:24 1374 1375	 1492792284	 125329347	 165362.
16:31:24 1375 1376	 1492792284	 286449252	 161120.
16:31:24 1376 1377	 1492792284	 452093386	 165644.
16:31:24 1377 1378	 1492792284	 584937606	 132844.
16:31:24 1378 1379	 1492792284	 746203341	 161266.
16:31:24 1379 1380	 1492792284	 911797455	 165594.
16:31:25 1380 1381	 1492792285	 73156774	 161359.
16:31:25 1381 1382	 1492792285	 234603197	 161447.
16:31:25 1382 1383	 1492792285	 371673831	 137071.
16:31:25 1383 1384	 1492792285	 533151218	 161477.
16:31:25 1384 1385	 1492792285	 698323056	 165172.
16:31:25 1385 1386	 1492792285	 859545596	 161222.
16:31:26 1386 1387	 1492792286	 21051837	 161507.
16:31:26 1387 1388	 1492792286	 158325129	 137273.
16:31:26 1388 1389	 1492792286	 319468624	 161143.
16:31:26 1389 1390	 1492792286	 480881699	 161413.
16:31:26 1390 1391	 1492792286	 646991545	 166110.
16:31:26 1391 1392	 1492792286	 808293144	 161302.
16:31:26 1392 1393	 1492792286	 973913794	 165621.
16:31:27 1393 1394	 1492792287	 106751112	 132837.
16:31:27 1394 1395	 1492792287	 268483658	 161732.
16:31:27 1395 1396	 1492792287	 434376278	 165893.
16:31:27 1396 1397	 1492792287	 596205387	 161829.
16:31:27 1397 1398	 1492792287	 761451959	 165247.
16:31:27 1398 1399	 1492792287	 893970231	 132518.
16:31:28 1399 1400	 1492792288	 58834268	 164864.
16:31:28 1400 1401	 1492792288	 219665853	 160832.
16:31:28 1401 1402	 1492792288	 356664224	 136998.
16:31:28 1402 1403	 1492792288	 518084139	 161420.
16:31:28 1403 1404	 1492792288	 683747897	 165664.
16:31:28 1404 1405	 1492792288	 849304714	 165556.
16:31:29 1405 1406	 1492792289	 10725464	 161421.
16:31:29 1406 1407	 1492792289	 143815276	 133090.
16:31:29 1407 1408	 1492792289	 309569391	 165754.
16:31:29 1408 1409	 1492792289	 471061852	 161493.
16:31:29 1409 1410	 1492792289	 637076478	 166014.
16:31:29 1410 1411	 1492792289	 798151084	 161075.
16:31:29 1411 1412	 1492792289	 963635104	 165484.
16:31:30 1412 1413	 1492792290	 96780805	 133146.
16:31:30 1413 1414	 1492792290	 261869165	 165088.
16:31:30 1414 1415	 1492792290	 423699581	 161830.
16:31:30 1415 1416	 1492792290	 585495216	 161796.
16:31:30 1416 1417	 1492792290	 750568496	 165073.
16:31:30 1417 1418	 1492792290	 883669898	 133102.
16:31:31 1418 1419	 1492792291	 49738240	 166068.
16:31:31 1419 1420	 1492792291	 211274343	 161536.
16:31:31 1420 1421	 1492792291	 377410070	 166136.
16:31:31 1421 1422	 1492792291	 539581816	 162172.
16:31:31 1422 1423	 1492792291	 701395650	 161813.
16:31:31 1423 1424	 1492792291	 838615386	 137220.
16:31:31 1424 1425	 1492792292	 641258	 162026.
16:31:32 1425 1426	 1492792292	 162220961	 161580.
16:31:32 1426 1427	 1492792292	 328383182	 166162.
16:31:32 1427 1428	 1492792292	 494610027	 166227.
16:31:32 1428 1429	 1492792292	 656575546	 161965.
16:31:32 1429 1430	 1492792292	 818314500	 161739.
16:31:32 1430 1431	 1492792292	 984068900	 165755.
16:31:33 1431 1432	 1492792293	 116919832	 132851.
16:31:33 1432 1433	 1492792293	 282961087	 166041.
16:31:33 1433 1434	 1492792293	 444407020	 161446.
16:31:33 1434 1435	 1492792293	 605620383	 161213.
16:31:33 1435 1436	 1492792293	 771517191	 165897.
16:31:33 1436 1437	 1492792293	 932818343	 161301.
16:31:34 1437 1438	 1492792294	 65590804	 132773.
16:31:34 1438 1439	 1492792294	 232200857	 166610.
16:31:34 1439 1440	 1492792294	 389314968	 157114.
16:31:34 1440 1441	 1492792294	 550748443	 161433.
16:31:34 1441 1442	 1492792294	 716059741	 165311.
16:31:34 1442 1443	 1492792294	 848498944	 132440.
16:31:35 1443 1444	 1492792295	 14217913	 165719.
16:31:35 1444 1445	 1492792295	 175939229	 161721.
16:31:35 1445 1446	 1492792295	 341227028	 165288.
16:31:35 1446 1447	 1492792295	 502742985	 161516.
16:31:35 1447 1448	 1492792295	 639576107	 136833.
16:31:35 1448 1449	 1492792295	 800775358	 161199.
16:31:35 1449 1450	 1492792295	 966729663	 165954.
16:31:36 1450 1451	 1492792296	 128860900	 162132.
16:31:36 1451 1452	 1492792296	 290983308	 162122.
16:31:36 1452 1453	 1492792296	 456493465	 165510.
16:31:36 1453 1454	 1492792296	 589528058	 133035.
16:31:36 1454 1455	 1492792296	 755758428	 166230.
16:31:36 1455 1456	 1492792296	 917985301	 162227.
16:31:37 1456 1457	 1492792297	 83913566	 165928.
16:31:37 1457 1458	 1492792297	 245723551	 161810.
16:31:37 1458 1459	 1492792297	 411864440	 166141.
16:31:37 1459 1460	 1492792297	 573915995	 162052.
16:31:37 1460 1461	 1492792297	 740335345	 166419.
16:31:37 1461 1462	 1492792297	 873466657	 133131.
16:31:38 1462 1463	 1492792298	 39240678	 165774.
16:31:38 1463 1464	 1492792298	 200577417	 161337.
16:31:38 1464 1465	 1492792298	 362239683	 161662.
16:31:38 1465 1466	 1492792298	 527802224	 165563.
16:31:38 1466 1467	 1492792298	 689118999	 161317.
16:31:38 1467 1468	 1492792298	 826374281	 137255.
16:31:38 1468 1469	 1492792298	 987642526	 161268.
16:31:39 1469 1470	 1492792299	 153362253	 165720.
16:31:39 1470 1471	 1492792299	 315597690	 162236.
16:31:39 1471 1472	 1492792299	 481616363	 166018.
16:31:39 1472 1473	 1492792299	 643789431	 162173.
16:31:39 1473 1474	 1492792299	 776868114	 133079.
16:31:39 1474 1475	 1492792299	 943062414	 166194.
16:31:40 1475 1476	 1492792300	 105016340	 161954.
16:31:40 1476 1477	 1492792300	 270432831	 165417.
16:31:40 1477 1478	 1492792300	 432519803	 162087.
16:31:40 1478 1479	 1492792300	 598468518	 165948.
16:31:40 1479 1480	 1492792300	 760610777	 162143.
16:31:40 1480 1481	 1492792300	 926971770	 166361.
16:31:41 1481 1482	 1492792301	 60211849	 133240.
16:31:41 1482 1483	 1492792301	 225731030	 165519.
16:31:41 1483 1484	 1492792301	 386633340	 160902.
16:31:41 1484 1485	 1492792301	 552202922	 165570.
16:31:41 1485 1486	 1492792301	 684857229	 132654.
16:31:41 1486 1487	 1492792301	 845821449	 160964.
16:31:42 1487 1488	 1492792302	 11150741	 165329.
16:31:42 1488 1489	 1492792302	 172453294	 161303.
16:31:42 1489 1490	 1492792302	 305212071	 132759.
16:31:42 1490 1491	 1492792302	 471010499	 165798.
16:31:42 1491 1492	 1492792302	 632870785	 161861.
16:31:42 1492 1493	 1492792302	 799227324	 166356.
16:31:42 1493 1494	 1492792302	 960938963	 161712.
16:31:43 1494 1495	 1492792303	 122620633	 161681.
16:31:43 1495 1496	 1492792303	 288910926	 166291.
16:31:43 1496 1497	 1492792303	 450860027	 161949.
16:31:43 1497 1498	 1492792303	 588112848	 137253.
16:31:43 1498 1499	 1492792303	 749935636	 161822.
16:31:43 1499 1500	 1492792303	 916010916	 166076.
16:31:44 1500 1501	 1492792304	 77802263	 161791.
16:31:44 1501 1502	 1492792304	 243462923	 165662.
16:31:44 1502 1503	 1492792304	 404924814	 161461.
16:31:44 1503 1504	 1492792304	 537867424	 132942.
16:31:44 1504 1505	 1492792304	 703399643	 165532.
16:31:44 1505 1506	 1492792304	 864953621	 161554.
16:31:45 1506 1507	 1492792305	 30763123	 165810.
16:31:45 1507 1508	 1492792305	 192011153	 161248.
16:31:45 1508 1509	 1492792305	 353848225	 161837.
16:31:45 1509 1510	 1492792305	 490744767	 136896.
16:31:45 1510 1511	 1492792305	 652246454	 161502.
16:31:45 1511 1512	 1492792305	 817713456	 165467.
16:31:45 1512 1513	 1492792305	 978711220	 160998.
16:31:46 1513 1514	 1492792306	 111383661	 132672.
16:31:46 1514 1515	 1492792306	 276589377	 165206.
16:31:46 1515 1516	 1492792306	 437880828	 161292.
16:31:46 1516 1517	 1492792306	 599365458	 161484.
16:31:46 1517 1518	 1492792306	 736202739	 136837.
16:31:46 1518 1519	 1492792306	 897567111	 161365.
16:31:47 1519 1520	 1492792307	 62759412	 165192.
16:31:47 1520 1521	 1492792307	 224219780	 161460.
16:31:47 1521 1522	 1492792307	 385966282	 161747.
16:31:47 1522 1523	 1492792307	 522830415	 136864.
16:31:47 1523 1524	 1492792307	 684535137	 161705.
16:31:47 1524 1525	 1492792307	 845561519	 161026.
16:31:48 1525 1526	 1492792308	 10752720	 165192.
16:31:48 1526 1527	 1492792308	 172215412	 161462.
16:31:48 1527 1528	 1492792308	 309033725	 136818.
16:31:48 1528 1529	 1492792308	 470410139	 161377.
16:31:48 1529 1530	 1492792308	 635887140	 165477.
16:31:48 1530 1531	 1492792308	 797062045	 161175.
16:31:48 1531 1532	 1492792308	 929519410	 132457.
16:31:49 1532 1533	 1492792309	 94869383	 165350.
16:31:49 1533 1534	 1492792309	 255882737	 161013.
16:31:49 1534 1535	 1492792309	 421399910	 165518.
16:31:49 1535 1536	 1492792309	 553832853	 132433.
16:31:49 1536 1537	 1492792309	 714994088	 161161.
16:31:49 1537 1538	 1492792309	 880811649	 165817.
16:31:50 1538 1539	 1492792310	 42243189	 161432.
16:31:50 1539 1540	 1492792310	 174894500	 132651.
16:31:50 1540 1541	 1492792310	 340437445	 165543.
16:31:50 1541 1542	 1492792310	 502114127	 161677.
16:31:50 1542 1543	 1492792310	 667626820	 165512.
16:31:50 1543 1544	 1492792310	 829057116	 161431.
16:31:50 1544 1545	 1492792310	 990660920	 161604.
16:31:51 1545 1546	 1492792311	 128166917	 137506.
16:31:51 1546 1547	 1492792311	 289304428	 161137.
16:31:51 1547 1548	 1492792311	 455033098	 165729.
16:31:51 1548 1549	 1492792311	 617247352	 162214.
16:31:51 1549 1550	 1492792311	 783694084	 166447.
16:31:51 1550 1551	 1492792311	 945343967	 161650.
16:31:52 1551 1552	 1492792312	 82463141	 137119.
16:31:52 1552 1553	 1492792312	 243709980	 161247.
16:31:52 1553 1554	 1492792312	 405237509	 161527.
16:31:52 1554 1555	 1492792312	 570879105	 165642.
16:31:52 1555 1556	 1492792312	 732158963	 161280.
16:31:52 1556 1557	 1492792312	 869124409	 136965.
16:31:53 1557 1558	 1492792313	 30602232	 161478.
16:31:53 1558 1559	 1492792313	 192088503	 161486.
16:31:53 1559 1560	 1492792313	 357526264	 165438.
16:31:53 1560 1561	 1492792313	 518871502	 161345.
16:31:53 1561 1562	 1492792313	 651549957	 132679.
16:31:53 1562 1563	 1492792313	 817612183	 166062.
16:31:53 1563 1564	 1492792313	 979127097	 161515.
16:31:54 1564 1565	 1492792314	 144795751	 165668.
16:31:54 1565 1566	 1492792314	 306226106	 161431.
16:31:54 1566 1567	 1492792314	 467338609	 161112.
16:31:54 1567 1568	 1492792314	 604387951	 137050.
16:31:54 1568 1569	 1492792314	 765862197	 161474.
16:31:54 1569 1570	 1492792314	 931272875	 165411.
16:31:55 1570 1571	 1492792315	 92852636	 161579.
16:31:55 1571 1572	 1492792315	 258300180	 165448.
16:31:55 1572 1573	 1492792315	 391255773	 132956.
16:31:55 1573 1574	 1492792315	 552644143	 161388.
16:31:55 1574 1575	 1492792315	 717846805	 165203.
16:31:55 1575 1576	 1492792315	 879581065	 161734.
16:31:56 1576 1577	 1492792316	 45475982	 165895.
16:31:56 1577 1578	 1492792316	 177992649	 132516.
16:31:56 1578 1579	 1492792316	 339674802	 161683.
16:31:56 1579 1580	 1492792316	 505272766	 165597.
16:31:56 1580 1581	 1492792316	 666763786	 161492.
16:31:56 1581 1582	 1492792316	 832544720	 165780.
16:31:56 1582 1583	 1492792316	 965384459	 132840.
16:31:57 1583 1584	 1492792317	 126957404	 161573.
16:31:57 1584 1585	 1492792317	 292649775	 165692.
16:31:57 1585 1586	 1492792317	 453511566	 160862.
16:31:57 1586 1587	 1492792317	 585950419	 132439.
16:31:57 1587 1588	 1492792317	 751393027	 165443.
16:31:57 1588 1589	 1492792317	 912054510	 160661.
16:31:58 1589 1590	 1492792318	 77535126	 165481.
16:31:58 1590 1591	 1492792318	 209795777	 132260.
16:31:58 1591 1592	 1492792318	 370617875	 160823.
16:31:58 1592 1593	 1492792318	 536140003	 165522.
16:31:58 1593 1594	 1492792318	 668461949	 132322.
16:31:58 1594 1595	 1492792318	 833445235	 164983.
16:31:58 1595 1596	 1492792318	 994489720	 161045.
16:31:59 1596 1597	 1492792319	 159355790	 164866.
16:31:59 1597 1598	 1492792319	 291906413	 132550.
16:31:59 1598 1599	 1492792319	 453050105	 161144.
16:31:59 1599 1600	 1492792319	 618065597	 165015.
16:31:59 1600 1601	 1492792319	 750867077	 132802.
16:31:59 1601 1602	 1492792319	 911921679	 161054.
16:32:00 1602 1603	 1492792320	 77141679	 165220.
16:32:00 1603 1604	 1492792320	 238416949	 161276.
16:32:00 1604 1605	 1492792320	 371405129	 132988.
16:32:00 1605 1606	 1492792320	 537200147	 165795.
16:32:00 1606 1607	 1492792320	 698719331	 161519.
16:32:00 1607 1608	 1492792320	 863958671	 165239.
16:32:01 1608 1609	 1492792321	 24886340	 160928.
16:32:01 1609 1610	 1492792321	 157810542	 132924.
16:32:01 1610 1611	 1492792321	 323399917	 165590.
16:32:01 1611 1612	 1492792321	 485181359	 161781.
16:32:01 1612 1613	 1492792321	 646911177	 161730.
16:32:01 1613 1614	 1492792321	 812601168	 165690.
16:32:01 1614 1615	 1492792321	 974265407	 161664.
16:32:02 1615 1616	 1492792322	 140482934	 166218.
16:32:02 1616 1617	 1492792322	 298028129	 157545.
16:32:02 1617 1618	 1492792322	 430833893	 132806.
16:32:02 1618 1619	 1492792322	 596221491	 165387.
16:32:02 1619 1620	 1492792322	 757823986	 161603.
16:32:02 1620 1621	 1492792322	 923077343	 165253.
16:32:03 1621 1622	 1492792323	 84602838	 161526.
16:32:03 1622 1623	 1492792323	 217635497	 133032.
16:32:03 1623 1624	 1492792323	 382746476	 165111.
16:32:03 1624 1625	 1492792323	 543830170	 161084.
16:32:03 1625 1626	 1492792323	 709199412	 165369.
16:32:03 1626 1627	 1492792323	 841685221	 132486.
16:32:04 1627 1628	 1492792324	 2905895	 161221.
16:32:04 1628 1629	 1492792324	 168744507	 165838.
16:32:04 1629 1630	 1492792324	 330441066	 161697.
16:32:04 1630 1631	 1492792324	 495999029	 165558.
16:32:04 1631 1632	 1492792324	 629317614	 133318.
16:32:04 1632 1633	 1492792324	 794796993	 165480.
16:32:04 1633 1634	 1492792324	 956421938	 161625.
16:32:05 1634 1635	 1492792325	 122041946	 165620.
16:32:05 1635 1636	 1492792325	 283405971	 161364.
16:32:05 1636 1637	 1492792325	 420567486	 137161.
16:32:05 1637 1638	 1492792325	 582043163	 161476.
16:32:05 1638 1639	 1492792325	 748003935	 165961.
16:32:05 1639 1640	 1492792325	 909642757	 161638.
16:32:06 1640 1641	 1492792326	 70923442	 161281.
16:32:06 1641 1642	 1492792326	 236397735	 165474.
16:32:06 1642 1643	 1492792326	 369461955	 133065.
16:32:06 1643 1644	 1492792326	 535194791	 165733.
16:32:06 1644 1645	 1492792326	 696907094	 161712.
16:32:06 1645 1646	 1492792326	 862733790	 165827.
16:32:07 1646 1647	 1492792327	 24437689	 161703.
16:32:07 1647 1648	 1492792327	 190149665	 165712.
16:32:07 1648 1649	 1492792327	 323218344	 133069.
16:32:07 1649 1650	 1492792327	 484924946	 161707.
16:32:07 1650 1651	 1492792327	 650991807	 166067.
16:32:07 1651 1652	 1492792327	 812508845	 161517.
16:32:07 1652 1653	 1492792327	 977711345	 165202.
16:32:08 1653 1654	 1492792328	 110411007	 132700.
16:32:08 1654 1655	 1492792328	 275993022	 165582.
16:32:08 1655 1656	 1492792328	 437007159	 161014.
16:32:08 1656 1657	 1492792328	 602744700	 165737.
16:32:08 1657 1658	 1492792328	 735436774	 132693.
16:32:08 1658 1659	 1492792328	 897332899	 161896.
16:32:09 1659 1660	 1492792329	 63165918	 165833.
16:32:09 1660 1661	 1492792329	 228672786	 165507.
16:32:09 1661 1662	 1492792329	 361486590	 132813.
16:32:09 1662 1663	 1492792329	 523322802	 161837.
16:32:09 1663 1664	 1492792329	 689265067	 165942.
16:32:09 1664 1665	 1492792329	 850770823	 161506.
16:32:10 1665 1666	 1492792330	 16391791	 165621.
16:32:10 1666 1667	 1492792330	 149384778	 132992.
16:32:10 1667 1668	 1492792330	 315519952	 166136.
16:32:10 1668 1669	 1492792330	 477517069	 161997.
16:32:10 1669 1670	 1492792330	 643345019	 165828.
16:32:10 1670 1671	 1492792330	 804926157	 161581.
16:32:10 1671 1672	 1492792330	 942126726	 137200.
16:32:11 1672 1673	 1492792331	 103990025	 161864.
16:32:11 1673 1674	 1492792331	 269611077	 165621.
16:32:11 1674 1675	 1492792331	 431495116	 161884.
16:32:11 1675 1676	 1492792331	 597455168	 165960.
16:32:11 1676 1677	 1492792331	 759141959	 161687.
16:32:11 1677 1678	 1492792331	 892079140	 132937.
16:32:12 1678 1679	 1492792332	 58153023	 166074.
16:32:12 1679 1680	 1492792332	 220090762	 161937.
16:32:12 1680 1681	 1492792332	 385812045	 165722.
16:32:12 1681 1682	 1492792332	 548073803	 162262.
16:32:12 1682 1683	 1492792332	 685160018	 137086.
16:32:12 1683 1684	 1492792332	 847265341	 162105.
16:32:13 1684 1685	 1492792333	 13291886	 166027.
16:32:13 1685 1686	 1492792333	 175335812	 162044.
16:32:13 1686 1687	 1492792333	 340590907	 165255.
16:32:13 1687 1688	 1492792333	 501979124	 161388.
16:32:13 1688 1689	 1492792333	 634994320	 133015.
16:32:13 1689 1690	 1492792333	 800858486	 165864.
16:32:13 1690 1691	 1492792333	 962795372	 161937.
16:32:14 1691 1692	 1492792334	 128905467	 166110.
16:32:14 1692 1693	 1492792334	 291070899	 162166.
16:32:14 1693 1694	 1492792334	 452986331	 161915.
16:32:14 1694 1695	 1492792334	 615246482	 162260.
16:32:14 1695 1696	 1492792334	 781424959	 166179.
16:32:14 1696 1697	 1492792334	 943396421	 161971.
16:32:15 1697 1698	 1492792335	 109462922	 166067.
16:32:15 1698 1699	 1492792335	 271624899	 162162.
16:32:15 1699 1700	 1492792335	 433689034	 162064.
16:32:15 1700 1701	 1492792335	 599719980	 166031.
16:32:15 1701 1702	 1492792335	 761627295	 161907.
16:32:15 1702 1703	 1492792335	 927642765	 166015.
16:32:16 1703 1704	 1492792336	 89744636	 162102.
16:32:16 1704 1705	 1492792336	 227127023	 137383.
16:32:16 1705 1706	 1492792336	 388964664	 161837.
16:32:16 1706 1707	 1492792336	 555380313	 166416.
16:32:16 1707 1708	 1492792336	 717661167	 162281.
16:32:16 1708 1709	 1492792336	 883747202	 166086.
16:32:17 1709 1710	 1492792337	 16909713	 133163.
16:32:17 1710 1711	 1492792337	 182843085	 165933.
16:32:17 1711 1712	 1492792337	 344817996	 161975.
16:32:17 1712 1713	 1492792337	 510878138	 166060.
16:32:17 1713 1714	 1492792337	 673243584	 162365.
16:32:17 1714 1715	 1492792337	 839503852	 166261.
16:32:17 1715 1716	 1492792338	 1727716	 162223.
16:32:18 1716 1717	 1492792338	 135168585	 133441.
16:32:18 1717 1718	 1492792338	 301251552	 166083.
16:32:18 1718 1719	 1492792338	 462993628	 161742.
16:32:18 1719 1720	 1492792338	 628645920	 165653.
16:32:18 1720 1721	 1492792338	 790192000	 161546.
16:32:18 1721 1722	 1492792338	 952552701	 162360.
16:32:19 1722 1723	 1492792339	 109922381	 157370.
16:32:19 1723 1724	 1492792339	 275510556	 165588.
16:32:19 1724 1725	 1492792339	 408527969	 133018.
16:32:19 1725 1726	 1492792339	 574245953	 165718.
16:32:19 1726 1727	 1492792339	 739896313	 165650.
16:32:19 1727 1728	 1492792339	 901188184	 161292.
16:32:20 1728 1729	 1492792340	 62598799	 161411.
16:32:20 1729 1730	 1492792340	 228108817	 165510.
16:32:20 1730 1731	 1492792340	 361408431	 133299.
16:32:20 1731 1732	 1492792340	 527396830	 165989.
16:32:20 1732 1733	 1492792340	 689304733	 161907.
16:32:20 1733 1734	 1492792340	 855456991	 166153.
16:32:21 1734 1735	 1492792341	 17301979	 161845.
16:32:21 1735 1736	 1492792341	 178778382	 161476.
16:32:21 1736 1737	 1492792341	 344729140	 165951.
16:32:21 1737 1738	 1492792341	 477911414	 133182.
16:32:21 1738 1739	 1492792341	 643647294	 165736.
16:32:21 1739 1740	 1492792341	 805221703	 161574.
16:32:21 1740 1741	 1492792341	 971114776	 165894.
16:32:22 1741 1742	 1492792342	 133112307	 161997.
16:32:22 1742 1743	 1492792342	 299135675	 166023.
16:32:22 1743 1744	 1492792342	 432132880	 132998.
16:32:22 1744 1745	 1492792342	 598562196	 166429.
16:32:22 1745 1746	 1492792342	 760687637	 162125.
16:32:22 1746 1747	 1492792342	 926563035	 165876.
16:32:23 1747 1748	 1492792343	 88349507	 161786.
16:32:23 1748 1749	 1492792343	 254207904	 165859.
16:32:23 1749 1750	 1492792343	 416078069	 161870.
16:32:23 1750 1751	 1492792343	 553566515	 137488.
16:32:23 1751 1752	 1492792343	 715162605	 161596.
16:32:23 1752 1753	 1492792343	 877074413	 161912.
16:32:24 1753 1754	 1492792344	 43109676	 166035.
16:32:24 1754 1755	 1492792344	 208981993	 165873.
16:32:24 1755 1756	 1492792344	 342001366	 133019.
16:32:24 1756 1757	 1492792344	 503915711	 161914.
16:32:24 1757 1758	 1492792344	 669782969	 165868.
16:32:24 1758 1759	 1492792344	 831765804	 161983.
16:32:24 1759 1760	 1492792344	 997706413	 165940.
16:32:25 1760 1761	 1492792345	 159258867	 161553.
16:32:25 1761 1762	 1492792345	 296366605	 137107.
16:32:25 1762 1763	 1492792345	 458373453	 162007.
16:32:25 1763 1764	 1492792345	 624226092	 165853.
16:32:25 1764 1765	 1492792345	 786507120	 162281.
16:32:25 1765 1766	 1492792345	 948767813	 162261.
16:32:26 1766 1767	 1492792346	 114599678	 165831.
16:32:26 1767 1768	 1492792346	 280951398	 166352.
16:32:26 1768 1769	 1492792346	 442894218	 161943.
16:32:26 1769 1770	 1492792346	 576071746	 133178.
16:32:26 1770 1771	 1492792346	 741921207	 165849.
16:32:26 1771 1772	 1492792346	 903795481	 161874.
16:32:27 1772 1773	 1492792347	 69407580	 165612.
16:32:27 1773 1774	 1492792347	 230961306	 161554.
16:32:27 1774 1775	 1492792347	 368296259	 137335.
16:32:27 1775 1776	 1492792347	 530321987	 162026.
16:32:27 1776 1777	 1492792347	 696139281	 165817.
16:32:27 1777 1778	 1492792347	 857769537	 161630.
16:32:27 1778 1779	 1492792347	 994397091	 136628.
16:32:28 1779 1780	 1492792348	 155903983	 161507.
16:32:28 1780 1781	 1492792348	 321655048	 165751.
16:32:28 1781 1782	 1492792348	 483262864	 161608.
16:32:28 1782 1783	 1492792348	 645181295	 161918.
16:32:28 1783 1784	 1492792348	 782072438	 136891.
16:32:28 1784 1785	 1492792348	 944294877	 162223.
16:32:29 1785 1786	 1492792349	 110370117	 166075.
16:32:29 1786 1787	 1492792349	 272754763	 162384.
16:32:29 1787 1788	 1492792349	 438614269	 165860.
16:32:29 1788 1789	 1492792349	 571499973	 132886.
16:32:29 1789 1790	 1492792349	 737108749	 165608.
16:32:29 1790 1791	 1492792349	 898709573	 161601.
16:32:30 1791 1792	 1492792350	 64392033	 165683.
16:32:30 1792 1793	 1492792350	 222481914	 158090.
16:32:30 1793 1794	 1492792350	 356129113	 133647.
16:32:30 1794 1795	 1492792350	 522390146	 166261.
16:32:30 1795 1796	 1492792350	 684461600	 162071.
16:32:30 1796 1797	 1492792350	 850406970	 165946.
16:32:31 1797 1798	 1492792351	 12433206	 162026.
16:32:31 1798 1799	 1492792351	 174436704	 162003.
16:32:31 1799 1800	 1492792351	 340302539	 165866.
16:32:31 1800 1801	 1492792351	 501709732	 161407.
16:32:31 1801 1802	 1492792351	 667299273	 165590.
16:32:31 1802 1803	 1492792351	 800151585	 132852.
16:32:31 1803 1804	 1492792351	 965558438	 165407.
16:32:32 1804 1805	 1492792352	 127042071	 161484.
16:32:32 1805 1806	 1492792352	 292535431	 165493.
16:32:32 1806 1807	 1492792352	 425716034	 133181.
16:32:32 1807 1808	 1492792352	 591760518	 166044.
16:32:32 1808 1809	 1492792352	 753742776	 161983.
16:32:32 1809 1810	 1492792352	 919733476	 165990.
16:32:33 1810 1811	 1492792353	 81735042	 162002.
16:32:33 1811 1812	 1492792353	 218521230	 136786.
16:32:33 1812 1813	 1492792353	 380336914	 161816.
16:32:33 1813 1814	 1492792353	 546160693	 165823.
16:32:33 1814 1815	 1492792353	 708484640	 162324.
16:32:33 1815 1816	 1492792353	 845331812	 136847.
16:32:34 1816 1817	 1492792354	 7727732	 162396.
16:32:34 1817 1818	 1492792354	 173619278	 165892.
16:32:34 1818 1819	 1492792354	 335603588	 161984.
16:32:34 1819 1820	 1492792354	 501610289	 166007.
16:32:34 1820 1821	 1492792354	 634440029	 132830.
16:32:34 1821 1822	 1492792354	 800382978	 165943.
16:32:34 1822 1823	 1492792354	 961980995	 161598.
16:32:35 1823 1824	 1492792355	 127789941	 165809.
16:32:35 1824 1825	 1492792355	 289426993	 161637.
16:32:35 1825 1826	 1492792355	 426740991	 137314.
16:32:35 1826 1827	 1492792355	 588176330	 161435.
16:32:35 1827 1828	 1492792355	 749578216	 161402.
16:32:35 1828 1829	 1492792355	 915384305	 165806.
16:32:36 1829 1830	 1492792356	 48664840	 133281.
16:32:36 1830 1831	 1492792356	 214600268	 165935.
16:32:36 1831 1832	 1492792356	 376681554	 162081.
16:32:36 1832 1833	 1492792356	 542751243	 166070.
16:32:36 1833 1834	 1492792356	 704889851	 162139.
16:32:36 1834 1835	 1492792356	 871093951	 166204.
16:32:37 1835 1836	 1492792357	 4340775	 133247.
16:32:37 1836 1837	 1492792357	 170029240	 165688.
16:32:37 1837 1838	 1492792357	 331807225	 161778.
16:32:37 1838 1839	 1492792357	 497839891	 166033.
16:32:37 1839 1840	 1492792357	 659734914	 161895.
16:32:37 1840 1841	 1492792357	 796723604	 136988.
16:32:37 1841 1842	 1492792357	 962213379	 165490.
16:32:38 1842 1843	 1492792358	 123629461	 161416.
16:32:38 1843 1844	 1492792358	 260789384	 137160.
16:32:38 1844 1845	 1492792358	 422427998	 161639.
16:32:38 1845 1846	 1492792358	 587912616	 165484.
16:32:38 1846 1847	 1492792358	 749362146	 161450.
16:32:38 1847 1848	 1492792358	 886492819	 137131.
16:32:39 1848 1849	 1492792359	 47861926	 161369.
16:32:39 1849 1850	 1492792359	 213730792	 165872.
16:32:39 1850 1851	 1492792359	 346713344	 132979.
16:32:39 1851 1852	 1492792359	 512512641	 165799.
16:32:39 1852 1853	 1492792359	 674550683	 162038.
16:32:39 1853 1854	 1492792359	 840079935	 165530.
16:32:39 1854 1855	 1492792359	 973020341	 132940.
16:32:40 1855 1856	 1492792360	 138702130	 165682.
16:32:40 1856 1857	 1492792360	 300144968	 161443.
16:32:40 1857 1858	 1492792360	 465994564	 165849.
16:32:40 1858 1859	 1492792360	 599269638	 133275.
16:32:40 1859 1860	 1492792360	 764979633	 165710.
16:32:40 1860 1861	 1492792360	 926864435	 161885.
16:32:41 1861 1862	 1492792361	 92544993	 165681.
16:32:41 1862 1863	 1492792361	 254351259	 161806.
16:32:41 1863 1864	 1492792361	 391749000	 137398.
16:32:41 1864 1865	 1492792361	 553806696	 162057.
16:32:41 1865 1866	 1492792361	 719468510	 165662.
16:32:41 1866 1867	 1492792361	 881288546	 161820.
16:32:42 1867 1868	 1492792362	 17939609	 136651.
16:32:42 1868 1869	 1492792362	 179349664	 161410.
16:32:42 1869 1870	 1492792362	 345563675	 166214.
16:32:42 1870 1871	 1492792362	 507836490	 162273.
16:32:42 1871 1872	 1492792362	 673431738	 165595.
16:32:42 1872 1873	 1492792362	 806672461	 133241.
16:32:42 1873 1874	 1492792362	 972320765	 165648.
16:32:43 1874 1875	 1492792363	 134366865	 162047.
16:32:43 1875 1876	 1492792363	 299946672	 165579.
16:32:43 1876 1877	 1492792363	 462144626	 162198.
16:32:43 1877 1878	 1492792363	 599596905	 137453.
16:32:43 1878 1879	 1492792363	 761904163	 162307.
16:32:43 1879 1880	 1492792363	 928022244	 166118.
16:32:44 1880 1881	 1492792364	 90203053	 162181.
16:32:44 1881 1882	 1492792364	 255987165	 165784.
16:32:44 1882 1883	 1492792364	 417862536	 161875.
16:32:44 1883 1884	 1492792364	 555397963	 137536.
16:32:44 1884 1885	 1492792364	 717289199	 161891.
16:32:44 1885 1886	 1492792364	 883168216	 165879.
16:32:45 1886 1887	 1492792365	 45101786	 161934.
16:32:45 1887 1888	 1492792365	 178168124	 133066.
16:32:45 1888 1889	 1492792365	 344027599	 165859.
16:32:45 1889 1890	 1492792365	 510063742	 166036.
16:32:45 1890 1891	 1492792365	 671744142	 161681.
16:32:45 1891 1892	 1492792365	 804812444	 133068.
16:32:45 1892 1893	 1492792365	 970601475	 165789.
16:32:46 1893 1894	 1492792366	 132417768	 161816.
16:32:46 1894 1895	 1492792366	 298447760	 166030.
16:32:46 1895 1896	 1492792366	 460236937	 161790.
