15:50:44    0 Step	 time(s)	 time(ns)	 delta(ms)
15:50:44    0 1	 1492703444	 688045217	 896.
15:50:44    1 2	 1492703444	 850206286	 162161.
15:50:45    2 3	 1492703445	 16506595	 166300.
15:50:45    3 4	 1492703445	 179002703	 162496.
15:50:45    4 5	 1492703445	 345212950	 166211.
15:50:45    5 6	 1492703445	 511657467	 166444.
15:50:45    6 7	 1492703445	 673578633	 161921.
15:50:45    7 8	 1492703445	 811048784	 137470.
15:50:45    8 9	 1492703445	 972743427	 161695.
15:50:46    9 10	 1492703446	 139288142	 166545.
15:50:46   10 11	 1492703446	 301169926	 161882.
15:50:46   11 12	 1492703446	 467387461	 166217.
15:50:46   12 13	 1492703446	 629195649	 161808.
15:50:46   13 14	 1492703446	 766484270	 137289.
15:50:46   14 15	 1492703446	 928723145	 162239.
15:50:47   15 16	 1492703447	 94841874	 166119.
15:50:47   16 17	 1492703447	 257034161	 162192.
15:50:47   17 18	 1492703447	 423167794	 166133.
15:50:47   18 19	 1492703447	 585471028	 162304.
15:50:47   19 20	 1492703447	 722903258	 137432.
15:50:47   20 21	 1492703447	 884594331	 161691.
15:50:48   21 22	 1492703448	 50517727	 165923.
15:50:48   22 23	 1492703448	 212435631	 161918.
15:50:48   23 24	 1492703448	 378401510	 165966.
15:50:48   24 25	 1492703448	 511753215	 133352.
15:50:48   25 26	 1492703448	 677699551	 165946.
15:50:48   26 27	 1492703448	 839479114	 161780.
15:50:49   27 28	 1492703449	 5658066	 166179.
15:50:49   28 29	 1492703449	 167509776	 161851.
15:50:49   29 30	 1492703449	 304932697	 137423.
15:50:49   30 31	 1492703449	 467261912	 162330.
15:50:49   31 32	 1492703449	 633305606	 166043.
15:50:49   32 33	 1492703449	 795099030	 161794.
15:50:49   33 34	 1492703449	 961024840	 165926.
15:50:50   34 35	 1492703450	 119476522	 158451.
15:50:50   35 36	 1492703450	 256523082	 137047.
15:50:50   36 37	 1492703450	 418403919	 161881.
15:50:50   37 38	 1492703450	 584418785	 166014.
15:50:50   38 39	 1492703450	 746408129	 161990.
15:50:50   39 40	 1492703450	 883740850	 137332.
15:50:51   40 41	 1492703451	 46281059	 162541.
15:50:51   41 42	 1492703451	 211989142	 165708.
15:50:51   42 43	 1492703451	 373554866	 161566.
15:50:51   43 44	 1492703451	 539541365	 165986.
15:50:51   44 45	 1492703451	 701622510	 162082.
15:50:51   45 46	 1492703451	 839112520	 137489.
15:50:52   46 47	 1492703452	 5591711	 166479.
15:50:52   47 48	 1492703452	 167488342	 161897.
15:50:52   48 49	 1492703452	 333480308	 165992.
15:50:52   49 50	 1492703452	 495685594	 162205.
15:50:52   50 51	 1492703452	 661287893	 165603.
15:50:52   51 52	 1492703452	 794387054	 133099.
15:50:52   52 53	 1492703452	 956354543	 161967.
15:50:53   53 54	 1492703453	 122324340	 165970.
15:50:53   54 55	 1492703453	 284102215	 161778.
15:50:53   55 56	 1492703453	 449921198	 165819.
15:50:53   56 57	 1492703453	 583317358	 133396.
15:50:53   57 58	 1492703453	 749126735	 165809.
15:50:53   58 59	 1492703453	 911016846	 161891.
15:50:54   59 60	 1492703454	 76924111	 165907.
15:50:54   60 61	 1492703454	 210048010	 133124.
15:50:54   61 62	 1492703454	 375914321	 165866.
15:50:54   62 63	 1492703454	 537813954	 161900.
15:50:54   63 64	 1492703454	 704064062	 166250.
15:50:54   64 65	 1492703454	 866073940	 162010.
15:50:55   65 66	 1492703455	 3726952	 137653.
15:50:55   66 67	 1492703455	 169577542	 165850.
15:50:55   67 68	 1492703455	 331461921	 161885.
15:50:55   68 69	 1492703455	 497549256	 166087.
15:50:55   69 70	 1492703455	 659445702	 161896.
15:50:55   70 71	 1492703455	 796824738	 137379.
15:50:55   71 72	 1492703455	 959136515	 162312.
15:50:56   72 73	 1492703456	 125172173	 166036.
15:50:56   73 74	 1492703456	 286886421	 161714.
15:50:56   74 75	 1492703456	 452805698	 165919.
15:50:56   75 76	 1492703456	 586063796	 133258.
15:50:56   76 77	 1492703456	 752174110	 166111.
15:50:56   77 78	 1492703456	 914192036	 162018.
15:50:57   78 79	 1492703457	 79991839	 165800.
15:50:57   79 80	 1492703457	 241475753	 161483.
15:50:57   80 81	 1492703457	 378408836	 136933.
15:50:57   81 82	 1492703457	 540346149	 161938.
15:50:57   82 83	 1492703457	 702245012	 161899.
15:50:57   83 84	 1492703457	 839058737	 136813.
15:50:58   84 85	 1492703458	 5140329	 166082.
15:50:58   85 86	 1492703458	 167319552	 162179.
15:50:58   86 87	 1492703458	 333592152	 166273.
15:50:58   87 88	 1492703458	 495568383	 161976.
15:50:58   88 89	 1492703458	 632633014	 137065.
15:50:58   89 90	 1492703458	 794600185	 161967.
15:50:58   90 91	 1492703458	 960727061	 166127.
15:50:59   91 92	 1492703459	 122538015	 161811.
15:50:59   92 93	 1492703459	 288227586	 165689.
15:50:59   93 94	 1492703459	 421336247	 133109.
15:50:59   94 95	 1492703459	 587326530	 165990.
15:50:59   95 96	 1492703459	 749429830	 162103.
15:50:59   96 97	 1492703459	 915155408	 165726.
15:51:00   97 98	 1492703460	 48491991	 133337.
15:51:00   98 99	 1492703460	 214147526	 165655.
15:51:00   99 100	 1492703460	 376293198	 162146.
15:51:00  100 101	 1492703460	 542423489	 166130.
15:51:00  101 102	 1492703460	 704287123	 161864.
15:51:00  102 103	 1492703460	 841613903	 137327.
15:51:01  103 104	 1492703461	 3270074	 161656.
15:51:01  104 105	 1492703461	 169138042	 165868.
15:51:01  105 106	 1492703461	 335502831	 166364.
15:51:01  106 107	 1492703461	 496793555	 161291.
15:51:01  107 108	 1492703461	 629606170	 132813.
15:51:01  108 109	 1492703461	 795511485	 165905.
15:51:01  109 110	 1492703461	 957162214	 161651.
15:51:02  110 111	 1492703462	 118779156	 161617.
15:51:02  111 112	 1492703462	 284321687	 165542.
15:51:02  112 113	 1492703462	 445947928	 161627.
15:51:02  113 114	 1492703462	 582949349	 137001.
15:51:02  114 115	 1492703462	 744262025	 161313.
15:51:02  115 116	 1492703462	 905707273	 161445.
15:51:03  116 117	 1492703463	 71354025	 165647.
15:51:03  117 118	 1492703463	 233033305	 161679.
15:51:03  118 119	 1492703463	 369816020	 136783.
15:51:03  119 120	 1492703463	 531275631	 161459.
15:51:03  120 121	 1492703463	 693056260	 161781.
15:51:03  121 122	 1492703463	 858561021	 165505.
15:51:04  122 123	 1492703464	 20448711	 161888.
15:51:04  123 124	 1492703464	 157472694	 137023.
15:51:04  124 125	 1492703464	 319181857	 161710.
15:51:04  125 126	 1492703464	 485023074	 165841.
15:51:04  126 127	 1492703464	 646395535	 161372.
15:51:04  127 128	 1492703464	 811858755	 165463.
15:51:04  128 129	 1492703464	 944436192	 132578.
15:51:05  129 130	 1492703465	 109664777	 165228.
15:51:05  130 131	 1492703465	 270847634	 161183.
15:51:05  131 132	 1492703465	 432378200	 161531.
15:51:05  132 133	 1492703465	 569553544	 137175.
15:51:05  133 134	 1492703465	 731036594	 161483.
15:51:05  134 135	 1492703465	 892661742	 161625.
15:51:06  135 136	 1492703466	 58453995	 165793.
15:51:06  136 137	 1492703466	 224223238	 165769.
15:51:06  137 138	 1492703466	 357239702	 133016.
15:51:06  138 139	 1492703466	 523049440	 165810.
15:51:06  139 140	 1492703466	 684977716	 161929.
15:51:06  140 141	 1492703466	 851836737	 166858.
15:51:07  141 142	 1492703467	 9373782	 157537.
15:51:07  142 143	 1492703467	 171007964	 161635.
15:51:07  143 144	 1492703467	 336517914	 165510.
15:51:07  144 145	 1492703467	 498091779	 161573.
15:51:07  145 146	 1492703467	 631228574	 133137.
15:51:07  146 147	 1492703467	 797231820	 166003.
15:51:07  147 148	 1492703467	 959195803	 161964.
15:51:08  148 149	 1492703468	 125300335	 166105.
15:51:08  149 150	 1492703468	 287310455	 162010.
15:51:08  150 151	 1492703468	 453034127	 165724.
15:51:08  151 152	 1492703468	 615254304	 162220.
15:51:08  152 153	 1492703468	 777718279	 162464.
15:51:08  153 154	 1492703468	 943898192	 166180.
15:51:09  154 155	 1492703469	 106375718	 162477.
15:51:09  155 156	 1492703469	 272241235	 165866.
15:51:09  156 157	 1492703469	 434290074	 162049.
15:51:09  157 158	 1492703469	 600424344	 166134.
15:51:09  158 159	 1492703469	 762186923	 161763.
15:51:09  159 160	 1492703469	 895183013	 132996.
15:51:10  160 161	 1492703470	 60977537	 165794.
15:51:10  161 162	 1492703470	 222766179	 161789.
15:51:10  162 163	 1492703470	 388250687	 165484.
15:51:10  163 164	 1492703470	 550140430	 161890.
15:51:10  164 165	 1492703470	 712113509	 161973.
15:51:10  165 166	 1492703470	 878112585	 165999.
15:51:11  166 167	 1492703471	 39805774	 161693.
15:51:11  167 168	 1492703471	 205229764	 165425.
15:51:11  168 169	 1492703471	 338460792	 133230.
15:51:11  169 170	 1492703471	 500209897	 161750.
15:51:11  170 171	 1492703471	 665943720	 165733.
15:51:11  171 172	 1492703471	 827892645	 161949.
15:51:11  172 173	 1492703471	 993650214	 165758.
15:51:12  173 174	 1492703472	 155188647	 161538.
15:51:12  174 175	 1492703472	 316773597	 161585.
15:51:12  175 176	 1492703472	 453922702	 137149.
15:51:12  176 177	 1492703472	 615594964	 161673.
15:51:12  177 178	 1492703472	 781283841	 165689.
15:51:12  178 179	 1492703472	 942917150	 161633.
15:51:13  179 180	 1492703473	 108560129	 165643.
15:51:13  180 181	 1492703473	 269960229	 161400.
15:51:13  181 182	 1492703473	 407102500	 137142.
15:51:13  182 183	 1492703473	 568804464	 161702.
15:51:13  183 184	 1492703473	 730670277	 161866.
15:51:13  184 185	 1492703473	 896493105	 165823.
15:51:14  185 186	 1492703474	 58101056	 161608.
15:51:14  186 187	 1492703474	 224017473	 165916.
15:51:14  187 188	 1492703474	 357207479	 133190.
15:51:14  188 189	 1492703474	 523007585	 165800.
15:51:14  189 190	 1492703474	 685024349	 162017.
15:51:14  190 191	 1492703474	 851008735	 165984.
15:51:15  191 192	 1492703475	 13174628	 162166.
15:51:15  192 193	 1492703475	 178974945	 165801.
15:51:15  193 194	 1492703475	 340847155	 161872.
15:51:15  194 195	 1492703475	 478021798	 137174.
15:51:15  195 196	 1492703475	 640033774	 162012.
15:51:15  196 197	 1492703475	 805809594	 165776.
15:51:15  197 198	 1492703475	 967856527	 162047.
15:51:16  198 199	 1492703476	 133658919	 165803.
15:51:16  199 200	 1492703476	 295551247	 161892.
15:51:16  200 201	 1492703476	 461762097	 166211.
15:51:16  201 202	 1492703476	 624219486	 162457.
15:51:16  202 203	 1492703476	 761464280	 137245.
15:51:16  203 204	 1492703476	 923133902	 161670.
15:51:17  204 205	 1492703477	 88909256	 165775.
15:51:17  205 206	 1492703477	 250930522	 162021.
15:51:17  206 207	 1492703477	 417194088	 166264.
15:51:17  207 208	 1492703477	 578995111	 161801.
15:51:17  208 209	 1492703477	 712176150	 133181.
15:51:17  209 210	 1492703477	 877821789	 165645.
15:51:18  210 211	 1492703478	 39631069	 161810.
15:51:18  211 212	 1492703478	 206749268	 167118.
15:51:18  212 213	 1492703478	 364548926	 157800.
15:51:18  213 214	 1492703478	 526155911	 161607.
15:51:18  214 215	 1492703478	 691607605	 165451.
15:51:18  215 216	 1492703478	 824657592	 133050.
15:51:18  216 217	 1492703478	 990521374	 165864.
15:51:19  217 218	 1492703479	 152635824	 162114.
15:51:19  218 219	 1492703479	 318670861	 166036.
15:51:19  219 220	 1492703479	 484991593	 166320.
15:51:19  220 221	 1492703479	 647312248	 162321.
15:51:19  221 222	 1492703479	 784755787	 137443.
15:51:19  222 223	 1492703479	 946036656	 161281.
15:51:20  223 224	 1492703480	 107249530	 161213.
15:51:20  224 225	 1492703480	 273085758	 165836.
15:51:20  225 226	 1492703480	 435015119	 161930.
15:51:20  226 227	 1492703480	 572215293	 137200.
15:51:20  227 228	 1492703480	 734077296	 161862.
15:51:20  228 229	 1492703480	 895898043	 161821.
15:51:21  229 230	 1492703481	 61461840	 165564.
15:51:21  230 231	 1492703481	 222996697	 161534.
15:51:21  231 232	 1492703481	 360302950	 137307.
15:51:21  232 233	 1492703481	 521981468	 161678.
15:51:21  233 234	 1492703481	 687856334	 165875.
15:51:21  234 235	 1492703481	 849562397	 161706.
15:51:22  235 236	 1492703482	 15603802	 166041.
15:51:22  236 237	 1492703482	 148642160	 133039.
15:51:22  237 238	 1492703482	 314559291	 165917.
15:51:22  238 239	 1492703482	 476940962	 162382.
15:51:22  239 240	 1492703482	 642841970	 165901.
15:51:22  240 241	 1492703482	 804344799	 161502.
15:51:22  241 242	 1492703482	 941570520	 137226.
15:51:23  242 243	 1492703483	 103445744	 161875.
15:51:23  243 244	 1492703483	 269323164	 165878.
15:51:23  244 245	 1492703483	 431521920	 162199.
15:51:23  245 246	 1492703483	 597620102	 166098.
15:51:23  246 247	 1492703483	 730602238	 132982.
15:51:23  247 248	 1492703483	 896546038	 165944.
15:51:24  248 249	 1492703484	 58512921	 161967.
15:51:24  249 250	 1492703484	 224708902	 166196.
15:51:24  250 251	 1492703484	 390609149	 165900.
15:51:24  251 252	 1492703484	 524085464	 133476.
15:51:24  252 253	 1492703484	 690064214	 165979.
15:51:24  253 254	 1492703484	 852098659	 162034.
15:51:25  254 255	 1492703485	 18100309	 166002.
15:51:25  255 256	 1492703485	 179998042	 161898.
15:51:25  256 257	 1492703485	 317331115	 137333.
15:51:25  257 258	 1492703485	 479350392	 162019.
15:51:25  258 259	 1492703485	 645056427	 165706.
15:51:25  259 260	 1492703485	 806839516	 161783.
15:51:25  260 261	 1492703485	 972825837	 165986.
15:51:26  261 262	 1492703486	 105669656	 132844.
15:51:26  262 263	 1492703486	 271570748	 165901.
15:51:26  263 264	 1492703486	 433640009	 162070.
15:51:26  264 265	 1492703486	 599535969	 165896.
15:51:26  265 266	 1492703486	 761507416	 161971.
15:51:26  266 267	 1492703486	 898743950	 137237.
15:51:27  267 268	 1492703487	 61205928	 162462.
15:51:27  268 269	 1492703487	 226962399	 165756.
15:51:27  269 270	 1492703487	 388927696	 161965.
15:51:27  270 271	 1492703487	 554679179	 165752.
15:51:27  271 272	 1492703487	 687553161	 132874.
15:51:27  272 273	 1492703487	 853589358	 166036.
15:51:28  273 274	 1492703488	 15619337	 162030.
15:51:28  274 275	 1492703488	 181759423	 166140.
15:51:28  275 276	 1492703488	 314971965	 133213.
15:51:28  276 277	 1492703488	 480740334	 165768.
15:51:28  277 278	 1492703488	 642605835	 161865.
15:51:28  278 279	 1492703488	 807964984	 165360.
15:51:28  279 280	 1492703488	 973845944	 165881.
15:51:29  280 281	 1492703489	 107049721	 133203.
15:51:29  281 282	 1492703489	 273246644	 166197.
15:51:29  282 283	 1492703489	 435308884	 162063.
15:51:29  283 284	 1492703489	 601434592	 166125.
15:51:29  284 285	 1492703489	 763221306	 161787.
15:51:29  285 286	 1492703489	 900612098	 137391.
15:51:30  286 287	 1492703490	 62833757	 162221.
15:51:30  287 288	 1492703490	 224058214	 161225.
15:51:30  288 289	 1492703490	 390064887	 166007.
15:51:30  289 290	 1492703490	 551823045	 161758.
15:51:30  290 291	 1492703490	 689164799	 137341.
15:51:30  291 292	 1492703490	 850694033	 161530.
15:51:31  292 293	 1492703491	 16698995	 166005.
15:51:31  293 294	 1492703491	 182892080	 166193.
15:51:31  294 295	 1492703491	 344719347	 161827.
15:51:31  295 296	 1492703491	 477811836	 133092.
15:51:31  296 297	 1492703491	 643820810	 166009.
15:51:31  297 298	 1492703491	 805733610	 161913.
15:51:31  298 299	 1492703491	 971351212	 165618.
15:51:32  299 300	 1492703492	 104635961	 133285.
15:51:32  300 301	 1492703492	 270385065	 165749.
15:51:32  301 302	 1492703492	 432102356	 161717.
15:51:32  302 303	 1492703492	 597692592	 165590.
15:51:32  303 304	 1492703492	 730454280	 132762.
15:51:32  304 305	 1492703492	 895945578	 165491.
15:51:33  305 306	 1492703493	 57881044	 161936.
15:51:33  306 307	 1492703493	 223723223	 165842.
15:51:33  307 308	 1492703493	 356934866	 133212.
15:51:33  308 309	 1492703493	 522910223	 165975.
15:51:33  309 310	 1492703493	 684883429	 161973.
15:51:33  310 311	 1492703493	 850410912	 165528.
15:51:34  311 312	 1492703494	 12242006	 161831.
15:51:34  312 313	 1492703494	 149793000	 137551.
15:51:34  313 314	 1492703494	 311599971	 161807.
15:51:34  314 315	 1492703494	 477319635	 165719.
15:51:34  315 316	 1492703494	 639610757	 162291.
15:51:34  316 317	 1492703494	 805758404	 166148.
15:51:34  317 318	 1492703494	 964387290	 158629.
15:51:35  318 319	 1492703495	 101889101	 137502.
15:51:35  319 320	 1492703495	 263786755	 161897.
15:51:35  320 321	 1492703495	 429889817	 166104.
15:51:35  321 322	 1492703495	 591858275	 161968.
15:51:35  322 323	 1492703495	 757806200	 165948.
15:51:35  323 324	 1492703495	 891016657	 133210.
15:51:36  324 325	 1492703496	 57168231	 166152.
15:51:36  325 326	 1492703496	 219100673	 161932.
15:51:36  326 327	 1492703496	 385528624	 166428.
15:51:36  327 328	 1492703496	 547533699	 162005.
15:51:36  328 329	 1492703496	 713628787	 166096.
15:51:36  329 330	 1492703496	 846994642	 133365.
15:51:37  330 331	 1492703497	 13175070	 166181.
15:51:37  331 332	 1492703497	 175025619	 161850.
15:51:37  332 333	 1492703497	 340958510	 165933.
15:51:37  333 334	 1492703497	 502829114	 161871.
15:51:37  334 335	 1492703497	 668910690	 166081.
15:51:37  335 336	 1492703497	 801903188	 132993.
15:51:37  336 337	 1492703497	 968018769	 166115.
15:51:38  337 338	 1492703498	 129755779	 161737.
15:51:38  338 339	 1492703498	 291957340	 162202.
15:51:38  339 340	 1492703498	 458025167	 166068.
15:51:38  340 341	 1492703498	 620097120	 162072.
15:51:38  341 342	 1492703498	 757513480	 137416.
15:51:38  342 343	 1492703498	 919394614	 161881.
15:51:39  343 344	 1492703499	 85282321	 165888.
15:51:39  344 345	 1492703499	 247254796	 161973.
15:51:39  345 346	 1492703499	 413576417	 166321.
15:51:39  346 347	 1492703499	 546648379	 133072.
15:51:39  347 348	 1492703499	 712759792	 166111.
15:51:39  348 349	 1492703499	 874942562	 162183.
15:51:40  349 350	 1492703500	 40891546	 165949.
15:51:40  350 351	 1492703500	 202900678	 162009.
15:51:40  351 352	 1492703500	 340032589	 137132.
15:51:40  352 353	 1492703500	 501692273	 161660.
15:51:40  353 354	 1492703500	 667756815	 166064.
15:51:40  354 355	 1492703500	 829368692	 161612.
15:51:40  355 356	 1492703500	 966488929	 137121.
15:51:41  356 357	 1492703501	 128627507	 162138.
15:51:41  357 358	 1492703501	 294597520	 165970.
15:51:41  358 359	 1492703501	 456697381	 162100.
15:51:41  359 360	 1492703501	 622438223	 165741.
15:51:41  360 361	 1492703501	 755804045	 133366.
15:51:41  361 362	 1492703501	 917715201	 161911.
15:51:42  362 363	 1492703502	 83503693	 165788.
15:51:42  363 364	 1492703502	 245654067	 162151.
15:51:42  364 365	 1492703502	 411249210	 165595.
15:51:42  365 366	 1492703502	 544328899	 133080.
15:51:42  366 367	 1492703502	 710537523	 166208.
15:51:42  367 368	 1492703502	 872767277	 162230.
15:51:43  368 369	 1492703503	 39108483	 166341.
15:51:43  369 370	 1492703503	 205268962	 166161.
15:51:43  370 371	 1492703503	 367063599	 161794.
15:51:43  371 372	 1492703503	 500066972	 133004.
15:51:43  372 373	 1492703503	 665758891	 165692.
15:51:43  373 374	 1492703503	 827200420	 161441.
15:51:43  374 375	 1492703503	 988551243	 161351.
15:51:44  375 376	 1492703504	 154154970	 165604.
15:51:44  376 377	 1492703504	 287047617	 132892.
15:51:44  377 378	 1492703504	 452605751	 165558.
15:51:44  378 379	 1492703504	 614409805	 161804.
15:51:44  379 380	 1492703504	 780255582	 165846.
15:51:44  380 381	 1492703504	 942156359	 161901.
15:51:45  381 382	 1492703505	 79515462	 137359.
15:51:45  382 383	 1492703505	 241456720	 161941.
15:51:45  383 384	 1492703505	 407592920	 166137.
15:51:45  384 385	 1492703505	 569503443	 161910.
15:51:45  385 386	 1492703505	 731366036	 161863.
15:51:45  386 387	 1492703505	 868921595	 137555.
15:51:46  387 388	 1492703506	 31320886	 162400.
15:51:46  388 389	 1492703506	 198041894	 166721.
15:51:46  389 390	 1492703506	 356027437	 157985.
15:51:46  390 391	 1492703506	 522142427	 166115.
15:51:46  391 392	 1492703506	 683882253	 161740.
15:51:46  392 393	 1492703506	 849766276	 165884.
15:51:46  393 394	 1492703506	 983183917	 133418.
15:51:47  394 395	 1492703507	 149483171	 166299.
15:51:47  395 396	 1492703507	 311485950	 162003.
15:51:47  396 397	 1492703507	 477408570	 165922.
15:51:47  397 398	 1492703507	 639325366	 161917.
15:51:47  398 399	 1492703507	 772688650	 133363.
15:51:47  399 400	 1492703507	 938844687	 166156.
15:51:48  400 401	 1492703508	 104630806	 165786.
15:51:48  401 402	 1492703508	 266861410	 162231.
15:51:48  402 403	 1492703508	 433081270	 166220.
15:51:48  403 404	 1492703508	 595297434	 162216.
15:51:48  404 405	 1492703508	 732644242	 137347.
15:51:48  405 406	 1492703508	 894694351	 162050.
15:51:49  406 407	 1492703509	 60651515	 165957.
15:51:49  407 408	 1492703509	 223014701	 162363.
15:51:49  408 409	 1492703509	 388862137	 165848.
15:51:49  409 410	 1492703509	 522000894	 133139.
15:51:49  410 411	 1492703509	 688300672	 166299.
15:51:49  411 412	 1492703509	 850709393	 162409.
15:51:50  412 413	 1492703510	 16731252	 166022.
15:51:50  413 414	 1492703510	 178962233	 162231.
15:51:50  414 415	 1492703510	 344963108	 166001.
15:51:50  415 416	 1492703510	 506846694	 161883.
15:51:50  416 417	 1492703510	 643954935	 137109.
15:51:50  417 418	 1492703510	 805814671	 161859.
15:51:50  418 419	 1492703510	 972181098	 166367.
15:51:51  419 420	 1492703511	 133978036	 161797.
15:51:51  420 421	 1492703511	 299943836	 165965.
15:51:51  421 422	 1492703511	 433122257	 133179.
15:51:51  422 423	 1492703511	 599445655	 166323.
15:51:51  423 424	 1492703511	 761415250	 161970.
15:51:51  424 425	 1492703511	 927624000	 166209.
15:51:52  425 426	 1492703512	 89938697	 162314.
15:51:52  426 427	 1492703512	 226922666	 136984.
15:51:52  427 428	 1492703512	 389306779	 162384.
15:51:52  428 429	 1492703512	 555561295	 166255.
15:51:52  429 430	 1492703512	 717727029	 162166.
15:51:52  430 431	 1492703512	 883830543	 166103.
15:51:53  431 432	 1492703513	 45775023	 161945.
15:51:53  432 433	 1492703513	 183134410	 137359.
15:51:53  433 434	 1492703513	 344872611	 161738.
15:51:53  434 435	 1492703513	 511155320	 166283.
15:51:53  435 436	 1492703513	 672960088	 161805.
15:51:53  436 437	 1492703513	 834729783	 161769.
15:51:53  437 438	 1492703513	 971976360	 137247.
15:51:54  438 439	 1492703514	 133777334	 161801.
15:51:54  439 440	 1492703514	 299678874	 165902.
15:51:54  440 441	 1492703514	 461273240	 161594.
15:51:54  441 442	 1492703514	 627344281	 166071.
15:51:54  442 443	 1492703514	 760584366	 133240.
15:51:54  443 444	 1492703514	 926251176	 165667.
15:51:55  444 445	 1492703515	 88461860	 162211.
15:51:55  445 446	 1492703515	 254563061	 166101.
15:51:55  446 447	 1492703515	 416701633	 162138.
15:51:55  447 448	 1492703515	 550069707	 133368.
15:51:55  448 449	 1492703515	 715940689	 165871.
15:51:55  449 450	 1492703515	 877817242	 161877.
15:51:56  450 451	 1492703516	 43285191	 165468.
15:51:56  451 452	 1492703516	 176689571	 133404.
15:51:56  452 453	 1492703516	 342909338	 166220.
15:51:56  453 454	 1492703516	 509314907	 166406.
15:51:56  454 455	 1492703516	 671066297	 161751.
15:51:56  455 456	 1492703516	 837304278	 166238.
15:51:56  456 457	 1492703516	 970265870	 132962.
15:51:57  457 458	 1492703517	 132059787	 161793.
15:51:57  458 459	 1492703517	 298239868	 166181.
15:51:57  459 460	 1492703517	 464451061	 166211.
15:51:57  460 461	 1492703517	 626451918	 162001.
15:51:57  461 462	 1492703517	 763612526	 137160.
15:51:57  462 463	 1492703517	 925627375	 162015.
15:51:58  463 464	 1492703518	 87912408	 162285.
15:51:58  464 465	 1492703518	 254126364	 166214.
15:51:58  465 466	 1492703518	 420358749	 166232.
15:51:58  466 467	 1492703518	 582694105	 162336.
15:51:58  467 468	 1492703518	 744606305	 161912.
15:51:58  468 469	 1492703518	 881843181	 137237.
15:51:59  469 470	 1492703519	 43938043	 162095.
15:51:59  470 471	 1492703519	 209939966	 166002.
15:51:59  471 472	 1492703519	 372081423	 162141.
15:51:59  472 473	 1492703519	 537933530	 165852.
15:51:59  473 474	 1492703519	 700015924	 162083.
15:51:59  474 475	 1492703519	 837526001	 137510.
15:51:59  475 476	 1492703519	 999536488	 162010.
15:52:00  476 477	 1492703520	 166272197	 166736.
15:52:00  477 478	 1492703520	 328560798	 162288.
15:52:00  478 479	 1492703520	 490398720	 161838.
15:52:00  479 480	 1492703520	 656355068	 165957.
15:52:00  480 481	 1492703520	 818079301	 161724.
15:52:00  481 482	 1492703520	 955020425	 136941.
15:52:01  482 483	 1492703521	 116330771	 161310.
15:52:01  483 484	 1492703521	 277979689	 161649.
15:52:01  484 485	 1492703521	 443854811	 165876.
15:52:01  485 486	 1492703521	 605521774	 161666.
15:52:01  486 487	 1492703521	 771407971	 165887.
15:52:01  487 488	 1492703521	 904687416	 133279.
15:52:02  488 489	 1492703522	 70735097	 166048.
15:52:02  489 490	 1492703522	 232478426	 161743.
15:52:02  490 491	 1492703522	 397975643	 165497.
15:52:02  491 492	 1492703522	 559301636	 161326.
15:52:02  492 493	 1492703522	 692139593	 132838.
15:52:02  493 494	 1492703522	 857830788	 165691.
15:52:03  494 495	 1492703523	 15918884	 158089.
15:52:03  495 496	 1492703523	 177402577	 161483.
15:52:03  496 497	 1492703523	 342989505	 165587.
15:52:03  497 498	 1492703523	 504380380	 161391.
15:52:03  498 499	 1492703523	 641343775	 136963.
15:52:03  499 500	 1492703523	 802866727	 161523.
15:52:03  500 501	 1492703523	 968506736	 165640.
15:52:04  501 502	 1492703524	 130030651	 161524.
15:52:04  502 503	 1492703524	 295610178	 165580.
15:52:04  503 504	 1492703524	 428525752	 132915.
15:52:04  504 505	 1492703524	 590368831	 161844.
15:52:04  505 506	 1492703524	 755950179	 165581.
15:52:04  506 507	 1492703524	 917528998	 161579.
15:52:05  507 508	 1492703525	 83353164	 165824.
15:52:05  508 509	 1492703525	 245236709	 161883.
15:52:05  509 510	 1492703525	 378441181	 133205.
15:52:05  510 511	 1492703525	 544693310	 166252.
15:52:05  511 512	 1492703525	 706257961	 161565.
15:52:05  512 513	 1492703525	 871790698	 165532.
15:52:06  513 514	 1492703526	 33599774	 161809.
15:52:06  514 515	 1492703526	 195298782	 161699.
15:52:06  515 516	 1492703526	 332355191	 137057.
15:52:06  516 517	 1492703526	 493992460	 161637.
15:52:06  517 518	 1492703526	 659727624	 165735.
15:52:06  518 519	 1492703526	 821537014	 161810.
15:52:06  519 520	 1492703526	 987779976	 166243.
15:52:07  520 521	 1492703527	 149907563	 162127.
15:52:07  521 522	 1492703527	 311977763	 162070.
15:52:07  522 523	 1492703527	 477810169	 165833.
15:52:07  523 524	 1492703527	 643802919	 165993.
15:52:07  524 525	 1492703527	 777223403	 133420.
15:52:07  525 526	 1492703527	 939259483	 162036.
15:52:08  526 527	 1492703528	 105355584	 166096.
15:52:08  527 528	 1492703528	 267145657	 161790.
15:52:08  528 529	 1492703528	 433129763	 165984.
15:52:08  529 530	 1492703528	 594967973	 161839.
15:52:08  530 531	 1492703528	 760961496	 165993.
15:52:08  531 532	 1492703528	 922433749	 161472.
15:52:09  532 533	 1492703529	 88392989	 165960.
15:52:09  533 534	 1492703529	 221991073	 133598.
15:52:09  534 535	 1492703529	 388333978	 166343.
15:52:09  535 536	 1492703529	 550072523	 161738.
15:52:09  536 537	 1492703529	 716384395	 166312.
15:52:09  537 538	 1492703529	 878263159	 161879.
15:52:10  538 539	 1492703530	 44829672	 166566.
15:52:10  539 540	 1492703530	 207048774	 162219.
15:52:10  540 541	 1492703530	 340182382	 133134.
15:52:10  541 542	 1492703530	 502361291	 162179.
15:52:10  542 543	 1492703530	 663826531	 161465.
15:52:10  543 544	 1492703530	 829252038	 165426.
15:52:10  544 545	 1492703530	 990707805	 161455.
15:52:11  545 546	 1492703531	 156767685	 166060.
15:52:11  546 547	 1492703531	 289954360	 133187.
15:52:11  547 548	 1492703531	 456019084	 166065.
15:52:11  548 549	 1492703531	 618273276	 162254.
15:52:11  549 550	 1492703531	 784326293	 166053.
15:52:11  550 551	 1492703531	 946537499	 162211.
15:52:12  551 552	 1492703532	 112414603	 165877.
15:52:12  552 553	 1492703532	 274075279	 161661.
15:52:12  553 554	 1492703532	 411656912	 137582.
15:52:12  554 555	 1492703532	 573730035	 162073.
15:52:12  555 556	 1492703532	 739389632	 165659.
15:52:12  556 557	 1492703532	 901821366	 162432.
15:52:13  557 558	 1492703533	 68062438	 166241.
15:52:13  558 559	 1492703533	 230368275	 162306.
15:52:13  559 560	 1492703533	 396739901	 166372.
15:52:13  560 561	 1492703533	 530192474	 133452.
15:52:13  561 562	 1492703533	 696466985	 166275.
15:52:13  562 563	 1492703533	 858901513	 162434.
15:52:14  563 564	 1492703534	 24994151	 166093.
15:52:14  564 565	 1492703534	 187107961	 162114.
15:52:14  565 566	 1492703534	 353204719	 166096.
15:52:14  566 567	 1492703534	 515346877	 162143.
15:52:14  567 568	 1492703534	 652723095	 137376.
15:52:14  568 569	 1492703534	 814281608	 161558.
15:52:14  569 570	 1492703534	 980304492	 166023.
15:52:15  570 571	 1492703535	 142402258	 162098.
15:52:15  571 572	 1492703535	 308362066	 165960.
15:52:15  572 573	 1492703535	 441789357	 133427.
15:52:15  573 574	 1492703535	 607802676	 166013.
15:52:15  574 575	 1492703535	 769594736	 161792.
15:52:15  575 576	 1492703535	 935460971	 165867.
15:52:16  576 577	 1492703536	 101453822	 165992.
15:52:16  577 578	 1492703536	 234933088	 133480.
15:52:16  578 579	 1492703536	 396597810	 161665.
15:52:16  579 580	 1492703536	 562643909	 166046.
15:52:16  580 581	 1492703536	 724617610	 161973.
15:52:16  581 582	 1492703536	 890674926	 166058.
15:52:17  582 583	 1492703537	 52355546	 161680.
15:52:17  583 584	 1492703537	 188908278	 136553.
15:52:17  584 585	 1492703537	 350304034	 161396.
15:52:17  585 586	 1492703537	 511955863	 161652.
15:52:17  586 587	 1492703537	 677483757	 165527.
15:52:17  587 588	 1492703537	 810202420	 132719.
15:52:17  588 589	 1492703537	 971762131	 161560.
15:52:18  589 590	 1492703538	 137447349	 165685.
15:52:18  590 591	 1492703538	 303536308	 166089.
15:52:18  591 592	 1492703538	 465355210	 161819.
15:52:18  592 593	 1492703538	 631658676	 166303.
15:52:18  593 594	 1492703538	 764836944	 133179.
15:52:18  594 595	 1492703538	 930252414	 165415.
15:52:19  595 596	 1492703539	 92521616	 162269.
15:52:19  596 597	 1492703539	 259092121	 166571.
15:52:19  597 598	 1492703539	 420625682	 161533.
15:52:19  598 599	 1492703539	 553807913	 133183.
15:52:19  599 600	 1492703539	 719988954	 166181.
15:52:19  600 601	 1492703539	 887028699	 167039.
15:52:20  601 602	 1492703540	 44904722	 157876.
15:52:20  602 603	 1492703540	 206734250	 161830.
15:52:20  603 604	 1492703540	 372593394	 165859.
15:52:20  604 605	 1492703540	 534500802	 161908.
15:52:20  605 606	 1492703540	 696369384	 161868.
15:52:20  606 607	 1492703540	 862329311	 165960.
15:52:21  607 608	 1492703541	 24307442	 161978.
15:52:21  608 609	 1492703541	 190282531	 165975.
15:52:21  609 610	 1492703541	 352306394	 162024.
15:52:21  610 611	 1492703541	 518441197	 166135.
15:52:21  611 612	 1492703541	 680556661	 162115.
15:52:21  612 613	 1492703541	 813502697	 132946.
15:52:21  613 614	 1492703541	 980051229	 166549.
15:52:22  614 615	 1492703542	 142442213	 162391.
15:52:22  615 616	 1492703542	 309147682	 166705.
15:52:22  616 617	 1492703542	 471565355	 162418.
15:52:22  617 618	 1492703542	 638066717	 166501.
15:52:22  618 619	 1492703542	 800204046	 162138.
15:52:22  619 620	 1492703542	 967172759	 166968.
15:52:23  620 621	 1492703543	 133488234	 166316.
15:52:23  621 622	 1492703543	 295876921	 162389.
15:52:23  622 623	 1492703543	 462528454	 166651.
15:52:23  623 624	 1492703543	 628951782	 166423.
15:52:23  624 625	 1492703543	 762467259	 133516.
15:52:23  625 626	 1492703543	 924808534	 162341.
15:52:24  626 627	 1492703544	 91199365	 166391.
15:52:24  627 628	 1492703544	 257534851	 166336.
15:52:24  628 629	 1492703544	 419608875	 162074.
15:52:24  629 630	 1492703544	 585729317	 166120.
15:52:24  630 631	 1492703544	 747669207	 161940.
15:52:24  631 632	 1492703544	 913680283	 166011.
15:52:25  632 633	 1492703545	 47060044	 133380.
15:52:25  633 634	 1492703545	 213435858	 166376.
15:52:25  634 635	 1492703545	 375379161	 161943.
15:52:25  635 636	 1492703545	 541462620	 166083.
15:52:25  636 637	 1492703545	 703195199	 161733.
15:52:25  637 638	 1492703545	 868810000	 165615.
15:52:25  638 639	 1492703546	 2023133	 133213.
15:52:26  639 640	 1492703546	 168198298	 166175.
15:52:26  640 641	 1492703546	 330131360	 161933.
15:52:26  641 642	 1492703546	 496018482	 165887.
15:52:26  642 643	 1492703546	 657829677	 161811.
15:52:26  643 644	 1492703546	 823811586	 165982.
15:52:26  644 645	 1492703546	 956891892	 133081.
15:52:27  645 646	 1492703547	 122736908	 165845.
15:52:27  646 647	 1492703547	 284614328	 161877.
15:52:27  647 648	 1492703547	 450608619	 165994.
15:52:27  648 649	 1492703547	 612233710	 161625.
15:52:27  649 650	 1492703547	 749267459	 137034.
15:52:27  650 651	 1492703547	 911023614	 161756.
15:52:28  651 652	 1492703548	 68998568	 157975.
15:52:28  652 653	 1492703548	 234299781	 165301.
15:52:28  653 654	 1492703548	 396141828	 161842.
15:52:28  654 655	 1492703548	 562384249	 166243.
15:52:28  655 656	 1492703548	 724066713	 161682.
15:52:28  656 657	 1492703548	 861082722	 137016.
15:52:29  657 658	 1492703549	 22416792	 161334.
15:52:29  658 659	 1492703549	 187726804	 165310.
15:52:29  659 660	 1492703549	 349139078	 161413.
15:52:29  660 661	 1492703549	 510720707	 161581.
15:52:29  661 662	 1492703549	 647800083	 137080.
15:52:29  662 663	 1492703549	 809158523	 161358.
15:52:29  663 664	 1492703549	 974814411	 165656.
15:52:30  664 665	 1492703550	 136503724	 161689.
15:52:30  665 666	 1492703550	 302151610	 165648.
15:52:30  666 667	 1492703550	 463886467	 161735.
15:52:30  667 668	 1492703550	 596589331	 132703.
15:52:30  668 669	 1492703550	 762071840	 165483.
15:52:30  669 670	 1492703550	 923472971	 161401.
15:52:31  670 671	 1492703551	 85002761	 161529.
15:52:31  671 672	 1492703551	 251820618	 166818.
15:52:31  672 673	 1492703551	 409317802	 157497.
15:52:31  673 674	 1492703551	 571231374	 161914.
15:52:31  674 675	 1492703551	 708253262	 137022.
15:52:31  675 676	 1492703551	 869904353	 161651.
15:52:32  676 677	 1492703552	 36012271	 166108.
15:52:32  677 678	 1492703552	 197555794	 161543.
15:52:32  678 679	 1492703552	 334841213	 137286.
15:52:32  679 680	 1492703552	 496238334	 161397.
15:52:32  680 681	 1492703552	 661724143	 165486.
15:52:32  681 682	 1492703552	 823511653	 161787.
15:52:32  682 683	 1492703552	 956128018	 132617.
15:52:33  683 684	 1492703553	 121486410	 165358.
15:52:33  684 685	 1492703553	 282983031	 161497.
15:52:33  685 686	 1492703553	 448397105	 165414.
15:52:33  686 687	 1492703553	 581414780	 133017.
15:52:33  687 688	 1492703553	 746934567	 165520.
15:52:33  688 689	 1492703553	 908395301	 161461.
15:52:34  689 690	 1492703554	 45505763	 137110.
15:52:34  690 691	 1492703554	 207135742	 161630.
15:52:34  691 692	 1492703554	 372485956	 165351.
15:52:34  692 693	 1492703554	 505218731	 132732.
15:52:34  693 694	 1492703554	 670901922	 165684.
15:52:34  694 695	 1492703554	 832618181	 161716.
15:52:34  695 696	 1492703554	 998302064	 165684.
15:52:35  696 697	 1492703555	 160392603	 162090.
15:52:35  697 698	 1492703555	 297792546	 137400.
15:52:35  698 699	 1492703555	 459552137	 161760.
15:52:35  699 700	 1492703555	 625745490	 166193.
15:52:35  700 701	 1492703555	 787422418	 161677.
15:52:35  701 702	 1492703555	 924633195	 137211.
15:52:36  702 703	 1492703556	 90134760	 165501.
15:52:36  703 704	 1492703556	 251774896	 161641.
15:52:36  704 705	 1492703556	 417687154	 165912.
15:52:36  705 706	 1492703556	 579783312	 162096.
15:52:36  706 707	 1492703556	 717292296	 137509.
15:52:36  707 708	 1492703556	 879523261	 162231.
15:52:37  708 709	 1492703557	 78925445	 199402.
15:52:37  709 710	 1492703557	 241445375	 162520.
15:52:37  710 711	 1492703557	 407459324	 166014.
15:52:37  711 712	 1492703557	 570511987	 163053.
15:52:37  712 713	 1492703557	 767506403	 196994.
15:52:37  713 714	 1492703557	 904455867	 136950.
15:52:38  714 715	 1492703558	 66723955	 162268.
15:52:38  715 716	 1492703558	 232863552	 166139.
15:52:38  716 717	 1492703558	 425857046	 192994.
15:52:38  717 718	 1492703558	 563152540	 137295.
15:52:38  718 719	 1492703558	 725198510	 162046.
15:52:38  719 720	 1492703558	 891392547	 166194.
15:52:39  720 721	 1492703559	 53435467	 162043.
15:52:39  721 722	 1492703559	 219606793	 166171.
15:52:39  722 723	 1492703559	 382578998	 162973.
15:52:39  723 724	 1492703559	 581190107	 198611.
15:52:39  724 725	 1492703559	 743374417	 162184.
15:52:39  725 726	 1492703559	 909494538	 166120.
15:52:40  726 727	 1492703560	 42879327	 133385.
15:52:40  727 728	 1492703560	 238941427	 196062.
15:52:40  728 729	 1492703560	 403546008	 164605.
15:52:40  729 730	 1492703560	 569590470	 166044.
15:52:40  730 731	 1492703560	 731069927	 161480.
15:52:40  731 732	 1492703560	 892708338	 161638.
15:52:41  732 733	 1492703561	 29705677	 136997.
15:52:41  733 734	 1492703561	 221670032	 191965.
15:52:41  734 735	 1492703561	 388683785	 167013.
15:52:41  735 736	 1492703561	 588051376	 199368.
15:52:41  736 737	 1492703561	 751125942	 163075.
15:52:41  737 738	 1492703561	 909972020	 158846.
15:52:42  738 739	 1492703562	 76428487	 166456.
15:52:42  739 740	 1492703562	 239690245	 163262.
15:52:42  740 741	 1492703562	 436905738	 197215.
15:52:42  741 742	 1492703562	 599107446	 162202.
15:52:42  742 743	 1492703562	 765106567	 165999.
15:52:42  743 744	 1492703562	 927177705	 162071.
15:52:43  744 745	 1492703563	 93187027	 166010.
15:52:43  745 746	 1492703563	 226233641	 133046.
15:52:43  746 747	 1492703563	 392012799	 165779.
15:52:43  747 748	 1492703563	 553631852	 161620.
15:52:43  748 749	 1492703563	 721182336	 167550.
15:52:43  749 750	 1492703563	 882729233	 161547.
15:52:44  750 751	 1492703564	 45611875	 162883.
15:52:44  751 752	 1492703564	 244122296	 198510.
15:52:44  752 753	 1492703564	 405378770	 161256.
15:52:44  753 754	 1492703564	 570662111	 165284.
15:52:44  754 755	 1492703564	 732138340	 161476.
15:52:44  755 756	 1492703564	 864882348	 132744.
15:52:45  756 757	 1492703565	 30681496	 165799.
15:52:45  757 758	 1492703565	 192215369	 161534.
15:52:45  758 759	 1492703565	 358123670	 165908.
15:52:45  759 760	 1492703565	 519771558	 161648.
15:52:45  760 761	 1492703565	 685415620	 165644.
15:52:45  761 762	 1492703565	 846943807	 161528.
15:52:45  762 763	 1492703565	 979698231	 132755.
15:52:46  763 764	 1492703566	 145260880	 165563.
15:52:46  764 765	 1492703566	 307082159	 161821.
15:52:46  765 766	 1492703566	 468591468	 161509.
15:52:46  766 767	 1492703566	 634132501	 165541.
15:52:46  767 768	 1492703566	 766983818	 132851.
15:52:46  768 769	 1492703566	 932485952	 165503.
15:52:47  769 770	 1492703567	 94140959	 161655.
15:52:47  770 771	 1492703567	 255896677	 161755.
15:52:47  771 772	 1492703567	 421407181	 165511.
15:52:47  772 773	 1492703567	 582960175	 161553.
15:52:47  773 774	 1492703567	 720195278	 137235.
15:52:47  774 775	 1492703567	 881748209	 161553.
15:52:48  775 776	 1492703568	 43406388	 161658.
15:52:48  776 777	 1492703568	 209162894	 165757.
15:52:48  777 778	 1492703568	 370589518	 161426.
15:52:48  778 779	 1492703568	 531885310	 161296.
15:52:48  779 780	 1492703568	 668693559	 136808.
15:52:48  780 781	 1492703568	 830311260	 161618.
15:52:48  781 782	 1492703568	 991965220	 161654.
15:52:49  782 783	 1492703569	 157652525	 165687.
15:52:49  783 784	 1492703569	 318787515	 161135.
15:52:49  784 785	 1492703569	 484333341	 165546.
15:52:49  785 786	 1492703569	 617150797	 132817.
15:52:49  786 787	 1492703569	 778499901	 161350.
15:52:49  787 788	 1492703569	 943929161	 165429.
15:52:50  788 789	 1492703570	 105538376	 161609.
15:52:50  789 790	 1492703570	 271243815	 165705.
15:52:50  790 791	 1492703570	 404262035	 133019.
15:52:50  791 792	 1492703570	 565892021	 161630.
15:52:50  792 793	 1492703570	 731405721	 165513.
15:52:50  793 794	 1492703570	 892958423	 161553.
15:52:51  794 795	 1492703571	 58683232	 165725.
15:52:51  795 796	 1492703571	 220198479	 161515.
15:52:51  796 797	 1492703571	 353125755	 132927.
15:52:51  797 798	 1492703571	 518672337	 165547.
15:52:51  798 799	 1492703571	 680298744	 161626.
15:52:51  799 800	 1492703571	 842011866	 161714.
15:52:52  800 801	 1492703572	 7624240	 165612.
15:52:52  801 802	 1492703572	 169387528	 161763.
15:52:52  802 803	 1492703572	 306269481	 136882.
15:52:52  803 804	 1492703572	 467972681	 161703.
15:52:52  804 805	 1492703572	 629717641	 161745.
15:52:52  805 806	 1492703572	 795528959	 165812.
15:52:52  806 807	 1492703572	 957334020	 161805.
15:52:53  807 808	 1492703573	 123813355	 166479.
15:52:53  808 809	 1492703573	 281213695	 157400.
15:52:53  809 810	 1492703573	 442865060	 161652.
15:52:53  810 811	 1492703573	 608665063	 165800.
15:52:53  811 812	 1492703573	 741521049	 132856.
15:52:53  812 813	 1492703573	 902909983	 161389.
15:52:54  813 814	 1492703574	 68653170	 165743.
15:52:54  814 815	 1492703574	 230167035	 161514.
15:52:54  815 816	 1492703574	 395771450	 165604.
15:52:54  816 817	 1492703574	 557519767	 161748.
15:52:54  817 818	 1492703574	 719215823	 161697.
15:52:54  818 819	 1492703574	 856132317	 136916.
15:52:55  819 820	 1492703575	 17539796	 161407.
15:52:55  820 821	 1492703575	 179371478	 161832.
15:52:55  821 822	 1492703575	 345250613	 165879.
15:52:55  822 823	 1492703575	 506616907	 161367.
15:52:55  823 824	 1492703575	 672167240	 165550.
15:52:55  824 825	 1492703575	 805116110	 132949.
15:52:55  825 826	 1492703575	 966366863	 161251.
15:52:56  826 827	 1492703576	 132252997	 165886.
15:52:56  827 828	 1492703576	 293951198	 161698.
15:52:56  828 829	 1492703576	 459431606	 165480.
15:52:56  829 830	 1492703576	 621491050	 162060.
15:52:56  830 831	 1492703576	 754348835	 132857.
15:52:56  831 832	 1492703576	 920006092	 165658.
15:52:57  832 833	 1492703577	 81773928	 161768.
15:52:57  833 834	 1492703577	 247614034	 165840.
15:52:57  834 835	 1492703577	 409195767	 161581.
15:52:57  835 836	 1492703577	 571061711	 161866.
15:52:57  836 837	 1492703577	 736651643	 165590.
15:52:57  837 838	 1492703577	 869660147	 133009.
15:52:58  838 839	 1492703578	 31586701	 161926.
15:52:58  839 840	 1492703578	 197087191	 165501.
15:52:58  840 841	 1492703578	 358711938	 161625.
15:52:58  841 842	 1492703578	 524570109	 165858.
15:52:58  842 843	 1492703578	 686142152	 161572.
15:52:58  843 844	 1492703578	 851931863	 165790.
15:52:58  844 845	 1492703578	 985006430	 133074.
15:52:59  845 846	 1492703579	 146746876	 161741.
15:52:59  846 847	 1492703579	 312664417	 165917.
15:52:59  847 848	 1492703579	 474686117	 162022.
15:52:59  848 849	 1492703579	 640843373	 166157.
15:52:59  849 850	 1492703579	 802956348	 162113.
15:52:59  850 851	 1492703579	 965062869	 162107.
15:53:00  851 852	 1492703580	 130901193	 165838.
15:53:00  852 853	 1492703580	 293055540	 162154.
15:53:00  853 854	 1492703580	 455102517	 162047.
15:53:00  854 855	 1492703580	 621057996	 165956.
15:53:00  855 856	 1492703580	 754448089	 133390.
15:53:00  856 857	 1492703580	 919907044	 165459.
15:53:01  857 858	 1492703581	 81308086	 161401.
15:53:01  858 859	 1492703581	 246971412	 165663.
15:53:01  859 860	 1492703581	 408530849	 161560.
15:53:01  860 861	 1492703581	 541400130	 132869.
15:53:01  861 862	 1492703581	 702691646	 161291.
15:53:01  862 863	 1492703581	 868408584	 165717.
15:53:02  863 864	 1492703582	 30088388	 161680.
15:53:02  864 865	 1492703582	 195721769	 165633.
15:53:02  865 866	 1492703582	 357253138	 161532.
15:53:02  866 867	 1492703582	 518663935	 161411.
15:53:02  867 868	 1492703582	 655705943	 137042.
15:53:02  868 869	 1492703582	 817346861	 161641.
15:53:02  869 870	 1492703582	 978969596	 161622.
15:53:03  870 871	 1492703583	 144994302	 166025.
15:53:03  871 872	 1492703583	 307028444	 162034.
15:53:03  872 873	 1492703583	 469495793	 162467.
15:53:03  873 874	 1492703583	 635328387	 165833.
15:53:03  874 875	 1492703583	 797301051	 161973.
15:53:03  875 876	 1492703583	 963359132	 166058.
15:53:04  876 877	 1492703584	 125346824	 161988.
15:53:04  877 878	 1492703584	 258512444	 133165.
15:53:04  878 879	 1492703584	 424857018	 166345.
15:53:04  879 880	 1492703584	 586704485	 161847.
15:53:04  880 881	 1492703584	 752001610	 165297.
15:53:04  881 882	 1492703584	 913300364	 161299.
15:53:05  882 883	 1492703585	 74912032	 161612.
15:53:05  883 884	 1492703585	 240528491	 165616.
15:53:05  884 885	 1492703585	 373271917	 132744.
15:53:05  885 886	 1492703585	 534924530	 161652.
15:53:05  886 887	 1492703585	 700342591	 165418.
15:53:05  887 888	 1492703585	 861456873	 161115.
15:53:06  888 889	 1492703586	 27217644	 165760.
15:53:06  889 890	 1492703586	 160482675	 133265.
15:53:06  890 891	 1492703586	 326303162	 165821.
15:53:06  891 892	 1492703586	 487956574	 161653.
15:53:06  892 893	 1492703586	 649976078	 162020.
15:53:06  893 894	 1492703586	 815646670	 165670.
15:53:06  894 895	 1492703586	 977531428	 161885.
15:53:07  895 896	 1492703587	 143326087	 165795.
15:53:07  896 897	 1492703587	 305408844	 162083.
15:53:07  897 898	 1492703587	 438432835	 133023.
15:53:07  898 899	 1492703587	 604413997	 165982.
15:53:07  899 900	 1492703587	 766370994	 161957.
15:53:07  900 901	 1492703587	 932137156	 165766.
15:53:08  901 902	 1492703588	 90017965	 157881.
15:53:08  902 903	 1492703588	 255783117	 165765.
15:53:08  903 904	 1492703588	 417316290	 161533.
15:53:08  904 905	 1492703588	 579188605	 161872.
15:53:08  905 906	 1492703588	 744891811	 165704.
15:53:08  906 907	 1492703588	 877914663	 133022.
15:53:09  907 908	 1492703589	 39367889	 161454.
15:53:09  908 909	 1492703589	 205209812	 165841.
15:53:09  909 910	 1492703589	 366928482	 161719.
15:53:09  910 911	 1492703589	 532254333	 165326.
15:53:09  911 912	 1492703589	 693692128	 161438.
15:53:09  912 913	 1492703589	 830718563	 137026.
15:53:09  913 914	 1492703589	 992449634	 161731.
15:53:10  914 915	 1492703590	 154310602	 161861.
15:53:10  915 916	 1492703590	 319961298	 165651.
15:53:10  916 917	 1492703590	 481720350	 161759.
15:53:10  917 918	 1492703590	 647432208	 165712.
15:53:10  918 919	 1492703590	 809081764	 161650.
15:53:10  919 920	 1492703590	 942184871	 133103.
15:53:11  920 921	 1492703591	 107857937	 165673.
15:53:11  921 922	 1492703591	 269309041	 161451.
15:53:11  922 923	 1492703591	 431051926	 161743.
15:53:11  923 924	 1492703591	 596697978	 165646.
15:53:11  924 925	 1492703591	 758347180	 161649.
15:53:11  925 926	 1492703591	 920202865	 161855.
15:53:12  926 927	 1492703592	 57241003	 137039.
15:53:12  927 928	 1492703592	 218764233	 161523.
15:53:12  928 929	 1492703592	 384434458	 165670.
15:53:12  929 930	 1492703592	 546284014	 161850.
15:53:12  930 931	 1492703592	 707601064	 161317.
15:53:12  931 932	 1492703592	 873159695	 165559.
15:53:13  932 933	 1492703593	 34931030	 161771.
15:53:13  933 934	 1492703593	 167919704	 132988.
15:53:13  934 935	 1492703593	 333543162	 165624.
15:53:13  935 936	 1492703593	 495026523	 161483.
15:53:13  936 937	 1492703593	 656717288	 161691.
15:53:13  937 938	 1492703593	 821985406	 165268.
15:53:13  938 939	 1492703593	 983511601	 161526.
15:53:14  939 940	 1492703594	 120440600	 136929.
15:53:14  940 941	 1492703594	 281864456	 161424.
15:53:14  941 942	 1492703594	 443313100	 161449.
15:53:14  942 943	 1492703594	 608557797	 165244.
15:53:14  943 944	 1492703594	 741428002	 132871.
15:53:14  944 945	 1492703594	 906828488	 165400.
15:53:15  945 946	 1492703595	 68082719	 161254.
15:53:15  946 947	 1492703595	 229260345	 161178.
15:53:15  947 948	 1492703595	 395390672	 166130.
15:53:15  948 949	 1492703595	 527919800	 132529.
15:53:15  949 950	 1492703595	 693125690	 165206.
15:53:15  950 951	 1492703595	 854872596	 161747.
15:53:16  951 952	 1492703596	 16229784	 161357.
15:53:16  952 953	 1492703596	 153142814	 136913.
15:53:16  953 954	 1492703596	 314643884	 161502.
15:53:16  954 955	 1492703596	 476545929	 161902.
15:53:16  955 956	 1492703596	 642374243	 165828.
15:53:16  956 957	 1492703596	 803682005	 161308.
15:53:16  957 958	 1492703596	 969236773	 165554.
15:53:17  958 959	 1492703597	 130751353	 161515.
15:53:17  959 960	 1492703597	 268259752	 137508.
15:53:17  960 961	 1492703597	 429958492	 161699.
15:53:17  961 962	 1492703597	 591585851	 161628.
15:53:17  962 963	 1492703597	 757349722	 165763.
15:53:17  963 964	 1492703597	 919092836	 161743.
15:53:18  964 965	 1492703598	 84972218	 165880.
15:53:18  965 966	 1492703598	 246848534	 161876.
15:53:18  966 967	 1492703598	 408776343	 161928.
15:53:18  967 968	 1492703598	 574704406	 165928.
15:53:18  968 969	 1492703598	 708049860	 133346.
15:53:18  969 970	 1492703598	 869834173	 161784.
15:53:19  970 971	 1492703599	 35653914	 165820.
15:53:19  971 972	 1492703599	 197294422	 161640.
15:53:19  972 973	 1492703599	 363015065	 165721.
15:53:19  973 974	 1492703599	 525072693	 162057.
15:53:19  974 975	 1492703599	 686720726	 161648.
15:53:19  975 976	 1492703599	 852118325	 165398.
15:53:19  976 977	 1492703599	 985676535	 133558.
15:53:20  977 978	 1492703600	 147057637	 161381.
15:53:20  978 979	 1492703600	 308793316	 161736.
15:53:20  979 980	 1492703600	 474492130	 165699.
15:53:20  980 981	 1492703600	 636052937	 161561.
15:53:20  981 982	 1492703600	 797337952	 161285.
15:53:20  982 983	 1492703600	 934335159	 136997.
15:53:21  983 984	 1492703601	 95937149	 161602.
15:53:21  984 985	 1492703601	 262366916	 166430.
15:53:21  985 986	 1492703601	 419978122	 157611.
15:53:21  986 987	 1492703601	 581402784	 161424.
15:53:21  987 988	 1492703601	 746997863	 165596.
15:53:21  988 989	 1492703601	 908927633	 161929.
15:53:22  989 990	 1492703602	 70623400	 161696.
15:53:22  990 991	 1492703602	 207762926	 137140.
15:53:22  991 992	 1492703602	 369537383	 161774.
15:53:22  992 993	 1492703602	 535101749	 165564.
15:53:22  993 994	 1492703602	 697069282	 161968.
15:53:22  994 995	 1492703602	 862869828	 165800.
15:53:23  995 996	 1492703603	 24628598	 161759.
15:53:23  996 997	 1492703603	 186570787	 161942.
15:53:23  997 998	 1492703603	 352415287	 165845.
15:53:23  998 999	 1492703603	 514175732	 161760.
15:53:23  999 1000	 1492703603	 679763716	 165588.
15:53:23 1000 1001	 1492703603	 812605342	 132842.
15:53:23 1001 1002	 1492703603	 974244945	 161640.
15:53:24 1002 1003	 1492703604	 139684282	 165439.
15:53:24 1003 1004	 1492703604	 301039542	 161355.
15:53:24 1004 1005	 1492703604	 466905931	 165867.
15:53:24 1005 1006	 1492703604	 599779583	 132873.
15:53:24 1006 1007	 1492703604	 761357665	 161578.
15:53:24 1007 1008	 1492703604	 923292552	 161935.
15:53:25 1008 1009	 1492703605	 88975922	 165684.
15:53:25 1009 1010	 1492703605	 250230612	 161254.
15:53:25 1010 1011	 1492703605	 416009493	 165779.
15:53:25 1011 1012	 1492703605	 549313301	 133304.
15:53:25 1012 1013	 1492703605	 710732005	 161419.
15:53:25 1013 1014	 1492703605	 876732687	 166000.
15:53:26 1014 1015	 1492703606	 38232490	 161500.
15:53:26 1015 1016	 1492703606	 203656228	 165424.
15:53:26 1016 1017	 1492703606	 365295398	 161639.
15:53:26 1017 1018	 1492703606	 498039206	 132744.
15:53:26 1018 1019	 1492703606	 663233402	 165194.
15:53:26 1019 1020	 1492703606	 824492227	 161259.
15:53:26 1020 1021	 1492703606	 990150350	 165658.
15:53:27 1021 1022	 1492703607	 151691252	 161541.
15:53:27 1022 1023	 1492703607	 284661337	 132970.
15:53:27 1023 1024	 1492703607	 446096186	 161435.
15:53:27 1024 1025	 1492703607	 611566308	 165470.
15:53:27 1025 1026	 1492703607	 773090856	 161524.
15:53:27 1026 1027	 1492703607	 938792557	 165702.
15:53:28 1027 1028	 1492703608	 71801797	 133009.
15:53:28 1028 1029	 1492703608	 233231221	 161430.
15:53:28 1029 1030	 1492703608	 399361118	 166130.
15:53:28 1030 1031	 1492703608	 560922709	 161561.
15:53:28 1031 1032	 1492703608	 726403850	 165481.
15:53:28 1032 1033	 1492703608	 888072266	 161669.
15:53:29 1033 1034	 1492703609	 49607789	 161535.
15:53:29 1034 1035	 1492703609	 186766538	 137159.
15:53:29 1035 1036	 1492703609	 348207460	 161441.
15:53:29 1036 1037	 1492703609	 509438741	 161231.
15:53:29 1037 1038	 1492703609	 674801323	 165363.
15:53:29 1038 1039	 1492703609	 836295066	 161494.
15:53:29 1039 1040	 1492703609	 973204251	 136909.
15:53:30 1040 1041	 1492703610	 134794723	 161590.
15:53:30 1041 1042	 1492703610	 300536792	 165742.
15:53:30 1042 1043	 1492703610	 461933758	 161397.
15:53:30 1043 1044	 1492703610	 623357588	 161424.
15:53:30 1044 1045	 1492703610	 789093349	 165736.
15:53:30 1045 1046	 1492703610	 921980567	 132887.
15:53:31 1046 1047	 1492703611	 87503645	 165523.
15:53:31 1047 1048	 1492703611	 248797508	 161294.
15:53:31 1048 1049	 1492703611	 410058703	 161261.
15:53:31 1049 1050	 1492703611	 546701476	 136643.
15:53:31 1050 1051	 1492703611	 707939555	 161238.
15:53:31 1051 1052	 1492703611	 868971963	 161033.
15:53:32 1052 1053	 1492703612	 34222252	 165250.
15:53:32 1053 1054	 1492703612	 166682738	 132460.
15:53:32 1054 1055	 1492703612	 327738829	 161056.
15:53:32 1055 1056	 1492703612	 493320563	 165582.
15:53:32 1056 1057	 1492703612	 659089860	 165770.
15:53:32 1057 1058	 1492703612	 792157843	 133068.
15:53:32 1058 1059	 1492703612	 958207538	 166049.
15:53:33 1059 1060	 1492703613	 120173566	 161966.
15:53:33 1060 1061	 1492703613	 286215984	 166043.
15:53:33 1061 1062	 1492703613	 419232457	 133016.
15:53:33 1062 1063	 1492703613	 585031794	 165799.
15:53:33 1063 1064	 1492703613	 746921933	 161891.
15:53:33 1064 1065	 1492703613	 913047473	 166125.
15:53:34 1065 1066	 1492703614	 75128874	 162082.
15:53:34 1066 1067	 1492703614	 212394150	 137265.
15:53:34 1067 1068	 1492703614	 374124716	 161730.
15:53:34 1068 1069	 1492703614	 540153548	 166029.
15:53:34 1069 1070	 1492703614	 702116663	 161963.
15:53:34 1070 1071	 1492703614	 868032510	 165916.
15:53:34 1071 1072	 1492703615	 1336898	 133305.
15:53:35 1072 1073	 1492703615	 163209305	 161872.
15:53:35 1073 1074	 1492703615	 329399442	 166190.
15:53:35 1074 1075	 1492703615	 495365378	 165966.
15:53:35 1075 1076	 1492703615	 656930872	 161566.
15:53:35 1076 1077	 1492703615	 794237088	 137306.
15:53:35 1077 1078	 1492703615	 955785177	 161548.
15:53:36 1078 1079	 1492703616	 121540229	 165755.
15:53:36 1079 1080	 1492703616	 254686435	 133146.
15:53:36 1080 1081	 1492703616	 420425117	 165739.
15:53:36 1081 1082	 1492703616	 582148976	 161724.
15:53:36 1082 1083	 1492703616	 748265132	 166116.
15:53:36 1083 1084	 1492703616	 910369518	 162104.
15:53:37 1084 1085	 1492703617	 76575666	 166206.
15:53:37 1085 1086	 1492703617	 209988321	 133413.
15:53:37 1086 1087	 1492703617	 372568838	 162580.
15:53:37 1087 1088	 1492703617	 538912626	 166344.
15:53:37 1088 1089	 1492703617	 705422363	 166510.
15:53:37 1089 1090	 1492703617	 867939399	 162517.
15:53:38 1090 1091	 1492703618	 35480526	 167541.
15:53:38 1091 1092	 1492703618	 193810360	 158330.
15:53:38 1092 1093	 1492703618	 355502077	 161692.
15:53:38 1093 1094	 1492703618	 522164369	 166662.
15:53:38 1094 1095	 1492703618	 684759111	 162595.
15:53:38 1095 1096	 1492703618	 850823542	 166064.
15:53:39 1096 1097	 1492703619	 12861714	 162038.
15:53:39 1097 1098	 1492703619	 178851879	 165991.
15:53:39 1098 1099	 1492703619	 316331710	 137479.
15:53:39 1099 1100	 1492703619	 478992232	 162661.
15:53:39 1100 1101	 1492703619	 645670485	 166678.
15:53:39 1101 1102	 1492703619	 812287446	 166617.
15:53:39 1102 1103	 1492703619	 974902167	 162615.
15:53:40 1103 1104	 1492703620	 141481800	 166579.
15:53:40 1104 1105	 1492703620	 303673234	 162192.
15:53:40 1105 1106	 1492703620	 469880378	 166207.
15:53:40 1106 1107	 1492703620	 632012259	 162132.
15:53:40 1107 1108	 1492703620	 798031757	 166019.
15:53:40 1108 1109	 1492703620	 935416658	 137385.
15:53:41 1109 1110	 1492703621	 97363879	 161948.
15:53:41 1110 1111	 1492703621	 259484454	 162120.
15:53:41 1111 1112	 1492703621	 425813329	 166329.
15:53:41 1112 1113	 1492703621	 588154207	 162341.
15:53:41 1113 1114	 1492703621	 754353121	 166199.
15:53:41 1114 1115	 1492703621	 887366411	 133013.
15:53:42 1115 1116	 1492703622	 53618752	 166252.
15:53:42 1116 1117	 1492703622	 215357350	 161739.
15:53:42 1117 1118	 1492703622	 381471830	 166114.
15:53:42 1118 1119	 1492703622	 543433094	 161962.
15:53:42 1119 1120	 1492703622	 709734083	 166301.
15:53:42 1120 1121	 1492703622	 871574109	 161840.
15:53:43 1121 1122	 1492703623	 37570236	 165996.
15:53:43 1122 1123	 1492703623	 170898334	 133328.
15:53:43 1123 1124	 1492703623	 337070112	 166172.
15:53:43 1124 1125	 1492703623	 499136108	 162066.
15:53:43 1125 1126	 1492703623	 665359886	 166224.
15:53:43 1126 1127	 1492703623	 827136902	 161777.
15:53:43 1127 1128	 1492703623	 989080917	 161944.
15:53:44 1128 1129	 1492703624	 155093807	 166012.
15:53:44 1129 1130	 1492703624	 317023934	 161931.
15:53:44 1130 1131	 1492703624	 483189540	 166165.
15:53:44 1131 1132	 1492703624	 645191449	 162002.
15:53:44 1132 1133	 1492703624	 807311531	 162120.
15:53:44 1133 1134	 1492703624	 973409985	 166099.
15:53:45 1134 1135	 1492703625	 135316738	 161906.
15:53:45 1135 1136	 1492703625	 297288568	 161972.
15:53:45 1136 1137	 1492703625	 463486232	 166198.
15:53:45 1137 1138	 1492703625	 596626149	 133140.
15:53:45 1138 1139	 1492703625	 762322046	 165696.
15:53:45 1139 1140	 1492703625	 924213689	 161891.
15:53:46 1140 1141	 1492703626	 86099247	 161886.
15:53:46 1141 1142	 1492703626	 251989756	 165890.
15:53:46 1142 1143	 1492703626	 413841159	 161852.
15:53:46 1143 1144	 1492703626	 579614148	 165773.
15:53:46 1144 1145	 1492703626	 741305839	 161692.
15:53:46 1145 1146	 1492703626	 878240639	 136934.
15:53:47 1146 1147	 1492703627	 39889614	 161649.
15:53:47 1147 1148	 1492703627	 201488622	 161599.
15:53:47 1148 1149	 1492703627	 367348993	 165861.
15:53:47 1149 1150	 1492703627	 529215837	 161866.
15:53:47 1150 1151	 1492703627	 691059536	 161844.
15:53:47 1151 1152	 1492703627	 856693002	 165634.
15:53:48 1152 1153	 1492703628	 18117622	 161424.
15:53:48 1153 1154	 1492703628	 151045381	 132928.
15:53:48 1154 1155	 1492703628	 316679953	 165635.
15:53:48 1155 1156	 1492703628	 478116890	 161437.
15:53:48 1156 1157	 1492703628	 643954569	 165837.
15:53:48 1157 1158	 1492703628	 805709358	 161755.
15:53:48 1158 1159	 1492703628	 942578439	 136869.
15:53:49 1159 1160	 1492703629	 104314962	 161737.
15:53:49 1160 1161	 1492703629	 265842188	 161527.
15:53:49 1161 1162	 1492703629	 431380930	 165539.
15:53:49 1162 1163	 1492703629	 592845250	 161464.
15:53:49 1163 1164	 1492703629	 758386238	 165541.
15:53:49 1164 1165	 1492703629	 891624101	 133238.
15:53:50 1165 1166	 1492703630	 57448977	 165825.
15:53:50 1166 1167	 1492703630	 219256580	 161807.
15:53:50 1167 1168	 1492703630	 381027634	 161771.
15:53:50 1168 1169	 1492703630	 546757603	 165730.
15:53:50 1169 1170	 1492703630	 708572091	 161815.
15:53:50 1170 1171	 1492703630	 870467845	 161896.
15:53:51 1171 1172	 1492703631	 36521573	 166053.
15:53:51 1172 1173	 1492703631	 198552668	 162031.
15:53:51 1173 1174	 1492703631	 364452625	 165900.
15:53:51 1174 1175	 1492703631	 497523660	 133071.
15:53:51 1175 1176	 1492703631	 659417137	 161894.
15:53:51 1176 1177	 1492703631	 825456629	 166039.
15:53:51 1177 1178	 1492703631	 987412084	 161956.
15:53:52 1178 1179	 1492703632	 149354665	 161942.
15:53:52 1179 1180	 1492703632	 315339319	 165985.
15:53:52 1180 1181	 1492703632	 477245883	 161907.
15:53:52 1181 1182	 1492703632	 643135452	 165889.
15:53:52 1182 1183	 1492703632	 804893471	 161758.
15:53:52 1183 1184	 1492703632	 970931320	 166038.
15:53:53 1184 1185	 1492703633	 132800647	 161869.
15:53:53 1185 1186	 1492703633	 266025462	 133225.
15:53:53 1186 1187	 1492703633	 431841224	 165816.
15:53:53 1187 1188	 1492703633	 593788521	 161947.
15:53:53 1188 1189	 1492703633	 755649329	 161861.
15:53:53 1189 1190	 1492703633	 921561562	 165912.
15:53:54 1190 1191	 1492703634	 83423337	 161862.
15:53:54 1191 1192	 1492703634	 245317414	 161894.
15:53:54 1192 1193	 1492703634	 410957838	 165641.
15:53:54 1193 1194	 1492703634	 572383392	 161425.
15:53:54 1194 1195	 1492703634	 709641174	 137258.
15:53:54 1195 1196	 1492703634	 871176371	 161535.
15:53:55 1196 1197	 1492703635	 37215572	 166039.
15:53:55 1197 1198	 1492703635	 194501033	 157286.
15:53:55 1198 1199	 1492703635	 355922102	 161421.
15:53:55 1199 1200	 1492703635	 517741823	 161820.
15:53:55 1200 1201	 1492703635	 683539227	 165797.
15:53:55 1201 1202	 1492703635	 816500072	 132961.
15:53:55 1202 1203	 1492703635	 982448788	 165948.
15:53:56 1203 1204	 1492703636	 144354713	 161906.
15:53:56 1204 1205	 1492703636	 305890238	 161536.
15:53:56 1205 1206	 1492703636	 472080280	 166190.
15:53:56 1206 1207	 1492703636	 633832389	 161752.
15:53:56 1207 1208	 1492703636	 799579749	 165747.
15:53:56 1208 1209	 1492703636	 961213241	 161634.
15:53:57 1209 1210	 1492703637	 94359125	 133146.
15:53:57 1210 1211	 1492703637	 260564797	 166205.
15:53:57 1211 1212	 1492703637	 422213178	 161649.
15:53:57 1212 1213	 1492703637	 588240863	 166028.
15:53:57 1213 1214	 1492703637	 749905446	 161664.
15:53:57 1214 1215	 1492703637	 911734051	 161829.
15:53:58 1215 1216	 1492703638	 77213719	 165479.
15:53:58 1216 1217	 1492703638	 210097087	 132884.
15:53:58 1217 1218	 1492703638	 375996472	 165899.
15:53:58 1218 1219	 1492703638	 537870576	 161874.
15:53:58 1219 1220	 1492703638	 699847782	 161977.
15:53:58 1220 1221	 1492703638	 865841946	 165995.
15:53:59 1221 1222	 1492703639	 27975704	 162133.
15:53:59 1222 1223	 1492703639	 193573721	 165598.
15:53:59 1223 1224	 1492703639	 355130720	 161557.
15:53:59 1224 1225	 1492703639	 492387032	 137257.
15:53:59 1225 1226	 1492703639	 654150519	 161763.
15:53:59 1226 1227	 1492703639	 815923965	 161774.
15:53:59 1227 1228	 1492703639	 981443259	 165519.
15:54:00 1228 1229	 1492703640	 142999893	 161557.
15:54:00 1229 1230	 1492703640	 301532546	 158532.
15:54:00 1230 1231	 1492703640	 467469632	 165937.
15:54:00 1231 1232	 1492703640	 629152040	 161683.
15:54:00 1232 1233	 1492703640	 766366432	 137214.
15:54:00 1233 1234	 1492703640	 927885921	 161520.
15:54:01 1234 1235	 1492703641	 89666822	 161780.
15:54:01 1235 1236	 1492703641	 255562632	 165896.
15:54:01 1236 1237	 1492703641	 417126081	 161564.
15:54:01 1237 1238	 1492703641	 582885905	 165760.
15:54:01 1238 1239	 1492703641	 744630855	 161745.
15:54:01 1239 1240	 1492703641	 910602945	 165972.
15:54:02 1240 1241	 1492703642	 72443807	 161841.
15:54:02 1241 1242	 1492703642	 205564479	 133120.
15:54:02 1242 1243	 1492703642	 371288912	 165725.
15:54:02 1243 1244	 1492703642	 532947436	 161658.
15:54:02 1244 1245	 1492703642	 694482433	 161535.
15:54:02 1245 1246	 1492703642	 860083749	 165601.
15:54:02 1246 1247	 1492703642	 992805652	 132722.
15:54:03 1247 1248	 1492703643	 158355334	 165550.
15:54:03 1248 1249	 1492703643	 319841185	 161486.
15:54:03 1249 1250	 1492703643	 485280582	 165439.
15:54:03 1250 1251	 1492703643	 646545890	 161266.
15:54:03 1251 1252	 1492703643	 779400634	 132854.
15:54:03 1252 1253	 1492703643	 941090111	 161690.
15:54:04 1253 1254	 1492703644	 103507031	 162417.
15:54:04 1254 1255	 1492703644	 269362567	 165855.
15:54:04 1255 1256	 1492703644	 430944350	 161582.
15:54:04 1256 1257	 1492703644	 596978437	 166034.
15:54:04 1257 1258	 1492703644	 758547074	 161569.
15:54:04 1258 1259	 1492703644	 895759136	 137212.
15:54:05 1259 1260	 1492703645	 57701134	 161942.
15:54:05 1260 1261	 1492703645	 223716964	 166016.
15:54:05 1261 1262	 1492703645	 385435236	 161718.
15:54:05 1262 1263	 1492703645	 551602479	 166167.
15:54:05 1263 1264	 1492703645	 713747227	 162145.
15:54:05 1264 1265	 1492703645	 875453354	 161706.
15:54:06 1265 1266	 1492703646	 41244953	 165792.
15:54:06 1266 1267	 1492703646	 174150615	 132905.
15:54:06 1267 1268	 1492703646	 340261343	 166111.
15:54:06 1268 1269	 1492703646	 502315421	 162054.
15:54:06 1269 1270	 1492703646	 664454073	 162139.
15:54:06 1270 1271	 1492703646	 830292087	 165838.
15:54:06 1271 1272	 1492703646	 992477912	 162186.
15:54:07 1272 1273	 1492703647	 158691031	 166213.
15:54:07 1273 1274	 1492703647	 320935137	 162244.
15:54:07 1274 1275	 1492703647	 487164895	 166230.
15:54:07 1275 1276	 1492703647	 649234588	 162069.
15:54:07 1276 1277	 1492703647	 811063498	 161829.
15:54:07 1277 1278	 1492703647	 977270493	 166207.
15:54:08 1278 1279	 1492703648	 139095307	 161825.
15:54:08 1279 1280	 1492703648	 304894314	 165799.
15:54:08 1280 1281	 1492703648	 466991634	 162097.
15:54:08 1281 1282	 1492703648	 600202318	 133211.
15:54:08 1282 1283	 1492703648	 766075677	 165873.
15:54:08 1283 1284	 1492703648	 927696155	 161621.
15:54:09 1284 1285	 1492703649	 89437186	 161741.
15:54:09 1285 1286	 1492703649	 255490953	 166054.
15:54:09 1286 1287	 1492703649	 421503860	 166013.
15:54:09 1287 1288	 1492703649	 554726621	 133222.
15:54:09 1288 1289	 1492703649	 720924743	 166198.
15:54:09 1289 1290	 1492703649	 882598066	 161674.
15:54:10 1290 1291	 1492703650	 48336427	 165738.
15:54:10 1291 1292	 1492703650	 210246810	 161910.
15:54:10 1292 1293	 1492703650	 347703772	 137457.
15:54:10 1293 1294	 1492703650	 509715244	 162012.
15:54:10 1294 1295	 1492703650	 675456412	 165741.
15:54:10 1295 1296	 1492703650	 837337551	 161881.
15:54:11 1296 1297	 1492703651	 13509157	 176172.
15:54:11 1297 1298	 1492703651	 151012228	 137503.
15:54:11 1298 1299	 1492703651	 316995473	 165983.
15:54:11 1299 1300	 1492703651	 479206981	 162212.
15:54:11 1300 1301	 1492703651	 616534210	 137327.
15:54:11 1301 1302	 1492703651	 778759202	 162225.
15:54:11 1302 1303	 1492703651	 944900678	 166141.
15:54:12 1303 1304	 1492703652	 106864873	 161965.
15:54:12 1304 1305	 1492703652	 273077052	 166212.
15:54:12 1305 1306	 1492703652	 435323459	 162246.
15:54:12 1306 1307	 1492703652	 601171519	 165848.
15:54:12 1307 1308	 1492703652	 734935334	 133764.
15:54:12 1308 1309	 1492703652	 901121104	 166186.
15:54:13 1309 1310	 1492703653	 63645739	 162524.
15:54:13 1310 1311	 1492703653	 229976176	 166331.
15:54:13 1311 1312	 1492703653	 392151746	 162175.
15:54:13 1312 1313	 1492703653	 558561470	 166410.
15:54:13 1313 1314	 1492703653	 720401411	 161840.
15:54:13 1314 1315	 1492703653	 858045885	 137645.
15:54:14 1315 1316	 1492703654	 20443763	 162397.
15:54:14 1316 1317	 1492703654	 186671611	 166228.
15:54:14 1317 1318	 1492703654	 348541203	 161870.
15:54:14 1318 1319	 1492703654	 514946022	 166405.
15:54:14 1319 1320	 1492703654	 677325198	 162379.
15:54:14 1320 1321	 1492703654	 843510174	 166185.
15:54:15 1321 1322	 1492703655	 5537303	 162027.
15:54:15 1322 1323	 1492703655	 143140910	 137604.
15:54:15 1323 1324	 1492703655	 305043380	 161902.
15:54:15 1324 1325	 1492703655	 471043837	 166001.
15:54:15 1325 1326	 1492703655	 633017112	 161973.
15:54:15 1326 1327	 1492703655	 799469574	 166452.
15:54:15 1327 1328	 1492703655	 961271189	 161802.
15:54:16 1328 1329	 1492703656	 127779831	 166509.
15:54:16 1329 1330	 1492703656	 261046718	 133266.
15:54:16 1330 1331	 1492703656	 423664089	 162618.
15:54:16 1331 1332	 1492703656	 589845212	 166181.
15:54:16 1332 1333	 1492703656	 751751677	 161906.
15:54:16 1333 1334	 1492703656	 917707642	 165956.
15:54:17 1334 1335	 1492703657	 83460306	 165753.
15:54:17 1335 1336	 1492703657	 216585995	 133126.
15:54:17 1336 1337	 1492703657	 382744820	 166158.
15:54:17 1337 1338	 1492703657	 544953578	 162209.
15:54:17 1338 1339	 1492703657	 706843998	 161891.
15:54:17 1339 1340	 1492703657	 872953963	 166110.
15:54:18 1340 1341	 1492703658	 39349345	 166395.
15:54:18 1341 1342	 1492703658	 172934335	 133585.
15:54:18 1342 1343	 1492703658	 339008039	 166074.
15:54:18 1343 1344	 1492703658	 501575966	 162568.
15:54:18 1344 1345	 1492703658	 663151576	 161575.
15:54:18 1345 1346	 1492703658	 829084275	 165933.
15:54:18 1346 1347	 1492703658	 991137676	 162053.
15:54:19 1347 1348	 1492703659	 157321173	 166184.
15:54:19 1348 1349	 1492703659	 290766524	 133445.
15:54:19 1349 1350	 1492703659	 457126693	 166360.
15:54:19 1350 1351	 1492703659	 619196830	 162070.
15:54:19 1351 1352	 1492703659	 785013229	 165817.
15:54:19 1352 1353	 1492703659	 947198190	 162185.
15:54:20 1353 1354	 1492703660	 113062375	 165864.
15:54:20 1354 1355	 1492703660	 275262161	 162200.
15:54:20 1355 1356	 1492703660	 408939387	 133677.
15:54:20 1356 1357	 1492703660	 575222275	 166283.
15:54:20 1357 1358	 1492703660	 737004528	 161782.
15:54:20 1358 1359	 1492703660	 903041476	 166037.
15:54:21 1359 1360	 1492703661	 65119380	 162078.
15:54:21 1360 1361	 1492703661	 231293602	 166174.
15:54:21 1361 1362	 1492703661	 393181209	 161888.
15:54:21 1362 1363	 1492703661	 530288248	 137107.
15:54:21 1363 1364	 1492703661	 692205375	 161917.
15:54:21 1364 1365	 1492703661	 857976520	 165771.
15:54:22 1365 1366	 1492703662	 20032564	 162056.
15:54:22 1366 1367	 1492703662	 185883383	 165851.
15:54:22 1367 1368	 1492703662	 319546740	 133663.
15:54:22 1368 1369	 1492703662	 485566220	 166020.
15:54:22 1369 1370	 1492703662	 647405351	 161839.
15:54:22 1370 1371	 1492703662	 813485977	 166081.
15:54:22 1371 1372	 1492703662	 975440972	 161955.
15:54:23 1372 1373	 1492703663	 141818162	 166377.
15:54:23 1373 1374	 1492703663	 275455880	 133638.
15:54:23 1374 1375	 1492703663	 441444039	 165988.
15:54:23 1375 1376	 1492703663	 603794448	 162350.
15:54:23 1376 1377	 1492703663	 769625095	 165831.
15:54:23 1377 1378	 1492703663	 935766032	 166141.
15:54:24 1378 1379	 1492703664	 98329318	 162563.
15:54:24 1379 1380	 1492703664	 231245442	 132916.
15:54:24 1380 1381	 1492703664	 397485375	 166240.
15:54:24 1381 1382	 1492703664	 559763758	 162279.
15:54:24 1382 1383	 1492703664	 725625439	 165861.
15:54:24 1383 1384	 1492703664	 887777701	 162152.
15:54:25 1384 1385	 1492703665	 53984715	 166207.
15:54:25 1385 1386	 1492703665	 191286885	 137303.
15:54:25 1386 1387	 1492703665	 352799831	 161512.
15:54:25 1387 1388	 1492703665	 519411755	 166612.
15:54:25 1388 1389	 1492703665	 681258168	 161847.
15:54:25 1389 1390	 1492703665	 847073533	 165815.
15:54:25 1390 1391	 1492703665	 980766112	 133693.
15:54:26 1391 1392	 1492703666	 147231468	 166465.
15:54:26 1392 1393	 1492703666	 309278272	 162047.
15:54:26 1393 1394	 1492703666	 475314001	 166036.
15:54:26 1394 1395	 1492703666	 637076218	 161762.
15:54:26 1395 1396	 1492703666	 803191981	 166116.
15:54:26 1396 1397	 1492703666	 936204324	 133012.
15:54:27 1397 1398	 1492703667	 102567269	 166363.
15:54:27 1398 1399	 1492703667	 264046296	 161479.
15:54:27 1399 1400	 1492703667	 400983011	 136937.
15:54:27 1400 1401	 1492703667	 562519599	 161536.
15:54:27 1401 1402	 1492703667	 728541966	 166023.
15:54:27 1402 1403	 1492703667	 890960075	 162418.
15:54:28 1403 1404	 1492703668	 48994267	 158034.
15:54:28 1404 1405	 1492703668	 215458035	 166464.
15:54:28 1405 1406	 1492703668	 377484899	 162027.
15:54:28 1406 1407	 1492703668	 514810407	 137325.
15:54:28 1407 1408	 1492703668	 676646133	 161836.
15:54:28 1408 1409	 1492703668	 843033526	 166387.
15:54:29 1409 1410	 1492703669	 5314717	 162281.
15:54:29 1410 1411	 1492703669	 171754973	 166441.
15:54:29 1411 1412	 1492703669	 338051417	 166296.
15:54:29 1412 1413	 1492703669	 500551338	 162500.
15:54:29 1413 1414	 1492703669	 663100368	 162549.
15:54:29 1414 1415	 1492703669	 829543839	 166444.
15:54:29 1415 1416	 1492703669	 963134064	 133590.
15:54:30 1416 1417	 1492703670	 129728633	 166594.
15:54:30 1417 1418	 1492703670	 291956496	 162228.
15:54:30 1418 1419	 1492703670	 458435491	 166479.
15:54:30 1419 1420	 1492703670	 620842097	 162407.
15:54:30 1420 1421	 1492703670	 787252385	 166410.
15:54:30 1421 1422	 1492703670	 949159926	 161908.
15:54:31 1422 1423	 1492703671	 115012358	 165852.
15:54:31 1423 1424	 1492703671	 277106093	 162094.
15:54:31 1424 1425	 1492703671	 414321493	 137215.
15:54:31 1425 1426	 1492703671	 576431857	 162110.
15:54:31 1426 1427	 1492703671	 742461138	 166030.
15:54:31 1427 1428	 1492703671	 904353109	 161892.
15:54:32 1428 1429	 1492703672	 70386128	 166033.
15:54:32 1429 1430	 1492703672	 203326826	 132940.
15:54:32 1430 1431	 1492703672	 369016993	 165691.
15:54:32 1431 1432	 1492703672	 531115302	 162098.
15:54:32 1432 1433	 1492703672	 696832153	 165717.
15:54:32 1433 1434	 1492703672	 858610584	 161778.
15:54:33 1434 1435	 1492703673	 24228907	 165619.
15:54:33 1435 1436	 1492703673	 156912741	 132683.
15:54:33 1436 1437	 1492703673	 318685839	 161773.
15:54:33 1437 1438	 1492703673	 484580656	 165895.
15:54:33 1438 1439	 1492703673	 646721862	 162142.
15:54:33 1439 1440	 1492703673	 812667424	 165945.
15:54:33 1440 1441	 1492703673	 945990063	 133323.
15:54:34 1441 1442	 1492703674	 112414390	 166424.
15:54:34 1442 1443	 1492703674	 278723835	 166309.
15:54:34 1443 1444	 1492703674	 440998034	 162275.
15:54:34 1444 1445	 1492703674	 607092667	 166094.
15:54:34 1445 1446	 1492703674	 769142428	 162050.
15:54:34 1446 1447	 1492703674	 906293123	 137151.
15:54:35 1447 1448	 1492703675	 68308544	 162015.
15:54:35 1448 1449	 1492703675	 233930220	 165622.
15:54:35 1449 1450	 1492703675	 395895092	 161965.
15:54:35 1450 1451	 1492703675	 557575119	 161680.
15:54:35 1451 1452	 1492703675	 723522486	 165947.
15:54:35 1452 1453	 1492703675	 856608863	 133087.
15:54:36 1453 1454	 1492703676	 22381560	 165772.
15:54:36 1454 1455	 1492703676	 184098803	 161717.
15:54:36 1455 1456	 1492703676	 349779479	 165681.
15:54:36 1456 1457	 1492703676	 511894327	 162115.
15:54:36 1457 1458	 1492703676	 677660475	 165766.
15:54:36 1458 1459	 1492703676	 839682660	 162022.
15:54:36 1459 1460	 1492703677	 1776826	 162095.
15:54:37 1460 1461	 1492703677	 167997740	 166220.
15:54:37 1461 1462	 1492703677	 330126023	 162129.
15:54:37 1462 1463	 1492703677	 467186565	 137061.
15:54:37 1463 1464	 1492703677	 629329876	 162143.
15:54:37 1464 1465	 1492703677	 795395240	 166065.
15:54:37 1465 1466	 1492703677	 957562340	 162167.
15:54:38 1466 1467	 1492703678	 123664735	 166102.
15:54:38 1467 1468	 1492703678	 285531799	 161867.
15:54:38 1468 1469	 1492703678	 423213831	 137683.
15:54:38 1469 1470	 1492703678	 585277219	 162063.
15:54:38 1470 1471	 1492703678	 750866409	 165589.
15:54:38 1471 1472	 1492703678	 912550718	 161684.
15:54:39 1472 1473	 1492703679	 78691969	 166142.
15:54:39 1473 1474	 1492703679	 241243846	 162552.
15:54:39 1474 1475	 1492703679	 374448731	 133204.
15:54:39 1475 1476	 1492703679	 540670153	 166222.
15:54:39 1476 1477	 1492703679	 702991677	 162321.
15:54:39 1477 1478	 1492703679	 869028830	 166037.
15:54:40 1478 1479	 1492703680	 30985677	 161957.
15:54:40 1479 1480	 1492703680	 168327384	 137342.
15:54:40 1480 1481	 1492703680	 330514762	 162187.
15:54:40 1481 1482	 1492703680	 496731956	 166218.
15:54:40 1482 1483	 1492703680	 658815343	 162083.
15:54:40 1483 1484	 1492703680	 825255749	 166440.
15:54:40 1484 1485	 1492703680	 991410156	 166155.
15:54:41 1485 1486	 1492703681	 153871040	 162461.
15:54:41 1486 1487	 1492703681	 291177814	 137306.
15:54:41 1487 1488	 1492703681	 452820060	 161643.
15:54:41 1488 1489	 1492703681	 618821280	 166001.
15:54:41 1489 1490	 1492703681	 780797336	 161976.
15:54:41 1490 1491	 1492703681	 942451502	 161654.
15:54:42 1491 1492	 1492703682	 108560374	 166109.
15:54:42 1492 1493	 1492703682	 270769758	 162209.
15:54:42 1493 1494	 1492703682	 432680466	 161911.
15:54:42 1494 1495	 1492703682	 598831947	 166152.
15:54:42 1495 1496	 1492703682	 760607804	 161775.
15:54:42 1496 1497	 1492703682	 922274362	 161667.
15:54:43 1497 1498	 1492703683	 88489315	 166215.
15:54:43 1498 1499	 1492703683	 250651213	 162162.
15:54:43 1499 1500	 1492703683	 412771816	 162121.
15:54:43 1500 1501	 1492703683	 579186566	 166414.
15:54:43 1501 1502	 1492703683	 712709316	 133523.
15:54:43 1502 1503	 1492703683	 878834002	 166125.
15:54:44 1503 1504	 1492703684	 40332911	 161499.
15:54:44 1504 1505	 1492703684	 206336006	 166003.
15:54:44 1505 1506	 1492703684	 368368207	 162032.
15:54:44 1506 1507	 1492703684	 529995715	 161627.
15:54:44 1507 1508	 1492703684	 695907248	 165912.
15:54:44 1508 1509	 1492703684	 828836497	 132929.
15:54:44 1509 1510	 1492703684	 994625519	 165789.
15:54:45 1510 1511	 1492703685	 156481629	 161868.
15:54:45 1511 1512	 1492703685	 322365841	 165872.
15:54:45 1512 1513	 1492703685	 484047070	 161682.
15:54:45 1513 1514	 1492703685	 646222789	 162175.
15:54:45 1514 1515	 1492703685	 812087910	 165866.
15:54:45 1515 1516	 1492703685	 945222338	 133134.
15:54:46 1516 1517	 1492703686	 107159847	 161938.
15:54:46 1517 1518	 1492703686	 273306526	 166146.
15:54:46 1518 1519	 1492703686	 435102300	 161796.
15:54:46 1519 1520	 1492703686	 600875967	 165774.
15:54:46 1520 1521	 1492703686	 762517529	 161641.
15:54:46 1521 1522	 1492703686	 924153678	 161636.
15:54:47 1522 1523	 1492703687	 60989250	 136836.
15:54:47 1523 1524	 1492703687	 222829017	 161840.
15:54:47 1524 1525	 1492703687	 384718088	 161889.
15:54:47 1525 1526	 1492703687	 550617606	 165899.
15:54:47 1526 1527	 1492703687	 712257762	 161640.
15:54:47 1527 1528	 1492703687	 878144513	 165887.
15:54:48 1528 1529	 1492703688	 11487892	 133344.
15:54:48 1529 1530	 1492703688	 177677751	 166189.
15:54:48 1530 1531	 1492703688	 339589748	 161912.
15:54:48 1531 1532	 1492703688	 505499173	 165910.
15:54:48 1532 1533	 1492703688	 667062166	 161563.
15:54:48 1533 1534	 1492703688	 800083585	 133021.
15:54:48 1534 1535	 1492703688	 965741758	 165658.
15:54:49 1535 1536	 1492703689	 127057439	 161316.
15:54:49 1536 1537	 1492703689	 292793332	 165736.
15:54:49 1537 1538	 1492703689	 454655526	 161862.
15:54:49 1538 1539	 1492703689	 592205323	 137550.
15:54:49 1539 1540	 1492703689	 753868517	 161663.
15:54:49 1540 1541	 1492703689	 920215503	 166347.
15:54:50 1541 1542	 1492703690	 82174339	 161959.
15:54:50 1542 1543	 1492703690	 248493129	 166319.
15:54:50 1543 1544	 1492703690	 410731919	 162239.
15:54:50 1544 1545	 1492703690	 576899062	 166167.
15:54:50 1545 1546	 1492703690	 709866767	 132967.
15:54:50 1546 1547	 1492703690	 875517558	 165651.
15:54:51 1547 1548	 1492703691	 37573150	 162056.
15:54:51 1548 1549	 1492703691	 199437154	 161864.
15:54:51 1549 1550	 1492703691	 361257988	 161821.
15:54:51 1550 1551	 1492703691	 527183552	 165925.
15:54:51 1551 1552	 1492703691	 688972657	 161789.
15:54:51 1552 1553	 1492703691	 854915017	 165943.
15:54:52 1553 1554	 1492703692	 16967558	 162052.
15:54:52 1554 1555	 1492703692	 178832436	 161865.
15:54:52 1555 1556	 1492703692	 344939438	 166107.
15:54:52 1556 1557	 1492703692	 506832028	 161893.
15:54:52 1557 1558	 1492703692	 640187519	 133355.
15:54:52 1558 1559	 1492703692	 806162915	 165976.
15:54:52 1559 1560	 1492703692	 968039332	 161876.
15:54:53 1560 1561	 1492703693	 134093934	 166055.
15:54:53 1561 1562	 1492703693	 296142828	 162049.
15:54:53 1562 1563	 1492703693	 458021061	 161878.
15:54:53 1563 1564	 1492703693	 623839642	 165818.
15:54:53 1564 1565	 1492703693	 785541497	 161702.
15:54:53 1565 1566	 1492703693	 947277659	 161736.
15:54:54 1566 1567	 1492703694	 113130738	 165853.
15:54:54 1567 1568	 1492703694	 246161474	 133031.
15:54:54 1568 1569	 1492703694	 412142112	 165981.
15:54:54 1569 1570	 1492703694	 573933486	 161791.
15:54:54 1570 1571	 1492703694	 736147291	 162214.
15:54:54 1571 1572	 1492703694	 902151127	 166004.
15:54:55 1572 1573	 1492703695	 64031859	 161881.
15:54:55 1573 1574	 1492703695	 229781528	 165749.
15:54:55 1574 1575	 1492703695	 391174525	 161393.
15:54:55 1575 1576	 1492703695	 524473683	 133299.
15:54:55 1576 1577	 1492703695	 690265429	 165792.
15:54:55 1577 1578	 1492703695	 851856400	 161591.
15:54:56 1578 1579	 1492703696	 13107649	 161251.
15:54:56 1579 1580	 1492703696	 179046073	 165939.
15:54:56 1580 1581	 1492703696	 336467275	 157421.
15:54:56 1581 1582	 1492703696	 469234539	 132767.
15:54:56 1582 1583	 1492703696	 634712663	 165478.
15:54:56 1583 1584	 1492703696	 796221157	 161509.
15:54:56 1584 1585	 1492703696	 962200700	 165979.
15:54:57 1585 1586	 1492703697	 95102320	 132902.
15:54:57 1586 1587	 1492703697	 260454148	 165352.
15:54:57 1587 1588	 1492703697	 422305545	 161851.
15:54:57 1588 1589	 1492703697	 583957198	 161652.
15:54:57 1589 1590	 1492703697	 749797386	 165840.
15:54:57 1590 1591	 1492703697	 911546943	 161750.
15:54:58 1591 1592	 1492703698	 48753127	 137206.
15:54:58 1592 1593	 1492703698	 210746259	 161993.
15:54:58 1593 1594	 1492703698	 372519508	 161773.
15:54:58 1594 1595	 1492703698	 538746729	 166227.
15:54:58 1595 1596	 1492703698	 700383134	 161637.
15:54:58 1596 1597	 1492703698	 866460448	 166077.
15:54:59 1597 1598	 1492703699	 28316102	 161856.
15:54:59 1598 1599	 1492703699	 190355820	 162040.
15:54:59 1599 1600	 1492703699	 327793973	 137438.
15:54:59 1600 1601	 1492703699	 489641435	 161847.
15:54:59 1601 1602	 1492703699	 655180598	 165539.
15:54:59 1602 1603	 1492703699	 816645680	 161465.
15:54:59 1603 1604	 1492703699	 982534164	 165889.
15:55:00 1604 1605	 1492703700	 144375962	 161842.
15:55:00 1605 1606	 1492703700	 277349709	 132973.
15:55:00 1606 1607	 1492703700	 442925183	 165576.
15:55:00 1607 1608	 1492703700	 604794697	 161869.
15:55:00 1608 1609	 1492703700	 770640946	 165847.
15:55:00 1609 1610	 1492703700	 932217067	 161576.
15:55:01 1610 1611	 1492703701	 69499387	 137282.
15:55:01 1611 1612	 1492703701	 231378992	 161880.
15:55:01 1612 1613	 1492703701	 393199785	 161820.
15:55:01 1613 1614	 1492703701	 558794940	 165596.
15:55:01 1614 1615	 1492703701	 720321224	 161526.
15:55:01 1615 1616	 1492703701	 886122285	 165801.
15:55:02 1616 1617	 1492703702	 47833860	 161712.
15:55:02 1617 1618	 1492703702	 180899460	 133065.
15:55:02 1618 1619	 1492703702	 346636573	 165737.
15:55:02 1619 1620	 1492703702	 508378945	 161743.
15:55:02 1620 1621	 1492703702	 673734744	 165355.
15:55:02 1621 1622	 1492703702	 835306263	 161572.
15:55:02 1622 1623	 1492703703	 932968	 165627.
15:55:03 1623 1624	 1492703703	 134196982	 133264.
15:55:03 1624 1625	 1492703703	 295856402	 161659.
15:55:03 1625 1626	 1492703703	 461372561	 165516.
15:55:03 1626 1627	 1492703703	 622866365	 161494.
15:55:03 1627 1628	 1492703703	 788660506	 165794.
15:55:03 1628 1629	 1492703703	 950011276	 161351.
15:55:04 1629 1630	 1492703704	 83078686	 133067.
15:55:04 1630 1631	 1492703704	 248961661	 165883.
15:55:04 1631 1632	 1492703704	 410520877	 161560.
15:55:04 1632 1633	 1492703704	 572373603	 161852.
15:55:04 1633 1634	 1492703704	 734321177	 161948.
15:55:04 1634 1635	 1492703704	 899926986	 165606.
15:55:05 1635 1636	 1492703705	 61701479	 161774.
15:55:05 1636 1637	 1492703705	 194650247	 132949.
15:55:05 1637 1638	 1492703705	 360627075	 165977.
15:55:05 1638 1639	 1492703705	 522508625	 161881.
15:55:05 1639 1640	 1492703705	 688366005	 165858.
15:55:05 1640 1641	 1492703705	 850130494	 161764.
15:55:06 1641 1642	 1492703706	 15861670	 165731.
15:55:06 1642 1643	 1492703706	 177701989	 161841.
15:55:06 1643 1644	 1492703706	 343483847	 165782.
15:55:06 1644 1645	 1492703706	 476614763	 133130.
15:55:06 1645 1646	 1492703706	 638351629	 161737.
15:55:06 1646 1647	 1492703706	 803974409	 165623.
15:55:06 1647 1648	 1492703706	 965985942	 162012.
15:55:07 1648 1649	 1492703707	 131724996	 165739.
15:55:07 1649 1650	 1492703707	 293829194	 162104.
15:55:07 1650 1651	 1492703707	 459726835	 165898.
15:55:07 1651 1652	 1492703707	 621428538	 161701.
15:55:07 1652 1653	 1492703707	 783145374	 161717.
15:55:07 1653 1654	 1492703707	 920110054	 136965.
15:55:08 1654 1655	 1492703708	 81741760	 161631.
15:55:08 1655 1656	 1492703708	 243343670	 161603.
15:55:08 1656 1657	 1492703708	 409102488	 165758.
15:55:08 1657 1658	 1492703708	 570681817	 161580.
15:55:08 1658 1659	 1492703708	 736630966	 165949.
15:55:08 1659 1660	 1492703708	 898252579	 161621.
15:55:09 1660 1661	 1492703709	 35245603	 136993.
15:55:09 1661 1662	 1492703709	 197001637	 161756.
15:55:09 1662 1663	 1492703709	 358608145	 161607.
15:55:09 1663 1664	 1492703709	 524857970	 166250.
15:55:09 1664 1665	 1492703709	 687023676	 162165.
15:55:09 1665 1666	 1492703709	 848803382	 161780.
15:55:09 1666 1667	 1492703709	 986167065	 137364.
15:55:10 1667 1668	 1492703710	 147813121	 161646.
15:55:10 1668 1669	 1492703710	 309649534	 161836.
15:55:10 1669 1670	 1492703710	 475602914	 165954.
15:55:10 1670 1671	 1492703710	 637415794	 161813.
15:55:10 1671 1672	 1492703710	 770110044	 132694.
15:55:10 1672 1673	 1492703710	 935640000	 165530.
15:55:11 1673 1674	 1492703711	 97210554	 161570.
15:55:11 1674 1675	 1492703711	 262824187	 165614.
15:55:11 1675 1676	 1492703711	 424795427	 161971.
15:55:11 1676 1677	 1492703711	 590778583	 165983.
15:55:11 1677 1678	 1492703711	 752720739	 161942.
15:55:11 1678 1679	 1492703711	 886004734	 133284.
15:55:12 1679 1680	 1492703712	 51870128	 165866.
15:55:12 1680 1681	 1492703712	 213730259	 161860.
15:55:12 1681 1682	 1492703712	 379568157	 165838.
15:55:12 1682 1683	 1492703712	 541335688	 161767.
15:55:12 1683 1684	 1492703712	 706979358	 165644.
15:55:12 1684 1685	 1492703712	 840180920	 133202.
15:55:13 1685 1686	 1492703713	 5962942	 165782.
15:55:13 1686 1687	 1492703713	 164515100	 158552.
15:55:13 1687 1688	 1492703713	 326091679	 161576.
15:55:13 1688 1689	 1492703713	 491931538	 165840.
15:55:13 1689 1690	 1492703713	 653370727	 161439.
15:55:13 1690 1691	 1492703713	 786272635	 132902.
15:55:13 1691 1692	 1492703713	 952189454	 165917.
15:55:14 1692 1693	 1492703714	 113973742	 161784.
15:55:14 1693 1694	 1492703714	 280177446	 166204.
15:55:14 1694 1695	 1492703714	 442084083	 161907.
15:55:14 1695 1696	 1492703714	 608145289	 166061.
15:55:14 1696 1697	 1492703714	 741261849	 133116.
15:55:14 1697 1698	 1492703714	 906992398	 165731.
15:55:15 1698 1699	 1492703715	 68472103	 161480.
15:55:15 1699 1700	 1492703715	 234402113	 165930.
15:55:15 1700 1701	 1492703715	 396140654	 161738.
15:55:15 1701 1702	 1492703715	 533345281	 137205.
15:55:15 1702 1703	 1492703715	 695319226	 161974.
15:55:15 1703 1704	 1492703715	 860938442	 165619.
15:55:16 1704 1705	 1492703716	 22654365	 161716.
15:55:16 1705 1706	 1492703716	 159544916	 136891.
15:55:16 1706 1707	 1492703716	 321153486	 161608.
15:55:16 1707 1708	 1492703716	 487176093	 166023.
15:55:16 1708 1709	 1492703716	 649462987	 162287.
15:55:16 1709 1710	 1492703716	 815408712	 165945.
15:55:16 1710 1711	 1492703716	 977347924	 161940.
15:55:17 1711 1712	 1492703717	 114486794	 137138.
15:55:17 1712 1713	 1492703717	 276373736	 161887.
15:55:17 1713 1714	 1492703717	 441539846	 165167.
15:55:17 1714 1715	 1492703717	 603143324	 161603.
15:55:17 1715 1716	 1492703717	 740235066	 137092.
15:55:17 1716 1717	 1492703717	 902362593	 162127.
15:55:18 1717 1718	 1492703718	 68076632	 165714.
15:55:18 1718 1719	 1492703718	 229922026	 161846.
15:55:18 1719 1720	 1492703718	 396114217	 166192.
15:55:18 1720 1721	 1492703718	 557787069	 161673.
15:55:18 1721 1722	 1492703718	 694701285	 136914.
15:55:18 1722 1723	 1492703718	 856483204	 161782.
15:55:19 1723 1724	 1492703719	 22350561	 165867.
15:55:19 1724 1725	 1492703719	 184293416	 161943.
15:55:19 1725 1726	 1492703719	 350266574	 165973.
15:55:19 1726 1727	 1492703719	 483468435	 133202.
15:55:19 1727 1728	 1492703719	 645598396	 162130.
15:55:19 1728 1729	 1492703719	 811666682	 166068.
15:55:19 1729 1730	 1492703719	 973744809	 162078.
15:55:20 1730 1731	 1492703720	 139537981	 165794.
15:55:20 1731 1732	 1492703720	 301446806	 161908.
15:55:20 1732 1733	 1492703720	 438955271	 137509.
15:55:20 1733 1734	 1492703720	 601303915	 162349.
15:55:20 1734 1735	 1492703720	 767195531	 165891.
15:55:20 1735 1736	 1492703720	 929126377	 161931.
15:55:21 1736 1737	 1492703721	 94881211	 165755.
15:55:21 1737 1738	 1492703721	 256574435	 161693.
15:55:21 1738 1739	 1492703721	 394009377	 137435.
15:55:21 1739 1740	 1492703721	 555525552	 161516.
15:55:21 1740 1741	 1492703721	 717240287	 161715.
15:55:21 1741 1742	 1492703721	 883194692	 165954.
15:55:22 1742 1743	 1492703722	 44925462	 161731.
15:55:22 1743 1744	 1492703722	 182169056	 137244.
15:55:22 1744 1745	 1492703722	 348728503	 166559.
15:55:22 1745 1746	 1492703722	 510535246	 161807.
15:55:22 1746 1747	 1492703722	 672375200	 161840.
15:55:22 1747 1748	 1492703722	 838435415	 166060.
15:55:22 1748 1749	 1492703723	 587196	 162152.
15:55:23 1749 1750	 1492703723	 138422358	 137835.
15:55:23 1750 1751	 1492703723	 299857030	 161435.
15:55:23 1751 1752	 1492703723	 465753666	 165896.
15:55:23 1752 1753	 1492703723	 627683908	 161931.
15:55:23 1753 1754	 1492703723	 793452227	 165768.
15:55:23 1754 1755	 1492703723	 926502911	 133051.
15:55:24 1755 1756	 1492703724	 92699715	 166196.
15:55:24 1756 1757	 1492703724	 259650489	 166951.
15:55:24 1757 1758	 1492703724	 413997235	 154347.
15:55:24 1758 1759	 1492703724	 580279967	 166283.
15:55:24 1759 1760	 1492703724	 742161433	 161881.
15:55:24 1760 1761	 1492703724	 908912158	 166751.
15:55:25 1761 1762	 1492703725	 70953549	 162041.
15:55:25 1762 1763	 1492703725	 208225776	 137272.
15:55:25 1763 1764	 1492703725	 370225478	 162000.
15:55:25 1764 1765	 1492703725	 536197681	 165972.
15:55:25 1765 1766	 1492703725	 698046788	 161849.
15:55:25 1766 1767	 1492703725	 863845445	 165799.
15:55:25 1767 1768	 1492703725	 996868662	 133023.
15:55:26 1768 1769	 1492703726	 158706818	 161838.
15:55:26 1769 1770	 1492703726	 324509113	 165803.
15:55:26 1770 1771	 1492703726	 486204650	 161695.
15:55:26 1771 1772	 1492703726	 651934826	 165730.
15:55:26 1772 1773	 1492703726	 784864077	 132930.
15:55:26 1773 1774	 1492703726	 950773400	 165909.
15:55:27 1774 1775	 1492703727	 112533817	 161760.
15:55:27 1775 1776	 1492703727	 278623717	 166090.
15:55:27 1776 1777	 1492703727	 440253492	 161630.
15:55:27 1777 1778	 1492703727	 573263322	 133010.
15:55:27 1778 1779	 1492703727	 739043139	 165780.
15:55:27 1779 1780	 1492703727	 900767568	 161724.
15:55:28 1780 1781	 1492703728	 66619069	 165852.
15:55:28 1781 1782	 1492703728	 228871539	 162252.
15:55:28 1782 1783	 1492703728	 394686021	 165815.
15:55:28 1783 1784	 1492703728	 527973911	 133288.
15:55:28 1784 1785	 1492703728	 694234018	 166260.
15:55:28 1785 1786	 1492703728	 856467984	 162234.
15:55:29 1786 1787	 1492703729	 22451149	 165983.
15:55:29 1787 1788	 1492703729	 184164923	 161714.
15:55:29 1788 1789	 1492703729	 349851031	 165686.
15:55:29 1789 1790	 1492703729	 483096369	 133245.
15:55:29 1790 1791	 1492703729	 645125240	 162029.
15:55:29 1791 1792	 1492703729	 811059257	 165934.
15:55:29 1792 1793	 1492703729	 972863470	 161804.
15:55:30 1793 1794	 1492703730	 138901000	 166038.
15:55:30 1794 1795	 1492703730	 300631215	 161730.
15:55:30 1795 1796	 1492703730	 438118874	 137488.
15:55:30 1796 1797	 1492703730	 599918028	 161799.
15:55:30 1797 1798	 1492703730	 762032115	 162114.
15:55:30 1798 1799	 1492703730	 927834695	 165802.
15:55:31 1799 1800	 1492703731	 89857156	 162023.
15:55:31 1800 1801	 1492703731	 255812429	 165955.
15:55:31 1801 1802	 1492703731	 389457567	 133645.
15:55:31 1802 1803	 1492703731	 555231537	 165774.
15:55:31 1803 1804	 1492703731	 716900573	 161669.
15:55:31 1804 1805	 1492703731	 882611658	 165711.
15:55:32 1805 1806	 1492703732	 44221942	 161611.
15:55:32 1806 1807	 1492703732	 181596293	 137374.
15:55:32 1807 1808	 1492703732	 343061793	 161465.
15:55:32 1808 1809	 1492703732	 508826462	 165765.
15:55:32 1809 1810	 1492703732	 670829304	 162003.
15:55:32 1810 1811	 1492703732	 832689823	 161860.
15:55:32 1811 1812	 1492703732	 970012031	 137323.
15:55:33 1812 1813	 1492703733	 136138033	 166126.
15:55:33 1813 1814	 1492703733	 298464090	 162326.
15:55:33 1814 1815	 1492703733	 460499987	 162036.
15:55:33 1815 1816	 1492703733	 626466801	 165966.
15:55:33 1816 1817	 1492703733	 788258826	 161793.
15:55:33 1817 1818	 1492703733	 925636489	 137377.
15:55:34 1818 1819	 1492703734	 87281685	 161645.
15:55:34 1819 1820	 1492703734	 253129798	 165848.
15:55:34 1820 1821	 1492703734	 415230028	 162101.
15:55:34 1821 1822	 1492703734	 581056611	 165826.
15:55:34 1822 1823	 1492703734	 714122642	 133066.
15:55:34 1823 1824	 1492703734	 880137946	 166016.
15:55:35 1824 1825	 1492703735	 41910855	 161773.
15:55:35 1825 1826	 1492703735	 207777273	 165866.
15:55:35 1826 1827	 1492703735	 340976391	 133199.
15:55:35 1827 1828	 1492703735	 507025832	 166049.
15:55:35 1828 1829	 1492703735	 669130924	 162106.
15:55:35 1829 1830	 1492703735	 834695495	 165564.
15:55:35 1830 1831	 1492703735	 996506128	 161811.
15:55:36 1831 1832	 1492703736	 162252929	 165747.
15:55:36 1832 1833	 1492703736	 295570305	 133317.
15:55:36 1833 1834	 1492703736	 461680771	 166110.
15:55:36 1834 1835	 1492703736	 623516896	 161837.
15:55:36 1835 1836	 1492703736	 789288768	 165771.
15:55:36 1836 1837	 1492703736	 951272539	 161984.
15:55:37 1837 1838	 1492703737	 117298592	 166026.
15:55:37 1838 1839	 1492703737	 279537062	 162239.
15:55:37 1839 1840	 1492703737	 445730156	 166193.
15:55:37 1840 1841	 1492703737	 578815426	 133085.
15:55:37 1841 1842	 1492703737	 745330104	 166515.
15:55:37 1842 1843	 1492703737	 907669211	 162339.
15:55:38 1843 1844	 1492703738	 73997003	 166328.
15:55:38 1844 1845	 1492703738	 236116620	 162119.
15:55:38 1845 1846	 1492703738	 402912186	 166796.
15:55:38 1846 1847	 1492703738	 568876026	 165964.
15:55:38 1847 1848	 1492703738	 701844165	 132968.
15:55:38 1848 1849	 1492703738	 868028604	 166184.
15:55:39 1849 1850	 1492703739	 29875092	 161847.
15:55:39 1850 1851	 1492703739	 196182803	 166307.
15:55:39 1851 1852	 1492703739	 358222247	 162040.
15:55:39 1852 1853	 1492703739	 520398738	 162176.
15:55:39 1853 1854	 1492703739	 653208492	 132810.
15:55:39 1854 1855	 1492703739	 818668699	 165462.
15:55:39 1855 1856	 1492703739	 979730118	 161060.
15:55:40 1856 1857	 1492703740	 145451195	 165721.
15:55:40 1857 1858	 1492703740	 278889739	 133438.
15:55:40 1858 1859	 1492703740	 444946418	 166057.
15:55:40 1859 1860	 1492703740	 607117965	 162172.
15:55:40 1860 1861	 1492703740	 773020716	 165902.
15:55:40 1861 1862	 1492703740	 935361786	 162341.
15:55:41 1862 1863	 1492703741	 101282491	 165921.
15:55:41 1863 1864	 1492703741	 259847933	 158566.
15:55:41 1864 1865	 1492703741	 393042675	 133194.
15:55:41 1865 1866	 1492703741	 559255056	 166213.
15:55:41 1866 1867	 1492703741	 721071916	 161817.
15:55:41 1867 1868	 1492703741	 887067451	 165995.
15:55:42 1868 1869	 1492703742	 48835803	 161768.
15:55:42 1869 1870	 1492703742	 215152869	 166318.
15:55:42 1870 1871	 1492703742	 348644040	 133491.
15:55:42 1871 1872	 1492703742	 514786493	 166142.
15:55:42 1872 1873	 1492703742	 676710208	 161924.
15:55:42 1873 1874	 1492703742	 842792966	 166083.
15:55:43 1874 1875	 1492703743	 4846373	 162053.
15:55:43 1875 1876	 1492703743	 171005252	 166159.
15:55:43 1876 1877	 1492703743	 332977809	 161972.
15:55:43 1877 1878	 1492703743	 470000555	 137023.
15:55:43 1878 1879	 1492703743	 632298932	 162299.
15:55:43 1879 1880	 1492703743	 798404812	 166105.
15:55:43 1880 1881	 1492703743	 960608827	 162204.
15:55:44 1881 1882	 1492703744	 126487326	 165879.
15:55:44 1882 1883	 1492703744	 292509225	 166022.
15:55:44 1883 1884	 1492703744	 425761244	 133252.
15:55:44 1884 1885	 1492703744	 587840401	 162079.
15:55:44 1885 1886	 1492703744	 753725885	 165886.
