17:07:16    0 Step	 time(s)	 time(ns)	 delta(ms)
17:07:16    0 1	 1492621636	 394181456	 29872.
17:07:16    1 2	 1492621636	 556226128	 162045.
17:07:16    2 3	 1492621636	 722577138	 166351.
17:07:16    3 4	 1492621636	 855773589	 133196.
17:07:17    4 5	 1492621637	 21831325	 166058.
17:07:17    5 6	 1492621637	 184166180	 162335.
17:07:17    6 7	 1492621637	 346176138	 162010.
17:07:17    7 8	 1492621637	 512265021	 166089.
17:07:17    8 9	 1492621637	 674025321	 161760.
17:07:17    9 10	 1492621637	 811316799	 137291.
17:07:17   10 11	 1492621637	 973241569	 161925.
17:07:18   11 12	 1492621638	 139517048	 166276.
17:07:18   12 13	 1492621638	 301788342	 162271.
17:07:18   13 14	 1492621638	 468023576	 166235.
17:07:18   14 15	 1492621638	 633915505	 165892.
17:07:18   15 16	 1492621638	 767246103	 133331.
17:07:18   16 17	 1492621638	 928940613	 161694.
17:07:19   17 18	 1492621639	 94774791	 165835.
17:07:19   18 19	 1492621639	 256905097	 162130.
17:07:19   19 20	 1492621639	 418789833	 161885.
17:07:19   20 21	 1492621639	 584980130	 166190.
17:07:19   21 22	 1492621639	 746798470	 161818.
17:07:19   22 23	 1492621639	 912859875	 166062.
17:07:20   23 24	 1492621640	 75061807	 162201.
17:07:20   24 25	 1492621640	 212444738	 137383.
17:07:20   25 26	 1492621640	 374377699	 161933.
17:07:20   26 27	 1492621640	 540738940	 166362.
17:07:20   27 28	 1492621640	 702863797	 162124.
17:07:20   28 29	 1492621640	 868782042	 165919.
17:07:21   29 30	 1492621641	 30405945	 161624.
17:07:21   30 31	 1492621641	 167353592	 136947.
17:07:21   31 32	 1492621641	 329318868	 161966.
17:07:21   32 33	 1492621641	 495208360	 165889.
17:07:21   33 34	 1492621641	 656934661	 161726.
17:07:21   34 35	 1492621641	 823531137	 166597.
17:07:21   35 36	 1492621641	 956802888	 133272.
17:07:22   36 37	 1492621642	 118988617	 162185.
17:07:22   37 38	 1492621642	 285132814	 166145.
17:07:22   38 39	 1492621642	 447088638	 161955.
17:07:22   39 40	 1492621642	 612989137	 165901.
17:07:22   40 41	 1492621642	 746271139	 133282.
17:07:22   41 42	 1492621642	 912305318	 166034.
17:07:23   42 43	 1492621643	 78288165	 165983.
17:07:23   43 44	 1492621643	 239993691	 161705.
17:07:23   44 45	 1492621643	 377397731	 137404.
17:07:23   45 46	 1492621643	 539537396	 162140.
17:07:23   46 47	 1492621643	 705598376	 166061.
17:07:23   47 48	 1492621643	 867509415	 161911.
17:07:24   48 49	 1492621644	 33982547	 166473.
17:07:24   49 50	 1492621644	 167374365	 133392.
17:07:24   50 51	 1492621644	 333042339	 165668.
17:07:24   51 52	 1492621644	 499376780	 166334.
17:07:24   52 53	 1492621644	 661308617	 161932.
17:07:24   53 54	 1492621644	 827578249	 166270.
17:07:24   54 55	 1492621644	 989218879	 161641.
17:07:25   55 56	 1492621645	 126298812	 137080.
17:07:25   56 57	 1492621645	 287997284	 161698.
17:07:25   57 58	 1492621645	 449571164	 161574.
17:07:25   58 59	 1492621645	 615648060	 166077.
17:07:25   59 60	 1492621645	 777392555	 161744.
17:07:25   60 61	 1492621645	 943316979	 165925.
17:07:26   61 62	 1492621646	 105248399	 161931.
17:07:26   62 63	 1492621646	 242553149	 137305.
17:07:26   63 64	 1492621646	 405121217	 162568.
17:07:26   64 65	 1492621646	 571473758	 166353.
17:07:26   65 66	 1492621646	 733497568	 162023.
17:07:26   66 67	 1492621646	 899620052	 166123.
17:07:27   67 68	 1492621647	 61711609	 162091.
17:07:27   68 69	 1492621647	 227901507	 166190.
17:07:27   69 70	 1492621647	 361219007	 133318.
17:07:27   70 71	 1492621647	 526881877	 165663.
17:07:27   71 72	 1492621647	 688374223	 161492.
17:07:27   72 73	 1492621647	 854618036	 166244.
17:07:28   73 74	 1492621648	 16632782	 162014.
17:07:28   74 75	 1492621648	 182431811	 165800.
17:07:28   75 76	 1492621648	 315225573	 132793.
17:07:28   76 77	 1492621648	 480916965	 165692.
17:07:28   77 78	 1492621648	 642484716	 161567.
17:07:28   78 79	 1492621648	 808202956	 165719.
17:07:28   79 80	 1492621648	 970184075	 161981.
17:07:29   80 81	 1492621649	 131865290	 161681.
17:07:29   81 82	 1492621649	 297861962	 165997.
17:07:29   82 83	 1492621649	 459683801	 161822.
17:07:29   83 84	 1492621649	 592961831	 133278.
17:07:29   84 85	 1492621649	 759033554	 166071.
17:07:29   85 86	 1492621649	 921032174	 161999.
17:07:30   86 87	 1492621650	 87258924	 166227.
17:07:30   87 88	 1492621650	 249374432	 162115.
17:07:30   88 89	 1492621650	 415560222	 166186.
17:07:30   89 90	 1492621650	 577492698	 161932.
17:07:30   90 91	 1492621650	 739492971	 162001.
17:07:30   91 92	 1492621650	 905595671	 166102.
17:07:31   92 93	 1492621651	 67447802	 161853.
17:07:31   93 94	 1492621651	 233480712	 166032.
17:07:31   94 95	 1492621651	 395502207	 162022.
17:07:31   95 96	 1492621651	 561519135	 166017.
17:07:31   96 97	 1492621651	 723631169	 162112.
17:07:31   97 98	 1492621651	 885571641	 161940.
17:07:32   98 99	 1492621652	 22732816	 137162.
17:07:32   99 100	 1492621652	 184852157	 162119.
17:07:32  100 101	 1492621652	 350653824	 165802.
17:07:32  101 102	 1492621652	 512259998	 161606.
17:07:32  102 103	 1492621652	 678249245	 165989.
17:07:32  103 104	 1492621652	 811501610	 133252.
17:07:32  104 105	 1492621652	 977892235	 166391.
17:07:33  105 106	 1492621653	 144876573	 166984.
17:07:33  106 107	 1492621653	 302849862	 157974.
17:07:33  107 108	 1492621653	 465166252	 162316.
17:07:33  108 109	 1492621653	 631407613	 166241.
17:07:33  109 110	 1492621653	 797621501	 166214.
17:07:33  110 111	 1492621653	 959668331	 162047.
17:07:34  111 112	 1492621654	 97002386	 137334.
17:07:34  112 113	 1492621654	 258848426	 161846.
17:07:34  113 114	 1492621654	 420449350	 161601.
17:07:34  114 115	 1492621654	 586142892	 165694.
17:07:34  115 116	 1492621654	 747706507	 161563.
17:07:34  116 117	 1492621654	 884750289	 137044.
17:07:35  117 118	 1492621655	 46551203	 161801.
17:07:35  118 119	 1492621655	 212463319	 165912.
17:07:35  119 120	 1492621655	 373944969	 161482.
17:07:35  120 121	 1492621655	 535540189	 161595.
17:07:35  121 122	 1492621655	 701251573	 165711.
17:07:35  122 123	 1492621655	 862878857	 161628.
17:07:35  123 124	 1492621656	 168634	 137289.
17:07:36  124 125	 1492621656	 161896521	 161728.
17:07:36  125 126	 1492621656	 327562814	 165667.
17:07:36  126 127	 1492621656	 489063794	 161500.
17:07:36  127 128	 1492621656	 650807999	 161745.
17:07:36  128 129	 1492621656	 787676259	 136868.
17:07:36  129 130	 1492621656	 949274661	 161598.
17:07:37  130 131	 1492621657	 114937638	 165663.
17:07:37  131 132	 1492621657	 276759596	 161822.
17:07:37  132 133	 1492621657	 439176162	 162417.
17:07:37  133 134	 1492621657	 605362473	 166186.
17:07:37  134 135	 1492621657	 771206387	 165844.
17:07:37  135 136	 1492621657	 904615177	 133409.
17:07:38  136 137	 1492621658	 66600626	 161985.
17:07:38  137 138	 1492621658	 233005659	 166405.
17:07:38  138 139	 1492621658	 395106023	 162101.
17:07:38  139 140	 1492621658	 561299097	 166193.
17:07:38  140 141	 1492621658	 723532085	 162233.
17:07:38  141 142	 1492621658	 860890226	 137358.
17:07:39  142 143	 1492621659	 22660891	 161771.
17:07:39  143 144	 1492621659	 188664435	 166003.
17:07:39  144 145	 1492621659	 354683733	 166019.
17:07:39  145 146	 1492621659	 516650552	 161967.
17:07:39  146 147	 1492621659	 653892247	 137242.
17:07:39  147 148	 1492621659	 815736740	 161844.
17:07:39  148 149	 1492621659	 981584306	 165848.
17:07:40  149 150	 1492621660	 143376723	 161792.
17:07:40  150 151	 1492621660	 276364358	 132988.
17:07:40  151 152	 1492621660	 442152565	 165788.
17:07:40  152 153	 1492621660	 607875545	 165723.
17:07:40  153 154	 1492621660	 769605385	 161730.
17:07:40  154 155	 1492621660	 931301941	 161697.
17:07:41  155 156	 1492621661	 68217737	 136915.
17:07:41  156 157	 1492621661	 229990252	 161773.
17:07:41  157 158	 1492621661	 395806231	 165816.
17:07:41  158 159	 1492621661	 561424891	 165619.
17:07:41  159 160	 1492621661	 694669404	 133244.
17:07:41  160 161	 1492621661	 860712206	 166043.
17:07:42  161 162	 1492621662	 22606495	 161894.
17:07:42  162 163	 1492621662	 188741656	 166135.
17:07:42  163 164	 1492621662	 325969181	 137228.
17:07:42  164 165	 1492621662	 488220597	 162251.
17:07:42  165 166	 1492621662	 654234321	 166014.
17:07:42  166 167	 1492621662	 816284033	 162050.
17:07:42  167 168	 1492621662	 982210401	 165926.
17:07:43  168 169	 1492621663	 144100035	 161890.
17:07:43  169 170	 1492621663	 277664625	 133564.
17:07:43  170 171	 1492621663	 443907862	 166244.
17:07:43  171 172	 1492621663	 610078634	 166170.
17:07:43  172 173	 1492621663	 771929685	 161851.
17:07:43  173 174	 1492621663	 937968625	 166039.
17:07:44  174 175	 1492621664	 104301825	 166334.
17:07:44  175 176	 1492621664	 273362910	 169061.
17:07:44  176 177	 1492621664	 410906919	 137544.
17:07:44  177 178	 1492621664	 576807389	 165900.
17:07:44  178 179	 1492621664	 738545942	 161739.
17:07:44  179 180	 1492621664	 875673441	 137127.
17:07:45  180 181	 1492621665	 37454106	 161781.
17:07:45  181 182	 1492621665	 203878410	 166424.
17:07:45  182 183	 1492621665	 365749366	 161871.
17:07:45  183 184	 1492621665	 531767246	 166018.
17:07:45  184 185	 1492621665	 664949022	 133182.
17:07:45  185 186	 1492621665	 830644723	 165695.
17:07:45  186 187	 1492621665	 992314801	 161671.
17:07:46  187 188	 1492621666	 158271862	 165957.
17:07:46  188 189	 1492621666	 320803336	 162531.
17:07:46  189 190	 1492621666	 458435707	 137633.
17:07:46  190 191	 1492621666	 620536108	 162100.
17:07:46  191 192	 1492621666	 787034943	 166499.
17:07:46  192 193	 1492621666	 952927724	 165892.
17:07:47  193 194	 1492621667	 114962407	 162035.
17:07:47  194 195	 1492621667	 251870949	 136909.
17:07:47  195 196	 1492621667	 413707088	 161836.
17:07:47  196 197	 1492621667	 579322816	 165616.
17:07:47  197 198	 1492621667	 745429818	 166107.
17:07:47  198 199	 1492621667	 907768112	 162338.
17:07:48  199 200	 1492621668	 41212776	 133444.
17:07:48  200 201	 1492621668	 207018709	 165806.
17:07:48  201 202	 1492621668	 369095535	 162077.
17:07:48  202 203	 1492621668	 535122302	 166027.
17:07:48  203 204	 1492621668	 701127724	 166005.
17:07:48  204 205	 1492621668	 834519822	 133393.
17:07:48  205 206	 1492621668	 996824134	 162304.
17:07:49  206 207	 1492621669	 162843322	 166019.
17:07:49  207 208	 1492621669	 324802540	 161959.
17:07:49  208 209	 1492621669	 490672215	 165870.
17:07:49  209 210	 1492621669	 624108534	 133436.
17:07:49  210 211	 1492621669	 790278985	 166171.
17:07:49  211 212	 1492621669	 952137726	 161858.
17:07:50  212 213	 1492621670	 118645333	 166508.
17:07:50  213 214	 1492621670	 280686307	 162041.
17:07:50  214 215	 1492621670	 446756677	 166070.
17:07:50  215 216	 1492621670	 609080469	 162324.
17:07:50  216 217	 1492621670	 746411227	 137331.
17:07:50  217 218	 1492621670	 908263438	 161852.
17:07:51  218 219	 1492621671	 74426787	 166163.
17:07:51  219 220	 1492621671	 236621786	 162195.
17:07:51  220 221	 1492621671	 402414486	 165793.
17:07:51  221 222	 1492621671	 564560550	 162146.
17:07:51  222 223	 1492621671	 701731468	 137171.
17:07:51  223 224	 1492621671	 863865878	 162135.
17:07:52  224 225	 1492621672	 30255315	 166389.
17:07:52  225 226	 1492621672	 192081035	 161826.
17:07:52  226 227	 1492621672	 329112749	 137031.
17:07:52  227 228	 1492621672	 491189017	 162077.
17:07:52  228 229	 1492621672	 656814962	 165626.
17:07:52  229 230	 1492621672	 818487552	 161672.
17:07:52  230 231	 1492621672	 984505555	 166018.
17:07:53  231 232	 1492621673	 118100370	 133595.
17:07:53  232 233	 1492621673	 284564940	 166465.
17:07:53  233 234	 1492621673	 446133144	 161568.
17:07:53  234 235	 1492621673	 612141509	 166008.
17:07:53  235 236	 1492621673	 773828401	 161687.
17:07:53  236 237	 1492621673	 939821971	 165994.
17:07:54  237 238	 1492621674	 73331832	 133510.
17:07:54  238 239	 1492621674	 239634514	 166302.
17:07:54  239 240	 1492621674	 401538826	 161905.
17:07:54  240 241	 1492621674	 563272667	 161733.
17:07:54  241 242	 1492621674	 729103849	 165832.
17:07:54  242 243	 1492621674	 866729881	 137626.
17:07:55  243 244	 1492621675	 29160715	 162430.
17:07:55  244 245	 1492621675	 195409249	 166249.
17:07:55  245 246	 1492621675	 357260567	 161851.
17:07:55  246 247	 1492621675	 523289226	 166029.
17:07:55  247 248	 1492621675	 684976648	 161687.
17:07:55  248 249	 1492621675	 822451301	 137475.
17:07:55  249 250	 1492621675	 985026715	 162575.
17:07:56  250 251	 1492621676	 151408466	 166382.
17:07:56  251 252	 1492621676	 313441316	 162033.
17:07:56  252 253	 1492621676	 479271580	 165830.
17:07:56  253 254	 1492621676	 641000642	 161729.
17:07:56  254 255	 1492621676	 802513068	 161513.
17:07:56  255 256	 1492621676	 939686104	 137173.
17:07:57  256 257	 1492621677	 101474036	 161788.
17:07:57  257 258	 1492621677	 267451230	 165977.
17:07:57  258 259	 1492621677	 429693837	 162243.
17:07:57  259 260	 1492621677	 595814884	 166121.
17:07:57  260 261	 1492621677	 757744561	 161929.
17:07:57  261 262	 1492621677	 919784698	 162040.
17:07:58  262 263	 1492621678	 85751249	 165967.
17:07:58  263 264	 1492621678	 247518127	 161767.
17:07:58  264 265	 1492621678	 413342134	 165824.
17:07:58  265 266	 1492621678	 575065620	 161723.
17:07:58  266 267	 1492621678	 740860664	 165795.
17:07:58  267 268	 1492621678	 874076548	 133216.
17:07:59  268 269	 1492621679	 36007635	 161931.
17:07:59  269 270	 1492621679	 201770232	 165763.
17:07:59  270 271	 1492621679	 363744264	 161974.
17:07:59  271 272	 1492621679	 525673561	 161929.
17:07:59  272 273	 1492621679	 691682867	 166010.
17:07:59  273 274	 1492621679	 853465853	 161783.
17:08:00  274 275	 1492621680	 19350578	 165884.
17:08:00  275 276	 1492621680	 180990405	 161640.
17:08:00  276 277	 1492621680	 342940809	 161951.
17:08:00  277 278	 1492621680	 480025876	 137085.
17:08:00  278 279	 1492621680	 642052041	 162026.
17:08:00  279 280	 1492621680	 807824164	 165772.
17:08:00  280 281	 1492621680	 969039250	 161215.
17:08:01  281 282	 1492621681	 134554102	 165515.
17:08:01  282 283	 1492621681	 296811634	 162257.
17:08:01  283 284	 1492621681	 454278724	 157467.
17:08:01  284 285	 1492621681	 615856607	 161578.
17:08:01  285 286	 1492621681	 753254452	 137398.
17:08:01  286 287	 1492621681	 915118060	 161864.
17:08:02  287 288	 1492621682	 80877350	 165759.
17:08:02  288 289	 1492621682	 242553299	 161676.
17:08:02  289 290	 1492621682	 408185566	 165632.
17:08:02  290 291	 1492621682	 541220088	 133035.
17:08:02  291 292	 1492621682	 702883241	 161663.
17:08:02  292 293	 1492621682	 868711974	 165829.
17:08:03  293 294	 1492621683	 30322257	 161610.
17:08:03  294 295	 1492621683	 196006349	 165684.
17:08:03  295 296	 1492621683	 357719286	 161713.
17:08:03  296 297	 1492621683	 523606437	 165887.
17:08:03  297 298	 1492621683	 656743841	 133138.
17:08:03  298 299	 1492621683	 818634154	 161890.
17:08:03  299 300	 1492621683	 984443518	 165809.
17:08:04  300 301	 1492621684	 146110025	 161667.
17:08:04  301 302	 1492621684	 312010955	 165901.
17:08:04  302 303	 1492621684	 473634169	 161623.
17:08:04  303 304	 1492621684	 639243778	 165609.
17:08:04  304 305	 1492621684	 772367986	 133125.
17:08:04  305 306	 1492621684	 934064534	 161696.
17:08:05  306 307	 1492621685	 99958704	 165894.
17:08:05  307 308	 1492621685	 261664009	 161706.
17:08:05  308 309	 1492621685	 427640011	 165976.
17:08:05  309 310	 1492621685	 589411063	 161771.
17:08:05  310 311	 1492621685	 754967886	 165557.
17:08:05  311 312	 1492621685	 888141600	 133174.
17:08:06  312 313	 1492621686	 49491226	 161349.
17:08:06  313 314	 1492621686	 215395378	 165904.
17:08:06  314 315	 1492621686	 377232018	 161837.
17:08:06  315 316	 1492621686	 543119098	 165887.
17:08:06  316 317	 1492621686	 704866547	 161747.
17:08:06  317 318	 1492621686	 871019553	 166153.
17:08:07  318 319	 1492621687	 32536487	 161517.
17:08:07  319 320	 1492621687	 165555018	 133019.
17:08:07  320 321	 1492621687	 331232643	 165677.
17:08:07  321 322	 1492621687	 492801485	 161569.
17:08:07  322 323	 1492621687	 658376448	 165575.
17:08:07  323 324	 1492621687	 819961017	 161585.
17:08:07  324 325	 1492621687	 952821164	 132860.
17:08:08  325 326	 1492621688	 118198828	 165378.
17:08:08  326 327	 1492621688	 279619092	 161420.
17:08:08  327 328	 1492621688	 445318173	 165699.
17:08:08  328 329	 1492621688	 607032467	 161714.
17:08:08  329 330	 1492621688	 768484039	 161452.
17:08:08  330 331	 1492621688	 905567930	 137084.
17:08:09  331 332	 1492621689	 67272303	 161704.
17:08:09  332 333	 1492621689	 229104019	 161832.
17:08:09  333 334	 1492621689	 394919459	 165815.
17:08:09  334 335	 1492621689	 556850864	 161932.
17:08:09  335 336	 1492621689	 722787458	 165937.
17:08:09  336 337	 1492621689	 885022363	 162234.
17:08:10  337 338	 1492621690	 51597401	 166575.
17:08:10  338 339	 1492621690	 214147646	 162550.
17:08:10  339 340	 1492621690	 380304609	 166158.
17:08:10  340 341	 1492621690	 513805374	 133500.
17:08:10  341 342	 1492621690	 679844231	 166039.
17:08:10  342 343	 1492621690	 841869544	 162025.
17:08:11  343 344	 1492621691	 3977682	 162108.
17:08:11  344 345	 1492621691	 169936331	 165959.
17:08:11  345 346	 1492621691	 332073127	 162137.
17:08:11  346 347	 1492621691	 498232852	 166160.
17:08:11  347 348	 1492621691	 660235053	 162002.
17:08:11  348 349	 1492621691	 825928636	 165693.
17:08:11  349 350	 1492621691	 987801826	 161874.
17:08:12  350 351	 1492621692	 149872025	 162070.
17:08:12  351 352	 1492621692	 316057747	 166185.
17:08:12  352 353	 1492621692	 478265338	 162208.
17:08:12  353 354	 1492621692	 644219778	 165954.
17:08:12  354 355	 1492621692	 806320689	 162101.
17:08:12  355 356	 1492621692	 972467555	 166147.
17:08:13  356 357	 1492621693	 134498711	 162031.
17:08:13  357 358	 1492621693	 300847715	 166349.
17:08:13  358 359	 1492621693	 462765003	 161918.
17:08:13  359 360	 1492621693	 596108151	 133343.
17:08:13  360 361	 1492621693	 762033905	 165926.
17:08:13  361 362	 1492621693	 924394321	 162360.
17:08:14  362 363	 1492621694	 91123340	 166729.
17:08:14  363 364	 1492621694	 253616646	 162493.
17:08:14  364 365	 1492621694	 419322096	 165706.
17:08:14  365 366	 1492621694	 581053073	 161731.
17:08:14  366 367	 1492621694	 746930326	 165877.
17:08:14  367 368	 1492621694	 908709841	 161780.
17:08:15  368 369	 1492621695	 70374889	 161665.
17:08:15  369 370	 1492621695	 207356759	 136981.
17:08:15  370 371	 1492621695	 369163471	 161807.
17:08:15  371 372	 1492621695	 530968124	 161805.
17:08:15  372 373	 1492621695	 696842274	 165874.
17:08:15  373 374	 1492621695	 858655298	 161813.
17:08:16  374 375	 1492621696	 24343380	 165688.
17:08:16  375 376	 1492621696	 185858273	 161515.
17:08:16  376 377	 1492621696	 347599836	 161742.
17:08:16  377 378	 1492621696	 513351779	 165752.
17:08:16  378 379	 1492621696	 646370320	 133018.
17:08:16  379 380	 1492621696	 812261973	 165892.
17:08:16  380 381	 1492621696	 973933529	 161671.
17:08:17  381 382	 1492621697	 139708250	 165775.
17:08:17  382 383	 1492621697	 301333813	 161626.
17:08:17  383 384	 1492621697	 463028803	 161695.
17:08:17  384 385	 1492621697	 628696815	 165668.
17:08:17  385 386	 1492621697	 761464236	 132767.
17:08:17  386 387	 1492621697	 927242841	 165779.
17:08:18  387 388	 1492621698	 88528121	 161285.
17:08:18  388 389	 1492621698	 250598952	 162071.
17:08:18  389 390	 1492621698	 412399155	 161800.
17:08:18  390 391	 1492621698	 573989365	 161590.
17:08:18  391 392	 1492621698	 739607217	 165618.
17:08:18  392 393	 1492621698	 872547852	 132941.
17:08:19  393 394	 1492621699	 33805882	 161258.
17:08:19  394 395	 1492621699	 199163303	 165357.
17:08:19  395 396	 1492621699	 360656521	 161493.
17:08:19  396 397	 1492621699	 522135128	 161479.
17:08:19  397 398	 1492621699	 658997619	 136862.
17:08:19  398 399	 1492621699	 820532925	 161536.
17:08:19  399 400	 1492621699	 982135471	 161602.
17:08:20  400 401	 1492621700	 147826268	 165691.
17:08:20  401 402	 1492621700	 309388447	 161562.
17:08:20  402 403	 1492621700	 446407719	 137019.
17:08:20  403 404	 1492621700	 608024648	 161617.
17:08:20  404 405	 1492621700	 773715754	 165691.
17:08:20  405 406	 1492621700	 935500815	 161785.
17:08:21  406 407	 1492621701	 97272781	 161772.
17:08:21  407 408	 1492621701	 263137251	 165865.
17:08:21  408 409	 1492621701	 428972761	 165835.
17:08:21  409 410	 1492621701	 590857669	 161885.
17:08:21  410 411	 1492621701	 723818001	 132961.
17:08:21  411 412	 1492621701	 889472032	 165654.
17:08:22  412 413	 1492621702	 50662935	 161191.
17:08:22  413 414	 1492621702	 215869391	 165206.
17:08:22  414 415	 1492621702	 377160817	 161292.
17:08:22  415 416	 1492621702	 514026271	 136865.
17:08:22  416 417	 1492621702	 675447994	 161422.
17:08:22  417 418	 1492621702	 837089033	 161641.
17:08:23  418 419	 1492621703	 2886638	 165798.
17:08:23  419 420	 1492621703	 164319927	 161433.
17:08:23  420 421	 1492621703	 301144750	 136824.
17:08:23  421 422	 1492621703	 462670152	 161526.
17:08:23  422 423	 1492621703	 628299804	 165630.
17:08:23  423 424	 1492621703	 789810964	 161511.
17:08:23  424 425	 1492621703	 951162997	 161352.
17:08:24  425 426	 1492621704	 117131613	 165968.
17:08:24  426 427	 1492621704	 250100124	 132969.
17:08:24  427 428	 1492621704	 415447621	 165347.
17:08:24  428 429	 1492621704	 576756491	 161309.
17:08:24  429 430	 1492621704	 738181236	 161425.
17:08:24  430 431	 1492621704	 903812335	 165631.
17:08:25  431 432	 1492621705	 36724564	 132912.
17:08:25  432 433	 1492621705	 202443018	 165719.
17:08:25  433 434	 1492621705	 364139361	 161696.
17:08:25  434 435	 1492621705	 525723824	 161585.
17:08:25  435 436	 1492621705	 691578058	 165854.
17:08:25  436 437	 1492621705	 853191127	 161613.
17:08:26  437 438	 1492621706	 18884951	 165694.
17:08:26  438 439	 1492621706	 151768010	 132883.
17:08:26  439 440	 1492621706	 317662833	 165895.
17:08:26  440 441	 1492621706	 479053332	 161390.
17:08:26  441 442	 1492621706	 640410832	 161358.
17:08:26  442 443	 1492621706	 806578162	 166167.
17:08:26  443 444	 1492621706	 967974509	 161396.
17:08:27  444 445	 1492621707	 105085649	 137111.
17:08:27  445 446	 1492621707	 266738383	 161653.
17:08:27  446 447	 1492621707	 427906995	 161169.
17:08:27  447 448	 1492621707	 593978127	 166071.
17:08:27  448 449	 1492621707	 755800344	 161822.
17:08:27  449 450	 1492621707	 921450103	 165650.
17:08:28  450 451	 1492621708	 54700900	 133251.
17:08:28  451 452	 1492621708	 220336737	 165635.
17:08:28  452 453	 1492621708	 381793521	 161457.
17:08:28  453 454	 1492621708	 548053365	 166260.
17:08:28  454 455	 1492621708	 709536150	 161483.
17:08:28  455 456	 1492621708	 871027898	 161492.
17:08:29  456 457	 1492621709	 36823231	 165795.
17:08:29  457 458	 1492621709	 170188916	 133366.
17:08:29  458 459	 1492621709	 336140015	 165951.
17:08:29  459 460	 1492621709	 493893497	 157753.
17:08:29  460 461	 1492621709	 659387871	 165495.
17:08:29  461 462	 1492621709	 820707320	 161319.
17:08:29  462 463	 1492621709	 982286010	 161579.
17:08:30  463 464	 1492621710	 147730312	 165444.
17:08:30  464 465	 1492621710	 280598627	 132868.
17:08:30  465 466	 1492621710	 446347434	 165749.
17:08:30  466 467	 1492621710	 607881142	 161534.
17:08:30  467 468	 1492621710	 769346445	 161465.
17:08:30  468 469	 1492621710	 935297149	 165951.
17:08:31  469 470	 1492621711	 67952900	 132656.
17:08:31  470 471	 1492621711	 233260300	 165307.
17:08:31  471 472	 1492621711	 395258843	 161999.
17:08:31  472 473	 1492621711	 561236457	 165977.
17:08:31  473 474	 1492621711	 723254412	 162018.
17:08:31  474 475	 1492621711	 889077719	 165823.
17:08:32  475 476	 1492621712	 22002008	 132925.
17:08:32  476 477	 1492621712	 183528818	 161526.
17:08:32  477 478	 1492621712	 349189353	 165661.
17:08:32  478 479	 1492621712	 510784717	 161595.
17:08:32  479 480	 1492621712	 676779006	 165995.
17:08:32  480 481	 1492621712	 838541747	 161763.
17:08:32  481 482	 1492621712	 975636055	 137094.
17:08:33  482 483	 1492621713	 137630292	 161994.
17:08:33  483 484	 1492621713	 299531721	 161901.
17:08:33  484 485	 1492621713	 465260147	 165729.
17:08:33  485 486	 1492621713	 626920640	 161660.
17:08:33  486 487	 1492621713	 788537484	 161617.
17:08:33  487 488	 1492621713	 954262904	 165726.
17:08:34  488 489	 1492621714	 87383448	 133120.
17:08:34  489 490	 1492621714	 253069773	 165686.
17:08:34  490 491	 1492621714	 414933399	 161864.
17:08:34  491 492	 1492621714	 580463987	 165531.
17:08:34  492 493	 1492621714	 742151865	 161688.
17:08:34  493 494	 1492621714	 907925800	 165774.
17:08:35  494 495	 1492621715	 66113093	 158187.
17:08:35  495 496	 1492621715	 227612941	 161500.
17:08:35  496 497	 1492621715	 360922035	 133309.
17:08:35  497 498	 1492621715	 526521113	 165599.
17:08:35  498 499	 1492621715	 688130234	 161609.
17:08:35  499 500	 1492621715	 854084574	 165954.
17:08:36  500 501	 1492621716	 15795760	 161711.
17:08:36  501 502	 1492621716	 181371078	 165576.
17:08:36  502 503	 1492621716	 314537942	 133167.
17:08:36  503 504	 1492621716	 476367170	 161829.
17:08:36  504 505	 1492621716	 641653663	 165286.
17:08:36  505 506	 1492621716	 803027664	 161374.
17:08:36  506 507	 1492621716	 968456687	 165429.
17:08:37  507 508	 1492621717	 130024277	 161568.
17:08:37  508 509	 1492621717	 263062815	 133039.
17:08:37  509 510	 1492621717	 428522899	 165460.
17:08:37  510 511	 1492621717	 590090737	 161567.
17:08:37  511 512	 1492621717	 755642786	 165552.
17:08:37  512 513	 1492621717	 917294282	 161652.
17:08:38  513 514	 1492621718	 54191320	 136897.
17:08:38  514 515	 1492621718	 216055795	 161865.
17:08:38  515 516	 1492621718	 377396784	 161340.
17:08:38  516 517	 1492621718	 543296721	 165900.
17:08:38  517 518	 1492621718	 705086143	 161790.
17:08:38  518 519	 1492621718	 870752525	 165666.
17:08:39  519 520	 1492621719	 32389236	 161637.
17:08:39  520 521	 1492621719	 165448451	 133059.
17:08:39  521 522	 1492621719	 331078372	 165630.
17:08:39  522 523	 1492621719	 492699643	 161621.
17:08:39  523 524	 1492621719	 658161236	 165462.
17:08:39  524 525	 1492621719	 819469120	 161308.
17:08:39  525 526	 1492621719	 952283349	 132814.
17:08:40  526 527	 1492621720	 118496474	 166213.
17:08:40  527 528	 1492621720	 280094935	 161599.
17:08:40  528 529	 1492621720	 445473013	 165378.
17:08:40  529 530	 1492621720	 607366247	 161893.
17:08:40  530 531	 1492621720	 772704883	 165339.
17:08:40  531 532	 1492621720	 905570144	 132865.
17:08:41  532 533	 1492621721	 67080760	 161510.
17:08:41  533 534	 1492621721	 232440726	 165360.
17:08:41  534 535	 1492621721	 393844710	 161404.
17:08:41  535 536	 1492621721	 559759748	 165915.
17:08:41  536 537	 1492621721	 692852958	 133094.
17:08:41  537 538	 1492621721	 858395992	 165543.
17:08:42  538 539	 1492621722	 20060363	 161664.
17:08:42  539 540	 1492621722	 185664071	 165604.
17:08:42  540 541	 1492621722	 347430215	 161766.
17:08:42  541 542	 1492621722	 484479152	 137049.
17:08:42  542 543	 1492621722	 646098032	 161619.
17:08:42  543 544	 1492621722	 811696935	 165599.
17:08:42  544 545	 1492621722	 973477277	 161780.
17:08:43  545 546	 1492621723	 139499476	 166022.
17:08:43  546 547	 1492621723	 272575022	 133076.
17:08:43  547 548	 1492621723	 434281490	 161706.
17:08:43  548 549	 1492621723	 599639116	 165358.
17:08:43  549 550	 1492621723	 760694283	 161055.
17:08:43  550 551	 1492621723	 893654300	 132960.
17:08:44  551 552	 1492621724	 59008308	 165354.
17:08:44  552 553	 1492621724	 220307050	 161299.
17:08:44  553 554	 1492621724	 381882211	 161575.
17:08:44  554 555	 1492621724	 547091634	 165209.
17:08:44  555 556	 1492621724	 680020795	 132929.
17:08:44  556 557	 1492621724	 845859129	 165839.
17:08:45  557 558	 1492621725	 7636589	 161777.
17:08:45  558 559	 1492621725	 169713546	 162077.
17:08:45  559 560	 1492621725	 335704816	 165992.
17:08:45  560 561	 1492621725	 497601183	 161896.
17:08:45  561 562	 1492621725	 663317571	 165716.
17:08:45  562 563	 1492621725	 796310472	 132993.
17:08:45  563 564	 1492621725	 962268463	 165958.
17:08:46  564 565	 1492621726	 123944181	 161676.
17:08:46  565 566	 1492621726	 290728630	 166784.
17:08:46  566 567	 1492621726	 448598498	 157870.
17:08:46  567 568	 1492621726	 610426870	 161829.
17:08:46  568 569	 1492621726	 776474310	 166047.
17:08:46  569 570	 1492621726	 937462601	 160988.
17:08:47  570 571	 1492621727	 74235806	 136774.
17:08:47  571 572	 1492621727	 235509856	 161274.
17:08:47  572 573	 1492621727	 396551559	 161041.
17:08:47  573 574	 1492621727	 561933717	 165382.
17:08:47  574 575	 1492621727	 694654292	 132721.
17:08:47  575 576	 1492621727	 855733790	 161079.
17:08:48  576 577	 1492621728	 21294859	 165562.
17:08:48  577 578	 1492621728	 182848483	 161553.
17:08:48  578 579	 1492621728	 319441207	 136593.
17:08:48  579 580	 1492621728	 481031292	 161590.
17:08:48  580 581	 1492621728	 642565970	 161535.
17:08:48  581 582	 1492621728	 807920284	 165354.
17:08:48  582 583	 1492621728	 940734897	 132815.
17:08:49  583 584	 1492621729	 101730455	 160995.
17:08:49  584 585	 1492621729	 266941664	 165211.
17:08:49  585 586	 1492621729	 432941799	 166000.
17:08:49  586 587	 1492621729	 594308465	 161367.
17:08:49  587 588	 1492621729	 727144102	 132836.
17:08:49  588 589	 1492621729	 892704040	 165560.
17:08:50  589 590	 1492621730	 54058043	 161354.
17:08:50  590 591	 1492621730	 219422261	 165364.
17:08:50  591 592	 1492621730	 352503175	 133081.
17:08:50  592 593	 1492621730	 513729223	 161226.
17:08:50  593 594	 1492621730	 679264236	 165535.
17:08:50  594 595	 1492621730	 841090204	 161826.
17:08:51  595 596	 1492621731	 6765094	 165675.
17:08:51  596 597	 1492621731	 139682997	 132918.
17:08:51  597 598	 1492621731	 305440139	 165757.
17:08:51  598 599	 1492621731	 466880016	 161440.
17:08:51  599 600	 1492621731	 628795146	 161915.
17:08:51  600 601	 1492621731	 794314046	 165519.
17:08:51  601 602	 1492621731	 955802131	 161488.
17:08:52  602 603	 1492621732	 92938770	 137136.
17:08:52  603 604	 1492621732	 254189830	 161252.
17:08:52  604 605	 1492621732	 415363310	 161173.
17:08:52  605 606	 1492621732	 581159240	 165796.
17:08:52  606 607	 1492621732	 713778712	 132619.
17:08:52  607 608	 1492621732	 879228270	 165450.
17:08:53  608 609	 1492621733	 40697699	 161469.
17:08:53  609 610	 1492621733	 206151679	 165454.
17:08:53  610 611	 1492621733	 367885652	 161734.
17:08:53  611 612	 1492621733	 500986974	 133102.
17:08:53  612 613	 1492621733	 666591476	 165604.
17:08:53  613 614	 1492621733	 828072795	 161481.
17:08:53  614 615	 1492621733	 993591273	 165519.
17:08:54  615 616	 1492621734	 154957572	 161366.
17:08:54  616 617	 1492621734	 292343968	 137387.
17:08:54  617 618	 1492621734	 453651440	 161307.
17:08:54  618 619	 1492621734	 614974060	 161323.
17:08:54  619 620	 1492621734	 780607848	 165634.
17:08:54  620 621	 1492621734	 942192349	 161584.
17:08:55  621 622	 1492621735	 103999490	 161807.
17:08:55  622 623	 1492621735	 241323974	 137325.
17:08:55  623 624	 1492621735	 402782640	 161458.
17:08:55  624 625	 1492621735	 568176275	 165394.
17:08:55  625 626	 1492621735	 729932127	 161756.
17:08:55  626 627	 1492621735	 891383140	 161451.
17:08:56  627 628	 1492621736	 57060256	 165677.
17:08:56  628 629	 1492621736	 190006319	 132946.
17:08:56  629 630	 1492621736	 355348745	 165342.
17:08:56  630 631	 1492621736	 517595318	 162247.
17:08:56  631 632	 1492621736	 678678287	 161083.
17:08:56  632 633	 1492621736	 844498745	 165820.
17:08:56  633 634	 1492621736	 977572928	 133075.
17:08:57  634 635	 1492621737	 143060066	 165487.
17:08:57  635 636	 1492621737	 304735412	 161675.
17:08:57  636 637	 1492621737	 462939472	 158204.
17:08:57  637 638	 1492621737	 628421657	 165482.
17:08:57  638 639	 1492621737	 789929159	 161508.
17:08:57  639 640	 1492621737	 955706255	 165777.
17:08:58  640 641	 1492621738	 88676019	 132970.
17:08:58  641 642	 1492621738	 250714176	 162038.
17:08:58  642 643	 1492621738	 416364308	 165650.
17:08:58  643 644	 1492621738	 577672837	 161309.
17:08:58  644 645	 1492621738	 743377206	 165704.
17:08:58  645 646	 1492621738	 904926286	 161549.
17:08:59  646 647	 1492621739	 37582405	 132656.
17:08:59  647 648	 1492621739	 203498544	 165916.
17:08:59  648 649	 1492621739	 364979414	 161481.
17:08:59  649 650	 1492621739	 530531422	 165552.
17:08:59  650 651	 1492621739	 692018258	 161487.
17:08:59  651 652	 1492621739	 824889017	 132871.
17:08:59  652 653	 1492621739	 990506911	 165618.
17:09:00  653 654	 1492621740	 152326075	 161819.
17:09:00  654 655	 1492621740	 317790300	 165464.
17:09:00  655 656	 1492621740	 479615128	 161825.
17:09:00  656 657	 1492621740	 616356218	 136741.
17:09:00  657 658	 1492621740	 777446993	 161091.
17:09:00  658 659	 1492621740	 943131289	 165684.
17:09:01  659 660	 1492621741	 104228072	 161097.
17:09:01  660 661	 1492621741	 236995738	 132767.
17:09:01  661 662	 1492621741	 403014540	 166019.
17:09:01  662 663	 1492621741	 564730377	 161716.
17:09:01  663 664	 1492621741	 730364657	 165634.
17:09:01  664 665	 1492621741	 892050972	 161687.
17:09:02  665 666	 1492621742	 57721520	 165670.
17:09:02  666 667	 1492621742	 190420274	 132699.
17:09:02  667 668	 1492621742	 351789186	 161369.
17:09:02  668 669	 1492621742	 513424671	 161635.
17:09:02  669 670	 1492621742	 678786991	 165363.
17:09:02  670 671	 1492621742	 840278919	 161492.
17:09:03  671 672	 1492621743	 16275744	 175997.
17:09:03  672 673	 1492621743	 149006618	 132730.
17:09:03  673 674	 1492621743	 314708513	 165702.
17:09:03  674 675	 1492621743	 476131706	 161423.
17:09:03  675 676	 1492621743	 609078674	 132947.
17:09:03  676 677	 1492621743	 774689793	 165611.
17:09:03  677 678	 1492621743	 936372624	 161683.
17:09:04  678 679	 1492621744	 102397362	 166025.
17:09:04  679 680	 1492621744	 263961984	 161565.
17:09:04  680 681	 1492621744	 425473882	 161512.
17:09:04  681 682	 1492621744	 562556103	 137082.
17:09:04  682 683	 1492621744	 724260439	 161704.
17:09:04  683 684	 1492621744	 889741886	 165482.
17:09:05  684 685	 1492621745	 51324816	 161582.
17:09:05  685 686	 1492621745	 217353506	 166029.
17:09:05  686 687	 1492621745	 378928090	 161575.
17:09:05  687 688	 1492621745	 540561905	 161634.
17:09:05  688 689	 1492621745	 677573991	 137012.
17:09:05  689 690	 1492621745	 839071056	 161497.
17:09:05  690 691	 1492621746	 4834279	 165763.
17:09:06  691 692	 1492621746	 166691929	 161858.
17:09:06  692 693	 1492621746	 328131645	 161439.
17:09:06  693 694	 1492621746	 493610195	 165479.
17:09:06  694 695	 1492621746	 626641005	 133031.
17:09:06  695 696	 1492621746	 788307672	 161666.
17:09:06  696 697	 1492621746	 953930488	 165623.
17:09:07  697 698	 1492621747	 115351192	 161421.
17:09:07  698 699	 1492621747	 281257916	 165907.
17:09:07  699 700	 1492621747	 443048748	 161790.
17:09:07  700 701	 1492621747	 608783002	 165735.
17:09:07  701 702	 1492621747	 741958045	 133175.
17:09:07  702 703	 1492621747	 903888099	 161930.
17:09:08  703 704	 1492621748	 69807309	 165919.
17:09:08  704 705	 1492621748	 231624898	 161818.
17:09:08  705 706	 1492621748	 397569514	 165944.
17:09:08  706 707	 1492621748	 559481413	 161912.
17:09:08  707 708	 1492621748	 725191879	 165711.
17:09:08  708 709	 1492621748	 887149339	 161957.
17:09:09  709 710	 1492621749	 48797691	 161648.
17:09:09  710 711	 1492621749	 186017047	 137220.
17:09:09  711 712	 1492621749	 347695392	 161678.
17:09:09  712 713	 1492621749	 513510117	 165815.
17:09:09  713 714	 1492621749	 675545707	 162035.
17:09:09  714 715	 1492621749	 837380906	 161836.
17:09:09  715 716	 1492621750	 2987286	 165606.
17:09:10  716 717	 1492621750	 164819797	 161833.
17:09:10  717 718	 1492621750	 330627327	 165807.
17:09:10  718 719	 1492621750	 463597564	 132970.
17:09:10  719 720	 1492621750	 629195047	 165598.
17:09:10  720 721	 1492621750	 790953698	 161758.
17:09:10  721 722	 1492621750	 952517718	 161564.
17:09:11  722 723	 1492621751	 118690006	 166173.
17:09:11  723 724	 1492621751	 285114793	 166424.
17:09:11  724 725	 1492621751	 446948864	 161835.
17:09:11  725 726	 1492621751	 584318102	 137369.
17:09:11  726 727	 1492621751	 746610470	 162292.
17:09:11  727 728	 1492621751	 912755537	 166145.
17:09:12  728 729	 1492621752	 74766595	 162011.
17:09:12  729 730	 1492621752	 240851439	 166085.
17:09:12  730 731	 1492621752	 402741773	 161890.
17:09:12  731 732	 1492621752	 569040411	 166299.
17:09:12  732 733	 1492621752	 702293619	 133253.
17:09:12  733 734	 1492621752	 868249669	 165956.
17:09:13  734 735	 1492621753	 30551799	 162303.
17:09:13  735 736	 1492621753	 196652754	 166100.
17:09:13  736 737	 1492621753	 358940944	 162289.
17:09:13  737 738	 1492621753	 524767925	 165827.
17:09:13  738 739	 1492621753	 657856010	 133088.
17:09:13  739 740	 1492621753	 819731808	 161875.
17:09:13  740 741	 1492621753	 985938143	 166207.
17:09:14  741 742	 1492621754	 144870732	 158932.
17:09:14  742 743	 1492621754	 311030772	 166160.
17:09:14  743 744	 1492621754	 472710347	 161680.
17:09:14  744 745	 1492621754	 638923056	 166213.
17:09:14  745 746	 1492621754	 800647505	 161724.
17:09:14  746 747	 1492621754	 934026512	 133379.
17:09:15  747 748	 1492621755	 100226333	 166200.
17:09:15  748 749	 1492621755	 266236150	 166010.
17:09:15  749 750	 1492621755	 428676709	 162440.
17:09:15  750 751	 1492621755	 594807270	 166131.
17:09:15  751 752	 1492621755	 756906996	 162100.
17:09:15  752 753	 1492621755	 922566111	 165659.
17:09:16  753 754	 1492621756	 56014796	 133448.
17:09:16  754 755	 1492621756	 222193090	 166179.
17:09:16  755 756	 1492621756	 384397014	 162204.
17:09:16  756 757	 1492621756	 550834683	 166437.
17:09:16  757 758	 1492621756	 712885278	 162051.
17:09:16  758 759	 1492621756	 879016247	 166131.
17:09:17  759 760	 1492621757	 41035978	 162020.
17:09:17  760 761	 1492621757	 174608098	 133572.
17:09:17  761 762	 1492621757	 341082177	 166474.
17:09:17  762 763	 1492621757	 502980671	 161898.
17:09:17  763 764	 1492621757	 669076153	 166096.
17:09:17  764 765	 1492621757	 834777324	 165701.
17:09:17  765 766	 1492621757	 968266192	 133489.
17:09:18  766 767	 1492621758	 130555039	 162289.
17:09:18  767 768	 1492621758	 296703624	 166148.
17:09:18  768 769	 1492621758	 459010635	 162307.
17:09:18  769 770	 1492621758	 625038109	 166028.
17:09:18  770 771	 1492621758	 786977608	 161939.
17:09:18  771 772	 1492621758	 924154330	 137177.
17:09:19  772 773	 1492621759	 85897551	 161743.
17:09:19  773 774	 1492621759	 252072852	 166176.
17:09:19  774 775	 1492621759	 414182320	 162109.
17:09:19  775 776	 1492621759	 580161177	 165979.
17:09:19  776 777	 1492621759	 742339872	 162179.
17:09:19  777 778	 1492621759	 879908002	 137568.
17:09:20  778 779	 1492621760	 42035796	 162127.
17:09:20  779 780	 1492621760	 208160270	 166125.
17:09:20  780 781	 1492621760	 369825980	 161666.
17:09:20  781 782	 1492621760	 535920428	 166094.
17:09:20  782 783	 1492621760	 698252394	 162332.
17:09:20  783 784	 1492621760	 835495760	 137243.
17:09:20  784 785	 1492621760	 997295141	 161800.
17:09:21  785 786	 1492621761	 163331103	 166036.
17:09:21  786 787	 1492621761	 325068537	 161737.
17:09:21  787 788	 1492621761	 491120603	 166052.
17:09:21  788 789	 1492621761	 653395839	 162276.
17:09:21  789 790	 1492621761	 790373617	 136977.
17:09:21  790 791	 1492621761	 952666466	 162293.
17:09:22  791 792	 1492621762	 118573040	 165907.
17:09:22  792 793	 1492621762	 280344407	 161771.
17:09:22  793 794	 1492621762	 446400988	 166057.
17:09:22  794 795	 1492621762	 579483418	 133082.
17:09:22  795 796	 1492621762	 745465699	 165982.
17:09:22  796 797	 1492621762	 907220566	 161755.
17:09:23  797 798	 1492621763	 73172968	 165953.
17:09:23  798 799	 1492621763	 235374423	 162201.
17:09:23  799 800	 1492621763	 397433691	 162059.
17:09:23  800 801	 1492621763	 563541996	 166109.
17:09:23  801 802	 1492621763	 725496695	 161954.
17:09:23  802 803	 1492621763	 891457016	 165961.
17:09:24  803 804	 1492621764	 53366577	 161909.
17:09:24  804 805	 1492621764	 186634123	 133268.
17:09:24  805 806	 1492621764	 352731126	 166097.
17:09:24  806 807	 1492621764	 514746902	 162016.
17:09:24  807 808	 1492621764	 676571419	 161824.
17:09:24  808 809	 1492621764	 842364181	 165793.
17:09:24  809 810	 1492621765	 4055108	 161691.
17:09:25  810 811	 1492621765	 170461209	 166406.
17:09:25  811 812	 1492621765	 332529364	 162068.
17:09:25  812 813	 1492621765	 498978058	 166449.
17:09:25  813 814	 1492621765	 660647539	 161669.
17:09:25  814 815	 1492621765	 797716627	 137069.
17:09:25  815 816	 1492621765	 959332214	 161616.
17:09:26  816 817	 1492621766	 125050755	 165718.
17:09:26  817 818	 1492621766	 286908656	 161859.
17:09:26  818 819	 1492621766	 424369577	 137460.
17:09:26  819 820	 1492621766	 586783481	 162414.
17:09:26  820 821	 1492621766	 752559869	 165777.
17:09:26  821 822	 1492621766	 914674217	 162114.
17:09:27  822 823	 1492621767	 80883401	 166209.
17:09:27  823 824	 1492621767	 242800980	 161918.
17:09:27  824 825	 1492621767	 380036697	 137235.
17:09:27  825 826	 1492621767	 542299451	 162263.
17:09:27  826 827	 1492621767	 708542422	 166243.
17:09:27  827 828	 1492621767	 870641240	 162099.
17:09:28  828 829	 1492621768	 36733997	 166093.
17:09:28  829 830	 1492621768	 198978725	 162244.
17:09:28  830 831	 1492621768	 365214862	 166237.
17:09:28  831 832	 1492621768	 527523663	 162308.
17:09:28  832 833	 1492621768	 664668537	 137145.
17:09:28  833 834	 1492621768	 826354068	 161686.
17:09:28  834 835	 1492621768	 988179046	 161825.
17:09:29  835 836	 1492621769	 154347586	 166168.
17:09:29  836 837	 1492621769	 320622893	 166276.
17:09:29  837 838	 1492621769	 482754087	 162131.
17:09:29  838 839	 1492621769	 644758357	 162004.
17:09:29  839 840	 1492621769	 782135039	 137377.
17:09:29  840 841	 1492621769	 944129551	 161994.
17:09:30  841 842	 1492621770	 110335029	 166206.
17:09:30  842 843	 1492621770	 276552054	 166217.
17:09:30  843 844	 1492621770	 439225823	 162674.
17:09:30  844 845	 1492621770	 605415731	 166189.
17:09:30  845 846	 1492621770	 767911242	 162496.
17:09:30  846 847	 1492621770	 933681943	 165771.
17:09:31  847 848	 1492621771	 66520990	 132839.
17:09:31  848 849	 1492621771	 233677894	 167157.
17:09:31  849 850	 1492621771	 391851955	 158174.
17:09:31  850 851	 1492621771	 553921790	 162069.
17:09:31  851 852	 1492621771	 719839196	 165918.
17:09:31  852 853	 1492621771	 882120747	 162281.
17:09:32  853 854	 1492621772	 48376596	 166256.
17:09:32  854 855	 1492621772	 210605604	 162229.
17:09:32  855 856	 1492621772	 376731241	 166126.
17:09:32  856 857	 1492621772	 538842428	 162111.
17:09:32  857 858	 1492621772	 672176906	 133335.
17:09:32  858 859	 1492621772	 838247873	 166071.
17:09:32  859 860	 1492621773	 141302	 161893.
17:09:33  860 861	 1492621773	 166067039	 165926.
17:09:33  861 862	 1492621773	 327988517	 161921.
17:09:33  862 863	 1492621773	 493842918	 165855.
17:09:33  863 864	 1492621773	 655725148	 161882.
17:09:33  864 865	 1492621773	 817623093	 161898.
17:09:33  865 866	 1492621773	 983430504	 165807.
17:09:34  866 867	 1492621774	 116573395	 133143.
17:09:34  867 868	 1492621774	 282411274	 165838.
17:09:34  868 869	 1492621774	 444267436	 161856.
17:09:34  869 870	 1492621774	 610160545	 165893.
17:09:34  870 871	 1492621774	 772310326	 162150.
17:09:34  871 872	 1492621774	 934215439	 161905.
17:09:35  872 873	 1492621775	 100033970	 165819.
17:09:35  873 874	 1492621775	 262379564	 162345.
17:09:35  874 875	 1492621775	 399778114	 137399.
17:09:35  875 876	 1492621775	 561905069	 162127.
17:09:35  876 877	 1492621775	 727665034	 165760.
17:09:35  877 878	 1492621775	 889524697	 161859.
17:09:36  878 879	 1492621776	 55446687	 165923.
17:09:36  879 880	 1492621776	 188884289	 133437.
17:09:36  880 881	 1492621776	 355131640	 166247.
17:09:36  881 882	 1492621776	 517069131	 161938.
17:09:36  882 883	 1492621776	 682658262	 165589.
17:09:36  883 884	 1492621776	 844472180	 161814.
17:09:37  884 885	 1492621777	 10075239	 165603.
17:09:37  885 886	 1492621777	 171667564	 161592.
17:09:37  886 887	 1492621777	 333369702	 161703.
17:09:37  887 888	 1492621777	 470722236	 137352.
17:09:37  888 889	 1492621777	 632878299	 162156.
17:09:37  889 890	 1492621777	 798814541	 165936.
17:09:37  890 891	 1492621777	 960786700	 161972.
17:09:38  891 892	 1492621778	 127286879	 166501.
17:09:38  892 893	 1492621778	 293520385	 166233.
17:09:38  893 894	 1492621778	 455702539	 162182.
17:09:38  894 895	 1492621778	 621921967	 166220.
17:09:38  895 896	 1492621778	 755308418	 133386.
17:09:38  896 897	 1492621778	 917147273	 161839.
17:09:39  897 898	 1492621779	 82690897	 165544.
17:09:39  898 899	 1492621779	 244389000	 161698.
17:09:39  899 900	 1492621779	 410209792	 165820.
17:09:39  900 901	 1492621779	 572014097	 161805.
17:09:39  901 902	 1492621779	 709450733	 137436.
17:09:39  902 903	 1492621779	 871679862	 162230.
17:09:40  903 904	 1492621780	 37744669	 166064.
17:09:40  904 905	 1492621780	 199782609	 162038.
17:09:40  905 906	 1492621780	 366147196	 166365.
17:09:40  906 907	 1492621780	 528575116	 162428.
17:09:40  907 908	 1492621780	 695052441	 166477.
17:09:40  908 909	 1492621780	 857278432	 162226.
17:09:41  909 910	 1492621781	 23639193	 166361.
17:09:41  910 911	 1492621781	 157322507	 133683.
17:09:41  911 912	 1492621781	 323294719	 165972.
17:09:41  912 913	 1492621781	 484737562	 161443.
17:09:41  913 914	 1492621781	 646515714	 161778.
17:09:41  914 915	 1492621781	 811852685	 165337.
17:09:41  915 916	 1492621781	 945022386	 133170.
17:09:42  916 917	 1492621782	 110592510	 165570.
17:09:42  917 918	 1492621782	 272161230	 161569.
17:09:42  918 919	 1492621782	 433961103	 161800.
17:09:42  919 920	 1492621782	 599988705	 166027.
17:09:42  920 921	 1492621782	 761438616	 161450.
17:09:42  921 922	 1492621782	 898624569	 137186.
17:09:43  922 923	 1492621783	 60642733	 162018.
17:09:43  923 924	 1492621783	 226587436	 165945.
17:09:43  924 925	 1492621783	 388004321	 161417.
17:09:43  925 926	 1492621783	 549853591	 161849.
17:09:43  926 927	 1492621783	 715606469	 165753.
17:09:43  927 928	 1492621783	 848538935	 132933.
17:09:44  928 929	 1492621784	 14210892	 165672.
17:09:44  929 930	 1492621784	 176316293	 162105.
17:09:44  930 931	 1492621784	 342461764	 166145.
17:09:44  931 932	 1492621784	 504170087	 161709.
17:09:44  932 933	 1492621784	 665944885	 161775.
17:09:44  933 934	 1492621784	 831895883	 165951.
17:09:44  934 935	 1492621784	 993767512	 161871.
17:09:45  935 936	 1492621785	 131447477	 137680.
17:09:45  936 937	 1492621785	 293500229	 162053.
17:09:45  937 938	 1492621785	 459721120	 166221.
17:09:45  938 939	 1492621785	 621609159	 161888.
17:09:45  939 940	 1492621785	 787216136	 165607.
17:09:45  940 941	 1492621785	 949079124	 161863.
17:09:46  941 942	 1492621786	 115363418	 166284.
17:09:46  942 943	 1492621786	 248512528	 133149.
17:09:46  943 944	 1492621786	 414279662	 165767.
17:09:46  944 945	 1492621786	 576219849	 161941.
17:09:46  945 946	 1492621786	 742614258	 166394.
17:09:46  946 947	 1492621786	 908750640	 166136.
17:09:47  947 948	 1492621787	 70826072	 162076.
17:09:47  948 949	 1492621787	 203967037	 133141.
17:09:47  949 950	 1492621787	 369790461	 165823.
17:09:47  950 951	 1492621787	 535665498	 165875.
17:09:47  951 952	 1492621787	 697780015	 162115.
17:09:47  952 953	 1492621787	 863683446	 165903.
17:09:47  953 954	 1492621787	 996841035	 133158.
17:09:48  954 955	 1492621788	 163949780	 167109.
17:09:48  955 956	 1492621788	 321794982	 157845.
17:09:48  956 957	 1492621788	 488157738	 166362.
17:09:48  957 958	 1492621788	 649910835	 161754.
17:09:48  958 959	 1492621788	 811709228	 161798.
17:09:48  959 960	 1492621788	 977241270	 165532.
17:09:49  960 961	 1492621789	 110343893	 133103.
17:09:49  961 962	 1492621789	 276174355	 165830.
17:09:49  962 963	 1492621789	 437750641	 161576.
17:09:49  963 964	 1492621789	 603985395	 166235.
17:09:49  964 965	 1492621789	 765984372	 161999.
17:09:49  965 966	 1492621789	 931964206	 165980.
17:09:50  966 967	 1492621790	 65452723	 133488.
17:09:50  967 968	 1492621790	 231403616	 165951.
17:09:50  968 969	 1492621790	 393630505	 162227.
17:09:50  969 970	 1492621790	 555711388	 162081.
17:09:50  970 971	 1492621790	 722288603	 166577.
17:09:50  971 972	 1492621790	 888582272	 166294.
17:09:51  972 973	 1492621791	 50890060	 162308.
17:09:51  973 974	 1492621791	 216880185	 165990.
17:09:51  974 975	 1492621791	 350526924	 133647.
17:09:51  975 976	 1492621791	 517045548	 166518.
17:09:51  976 977	 1492621791	 678703522	 161658.
17:09:51  977 978	 1492621791	 844331270	 165628.
17:09:52  978 979	 1492621792	 6806576	 162475.
17:09:52  979 980	 1492621792	 173047228	 166241.
17:09:52  980 981	 1492621792	 306103562	 133056.
17:09:52  981 982	 1492621792	 467693053	 161590.
17:09:52  982 983	 1492621792	 633982969	 166290.
17:09:52  983 984	 1492621792	 796127756	 162144.
17:09:52  984 985	 1492621792	 962048040	 165921.
17:09:53  985 986	 1492621793	 124652509	 162604.
17:09:53  986 987	 1492621793	 291296804	 166644.
17:09:53  987 988	 1492621793	 450042814	 158747.
17:09:53  988 989	 1492621793	 587020735	 136977.
17:09:53  989 990	 1492621793	 748628039	 161608.
17:09:53  990 991	 1492621793	 914380096	 165752.
17:09:54  991 992	 1492621794	 75969022	 161589.
17:09:54  992 993	 1492621794	 242300216	 166331.
17:09:54  993 994	 1492621794	 404018105	 161718.
17:09:54  994 995	 1492621794	 570124452	 166106.
17:09:54  995 996	 1492621794	 703257456	 133133.
17:09:54  996 997	 1492621794	 865200772	 161943.
17:09:55  997 998	 1492621795	 31209684	 166009.
17:09:55  998 999	 1492621795	 193325068	 162116.
17:09:55  999 1000	 1492621795	 355430415	 162105.
17:09:55 1000 1001	 1492621795	 521331059	 165901.
17:09:55 1001 1002	 1492621795	 683077241	 161746.
17:09:55 1002 1003	 1492621795	 849095397	 166018.
17:09:56 1003 1004	 1492621796	 10763488	 161668.
17:09:56 1004 1005	 1492621796	 173003643	 162240.
17:09:56 1005 1006	 1492621796	 339421219	 166418.
17:09:56 1006 1007	 1492621796	 501844013	 162423.
17:09:56 1007 1008	 1492621796	 664174261	 162330.
17:09:56 1008 1009	 1492621796	 830234157	 166060.
17:09:56 1009 1010	 1492621796	 991976888	 161743.
17:09:57 1010 1011	 1492621797	 158142893	 166166.
17:09:57 1011 1012	 1492621797	 319990762	 161847.
17:09:57 1012 1013	 1492621797	 481814656	 161824.
17:09:57 1013 1014	 1492621797	 619082512	 137268.
17:09:57 1014 1015	 1492621797	 780831245	 161749.
17:09:57 1015 1016	 1492621797	 942785523	 161954.
17:09:58 1016 1017	 1492621798	 108549074	 165764.
17:09:58 1017 1018	 1492621798	 274845480	 166296.
17:09:58 1018 1019	 1492621798	 437106996	 162262.
17:09:58 1019 1020	 1492621798	 603012474	 165905.
17:09:58 1020 1021	 1492621798	 765293186	 162281.
17:09:58 1021 1022	 1492621798	 931664079	 166371.
17:09:59 1022 1023	 1492621799	 65365740	 133701.
17:09:59 1023 1024	 1492621799	 231615938	 166251.
17:09:59 1024 1025	 1492621799	 393816533	 162200.
17:09:59 1025 1026	 1492621799	 560155495	 166339.
17:09:59 1026 1027	 1492621799	 722436656	 162281.
17:09:59 1027 1028	 1492621799	 888230762	 165794.
17:10:00 1028 1029	 1492621800	 54362357	 166132.
17:10:00 1029 1030	 1492621800	 187441915	 133080.
17:10:00 1030 1031	 1492621800	 353347872	 165906.
17:10:00 1031 1032	 1492621800	 515224260	 161876.
17:10:00 1032 1033	 1492621800	 676906838	 161683.
17:10:00 1033 1034	 1492621800	 842776719	 165869.
17:10:00 1034 1035	 1492621801	 4685429	 161909.
17:10:01 1035 1036	 1492621801	 170544403	 165859.
17:10:01 1036 1037	 1492621801	 332315655	 161771.
17:10:01 1037 1038	 1492621801	 498131706	 165816.
17:10:01 1038 1039	 1492621801	 631220145	 133089.
17:10:01 1039 1040	 1492621801	 793107193	 161887.
17:10:01 1040 1041	 1492621801	 958954099	 165847.
17:10:02 1041 1042	 1492621802	 120726984	 161773.
17:10:02 1042 1043	 1492621802	 286636415	 165909.
17:10:02 1043 1044	 1492621802	 448300418	 161664.
17:10:02 1044 1045	 1492621802	 610103609	 161803.
17:10:02 1045 1046	 1492621802	 775825633	 165722.
17:10:02 1046 1047	 1492621802	 908870945	 133046.
17:10:03 1047 1048	 1492621803	 74537095	 165666.
17:10:03 1048 1049	 1492621803	 236481862	 161945.
17:10:03 1049 1050	 1492621803	 402325175	 165843.
17:10:03 1050 1051	 1492621803	 563899191	 161574.
17:10:03 1051 1052	 1492621803	 729629012	 165730.
17:10:03 1052 1053	 1492621803	 891431036	 161802.
17:10:04 1053 1054	 1492621804	 24610169	 133179.
17:10:04 1054 1055	 1492621804	 191250747	 166640.
17:10:04 1055 1056	 1492621804	 349200473	 157950.
17:10:04 1056 1057	 1492621804	 510875384	 161675.
17:10:04 1057 1058	 1492621804	 672842926	 161968.
17:10:04 1058 1059	 1492621804	 838717828	 165874.
17:10:04 1059 1060	 1492621805	 475062	 161758.
17:10:05 1060 1061	 1492621805	 166434214	 165959.
17:10:05 1061 1062	 1492621805	 328144888	 161711.
17:10:05 1062 1063	 1492621805	 465241814	 137097.
17:10:05 1063 1064	 1492621805	 626898456	 161656.
17:10:05 1064 1065	 1492621805	 788614194	 161716.
17:10:05 1065 1066	 1492621805	 954517570	 165903.
17:10:06 1066 1067	 1492621806	 116138577	 161621.
17:10:06 1067 1068	 1492621806	 282075830	 165938.
17:10:06 1068 1069	 1492621806	 443903285	 161827.
17:10:06 1069 1070	 1492621806	 609773711	 165870.
17:10:06 1070 1071	 1492621806	 742952647	 133179.
17:10:06 1071 1072	 1492621806	 904771794	 161820.
17:10:07 1072 1073	 1492621807	 70876556	 166104.
17:10:07 1073 1074	 1492621807	 232629414	 161753.
17:10:07 1074 1075	 1492621807	 398421690	 165792.
17:10:07 1075 1076	 1492621807	 560322923	 161902.
17:10:07 1076 1077	 1492621807	 726374318	 166051.
17:10:07 1077 1078	 1492621807	 888408832	 162035.
17:10:08 1078 1079	 1492621808	 54413690	 166004.
17:10:08 1079 1080	 1492621808	 216362656	 161949.
17:10:08 1080 1081	 1492621808	 378350311	 161988.
17:10:08 1081 1082	 1492621808	 511540024	 133190.
17:10:08 1082 1083	 1492621808	 677629215	 166089.
17:10:08 1083 1084	 1492621808	 839687799	 162059.
17:10:08 1084 1085	 1492621809	 5528711	 165840.
17:10:09 1085 1086	 1492621809	 167497761	 161969.
17:10:09 1086 1087	 1492621809	 333412480	 165915.
17:10:09 1087 1088	 1492621809	 495156322	 161744.
17:10:09 1088 1089	 1492621809	 660899598	 165743.
17:10:09 1089 1090	 1492621809	 822585123	 161686.
17:10:09 1090 1091	 1492621809	 955553240	 132968.
17:10:10 1091 1092	 1492621810	 121531329	 165978.
17:10:10 1092 1093	 1492621810	 283297988	 161767.
17:10:10 1093 1094	 1492621810	 449200322	 165902.
17:10:10 1094 1095	 1492621810	 611040271	 161840.
17:10:10 1095 1096	 1492621810	 776947931	 165908.
17:10:10 1096 1097	 1492621810	 938895068	 161947.
17:10:11 1097 1098	 1492621811	 72181344	 133286.
17:10:11 1098 1099	 1492621811	 238080474	 165899.
17:10:11 1099 1100	 1492621811	 399873051	 161793.
17:10:11 1100 1101	 1492621811	 561704050	 161831.
17:10:11 1101 1102	 1492621811	 727439967	 165736.
17:10:11 1102 1103	 1492621811	 889287965	 161848.
17:10:12 1103 1104	 1492621812	 55154822	 165867.
17:10:12 1104 1105	 1492621812	 216953977	 161799.
17:10:12 1105 1106	 1492621812	 378914242	 161960.
17:10:12 1106 1107	 1492621812	 516284205	 137370.
17:10:12 1107 1108	 1492621812	 678132144	 161848.
17:10:12 1108 1109	 1492621812	 843823485	 165691.
17:10:12 1109 1110	 1492621813	 5557626	 161734.
17:10:13 1110 1111	 1492621813	 171584005	 166027.
17:10:13 1111 1112	 1492621813	 333362856	 161779.
17:10:13 1112 1113	 1492621813	 495199038	 161836.
17:10:13 1113 1114	 1492621813	 660994130	 165795.
17:10:13 1114 1115	 1492621813	 822878029	 161884.
17:10:13 1115 1116	 1492621813	 960287487	 137409.
17:10:14 1116 1117	 1492621814	 122218776	 161931.
17:10:14 1117 1118	 1492621814	 284272644	 162054.
17:10:14 1118 1119	 1492621814	 450270750	 165998.
17:10:14 1119 1120	 1492621814	 612318646	 162048.
17:10:14 1120 1121	 1492621814	 778611153	 166293.
17:10:14 1121 1122	 1492621814	 940346841	 161736.
17:10:15 1122 1123	 1492621815	 102217406	 161870.
17:10:15 1123 1124	 1492621815	 239419169	 137202.
17:10:15 1124 1125	 1492621815	 401641368	 162222.
17:10:15 1125 1126	 1492621815	 567729083	 166088.
17:10:15 1126 1127	 1492621815	 733631313	 165902.
17:10:15 1127 1128	 1492621815	 895437939	 161807.
17:10:16 1128 1129	 1492621816	 61602249	 166164.
17:10:16 1129 1130	 1492621816	 195125824	 133524.
17:10:16 1130 1131	 1492621816	 361241294	 166115.
17:10:16 1131 1132	 1492621816	 522945053	 161704.
17:10:16 1132 1133	 1492621816	 688646586	 165701.
17:10:16 1133 1134	 1492621816	 850437053	 161791.
17:10:16 1134 1135	 1492621816	 983488821	 133052.
17:10:17 1135 1136	 1492621817	 149486391	 165997.
17:10:17 1136 1137	 1492621817	 311377790	 161891.
17:10:17 1137 1138	 1492621817	 477439531	 166063.
17:10:17 1138 1139	 1492621817	 639249955	 161810.
17:10:17 1139 1140	 1492621817	 804988310	 165738.
17:10:17 1140 1141	 1492621817	 966606747	 161619.
17:10:18 1141 1142	 1492621818	 132291632	 165685.
17:10:18 1142 1143	 1492621818	 265497345	 133205.
17:10:18 1143 1144	 1492621818	 431111488	 165614.
17:10:18 1144 1145	 1492621818	 592747893	 161637.
17:10:18 1145 1146	 1492621818	 758836789	 166088.
17:10:18 1146 1147	 1492621818	 920483664	 161647.
17:10:19 1147 1148	 1492621819	 53413518	 132930.
17:10:19 1148 1149	 1492621819	 219318058	 165905.
17:10:19 1149 1150	 1492621819	 381078034	 161760.
17:10:19 1150 1151	 1492621819	 547083880	 166006.
17:10:19 1151 1152	 1492621819	 709140858	 162057.
17:10:19 1152 1153	 1492621819	 875094348	 165953.
17:10:20 1153 1154	 1492621820	 36903759	 161809.
17:10:20 1154 1155	 1492621820	 169930424	 133027.
17:10:20 1155 1156	 1492621820	 336310164	 166380.
17:10:20 1156 1157	 1492621820	 498156189	 161846.
17:10:20 1157 1158	 1492621820	 664190962	 166035.
17:10:20 1158 1159	 1492621820	 826196346	 162005.
17:10:20 1159 1160	 1492621820	 992218338	 166022.
17:10:21 1160 1161	 1492621821	 154788769	 162570.
17:10:21 1161 1162	 1492621821	 317413406	 162625.
17:10:21 1162 1163	 1492621821	 479387322	 161974.
17:10:21 1163 1164	 1492621821	 612314316	 132927.
17:10:21 1164 1165	 1492621821	 778134487	 165820.
17:10:21 1165 1166	 1492621821	 944090571	 165957.
17:10:22 1166 1167	 1492621822	 106336346	 162245.
17:10:22 1167 1168	 1492621822	 272397549	 166061.
17:10:22 1168 1169	 1492621822	 434467638	 162070.
17:10:22 1169 1170	 1492621822	 567672878	 133206.
17:10:22 1170 1171	 1492621822	 733665199	 165992.
17:10:22 1171 1172	 1492621822	 899319250	 165654.
17:10:23 1172 1173	 1492621823	 61371775	 162052.
17:10:23 1173 1174	 1492621823	 222983955	 161613.
17:10:23 1174 1175	 1492621823	 389147949	 166164.
17:10:23 1175 1176	 1492621823	 526714326	 137566.
17:10:23 1176 1177	 1492621823	 688517527	 161803.
17:10:23 1177 1178	 1492621823	 854414996	 165898.
17:10:24 1178 1179	 1492621824	 16072850	 161658.
17:10:24 1179 1180	 1492621824	 182875048	 166802.
17:10:24 1180 1181	 1492621824	 344831598	 161956.
17:10:24 1181 1182	 1492621824	 482005247	 137174.
17:10:24 1182 1183	 1492621824	 644310055	 162305.
17:10:24 1183 1184	 1492621824	 810414012	 166104.
17:10:24 1184 1185	 1492621824	 972557018	 162143.
17:10:25 1185 1186	 1492621825	 138492308	 165935.
17:10:25 1186 1187	 1492621825	 300414636	 161922.
17:10:25 1187 1188	 1492621825	 433783551	 133369.
17:10:25 1188 1189	 1492621825	 599841567	 166058.
17:10:25 1189 1190	 1492621825	 765715279	 165874.
17:10:25 1190 1191	 1492621825	 927549730	 161834.
17:10:26 1191 1192	 1492621826	 92938690	 165389.
17:10:26 1192 1193	 1492621826	 225623568	 132685.
17:10:26 1193 1194	 1492621826	 387403712	 161780.
17:10:26 1194 1195	 1492621826	 553041428	 165638.
17:10:26 1195 1196	 1492621826	 685983352	 132942.
17:10:26 1196 1197	 1492621826	 851709907	 165727.
17:10:27 1197 1198	 1492621827	 17826689	 166116.
17:10:27 1198 1199	 1492621827	 179981733	 162155.
17:10:27 1199 1200	 1492621827	 345816125	 165835.
17:10:27 1200 1201	 1492621827	 479279853	 133464.
17:10:27 1201 1202	 1492621827	 645313687	 166033.
17:10:27 1202 1203	 1492621827	 807748061	 162435.
17:10:27 1203 1204	 1492621827	 969566084	 161818.
17:10:28 1204 1205	 1492621828	 135459830	 165894.
17:10:28 1205 1206	 1492621828	 297382749	 161923.
17:10:28 1206 1207	 1492621828	 434669243	 137286.
17:10:28 1207 1208	 1492621828	 596757923	 162089.
17:10:28 1208 1209	 1492621828	 762736515	 165978.
17:10:28 1209 1210	 1492621828	 924789567	 162053.
17:10:29 1210 1211	 1492621829	 90616887	 165828.
17:10:29 1211 1212	 1492621829	 223894228	 133277.
17:10:29 1212 1213	 1492621829	 389834012	 165940.
17:10:29 1213 1214	 1492621829	 555884120	 166050.
17:10:29 1214 1215	 1492621829	 718082447	 162198.
17:10:29 1215 1216	 1492621829	 883837104	 165755.
17:10:30 1216 1217	 1492621830	 17134624	 133297.
17:10:30 1217 1218	 1492621830	 182956175	 165822.
17:10:30 1218 1219	 1492621830	 344855438	 161899.
17:10:30 1219 1220	 1492621830	 511129980	 166275.
17:10:30 1220 1221	 1492621830	 677106311	 165976.
17:10:30 1221 1222	 1492621830	 810084981	 132979.
17:10:30 1222 1223	 1492621830	 972122276	 162037.
17:10:31 1223 1224	 1492621831	 138463873	 166342.
17:10:31 1224 1225	 1492621831	 300669948	 162206.
17:10:31 1225 1226	 1492621831	 466765763	 166095.
17:10:31 1226 1227	 1492621831	 629217163	 162452.
17:10:31 1227 1228	 1492621831	 795660133	 166443.
17:10:31 1228 1229	 1492621831	 929262109	 133602.
17:10:32 1229 1230	 1492621832	 91759560	 162497.
17:10:32 1230 1231	 1492621832	 258138586	 166379.
17:10:32 1231 1232	 1492621832	 420279096	 162141.
17:10:32 1232 1233	 1492621832	 586257312	 165978.
17:10:32 1233 1234	 1492621832	 748663566	 162406.
17:10:32 1234 1235	 1492621832	 914969985	 166307.
17:10:33 1235 1236	 1492621833	 48040654	 133070.
17:10:33 1236 1237	 1492621833	 214295736	 166255.
17:10:33 1237 1238	 1492621833	 376455359	 162160.
17:10:33 1238 1239	 1492621833	 541994507	 165539.
17:10:33 1239 1240	 1492621833	 707910513	 165916.
17:10:33 1240 1241	 1492621833	 841072344	 133162.
17:10:33 1241 1242	 1492621834	 3244053	 162172.
17:10:34 1242 1243	 1492621834	 169295067	 166051.
17:10:34 1243 1244	 1492621834	 331606861	 162312.
17:10:34 1244 1245	 1492621834	 497875685	 166268.
17:10:34 1245 1246	 1492621834	 659654479	 161779.
17:10:34 1246 1247	 1492621834	 796712678	 137058.
17:10:34 1247 1248	 1492621834	 958242338	 161530.
17:10:35 1248 1249	 1492621835	 124590636	 166348.
17:10:35 1249 1250	 1492621835	 286308801	 161719.
17:10:35 1250 1251	 1492621835	 452163329	 165854.
17:10:35 1251 1252	 1492621835	 614627759	 162464.
17:10:35 1252 1253	 1492621835	 751850361	 137223.
17:10:35 1253 1254	 1492621835	 913760676	 161910.
17:10:36 1254 1255	 1492621836	 79913214	 166153.
17:10:36 1255 1256	 1492621836	 241862560	 161949.
17:10:36 1256 1257	 1492621836	 408201274	 166339.
17:10:36 1257 1258	 1492621836	 541551005	 133350.
17:10:36 1258 1259	 1492621836	 707781762	 166230.
17:10:36 1259 1260	 1492621836	 873866157	 166085.
17:10:37 1260 1261	 1492621837	 35680003	 161814.
17:10:37 1261 1262	 1492621837	 197819895	 162140.
17:10:37 1262 1263	 1492621837	 363548416	 165728.
17:10:37 1263 1264	 1492621837	 497081427	 133533.
17:10:37 1264 1265	 1492621837	 663155118	 166074.
17:10:37 1265 1266	 1492621837	 829493308	 166338.
17:10:37 1266 1267	 1492621837	 991706310	 162213.
17:10:38 1267 1268	 1492621838	 153329924	 161624.
17:10:38 1268 1269	 1492621838	 319415630	 166085.
17:10:38 1269 1270	 1492621838	 452924260	 133509.
17:10:38 1270 1271	 1492621838	 619336260	 166412.
17:10:38 1271 1272	 1492621838	 781446677	 162110.
17:10:38 1272 1273	 1492621838	 947544893	 166099.
17:10:39 1273 1274	 1492621839	 109507199	 161962.
17:10:39 1274 1275	 1492621839	 275597041	 166090.
17:10:39 1275 1276	 1492621839	 437689418	 162092.
17:10:39 1276 1277	 1492621839	 603540447	 165851.
17:10:39 1277 1278	 1492621839	 736809277	 133269.
17:10:39 1278 1279	 1492621839	 898790188	 161981.
17:10:40 1279 1280	 1492621840	 64961526	 166171.
17:10:40 1280 1281	 1492621840	 226787607	 161826.
17:10:40 1281 1282	 1492621840	 392597745	 165810.
17:10:40 1282 1283	 1492621840	 558618997	 166022.
17:10:40 1283 1284	 1492621840	 692155170	 133536.
17:10:40 1284 1285	 1492621840	 853926419	 161771.
17:10:41 1285 1286	 1492621841	 19687766	 165761.
17:10:41 1286 1287	 1492621841	 181542269	 161855.
17:10:41 1287 1288	 1492621841	 347417405	 165875.
17:10:41 1288 1289	 1492621841	 509123337	 161706.
17:10:41 1289 1290	 1492621841	 674746940	 165624.
17:10:41 1290 1291	 1492621841	 807823408	 133076.
17:10:41 1291 1292	 1492621841	 973720565	 165897.
17:10:42 1292 1293	 1492621842	 135659508	 161939.
17:10:42 1293 1294	 1492621842	 302042722	 166383.
17:10:42 1294 1295	 1492621842	 464178709	 162136.
17:10:42 1295 1296	 1492621842	 625858037	 161680.
17:10:42 1296 1297	 1492621842	 791537069	 165679.
17:10:42 1297 1298	 1492621842	 924609650	 133072.
17:10:43 1298 1299	 1492621843	 90591304	 165982.
17:10:43 1299 1300	 1492621843	 252785013	 162194.
17:10:43 1300 1301	 1492621843	 418988150	 166203.
17:10:43 1301 1302	 1492621843	 580949594	 161961.
17:10:43 1302 1303	 1492621843	 747157509	 166208.
17:10:43 1303 1304	 1492621843	 908775274	 161618.
17:10:44 1304 1305	 1492621844	 41887620	 133112.
17:10:44 1305 1306	 1492621844	 207837789	 165950.
17:10:44 1306 1307	 1492621844	 369387844	 161551.
17:10:44 1307 1308	 1492621844	 535565024	 166177.
17:10:44 1308 1309	 1492621844	 697552952	 161988.
17:10:44 1309 1310	 1492621844	 863621866	 166069.
17:10:44 1310 1311	 1492621844	 996799868	 133178.
17:10:45 1311 1312	 1492621845	 162991907	 166192.
17:10:45 1312 1313	 1492621845	 325034344	 162042.
17:10:45 1313 1314	 1492621845	 491076174	 166042.
17:10:45 1314 1315	 1492621845	 652690480	 161614.
17:10:45 1315 1316	 1492621845	 818588483	 165898.
17:10:45 1316 1317	 1492621845	 951336886	 132749.
17:10:46 1317 1318	 1492621846	 116957907	 165621.
17:10:46 1318 1319	 1492621846	 278731344	 161773.
17:10:46 1319 1320	 1492621846	 444859356	 166128.
17:10:46 1320 1321	 1492621846	 607214693	 162356.
17:10:46 1321 1322	 1492621846	 740395302	 133180.
17:10:46 1322 1323	 1492621846	 906220682	 165825.
17:10:47 1323 1324	 1492621847	 68288821	 162069.
17:10:47 1324 1325	 1492621847	 234523631	 166234.
17:10:47 1325 1326	 1492621847	 396290273	 161767.
17:10:47 1326 1327	 1492621847	 533352958	 137063.
17:10:47 1327 1328	 1492621847	 695487662	 162134.
17:10:47 1328 1329	 1492621847	 861464197	 165977.
17:10:48 1329 1330	 1492621848	 23495685	 162031.
17:10:48 1330 1331	 1492621848	 189327150	 165832.
17:10:48 1331 1332	 1492621848	 351500334	 162173.
17:10:48 1332 1333	 1492621848	 488681689	 137182.
17:10:48 1333 1334	 1492621848	 650811107	 162129.
17:10:48 1334 1335	 1492621848	 816779801	 165968.
17:10:48 1335 1336	 1492621848	 979084660	 162305.
17:10:49 1336 1337	 1492621849	 145169248	 166085.
17:10:49 1337 1338	 1492621849	 307281853	 162113.
17:10:49 1338 1339	 1492621849	 445067766	 137785.
17:10:49 1339 1340	 1492621849	 611059716	 165992.
17:10:49 1340 1341	 1492621849	 773324397	 162265.
17:10:49 1341 1342	 1492621849	 939775678	 166451.
17:10:50 1342 1343	 1492621850	 102217606	 162443.
17:10:50 1343 1344	 1492621850	 268582565	 166364.
17:10:50 1344 1345	 1492621850	 430766266	 162184.
17:10:50 1345 1346	 1492621850	 596727477	 165961.
17:10:50 1346 1347	 1492621850	 730048977	 133322.
17:10:50 1347 1348	 1492621850	 896102578	 166053.
17:10:51 1348 1349	 1492621851	 58164396	 162062.
17:10:51 1349 1350	 1492621851	 224327158	 166163.
17:10:51 1350 1351	 1492621851	 390136292	 165809.
17:10:51 1351 1352	 1492621851	 552113950	 161978.
17:10:51 1352 1353	 1492621851	 685199231	 133085.
17:10:51 1353 1354	 1492621851	 850986541	 165787.
17:10:52 1354 1355	 1492621852	 16827782	 165841.
17:10:52 1355 1356	 1492621852	 178796398	 161969.
17:10:52 1356 1357	 1492621852	 344325374	 165529.
17:10:52 1357 1358	 1492621852	 506170875	 161846.
17:10:52 1358 1359	 1492621852	 643491013	 137320.
17:10:52 1359 1360	 1492621852	 804971278	 161480.
17:10:52 1360 1361	 1492621852	 970597504	 165626.
17:10:53 1361 1362	 1492621853	 131922239	 161325.
17:10:53 1362 1363	 1492621853	 297781268	 165859.
17:10:53 1363 1364	 1492621853	 430825863	 133045.
17:10:53 1364 1365	 1492621853	 592145950	 161320.
17:10:53 1365 1366	 1492621853	 758114384	 165968.
17:10:53 1366 1367	 1492621853	 919624886	 161511.
17:10:54 1367 1368	 1492621854	 85817737	 166192.
17:10:54 1368 1369	 1492621854	 243801455	 157984.
17:10:54 1369 1370	 1492621854	 410129016	 166328.
17:10:54 1370 1371	 1492621854	 543307085	 133178.
17:10:54 1371 1372	 1492621854	 709541551	 166234.
17:10:54 1372 1373	 1492621854	 871495792	 161954.
17:10:55 1373 1374	 1492621855	 37623556	 166128.
17:10:55 1374 1375	 1492621855	 199771670	 162148.
17:10:55 1375 1376	 1492621855	 365950150	 166179.
17:10:55 1376 1377	 1492621855	 499557108	 133607.
17:10:55 1377 1378	 1492621855	 665783851	 166227.
17:10:55 1378 1379	 1492621855	 827618691	 161834.
17:10:55 1379 1380	 1492621855	 993982766	 166364.
17:10:56 1380 1381	 1492621856	 155841645	 161859.
17:10:56 1381 1382	 1492621856	 321918908	 166078.
17:10:56 1382 1383	 1492621856	 488281470	 166362.
17:10:56 1383 1384	 1492621856	 621864995	 133584.
17:10:56 1384 1385	 1492621856	 787786123	 165921.
17:10:56 1385 1386	 1492621856	 949697586	 161911.
17:10:57 1386 1387	 1492621857	 115754659	 166057.
17:10:57 1387 1388	 1492621857	 277926638	 162172.
17:10:57 1388 1389	 1492621857	 415466443	 137540.
17:10:57 1389 1390	 1492621857	 577133281	 161667.
17:10:57 1390 1391	 1492621857	 742694563	 165561.
17:10:57 1391 1392	 1492621857	 904995875	 162302.
17:10:58 1392 1393	 1492621858	 71186250	 166190.
17:10:58 1393 1394	 1492621858	 233484758	 162298.
17:10:58 1394 1395	 1492621858	 370467350	 136983.
17:10:58 1395 1396	 1492621858	 532753499	 162286.
17:10:58 1396 1397	 1492621858	 698956298	 166203.
17:10:58 1397 1398	 1492621858	 860874950	 161919.
17:10:59 1398 1399	 1492621859	 26820370	 165945.
17:10:59 1399 1400	 1492621859	 160464325	 133644.
17:10:59 1400 1401	 1492621859	 326598967	 166135.
17:10:59 1401 1402	 1492621859	 488742233	 162143.
17:10:59 1402 1403	 1492621859	 654891257	 166149.
17:10:59 1403 1404	 1492621859	 816544373	 161653.
17:10:59 1404 1405	 1492621859	 982452171	 165908.
17:11:00 1405 1406	 1492621860	 115512852	 133061.
17:11:00 1406 1407	 1492621860	 277291187	 161778.
17:11:00 1407 1408	 1492621860	 443162611	 165871.
17:11:00 1408 1409	 1492621860	 605115613	 161953.
17:11:00 1409 1410	 1492621860	 770987511	 165872.
17:11:00 1410 1411	 1492621860	 932656163	 161669.
17:11:01 1411 1412	 1492621861	 98317133	 165661.
17:11:01 1412 1413	 1492621861	 231347881	 133031.
17:11:01 1413 1414	 1492621861	 393033386	 161685.
17:11:01 1414 1415	 1492621861	 558902781	 165870.
17:11:01 1415 1416	 1492621861	 720404349	 161501.
17:11:01 1416 1417	 1492621861	 881862449	 161458.
17:11:02 1417 1418	 1492621862	 47583459	 165721.
17:11:02 1418 1419	 1492621862	 180399323	 132816.
17:11:02 1419 1420	 1492621862	 345996488	 165597.
17:11:02 1420 1421	 1492621862	 507741860	 161746.
17:11:02 1421 1422	 1492621862	 673176508	 165434.
17:11:02 1422 1423	 1492621862	 834718456	 161542.
17:11:02 1423 1424	 1492621862	 996395285	 161677.
17:11:03 1424 1425	 1492621863	 133523834	 137129.
17:11:03 1425 1426	 1492621863	 295025424	 161501.
17:11:03 1426 1427	 1492621863	 460879993	 165855.
17:11:03 1427 1428	 1492621863	 622683082	 161803.
17:11:03 1428 1429	 1492621863	 784298937	 161616.
17:11:03 1429 1430	 1492621863	 950211770	 165912.
17:11:04 1430 1431	 1492621864	 111742642	 161531.
17:11:04 1431 1432	 1492621864	 249059053	 137317.
17:11:04 1432 1433	 1492621864	 410809542	 161750.
17:11:04 1433 1434	 1492621864	 576944558	 166135.
17:11:04 1434 1435	 1492621864	 738844320	 161900.
17:11:04 1435 1436	 1492621864	 904823094	 165979.
17:11:05 1436 1437	 1492621865	 66638204	 161815.
17:11:05 1437 1438	 1492621865	 232720815	 166083.
17:11:05 1438 1439	 1492621865	 394689875	 161969.
17:11:05 1439 1440	 1492621865	 560774210	 166084.
17:11:05 1440 1441	 1492621865	 722453608	 161679.
17:11:05 1441 1442	 1492621865	 855480086	 133027.
17:11:06 1442 1443	 1492621866	 21399886	 165920.
17:11:06 1443 1444	 1492621866	 186955793	 165555.
17:11:06 1444 1445	 1492621866	 348488730	 161533.
17:11:06 1445 1446	 1492621866	 514421931	 165934.
17:11:06 1446 1447	 1492621866	 676002262	 161580.
17:11:06 1447 1448	 1492621866	 812895288	 136893.
17:11:06 1448 1449	 1492621866	 974615375	 161720.
17:11:07 1449 1450	 1492621867	 136383059	 161768.
17:11:07 1450 1451	 1492621867	 302375440	 165992.
17:11:07 1451 1452	 1492621867	 464595211	 162220.
17:11:07 1452 1453	 1492621867	 630626017	 166031.
17:11:07 1453 1454	 1492621867	 792549196	 161923.
17:11:07 1454 1455	 1492621867	 954378534	 161829.
17:11:08 1455 1456	 1492621868	 120289268	 165911.
17:11:08 1456 1457	 1492621868	 282466401	 162177.
17:11:08 1457 1458	 1492621868	 419875541	 137409.
17:11:08 1458 1459	 1492621868	 581904809	 162030.
17:11:08 1459 1460	 1492621868	 748085096	 166180.
17:11:08 1460 1461	 1492621868	 910097270	 162012.
17:11:09 1461 1462	 1492621869	 72041992	 161945.
17:11:09 1462 1463	 1492621869	 237904274	 165862.
17:11:09 1463 1464	 1492621869	 399736467	 161832.
17:11:09 1464 1465	 1492621869	 565599862	 165864.
17:11:09 1465 1466	 1492621869	 727335382	 161735.
17:11:09 1466 1467	 1492621869	 889265747	 161930.
17:11:10 1467 1468	 1492621870	 55069376	 165804.
17:11:10 1468 1469	 1492621870	 188168840	 133100.
17:11:10 1469 1470	 1492621870	 353983744	 165815.
17:11:10 1470 1471	 1492621870	 515947802	 161963.
17:11:10 1471 1472	 1492621870	 678011480	 162064.
17:11:10 1472 1473	 1492621870	 844704838	 166694.
17:11:11 1473 1474	 1492621871	 19367769	 174662.
17:11:11 1474 1475	 1492621871	 168766685	 149400.
17:11:11 1475 1476	 1492621871	 330291191	 161524.
17:11:11 1476 1477	 1492621871	 467730911	 137440.
17:11:11 1477 1478	 1492621871	 629582609	 161851.
17:11:11 1478 1479	 1492621871	 795277500	 165695.
17:11:11 1479 1480	 1492621871	 957199922	 161923.
17:11:12 1480 1481	 1492621872	 94286305	 137086.
17:11:12 1481 1482	 1492621872	 256440820	 162155.
17:11:12 1482 1483	 1492621872	 422139056	 165698.
17:11:12 1483 1484	 1492621872	 584067171	 161928.
17:11:12 1484 1485	 1492621872	 749899192	 165832.
17:11:12 1485 1486	 1492621872	 915730779	 165831.
17:11:13 1486 1487	 1492621873	 77839332	 162109.
17:11:13 1487 1488	 1492621873	 214995921	 137157.
17:11:13 1488 1489	 1492621873	 376844966	 161849.
17:11:13 1489 1490	 1492621873	 542847403	 166002.
17:11:13 1490 1491	 1492621873	 704816192	 161969.
17:11:13 1491 1492	 1492621873	 866551136	 161735.
17:11:14 1492 1493	 1492621874	 32161955	 165611.
17:11:14 1493 1494	 1492621874	 165466949	 133305.
17:11:14 1494 1495	 1492621874	 331471069	 166004.
17:11:14 1495 1496	 1492621874	 493504958	 162034.
17:11:14 1496 1497	 1492621874	 659143615	 165638.
17:11:14 1497 1498	 1492621874	 820862282	 161719.
17:11:14 1498 1499	 1492621874	 986538209	 165676.
17:11:15 1499 1500	 1492621875	 119649346	 133111.
17:11:15 1500 1501	 1492621875	 281529496	 161880.
17:11:15 1501 1502	 1492621875	 447475749	 165946.
17:11:15 1502 1503	 1492621875	 609427103	 161952.
17:11:15 1503 1504	 1492621875	 775112329	 165685.
17:11:15 1504 1505	 1492621875	 937387688	 162275.
17:11:16 1505 1506	 1492621876	 103660970	 166274.
17:11:16 1506 1507	 1492621876	 265790459	 162129.
17:11:16 1507 1508	 1492621876	 431899168	 166109.
17:11:16 1508 1509	 1492621876	 565174245	 133275.
17:11:16 1509 1510	 1492621876	 731032193	 165858.
17:11:16 1510 1511	 1492621876	 892741232	 161709.
17:11:17 1511 1512	 1492621877	 54463876	 161723.
17:11:17 1512 1513	 1492621877	 220096869	 165633.
17:11:17 1513 1514	 1492621877	 381797981	 161701.
17:11:17 1514 1515	 1492621877	 543485476	 161687.
17:11:17 1515 1516	 1492621877	 709428732	 165943.
17:11:17 1516 1517	 1492621877	 871141791	 161713.
17:11:18 1517 1518	 1492621878	 8273737	 137132.
17:11:18 1518 1519	 1492621878	 170379314	 162106.
17:11:18 1519 1520	 1492621878	 336321054	 165942.
17:11:18 1520 1521	 1492621878	 498400296	 162079.
17:11:18 1521 1522	 1492621878	 660058578	 161658.
17:11:18 1522 1523	 1492621878	 826106008	 166048.
17:11:18 1523 1524	 1492621878	 959221486	 133115.
17:11:19 1524 1525	 1492621879	 125153555	 165932.
17:11:19 1525 1526	 1492621879	 287545440	 162392.
17:11:19 1526 1527	 1492621879	 453519871	 165975.
17:11:19 1527 1528	 1492621879	 615314399	 161794.
17:11:19 1528 1529	 1492621879	 781543409	 166229.
17:11:19 1529 1530	 1492621879	 943175126	 161632.
17:11:20 1530 1531	 1492621880	 80408788	 137234.
17:11:20 1531 1532	 1492621880	 242216399	 161807.
17:11:20 1532 1533	 1492621880	 408180711	 165964.
17:11:20 1533 1534	 1492621880	 569875640	 161695.
17:11:20 1534 1535	 1492621880	 736137474	 166262.
17:11:20 1535 1536	 1492621880	 869585191	 133448.
17:11:21 1536 1537	 1492621881	 35593515	 166008.
17:11:21 1537 1538	 1492621881	 197737053	 162144.
17:11:21 1538 1539	 1492621881	 363919167	 166182.
17:11:21 1539 1540	 1492621881	 525907942	 161989.
17:11:21 1540 1541	 1492621881	 691655246	 165747.
17:11:21 1541 1542	 1492621881	 824856308	 133201.
17:11:21 1542 1543	 1492621881	 990724637	 165868.
17:11:22 1543 1544	 1492621882	 152691688	 161967.
17:11:22 1544 1545	 1492621882	 319337369	 166646.
17:11:22 1545 1546	 1492621882	 477378685	 158041.
17:11:22 1546 1547	 1492621882	 643530397	 166152.
17:11:22 1547 1548	 1492621882	 776843864	 133314.
17:11:22 1548 1549	 1492621882	 942512059	 165668.
17:11:23 1549 1550	 1492621883	 104330898	 161819.
17:11:23 1550 1551	 1492621883	 270171318	 165840.
17:11:23 1551 1552	 1492621883	 432350030	 162179.
17:11:23 1552 1553	 1492621883	 565368409	 133018.
17:11:23 1553 1554	 1492621883	 731218711	 165851.
17:11:23 1554 1555	 1492621883	 893103538	 161884.
17:11:24 1555 1556	 1492621884	 59521468	 166418.
17:11:24 1556 1557	 1492621884	 225944678	 166423.
17:11:24 1557 1558	 1492621884	 388472124	 162528.
17:11:24 1558 1559	 1492621884	 554931441	 166459.
17:11:24 1559 1560	 1492621884	 688526444	 133595.
17:11:24 1560 1561	 1492621884	 855004625	 166478.
17:11:25 1561 1562	 1492621885	 20765693	 165761.
17:11:25 1562 1563	 1492621885	 182689168	 161924.
17:11:25 1563 1564	 1492621885	 349052612	 166363.
17:11:25 1564 1565	 1492621885	 511330319	 162278.
17:11:25 1565 1566	 1492621885	 648707230	 137377.
17:11:25 1566 1567	 1492621885	 810260127	 161553.
17:11:25 1567 1568	 1492621885	 975972740	 165712.
17:11:26 1568 1569	 1492621886	 137628891	 161657.
17:11:26 1569 1570	 1492621886	 303975690	 166346.
17:11:26 1570 1571	 1492621886	 437127270	 133152.
17:11:26 1571 1572	 1492621886	 603177129	 166050.
17:11:26 1572 1573	 1492621886	 769446484	 166269.
17:11:26 1573 1574	 1492621886	 931625515	 162179.
17:11:27 1574 1575	 1492621887	 93891902	 162267.
17:11:27 1575 1576	 1492621887	 231393223	 137501.
17:11:27 1576 1577	 1492621887	 393267578	 161874.
17:11:27 1577 1578	 1492621887	 559458914	 166192.
17:11:27 1578 1579	 1492621887	 725542070	 166083.
17:11:27 1579 1580	 1492621887	 888572555	 163030.
17:11:28 1580 1581	 1492621888	 46493687	 157921.
17:11:28 1581 1582	 1492621888	 212373660	 165880.
17:11:28 1582 1583	 1492621888	 345467976	 133095.
17:11:28 1583 1584	 1492621888	 511759045	 166291.
17:11:28 1584 1585	 1492621888	 673841534	 162082.
17:11:28 1585 1586	 1492621888	 840014539	 166173.
17:11:28 1586 1587	 1492621889	 1937958	 161924.
17:11:29 1587 1588	 1492621889	 139558829	 137621.
17:11:29 1588 1589	 1492621889	 301501141	 161942.
17:11:29 1589 1590	 1492621889	 467878844	 166378.
17:11:29 1590 1591	 1492621889	 629840990	 161962.
17:11:29 1591 1592	 1492621889	 796212308	 166371.
17:11:29 1592 1593	 1492621889	 958150510	 161938.
17:11:30 1593 1594	 1492621890	 95837734	 137687.
17:11:30 1594 1595	 1492621890	 258156213	 162319.
17:11:30 1595 1596	 1492621890	 420136031	 161980.
17:11:30 1596 1597	 1492621890	 586349850	 166214.
17:11:30 1597 1598	 1492621890	 752546676	 166196.
17:11:30 1598 1599	 1492621890	 914937570	 162391.
17:11:31 1599 1600	 1492621891	 80649836	 165713.
17:11:31 1600 1601	 1492621891	 214213097	 133563.
17:11:31 1601 1602	 1492621891	 380563238	 166350.
17:11:31 1602 1603	 1492621891	 542292864	 161730.
17:11:31 1603 1604	 1492621891	 708023405	 165730.
17:11:31 1604 1605	 1492621891	 870018150	 161995.
17:11:32 1605 1606	 1492621892	 7390702	 137372.
17:11:32 1606 1607	 1492621892	 169577939	 162188.
17:11:32 1607 1608	 1492621892	 335640179	 166062.
17:11:32 1608 1609	 1492621892	 497462011	 161822.
17:11:32 1609 1610	 1492621892	 663283604	 165821.
17:11:32 1610 1611	 1492621892	 796882763	 133599.
17:11:32 1611 1612	 1492621892	 963298829	 166417.
17:11:33 1612 1613	 1492621893	 125645913	 162347.
17:11:33 1613 1614	 1492621893	 292006751	 166360.
17:11:33 1614 1615	 1492621893	 454026774	 162020.
17:11:33 1615 1616	 1492621893	 620396772	 166370.
17:11:33 1616 1617	 1492621893	 782067482	 161671.
17:11:33 1617 1618	 1492621893	 919001857	 136935.
17:11:34 1618 1619	 1492621894	 81114360	 162112.
17:11:34 1619 1620	 1492621894	 247163716	 166049.
17:11:34 1620 1621	 1492621894	 409520038	 162357.
17:11:34 1621 1622	 1492621894	 575542297	 166022.
17:11:34 1622 1623	 1492621894	 709125875	 133584.
17:11:34 1623 1624	 1492621894	 875262534	 166136.
17:11:35 1624 1625	 1492621895	 37082548	 161820.
17:11:35 1625 1626	 1492621895	 198993658	 161911.
17:11:35 1626 1627	 1492621895	 364991291	 165998.
17:11:35 1627 1628	 1492621895	 502286001	 137295.
17:11:35 1628 1629	 1492621895	 664541253	 162255.
17:11:35 1629 1630	 1492621895	 830247025	 165706.
17:11:35 1630 1631	 1492621895	 992349076	 162102.
17:11:36 1631 1632	 1492621896	 158675183	 166326.
17:11:36 1632 1633	 1492621896	 320771363	 162096.
17:11:36 1633 1634	 1492621896	 487342090	 166571.
17:11:36 1634 1635	 1492621896	 620874905	 133533.
17:11:36 1635 1636	 1492621896	 786749556	 165874.
17:11:36 1636 1637	 1492621896	 949072872	 162324.
17:11:37 1637 1638	 1492621897	 115397458	 166324.
17:11:37 1638 1639	 1492621897	 277309023	 161912.
17:11:37 1639 1640	 1492621897	 443905446	 166596.
17:11:37 1640 1641	 1492621897	 606410039	 162505.
17:11:37 1641 1642	 1492621897	 743240355	 136830.
17:11:37 1642 1643	 1492621897	 905173489	 161933.
17:11:38 1643 1644	 1492621898	 71824468	 166651.
17:11:38 1644 1645	 1492621898	 234103225	 162279.
17:11:38 1645 1646	 1492621898	 400912020	 166809.
17:11:38 1646 1647	 1492621898	 562815732	 161903.
17:11:38 1647 1648	 1492621898	 729177234	 166362.
17:11:38 1648 1649	 1492621898	 862437330	 133260.
17:11:39 1649 1650	 1492621899	 28367650	 165930.
17:11:39 1650 1651	 1492621899	 205131038	 176764.
17:11:39 1651 1652	 1492621899	 338818026	 133687.
17:11:39 1652 1653	 1492621899	 505058930	 166241.
17:11:39 1653 1654	 1492621899	 666667012	 161608.
17:11:39 1654 1655	 1492621899	 832717922	 166051.
17:11:39 1655 1656	 1492621899	 994468075	 161750.
17:11:40 1656 1657	 1492621900	 131950748	 137482.
17:11:40 1657 1658	 1492621900	 298002622	 166052.
17:11:40 1658 1659	 1492621900	 459633042	 161631.
17:11:40 1659 1660	 1492621900	 621689102	 162056.
17:11:40 1660 1661	 1492621900	 787238500	 165549.
17:11:40 1661 1662	 1492621900	 920668675	 133430.
17:11:41 1662 1663	 1492621901	 86751695	 166083.
17:11:41 1663 1664	 1492621901	 248597555	 161846.
17:11:41 1664 1665	 1492621901	 414672129	 166075.
17:11:41 1665 1666	 1492621901	 580771305	 166099.
17:11:41 1666 1667	 1492621901	 714159013	 133388.
17:11:41 1667 1668	 1492621901	 875743610	 161584.
17:11:42 1668 1669	 1492621902	 41520727	 165777.
17:11:42 1669 1670	 1492621902	 203574349	 162054.
17:11:42 1670 1671	 1492621902	 369586119	 166012.
17:11:42 1671 1672	 1492621902	 503043893	 133458.
17:11:42 1672 1673	 1492621902	 669183259	 166139.
17:11:42 1673 1674	 1492621902	 834930142	 165747.
17:11:42 1674 1675	 1492621902	 997028225	 162098.
17:11:43 1675 1676	 1492621903	 163392596	 166364.
17:11:43 1676 1677	 1492621903	 296653631	 133261.
17:11:43 1677 1678	 1492621903	 462781435	 166128.
17:11:43 1678 1679	 1492621903	 624744662	 161963.
17:11:43 1679 1680	 1492621903	 790321401	 165577.
17:11:43 1680 1681	 1492621903	 923322236	 133001.
17:11:44 1681 1682	 1492621904	 89428433	 166106.
17:11:44 1682 1683	 1492621904	 251621289	 162193.
17:11:44 1683 1684	 1492621904	 417938565	 166317.
17:11:44 1684 1685	 1492621904	 584012673	 166074.
17:11:44 1685 1686	 1492621904	 745888112	 161876.
17:11:44 1686 1687	 1492621904	 911841536	 165953.
17:11:45 1687 1688	 1492621905	 45295333	 133454.
17:11:45 1688 1689	 1492621905	 211624798	 166330.
17:11:45 1689 1690	 1492621905	 373824467	 162199.
17:11:45 1690 1691	 1492621905	 539848967	 166025.
17:11:45 1691 1692	 1492621905	 706117942	 166269.
17:11:45 1692 1693	 1492621905	 838784652	 132666.
17:11:45 1693 1694	 1492621906	 260986	 161477.
17:11:46 1694 1695	 1492621906	 165954779	 165693.
17:11:46 1695 1696	 1492621906	 327400032	 161446.
17:11:46 1696 1697	 1492621906	 464991926	 137592.
17:11:46 1697 1698	 1492621906	 627130043	 162138.
17:11:46 1698 1699	 1492621906	 793385492	 166255.
17:11:46 1699 1700	 1492621906	 955543280	 162158.
17:11:47 1700 1701	 1492621907	 121967101	 166424.
17:11:47 1701 1702	 1492621907	 287799409	 165832.
17:11:47 1702 1703	 1492621907	 421401785	 133602.
17:11:47 1703 1704	 1492621907	 587511002	 166110.
17:11:47 1704 1705	 1492621907	 749635671	 162124.
17:11:47 1705 1706	 1492621907	 916081153	 166446.
17:11:48 1706 1707	 1492621908	 77943626	 161862.
17:11:48 1707 1708	 1492621908	 244105711	 166162.
17:11:48 1708 1709	 1492621908	 377331128	 133226.
17:11:48 1709 1710	 1492621908	 543307860	 165977.
17:11:48 1710 1711	 1492621908	 705623081	 162315.
17:11:48 1711 1712	 1492621908	 871489266	 165866.
17:11:49 1712 1713	 1492621909	 33248816	 161759.
17:11:49 1713 1714	 1492621909	 170605597	 137357.
17:11:49 1714 1715	 1492621909	 332797516	 162192.
17:11:49 1715 1716	 1492621909	 499261774	 166464.
17:11:49 1716 1717	 1492621909	 661529558	 162268.
17:11:49 1717 1718	 1492621909	 827670153	 166141.
17:11:49 1718 1719	 1492621909	 989645322	 161975.
17:11:50 1719 1720	 1492621910	 155461436	 165816.
17:11:50 1720 1721	 1492621910	 288463988	 133003.
17:11:50 1721 1722	 1492621910	 454644827	 166181.
17:11:50 1722 1723	 1492621910	 616881340	 162236.
17:11:50 1723 1724	 1492621910	 783192087	 166311.
17:11:50 1724 1725	 1492621910	 945159285	 161967.
17:11:51 1725 1726	 1492621911	 107017030	 161858.
17:11:51 1726 1727	 1492621911	 273184834	 166168.
17:11:51 1727 1728	 1492621911	 406401339	 133216.
17:11:51 1728 1729	 1492621911	 572202292	 165801.
17:11:51 1729 1730	 1492621911	 733811390	 161609.
17:11:51 1730 1731	 1492621911	 899738852	 165928.
17:11:52 1731 1732	 1492621912	 61362588	 161623.
17:11:52 1732 1733	 1492621912	 223144663	 161782.
17:11:52 1733 1734	 1492621912	 389310915	 166167.
17:11:52 1734 1735	 1492621912	 551290168	 161979.
17:11:52 1735 1736	 1492621912	 718095920	 166806.
17:11:52 1736 1737	 1492621912	 880163707	 162067.
17:11:53 1737 1738	 1492621913	 17635282	 137472.
17:11:53 1738 1739	 1492621913	 179960700	 162325.
17:11:53 1739 1740	 1492621913	 346066818	 166107.
17:11:53 1740 1741	 1492621913	 508060604	 161993.
17:11:53 1741 1742	 1492621913	 674105075	 166045.
17:11:53 1742 1743	 1492621913	 835705406	 161600.
17:11:53 1743 1744	 1492621913	 973295215	 137590.
17:11:54 1744 1745	 1492621914	 135188259	 161893.
17:11:54 1745 1746	 1492621914	 301690235	 166502.
17:11:54 1746 1747	 1492621914	 463577237	 161887.
17:11:54 1747 1748	 1492621914	 630148975	 166572.
17:11:54 1748 1749	 1492621914	 792296384	 162147.
17:11:54 1749 1750	 1492621914	 958042628	 165746.
17:11:55 1750 1751	 1492621915	 91120663	 133078.
17:11:55 1751 1752	 1492621915	 257030958	 165911.
17:11:55 1752 1753	 1492621915	 418767120	 161736.
17:11:55 1753 1754	 1492621915	 580700368	 161933.
17:11:55 1754 1755	 1492621915	 746678634	 165978.
17:11:55 1755 1756	 1492621915	 908757778	 162079.
17:11:56 1756 1757	 1492621916	 89342141	 180585.
17:11:56 1757 1758	 1492621916	 222710560	 133368.
17:11:56 1758 1759	 1492621916	 388956059	 166246.
17:11:56 1759 1760	 1492621916	 551218454	 162262.
17:11:56 1760 1761	 1492621916	 717096681	 165878.
17:11:56 1761 1762	 1492621916	 879074930	 161979.
17:11:57 1762 1763	 1492621917	 44908727	 165833.
17:11:57 1763 1764	 1492621917	 206880565	 161972.
17:11:57 1764 1765	 1492621917	 368937176	 162057.
17:11:57 1765 1766	 1492621917	 535114137	 166177.
17:11:57 1766 1767	 1492621917	 697238679	 162124.
17:11:57 1767 1768	 1492621917	 863197056	 165959.
17:11:58 1768 1769	 1492621918	 25021427	 161824.
17:11:58 1769 1770	 1492621918	 186778578	 161757.
17:11:58 1770 1771	 1492621918	 352987383	 166209.
17:11:58 1771 1772	 1492621918	 514898342	 161911.
17:11:58 1772 1773	 1492621918	 652480233	 137582.
17:11:58 1773 1774	 1492621918	 814817893	 162338.
17:11:58 1774 1775	 1492621918	 981474594	 166656.
17:11:59 1775 1776	 1492621919	 143977544	 162503.
17:11:59 1776 1777	 1492621919	 310183461	 166206.
17:11:59 1777 1778	 1492621919	 472311999	 162129.
17:11:59 1778 1779	 1492621919	 638828341	 166516.
17:11:59 1779 1780	 1492621919	 800983857	 162156.
17:11:59 1780 1781	 1492621919	 967318043	 166334.
17:12:00 1781 1782	 1492621920	 129658233	 162340.
17:12:00 1782 1783	 1492621920	 267001210	 137343.
17:12:00 1783 1784	 1492621920	 429403376	 162402.
17:12:00 1784 1785	 1492621920	 595885671	 166482.
17:12:00 1785 1786	 1492621920	 757630339	 161745.
17:12:00 1786 1787	 1492621920	 919536864	 161907.
17:12:01 1787 1788	 1492621921	 85281630	 165744.
17:12:01 1788 1789	 1492621921	 246920092	 161639.
17:12:01 1789 1790	 1492621921	 412785013	 165865.
17:12:01 1790 1791	 1492621921	 574608451	 161823.
17:12:01 1791 1792	 1492621921	 711870431	 137262.
17:12:01 1792 1793	 1492621921	 873750830	 161881.
17:12:02 1793 1794	 1492621922	 35876091	 162125.
17:12:02 1794 1795	 1492621922	 201932008	 166056.
17:12:02 1795 1796	 1492621922	 363855050	 161923.
17:12:02 1796 1797	 1492621922	 529789388	 165934.
17:12:02 1797 1798	 1492621922	 691762667	 161973.
17:12:02 1798 1799	 1492621922	 857695084	 165933.
17:12:03 1799 1800	 1492621923	 19482670	 161787.
17:12:03 1800 1801	 1492621923	 181415698	 161933.
17:12:03 1801 1802	 1492621923	 318730074	 137315.
17:12:03 1802 1803	 1492621923	 480744735	 162014.
17:12:03 1803 1804	 1492621923	 642942833	 162199.
17:12:03 1804 1805	 1492621923	 808951734	 166009.
17:12:03 1805 1806	 1492621923	 970938502	 161986.
17:12:04 1806 1807	 1492621924	 137004841	 166067.
17:12:04 1807 1808	 1492621924	 299178829	 162173.
17:12:04 1808 1809	 1492621924	 465293935	 166116.
17:12:04 1809 1810	 1492621924	 627199306	 161905.
17:12:04 1810 1811	 1492621924	 789133839	 161935.
17:12:04 1811 1812	 1492621924	 955488291	 166354.
17:12:05 1812 1813	 1492621925	 117527997	 162040.
17:12:05 1813 1814	 1492621925	 283396616	 165868.
17:12:05 1814 1815	 1492621925	 416715155	 133319.
17:12:05 1815 1816	 1492621925	 578611352	 161896.
17:12:05 1816 1817	 1492621925	 744609714	 165998.
17:12:05 1817 1818	 1492621925	 906580162	 161971.
17:12:06 1818 1819	 1492621926	 72309436	 165729.
17:12:06 1819 1820	 1492621926	 233643446	 161334.
17:12:06 1820 1821	 1492621926	 399299557	 165656.
17:12:06 1821 1822	 1492621926	 532057784	 132759.
17:12:06 1822 1823	 1492621926	 697474271	 165416.
17:12:06 1823 1824	 1492621926	 859085949	 161612.
17:12:07 1824 1825	 1492621927	 24660384	 165574.
17:12:07 1825 1826	 1492621927	 157388612	 132728.
17:12:07 1826 1827	 1492621927	 318685454	 161297.
17:12:07 1827 1828	 1492621927	 484332884	 165648.
17:12:07 1828 1829	 1492621927	 645623069	 161290.
17:12:07 1829 1830	 1492621927	 782315870	 136693.
17:12:07 1830 1831	 1492621927	 943615351	 161299.
17:12:08 1831 1832	 1492621928	 109178755	 165563.
17:12:08 1832 1833	 1492621928	 270838291	 161660.
17:12:08 1833 1834	 1492621928	 432404267	 161566.
17:12:08 1834 1835	 1492621928	 569448623	 137044.
17:12:08 1835 1836	 1492621928	 730898423	 161450.
17:12:08 1836 1837	 1492621928	 896611763	 165713.
17:12:09 1837 1838	 1492621929	 58144291	 161533.
17:12:09 1838 1839	 1492621929	 223718279	 165574.
17:12:09 1839 1840	 1492621929	 385276871	 161559.
17:12:09 1840 1841	 1492621929	 522407090	 137130.
17:12:09 1841 1842	 1492621929	 684196500	 161789.
17:12:09 1842 1843	 1492621929	 849955600	 165759.
17:12:10 1843 1844	 1492621930	 11763882	 161809.
17:12:10 1844 1845	 1492621930	 177765027	 166001.
17:12:10 1845 1846	 1492621930	 340506962	 162742.
17:12:10 1846 1847	 1492621930	 506874994	 166368.
17:12:10 1847 1848	 1492621930	 669150711	 162275.
17:12:10 1848 1849	 1492621930	 806796178	 137646.
17:12:10 1849 1850	 1492621930	 969217822	 162422.
17:12:11 1850 1851	 1492621931	 135780695	 166562.
17:12:11 1851 1852	 1492621931	 298399056	 162619.
17:12:11 1852 1853	 1492621931	 465193295	 166794.
17:12:11 1853 1854	 1492621931	 631576115	 166383.
17:12:11 1854 1855	 1492621931	 794095830	 162520.
17:12:11 1855 1856	 1492621931	 960752505	 166656.
17:12:12 1856 1857	 1492621932	 123274047	 162522.
17:12:12 1857 1858	 1492621932	 289216468	 165942.
17:12:12 1858 1859	 1492621932	 450930272	 161714.
17:12:12 1859 1860	 1492621932	 612875760	 161945.
17:12:12 1860 1861	 1492621932	 778727091	 165852.
17:12:12 1861 1862	 1492621932	 940578232	 161851.
17:12:13 1862 1863	 1492621933	 106408207	 165830.
17:12:13 1863 1864	 1492621933	 239657462	 133249.
17:12:13 1864 1865	 1492621933	 405330865	 165674.
17:12:13 1865 1866	 1492621933	 566893478	 161562.
17:12:13 1866 1867	 1492621933	 728431506	 161538.
17:12:13 1867 1868	 1492621933	 894307041	 165876.
17:12:14 1868 1869	 1492621934	 55954316	 161647.
17:12:14 1869 1870	 1492621934	 221612873	 165659.
17:12:14 1870 1871	 1492621934	 354911877	 133299.
17:12:14 1871 1872	 1492621934	 516403342	 161491.
17:12:14 1872 1873	 1492621934	 678292545	 161889.
17:12:14 1873 1874	 1492621934	 844194313	 165902.
17:12:15 1874 1875	 1492621935	 9721911	 165528.
17:12:15 1875 1876	 1492621935	 171283078	 161561.
17:12:15 1876 1877	 1492621935	 332971499	 161688.
17:12:15 1877 1878	 1492621935	 470210678	 137239.
17:12:15 1878 1879	 1492621935	 631959512	 161749.
17:12:15 1879 1880	 1492621935	 793673772	 161714.
17:12:15 1880 1881	 1492621935	 959264561	 165591.
17:12:16 1881 1882	 1492621936	 121034550	 161770.
17:12:16 1882 1883	 1492621936	 286452258	 165418.
17:12:16 1883 1884	 1492621936	 419344253	 132892.
