16:22:11    0 Step	 time(s)	 time(ns)	 delta(ms)
16:22:11    0 1	 1492359731	 96704893	 952.
16:22:11    1 2	 1492359731	 262867068	 166162.
16:22:11    2 3	 1492359731	 425572114	 162705.
16:22:11    3 4	 1492359731	 587749690	 162177.
16:22:11    4 5	 1492359731	 753863273	 166114.
16:22:11    5 6	 1492359731	 915924646	 162061.
16:22:12    6 7	 1492359732	 53403039	 137479.
16:22:12    7 8	 1492359732	 215432220	 162029.
16:22:12    8 9	 1492359732	 381414675	 165982.
16:22:12    9 10	 1492359732	 547545250	 166131.
16:22:12   10 11	 1492359732	 709868783	 162324.
16:22:12   11 12	 1492359732	 872074967	 162206.
16:22:13   12 13	 1492359733	 38232638	 166157.
16:22:13   13 14	 1492359733	 171552625	 133320.
16:22:13   14 15	 1492359733	 337783805	 166232.
16:22:13   15 16	 1492359733	 500267479	 162483.
16:22:13   16 17	 1492359733	 662349580	 162082.
16:22:13   17 18	 1492359733	 828388694	 166039.
16:22:13   18 19	 1492359733	 990367027	 161979.
16:22:14   19 20	 1492359734	 156415535	 166048.
16:22:14   20 21	 1492359734	 318454975	 162040.
16:22:14   21 22	 1492359734	 455871241	 137416.
16:22:14   22 23	 1492359734	 617976643	 162105.
16:22:14   23 24	 1492359734	 784319887	 166344.
16:22:14   24 25	 1492359734	 950520983	 166201.
16:22:15   25 26	 1492359735	 112466391	 161945.
16:22:15   26 27	 1492359735	 274627272	 162161.
16:22:15   27 28	 1492359735	 440895533	 166268.
16:22:15   28 29	 1492359735	 607051380	 166156.
16:22:15   29 30	 1492359735	 740232042	 133181.
16:22:15   30 31	 1492359735	 906262137	 166030.
16:22:16   31 32	 1492359736	 68251389	 161989.
16:22:16   32 33	 1492359736	 234698630	 166447.
16:22:16   33 34	 1492359736	 396614673	 161916.
16:22:16   34 35	 1492359736	 567655539	 171041.
16:22:16   35 36	 1492359736	 721553591	 153898.
16:22:16   36 37	 1492359736	 883722163	 162169.
16:22:17   37 38	 1492359737	 21061005	 137339.
16:22:17   38 39	 1492359737	 183037807	 161977.
16:22:17   39 40	 1492359737	 349072043	 166034.
16:22:17   40 41	 1492359737	 511166845	 162095.
16:22:17   41 42	 1492359737	 672991564	 161824.
16:22:17   42 43	 1492359737	 838840561	 165849.
16:22:17   43 44	 1492359737	 976172574	 137332.
16:22:18   44 45	 1492359738	 138208673	 162036.
16:22:18   45 46	 1492359738	 304411032	 166203.
16:22:18   46 47	 1492359738	 466413826	 162003.
16:22:18   47 48	 1492359738	 628629442	 162215.
16:22:18   48 49	 1492359738	 790819001	 162190.
16:22:18   49 50	 1492359738	 953409179	 162590.
16:22:19   50 51	 1492359739	 115456970	 162048.
16:22:19   51 52	 1492359739	 281533179	 166076.
16:22:19   52 53	 1492359739	 414831595	 133298.
16:22:19   53 54	 1492359739	 580807102	 165976.
16:22:19   54 55	 1492359739	 742724127	 161917.
16:22:19   55 56	 1492359739	 908910154	 166186.
16:22:20   56 57	 1492359740	 70909802	 162000.
16:22:20   57 58	 1492359740	 236822998	 165913.
16:22:20   58 59	 1492359740	 369986899	 133164.
16:22:20   59 60	 1492359740	 532110074	 162123.
16:22:20   60 61	 1492359740	 698205170	 166095.
16:22:20   61 62	 1492359740	 860133997	 161929.
16:22:21   62 63	 1492359741	 26287226	 166153.
16:22:21   63 64	 1492359741	 188550660	 162263.
16:22:21   64 65	 1492359741	 354767273	 166217.
16:22:21   65 66	 1492359741	 492090968	 137324.
16:22:21   66 67	 1492359741	 679531915	 187441.
16:22:21   67 68	 1492359741	 816947481	 137415.
16:22:21   68 69	 1492359741	 979586939	 162640.
16:22:22   69 70	 1492359742	 141698930	 162112.
16:22:22   70 71	 1492359742	 303709941	 162011.
16:22:22   71 72	 1492359742	 469789288	 166079.
16:22:22   72 73	 1492359742	 631779911	 161991.
16:22:22   73 74	 1492359742	 797863467	 166083.
16:22:22   74 75	 1492359742	 931262610	 133399.
16:22:23   75 76	 1492359743	 97554141	 166292.
16:22:23   76 77	 1492359743	 259720319	 162166.
16:22:23   77 78	 1492359743	 425886228	 166166.
16:22:23   78 79	 1492359743	 587819454	 161933.
16:22:23   79 80	 1492359743	 754018787	 166199.
16:22:23   80 81	 1492359743	 912704113	 158686.
16:22:24   81 82	 1492359744	 79415655	 166711.
16:22:24   82 83	 1492359744	 241600426	 162185.
16:22:24   83 84	 1492359744	 378788715	 137188.
16:22:24   84 85	 1492359744	 540978048	 162190.
16:22:24   85 86	 1492359744	 707198257	 166220.
16:22:24   86 87	 1492359744	 869258690	 162060.
16:22:25   87 88	 1492359745	 35335352	 166077.
16:22:25   88 89	 1492359745	 197316000	 161981.
16:22:25   89 90	 1492359745	 363504234	 166188.
16:22:25   90 91	 1492359745	 496866285	 133362.
16:22:25   91 92	 1492359745	 658957823	 162092.
16:22:25   92 93	 1492359745	 825148834	 166191.
16:22:25   93 94	 1492359745	 991322601	 166173.
16:22:26   94 95	 1492359746	 153494490	 162172.
16:22:26   95 96	 1492359746	 319560793	 166067.
16:22:26   96 97	 1492359746	 481613949	 162053.
16:22:26   97 98	 1492359746	 619191273	 137577.
16:22:26   98 99	 1492359746	 781371191	 162180.
16:22:26   99 100	 1492359746	 947594078	 166223.
16:22:27  100 101	 1492359747	 109747834	 162154.
16:22:27  101 102	 1492359747	 276033505	 166285.
16:22:27  102 103	 1492359747	 438090786	 162057.
16:22:27  103 104	 1492359747	 600142392	 162052.
16:22:27  104 105	 1492359747	 766109967	 165968.
16:22:27  105 106	 1492359747	 924722896	 158613.
16:22:28  106 107	 1492359748	 62040273	 137317.
16:22:28  107 108	 1492359748	 224085504	 162045.
16:22:28  108 109	 1492359748	 390161495	 166076.
16:22:28  109 110	 1492359748	 552148072	 161987.
16:22:28  110 111	 1492359748	 718241301	 166093.
16:22:28  111 112	 1492359748	 884417482	 166176.
16:22:29  112 113	 1492359749	 46459794	 162043.
16:22:29  113 114	 1492359749	 179722219	 133262.
16:22:29  114 115	 1492359749	 345914652	 166192.
16:22:29  115 116	 1492359749	 503723217	 157809.
16:22:29  116 117	 1492359749	 669636935	 165914.
16:22:29  117 118	 1492359749	 835787905	 166151.
16:22:29  118 119	 1492359749	 998089259	 162301.
16:22:30  119 120	 1492359750	 160121786	 162032.
16:22:30  120 121	 1492359750	 326070003	 165949.
16:22:30  121 122	 1492359750	 459490416	 133420.
16:22:30  122 123	 1492359750	 625661185	 166171.
16:22:30  123 124	 1492359750	 787614132	 161953.
16:22:30  124 125	 1492359750	 953743120	 166129.
16:22:31  125 126	 1492359751	 115677218	 161934.
16:22:31  126 127	 1492359751	 281880922	 166204.
16:22:31  127 128	 1492359751	 443890017	 162009.
16:22:31  128 129	 1492359751	 581218997	 137329.
16:22:31  129 130	 1492359751	 743265999	 162047.
16:22:31  130 131	 1492359751	 905578961	 162313.
16:22:32  131 132	 1492359752	 71536788	 165957.
16:22:32  132 133	 1492359752	 237705012	 166169.
16:22:32  133 134	 1492359752	 399683189	 161978.
16:22:32  134 135	 1492359752	 561908852	 162226.
16:22:32  135 136	 1492359752	 728092861	 166184.
16:22:32  136 137	 1492359752	 861284162	 133191.
16:22:33  137 138	 1492359753	 27577297	 166293.
16:22:33  138 139	 1492359753	 189637375	 162060.
16:22:33  139 140	 1492359753	 355778262	 166141.
16:22:33  140 141	 1492359753	 518024481	 162246.
16:22:33  141 142	 1492359753	 683978241	 165954.
16:22:33  142 143	 1492359753	 850861534	 166883.
16:22:34  143 144	 1492359754	 8994315	 158133.
16:22:34  144 145	 1492359754	 142208971	 133215.
16:22:34  145 146	 1492359754	 308370736	 166161.
16:22:34  146 147	 1492359754	 470451025	 162081.
16:22:34  147 148	 1492359754	 636565209	 166114.
16:22:34  148 149	 1492359754	 798610575	 162045.
16:22:34  149 150	 1492359754	 964717283	 166107.
16:22:35  150 151	 1492359755	 126767993	 162051.
16:22:35  151 152	 1492359755	 264145296	 137377.
16:22:35  152 153	 1492359755	 426144191	 161999.
16:22:35  153 154	 1492359755	 592143491	 165999.
16:22:35  154 155	 1492359755	 754100176	 161957.
16:22:35  155 156	 1492359755	 920308639	 166208.
16:22:36  156 157	 1492359756	 82138623	 161830.
16:22:36  157 158	 1492359756	 248337952	 166200.
16:22:36  158 159	 1492359756	 410657448	 162319.
16:22:36  159 160	 1492359756	 548016045	 137359.
16:22:36  160 161	 1492359756	 709991947	 161976.
16:22:36  161 162	 1492359756	 876030587	 166038.
16:22:37  162 163	 1492359757	 38266326	 162236.
16:22:37  163 164	 1492359757	 200360463	 162094.
16:22:37  164 165	 1492359757	 366472934	 166113.
16:22:37  165 166	 1492359757	 525304889	 158832.
16:22:37  166 167	 1492359757	 687175018	 161870.
16:22:37  167 168	 1492359757	 853232355	 166057.
16:22:38  168 169	 1492359758	 15039893	 161808.
16:22:38  169 170	 1492359758	 152600873	 137561.
16:22:38  170 171	 1492359758	 314971785	 162371.
16:22:38  171 172	 1492359758	 481229873	 166258.
16:22:38  172 173	 1492359758	 643338297	 162108.
16:22:38  173 174	 1492359758	 809362914	 166025.
16:22:38  174 175	 1492359758	 975418705	 166055.
16:22:39  175 176	 1492359759	 137572508	 162154.
16:22:39  176 177	 1492359759	 303622054	 166050.
16:22:39  177 178	 1492359759	 465485937	 161864.
16:22:39  178 179	 1492359759	 598793531	 133307.
16:22:39  179 180	 1492359759	 764799898	 166007.
16:22:39  180 181	 1492359759	 926659542	 161859.
16:22:40  181 182	 1492359760	 92722655	 166063.
16:22:40  182 183	 1492359760	 254685706	 161963.
16:22:40  183 184	 1492359760	 420627846	 165943.
16:22:40  184 185	 1492359760	 582601668	 161974.
16:22:40  185 186	 1492359760	 715894707	 133292.
16:22:40  186 187	 1492359760	 881928848	 166035.
16:22:41  187 188	 1492359761	 44039866	 162111.
16:22:41  188 189	 1492359761	 210087065	 166047.
16:22:41  189 190	 1492359761	 371962667	 161875.
16:22:41  190 191	 1492359761	 538108450	 166146.
16:22:41  191 192	 1492359761	 700077515	 161969.
16:22:41  192 193	 1492359761	 837252774	 137176.
16:22:41  193 194	 1492359762	 3267532	 166014.
16:22:42  194 195	 1492359762	 165270905	 162004.
16:22:42  195 196	 1492359762	 331363922	 166093.
16:22:42  196 197	 1492359762	 489681054	 158317.
16:22:42  197 198	 1492359762	 648567770	 158886.
16:22:42  198 199	 1492359762	 814857867	 166291.
16:22:42  199 200	 1492359762	 977039202	 162181.
16:22:43  200 201	 1492359763	 143220949	 166182.
16:22:43  201 202	 1492359763	 305303920	 162083.
16:22:43  202 203	 1492359763	 471298527	 165994.
16:22:43  203 204	 1492359763	 604494699	 133196.
16:22:43  204 205	 1492359763	 770676022	 166182.
16:22:43  205 206	 1492359763	 932647893	 161972.
16:22:44  206 207	 1492359764	 94607986	 161960.
16:22:44  207 208	 1492359764	 260632835	 166025.
16:22:44  208 209	 1492359764	 426855590	 166222.
16:22:44  209 210	 1492359764	 559995978	 133141.
16:22:44  210 211	 1492359764	 725904060	 165908.
16:22:44  211 212	 1492359764	 888677148	 162773.
16:22:45  212 213	 1492359765	 46666420	 157989.
16:22:45  213 214	 1492359765	 208661028	 161995.
16:22:45  214 215	 1492359765	 374719909	 166059.
16:22:45  215 216	 1492359765	 536830007	 162110.
16:22:45  216 217	 1492359765	 703173111	 166343.
16:22:45  217 218	 1492359765	 865156583	 161983.
16:22:45  218 219	 1492359766	 2692541	 137536.
16:22:46  219 220	 1492359766	 164991637	 162299.
16:22:46  220 221	 1492359766	 331137185	 166146.
16:22:46  221 222	 1492359766	 493158479	 162021.
16:22:46  222 223	 1492359766	 659350057	 166192.
16:22:46  223 224	 1492359766	 821430731	 162080.
16:22:46  224 225	 1492359766	 984050080	 162620.
16:22:47  225 226	 1492359767	 150164530	 166114.
16:22:47  226 227	 1492359767	 312550561	 162386.
16:22:47  227 228	 1492359767	 445953765	 133403.
16:22:47  228 229	 1492359767	 612322627	 166369.
16:22:47  229 230	 1492359767	 774571569	 162249.
16:22:47  230 231	 1492359767	 940990365	 166419.
16:22:48  231 232	 1492359768	 103222999	 162233.
16:22:48  232 233	 1492359768	 269211124	 165988.
16:22:48  233 234	 1492359768	 431365811	 162155.
16:22:48  234 235	 1492359768	 597554350	 166188.
16:22:48  235 236	 1492359768	 730936051	 133382.
16:22:48  236 237	 1492359768	 896934611	 165998.
16:22:49  237 238	 1492359769	 58920702	 161986.
16:22:49  238 239	 1492359769	 224984688	 166064.
16:22:49  239 240	 1492359769	 387081655	 162097.
16:22:49  240 241	 1492359769	 553340908	 166260.
16:22:49  241 242	 1492359769	 715685068	 162344.
16:22:49  242 243	 1492359769	 877855227	 162170.
16:22:50  243 244	 1492359770	 15266905	 137412.
16:22:50  244 245	 1492359770	 177307973	 162041.
16:22:50  245 246	 1492359770	 343427314	 166119.
16:22:50  246 247	 1492359770	 505477196	 162050.
16:22:50  247 248	 1492359770	 671822677	 166345.
16:22:50  248 249	 1492359770	 833835760	 162013.
16:22:50  249 250	 1492359770	 999901989	 166067.
16:22:51  250 251	 1492359771	 133215862	 133314.
16:22:51  251 252	 1492359771	 299528780	 166312.
16:22:51  252 253	 1492359771	 461711558	 162183.
16:22:51  253 254	 1492359771	 627925456	 166214.
16:22:51  254 255	 1492359771	 789952824	 162028.
16:22:51  255 256	 1492359771	 956079365	 166126.
16:22:52  256 257	 1492359772	 118160930	 162082.
16:22:52  257 258	 1492359772	 284388115	 166227.
16:22:52  258 259	 1492359772	 417712779	 133324.
16:22:52  259 260	 1492359772	 579738150	 162026.
16:22:52  260 261	 1492359772	 745823629	 166085.
16:22:52  261 262	 1492359772	 907842183	 162019.
16:22:53  262 263	 1492359773	 74276244	 166434.
16:22:53  263 264	 1492359773	 236387585	 162111.
16:22:53  264 265	 1492359773	 398615297	 162228.
16:22:53  265 266	 1492359773	 564897361	 166282.
16:22:53  266 267	 1492359773	 698201124	 133304.
16:22:53  267 268	 1492359773	 864218109	 166017.
16:22:54  268 269	 1492359774	 26165697	 161947.
16:22:54  269 270	 1492359774	 192106307	 165941.
16:22:54  270 271	 1492359774	 354179637	 162073.
16:22:54  271 272	 1492359774	 520244665	 166065.
16:22:54  272 273	 1492359774	 683114419	 162870.
16:22:54  273 274	 1492359774	 841366245	 158252.
16:22:55  274 275	 1492359775	 7443112	 166077.
16:22:55  275 276	 1492359775	 140690730	 133247.
16:22:55  276 277	 1492359775	 306735881	 166046.
16:22:55  277 278	 1492359775	 468929076	 162193.
16:22:55  278 279	 1492359775	 635524603	 166595.
16:22:55  279 280	 1492359775	 797731845	 162208.
16:22:55  280 281	 1492359775	 963692002	 165960.
16:22:56  281 282	 1492359776	 125848226	 162156.
16:22:56  282 283	 1492359776	 292241417	 166393.
16:22:56  283 284	 1492359776	 425639261	 133398.
16:22:56  284 285	 1492359776	 591668660	 166029.
16:22:56  285 286	 1492359776	 753787931	 162120.
16:22:56  286 287	 1492359776	 920059968	 166272.
16:22:57  287 288	 1492359777	 78723304	 158663.
16:22:57  288 289	 1492359777	 244830026	 166107.
16:22:57  289 290	 1492359777	 406931817	 162102.
16:22:57  290 291	 1492359777	 573061536	 166129.
16:22:57  291 292	 1492359777	 706304910	 133244.
16:22:57  292 293	 1492359777	 872453437	 166148.
16:22:58  293 294	 1492359778	 34450777	 161997.
16:22:58  294 295	 1492359778	 196771488	 162321.
16:22:58  295 296	 1492359778	 358617790	 161847.
16:22:58  296 297	 1492359778	 524704906	 166087.
16:22:58  297 298	 1492359778	 686721830	 162017.
16:22:58  298 299	 1492359778	 824155092	 137433.
16:22:58  299 300	 1492359778	 986262169	 162107.
16:22:59  300 301	 1492359779	 152561963	 166300.
16:22:59  301 302	 1492359779	 314986886	 162425.
16:22:59  302 303	 1492359779	 477069796	 162083.
16:22:59  303 304	 1492359779	 643294484	 166224.
16:22:59  304 305	 1492359779	 805405182	 162111.
16:22:59  305 306	 1492359779	 971546481	 166141.
16:23:00  306 307	 1492359780	 137570121	 166024.
16:23:00  307 308	 1492359780	 270778234	 133208.
16:23:00  308 309	 1492359780	 432754320	 161976.
16:23:00  309 310	 1492359780	 599095650	 166341.
16:23:00  310 311	 1492359780	 761113114	 162018.
16:23:00  311 312	 1492359780	 927190140	 166077.
16:23:01  312 313	 1492359781	 89147460	 161957.
16:23:01  313 314	 1492359781	 255248768	 166101.
16:23:01  314 315	 1492359781	 388460572	 133212.
16:23:01  315 316	 1492359781	 554608268	 166148.
16:23:01  316 317	 1492359781	 720778036	 166170.
16:23:01  317 318	 1492359781	 883913830	 163136.
16:23:02  318 319	 1492359782	 41981049	 158067.
16:23:02  319 320	 1492359782	 208054519	 166073.
16:23:02  320 321	 1492359782	 370098985	 162045.
16:23:02  321 322	 1492359782	 532609792	 162510.
16:23:02  322 323	 1492359782	 694539479	 161930.
16:23:02  323 324	 1492359782	 860752924	 166214.
16:23:02  324 325	 1492359782	 994062098	 133309.
16:23:03  325 326	 1492359783	 160221988	 166160.
16:23:03  326 327	 1492359783	 326480583	 166258.
16:23:03  327 328	 1492359783	 488649288	 162169.
16:23:03  328 329	 1492359783	 650807654	 162158.
16:23:03  329 330	 1492359783	 816913693	 166106.
16:23:03  330 331	 1492359783	 983032260	 166119.
16:23:04  331 332	 1492359784	 145159252	 162127.
16:23:04  332 333	 1492359784	 278890671	 133731.
16:23:04  333 334	 1492359784	 441627087	 162737.
16:23:04  334 335	 1492359784	 607765326	 166138.
16:23:04  335 336	 1492359784	 769951029	 162186.
16:23:04  336 337	 1492359784	 935975809	 166025.
16:23:05  337 338	 1492359785	 98059233	 162083.
16:23:05  338 339	 1492359785	 264343623	 166284.
16:23:05  339 340	 1492359785	 426272899	 161930.
16:23:05  340 341	 1492359785	 563707812	 137434.
16:23:05  341 342	 1492359785	 725779757	 162072.
16:23:05  342 343	 1492359785	 891886156	 166107.
16:23:06  343 344	 1492359786	 53949615	 162063.
16:23:06  344 345	 1492359786	 220008205	 166059.
16:23:06  345 346	 1492359786	 382193937	 162186.
16:23:06  346 347	 1492359786	 548519176	 166325.
16:23:06  347 348	 1492359786	 710930101	 162411.
16:23:06  348 349	 1492359786	 848360376	 137430.
16:23:07  349 350	 1492359787	 10533588	 162173.
16:23:07  350 351	 1492359787	 173047509	 162514.
16:23:07  351 352	 1492359787	 339174978	 166128.
16:23:07  352 353	 1492359787	 501297540	 162122.
16:23:07  353 354	 1492359787	 667379297	 166082.
16:23:07  354 355	 1492359787	 833553461	 166174.
16:23:07  355 356	 1492359787	 995581749	 162028.
16:23:08  356 357	 1492359788	 129032741	 133451.
16:23:08  357 358	 1492359788	 295129099	 166097.
16:23:08  358 359	 1492359788	 457046575	 161917.
16:23:08  359 360	 1492359788	 623185471	 166139.
16:23:08  360 361	 1492359788	 781840995	 158656.
16:23:08  361 362	 1492359788	 948308263	 166467.
16:23:09  362 363	 1492359789	 110440378	 162132.
16:23:09  363 364	 1492359789	 272799673	 162359.
16:23:09  364 365	 1492359789	 438934558	 166135.
16:23:09  365 366	 1492359789	 600988020	 162054.
16:23:09  366 367	 1492359789	 738375387	 137387.
16:23:09  367 368	 1492359789	 900326687	 161951.
16:23:10  368 369	 1492359790	 66471951	 166146.
16:23:10  369 370	 1492359790	 228767660	 162295.
16:23:10  370 371	 1492359790	 394935234	 166168.
16:23:10  371 372	 1492359790	 557157794	 162222.
16:23:10  372 373	 1492359790	 719480007	 162323.
16:23:10  373 374	 1492359790	 885714912	 166235.
16:23:11  374 375	 1492359791	 19104766	 133389.
16:23:11  375 376	 1492359791	 185234748	 166130.
16:23:11  376 377	 1492359791	 348055557	 162821.
16:23:11  377 378	 1492359791	 510159265	 162104.
16:23:11  378 379	 1492359791	 676220993	 166062.
16:23:11  379 380	 1492359791	 842562854	 166342.
16:23:12  380 381	 1492359792	 4625066	 162062.
16:23:12  381 382	 1492359792	 166701756	 162076.
16:23:12  382 383	 1492359792	 328699142	 161998.
16:23:12  383 384	 1492359792	 494703789	 166005.
16:23:12  384 385	 1492359792	 628209570	 133505.
16:23:12  385 386	 1492359792	 794254172	 166045.
16:23:12  386 387	 1492359792	 956321481	 162067.
16:23:13  387 388	 1492359793	 118500412	 162179.
16:23:13  388 389	 1492359793	 280857901	 162358.
16:23:13  389 390	 1492359793	 446834397	 165976.
16:23:13  390 391	 1492359793	 608903761	 162069.
16:23:13  391 392	 1492359793	 771536517	 162633.
16:23:13  392 393	 1492359793	 904738184	 133202.
16:23:14  393 394	 1492359794	 70849447	 166111.
16:23:14  394 395	 1492359794	 237092588	 166243.
16:23:14  395 396	 1492359794	 399180548	 162088.
16:23:14  396 397	 1492359794	 565622453	 166442.
16:23:14  397 398	 1492359794	 727679070	 162057.
16:23:14  398 399	 1492359794	 894025329	 166346.
16:23:15  399 400	 1492359795	 56249389	 162224.
16:23:15  400 401	 1492359795	 218765107	 162516.
16:23:15  401 402	 1492359795	 352396667	 133631.
16:23:15  402 403	 1492359795	 518589349	 166193.
16:23:15  403 404	 1492359795	 684628874	 166040.
16:23:15  404 405	 1492359795	 846615762	 161986.
16:23:16  405 406	 1492359796	 12709239	 166094.
16:23:16  406 407	 1492359796	 174695602	 161986.
16:23:16  407 408	 1492359796	 340718735	 166023.
16:23:16  408 409	 1492359796	 474029838	 133312.
16:23:16  409 410	 1492359796	 640159599	 166129.
16:23:16  410 411	 1492359796	 802195889	 162037.
16:23:16  411 412	 1492359796	 968253508	 166057.
16:23:17  412 413	 1492359797	 130667647	 162414.
16:23:17  413 414	 1492359797	 292968813	 162302.
16:23:17  414 415	 1492359797	 459137067	 166168.
16:23:17  415 416	 1492359797	 621538244	 162401.
16:23:17  416 417	 1492359797	 758999201	 137461.
16:23:17  417 418	 1492359797	 920932850	 161934.
16:23:18  418 419	 1492359798	 82982696	 162049.
16:23:18  419 420	 1492359798	 249181751	 166199.
16:23:18  420 421	 1492359798	 415369667	 166188.
16:23:18  421 422	 1492359798	 577403776	 162034.
16:23:18  422 423	 1492359798	 714697146	 137294.
16:23:18  423 424	 1492359798	 902079009	 187382.
16:23:19  424 425	 1492359799	 35584537	 133505.
16:23:19  425 426	 1492359799	 201844354	 166260.
16:23:19  426 427	 1492359799	 363985861	 162142.
16:23:19  427 428	 1492359799	 525965825	 161980.
16:23:19  428 429	 1492359799	 691995924	 166030.
16:23:19  429 430	 1492359799	 854065588	 162069.
16:23:20  430 431	 1492359800	 20127513	 166062.
16:23:20  431 432	 1492359800	 153388057	 133261.
16:23:20  432 433	 1492359800	 319607487	 166219.
16:23:20  433 434	 1492359800	 481660089	 162053.
16:23:20  434 435	 1492359800	 648514965	 166855.
16:23:20  435 436	 1492359800	 806533684	 158018.
16:23:20  436 437	 1492359800	 972729234	 166196.
16:23:21  437 438	 1492359801	 134580056	 161851.
16:23:21  438 439	 1492359801	 300781501	 166201.
16:23:21  439 440	 1492359801	 462649840	 161869.
16:23:21  440 441	 1492359801	 599954248	 137304.
16:23:21  441 442	 1492359801	 761796154	 161842.
16:23:21  442 443	 1492359801	 927891002	 166095.
16:23:22  443 444	 1492359802	 90038291	 162147.
16:23:22  444 445	 1492359802	 256020805	 165983.
16:23:22  445 446	 1492359802	 418007120	 161986.
16:23:22  446 447	 1492359802	 584102253	 166095.
16:23:22  447 448	 1492359802	 717456851	 133355.
16:23:22  448 449	 1492359802	 883452015	 165995.
16:23:23  449 450	 1492359803	 45570517	 162118.
16:23:23  450 451	 1492359803	 211672777	 166102.
16:23:23  451 452	 1492359803	 373698492	 162026.
16:23:23  452 453	 1492359803	 539815237	 166117.
16:23:23  453 454	 1492359803	 701712893	 161898.
16:23:23  454 455	 1492359803	 838983939	 137271.
16:23:24  455 456	 1492359804	 1241429	 162257.
16:23:24  456 457	 1492359804	 167396487	 166155.
16:23:24  457 458	 1492359804	 329505386	 162109.
16:23:24  458 459	 1492359804	 495916657	 166411.
16:23:24  459 460	 1492359804	 658152112	 162236.
16:23:24  460 461	 1492359804	 820185469	 162033.
16:23:24  461 462	 1492359804	 986185763	 166000.
16:23:25  462 463	 1492359805	 148327356	 162142.
16:23:25  463 464	 1492359805	 285891979	 137565.
16:23:25  464 465	 1492359805	 447881096	 161989.
16:23:25  465 466	 1492359805	 613823125	 165942.
16:23:25  466 467	 1492359805	 775865774	 162042.
16:23:25  467 468	 1492359805	 941941316	 166076.
16:23:26  468 469	 1492359806	 103987208	 162046.
16:23:26  469 470	 1492359806	 269958828	 165972.
16:23:26  470 471	 1492359806	 403345445	 133386.
16:23:26  471 472	 1492359806	 569531865	 166187.
16:23:26  472 473	 1492359806	 727971723	 158439.
16:23:26  473 474	 1492359806	 894147835	 166177.
16:23:27  474 475	 1492359807	 56043811	 161896.
16:23:27  475 476	 1492359807	 221932995	 165889.
16:23:27  476 477	 1492359807	 383857082	 161924.
16:23:27  477 478	 1492359807	 546257897	 162401.
16:23:27  478 479	 1492359807	 679480389	 133222.
16:23:27  479 480	 1492359807	 845387551	 165907.
16:23:28  480 481	 1492359808	 7258216	 161871.
16:23:28  481 482	 1492359808	 169276288	 162018.
16:23:28  482 483	 1492359808	 335328160	 166052.
16:23:28  483 484	 1492359808	 497287272	 161959.
16:23:28  484 485	 1492359808	 663239363	 165952.
16:23:28  485 486	 1492359808	 796310808	 133072.
16:23:28  486 487	 1492359808	 958228747	 161917.
16:23:29  487 488	 1492359809	 124130132	 165902.
16:23:29  488 489	 1492359809	 290331858	 166202.
16:23:29  489 490	 1492359809	 452290265	 161958.
16:23:29  490 491	 1492359809	 618416182	 166126.
16:23:29  491 492	 1492359809	 780358761	 161942.
16:23:29  492 493	 1492359809	 913648628	 133290.
16:23:30  493 494	 1492359810	 76036139	 162388.
16:23:30  494 495	 1492359810	 242151662	 166115.
16:23:30  495 496	 1492359810	 408156833	 166006.
16:23:30  496 497	 1492359810	 570129502	 161972.
16:23:30  497 498	 1492359810	 736063345	 165934.
16:23:30  498 499	 1492359810	 898006487	 161943.
16:23:31  499 500	 1492359811	 31170845	 133165.
16:23:31  500 501	 1492359811	 197076047	 165905.
16:23:31  501 502	 1492359811	 358991958	 161916.
16:23:31  502 503	 1492359811	 525072398	 166080.
16:23:31  503 504	 1492359811	 686907178	 161835.
16:23:31  504 505	 1492359811	 852963750	 166056.
16:23:32  505 506	 1492359812	 19004110	 166041.
16:23:32  506 507	 1492359812	 152309759	 133305.
16:23:32  507 508	 1492359812	 314249350	 161940.
16:23:32  508 509	 1492359812	 480217782	 165969.
16:23:32  509 510	 1492359812	 642271834	 162054.
16:23:32  510 511	 1492359812	 808320273	 166048.
16:23:32  511 512	 1492359812	 970250782	 161930.
16:23:33  512 513	 1492359813	 136274958	 166025.
16:23:33  513 514	 1492359813	 298396972	 162122.
16:23:33  514 515	 1492359813	 435739906	 137343.
16:23:33  515 516	 1492359813	 597660794	 161920.
16:23:33  516 517	 1492359813	 763628720	 165968.
16:23:33  517 518	 1492359813	 925599066	 161971.
16:23:34  518 519	 1492359814	 91647112	 166048.
16:23:34  519 520	 1492359814	 253353963	 161707.
16:23:34  520 521	 1492359814	 419509249	 166155.
16:23:34  521 522	 1492359814	 552696489	 133187.
16:23:34  522 523	 1492359814	 715179628	 162483.
16:23:34  523 524	 1492359814	 877242907	 162064.
16:23:35  524 525	 1492359815	 39184852	 161942.
16:23:35  525 526	 1492359815	 201232711	 162047.
16:23:35  526 527	 1492359815	 363560265	 162328.
16:23:35  527 528	 1492359815	 525551110	 161991.
16:23:35  528 529	 1492359815	 691745213	 166194.
16:23:35  529 530	 1492359815	 854415963	 162671.
16:23:36  530 531	 1492359816	 12594207	 158178.
16:23:36  531 532	 1492359816	 178400625	 165806.
16:23:36  532 533	 1492359816	 311608937	 133209.
16:23:36  533 534	 1492359816	 473550344	 161941.
16:23:36  534 535	 1492359816	 639593041	 166043.
16:23:36  535 536	 1492359816	 801523414	 161930.
16:23:36  536 537	 1492359816	 967476708	 165953.
16:23:37  537 538	 1492359817	 129305978	 161830.
16:23:37  538 539	 1492359817	 291374491	 162068.
16:23:37  539 540	 1492359817	 457620431	 166246.
16:23:37  540 541	 1492359817	 619774009	 162154.
16:23:37  541 542	 1492359817	 752989506	 133215.
16:23:37  542 543	 1492359817	 918892066	 165903.
16:23:38  543 544	 1492359818	 80666767	 161774.
16:23:38  544 545	 1492359818	 242822586	 162156.
16:23:38  545 546	 1492359818	 404809736	 161987.
16:23:38  546 547	 1492359818	 566694027	 161885.
16:23:38  547 548	 1492359818	 732602489	 165908.
16:23:38  548 549	 1492359818	 865776145	 133174.
16:23:39  549 550	 1492359819	 31764258	 165988.
16:23:39  550 551	 1492359819	 193761292	 161997.
16:23:39  551 552	 1492359819	 359748343	 165987.
16:23:39  552 553	 1492359819	 521665021	 161917.
16:23:39  553 554	 1492359819	 687667043	 166002.
16:23:39  554 555	 1492359819	 849313163	 161646.
16:23:39  555 556	 1492359819	 982601804	 133289.
16:23:40  556 557	 1492359820	 148647865	 166046.
16:23:40  557 558	 1492359820	 310571901	 161924.
16:23:40  558 559	 1492359820	 476746992	 166175.
16:23:40  559 560	 1492359820	 638627848	 161881.
16:23:40  560 561	 1492359820	 804711861	 166084.
16:23:40  561 562	 1492359820	 966548278	 161836.
16:23:41  562 563	 1492359821	 99755031	 133207.
16:23:41  563 564	 1492359821	 261978381	 162223.
16:23:41  564 565	 1492359821	 427967086	 165989.
16:23:41  565 566	 1492359821	 589984531	 162017.
16:23:41  566 567	 1492359821	 756126325	 166142.
16:23:41  567 568	 1492359821	 918079009	 161953.
16:23:42  568 569	 1492359822	 79869953	 161791.
16:23:42  569 570	 1492359822	 245828510	 165958.
16:23:42  570 571	 1492359822	 379047490	 133219.
16:23:42  571 572	 1492359822	 545017126	 165970.
16:23:42  572 573	 1492359822	 707157905	 162141.
16:23:42  573 574	 1492359822	 869325132	 162167.
16:23:43  574 575	 1492359823	 35241505	 165916.
16:23:43  575 576	 1492359823	 197205249	 161964.
16:23:43  576 577	 1492359823	 363112137	 165907.
16:23:43  577 578	 1492359823	 524987928	 161876.
16:23:43  578 579	 1492359823	 662187768	 137199.
16:23:43  579 580	 1492359823	 824070020	 161883.
16:23:43  580 581	 1492359823	 990086267	 166016.
16:23:44  581 582	 1492359824	 151988036	 161902.
16:23:44  582 583	 1492359824	 317940177	 165952.
16:23:44  583 584	 1492359824	 479824458	 161884.
16:23:44  584 585	 1492359824	 616977252	 137153.
16:23:44  585 586	 1492359824	 778911161	 161934.
16:23:44  586 587	 1492359824	 944989509	 166078.
16:23:45  587 588	 1492359825	 106895334	 161906.
16:23:45  588 589	 1492359825	 273081540	 166187.
16:23:45  589 590	 1492359825	 435047985	 161966.
16:23:45  590 591	 1492359825	 601132743	 166084.
16:23:45  591 592	 1492359825	 734349461	 133217.
16:23:45  592 593	 1492359825	 900355105	 166006.
16:23:46  593 594	 1492359826	 62280929	 161926.
16:23:46  594 595	 1492359826	 225159065	 162878.
16:23:46  595 596	 1492359826	 382988274	 157829.
16:23:46  596 597	 1492359826	 549053177	 166065.
16:23:46  597 598	 1492359826	 710987712	 161934.
16:23:46  598 599	 1492359826	 876807719	 165820.
16:23:47  599 600	 1492359827	 42677309	 165870.
16:23:47  600 601	 1492359827	 176247176	 133570.
16:23:47  601 602	 1492359827	 338204929	 161958.
16:23:47  602 603	 1492359827	 504073896	 165869.
16:23:47  603 604	 1492359827	 666307035	 162233.
16:23:47  604 605	 1492359827	 824188419	 157881.
16:23:47  605 606	 1492359827	 990222807	 166035.
16:23:48  606 607	 1492359828	 152235711	 162012.
16:23:48  607 608	 1492359828	 314520161	 162285.
16:23:48  608 609	 1492359828	 447715723	 133195.
16:23:48  609 610	 1492359828	 613827313	 166112.
16:23:48  610 611	 1492359828	 775745522	 161918.
16:23:48  611 612	 1492359828	 941761893	 166017.
16:23:49  612 613	 1492359829	 103642957	 161881.
16:23:49  613 614	 1492359829	 269618289	 165975.
16:23:49  614 615	 1492359829	 431511814	 161894.
16:23:49  615 616	 1492359829	 564806874	 133295.
16:23:49  616 617	 1492359829	 730890556	 166083.
16:23:49  617 618	 1492359829	 897052084	 166162.
16:23:50  618 619	 1492359830	 55283452	 158231.
16:23:50  619 620	 1492359830	 217401813	 162119.
16:23:50  620 621	 1492359830	 383310239	 165908.
16:23:50  621 622	 1492359830	 545380961	 162071.
16:23:50  622 623	 1492359830	 707320776	 161940.
16:23:50  623 624	 1492359830	 844607444	 137286.
16:23:51  624 625	 1492359831	 6520609	 161913.
16:23:51  625 626	 1492359831	 172454766	 165934.
16:23:51  626 627	 1492359831	 334564466	 162110.
16:23:51  627 628	 1492359831	 500689347	 166125.
16:23:51  628 629	 1492359831	 662845928	 162157.
16:23:51  629 630	 1492359831	 824742357	 161896.
16:23:51  630 631	 1492359831	 986848123	 162106.
16:23:52  631 632	 1492359832	 124135624	 137287.
16:23:52  632 633	 1492359832	 286077015	 161942.
16:23:52  633 634	 1492359832	 448103326	 162026.
16:23:52  634 635	 1492359832	 614116671	 166013.
16:23:52  635 636	 1492359832	 776831509	 162715.
16:23:52  636 637	 1492359832	 938815902	 161985.
16:23:53  637 638	 1492359833	 100774895	 161959.
16:23:53  638 639	 1492359833	 266827133	 166052.
16:23:53  639 640	 1492359833	 400070532	 133243.
16:23:53  640 641	 1492359833	 562008706	 161938.
16:23:53  641 642	 1492359833	 728116563	 166108.
16:23:53  642 643	 1492359833	 890093274	 161977.
16:23:54  643 644	 1492359834	 52100003	 162007.
16:23:54  644 645	 1492359834	 218026261	 165926.
16:23:54  645 646	 1492359834	 379954573	 161928.
16:23:54  646 647	 1492359834	 517208268	 137254.
16:23:54  647 648	 1492359834	 679108555	 161900.
16:23:54  648 649	 1492359834	 845101304	 165993.
16:23:55  649 650	 1492359835	 7066623	 161965.
16:23:55  650 651	 1492359835	 168989436	 161923.
16:23:55  651 652	 1492359835	 334969567	 165980.
16:23:55  652 653	 1492359835	 496859539	 161890.
16:23:55  653 654	 1492359835	 634059329	 137200.
16:23:55  654 655	 1492359835	 795793360	 161734.
16:23:55  655 656	 1492359835	 957819481	 162026.
16:23:56  656 657	 1492359836	 123759995	 165941.
16:23:56  657 658	 1492359836	 285562569	 161802.
16:23:56  658 659	 1492359836	 447722778	 162160.
16:23:56  659 660	 1492359836	 613673234	 165951.
16:23:56  660 661	 1492359836	 746842621	 133169.
16:23:56  661 662	 1492359836	 905333684	 158491.
16:23:57  662 663	 1492359837	 71243762	 165910.
16:23:57  663 664	 1492359837	 229954472	 158711.
16:23:57  664 665	 1492359837	 391735083	 161781.
16:23:57  665 666	 1492359837	 553520318	 161785.
16:23:57  666 667	 1492359837	 715674982	 162155.
16:23:57  667 668	 1492359837	 877514225	 161839.
16:23:58  668 669	 1492359838	 43635241	 166121.
16:23:58  669 670	 1492359838	 176943111	 133308.
16:23:58  670 671	 1492359838	 342946947	 166004.
16:23:58  671 672	 1492359838	 504854585	 161907.
16:23:58  672 673	 1492359838	 670652014	 165798.
16:23:58  673 674	 1492359838	 832515646	 161863.
16:23:58  674 675	 1492359838	 998537581	 166022.
16:23:59  675 676	 1492359839	 164471607	 165934.
16:23:59  676 677	 1492359839	 297704065	 133233.
16:23:59  677 678	 1492359839	 459582876	 161879.
16:23:59  678 679	 1492359839	 625622512	 166039.
16:23:59  679 680	 1492359839	 787446690	 161824.
16:23:59  680 681	 1492359839	 946404800	 158959.
16:24:00  681 682	 1492359840	 108303931	 161899.
16:24:00  682 683	 1492359840	 274470902	 166167.
16:24:00  683 684	 1492359840	 436372148	 161901.
16:24:00  684 685	 1492359840	 569407896	 133036.
16:24:00  685 686	 1492359840	 735411375	 166003.
16:24:00  686 687	 1492359840	 897299313	 161888.
16:24:01  687 688	 1492359841	 63252944	 165954.
16:24:01  688 689	 1492359841	 225246068	 161993.
16:24:01  689 690	 1492359841	 391419990	 166174.
16:24:01  690 691	 1492359841	 554086979	 162667.
16:24:01  691 692	 1492359841	 716041395	 161954.
16:24:01  692 693	 1492359841	 877968029	 161927.
16:24:02  693 694	 1492359842	 15340302	 137372.
16:24:02  694 695	 1492359842	 177239702	 161899.
16:24:02  695 696	 1492359842	 339341536	 162102.
16:24:02  696 697	 1492359842	 505196554	 165855.
16:24:02  697 698	 1492359842	 667125155	 161929.
16:24:02  698 699	 1492359842	 829016770	 161891.
16:24:02  699 700	 1492359842	 991165880	 162150.
16:24:03  700 701	 1492359843	 128491340	 137325.
16:24:03  701 702	 1492359843	 290190156	 161699.
16:24:03  702 703	 1492359843	 456217630	 166027.
16:24:03  703 704	 1492359843	 618140839	 161924.
16:24:03  704 705	 1492359843	 784286710	 166145.
16:24:03  705 706	 1492359843	 946412928	 162127.
16:24:04  706 707	 1492359844	 109194576	 162781.
16:24:04  707 708	 1492359844	 271235112	 162041.
16:24:04  708 709	 1492359844	 408713968	 137479.
16:24:04  709 710	 1492359844	 570741548	 162027.
16:24:04  710 711	 1492359844	 736739418	 165998.
16:24:04  711 712	 1492359844	 895087776	 158348.
16:24:05  712 713	 1492359845	 57461911	 162375.
16:24:05  713 714	 1492359845	 223577269	 166115.
16:24:05  714 715	 1492359845	 385594088	 162017.
16:24:05  715 716	 1492359845	 547840376	 162246.
16:24:05  716 717	 1492359845	 709787386	 161947.
16:24:05  717 718	 1492359845	 846958121	 137171.
16:24:06  718 719	 1492359846	 9092071	 162134.
16:24:06  719 720	 1492359846	 175184463	 166092.
16:24:06  720 721	 1492359846	 337264780	 162080.
16:24:06  721 722	 1492359846	 503460060	 166196.
16:24:06  722 723	 1492359846	 665489233	 162029.
16:24:06  723 724	 1492359846	 831680925	 166192.
16:24:06  724 725	 1492359846	 993676347	 161995.
16:24:07  725 726	 1492359847	 131095773	 137419.
16:24:07  726 727	 1492359847	 293307372	 162212.
16:24:07  727 728	 1492359847	 451830474	 158523.
16:24:07  728 729	 1492359847	 618016555	 166186.
16:24:07  729 730	 1492359847	 780076077	 162060.
16:24:07  730 731	 1492359847	 946290012	 166214.
16:24:08  731 732	 1492359848	 108306055	 162016.
16:24:08  732 733	 1492359848	 274420895	 166115.
16:24:08  733 734	 1492359848	 436383778	 161963.
16:24:08  734 735	 1492359848	 573808999	 137425.
16:24:08  735 736	 1492359848	 735719100	 161910.
16:24:08  736 737	 1492359848	 898121506	 162402.
16:24:09  737 738	 1492359849	 64182643	 166062.
16:24:09  738 739	 1492359849	 226103649	 161920.
16:24:09  739 740	 1492359849	 392389371	 166286.
16:24:09  740 741	 1492359849	 554365362	 161976.
16:24:09  741 742	 1492359849	 717347206	 162982.
16:24:09  742 743	 1492359849	 879249391	 161903.
16:24:10  743 744	 1492359850	 12507701	 133257.
16:24:10  744 745	 1492359850	 178544211	 166037.
16:24:10  745 746	 1492359850	 340539543	 161995.
16:24:10  746 747	 1492359850	 506819458	 166280.
16:24:10  747 748	 1492359850	 668848661	 162029.
16:24:10  748 749	 1492359850	 834918492	 166070.
16:24:10  749 750	 1492359851	 781975	 165864.
16:24:11  750 751	 1492359851	 133870643	 133088.
16:24:11  751 752	 1492359851	 299789303	 165919.
16:24:11  752 753	 1492359851	 461593513	 161804.
16:24:11  753 754	 1492359851	 627445189	 165852.
16:24:11  754 755	 1492359851	 789514773	 162069.
16:24:11  755 756	 1492359851	 955781356	 166267.
16:24:12  756 757	 1492359852	 117991090	 162210.
16:24:12  757 758	 1492359852	 255349262	 137358.
16:24:12  758 759	 1492359852	 417291269	 161942.
16:24:12  759 760	 1492359852	 583550959	 166260.
16:24:12  760 761	 1492359852	 745836813	 162285.
16:24:12  761 762	 1492359852	 907740471	 161904.
16:24:13  762 763	 1492359853	 73797200	 166057.
16:24:13  763 764	 1492359853	 235760428	 161963.
16:24:13  764 765	 1492359853	 373162482	 137402.
16:24:13  765 766	 1492359853	 535091109	 161929.
16:24:13  766 767	 1492359853	 701023519	 165932.
16:24:13  767 768	 1492359853	 867063079	 166040.
16:24:14  768 769	 1492359854	 28902620	 161840.
16:24:14  769 770	 1492359854	 190772871	 161870.
16:24:14  770 771	 1492359854	 356852509	 166079.
16:24:14  771 772	 1492359854	 490059582	 133207.
16:24:14  772 773	 1492359854	 655969791	 165910.
16:24:14  773 774	 1492359854	 817858871	 161890.
16:24:14  774 775	 1492359854	 983774030	 165915.
16:24:15  775 776	 1492359855	 145761368	 161987.
16:24:15  776 777	 1492359855	 311722403	 165961.
16:24:15  777 778	 1492359855	 477660818	 165939.
16:24:15  778 779	 1492359855	 610628684	 132967.
16:24:15  779 780	 1492359855	 772420722	 161792.
16:24:15  780 781	 1492359855	 938353699	 165933.
16:24:16  781 782	 1492359856	 100284505	 161931.
16:24:16  782 783	 1492359856	 266129450	 165845.
16:24:16  783 784	 1492359856	 428016657	 161887.
16:24:16  784 785	 1492359856	 594015128	 165999.
16:24:16  785 786	 1492359856	 727174546	 133159.
16:24:16  786 787	 1492359856	 893172073	 165998.
16:24:17  787 788	 1492359857	 55151067	 161979.
16:24:17  788 789	 1492359857	 221019176	 165868.
16:24:17  789 790	 1492359857	 382905016	 161886.
16:24:17  790 791	 1492359857	 548862120	 165957.
16:24:17  791 792	 1492359857	 711120840	 162259.
16:24:17  792 793	 1492359857	 844350861	 133230.
16:24:18  793 794	 1492359858	 6199366	 161848.
16:24:18  794 795	 1492359858	 172252592	 166053.
16:24:18  795 796	 1492359858	 334347351	 162095.
16:24:18  796 797	 1492359858	 500192378	 165845.
16:24:18  797 798	 1492359858	 662061682	 161869.
16:24:18  798 799	 1492359858	 824186174	 162125.
16:24:18  799 800	 1492359858	 961565058	 137379.
16:24:19  800 801	 1492359859	 123558457	 161993.
16:24:19  801 802	 1492359859	 289445744	 165887.
16:24:19  802 803	 1492359859	 451390526	 161945.
16:24:19  803 804	 1492359859	 617378564	 165988.
16:24:19  804 805	 1492359859	 779210314	 161832.
16:24:19  805 806	 1492359859	 944941230	 165731.
16:24:20  806 807	 1492359860	 78211449	 133270.
16:24:20  807 808	 1492359860	 236516063	 158305.
16:24:20  808 809	 1492359860	 399315088	 162799.
16:24:20  809 810	 1492359860	 561343644	 162028.
16:24:20  810 811	 1492359860	 723801876	 162459.
16:24:20  811 812	 1492359860	 885899657	 162097.
16:24:21  812 813	 1492359861	 66309288	 180410.
16:24:21  813 814	 1492359861	 203727196	 137418.
16:24:21  814 815	 1492359861	 365580951	 161854.
16:24:21  815 816	 1492359861	 531636935	 166056.
16:24:21  816 817	 1492359861	 693616719	 161979.
16:24:21  817 818	 1492359861	 859767258	 166151.
16:24:22  818 819	 1492359862	 21914360	 162147.
16:24:22  819 820	 1492359862	 183938772	 162024.
16:24:22  820 821	 1492359862	 321477488	 137539.
16:24:22  821 822	 1492359862	 483457893	 161981.
16:24:22  822 823	 1492359862	 641926366	 158468.
16:24:22  823 824	 1492359862	 808056064	 166130.
16:24:22  824 825	 1492359862	 969909409	 161853.
16:24:23  825 826	 1492359863	 135781660	 165872.
16:24:23  826 827	 1492359863	 301762791	 165981.
16:24:23  827 828	 1492359863	 463731901	 161970.
16:24:23  828 829	 1492359863	 597078274	 133346.
16:24:23  829 830	 1492359863	 763056128	 165978.
16:24:23  830 831	 1492359863	 925208872	 162153.
16:24:24  831 832	 1492359864	 91292857	 166084.
16:24:24  832 833	 1492359864	 253284595	 161991.
16:24:24  833 834	 1492359864	 419339446	 166055.
16:24:24  834 835	 1492359864	 581252306	 161913.
16:24:24  835 836	 1492359864	 747237936	 165986.
16:24:24  836 837	 1492359864	 880474853	 133237.
16:24:25  837 838	 1492359865	 42755874	 162281.
16:24:25  838 839	 1492359865	 204678250	 161922.
16:24:25  839 840	 1492359865	 370490685	 165812.
16:24:25  840 841	 1492359865	 532439841	 161950.
16:24:25  841 842	 1492359865	 698671212	 166231.
16:24:25  842 843	 1492359865	 860822414	 162151.
16:24:25  843 844	 1492359865	 998229160	 137407.
16:24:26  844 845	 1492359866	 160393297	 162164.
16:24:26  845 846	 1492359866	 326541239	 166148.
16:24:26  846 847	 1492359866	 488588937	 162048.
16:24:26  847 848	 1492359866	 655058050	 166469.
16:24:26  848 849	 1492359866	 817241975	 162184.
16:24:26  849 850	 1492359866	 979912523	 162670.
16:24:27  850 851	 1492359867	 142007673	 162095.
16:24:27  851 852	 1492359867	 308723429	 166716.
16:24:27  852 853	 1492359867	 466801571	 158078.
16:24:27  853 854	 1492359867	 629039442	 162238.
16:24:27  854 855	 1492359867	 766376104	 137337.
16:24:27  855 856	 1492359867	 928296449	 161920.
16:24:28  856 857	 1492359868	 94328296	 166032.
16:24:28  857 858	 1492359868	 256231676	 161903.
16:24:28  858 859	 1492359868	 422211063	 165980.
16:24:28  859 860	 1492359868	 584217760	 162006.
16:24:28  860 861	 1492359868	 750244204	 166027.
16:24:28  861 862	 1492359868	 883401392	 133157.
16:24:29  862 863	 1492359869	 49464651	 166063.
16:24:29  863 864	 1492359869	 211313293	 161849.
16:24:29  864 865	 1492359869	 377335668	 166022.
16:24:29  865 866	 1492359869	 539293093	 161958.
16:24:29  866 867	 1492359869	 705610758	 166317.
16:24:29  867 868	 1492359869	 864608190	 158998.
16:24:30  868 869	 1492359870	 22507105	 157899.
16:24:30  869 870	 1492359870	 159680023	 137173.
16:24:30  870 871	 1492359870	 321588358	 161908.
16:24:30  871 872	 1492359870	 483382426	 161794.
16:24:30  872 873	 1492359870	 649486151	 166104.
16:24:30  873 874	 1492359870	 815653800	 166168.
16:24:30  874 875	 1492359870	 977615215	 161961.
16:24:31  875 876	 1492359871	 143624918	 166010.
16:24:31  876 877	 1492359871	 276917115	 133292.
16:24:31  877 878	 1492359871	 443004545	 166087.
16:24:31  878 879	 1492359871	 604976059	 161972.
16:24:31  879 880	 1492359871	 767052027	 162076.
16:24:31  880 881	 1492359871	 933209063	 166157.
16:24:32  881 882	 1492359872	 95374205	 162165.
16:24:32  882 883	 1492359872	 257338827	 161965.
16:24:32  883 884	 1492359872	 423338328	 165999.
16:24:32  884 885	 1492359872	 556555712	 133217.
16:24:32  885 886	 1492359872	 722482661	 165927.
16:24:32  886 887	 1492359872	 888406200	 165924.
16:24:33  887 888	 1492359873	 50256066	 161850.
16:24:33  888 889	 1492359873	 212017916	 161762.
16:24:33  889 890	 1492359873	 378027567	 166009.
16:24:33  890 891	 1492359873	 511176563	 133149.
16:24:33  891 892	 1492359873	 676975296	 165799.
16:24:33  892 893	 1492359873	 838821143	 161846.
16:24:34  893 894	 1492359874	 4757936	 165937.
16:24:34  894 895	 1492359874	 166523007	 161765.
16:24:34  895 896	 1492359874	 332510596	 165987.
16:24:34  896 897	 1492359874	 494475478	 161965.
16:24:34  897 898	 1492359874	 627685413	 133210.
16:24:34  898 899	 1492359874	 793566977	 165882.
16:24:34  899 900	 1492359874	 955257560	 161690.
16:24:35  900 901	 1492359875	 117103380	 161846.
16:24:35  901 902	 1492359875	 283036846	 165934.
16:24:35  902 903	 1492359875	 444886152	 161849.
16:24:35  903 904	 1492359875	 610865807	 165980.
16:24:35  904 905	 1492359875	 744041257	 133175.
16:24:35  905 906	 1492359875	 906033187	 161992.
16:24:36  906 907	 1492359876	 72069464	 166036.
16:24:36  907 908	 1492359876	 237978512	 165909.
16:24:36  908 909	 1492359876	 400049885	 162072.
16:24:36  909 910	 1492359876	 566038742	 165988.
16:24:36  910 911	 1492359876	 727896172	 161858.
16:24:36  911 912	 1492359876	 865066488	 137170.
16:24:37  912 913	 1492359877	 26969135	 161903.
16:24:37  913 914	 1492359877	 192908215	 165939.
16:24:37  914 915	 1492359877	 354975836	 162068.
16:24:37  915 916	 1492359877	 521230912	 166255.
16:24:37  916 917	 1492359877	 683080307	 161849.
16:24:37  917 918	 1492359877	 848984017	 165904.
16:24:38  918 919	 1492359878	 8136113	 159152.
16:24:38  919 920	 1492359878	 165953414	 157817.
16:24:38  920 921	 1492359878	 331968718	 166016.
16:24:38  921 922	 1492359878	 461434524	 129465.
16:24:38  922 923	 1492359878	 627471095	 166037.
16:24:38  923 924	 1492359878	 789343978	 161873.
16:24:38  924 925	 1492359878	 955149520	 165805.
16:24:39  925 926	 1492359879	 117137630	 161988.
16:24:39  926 927	 1492359879	 282972501	 165835.
16:24:39  927 928	 1492359879	 444798602	 161826.
16:24:39  928 929	 1492359879	 607205959	 162408.
16:24:39  929 930	 1492359879	 740175096	 132969.
16:24:39  930 931	 1492359879	 902221499	 162046.
16:24:40  931 932	 1492359880	 68137679	 165916.
16:24:40  932 933	 1492359880	 229993485	 161856.
16:24:40  933 934	 1492359880	 395838859	 165846.
16:24:40  934 935	 1492359880	 557731249	 161892.
16:24:40  935 936	 1492359880	 723632679	 165901.
16:24:40  936 937	 1492359880	 856793583	 133161.
16:24:41  937 938	 1492359881	 22680844	 165888.
16:24:41  938 939	 1492359881	 184641799	 161961.
16:24:41  939 940	 1492359881	 350685194	 166043.
16:24:41  940 941	 1492359881	 512543985	 161859.
16:24:41  941 942	 1492359881	 678409952	 165866.
16:24:41  942 943	 1492359881	 811483521	 133073.
16:24:41  943 944	 1492359881	 977359897	 165877.
16:24:42  944 945	 1492359882	 143244758	 165884.
16:24:42  945 946	 1492359882	 305146561	 161902.
16:24:42  946 947	 1492359882	 471075120	 165929.
16:24:42  947 948	 1492359882	 633126792	 162051.
16:24:42  948 949	 1492359882	 799158475	 166032.
16:24:42  949 950	 1492359882	 932322407	 133164.
16:24:43  950 951	 1492359883	 94543036	 162221.
16:24:43  951 952	 1492359883	 260470783	 165927.
16:24:43  952 953	 1492359883	 422440716	 161970.
16:24:43  953 954	 1492359883	 584530679	 162090.
16:24:43  954 955	 1492359883	 750658290	 166128.
16:24:43  955 956	 1492359883	 912495233	 161837.
16:24:44  956 957	 1492359884	 49709216	 137214.
16:24:44  957 958	 1492359884	 236988053	 187279.
16:24:44  958 959	 1492359884	 370182351	 133194.
16:24:44  959 960	 1492359884	 536059017	 165877.
16:24:44  960 961	 1492359884	 697794235	 161735.
16:24:44  961 962	 1492359884	 863890943	 166097.
16:24:45  962 963	 1492359885	 25969916	 162079.
16:24:45  963 964	 1492359885	 191947760	 165977.
16:24:45  964 965	 1492359885	 353785871	 161839.
16:24:45  965 966	 1492359885	 491454723	 137668.
16:24:45  966 967	 1492359885	 653370801	 161917.
16:24:45  967 968	 1492359885	 815252102	 161881.
16:24:45  968 969	 1492359885	 982001445	 166749.
16:24:46  969 970	 1492359886	 139869716	 157868.
16:24:46  970 971	 1492359886	 301741791	 161872.
16:24:46  971 972	 1492359886	 467863431	 166122.
16:24:46  972 973	 1492359886	 629767757	 161905.
16:24:46  973 974	 1492359886	 767102470	 137334.
16:24:46  974 975	 1492359886	 928920247	 161818.
16:24:47  975 976	 1492359887	 95013630	 166093.
16:24:47  976 977	 1492359887	 256759699	 161746.
16:24:47  977 978	 1492359887	 415244199	 158485.
16:24:47  978 979	 1492359887	 581323412	 166079.
16:24:47  979 980	 1492359887	 743219351	 161896.
16:24:47  980 981	 1492359887	 909071189	 165852.
16:24:48  981 982	 1492359888	 42303022	 133232.
16:24:48  982 983	 1492359888	 204240369	 161937.
16:24:48  983 984	 1492359888	 370275947	 166036.
16:24:48  984 985	 1492359888	 532253219	 161977.
16:24:48  985 986	 1492359888	 698199653	 165946.
16:24:48  986 987	 1492359888	 860135278	 161936.
16:24:49  987 988	 1492359889	 22696058	 162561.
16:24:49  988 989	 1492359889	 184471456	 161775.
16:24:49  989 990	 1492359889	 321905926	 137435.
16:24:49  990 991	 1492359889	 483840555	 161934.
16:24:49  991 992	 1492359889	 649727920	 165888.
16:24:49  992 993	 1492359889	 811618773	 161890.
16:24:49  993 994	 1492359889	 977562727	 165944.
16:24:50  994 995	 1492359890	 139316169	 161754.
16:24:50  995 996	 1492359890	 305222137	 165906.
16:24:50  996 997	 1492359890	 438433789	 133211.
16:24:50  997 998	 1492359890	 604308133	 165875.
16:24:50  998 999	 1492359890	 766203981	 161896.
16:24:50  999 1000	 1492359890	 932187661	 165983.
16:24:51 1000 1001	 1492359891	 94047160	 161860.
16:24:51 1001 1002	 1492359891	 256039122	 161992.
16:24:51 1002 1003	 1492359891	 421886655	 165847.
16:24:51 1003 1004	 1492359891	 555138789	 133252.
16:24:51 1004 1005	 1492359891	 721091680	 165953.
16:24:51 1005 1006	 1492359891	 883134229	 162043.
16:24:52 1006 1007	 1492359892	 45058002	 161924.
16:24:52 1007 1008	 1492359892	 210933757	 165875.
16:24:52 1008 1009	 1492359892	 372740773	 161807.
16:24:52 1009 1010	 1492359892	 538668111	 165928.
16:24:52 1010 1011	 1492359892	 671890034	 133222.
16:24:52 1011 1012	 1492359892	 837966267	 166076.
16:24:52 1012 1013	 1492359892	 999899443	 161933.
16:24:53 1013 1014	 1492359893	 161924433	 162025.
16:24:53 1014 1015	 1492359893	 327696188	 165772.
16:24:53 1015 1016	 1492359893	 489565802	 161870.
16:24:53 1016 1017	 1492359893	 655533902	 165968.
16:24:53 1017 1018	 1492359893	 788714172	 133180.
16:24:53 1018 1019	 1492359893	 975645302	 186931.
16:24:54 1019 1020	 1492359894	 112925452	 137280.
16:24:54 1020 1021	 1492359894	 274823698	 161898.
16:24:54 1021 1022	 1492359894	 440976235	 166153.
16:24:54 1022 1023	 1492359894	 606889090	 165913.
16:24:54 1023 1024	 1492359894	 768734896	 161846.
16:24:54 1024 1025	 1492359894	 930608056	 161873.
16:24:55 1025 1026	 1492359895	 92921099	 162313.
16:24:55 1026 1027	 1492359895	 254844242	 161923.
16:24:55 1027 1028	 1492359895	 392069609	 137225.
16:24:55 1028 1029	 1492359895	 553889684	 161820.
16:24:55 1029 1030	 1492359895	 719738066	 165849.
16:24:55 1030 1031	 1492359895	 881633080	 161895.
16:24:56 1031 1032	 1492359896	 43907526	 162274.
16:24:56 1032 1033	 1492359896	 209864206	 165957.
16:24:56 1033 1034	 1492359896	 371779395	 161915.
16:24:56 1034 1035	 1492359896	 508976407	 137197.
16:24:56 1035 1036	 1492359896	 670919946	 161944.
16:24:56 1036 1037	 1492359896	 836944881	 166025.
16:24:56 1037 1038	 1492359896	 998750919	 161806.
16:24:57 1038 1039	 1492359897	 164789441	 166038.
16:24:57 1039 1040	 1492359897	 326674112	 161885.
16:24:57 1040 1041	 1492359897	 488796966	 162123.
16:24:57 1041 1042	 1492359897	 626045161	 137248.
16:24:57 1042 1043	 1492359897	 787946071	 161901.
16:24:57 1043 1044	 1492359897	 954010832	 166065.
16:24:58 1044 1045	 1492359898	 115812201	 161801.
16:24:58 1045 1046	 1492359898	 281718481	 165906.
16:24:58 1046 1047	 1492359898	 443498480	 161780.
16:24:58 1047 1048	 1492359898	 605885262	 162387.
16:24:58 1048 1049	 1492359898	 739059768	 133174.
16:24:58 1049 1050	 1492359898	 905054192	 165995.
16:24:59 1050 1051	 1492359899	 66865017	 161811.
16:24:59 1051 1052	 1492359899	 232764537	 165899.
16:24:59 1052 1053	 1492359899	 394709438	 161945.
16:24:59 1053 1054	 1492359899	 560661936	 165953.
16:24:59 1054 1055	 1492359899	 722526615	 161864.
16:24:59 1055 1056	 1492359899	 884375913	 161850.
16:25:00 1056 1057	 1492359900	 21695354	 137319.
16:25:00 1057 1058	 1492359900	 183548225	 161853.
16:25:00 1058 1059	 1492359900	 349490693	 165942.
16:25:00 1059 1060	 1492359900	 511355414	 161865.
16:25:00 1060 1061	 1492359900	 673251141	 161896.
16:25:00 1061 1062	 1492359900	 839064996	 165814.
16:25:00 1062 1063	 1492359900	 972186520	 133121.
16:25:01 1063 1064	 1492359901	 138180720	 165994.
16:25:01 1064 1065	 1492359901	 300412973	 162233.
16:25:01 1065 1066	 1492359901	 462369091	 161956.
16:25:01 1066 1067	 1492359901	 628523171	 166154.
16:25:01 1067 1068	 1492359901	 790381800	 161858.
16:25:01 1068 1069	 1492359901	 956403599	 166022.
16:25:02 1069 1070	 1492359902	 89744779	 133341.
16:25:02 1070 1071	 1492359902	 255771873	 166028.
16:25:02 1071 1072	 1492359902	 417706871	 161935.
16:25:02 1072 1073	 1492359902	 583662870	 165956.
16:25:02 1073 1074	 1492359902	 745656758	 161993.
16:25:02 1074 1075	 1492359902	 907581551	 161925.
16:25:03 1075 1076	 1492359903	 44829764	 137248.
16:25:03 1076 1077	 1492359903	 206832023	 162003.
16:25:03 1077 1078	 1492359903	 372769375	 165937.
16:25:03 1078 1079	 1492359903	 534865103	 162096.
16:25:03 1079 1080	 1492359903	 701062870	 166198.
16:25:03 1080 1081	 1492359903	 863102145	 162039.
16:25:04 1081 1082	 1492359904	 29245608	 166143.
16:25:04 1082 1083	 1492359904	 191512761	 162267.
16:25:04 1083 1084	 1492359904	 354183041	 162671.
16:25:04 1084 1085	 1492359904	 487814988	 133632.
16:25:04 1085 1086	 1492359904	 654042366	 166227.
16:25:04 1086 1087	 1492359904	 816029637	 161988.
16:25:04 1087 1088	 1492359904	 981996506	 165966.
16:25:05 1088 1089	 1492359905	 148108381	 166112.
16:25:05 1089 1090	 1492359905	 310190553	 162082.
16:25:05 1090 1091	 1492359905	 447456313	 137266.
16:25:05 1091 1092	 1492359905	 609722693	 162266.
16:25:05 1092 1093	 1492359905	 771727173	 162005.
16:25:05 1093 1094	 1492359905	 937767757	 166040.
16:25:06 1094 1095	 1492359906	 103824812	 166058.
16:25:06 1095 1096	 1492359906	 265960962	 162136.
16:25:06 1096 1097	 1492359906	 432073539	 166112.
16:25:06 1097 1098	 1492359906	 594170307	 162097.
16:25:06 1098 1099	 1492359906	 757036069	 162866.
16:25:06 1099 1100	 1492359906	 890399837	 133364.
16:25:07 1100 1101	 1492359907	 56544870	 166145.
16:25:07 1101 1102	 1492359907	 218622190	 162077.
16:25:07 1102 1103	 1492359907	 380840928	 162219.
16:25:07 1103 1104	 1492359907	 547022439	 166181.
16:25:07 1104 1105	 1492359907	 709219633	 162197.
16:25:07 1105 1106	 1492359907	 871724414	 162505.
16:25:08 1106 1107	 1492359908	 33656652	 161932.
16:25:08 1107 1108	 1492359908	 199728136	 166072.
16:25:08 1108 1109	 1492359908	 333042843	 133315.
16:25:08 1109 1110	 1492359908	 499073587	 166030.
16:25:08 1110 1111	 1492359908	 661093798	 162020.
16:25:08 1111 1112	 1492359908	 823248460	 162155.
16:25:08 1112 1113	 1492359908	 989263853	 166016.
16:25:09 1113 1114	 1492359909	 151433960	 162170.
16:25:09 1114 1115	 1492359909	 313370548	 161936.
16:25:09 1115 1116	 1492359909	 479230408	 165860.
16:25:09 1116 1117	 1492359909	 612447347	 133217.
16:25:09 1117 1118	 1492359909	 774468340	 162021.
16:25:09 1118 1119	 1492359909	 940458580	 165990.
16:25:10 1119 1120	 1492359910	 102460785	 162002.
16:25:10 1120 1121	 1492359910	 268521898	 166062.
16:25:10 1121 1122	 1492359910	 430467652	 161945.
16:25:10 1122 1123	 1492359910	 592692281	 162225.
16:25:10 1123 1124	 1492359910	 758965884	 166274.
16:25:10 1124 1125	 1492359910	 892278620	 133312.
16:25:11 1125 1126	 1492359911	 54831355	 162553.
16:25:11 1126 1127	 1492359911	 216874437	 162043.
16:25:11 1127 1128	 1492359911	 383015774	 166142.
16:25:11 1128 1129	 1492359911	 544993488	 161977.
16:25:11 1129 1130	 1492359911	 711214302	 166221.
16:25:11 1130 1131	 1492359911	 873396786	 162182.
16:25:12 1131 1132	 1492359912	 39525846	 166130.
16:25:12 1132 1133	 1492359912	 172790215	 133264.
16:25:12 1133 1134	 1492359912	 339022355	 166232.
16:25:12 1134 1135	 1492359912	 501024420	 162002.
16:25:12 1135 1136	 1492359912	 667141639	 166117.
16:25:12 1136 1137	 1492359912	 829039841	 161899.
16:25:12 1137 1138	 1492359912	 995100644	 166060.
16:25:13 1138 1139	 1492359913	 157242750	 162308.
16:25:13 1139 1140	 1492359913	 290935807	 133528.
16:25:13 1140 1141	 1492359913	 452941806	 162006.
16:25:13 1141 1142	 1492359913	 619025423	 166083.
16:25:13 1142 1143	 1492359913	 781168876	 162144.
16:25:13 1143 1144	 1492359913	 943090627	 161921.
16:25:14 1144 1145	 1492359914	 109070570	 165980.
16:25:14 1145 1146	 1492359914	 275382556	 166312.
16:25:14 1146 1147	 1492359914	 437421340	 162039.
16:25:14 1147 1148	 1492359914	 570808486	 133387.
16:25:14 1148 1149	 1492359914	 736996959	 166189.
16:25:14 1149 1150	 1492359914	 899009982	 162013.
16:25:15 1150 1151	 1492359915	 65300445	 166290.
16:25:15 1151 1152	 1492359915	 227395242	 162095.
16:25:15 1152 1153	 1492359915	 389686595	 162291.
16:25:15 1153 1154	 1492359915	 555604199	 165918.
16:25:15 1154 1155	 1492359915	 689047928	 133444.
16:25:15 1155 1156	 1492359915	 855324157	 166276.
16:25:16 1156 1157	 1492359916	 17568904	 162245.
16:25:16 1157 1158	 1492359916	 183566422	 165997.
16:25:16 1158 1159	 1492359916	 345516148	 161950.
16:25:16 1159 1160	 1492359916	 511601066	 166085.
16:25:16 1160 1161	 1492359916	 673487255	 161886.
16:25:16 1161 1162	 1492359916	 810798721	 137311.
16:25:16 1162 1163	 1492359916	 976880869	 166083.
16:25:17 1163 1164	 1492359917	 138937526	 162056.
16:25:17 1164 1165	 1492359917	 305032912	 166096.
16:25:17 1165 1166	 1492359917	 467027795	 161994.
16:25:17 1166 1167	 1492359917	 632993457	 165966.
16:25:17 1167 1168	 1492359917	 794908151	 161915.
16:25:17 1168 1169	 1492359917	 932098328	 137190.
16:25:18 1169 1170	 1492359918	 94077279	 161979.
16:25:18 1170 1171	 1492359918	 256531542	 162454.
16:25:18 1171 1172	 1492359918	 418627292	 162096.
16:25:18 1172 1173	 1492359918	 584808342	 166181.
16:25:18 1173 1174	 1492359918	 746756166	 161948.
16:25:18 1174 1175	 1492359918	 912717009	 165961.
16:25:19 1175 1176	 1492359919	 74621167	 161904.
16:25:19 1176 1177	 1492359919	 211779901	 137159.
16:25:19 1177 1178	 1492359919	 373563567	 161783.
16:25:19 1178 1179	 1492359919	 539601472	 166038.
16:25:19 1179 1180	 1492359919	 701587595	 161986.
16:25:19 1180 1181	 1492359919	 867646899	 166060.
16:25:20 1181 1182	 1492359920	 33697215	 166050.
16:25:20 1182 1183	 1492359920	 166999797	 133303.
16:25:20 1183 1184	 1492359920	 332986116	 165986.
16:25:20 1184 1185	 1492359920	 495061086	 162075.
16:25:20 1185 1186	 1492359920	 657246214	 162185.
16:25:20 1186 1187	 1492359920	 823223899	 165978.
16:25:20 1187 1188	 1492359920	 985186002	 161962.
16:25:21 1188 1189	 1492359921	 151110436	 165924.
16:25:21 1189 1190	 1492359921	 284349865	 133240.
16:25:21 1190 1191	 1492359921	 450274165	 165924.
16:25:21 1191 1192	 1492359921	 616100549	 165826.
16:25:21 1192 1193	 1492359921	 777947641	 161847.
16:25:21 1193 1194	 1492359921	 944003480	 166056.
16:25:22 1194 1195	 1492359922	 105891113	 161888.
16:25:22 1195 1196	 1492359922	 243280120	 137389.
16:25:22 1196 1197	 1492359922	 405298773	 162018.
16:25:22 1197 1198	 1492359922	 571481260	 166183.
16:25:22 1198 1199	 1492359922	 734045681	 162564.
16:25:22 1199 1200	 1492359922	 891890213	 157845.
16:25:23 1200 1201	 1492359923	 57864593	 165974.
16:25:23 1201 1202	 1492359923	 219923396	 162059.
16:25:23 1202 1203	 1492359923	 382085467	 162162.
16:25:23 1203 1204	 1492359923	 548198542	 166113.
16:25:23 1204 1205	 1492359923	 710151627	 161953.
16:25:23 1205 1206	 1492359923	 847510017	 137359.
16:25:24 1206 1207	 1492359924	 9385941	 161876.
16:25:24 1207 1208	 1492359924	 175382550	 165996.
16:25:24 1208 1209	 1492359924	 337144172	 161762.
16:25:24 1209 1210	 1492359924	 498924530	 161780.
16:25:24 1210 1211	 1492359924	 661515855	 162592.
16:25:24 1211 1212	 1492359924	 823534649	 162018.
16:25:24 1212 1213	 1492359924	 956625669	 133091.
16:25:25 1213 1214	 1492359925	 122669860	 166045.
16:25:25 1214 1215	 1492359925	 284534893	 161865.
16:25:25 1215 1216	 1492359925	 450705865	 166171.
16:25:25 1216 1217	 1492359925	 612705667	 161999.
16:25:25 1217 1218	 1492359925	 778836185	 166131.
16:25:25 1218 1219	 1492359925	 940930780	 162095.
16:25:26 1219 1220	 1492359926	 107037962	 166107.
16:25:26 1220 1221	 1492359926	 240181180	 133143.
16:25:26 1221 1222	 1492359926	 406226348	 166045.
16:25:26 1222 1223	 1492359926	 564821899	 158596.
16:25:26 1223 1224	 1492359926	 730984011	 166162.
16:25:26 1224 1225	 1492359926	 897124334	 166140.
16:25:27 1225 1226	 1492359927	 59068823	 161945.
16:25:27 1226 1227	 1492359927	 221102441	 162033.
16:25:27 1227 1228	 1492359927	 387009132	 165907.
16:25:27 1228 1229	 1492359927	 549616172	 162607.
16:25:27 1229 1230	 1492359927	 704333800	 154718.
16:25:27 1230 1231	 1492359927	 866470544	 162136.
16:25:28 1231 1232	 1492359928	 32504501	 166034.
16:25:28 1232 1233	 1492359928	 165624052	 133120.
16:25:28 1233 1234	 1492359928	 327352979	 161729.
16:25:28 1234 1235	 1492359928	 493274933	 165922.
16:25:28 1235 1236	 1492359928	 659273115	 165998.
16:25:28 1236 1237	 1492359928	 821454783	 162181.
16:25:28 1237 1238	 1492359928	 983408067	 161954.
16:25:29 1238 1239	 1492359929	 116659298	 133251.
16:25:29 1239 1240	 1492359929	 282682771	 166023.
16:25:29 1240 1241	 1492359929	 444634378	 161952.
16:25:29 1241 1242	 1492359929	 610672753	 166038.
16:25:29 1242 1243	 1492359929	 772641633	 161969.
16:25:29 1243 1244	 1492359929	 938726836	 166086.
16:25:30 1244 1245	 1492359930	 100706959	 161980.
16:25:30 1245 1246	 1492359930	 237931632	 137224.
16:25:30 1246 1247	 1492359930	 400011951	 162081.
16:25:30 1247 1248	 1492359930	 566328951	 166317.
16:25:30 1248 1249	 1492359930	 724899137	 158570.
16:25:30 1249 1250	 1492359930	 890798575	 165899.
16:25:31 1250 1251	 1492359931	 52657247	 161859.
16:25:31 1251 1252	 1492359931	 218585772	 165928.
16:25:31 1252 1253	 1492359931	 380463825	 161879.
16:25:31 1253 1254	 1492359931	 517672453	 137208.
16:25:31 1254 1255	 1492359931	 679900851	 162229.
16:25:31 1255 1256	 1492359931	 842023085	 162122.
16:25:32 1256 1257	 1492359932	 8002100	 165979.
16:25:32 1257 1258	 1492359932	 169858647	 161856.
16:25:32 1258 1259	 1492359932	 332006990	 162149.
16:25:32 1259 1260	 1492359932	 494087508	 162080.
16:25:32 1260 1261	 1492359932	 661026071	 166939.
16:25:32 1261 1262	 1492359932	 819065448	 158039.
16:25:32 1262 1263	 1492359932	 980920192	 161855.
16:25:33 1263 1264	 1492359933	 118188088	 137268.
16:25:33 1264 1265	 1492359933	 280055404	 161867.
16:25:33 1265 1266	 1492359933	 442044969	 161990.
16:25:33 1266 1267	 1492359933	 608133257	 166088.
16:25:33 1267 1268	 1492359933	 773984019	 165851.
16:25:33 1268 1269	 1492359933	 935930407	 161946.
16:25:34 1269 1270	 1492359934	 97971043	 162041.
16:25:34 1270 1271	 1492359934	 235215169	 137244.
16:25:34 1271 1272	 1492359934	 401161630	 165946.
16:25:34 1272 1273	 1492359934	 563014505	 161853.
16:25:34 1273 1274	 1492359934	 728979370	 165965.
16:25:34 1274 1275	 1492359934	 891045447	 162066.
16:25:35 1275 1276	 1492359935	 49639567	 158594.
16:25:35 1276 1277	 1492359935	 215651725	 166012.
16:25:35 1277 1278	 1492359935	 377469534	 161818.
16:25:35 1278 1279	 1492359935	 510896898	 133428.
16:25:35 1279 1280	 1492359935	 673398308	 162501.
16:25:35 1280 1281	 1492359935	 835288949	 161891.
16:25:35 1281 1282	 1492359935	 997055133	 161766.
16:25:36 1282 1283	 1492359936	 162970238	 165915.
16:25:36 1283 1284	 1492359936	 324820169	 161850.
16:25:36 1284 1285	 1492359936	 490835443	 166015.
16:25:36 1285 1286	 1492359936	 652922108	 162087.
16:25:36 1286 1287	 1492359936	 790277316	 137355.
16:25:36 1287 1288	 1492359936	 952140921	 161864.
16:25:37 1288 1289	 1492359937	 118276959	 166136.
16:25:37 1289 1290	 1492359937	 280177848	 161901.
16:25:37 1290 1291	 1492359937	 446297018	 166119.
16:25:37 1291 1292	 1492359937	 608123372	 161826.
16:25:37 1292 1293	 1492359937	 770292373	 162169.
16:25:37 1293 1294	 1492359937	 928366426	 158074.
16:25:38 1294 1295	 1492359938	 94320400	 165954.
16:25:38 1295 1296	 1492359938	 227446890	 133127.
16:25:38 1296 1297	 1492359938	 393452879	 166006.
16:25:38 1297 1298	 1492359938	 559539818	 166087.
16:25:38 1298 1299	 1492359938	 721348453	 161808.
16:25:38 1299 1300	 1492359938	 887269264	 165921.
16:25:39 1300 1301	 1492359939	 49160430	 161891.
16:25:39 1301 1302	 1492359939	 186448575	 137288.
16:25:39 1302 1303	 1492359939	 348299222	 161851.
16:25:39 1303 1304	 1492359939	 510308872	 162010.
16:25:39 1304 1305	 1492359939	 676122944	 165814.
16:25:39 1305 1306	 1492359939	 841994637	 165871.
16:25:39 1306 1307	 1492359940	 3841815	 161848.
16:25:40 1307 1308	 1492359940	 169831870	 165990.
16:25:40 1308 1309	 1492359940	 328159168	 158327.
16:25:40 1309 1310	 1492359940	 461360346	 133201.
16:25:40 1310 1311	 1492359940	 627378287	 166018.
16:25:40 1311 1312	 1492359940	 789296424	 161918.
16:25:40 1312 1313	 1492359940	 955393392	 166097.
16:25:41 1313 1314	 1492359941	 117360982	 161968.
16:25:41 1314 1315	 1492359941	 283354185	 165993.
16:25:41 1315 1316	 1492359941	 445305565	 161951.
16:25:41 1316 1317	 1492359941	 578654983	 133350.
16:25:41 1317 1318	 1492359941	 740948885	 162294.
16:25:41 1318 1319	 1492359941	 906902133	 165953.
16:25:42 1319 1320	 1492359942	 68822485	 161920.
16:25:42 1320 1321	 1492359942	 230776103	 161954.
16:25:42 1321 1322	 1492359942	 393052805	 162277.
16:25:42 1322 1323	 1492359942	 559201073	 166148.
16:25:42 1323 1324	 1492359942	 721288345	 162087.
16:25:42 1324 1325	 1492359942	 858689969	 137402.
16:25:43 1325 1326	 1492359943	 20570602	 161880.
16:25:43 1326 1327	 1492359943	 183038065	 162468.
16:25:43 1327 1328	 1492359943	 345479181	 162441.
16:25:43 1328 1329	 1492359943	 507812072	 162333.
16:25:43 1329 1330	 1492359943	 669747094	 161935.
16:25:43 1330 1331	 1492359943	 835653822	 165907.
16:25:43 1331 1332	 1492359943	 998227978	 162574.
16:25:44 1332 1333	 1492359944	 156217253	 157989.
16:25:44 1333 1334	 1492359944	 322019076	 165802.
16:25:44 1334 1335	 1492359944	 455283494	 133264.
16:25:44 1335 1336	 1492359944	 621366290	 166083.
16:25:44 1336 1337	 1492359944	 783314310	 161948.
16:25:44 1337 1338	 1492359944	 949289844	 165976.
16:25:45 1338 1339	 1492359945	 107609456	 158319.
16:25:45 1339 1340	 1492359945	 269610027	 162001.
16:25:45 1340 1341	 1492359945	 435751004	 166141.
16:25:45 1341 1342	 1492359945	 597724998	 161974.
16:25:45 1342 1343	 1492359945	 735027388	 137302.
16:25:45 1343 1344	 1492359945	 897189139	 162162.
16:25:46 1344 1345	 1492359946	 63300079	 166111.
16:25:46 1345 1346	 1492359946	 225350774	 162051.
16:25:46 1346 1347	 1492359946	 387458165	 162107.
16:25:46 1347 1348	 1492359946	 553425631	 165967.
16:25:46 1348 1349	 1492359946	 715251554	 161826.
16:25:46 1349 1350	 1492359946	 881285063	 166034.
16:25:47 1350 1351	 1492359947	 14382172	 133097.
16:25:47 1351 1352	 1492359947	 176511809	 162130.
16:25:47 1352 1353	 1492359947	 338905958	 162394.
16:25:47 1353 1354	 1492359947	 497314083	 158408.
16:25:47 1354 1355	 1492359947	 663094568	 165780.
16:25:47 1355 1356	 1492359947	 824963631	 161869.
16:25:47 1356 1357	 1492359947	 991144874	 166182.
16:25:48 1357 1358	 1492359948	 152961234	 161816.
16:25:48 1358 1359	 1492359948	 318991228	 166030.
16:25:48 1359 1360	 1492359948	 477274132	 158283.
16:25:48 1360 1361	 1492359948	 614434976	 137161.
16:25:48 1361 1362	 1492359948	 776229483	 161794.
16:25:48 1362 1363	 1492359948	 942189477	 165960.
16:25:49 1363 1364	 1492359949	 104135983	 161947.
16:25:49 1364 1365	 1492359949	 270044147	 165908.
16:25:49 1365 1366	 1492359949	 432031017	 161987.
16:25:49 1366 1367	 1492359949	 597806313	 165775.
16:25:49 1367 1368	 1492359949	 730759169	 132953.
16:25:49 1368 1369	 1492359949	 896649378	 165890.
16:25:50 1369 1370	 1492359950	 58540168	 161891.
16:25:50 1370 1371	 1492359950	 224565366	 166025.
16:25:50 1371 1372	 1492359950	 386379007	 161814.
16:25:50 1372 1373	 1492359950	 548303389	 161924.
16:25:50 1373 1374	 1492359950	 714134555	 165831.
16:25:50 1374 1375	 1492359950	 847278126	 133144.
16:25:51 1375 1376	 1492359951	 13153463	 165875.
16:25:51 1376 1377	 1492359951	 175046666	 161893.
16:25:51 1377 1378	 1492359951	 341129792	 166084.
16:25:51 1378 1379	 1492359951	 503151857	 162022.
16:25:51 1379 1380	 1492359951	 665610698	 162458.
16:25:51 1380 1381	 1492359951	 827660470	 162050.
16:25:51 1381 1382	 1492359951	 960708653	 133048.
16:25:52 1382 1383	 1492359952	 126681448	 165973.
16:25:52 1383 1384	 1492359952	 288680848	 162000.
16:25:52 1384 1385	 1492359952	 450526279	 161845.
16:25:52 1385 1386	 1492359952	 616591602	 166065.
16:25:52 1386 1387	 1492359952	 778477311	 161886.
16:25:52 1387 1388	 1492359952	 944646581	 166169.
16:25:53 1388 1389	 1492359953	 106464250	 161818.
16:25:53 1389 1390	 1492359953	 244034519	 137570.
16:25:53 1390 1391	 1492359953	 405915724	 161881.
16:25:53 1391 1392	 1492359953	 571659042	 165744.
16:25:53 1392 1393	 1492359953	 733502630	 161843.
16:25:53 1393 1394	 1492359953	 899350293	 165848.
16:25:54 1394 1395	 1492359954	 61151789	 161801.
16:25:54 1395 1396	 1492359954	 198506517	 137355.
16:25:54 1396 1397	 1492359954	 360277327	 161771.
16:25:54 1397 1398	 1492359954	 526170286	 165893.
16:25:54 1398 1399	 1492359954	 688233833	 162064.
16:25:54 1399 1400	 1492359954	 850393443	 162159.
16:25:55 1400 1401	 1492359955	 16482340	 166089.
16:25:55 1401 1402	 1492359955	 178555690	 162073.
16:25:55 1402 1403	 1492359955	 344432302	 165877.
16:25:55 1403 1404	 1492359955	 477641374	 133209.
16:25:55 1404 1405	 1492359955	 643681449	 166040.
16:25:55 1405 1406	 1492359955	 805527539	 161846.
16:25:55 1406 1407	 1492359955	 971591907	 166065.
16:25:56 1407 1408	 1492359956	 133620274	 162028.
16:25:56 1408 1409	 1492359956	 299477852	 165858.
16:25:56 1409 1410	 1492359956	 432585796	 133107.
16:25:56 1410 1411	 1492359956	 598429234	 165844.
16:25:56 1411 1412	 1492359956	 760226754	 161797.
16:25:56 1412 1413	 1492359956	 926153979	 165928.
16:25:57 1413 1414	 1492359957	 84582601	 158428.
16:25:57 1414 1415	 1492359957	 246492857	 161911.
16:25:57 1415 1416	 1492359957	 413290110	 166797.
16:25:57 1416 1417	 1492359957	 571179999	 157890.
16:25:57 1417 1418	 1492359957	 733218939	 162039.
16:25:57 1418 1419	 1492359957	 899088502	 165869.
16:25:58 1419 1420	 1492359958	 32294952	 133207.
16:25:58 1420 1421	 1492359958	 198240828	 165946.
16:25:58 1421 1422	 1492359958	 360035944	 161795.
16:25:58 1422 1423	 1492359958	 522388988	 162353.
16:25:58 1423 1424	 1492359958	 688195656	 165806.
16:25:58 1424 1425	 1492359958	 849992188	 161797.
16:25:59 1425 1426	 1492359959	 11854173	 161862.
16:25:59 1426 1427	 1492359959	 149016688	 137162.
16:25:59 1427 1428	 1492359959	 311141318	 162125.
16:25:59 1428 1429	 1492359959	 472949888	 161809.
16:25:59 1429 1430	 1492359959	 638851847	 165902.
16:25:59 1430 1431	 1492359959	 800811428	 161959.
16:25:59 1431 1432	 1492359959	 959425238	 158614.
16:26:00 1432 1433	 1492359960	 125493007	 166068.
16:26:00 1433 1434	 1492359960	 287509765	 162016.
16:26:00 1434 1435	 1492359960	 453518538	 166009.
16:26:00 1435 1436	 1492359960	 586849497	 133331.
16:26:00 1436 1437	 1492359960	 748805121	 161956.
16:26:00 1437 1438	 1492359960	 915505164	 166700.
16:26:01 1438 1439	 1492359961	 73494310	 157989.
16:26:01 1439 1440	 1492359961	 235599368	 162105.
16:26:01 1440 1441	 1492359961	 402028173	 166429.
16:26:01 1441 1442	 1492359961	 564216105	 162188.
16:26:01 1442 1443	 1492359961	 730154332	 165938.
16:26:01 1443 1444	 1492359961	 888686851	 158533.
16:26:02 1444 1445	 1492359962	 50755463	 162068.
16:26:02 1445 1446	 1492359962	 216636308	 165881.
16:26:02 1446 1447	 1492359962	 349797486	 133161.
16:26:02 1447 1448	 1492359962	 515717438	 165920.
16:26:02 1448 1449	 1492359962	 678513483	 162796.
16:26:02 1449 1450	 1492359962	 836704584	 158191.
16:26:02 1450 1451	 1492359962	 998756388	 162052.
16:26:03 1451 1452	 1492359963	 160827330	 162071.
16:26:03 1452 1453	 1492359963	 326952260	 166125.
16:26:03 1453 1454	 1492359963	 488892358	 161940.
16:26:03 1454 1455	 1492359963	 654801931	 165910.
16:26:03 1455 1456	 1492359963	 788021857	 133220.
16:26:03 1456 1457	 1492359963	 954000661	 165978.
16:26:04 1457 1458	 1492359964	 115858489	 161858.
16:26:04 1458 1459	 1492359964	 282031710	 166173.
16:26:04 1459 1460	 1492359964	 444210493	 162179.
16:26:04 1460 1461	 1492359964	 606692217	 162482.
16:26:04 1461 1462	 1492359964	 772706406	 166014.
16:26:04 1462 1463	 1492359964	 905972392	 133266.
16:26:05 1463 1464	 1492359965	 72285868	 166314.
16:26:05 1464 1465	 1492359965	 234297867	 162012.
16:26:05 1465 1466	 1492359965	 392714137	 158416.
16:26:05 1466 1467	 1492359965	 558805912	 166092.
16:26:05 1467 1468	 1492359965	 720732802	 161927.
16:26:05 1468 1469	 1492359965	 886701063	 165968.
16:26:06 1469 1470	 1492359966	 48879629	 162179.
16:26:06 1470 1471	 1492359966	 211184084	 162304.
16:26:06 1471 1472	 1492359966	 348472157	 137288.
16:26:06 1472 1473	 1492359966	 510716250	 162244.
16:26:06 1473 1474	 1492359966	 676646451	 165930.
16:26:06 1474 1475	 1492359966	 838631661	 161985.
16:26:07 1475 1476	 1492359967	 4693563	 166062.
16:26:07 1476 1477	 1492359967	 166667290	 161974.
16:26:07 1477 1478	 1492359967	 332612868	 165946.
16:26:07 1478 1479	 1492359967	 465829878	 133217.
16:26:07 1479 1480	 1492359967	 631948972	 166119.
16:26:07 1480 1481	 1492359967	 793961812	 162013.
16:26:07 1481 1482	 1492359967	 960089937	 166128.
16:26:08 1482 1483	 1492359968	 122352121	 162262.
16:26:08 1483 1484	 1492359968	 284474519	 162122.
16:26:08 1484 1485	 1492359968	 446438135	 161964.
16:26:08 1485 1486	 1492359968	 612353779	 165915.
16:26:08 1486 1487	 1492359968	 745549376	 133196.
16:26:08 1487 1488	 1492359968	 911523898	 165975.
16:26:09 1488 1489	 1492359969	 73849972	 162326.
16:26:09 1489 1490	 1492359969	 235706135	 161856.
16:26:09 1490 1491	 1492359969	 397861929	 162156.
16:26:09 1491 1492	 1492359969	 560288981	 162427.
16:26:09 1492 1493	 1492359969	 722143401	 161854.
16:26:09 1493 1494	 1492359969	 888088901	 165946.
16:26:10 1494 1495	 1492359970	 50097274	 162008.
16:26:10 1495 1496	 1492359970	 216115334	 166018.
16:26:10 1496 1497	 1492359970	 349519978	 133405.
16:26:10 1497 1498	 1492359970	 508192632	 158672.
16:26:10 1498 1499	 1492359970	 670088790	 161896.
16:26:10 1499 1500	 1492359970	 836002627	 165914.
16:26:10 1500 1501	 1492359970	 997849649	 161847.
16:26:11 1501 1502	 1492359971	 164250279	 166401.
16:26:11 1502 1503	 1492359971	 327073865	 162824.
16:26:11 1503 1504	 1492359971	 484910587	 157836.
16:26:11 1504 1505	 1492359971	 646665020	 161755.
16:26:11 1505 1506	 1492359971	 808854497	 162189.
16:26:11 1506 1507	 1492359971	 946497159	 137643.
16:26:12 1507 1508	 1492359972	 104307820	 157811.
16:26:12 1508 1509	 1492359972	 270348231	 166040.
16:26:12 1509 1510	 1492359972	 432229813	 161882.
16:26:12 1510 1511	 1492359972	 598304806	 166075.
16:26:12 1511 1512	 1492359972	 764228545	 165923.
16:26:12 1512 1513	 1492359972	 926054217	 161826.
16:26:13 1513 1514	 1492359973	 63261523	 137207.
16:26:13 1514 1515	 1492359973	 225120397	 161859.
16:26:13 1515 1516	 1492359973	 379913966	 154794.
16:26:13 1516 1517	 1492359973	 545858744	 165944.
16:26:13 1517 1518	 1492359973	 707695788	 161837.
16:26:13 1518 1519	 1492359973	 873478982	 165784.
16:26:14 1519 1520	 1492359974	 35227495	 161748.
16:26:14 1520 1521	 1492359974	 201105887	 165879.
16:26:14 1521 1522	 1492359974	 334149565	 133043.
16:26:14 1522 1523	 1492359974	 499928243	 165779.
16:26:14 1523 1524	 1492359974	 661741186	 161813.
16:26:14 1524 1525	 1492359974	 827588391	 165847.
16:26:14 1525 1526	 1492359974	 989424444	 161836.
16:26:15 1526 1527	 1492359975	 151598248	 162174.
16:26:15 1527 1528	 1492359975	 313825782	 162227.
16:26:15 1528 1529	 1492359975	 447005545	 133180.
16:26:15 1529 1530	 1492359975	 613214737	 166209.
16:26:15 1530 1531	 1492359975	 775291307	 162077.
16:26:15 1531 1532	 1492359975	 933927761	 158636.
16:26:16 1532 1533	 1492359976	 95843555	 161916.
16:26:16 1533 1534	 1492359976	 257775591	 161932.
16:26:16 1534 1535	 1492359976	 423798552	 166023.
16:26:16 1535 1536	 1492359976	 585861132	 162063.
16:26:16 1536 1537	 1492359976	 747727439	 161866.
16:26:16 1537 1538	 1492359976	 910620040	 162893.
16:26:17 1538 1539	 1492359977	 68413452	 157793.
16:26:17 1539 1540	 1492359977	 234443556	 166030.
16:26:17 1540 1541	 1492359977	 367685058	 133242.
16:26:17 1541 1542	 1492359977	 533749530	 166064.
16:26:17 1542 1543	 1492359977	 695508402	 161759.
16:26:17 1543 1544	 1492359977	 861423546	 165915.
16:26:18 1544 1545	 1492359978	 23168808	 161746.
16:26:18 1545 1546	 1492359978	 189049350	 165880.
16:26:18 1546 1547	 1492359978	 322214815	 133166.
16:26:18 1547 1548	 1492359978	 484067091	 161852.
16:26:18 1548 1549	 1492359978	 650073460	 166006.
16:26:18 1549 1550	 1492359978	 811985058	 161912.
16:26:18 1550 1551	 1492359978	 973837095	 161852.
16:26:19 1551 1552	 1492359979	 140052058	 166215.
16:26:19 1552 1553	 1492359979	 301967431	 161915.
16:26:19 1553 1554	 1492359979	 463919403	 161952.
16:26:19 1554 1555	 1492359979	 597183392	 133264.
16:26:19 1555 1556	 1492359979	 759320608	 162137.
16:26:19 1556 1557	 1492359979	 925277815	 165958.
16:26:20 1557 1558	 1492359980	 87286908	 162009.
16:26:20 1558 1559	 1492359980	 253157368	 165870.
16:26:20 1559 1560	 1492359980	 415004799	 161848.
16:26:20 1560 1561	 1492359980	 581347418	 166342.
16:26:20 1561 1562	 1492359980	 739093744	 157746.
16:26:20 1562 1563	 1492359980	 876435649	 137342.
16:26:21 1563 1564	 1492359981	 42370789	 165935.
16:26:21 1564 1565	 1492359981	 204457325	 162087.
16:26:21 1565 1566	 1492359981	 366442425	 161985.
16:26:21 1566 1567	 1492359981	 532477085	 166035.
16:26:21 1567 1568	 1492359981	 694497350	 162020.
16:26:21 1568 1569	 1492359981	 860581652	 166084.
16:26:21 1569 1570	 1492359981	 993779556	 133198.
16:26:22 1570 1571	 1492359982	 155873617	 162094.
16:26:22 1571 1572	 1492359982	 321749754	 165876.
16:26:22 1572 1573	 1492359982	 483746519	 161997.
16:26:22 1573 1574	 1492359982	 649836520	 166090.
16:26:22 1574 1575	 1492359982	 811710730	 161874.
16:26:22 1575 1576	 1492359982	 973710641	 162000.
16:26:23 1576 1577	 1492359983	 110861239	 137151.
16:26:23 1577 1578	 1492359983	 276748640	 165887.
16:26:23 1578 1579	 1492359983	 438661330	 161913.
16:26:23 1579 1580	 1492359983	 604643536	 165982.
16:26:23 1580 1581	 1492359983	 766791907	 162149.
16:26:23 1581 1582	 1492359983	 928783273	 161991.
16:26:24 1582 1583	 1492359984	 65962842	 137180.
16:26:24 1583 1584	 1492359984	 228021270	 162058.
16:26:24 1584 1585	 1492359984	 390025559	 162004.
16:26:24 1585 1586	 1492359984	 555915034	 165890.
16:26:24 1586 1587	 1492359984	 717775696	 161860.
16:26:24 1587 1588	 1492359984	 883696266	 165921.
16:26:25 1588 1589	 1492359985	 45551319	 161855.
16:26:25 1589 1590	 1492359985	 178653067	 133102.
16:26:25 1590 1591	 1492359985	 344633536	 165980.
16:26:25 1591 1592	 1492359985	 506528991	 161896.
16:26:25 1592 1593	 1492359985	 672347361	 165818.
16:26:25 1593 1594	 1492359985	 834203329	 161856.
16:26:25 1594 1595	 1492359985	 999989331	 165786.
16:26:26 1595 1596	 1492359986	 158459613	 158470.
16:26:26 1596 1597	 1492359986	 320634442	 162175.
16:26:26 1597 1598	 1492359986	 453769060	 133135.
16:26:26 1598 1599	 1492359986	 619707497	 165938.
16:26:26 1599 1600	 1492359986	 781688287	 161981.
16:26:26 1600 1601	 1492359986	 947554390	 165866.
16:26:27 1601 1602	 1492359987	 113483477	 165929.
16:26:27 1602 1603	 1492359987	 275332689	 161849.
16:26:27 1603 1604	 1492359987	 437463094	 162131.
16:26:27 1604 1605	 1492359987	 570557263	 133094.
16:26:27 1605 1606	 1492359987	 736366048	 165809.
16:26:27 1606 1607	 1492359987	 898223221	 161857.
16:26:28 1607 1608	 1492359988	 64336185	 166113.
16:26:28 1608 1609	 1492359988	 226214199	 161878.
16:26:28 1609 1610	 1492359988	 392230683	 166016.
16:26:28 1610 1611	 1492359988	 554158692	 161928.
16:26:28 1611 1612	 1492359988	 691357561	 137199.
16:26:28 1612 1613	 1492359988	 853932158	 162575.
16:26:29 1613 1614	 1492359989	 12038088	 158106.
16:26:29 1614 1615	 1492359989	 174194660	 162156.
16:26:29 1615 1616	 1492359989	 340087030	 165893.
16:26:29 1616 1617	 1492359989	 501985169	 161898.
16:26:29 1617 1618	 1492359989	 668175616	 166190.
16:26:29 1618 1619	 1492359989	 830218988	 162044.
16:26:29 1619 1620	 1492359989	 992142588	 161923.
16:26:30 1620 1621	 1492359990	 129458844	 137317.
16:26:30 1621 1622	 1492359990	 291311296	 161852.
16:26:30 1622 1623	 1492359990	 457258270	 165947.
16:26:30 1623 1624	 1492359990	 619086273	 161828.
16:26:30 1624 1625	 1492359990	 785006957	 165921.
16:26:30 1625 1626	 1492359990	 950967769	 165960.
16:26:31 1626 1627	 1492359991	 84252292	 133285.
16:26:31 1627 1628	 1492359991	 250265649	 166013.
16:26:31 1628 1629	 1492359991	 412212470	 161947.
16:26:31 1629 1630	 1492359991	 574194807	 161983.
16:26:31 1630 1631	 1492359991	 740180436	 165985.
16:26:31 1631 1632	 1492359991	 902318998	 162139.
16:26:32 1632 1633	 1492359992	 68480566	 166161.
16:26:32 1633 1634	 1492359992	 230366907	 161887.
16:26:32 1634 1635	 1492359992	 363661306	 133294.
16:26:32 1635 1636	 1492359992	 529597850	 165937.
16:26:32 1636 1637	 1492359992	 691302511	 161704.
16:26:32 1637 1638	 1492359992	 857309175	 166007.
16:26:33 1638 1639	 1492359993	 19160262	 161851.
16:26:33 1639 1640	 1492359993	 181399783	 162239.
16:26:33 1640 1641	 1492359993	 347466004	 166067.
16:26:33 1641 1642	 1492359993	 480747374	 133281.
16:26:33 1642 1643	 1492359993	 646765830	 166019.
16:26:33 1643 1644	 1492359993	 809326131	 162560.
16:26:33 1644 1645	 1492359993	 967096782	 157770.
16:26:34 1645 1646	 1492359994	 133142600	 166046.
16:26:34 1646 1647	 1492359994	 295059889	 161918.
16:26:34 1647 1648	 1492359994	 457094422	 162034.
16:26:34 1648 1649	 1492359994	 623099469	 166005.
16:26:34 1649 1650	 1492359994	 784963691	 161864.
16:26:34 1650 1651	 1492359994	 918348875	 133386.
16:26:35 1651 1652	 1492359995	 84255180	 165906.
16:26:35 1652 1653	 1492359995	 246134125	 161879.
16:26:35 1653 1654	 1492359995	 411923036	 165789.
16:26:35 1654 1655	 1492359995	 573760345	 161837.
16:26:35 1655 1656	 1492359995	 739593747	 165833.
16:26:35 1656 1657	 1492359995	 902153095	 162560.
16:26:36 1657 1658	 1492359996	 59920182	 157767.
16:26:36 1658 1659	 1492359996	 197076028	 137156.
16:26:36 1659 1660	 1492359996	 358910995	 161835.
16:26:36 1660 1661	 1492359996	 524830130	 165919.
16:26:36 1661 1662	 1492359996	 686851218	 162021.
16:26:36 1662 1663	 1492359996	 848650376	 161799.
16:26:37 1663 1664	 1492359997	 14536924	 165887.
16:26:37 1664 1665	 1492359997	 176501517	 161964.
16:26:37 1665 1666	 1492359997	 339017028	 162516.
16:26:37 1666 1667	 1492359997	 501178635	 162161.
16:26:37 1667 1668	 1492359997	 634354005	 133176.
16:26:37 1668 1669	 1492359997	 800326179	 165972.
16:26:37 1669 1670	 1492359997	 962163952	 161838.
16:26:38 1670 1671	 1492359998	 128123523	 165959.
16:26:38 1671 1672	 1492359998	 290080082	 161957.
16:26:38 1672 1673	 1492359998	 456085918	 166006.
16:26:38 1673 1674	 1492359998	 589428248	 133342.
16:26:38 1674 1675	 1492359998	 755911337	 166483.
16:26:38 1675 1676	 1492359998	 910115914	 154205.
16:26:39 1676 1677	 1492359999	 76181394	 166065.
16:26:39 1677 1678	 1492359999	 238217535	 162036.
16:26:39 1678 1679	 1492359999	 404173596	 165956.
16:26:39 1679 1680	 1492359999	 566141763	 161968.
16:26:39 1680 1681	 1492359999	 732323541	 166182.
16:26:39 1681 1682	 1492359999	 894293366	 161970.
16:26:40 1682 1683	 1492360000	 31648429	 137355.
16:26:40 1683 1684	 1492360000	 193558190	 161910.
16:26:40 1684 1685	 1492360000	 359455835	 165898.
16:26:40 1685 1686	 1492360000	 521599598	 162143.
16:26:40 1686 1687	 1492360000	 683752693	 162153.
16:26:40 1687 1688	 1492360000	 849953496	 166201.
16:26:41 1688 1689	 1492360001	 16011600	 166058.
16:26:41 1689 1690	 1492360001	 174626555	 158615.
16:26:41 1690 1691	 1492360001	 336600010	 161974.
16:26:41 1691 1692	 1492360001	 473756170	 137156.
16:26:41 1692 1693	 1492360001	 635705488	 161949.
16:26:41 1693 1694	 1492360001	 797603806	 161899.
16:26:41 1694 1695	 1492360001	 960018569	 162414.
16:26:42 1695 1696	 1492360002	 122198173	 162180.
16:26:42 1696 1697	 1492360002	 284100432	 161902.
16:26:42 1697 1698	 1492360002	 449931910	 165832.
16:26:42 1698 1699	 1492360002	 611824666	 161892.
16:26:42 1699 1700	 1492360002	 749110367	 137286.
16:26:42 1700 1701	 1492360002	 910937113	 161827.
16:26:43 1701 1702	 1492360003	 76869071	 165932.
16:26:43 1702 1703	 1492360003	 238835757	 161966.
16:26:43 1703 1704	 1492360003	 400757707	 161922.
16:26:43 1704 1705	 1492360003	 566752484	 165995.
16:26:43 1705 1706	 1492360003	 728642605	 161890.
16:26:43 1706 1707	 1492360003	 865975382	 137333.
16:26:44 1707 1708	 1492360004	 27816984	 161842.
16:26:44 1708 1709	 1492360004	 189765658	 161948.
16:26:44 1709 1710	 1492360004	 355717725	 165952.
16:26:44 1710 1711	 1492360004	 517700295	 161983.
16:26:44 1711 1712	 1492360004	 683663843	 165964.
16:26:44 1712 1713	 1492360004	 842502364	 158838.
16:26:45 1713 1714	 1492360005	 4423122	 161921.
16:26:45 1714 1715	 1492360005	 141746933	 137324.
16:26:45 1715 1716	 1492360005	 303716025	 161969.
16:26:45 1716 1717	 1492360005	 469721370	 166005.
16:26:45 1717 1718	 1492360005	 631623496	 161902.
16:26:45 1718 1719	 1492360005	 797711191	 166088.
16:26:45 1719 1720	 1492360005	 959650990	 161940.
16:26:46 1720 1721	 1492360006	 125558829	 165908.
16:26:46 1721 1722	 1492360006	 258753396	 133194.
16:26:46 1722 1723	 1492360006	 420609695	 161856.
16:26:46 1723 1724	 1492360006	 586703435	 166094.
16:26:46 1724 1725	 1492360006	 748741847	 162039.
16:26:46 1725 1726	 1492360006	 914644695	 165902.
16:26:47 1726 1727	 1492360007	 76673416	 162029.
16:26:47 1727 1728	 1492360007	 242780586	 166107.
16:26:47 1728 1729	 1492360007	 404873171	 162093.
16:26:47 1729 1730	 1492360007	 542140926	 137268.
16:26:47 1730 1731	 1492360007	 704038637	 161897.
16:26:47 1731 1732	 1492360007	 870182722	 166144.
16:26:48 1732 1733	 1492360008	 32167991	 161986.
16:26:48 1733 1734	 1492360008	 194184181	 162016.
16:26:48 1734 1735	 1492360008	 360130308	 165946.
16:26:48 1735 1736	 1492360008	 522113807	 161984.
16:26:48 1736 1737	 1492360008	 655416392	 133302.
16:26:48 1737 1738	 1492360008	 814172983	 158757.
16:26:48 1738 1739	 1492360008	 980154039	 165981.
16:26:49 1739 1740	 1492360009	 142145999	 161992.
16:26:49 1740 1741	 1492360009	 308223051	 166077.
16:26:49 1741 1742	 1492360009	 470294943	 162072.
16:26:49 1742 1743	 1492360009	 636245509	 165950.
16:26:49 1743 1744	 1492360009	 798179957	 161935.
16:26:49 1744 1745	 1492360009	 960619037	 162439.
16:26:50 1745 1746	 1492360010	 98051207	 137432.
16:26:50 1746 1747	 1492360010	 260005677	 161954.
16:26:50 1747 1748	 1492360010	 426142187	 166137.
16:26:50 1748 1749	 1492360010	 588046761	 161904.
16:26:50 1749 1750	 1492360010	 754017681	 165971.
16:26:50 1750 1751	 1492360010	 916374200	 162357.
16:26:51 1751 1752	 1492360011	 82504578	 166130.
16:26:51 1752 1753	 1492360011	 215658816	 133155.
16:26:51 1753 1754	 1492360011	 381591168	 165932.
16:26:51 1754 1755	 1492360011	 547616523	 166025.
16:26:51 1755 1756	 1492360011	 709557377	 161941.
16:26:51 1756 1757	 1492360011	 875578036	 166021.
16:26:52 1757 1758	 1492360012	 37529110	 161951.
16:26:52 1758 1759	 1492360012	 174948164	 137419.
16:26:52 1759 1760	 1492360012	 336877702	 161930.
16:26:52 1760 1761	 1492360012	 502960274	 166082.
16:26:52 1761 1762	 1492360012	 665134192	 162174.
16:26:52 1762 1763	 1492360012	 831147606	 166013.
16:26:52 1763 1764	 1492360012	 993071781	 161925.
16:26:53 1764 1765	 1492360013	 159173738	 166102.
16:26:53 1765 1766	 1492360013	 321318835	 162145.
16:26:53 1766 1767	 1492360013	 458602179	 137283.
16:26:53 1767 1768	 1492360013	 624644190	 166042.
16:26:53 1768 1769	 1492360013	 786549300	 161905.
16:26:53 1769 1770	 1492360013	 948524871	 161976.
16:26:54 1770 1771	 1492360014	 114445612	 165920.
16:26:54 1771 1772	 1492360014	 276263771	 161818.
16:26:54 1772 1773	 1492360014	 409556979	 133294.
16:26:54 1773 1774	 1492360014	 575555604	 165998.
16:26:54 1774 1775	 1492360014	 737572199	 162017.
16:26:54 1775 1776	 1492360014	 903591761	 166019.
16:26:55 1776 1777	 1492360015	 65672283	 162081.
16:26:55 1777 1778	 1492360015	 231775984	 166104.
16:26:55 1778 1779	 1492360015	 393830123	 162054.
16:26:55 1779 1780	 1492360015	 559762702	 165932.
16:26:55 1780 1781	 1492360015	 692877417	 133115.
16:26:55 1781 1782	 1492360015	 858746159	 165869.
16:26:56 1782 1783	 1492360016	 20666754	 161920.
16:26:56 1783 1784	 1492360016	 186614509	 165948.
16:26:56 1784 1785	 1492360016	 348509482	 161895.
16:26:56 1785 1786	 1492360016	 514616737	 166107.
16:26:56 1786 1787	 1492360016	 676411952	 161796.
16:26:56 1787 1788	 1492360016	 842366277	 165954.
16:26:56 1788 1789	 1492360016	 975660205	 133294.
16:26:57 1789 1790	 1492360017	 141948871	 166289.
16:26:57 1790 1791	 1492360017	 303924373	 161975.
16:26:57 1791 1792	 1492360017	 465782006	 161858.
16:26:57 1792 1793	 1492360017	 631833512	 166051.
16:26:57 1793 1794	 1492360017	 793749294	 161916.
16:26:57 1794 1795	 1492360017	 959717788	 165968.
16:26:58 1795 1796	 1492360018	 92981821	 133265.
16:26:58 1796 1797	 1492360018	 259012804	 166031.
16:26:58 1797 1798	 1492360018	 420900591	 161887.
16:26:58 1798 1799	 1492360018	 587302743	 166402.
16:26:58 1799 1800	 1492360018	 749108775	 161807.
16:26:58 1800 1801	 1492360018	 910976285	 161867.
16:26:59 1801 1802	 1492360019	 78004608	 167028.
16:26:59 1802 1803	 1492360019	 235752581	 157748.
16:26:59 1803 1804	 1492360019	 397655511	 161903.
16:26:59 1804 1805	 1492360019	 530887539	 133232.
16:26:59 1805 1806	 1492360019	 696877485	 165990.
16:26:59 1806 1807	 1492360019	 858715113	 161838.
16:27:00 1807 1808	 1492360020	 24740506	 166025.
16:27:00 1808 1809	 1492360020	 190850752	 166110.
16:27:00 1809 1810	 1492360020	 352755975	 161906.
16:27:00 1810 1811	 1492360020	 490015436	 137259.
16:27:00 1811 1812	 1492360020	 651965042	 161950.
16:27:00 1812 1813	 1492360020	 817977475	 166012.
16:27:00 1813 1814	 1492360020	 976022239	 158045.
16:27:01 1814 1815	 1492360021	 142296713	 166274.
16:27:01 1815 1816	 1492360021	 304142714	 161846.
16:27:01 1816 1817	 1492360021	 466337620	 162195.
16:27:01 1817 1818	 1492360021	 632432801	 166096.
16:27:01 1818 1819	 1492360021	 765602035	 133169.
16:27:01 1819 1820	 1492360021	 931595552	 165993.
16:27:02 1820 1821	 1492360022	 93580428	 161985.
16:27:02 1821 1822	 1492360022	 255552960	 161973.
16:27:02 1822 1823	 1492360022	 421543602	 165990.
16:27:02 1823 1824	 1492360022	 583724010	 162181.
16:27:02 1824 1825	 1492360022	 749705772	 165981.
16:27:02 1825 1826	 1492360022	 882834915	 133130.
16:27:03 1826 1827	 1492360023	 48821351	 165986.
16:27:03 1827 1828	 1492360023	 210799415	 161978.
16:27:03 1828 1829	 1492360023	 376924823	 166126.
16:27:03 1829 1830	 1492360023	 538877665	 161952.
16:27:03 1830 1831	 1492360023	 704898175	 166021.
16:27:03 1831 1832	 1492360023	 838061313	 133163.
16:27:03 1832 1833	 1492360024	 4155598	 166094.
16:27:04 1833 1834	 1492360024	 166063046	 161908.
16:27:04 1834 1835	 1492360024	 327941096	 161878.
16:27:04 1835 1836	 1492360024	 493944769	 166003.
16:27:04 1836 1837	 1492360024	 656007244	 162063.
16:27:04 1837 1838	 1492360024	 793388927	 137382.
16:27:04 1838 1839	 1492360024	 955421097	 162032.
16:27:05 1839 1840	 1492360025	 121503306	 166082.
16:27:05 1840 1841	 1492360025	 283774172	 162271.
16:27:05 1841 1842	 1492360025	 445869659	 162095.
16:27:05 1842 1843	 1492360025	 611943159	 166074.
16:27:05 1843 1844	 1492360025	 773800748	 161857.
16:27:05 1844 1845	 1492360025	 939909417	 166109.
16:27:06 1845 1846	 1492360026	 72983806	 133075.
16:27:06 1846 1847	 1492360026	 234737414	 161753.
16:27:06 1847 1848	 1492360026	 400711056	 165974.
16:27:06 1848 1849	 1492360026	 562469777	 161758.
16:27:06 1849 1850	 1492360026	 728468937	 166000.
16:27:06 1850 1851	 1492360026	 891181658	 162712.
16:27:07 1851 1852	 1492360027	 49153516	 157972.
16:27:07 1852 1853	 1492360027	 214980795	 165828.
16:27:07 1853 1854	 1492360027	 348328796	 133348.
16:27:07 1854 1855	 1492360027	 514255558	 165926.
16:27:07 1855 1856	 1492360027	 676003032	 161748.
16:27:07 1856 1857	 1492360027	 842089056	 166086.
16:27:08 1857 1858	 1492360028	 3924339	 161835.
16:27:08 1858 1859	 1492360028	 169831287	 165907.
16:27:08 1859 1860	 1492360028	 303117044	 133286.
16:27:08 1860 1861	 1492360028	 469203532	 166086.
16:27:08 1861 1862	 1492360028	 631139113	 161936.
16:27:08 1862 1863	 1492360028	 797024550	 165885.
16:27:08 1863 1864	 1492360028	 958837957	 161814.
16:27:09 1864 1865	 1492360029	 120664393	 161826.
16:27:09 1865 1866	 1492360029	 258001093	 137337.
16:27:09 1866 1867	 1492360029	 419978675	 161977.
16:27:09 1867 1868	 1492360029	 586043889	 166066.
16:27:09 1868 1869	 1492360029	 752283183	 166239.
16:27:09 1869 1870	 1492360029	 914426097	 162143.
16:27:10 1870 1871	 1492360030	 76486726	 162060.
16:27:10 1871 1872	 1492360030	 242444216	 165958.
16:27:10 1872 1873	 1492360030	 375755224	 133311.
16:27:10 1873 1874	 1492360030	 538810964	 163056.
16:27:10 1874 1875	 1492360030	 700885498	 162074.
16:27:10 1875 1876	 1492360030	 867075080	 166190.
16:27:11 1876 1877	 1492360031	 33345183	 166270.
16:27:11 1877 1878	 1492360031	 195348519	 162003.
