12:13:10    0 Step	 time(s)	 time(ns)	 delta(ms)
12:13:10    0 1	 1492603990	 792401064	 930.
12:13:10    1 2	 1492603990	 958430834	 166030.
12:13:11    2 3	 1492603991	 120448906	 162018.
12:13:11    3 4	 1492603991	 286475758	 166026.
12:13:11    4 5	 1492603991	 448415305	 161940.
12:13:11    5 6	 1492603991	 610233251	 161818.
12:13:11    6 7	 1492603991	 776022499	 165789.
12:13:11    7 8	 1492603991	 937773083	 161751.
12:13:12    8 9	 1492603992	 74962731	 137189.
12:13:12    9 10	 1492603992	 236497500	 161535.
12:13:12   10 11	 1492603992	 402282217	 165785.
12:13:12   11 12	 1492603992	 564054651	 161772.
12:13:12   12 13	 1492603992	 725876830	 161823.
12:13:12   13 14	 1492603992	 891776821	 165900.
12:13:13   14 15	 1492603993	 53704765	 161927.
12:13:13   15 16	 1492603993	 219480929	 165777.
12:13:13   16 17	 1492603993	 352762564	 133281.
12:13:13   17 18	 1492603993	 514636736	 161874.
12:13:13   18 19	 1492603993	 680372706	 165736.
12:13:13   19 20	 1492603993	 842072137	 161700.
12:13:14   20 21	 1492603994	 7921766	 165849.
12:13:14   21 22	 1492603994	 169696295	 161775.
12:13:14   22 23	 1492603994	 335324991	 165629.
12:13:14   23 24	 1492603994	 497269514	 161944.
12:13:14   24 25	 1492603994	 630321346	 133052.
12:13:14   25 26	 1492603994	 796201591	 165880.
12:13:14   26 27	 1492603994	 958004693	 161803.
12:13:15   27 28	 1492603995	 123586450	 165582.
12:13:15   28 29	 1492603995	 285313549	 161727.
12:13:15   29 30	 1492603995	 451025058	 165712.
12:13:15   30 31	 1492603995	 612842143	 161817.
12:13:15   31 32	 1492603995	 778577620	 165735.
12:13:15   32 33	 1492603995	 911781467	 133204.
12:13:16   33 34	 1492603996	 73354768	 161573.
12:13:16   34 35	 1492603996	 234979963	 161626.
12:13:16   35 36	 1492603996	 400570047	 165590.
12:13:16   36 37	 1492603996	 562191707	 161621.
12:13:16   37 38	 1492603996	 727674556	 165483.
12:13:16   38 39	 1492603996	 860603805	 132930.
12:13:17   39 40	 1492603997	 26322445	 165718.
12:13:17   40 41	 1492603997	 187948097	 161626.
12:13:17   41 42	 1492603997	 349578875	 161631.
12:13:17   42 43	 1492603997	 515200438	 165621.
12:13:17   43 44	 1492603997	 648021596	 132821.
12:13:17   44 45	 1492603997	 813427333	 165406.
12:13:17   45 46	 1492603997	 975102528	 161675.
12:13:18   46 47	 1492603998	 136892283	 161790.
12:13:18   47 48	 1492603998	 302744358	 165852.
12:13:18   48 49	 1492603998	 464535526	 161791.
12:13:18   49 50	 1492603998	 630426400	 165891.
12:13:18   50 51	 1492603998	 763506094	 133080.
12:13:18   51 52	 1492603998	 929280009	 165774.
12:13:19   52 53	 1492603999	 91106467	 161826.
12:13:19   53 54	 1492603999	 256877888	 165772.
12:13:19   54 55	 1492603999	 418486846	 161609.
12:13:19   55 56	 1492603999	 584339137	 165852.
12:13:19   56 57	 1492603999	 746128705	 161789.
12:13:19   57 58	 1492603999	 879284793	 133156.
12:13:20   58 59	 1492604000	 45169168	 165885.
12:13:20   59 60	 1492604000	 206957789	 161789.
12:13:20   60 61	 1492604000	 372783771	 165825.
12:13:20   61 62	 1492604000	 534539389	 161756.
12:13:20   62 63	 1492604000	 700421615	 165882.
12:13:20   63 64	 1492604000	 862082619	 161661.
12:13:20   64 65	 1492604000	 999189897	 137108.
12:13:21   65 66	 1492604001	 160997543	 161807.
12:13:21   66 67	 1492604001	 322891900	 161895.
12:13:21   67 68	 1492604001	 488597212	 165705.
12:13:21   68 69	 1492604001	 650280482	 161683.
12:13:21   69 70	 1492604001	 816795997	 166516.
12:13:21   70 71	 1492604001	 974396531	 157600.
12:13:22   71 72	 1492604002	 136022394	 161626.
12:13:22   72 73	 1492604002	 273011366	 136989.
12:13:22   73 74	 1492604002	 434647681	 161636.
12:13:22   74 75	 1492604002	 600355687	 165708.
12:13:22   75 76	 1492604002	 762069800	 161715.
12:13:22   76 77	 1492604002	 927851007	 165781.
12:13:23   77 78	 1492604003	 89488081	 161637.
12:13:23   78 79	 1492604003	 222600726	 133112.
12:13:23   79 80	 1492604003	 388180200	 165580.
12:13:23   80 81	 1492604003	 549976931	 161797.
12:13:23   81 82	 1492604003	 715511337	 165534.
12:13:23   82 83	 1492604003	 877234152	 161723.
12:13:24   83 84	 1492604004	 42988917	 165755.
12:13:24   84 85	 1492604004	 204699044	 161710.
12:13:24   85 86	 1492604004	 337831419	 133132.
12:13:24   86 87	 1492604004	 503560676	 165729.
12:13:24   87 88	 1492604004	 665228337	 161668.
12:13:24   88 89	 1492604004	 830837408	 165609.
12:13:24   89 90	 1492604004	 992602476	 161765.
12:13:25   90 91	 1492604005	 129575784	 136974.
12:13:25   91 92	 1492604005	 291218950	 161643.
12:13:25   92 93	 1492604005	 452698904	 161480.
12:13:25   93 94	 1492604005	 618362233	 165663.
12:13:25   94 95	 1492604005	 779867925	 161506.
12:13:25   95 96	 1492604005	 945702025	 165834.
12:13:26   96 97	 1492604006	 78568985	 132867.
12:13:26   97 98	 1492604006	 244279383	 165710.
12:13:26   98 99	 1492604006	 405672372	 161393.
12:13:26   99 100	 1492604006	 567262052	 161590.
12:13:26  100 101	 1492604006	 732905574	 165643.
12:13:26  101 102	 1492604006	 865764897	 132860.
12:13:27  102 103	 1492604007	 31239601	 165474.
12:13:27  103 104	 1492604007	 192770496	 161531.
12:13:27  104 105	 1492604007	 358408278	 165638.
12:13:27  105 106	 1492604007	 519876865	 161469.
12:13:27  106 107	 1492604007	 685553526	 165676.
12:13:27  107 108	 1492604007	 818534684	 132981.
12:13:27  108 109	 1492604007	 980062907	 161529.
12:13:28  109 110	 1492604008	 145596338	 165533.
12:13:28  110 111	 1492604008	 306998242	 161402.
12:13:28  111 112	 1492604008	 472371150	 165373.
12:13:28  112 113	 1492604008	 605266493	 132895.
12:13:28  113 114	 1492604008	 766960892	 161695.
12:13:28  114 115	 1492604008	 932725199	 165764.
12:13:29  115 116	 1492604009	 98423513	 165698.
12:13:29  116 117	 1492604009	 260191207	 161768.
12:13:29  117 118	 1492604009	 421933865	 161743.
12:13:29  118 119	 1492604009	 558804736	 136870.
12:13:29  119 120	 1492604009	 720242218	 161438.
12:13:29  120 121	 1492604009	 885934973	 165693.
12:13:30  121 122	 1492604010	 47544295	 161609.
12:13:30  122 123	 1492604010	 213128854	 165585.
12:13:30  123 124	 1492604010	 346015810	 132887.
12:13:30  124 125	 1492604010	 507339706	 161323.
12:13:30  125 126	 1492604010	 672942687	 165603.
12:13:30  126 127	 1492604010	 834409880	 161468.
12:13:30  127 128	 1492604011	 150276	 165740.
12:13:31  128 129	 1492604011	 133039620	 132889.
12:13:31  129 130	 1492604011	 294719402	 161680.
12:13:31  130 131	 1492604011	 460471640	 165753.
12:13:31  131 132	 1492604011	 622064684	 161592.
12:13:31  132 133	 1492604011	 787547817	 165484.
12:13:31  133 134	 1492604011	 949106855	 161559.
12:13:32  134 135	 1492604012	 86157299	 137050.
12:13:32  135 136	 1492604012	 247792464	 161635.
12:13:32  136 137	 1492604012	 413402354	 165610.
12:13:32  137 138	 1492604012	 574943870	 161542.
12:13:32  138 139	 1492604012	 740540402	 165596.
12:13:32  139 140	 1492604012	 873394201	 132854.
12:13:33  140 141	 1492604013	 39287182	 165893.
12:13:33  141 142	 1492604013	 200865916	 161579.
12:13:33  142 143	 1492604013	 366287891	 165422.
12:13:33  143 144	 1492604013	 527657051	 161369.
12:13:33  144 145	 1492604013	 693072041	 165415.
12:13:33  145 146	 1492604013	 825974459	 132902.
12:13:33  146 147	 1492604013	 991609246	 165635.
12:13:34  147 148	 1492604014	 153404164	 161795.
12:13:34  148 149	 1492604014	 314919751	 161515.
12:13:34  149 150	 1492604014	 480757016	 165838.
12:13:34  150 151	 1492604014	 642562820	 161806.
12:13:34  151 152	 1492604014	 779610527	 137047.
12:13:34  152 153	 1492604014	 941583403	 161973.
12:13:35  153 154	 1492604015	 107296593	 165713.
12:13:35  154 155	 1492604015	 268892456	 161596.
12:13:35  155 156	 1492604015	 430632907	 161741.
12:13:35  156 157	 1492604015	 596270141	 165637.
12:13:35  157 158	 1492604015	 757919643	 161649.
12:13:35  158 159	 1492604015	 895061299	 137142.
12:13:36  159 160	 1492604016	 56871770	 161810.
12:13:36  160 161	 1492604016	 218545362	 161674.
12:13:36  161 162	 1492604016	 384412566	 165867.
12:13:36  162 163	 1492604016	 546334979	 161923.
12:13:36  163 164	 1492604016	 712230563	 165895.
12:13:36  164 165	 1492604016	 873914275	 161684.
12:13:37  165 166	 1492604017	 39751147	 165837.
12:13:37  166 167	 1492604017	 172938663	 133188.
12:13:37  167 168	 1492604017	 338462060	 165523.
12:13:37  168 169	 1492604017	 500495136	 162033.
12:13:37  169 170	 1492604017	 666258929	 165764.
12:13:37  170 171	 1492604017	 827951317	 161692.
12:13:37  171 172	 1492604017	 993900236	 165949.
12:13:38  172 173	 1492604018	 155534512	 161634.
12:13:38  173 174	 1492604018	 288650846	 133117.
12:13:38  174 175	 1492604018	 454427124	 165776.
12:13:38  175 176	 1492604018	 616813639	 162386.
12:13:38  176 177	 1492604018	 778324051	 161511.
12:13:38  177 178	 1492604018	 940009802	 161686.
12:13:39  178 179	 1492604019	 101502678	 161492.
12:13:39  179 180	 1492604019	 267107742	 165605.
12:13:39  180 181	 1492604019	 399989353	 132882.
12:13:39  181 182	 1492604019	 565727018	 165738.
12:13:39  182 183	 1492604019	 727361524	 161634.
12:13:39  183 184	 1492604019	 888927166	 161566.
12:13:40  184 185	 1492604020	 54791115	 165864.
12:13:40  185 186	 1492604020	 216281662	 161490.
12:13:40  186 187	 1492604020	 353376071	 137095.
12:13:40  187 188	 1492604020	 514911917	 161536.
12:13:40  188 189	 1492604020	 680679957	 165768.
12:13:40  189 190	 1492604020	 842437026	 161757.
12:13:41  190 191	 1492604021	 8348088	 165911.
12:13:41  191 192	 1492604021	 169893895	 161546.
12:13:41  192 193	 1492604021	 335657129	 165763.
12:13:41  193 194	 1492604021	 468706678	 133049.
12:13:41  194 195	 1492604021	 634426877	 165721.
12:13:41  195 196	 1492604021	 796192830	 161766.
12:13:41  196 197	 1492604021	 961982924	 165790.
12:13:42  197 198	 1492604022	 123861116	 161878.
12:13:42  198 199	 1492604022	 285573357	 161712.
12:13:42  199 200	 1492604022	 451326486	 165753.
12:13:42  200 201	 1492604022	 584359473	 133033.
12:13:42  201 202	 1492604022	 750050958	 165692.
12:13:42  202 203	 1492604022	 911988583	 161937.
12:13:43  203 204	 1492604023	 77682655	 165694.
12:13:43  204 205	 1492604023	 239330224	 161648.
12:13:43  205 206	 1492604023	 405179627	 165849.
12:13:43  206 207	 1492604023	 566857436	 161678.
12:13:43  207 208	 1492604023	 732721313	 165864.
12:13:43  208 209	 1492604023	 865634626	 132913.
12:13:44  209 210	 1492604024	 27334884	 161701.
12:13:44  210 211	 1492604024	 193185412	 165850.
12:13:44  211 212	 1492604024	 354923528	 161738.
12:13:44  212 213	 1492604024	 520657907	 165735.
12:13:44  213 214	 1492604024	 682116480	 161458.
12:13:44  214 215	 1492604024	 847827144	 165711.
12:13:44  215 216	 1492604024	 980806708	 132979.
12:13:45  216 217	 1492604025	 142542969	 161737.
12:13:45  217 218	 1492604025	 308343097	 165800.
12:13:45  218 219	 1492604025	 470199760	 161856.
12:13:45  219 220	 1492604025	 635924928	 165726.
12:13:45  220 221	 1492604025	 797587007	 161662.
12:13:45  221 222	 1492604025	 963380698	 165793.
12:13:46  222 223	 1492604026	 96433840	 133054.
12:13:46  223 224	 1492604026	 262186708	 165752.
12:13:46  224 225	 1492604026	 423836160	 161650.
12:13:46  225 226	 1492604026	 585307940	 161472.
12:13:46  226 227	 1492604026	 751019600	 165711.
12:13:46  227 228	 1492604026	 912851854	 161833.
12:13:47  228 229	 1492604027	 74379844	 161528.
12:13:47  229 230	 1492604027	 211496218	 137116.
12:13:47  230 231	 1492604027	 373294095	 161798.
12:13:47  231 232	 1492604027	 535154942	 161861.
12:13:47  232 233	 1492604027	 700803449	 165648.
12:13:47  233 234	 1492604027	 862452099	 161649.
12:13:48  234 235	 1492604028	 28266493	 165814.
12:13:48  235 236	 1492604028	 161205450	 132939.
12:13:48  236 237	 1492604028	 326971278	 165766.
12:13:48  237 238	 1492604028	 488647579	 161676.
12:13:48  238 239	 1492604028	 654517231	 165870.
12:13:48  239 240	 1492604028	 816263765	 161746.
12:13:48  240 241	 1492604028	 978149386	 161886.
12:13:49  241 242	 1492604029	 144081444	 165932.
12:13:49  242 243	 1492604029	 277041638	 132960.
12:13:49  243 244	 1492604029	 442738116	 165697.
12:13:49  244 245	 1492604029	 604498217	 161760.
12:13:49  245 246	 1492604029	 770176483	 165678.
12:13:49  246 247	 1492604029	 932874175	 162698.
12:13:50  247 248	 1492604030	 90520412	 157646.
12:13:50  248 249	 1492604030	 256165902	 165646.
12:13:50  249 250	 1492604030	 417814681	 161648.
12:13:50  250 251	 1492604030	 550895429	 133081.
12:13:50  251 252	 1492604030	 716749135	 165854.
12:13:50  252 253	 1492604030	 878526675	 161777.
12:13:51  253 254	 1492604031	 44309680	 165783.
12:13:51  254 255	 1492604031	 205917669	 161608.
12:13:51  255 256	 1492604031	 371588390	 165671.
12:13:51  256 257	 1492604031	 533260075	 161672.
12:13:51  257 258	 1492604031	 670318567	 137058.
12:13:51  258 259	 1492604031	 832075360	 161757.
12:13:51  259 260	 1492604031	 993857776	 161783.
12:13:52  260 261	 1492604032	 159471151	 165613.
12:13:52  261 262	 1492604032	 321152191	 161681.
12:13:52  262 263	 1492604032	 486973240	 165821.
12:13:52  263 264	 1492604032	 648621333	 161648.
12:13:52  264 265	 1492604032	 785765382	 137144.
12:13:52  265 266	 1492604032	 947552659	 161787.
12:13:53  266 267	 1492604033	 113480895	 165929.
12:13:53  267 268	 1492604033	 274967485	 161486.
12:13:53  268 269	 1492604033	 436452320	 161485.
12:13:53  269 270	 1492604033	 602195557	 165743.
12:13:53  270 271	 1492604033	 764027440	 161832.
12:13:53  271 272	 1492604033	 901092074	 137065.
12:13:54  272 273	 1492604034	 62728877	 161637.
12:13:54  273 274	 1492604034	 228702371	 165973.
12:13:54  274 275	 1492604034	 390449599	 161747.
12:13:54  275 276	 1492604034	 556222384	 165773.
12:13:54  276 277	 1492604034	 718065629	 161843.
12:13:54  277 278	 1492604034	 879831619	 161766.
12:13:55  278 279	 1492604035	 17010285	 137179.
12:13:55  279 280	 1492604035	 178775768	 161765.
12:13:55  280 281	 1492604035	 344388004	 165613.
12:13:55  281 282	 1492604035	 505885854	 161498.
12:13:55  282 283	 1492604035	 671446568	 165560.
12:13:55  283 284	 1492604035	 832961549	 161515.
12:13:55  284 285	 1492604035	 965907982	 132947.
12:13:56  285 286	 1492604036	 131457315	 165549.
12:13:56  286 287	 1492604036	 292813417	 161356.
12:13:56  287 288	 1492604036	 454262155	 161449.
12:13:56  288 289	 1492604036	 620062215	 165800.
12:13:56  289 290	 1492604036	 781602582	 161540.
12:13:56  290 291	 1492604036	 914605292	 133003.
12:13:57  291 292	 1492604037	 80389644	 165784.
12:13:57  292 293	 1492604037	 242088918	 161700.
12:13:57  293 294	 1492604037	 407656593	 165567.
12:13:57  294 295	 1492604037	 569324964	 161669.
12:13:57  295 296	 1492604037	 735303322	 165978.
12:13:57  296 297	 1492604037	 897014676	 161711.
12:13:58  297 298	 1492604038	 33944353	 136930.
12:13:58  298 299	 1492604038	 195385562	 161441.
12:13:58  299 300	 1492604038	 361258030	 165873.
12:13:58  300 301	 1492604038	 523090802	 161833.
12:13:58  301 302	 1492604038	 684498172	 161407.
12:13:58  302 303	 1492604038	 850346030	 165848.
12:13:59  303 304	 1492604039	 12053231	 161707.
12:13:59  304 305	 1492604039	 145206476	 133153.
12:13:59  305 306	 1492604039	 310999737	 165793.
12:13:59  306 307	 1492604039	 472566507	 161567.
12:13:59  307 308	 1492604039	 638275708	 165709.
12:13:59  308 309	 1492604039	 799960983	 161686.
12:13:59  309 310	 1492604039	 965605208	 165644.
12:14:00  310 311	 1492604040	 127419772	 161815.
12:14:00  311 312	 1492604040	 260569270	 133149.
12:14:00  312 313	 1492604040	 426065070	 165496.
12:14:00  313 314	 1492604040	 587805485	 161740.
12:14:00  314 315	 1492604040	 753656086	 165851.
12:14:00  315 316	 1492604040	 915197897	 161542.
12:14:01  316 317	 1492604041	 52212268	 137014.
12:14:01  317 318	 1492604041	 213970768	 161758.
12:14:01  318 319	 1492604041	 379873158	 165903.
12:14:01  319 320	 1492604041	 541676710	 161803.
12:14:01  320 321	 1492604041	 703410104	 161734.
12:14:01  321 322	 1492604041	 869387472	 165977.
12:14:02  322 323	 1492604042	 31276405	 161889.
12:14:02  323 324	 1492604042	 197141022	 165865.
12:14:02  324 325	 1492604042	 330237689	 133096.
12:14:02  325 326	 1492604042	 495990910	 165754.
12:14:02  326 327	 1492604042	 657814951	 161824.
12:14:02  327 328	 1492604042	 823453764	 165638.
12:14:02  328 329	 1492604042	 985482872	 162030.
12:14:03  329 330	 1492604043	 151396030	 165913.
12:14:03  330 331	 1492604043	 313251305	 161855.
12:14:03  331 332	 1492604043	 446308428	 133057.
12:14:03  332 333	 1492604043	 612172110	 165864.
12:14:03  333 334	 1492604043	 774042980	 161871.
12:14:03  334 335	 1492604043	 939780334	 165737.
12:14:04  335 336	 1492604044	 101584441	 161804.
12:14:04  336 337	 1492604044	 267506960	 165923.
12:14:04  337 338	 1492604044	 400562000	 133055.
12:14:04  338 339	 1492604044	 562464621	 161902.
12:14:04  339 340	 1492604044	 728112816	 165649.
12:14:04  340 341	 1492604044	 890502582	 162389.
12:14:05  341 342	 1492604045	 52705138	 162203.
12:14:05  342 343	 1492604045	 214492579	 161787.
12:14:05  343 344	 1492604045	 376374171	 161882.
12:14:05  344 345	 1492604045	 542268221	 165894.
12:14:05  345 346	 1492604045	 704042957	 161775.
12:14:05  346 347	 1492604045	 866143313	 162100.
12:14:05  347 348	 1492604046	 3457549	 137314.
12:14:06  348 349	 1492604046	 165156435	 161699.
12:14:06  349 350	 1492604046	 326957060	 161801.
12:14:06  350 351	 1492604046	 492935438	 165978.
12:14:06  351 352	 1492604046	 654810814	 161876.
12:14:06  352 353	 1492604046	 834312923	 179502.
12:14:06  353 354	 1492604046	 975830687	 141518.
12:14:07  354 355	 1492604047	 137600597	 161769.
12:14:07  355 356	 1492604047	 303529532	 165929.
12:14:07  356 357	 1492604047	 465303182	 161774.
12:14:07  357 358	 1492604047	 602472831	 137170.
12:14:07  358 359	 1492604047	 764363944	 161891.
12:14:07  359 360	 1492604047	 930114193	 165750.
12:14:08  360 361	 1492604048	 91881871	 161768.
12:14:08  361 362	 1492604048	 257841972	 165960.
12:14:08  362 363	 1492604048	 419601915	 161760.
12:14:08  363 364	 1492604048	 585634395	 166032.
12:14:08  364 365	 1492604048	 718898237	 133264.
12:14:08  365 366	 1492604048	 884837351	 165939.
12:14:09  366 367	 1492604049	 46677414	 161840.
12:14:09  367 368	 1492604049	 212756082	 166079.
12:14:09  368 369	 1492604049	 374760584	 162004.
12:14:09  369 370	 1492604049	 540498121	 165738.
12:14:09  370 371	 1492604049	 702504626	 162006.
12:14:09  371 372	 1492604049	 868315047	 165811.
12:14:09  372 373	 1492604050	 1247359	 132932.
12:14:10  373 374	 1492604050	 162989610	 161742.
12:14:10  374 375	 1492604050	 328718295	 165729.
12:14:10  375 376	 1492604050	 490335865	 161618.
12:14:10  376 377	 1492604050	 656074498	 165738.
12:14:10  377 378	 1492604050	 817787646	 161713.
12:14:10  378 379	 1492604050	 950837074	 133050.
12:14:11  379 380	 1492604051	 116522992	 165686.
12:14:11  380 381	 1492604051	 278243260	 161720.
12:14:11  381 382	 1492604051	 440046601	 161803.
12:14:11  382 383	 1492604051	 605785776	 165739.
12:14:11  383 384	 1492604051	 767431129	 161646.
12:14:11  384 385	 1492604051	 904394712	 136963.
12:14:12  385 386	 1492604052	 66166018	 161772.
12:14:12  386 387	 1492604052	 227874290	 161708.
12:14:12  387 388	 1492604052	 393720343	 165846.
12:14:12  388 389	 1492604052	 555403297	 161683.
12:14:12  389 390	 1492604052	 721171224	 165768.
12:14:12  390 391	 1492604052	 882860809	 161690.
12:14:13  391 392	 1492604053	 19867525	 137006.
12:14:13  392 393	 1492604053	 181556868	 161690.
12:14:13  393 394	 1492604053	 347272105	 165715.
12:14:13  394 395	 1492604053	 508883782	 161611.
12:14:13  395 396	 1492604053	 674366159	 165483.
12:14:13  396 397	 1492604053	 835929388	 161563.
12:14:13  397 398	 1492604053	 968793917	 132865.
12:14:14  398 399	 1492604054	 134706792	 165913.
12:14:14  399 400	 1492604054	 296217506	 161510.
12:14:14  400 401	 1492604054	 461797739	 165580.
12:14:14  401 402	 1492604054	 623197028	 161400.
12:14:14  402 403	 1492604054	 788564208	 165367.
12:14:14  403 404	 1492604054	 921347297	 132783.
12:14:15  404 405	 1492604055	 87010570	 165663.
12:14:15  405 406	 1492604055	 248572239	 161562.
12:14:15  406 407	 1492604055	 414156944	 165585.
12:14:15  407 408	 1492604055	 575579859	 161423.
12:14:15  408 409	 1492604055	 708593345	 133013.
12:14:15  409 410	 1492604055	 874363366	 165770.
12:14:16  410 411	 1492604056	 35911894	 161549.
12:14:16  411 412	 1492604056	 201529991	 165618.
12:14:16  412 413	 1492604056	 363129097	 161599.
12:14:16  413 414	 1492604056	 528877285	 165748.
12:14:16  414 415	 1492604056	 661590920	 132714.
12:14:16  415 416	 1492604056	 822849246	 161258.
12:14:16  416 417	 1492604056	 988277668	 165428.
12:14:17  417 418	 1492604057	 149938300	 161661.
12:14:17  418 419	 1492604057	 315492338	 165554.
12:14:17  419 420	 1492604057	 448329547	 132837.
12:14:17  420 421	 1492604057	 610319374	 161990.
12:14:17  421 422	 1492604057	 776009170	 165690.
12:14:17  422 423	 1492604057	 937683223	 161674.
12:14:18  423 424	 1492604058	 99583569	 161900.
12:14:18  424 425	 1492604058	 265246311	 165663.
12:14:18  425 426	 1492604058	 426844882	 161599.
12:14:18  426 427	 1492604058	 563909105	 137064.
12:14:18  427 428	 1492604058	 725710031	 161801.
12:14:18  428 429	 1492604058	 891427709	 165717.
12:14:19  429 430	 1492604059	 53272771	 161845.
12:14:19  430 431	 1492604059	 219126192	 165854.
12:14:19  431 432	 1492604059	 380883233	 161757.
12:14:19  432 433	 1492604059	 546698934	 165816.
12:14:19  433 434	 1492604059	 679657595	 132958.
12:14:19  434 435	 1492604059	 845640887	 165984.
12:14:20  435 436	 1492604060	 7421296	 161780.
12:14:20  436 437	 1492604060	 169283177	 161862.
12:14:20  437 438	 1492604060	 335275670	 165993.
12:14:20  438 439	 1492604060	 497185775	 161910.
12:14:20  439 440	 1492604060	 663008354	 165822.
12:14:20  440 441	 1492604060	 824903738	 161895.
12:14:20  441 442	 1492604060	 962132133	 137229.
12:14:21  442 443	 1492604061	 123960966	 161829.
12:14:21  443 444	 1492604061	 285835186	 161874.
12:14:21  444 445	 1492604061	 451637281	 165802.
12:14:21  445 446	 1492604061	 613405707	 161768.
12:14:21  446 447	 1492604061	 779125724	 165720.
12:14:21  447 448	 1492604061	 941017842	 161893.
12:14:22  448 449	 1492604062	 78195222	 137177.
12:14:22  449 450	 1492604062	 240003376	 161808.
12:14:22  450 451	 1492604062	 405807555	 165804.
12:14:22  451 452	 1492604062	 567457105	 161650.
12:14:22  452 453	 1492604062	 729194784	 161737.
12:14:22  453 454	 1492604062	 895011274	 165817.
12:14:23  454 455	 1492604063	 56715584	 161704.
12:14:23  455 456	 1492604063	 222626913	 165912.
12:14:23  456 457	 1492604063	 355736808	 133110.
12:14:23  457 458	 1492604063	 521549167	 165812.
12:14:23  458 459	 1492604063	 684008426	 162459.
12:14:23  459 460	 1492604063	 841660665	 157652.
12:14:24  460 461	 1492604064	 7348697	 165688.
12:14:24  461 462	 1492604064	 169153562	 161805.
12:14:24  462 463	 1492604064	 334711105	 165558.
12:14:24  463 464	 1492604064	 496306592	 161595.
12:14:24  464 465	 1492604064	 629308069	 133002.
12:14:24  465 466	 1492604064	 795043977	 165736.
12:14:24  466 467	 1492604064	 956800233	 161756.
12:14:25  467 468	 1492604065	 122591399	 165791.
12:14:25  468 469	 1492604065	 284283860	 161693.
12:14:25  469 470	 1492604065	 450233543	 165949.
12:14:25  470 471	 1492604065	 612048245	 161815.
12:14:25  471 472	 1492604065	 749230019	 137182.
12:14:25  472 473	 1492604065	 911054365	 161824.
12:14:26  473 474	 1492604066	 72809423	 161755.
12:14:26  474 475	 1492604066	 238631614	 165822.
12:14:26  475 476	 1492604066	 400437310	 161806.
12:14:26  476 477	 1492604066	 566348316	 165911.
12:14:26  477 478	 1492604066	 724507895	 158160.
12:14:26  478 479	 1492604066	 890484768	 165976.
12:14:27  479 480	 1492604067	 52298758	 161814.
12:14:27  480 481	 1492604067	 185559811	 133262.
12:14:27  481 482	 1492604067	 351280367	 165720.
12:14:27  482 483	 1492604067	 517008223	 165728.
12:14:27  483 484	 1492604067	 678827268	 161819.
12:14:27  484 485	 1492604067	 840666073	 161839.
12:14:28  485 486	 1492604068	 6759617	 166093.
12:14:28  486 487	 1492604068	 168537927	 161779.
12:14:28  487 488	 1492604068	 334376226	 165838.
12:14:28  488 489	 1492604068	 467599867	 133224.
12:14:28  489 490	 1492604068	 633307973	 165708.
12:14:28  490 491	 1492604068	 795116250	 161808.
12:14:28  491 492	 1492604068	 957004593	 161888.
12:14:29  492 493	 1492604069	 122726357	 165722.
12:14:29  493 494	 1492604069	 284457345	 161731.
12:14:29  494 495	 1492604069	 450324037	 165867.
12:14:29  495 496	 1492604069	 612148552	 161824.
12:14:29  496 497	 1492604069	 749282123	 137134.
12:14:29  497 498	 1492604069	 910973701	 161691.
12:14:30  498 499	 1492604070	 77287443	 166314.
12:14:30  499 500	 1492604070	 234992165	 157705.
12:14:30  500 501	 1492604070	 400820432	 165828.
12:14:30  501 502	 1492604070	 562752402	 161932.
12:14:30  502 503	 1492604070	 728719726	 165967.
12:14:30  503 504	 1492604070	 890749469	 162030.
12:14:31  504 505	 1492604071	 52932128	 162183.
12:14:31  505 506	 1492604071	 218857833	 165926.
12:14:31  506 507	 1492604071	 380708880	 161851.
12:14:31  507 508	 1492604071	 517965913	 137257.
12:14:31  508 509	 1492604071	 679936588	 161970.
12:14:31  509 510	 1492604071	 841685423	 161749.
12:14:32  510 511	 1492604072	 7443135	 165758.
12:14:32  511 512	 1492604072	 169177342	 161734.
12:14:32  512 513	 1492604072	 330731422	 161554.
12:14:32  513 514	 1492604072	 496705860	 165975.
12:14:32  514 515	 1492604072	 658562834	 161857.
12:14:32  515 516	 1492604072	 795770996	 137208.
12:14:32  516 517	 1492604072	 957704903	 161934.
12:14:33  517 518	 1492604073	 123709577	 166004.
12:14:33  518 519	 1492604073	 285386267	 161677.
12:14:33  519 520	 1492604073	 451244302	 165858.
12:14:33  520 521	 1492604073	 612939710	 161695.
12:14:33  521 522	 1492604073	 778741267	 165802.
12:14:33  522 523	 1492604073	 940329239	 161588.
12:14:34  523 524	 1492604074	 73585880	 133257.
12:14:34  524 525	 1492604074	 239332356	 165746.
12:14:34  525 526	 1492604074	 400883155	 161551.
12:14:34  526 527	 1492604074	 566726722	 165843.
12:14:34  527 528	 1492604074	 728496796	 161771.
12:14:34  528 529	 1492604074	 894386032	 165889.
12:14:35  529 530	 1492604075	 56359900	 161974.
12:14:35  530 531	 1492604075	 218225320	 161865.
12:14:35  531 532	 1492604075	 351382379	 133157.
12:14:35  532 533	 1492604075	 517146960	 165765.
12:14:35  533 534	 1492604075	 678866771	 161719.
12:14:35  534 535	 1492604075	 840679359	 161813.
12:14:36  535 536	 1492604076	 6603089	 165924.
12:14:36  536 537	 1492604076	 168457374	 161854.
12:14:36  537 538	 1492604076	 334309741	 165852.
12:14:36  538 539	 1492604076	 496027061	 161718.
12:14:36  539 540	 1492604076	 628990514	 132963.
12:14:36  540 541	 1492604076	 794980764	 165990.
12:14:36  541 542	 1492604076	 956934874	 161955.
12:14:37  542 543	 1492604077	 123092235	 166157.
12:14:37  543 544	 1492604077	 284988729	 161896.
12:14:37  544 545	 1492604077	 447092678	 162104.
12:14:37  545 546	 1492604077	 608895103	 161803.
12:14:37  546 547	 1492604077	 774814474	 165919.
12:14:37  547 548	 1492604077	 936848387	 162034.
12:14:38  548 549	 1492604078	 102768205	 165920.
12:14:38  549 550	 1492604078	 236018078	 133250.
12:14:38  550 551	 1492604078	 397750302	 161732.
12:14:38  551 552	 1492604078	 563519648	 165769.
12:14:38  552 553	 1492604078	 725377726	 161858.
12:14:38  553 554	 1492604078	 891449869	 166073.
12:14:39  554 555	 1492604079	 53035143	 161585.
12:14:39  555 556	 1492604079	 219005389	 165970.
12:14:39  556 557	 1492604079	 380818418	 161813.
12:14:39  557 558	 1492604079	 513899104	 133081.
12:14:39  558 559	 1492604079	 679668995	 165770.
12:14:39  559 560	 1492604079	 841485661	 161816.
12:14:40  560 561	 1492604080	 7602646	 166117.
12:14:40  561 562	 1492604080	 169358024	 161756.
12:14:40  562 563	 1492604080	 335275722	 165917.
12:14:40  563 564	 1492604080	 497083448	 161808.
12:14:40  564 565	 1492604080	 658984781	 161902.
12:14:40  565 566	 1492604080	 817631556	 158646.
12:14:40  566 567	 1492604080	 983593393	 165962.
12:14:41  567 568	 1492604081	 116850442	 133257.
12:14:41  568 569	 1492604081	 282579114	 165729.
12:14:41  569 570	 1492604081	 444245636	 161666.
12:14:41  570 571	 1492604081	 610196391	 165951.
12:14:41  571 572	 1492604081	 768349093	 158153.
12:14:41  572 573	 1492604081	 930371569	 162022.
12:14:42  573 574	 1492604082	 92005701	 161635.
12:14:42  574 575	 1492604082	 253564480	 161558.
12:14:42  575 576	 1492604082	 390713757	 137149.
12:14:42  576 577	 1492604082	 552521937	 161809.
12:14:42  577 578	 1492604082	 718430255	 165908.
12:14:42  578 579	 1492604082	 880270979	 161841.
12:14:43  579 580	 1492604083	 42036955	 161766.
12:14:43  580 581	 1492604083	 207839478	 165802.
12:14:43  581 582	 1492604083	 369587800	 161749.
12:14:43  582 583	 1492604083	 535322617	 165734.
12:14:43  583 584	 1492604083	 668215552	 132893.
12:14:43  584 585	 1492604083	 834085132	 165870.
12:14:43  585 586	 1492604083	 995899696	 161814.
12:14:44  586 587	 1492604084	 157597186	 161698.
12:14:44  587 588	 1492604084	 323274711	 165677.
12:14:44  588 589	 1492604084	 484842520	 161568.
12:14:44  589 590	 1492604084	 621773112	 136931.
12:14:44  590 591	 1492604084	 783235900	 161463.
12:14:44  591 592	 1492604084	 949190104	 165954.
12:14:45  592 593	 1492604085	 110675202	 161485.
12:14:45  593 594	 1492604085	 272353334	 161678.
12:14:45  594 595	 1492604085	 438081459	 165728.
12:14:45  595 596	 1492604085	 571040815	 132960.
12:14:45  596 597	 1492604085	 736809582	 165768.
12:14:45  597 598	 1492604085	 898369082	 161560.
12:14:46  598 599	 1492604086	 60167261	 161798.
12:14:46  599 600	 1492604086	 226073279	 165906.
12:14:46  600 601	 1492604086	 387756189	 161683.
12:14:46  601 602	 1492604086	 553453600	 165697.
12:14:46  602 603	 1492604086	 686474819	 133022.
12:14:46  603 604	 1492604086	 848707735	 162232.
12:14:47  604 605	 1492604087	 10668384	 161961.
12:14:47  605 606	 1492604087	 168505317	 157837.
12:14:47  606 607	 1492604087	 334412270	 165907.
12:14:47  607 608	 1492604087	 496048743	 161636.
12:14:47  608 609	 1492604087	 661667129	 165619.
12:14:47  609 610	 1492604087	 794447553	 132780.
12:14:47  610 611	 1492604087	 959921883	 165475.
12:14:48  611 612	 1492604088	 121847081	 161925.
12:14:48  612 613	 1492604088	 283261920	 161415.
12:14:48  613 614	 1492604088	 448922996	 165661.
12:14:48  614 615	 1492604088	 610586984	 161664.
12:14:48  615 616	 1492604088	 776409030	 165822.
12:14:48  616 617	 1492604088	 909384629	 132975.
12:14:49  617 618	 1492604089	 75187736	 165803.
12:14:49  618 619	 1492604089	 236948546	 161761.
12:14:49  619 620	 1492604089	 402875440	 165927.
12:14:49  620 621	 1492604089	 564449462	 161574.
12:14:49  621 622	 1492604089	 726257101	 161808.
12:14:49  622 623	 1492604089	 888355500	 162098.
12:14:50  623 624	 1492604090	 21305531	 132950.
12:14:50  624 625	 1492604090	 187182297	 165877.
12:14:50  625 626	 1492604090	 348533020	 161351.
12:14:50  626 627	 1492604090	 513823122	 165290.
12:14:50  627 628	 1492604090	 675588520	 161765.
12:14:50  628 629	 1492604090	 808481545	 132893.
12:14:50  629 630	 1492604090	 974146215	 165665.
12:14:51  630 631	 1492604091	 135719011	 161573.
12:14:51  631 632	 1492604091	 297011665	 161292.
12:14:51  632 633	 1492604091	 458779164	 161768.
12:14:51  633 634	 1492604091	 595483107	 136704.
12:14:51  634 635	 1492604091	 756711213	 161228.
12:14:51  635 636	 1492604091	 923246177	 166535.
12:14:52  636 637	 1492604092	 80717503	 157471.
12:14:52  637 638	 1492604092	 242222860	 161506.
12:14:52  638 639	 1492604092	 403835095	 161612.
12:14:52  639 640	 1492604092	 569647332	 165812.
12:14:52  640 641	 1492604092	 702634259	 132987.
12:14:52  641 642	 1492604092	 868279735	 165645.
12:14:53  642 643	 1492604093	 29850207	 161571.
12:14:53  643 644	 1492604093	 195458087	 165608.
12:14:53  644 645	 1492604093	 356880576	 161422.
12:14:53  645 646	 1492604093	 489595248	 132715.
12:14:53  646 647	 1492604093	 655338942	 165744.
12:14:53  647 648	 1492604093	 816856787	 161518.
12:14:53  648 649	 1492604093	 982583258	 165726.
12:14:54  649 650	 1492604094	 144212009	 161629.
12:14:54  650 651	 1492604094	 309905853	 165694.
12:14:54  651 652	 1492604094	 442625860	 132720.
12:14:54  652 653	 1492604094	 608359555	 165733.
12:14:54  653 654	 1492604094	 770059298	 161700.
12:14:54  654 655	 1492604094	 931711805	 161653.
12:14:55  655 656	 1492604095	 97419460	 165707.
12:14:55  656 657	 1492604095	 259126798	 161708.
12:14:55  657 658	 1492604095	 424922520	 165795.
12:14:55  658 659	 1492604095	 558033992	 133112.
12:14:55  659 660	 1492604095	 719883407	 161849.
12:14:55  660 661	 1492604095	 885578606	 165695.
12:14:56  661 662	 1492604096	 47199468	 161621.
12:14:56  662 663	 1492604096	 212750200	 165551.
12:14:56  663 664	 1492604096	 374372191	 161622.
12:14:56  664 665	 1492604096	 507364261	 132992.
12:14:56  665 666	 1492604096	 673182129	 165818.
12:14:56  666 667	 1492604096	 831197684	 158015.
12:14:56  667 668	 1492604096	 996862898	 165666.
12:14:57  668 669	 1492604097	 158349622	 161486.
12:14:57  669 670	 1492604097	 323927400	 165578.
12:14:57  670 671	 1492604097	 485523874	 161597.
12:14:57  671 672	 1492604097	 622473569	 136949.
12:14:57  672 673	 1492604097	 784052041	 161579.
12:14:57  673 674	 1492604097	 949712303	 165660.
12:14:58  674 675	 1492604098	 111332028	 161620.
12:14:58  675 676	 1492604098	 272916866	 161585.
12:14:58  676 677	 1492604098	 409897035	 136980.
12:14:58  677 678	 1492604098	 571649231	 161752.
12:14:58  678 679	 1492604098	 737195030	 165546.
12:14:58  679 680	 1492604098	 898575693	 161380.
12:14:59  680 681	 1492604099	 60052001	 161477.
12:14:59  681 682	 1492604099	 225836566	 165784.
12:14:59  682 683	 1492604099	 358909592	 133073.
12:14:59  683 684	 1492604099	 524690607	 165781.
12:14:59  684 685	 1492604099	 686223050	 161533.
12:14:59  685 686	 1492604099	 851930705	 165708.
12:15:00  686 687	 1492604100	 13793321	 161862.
12:15:00  687 688	 1492604100	 179587197	 165794.
12:15:00  688 689	 1492604100	 341182464	 161595.
12:15:00  689 690	 1492604100	 478304140	 137122.
12:15:00  690 691	 1492604100	 639765296	 161461.
12:15:00  691 692	 1492604100	 801554648	 161789.
12:15:00  692 693	 1492604100	 967382201	 165828.
12:15:01  693 694	 1492604101	 128924585	 161542.
12:15:01  694 695	 1492604101	 294813525	 165889.
12:15:01  695 696	 1492604101	 427881495	 133068.
12:15:01  696 697	 1492604101	 593743783	 165863.
12:15:01  697 698	 1492604101	 755526616	 161782.
12:15:01  698 699	 1492604101	 921264601	 165738.
12:15:02  699 700	 1492604102	 83081201	 161817.
12:15:02  700 701	 1492604102	 245096506	 162015.
12:15:02  701 702	 1492604102	 410854458	 165758.
12:15:02  702 703	 1492604102	 543916785	 133062.
12:15:02  703 704	 1492604102	 709962630	 166046.
12:15:02  704 705	 1492604102	 871736224	 161774.
12:15:03  705 706	 1492604103	 37886463	 166150.
12:15:03  706 707	 1492604103	 199746392	 161860.
12:15:03  707 708	 1492604103	 365737545	 165991.
12:15:03  708 709	 1492604103	 527592294	 161855.
12:15:03  709 710	 1492604103	 664692862	 137101.
12:15:03  710 711	 1492604103	 826538385	 161845.
12:15:03  711 712	 1492604103	 992611092	 166073.
12:15:04  712 713	 1492604104	 154515134	 161904.
12:15:04  713 714	 1492604104	 320413068	 165898.
12:15:04  714 715	 1492604104	 482217779	 161805.
12:15:04  715 716	 1492604104	 648092145	 165874.
12:15:04  716 717	 1492604104	 781230942	 133139.
12:15:04  717 718	 1492604104	 947174094	 165943.
12:15:05  718 719	 1492604105	 108935446	 161761.
12:15:05  719 720	 1492604105	 274737697	 165802.
12:15:05  720 721	 1492604105	 436803121	 162066.
12:15:05  721 722	 1492604105	 598591288	 161788.
12:15:05  722 723	 1492604105	 764387508	 165796.
12:15:05  723 724	 1492604105	 897525500	 133138.
12:15:06  724 725	 1492604106	 63484132	 165959.
12:15:06  725 726	 1492604106	 225336246	 161852.
12:15:06  726 727	 1492604106	 391037408	 165701.
12:15:06  727 728	 1492604106	 553117302	 162080.
12:15:06  728 729	 1492604106	 715180496	 162063.
12:15:06  729 730	 1492604106	 881074270	 165894.
12:15:07  730 731	 1492604107	 42973795	 161900.
12:15:07  731 732	 1492604107	 175929326	 132955.
12:15:07  732 733	 1492604107	 341811486	 165882.
12:15:07  733 734	 1492604107	 503656884	 161846.
12:15:07  734 735	 1492604107	 669692981	 166036.
12:15:07  735 736	 1492604107	 831747651	 162054.
12:15:07  736 737	 1492604107	 993528760	 161781.
12:15:08  737 738	 1492604108	 159659733	 166131.
12:15:08  738 739	 1492604108	 321405784	 161747.
12:15:08  739 740	 1492604108	 454598411	 133192.
12:15:08  740 741	 1492604108	 620316292	 165718.
12:15:08  741 742	 1492604108	 779172548	 158856.
12:15:08  742 743	 1492604108	 941029510	 161857.
12:15:09  743 744	 1492604109	 106820549	 165791.
12:15:09  744 745	 1492604109	 268681354	 161861.
12:15:09  745 746	 1492604109	 434516812	 165836.
12:15:09  746 747	 1492604109	 596262647	 161745.
12:15:09  747 748	 1492604109	 733366807	 137105.
12:15:09  748 749	 1492604109	 895182210	 161815.
12:15:10  749 750	 1492604110	 57040428	 161858.
12:15:10  750 751	 1492604110	 222827400	 165787.
12:15:10  751 752	 1492604110	 384700330	 161873.
12:15:10  752 753	 1492604110	 550701028	 166001.
12:15:10  753 754	 1492604110	 712651658	 161950.
12:15:10  754 755	 1492604110	 878591447	 165940.
12:15:11  755 756	 1492604111	 11573010	 132982.
12:15:11  756 757	 1492604111	 173459047	 161886.
12:15:11  757 758	 1492604111	 339254783	 165795.
12:15:11  758 759	 1492604111	 500992533	 161738.
12:15:11  759 760	 1492604111	 666790808	 165799.
12:15:11  760 761	 1492604111	 828627990	 161837.
12:15:11  761 762	 1492604111	 994441330	 165813.
12:15:12  762 763	 1492604112	 127529605	 133088.
12:15:12  763 764	 1492604112	 293500766	 165971.
12:15:12  764 765	 1492604112	 455169569	 161669.
12:15:12  765 766	 1492604112	 620974841	 165806.
12:15:12  766 767	 1492604112	 782666612	 161691.
12:15:12  767 768	 1492604112	 948508813	 165843.
12:15:13  768 769	 1492604113	 110692361	 162183.
12:15:13  769 770	 1492604113	 243736863	 133045.
12:15:13  770 771	 1492604113	 405605850	 161869.
12:15:13  771 772	 1492604113	 571484941	 165879.
12:15:13  772 773	 1492604113	 733331674	 161846.
12:15:13  773 774	 1492604113	 895130931	 161800.
12:15:14  774 775	 1492604114	 61054894	 165924.
12:15:14  775 776	 1492604114	 219081193	 158026.
12:15:14  776 777	 1492604114	 384809705	 165728.
12:15:14  777 778	 1492604114	 517779106	 132970.
12:15:14  778 779	 1492604114	 683613551	 165834.
12:15:14  779 780	 1492604114	 845286755	 161673.
12:15:15  780 781	 1492604115	 10957261	 165671.
12:15:15  781 782	 1492604115	 172792650	 161835.
12:15:15  782 783	 1492604115	 338712896	 165921.
12:15:15  783 784	 1492604115	 500516032	 161803.
12:15:15  784 785	 1492604115	 633571957	 133056.
12:15:15  785 786	 1492604115	 799303766	 165731.
12:15:15  786 787	 1492604115	 964947917	 165645.
12:15:16  787 788	 1492604116	 126706566	 161758.
12:15:16  788 789	 1492604116	 288393866	 161688.
12:15:16  789 790	 1492604116	 454406257	 166012.
12:15:16  790 791	 1492604116	 616347051	 161941.
12:15:16  791 792	 1492604116	 778092957	 161746.
12:15:16  792 793	 1492604116	 911588784	 133496.
12:15:17  793 794	 1492604117	 77451745	 165863.
12:15:17  794 795	 1492604117	 239330190	 161878.
12:15:17  795 796	 1492604117	 401039130	 161709.
12:15:17  796 797	 1492604117	 566795671	 165756.
12:15:17  797 798	 1492604117	 728614599	 161819.
12:15:17  798 799	 1492604117	 894453074	 165839.
12:15:18  799 800	 1492604118	 56203842	 161751.
12:15:18  800 801	 1492604118	 193375879	 137172.
12:15:18  801 802	 1492604118	 355232899	 161857.
12:15:18  802 803	 1492604118	 517079411	 161846.
12:15:18  803 804	 1492604118	 682920037	 165841.
12:15:18  804 805	 1492604118	 844728929	 161809.
12:15:19  805 806	 1492604119	 6467549	 161738.
12:15:19  806 807	 1492604119	 172329225	 165862.
12:15:19  807 808	 1492604119	 305429448	 133100.
12:15:19  808 809	 1492604119	 471294859	 165866.
12:15:19  809 810	 1492604119	 633105016	 161810.
12:15:19  810 811	 1492604119	 798939497	 165834.
12:15:19  811 812	 1492604119	 960820805	 161882.
12:15:20  812 813	 1492604120	 126886311	 166065.
12:15:20  813 814	 1492604120	 288851263	 161965.
12:15:20  814 815	 1492604120	 450748918	 161898.
12:15:20  815 816	 1492604120	 588046796	 137298.
12:15:20  816 817	 1492604120	 749815492	 161768.
12:15:20  817 818	 1492604120	 911879659	 162064.
12:15:21  818 819	 1492604121	 77921518	 166042.
12:15:21  819 820	 1492604121	 239896586	 161975.
12:15:21  820 821	 1492604121	 405839855	 165944.
12:15:21  821 822	 1492604121	 567743459	 161903.
12:15:21  822 823	 1492604121	 729591360	 161848.
12:15:21  823 824	 1492604121	 895493940	 165903.
12:15:22  824 825	 1492604122	 28479355	 132985.
12:15:22  825 826	 1492604122	 194214998	 165736.
12:15:22  826 827	 1492604122	 355964126	 161749.
12:15:22  827 828	 1492604122	 521929913	 165966.
12:15:22  828 829	 1492604122	 683589584	 161659.
12:15:22  829 830	 1492604122	 849482106	 165893.
12:15:22  830 831	 1492604122	 982627400	 133145.
12:15:23  831 832	 1492604123	 148526888	 165900.
12:15:23  832 833	 1492604123	 306773161	 158246.
12:15:23  833 834	 1492604123	 472608310	 165835.
12:15:23  834 835	 1492604123	 634508289	 161900.
12:15:23  835 836	 1492604123	 800542376	 166034.
12:15:23  836 837	 1492604123	 962399159	 161857.
12:15:24  837 838	 1492604124	 124318603	 161919.
12:15:24  838 839	 1492604124	 290123448	 165805.
12:15:24  839 840	 1492604124	 423260947	 133138.
12:15:24  840 841	 1492604124	 589013141	 165752.
12:15:24  841 842	 1492604124	 750782205	 161769.
12:15:24  842 843	 1492604124	 916847792	 166066.
12:15:25  843 844	 1492604125	 78610187	 161762.
12:15:25  844 845	 1492604125	 244506991	 165897.
12:15:25  845 846	 1492604125	 381821330	 137314.
12:15:25  846 847	 1492604125	 543944306	 162123.
12:15:25  847 848	 1492604125	 705723756	 161779.
12:15:25  848 849	 1492604125	 864394430	 158671.
12:15:26  849 850	 1492604126	 30471635	 166077.
12:15:26  850 851	 1492604126	 192349122	 161878.
12:15:26  851 852	 1492604126	 358481992	 166133.
12:15:26  852 853	 1492604126	 520634262	 162152.
12:15:26  853 854	 1492604126	 682443852	 161810.
12:15:26  854 855	 1492604126	 848463594	 166020.
12:15:27  855 856	 1492604127	 10248460	 161784.
12:15:27  856 857	 1492604127	 171929003	 161681.
12:15:27  857 858	 1492604127	 309220613	 137291.
12:15:27  858 859	 1492604127	 471172088	 161952.
12:15:27  859 860	 1492604127	 637423781	 166251.
12:15:27  860 861	 1492604127	 799195247	 161772.
12:15:27  861 862	 1492604127	 965165720	 165970.
12:15:28  862 863	 1492604128	 126850390	 161685.
12:15:28  863 864	 1492604128	 288963693	 162113.
12:15:28  864 865	 1492604128	 454765813	 165803.
12:15:28  865 866	 1492604128	 616640233	 161874.
12:15:28  866 867	 1492604128	 749781111	 133141.
12:15:28  867 868	 1492604128	 915749067	 165968.
12:15:29  868 869	 1492604129	 77679771	 161930.
12:15:29  869 870	 1492604129	 243519636	 165840.
12:15:29  870 871	 1492604129	 405551906	 162033.
12:15:29  871 872	 1492604129	 571522448	 165970.
12:15:29  872 873	 1492604129	 733456972	 161935.
12:15:29  873 874	 1492604129	 870689174	 137232.
12:15:30  874 875	 1492604130	 32400082	 161711.
12:15:30  875 876	 1492604130	 194217718	 161817.
12:15:30  876 877	 1492604130	 360142204	 165925.
12:15:30  877 878	 1492604130	 522014856	 161873.
12:15:30  878 879	 1492604130	 688102588	 166087.
12:15:30  879 880	 1492604130	 849966626	 161864.
12:15:31  880 881	 1492604131	 15694717	 165728.
12:15:31  881 882	 1492604131	 148885458	 133191.
12:15:31  882 883	 1492604131	 310755312	 161870.
12:15:31  883 884	 1492604131	 476632124	 165877.
12:15:31  884 885	 1492604131	 642529424	 165897.
12:15:31  885 886	 1492604131	 804421774	 161892.
12:15:31  886 887	 1492604131	 966259855	 161839.
12:15:32  887 888	 1492604132	 132051676	 165791.
12:15:32  888 889	 1492604132	 265188077	 133137.
12:15:32  889 890	 1492604132	 431101844	 165914.
12:15:32  890 891	 1492604132	 592893682	 161791.
12:15:32  891 892	 1492604132	 758615396	 165722.
12:15:32  892 893	 1492604132	 920516360	 161901.
12:15:33  893 894	 1492604133	 86336635	 165820.
12:15:33  894 895	 1492604133	 248017278	 161681.
12:15:33  895 896	 1492604133	 413804271	 165787.
12:15:33  896 897	 1492604133	 547035328	 133231.
12:15:33  897 898	 1492604133	 712770891	 165736.
12:15:33  898 899	 1492604133	 874539092	 161768.
12:15:34  899 900	 1492604134	 40344926	 165806.
12:15:34  900 901	 1492604134	 202108169	 161763.
12:15:34  901 902	 1492604134	 368067362	 165959.
12:15:34  902 903	 1492604134	 529830194	 161763.
12:15:34  903 904	 1492604134	 663072464	 133242.
12:15:34  904 905	 1492604134	 825080469	 162008.
12:15:34  905 906	 1492604134	 991041660	 165961.
12:15:35  906 907	 1492604135	 152861425	 161820.
12:15:35  907 908	 1492604135	 318861920	 166001.
12:15:35  908 909	 1492604135	 480726353	 161864.
12:15:35  909 910	 1492604135	 646685466	 165959.
12:15:35  910 911	 1492604135	 808483327	 161798.
12:15:35  911 912	 1492604135	 945773871	 137291.
12:15:36  912 913	 1492604136	 107489785	 161716.
12:15:36  913 914	 1492604136	 273168757	 165678.
12:15:36  914 915	 1492604136	 434926270	 161758.
12:15:36  915 916	 1492604136	 600819940	 165894.
12:15:36  916 917	 1492604136	 762616482	 161796.
12:15:36  917 918	 1492604136	 928514696	 165898.
12:15:37  918 919	 1492604137	 90520996	 162007.
12:15:37  919 920	 1492604137	 223517237	 132996.
12:15:37  920 921	 1492604137	 389410026	 165893.
12:15:37  921 922	 1492604137	 551440610	 162030.
12:15:37  922 923	 1492604137	 717390002	 165950.
12:15:37  923 924	 1492604137	 879293857	 161904.
12:15:38  924 925	 1492604138	 45187563	 165893.
12:15:38  925 926	 1492604138	 206926855	 161740.
12:15:38  926 927	 1492604138	 372862851	 165936.
12:15:38  927 928	 1492604138	 534636885	 161774.
12:15:38  928 929	 1492604138	 671738436	 137101.
12:15:38  929 930	 1492604138	 833620538	 161882.
12:15:38  930 931	 1492604138	 995618112	 161998.
12:15:39  931 932	 1492604139	 161511165	 165893.
12:15:39  932 933	 1492604139	 323366169	 161855.
12:15:39  933 934	 1492604139	 489416698	 166050.
12:15:39  934 935	 1492604139	 651173408	 161757.
12:15:39  935 936	 1492604139	 813072494	 161899.
12:15:39  936 937	 1492604139	 950413396	 137341.
12:15:40  937 938	 1492604140	 112121529	 161708.
12:15:40  938 939	 1492604140	 278155299	 166034.
12:15:40  939 940	 1492604140	 439833185	 161678.
12:15:40  940 941	 1492604140	 605677692	 165844.
12:15:40  941 942	 1492604140	 767405432	 161728.
12:15:40  942 943	 1492604140	 933237612	 165832.
12:15:41  943 944	 1492604141	 94937083	 161700.
12:15:41  944 945	 1492604141	 232169740	 137232.
12:15:41  945 946	 1492604141	 394057179	 161888.
12:15:41  946 947	 1492604141	 559914783	 165857.
12:15:41  947 948	 1492604141	 721813703	 161899.
12:15:41  948 949	 1492604141	 887843603	 166030.
12:15:42  949 950	 1492604142	 49681827	 161839.
12:15:42  950 951	 1492604142	 215531054	 165849.
12:15:42  951 952	 1492604142	 377199103	 161668.
12:15:42  952 953	 1492604142	 510205286	 133006.
12:15:42  953 954	 1492604142	 675968338	 165763.
12:15:42  954 955	 1492604142	 838948405	 162980.
12:15:42  955 956	 1492604142	 996822843	 157875.
12:15:43  956 957	 1492604143	 158740534	 161917.
12:15:43  957 958	 1492604143	 320631912	 161892.
12:15:43  958 959	 1492604143	 486545271	 165913.
12:15:43  959 960	 1492604143	 648322802	 161778.
12:15:43  960 961	 1492604143	 814285008	 165962.
12:15:43  961 962	 1492604143	 976098531	 161813.
12:15:44  962 963	 1492604144	 142056823	 165959.
12:15:44  963 964	 1492604144	 275134325	 133077.
12:15:44  964 965	 1492604144	 436894584	 161760.
12:15:44  965 966	 1492604144	 602753072	 165859.
12:15:44  966 967	 1492604144	 768721318	 165968.
12:15:44  967 968	 1492604144	 930617528	 161896.
12:15:45  968 969	 1492604145	 92346464	 161729.
12:15:45  969 970	 1492604145	 258126313	 165780.
12:15:45  970 971	 1492604145	 391261026	 133135.
12:15:45  971 972	 1492604145	 557084469	 165823.
12:15:45  972 973	 1492604145	 718699921	 161616.
12:15:45  973 974	 1492604145	 880378084	 161678.
12:15:46  974 975	 1492604146	 46229849	 165852.
12:15:46  975 976	 1492604146	 208101183	 161871.
12:15:46  976 977	 1492604146	 374076536	 165975.
12:15:46  977 978	 1492604146	 535889465	 161813.
12:15:46  978 979	 1492604146	 673186260	 137297.
12:15:46  979 980	 1492604146	 835037631	 161851.
12:15:46  980 981	 1492604146	 996808350	 161771.
12:15:47  981 982	 1492604147	 162630183	 165822.
12:15:47  982 983	 1492604147	 324304003	 161674.
12:15:47  983 984	 1492604147	 490188620	 165884.
12:15:47  984 985	 1492604147	 651866562	 161678.
12:15:47  985 986	 1492604147	 788919048	 137053.
12:15:47  986 987	 1492604147	 950709083	 161790.
12:15:48  987 988	 1492604148	 109129148	 158420.
12:15:48  988 989	 1492604148	 275021717	 165892.
12:15:48  989 990	 1492604148	 436808457	 161787.
12:15:48  990 991	 1492604148	 602628383	 165820.
12:15:48  991 992	 1492604148	 764345368	 161717.
12:15:48  992 993	 1492604148	 930047501	 165702.
12:15:49  993 994	 1492604149	 95794813	 165748.
12:15:49  994 995	 1492604149	 228869506	 133074.
12:15:49  995 996	 1492604149	 390792022	 161923.
12:15:49  996 997	 1492604149	 556901039	 166109.
12:15:49  997 998	 1492604149	 718762888	 161862.
12:15:49  998 999	 1492604149	 884966359	 166203.
12:15:50  999 1000	 1492604150	 46872717	 161906.
12:15:50 1000 1001	 1492604150	 212757995	 165886.
12:15:50 1001 1002	 1492604150	 374609610	 161851.
12:15:50 1002 1003	 1492604150	 507691520	 133082.
12:15:50 1003 1004	 1492604150	 673521666	 165830.
12:15:50 1004 1005	 1492604150	 835464606	 161943.
12:15:50 1005 1006	 1492604151	 1301121	 165837.
12:15:51 1006 1007	 1492604151	 163147582	 161846.
12:15:51 1007 1008	 1492604151	 329205488	 166058.
12:15:51 1008 1009	 1492604151	 490980595	 161775.
12:15:51 1009 1010	 1492604151	 656768239	 165788.
12:15:51 1010 1011	 1492604151	 789787860	 133020.
12:15:51 1011 1012	 1492604151	 955752815	 165965.
12:15:52 1012 1013	 1492604152	 117513178	 161760.
12:15:52 1013 1014	 1492604152	 283410648	 165897.
12:15:52 1014 1015	 1492604152	 445161338	 161751.
12:15:52 1015 1016	 1492604152	 606798647	 161637.
12:15:52 1016 1017	 1492604152	 772553370	 165755.
12:15:52 1017 1018	 1492604152	 905674763	 133121.
12:15:53 1018 1019	 1492604153	 71690727	 166016.
12:15:53 1019 1020	 1492604153	 233524080	 161834.
12:15:53 1020 1021	 1492604153	 399236080	 165712.
12:15:53 1021 1022	 1492604153	 561175026	 161939.
12:15:53 1022 1023	 1492604153	 723010985	 161836.
12:15:53 1023 1024	 1492604153	 888774221	 165763.
12:15:54 1024 1025	 1492604154	 50760877	 161987.
12:15:54 1025 1026	 1492604154	 212563341	 161802.
12:15:54 1026 1027	 1492604154	 349792841	 137230.
12:15:54 1027 1028	 1492604154	 511452332	 161659.
12:15:54 1028 1029	 1492604154	 677223783	 165771.
12:15:54 1029 1030	 1492604154	 838946920	 161724.
12:15:54 1030 1031	 1492604155	 837994	 161891.
12:15:55 1031 1032	 1492604155	 166779205	 165941.
12:15:55 1032 1033	 1492604155	 328530563	 161751.
12:15:55 1033 1034	 1492604155	 494364046	 165834.
12:15:55 1034 1035	 1492604155	 627549605	 133185.
12:15:55 1035 1036	 1492604155	 793231509	 165682.
12:15:55 1036 1037	 1492604155	 955022662	 161791.
12:15:56 1037 1038	 1492604156	 120981456	 165959.
12:15:56 1038 1039	 1492604156	 282883811	 161903.
12:15:56 1039 1040	 1492604156	 444753708	 161869.
12:15:56 1040 1041	 1492604156	 610445406	 165692.
12:15:56 1041 1042	 1492604156	 743587063	 133142.
12:15:56 1042 1043	 1492604156	 909398286	 165811.
12:15:57 1043 1044	 1492604157	 71272796	 161875.
12:15:57 1044 1045	 1492604157	 237087480	 165814.
12:15:57 1045 1046	 1492604157	 398880984	 161794.
12:15:57 1046 1047	 1492604157	 564697019	 165816.
12:15:57 1047 1048	 1492604157	 722811576	 158114.
12:15:57 1048 1049	 1492604157	 888624666	 165813.
12:15:58 1049 1050	 1492604158	 21673260	 133049.
12:15:58 1050 1051	 1492604158	 187317642	 165644.
12:15:58 1051 1052	 1492604158	 349072439	 161755.
12:15:58 1052 1053	 1492604158	 515018797	 165947.
12:15:58 1053 1054	 1492604158	 676791940	 161773.
12:15:58 1054 1055	 1492604158	 843656073	 166864.
12:15:58 1055 1056	 1492604159	 1545202	 157889.
12:15:59 1056 1057	 1492604159	 163431061	 161886.
12:15:59 1057 1058	 1492604159	 325564862	 162134.
12:15:59 1058 1059	 1492604159	 491210160	 165645.
12:15:59 1059 1060	 1492604159	 624236241	 133026.
12:15:59 1060 1061	 1492604159	 790106920	 165871.
12:15:59 1061 1062	 1492604159	 951745355	 161638.
12:16:00 1062 1063	 1492604160	 117650492	 165905.
12:16:00 1063 1064	 1492604160	 279271124	 161621.
12:16:00 1064 1065	 1492604160	 444729017	 165458.
12:16:00 1065 1066	 1492604160	 606421678	 161692.
12:16:00 1066 1067	 1492604160	 743635836	 137215.
12:16:00 1067 1068	 1492604160	 905541795	 161906.
12:16:01 1068 1069	 1492604161	 71521700	 165979.
12:16:01 1069 1070	 1492604161	 233150594	 161629.
12:16:01 1070 1071	 1492604161	 394899852	 161750.
12:16:01 1071 1072	 1492604161	 560834828	 165935.
12:16:01 1072 1073	 1492604161	 726550075	 165715.
12:16:01 1073 1074	 1492604161	 859860685	 133310.
12:16:02 1074 1075	 1492604162	 26104709	 166244.
12:16:02 1075 1076	 1492604162	 187825694	 161721.
12:16:02 1076 1077	 1492604162	 353564457	 165739.
12:16:02 1077 1078	 1492604162	 515379831	 161816.
12:16:02 1078 1079	 1492604162	 677425443	 162045.
12:16:02 1079 1080	 1492604162	 843165728	 165740.
12:16:03 1080 1081	 1492604163	 5000849	 161836.
12:16:03 1081 1082	 1492604163	 142311952	 137311.
12:16:03 1082 1083	 1492604163	 304262116	 161950.
12:16:03 1083 1084	 1492604163	 470354541	 166092.
12:16:03 1084 1085	 1492604163	 632489497	 162135.
12:16:03 1085 1086	 1492604163	 794416745	 161927.
12:16:03 1086 1087	 1492604163	 960439966	 166024.
12:16:04 1087 1088	 1492604164	 122349541	 161909.
12:16:04 1088 1089	 1492604164	 288325377	 165976.
12:16:04 1089 1090	 1492604164	 450249319	 161924.
12:16:04 1090 1091	 1492604164	 616173460	 165924.
12:16:04 1091 1092	 1492604164	 749316470	 133143.
12:16:04 1092 1093	 1492604164	 911256002	 161940.
12:16:05 1093 1094	 1492604165	 77200930	 165945.
12:16:05 1094 1095	 1492604165	 239017917	 161817.
12:16:05 1095 1096	 1492604165	 401437121	 162419.
12:16:05 1096 1097	 1492604165	 563271555	 161834.
12:16:05 1097 1098	 1492604165	 729073273	 165802.
12:16:05 1098 1099	 1492604165	 890853737	 161780.
12:16:06 1099 1100	 1492604166	 56734680	 165881.
12:16:06 1100 1101	 1492604166	 189800819	 133067.
12:16:06 1101 1102	 1492604166	 355597016	 165796.
12:16:06 1102 1103	 1492604166	 517594899	 161998.
12:16:06 1103 1104	 1492604166	 683361590	 165766.
12:16:06 1104 1105	 1492604166	 845192427	 161831.
12:16:07 1105 1106	 1492604167	 11115869	 165924.
12:16:07 1106 1107	 1492604167	 144244966	 133129.
12:16:07 1107 1108	 1492604167	 310301120	 166056.
12:16:07 1108 1109	 1492604167	 472145170	 161844.
12:16:07 1109 1110	 1492604167	 638198049	 166053.
12:16:07 1110 1111	 1492604167	 800010808	 161813.
12:16:07 1111 1112	 1492604167	 965775910	 165765.
12:16:08 1112 1113	 1492604168	 127720486	 161944.
12:16:08 1113 1114	 1492604168	 293645691	 165925.
12:16:08 1114 1115	 1492604168	 426927438	 133282.
12:16:08 1115 1116	 1492604168	 588999239	 162072.
12:16:08 1116 1117	 1492604168	 754982716	 165983.
12:16:08 1117 1118	 1492604168	 916913746	 161931.
12:16:09 1118 1119	 1492604169	 82917414	 166004.
12:16:09 1119 1120	 1492604169	 244803228	 161886.
12:16:09 1120 1121	 1492604169	 410783856	 165981.
12:16:09 1121 1122	 1492604169	 576843627	 166059.
12:16:09 1122 1123	 1492604169	 709894832	 133052.
12:16:09 1123 1124	 1492604169	 875833923	 165939.
12:16:10 1124 1125	 1492604170	 37994450	 162160.
12:16:10 1125 1126	 1492604170	 199780625	 161786.
12:16:10 1126 1127	 1492604170	 365698916	 165919.
12:16:10 1127 1128	 1492604170	 527745041	 162046.
12:16:10 1128 1129	 1492604170	 693621592	 165876.
12:16:10 1129 1130	 1492604170	 855519864	 161899.
12:16:10 1130 1131	 1492604170	 988765533	 133245.
12:16:11 1131 1132	 1492604171	 154619718	 165854.
12:16:11 1132 1133	 1492604171	 320779710	 166160.
12:16:11 1133 1134	 1492604171	 482597887	 161819.
12:16:11 1134 1135	 1492604171	 648323345	 165725.
12:16:11 1135 1136	 1492604171	 810252485	 161929.
12:16:11 1136 1137	 1492604171	 972176226	 161924.
12:16:12 1137 1138	 1492604172	 138317098	 166141.
12:16:12 1138 1139	 1492604172	 304373898	 166057.
12:16:12 1139 1140	 1492604172	 437538902	 133165.
12:16:12 1140 1141	 1492604172	 599385271	 161846.
12:16:12 1141 1142	 1492604172	 765263701	 165878.
12:16:12 1142 1143	 1492604172	 927156800	 161894.
12:16:13 1143 1144	 1492604173	 93071266	 165914.
12:16:13 1144 1145	 1492604173	 254796576	 161725.
12:16:13 1145 1146	 1492604173	 420711257	 165915.
12:16:13 1146 1147	 1492604173	 582626778	 161916.
12:16:13 1147 1148	 1492604173	 715682821	 133056.
12:16:13 1148 1149	 1492604173	 881555153	 165872.
12:16:14 1149 1150	 1492604174	 43500898	 161946.
12:16:14 1150 1151	 1492604174	 209294440	 165793.
12:16:14 1151 1152	 1492604174	 371220813	 161927.
12:16:14 1152 1153	 1492604174	 533116657	 161895.
12:16:14 1153 1154	 1492604174	 698851447	 165735.
12:16:14 1154 1155	 1492604174	 860638257	 161787.
12:16:14 1155 1156	 1492604174	 997841854	 137204.
12:16:15 1156 1157	 1492604175	 159659493	 161817.
12:16:15 1157 1158	 1492604175	 325724378	 166065.
12:16:15 1158 1159	 1492604175	 487546414	 161822.
12:16:15 1159 1160	 1492604175	 653382229	 165836.
12:16:15 1160 1161	 1492604175	 816143293	 162761.
12:16:15 1161 1162	 1492604175	 973893324	 157750.
12:16:16 1162 1163	 1492604176	 139793988	 165901.
12:16:16 1163 1164	 1492604176	 301950010	 162156.
12:16:16 1164 1165	 1492604176	 463844134	 161894.
12:16:16 1165 1166	 1492604176	 601061760	 137217.
12:16:16 1166 1167	 1492604176	 762852188	 161791.
12:16:16 1167 1168	 1492604176	 928621646	 165769.
12:16:17 1168 1169	 1492604177	 90477055	 161856.
12:16:17 1169 1170	 1492604177	 252347360	 161870.
12:16:17 1170 1171	 1492604177	 418349974	 166003.
12:16:17 1171 1172	 1492604177	 580538297	 162188.
12:16:17 1172 1173	 1492604177	 746527567	 165989.
12:16:17 1173 1174	 1492604177	 879599988	 133073.
12:16:18 1174 1175	 1492604178	 45526936	 165927.
12:16:18 1175 1176	 1492604178	 207428145	 161901.
12:16:18 1176 1177	 1492604178	 373391482	 165963.
12:16:18 1177 1178	 1492604178	 535100045	 161709.
12:16:18 1178 1179	 1492604178	 700926656	 165826.
12:16:18 1179 1180	 1492604178	 862710828	 161785.
12:16:19 1180 1181	 1492604179	 28681194	 165970.
12:16:19 1181 1182	 1492604179	 161691157	 133010.
12:16:19 1182 1183	 1492604179	 323599933	 161909.
12:16:19 1183 1184	 1492604179	 489305451	 165705.
12:16:19 1184 1185	 1492604179	 651190815	 161886.
12:16:19 1185 1186	 1492604179	 817199629	 166008.
12:16:19 1186 1187	 1492604179	 978990700	 161791.
12:16:20 1187 1188	 1492604180	 144950334	 165960.
12:16:20 1188 1189	 1492604180	 303248237	 158298.
12:16:20 1189 1190	 1492604180	 465050809	 161803.
12:16:20 1190 1191	 1492604180	 626942639	 161891.
12:16:20 1191 1192	 1492604180	 764160998	 137219.
12:16:20 1192 1193	 1492604180	 925963665	 161802.
12:16:21 1193 1194	 1492604181	 91822150	 165859.
12:16:21 1194 1195	 1492604181	 253668041	 161846.
12:16:21 1195 1196	 1492604181	 419496544	 165828.
12:16:21 1196 1197	 1492604181	 581216293	 161720.
12:16:21 1197 1198	 1492604181	 746897951	 165682.
12:16:21 1198 1199	 1492604181	 908799634	 161901.
12:16:22 1199 1200	 1492604182	 41926041	 133127.
12:16:22 1200 1201	 1492604182	 207740471	 165814.
12:16:22 1201 1202	 1492604182	 369554308	 161814.
12:16:22 1202 1203	 1492604182	 535382224	 165828.
12:16:22 1203 1204	 1492604182	 697187398	 161805.
12:16:22 1204 1205	 1492604182	 859196238	 162009.
12:16:23 1205 1206	 1492604183	 24935075	 165739.
12:16:23 1206 1207	 1492604183	 186757310	 161822.
12:16:23 1207 1208	 1492604183	 319702377	 132945.
12:16:23 1208 1209	 1492604183	 485473645	 165771.
12:16:23 1209 1210	 1492604183	 647208202	 161735.
12:16:23 1210 1211	 1492604183	 813011799	 165804.
12:16:23 1211 1212	 1492604183	 974687753	 161675.
12:16:24 1212 1213	 1492604184	 140572537	 165885.
12:16:24 1213 1214	 1492604184	 302445024	 161873.
12:16:24 1214 1215	 1492604184	 439493754	 137049.
12:16:24 1215 1216	 1492604184	 601226823	 161733.
12:16:24 1216 1217	 1492604184	 766928884	 165702.
12:16:24 1217 1218	 1492604184	 928721824	 161793.
12:16:25 1218 1219	 1492604185	 94599327	 165877.
12:16:25 1219 1220	 1492604185	 256378618	 161779.
12:16:25 1220 1221	 1492604185	 418444374	 162066.
12:16:25 1221 1222	 1492604185	 584238117	 165794.
12:16:25 1222 1223	 1492604185	 717457857	 133220.
12:16:25 1223 1224	 1492604185	 879374089	 161916.
12:16:26 1224 1225	 1492604186	 45084292	 165710.
12:16:26 1225 1226	 1492604186	 206832580	 161748.
12:16:26 1226 1227	 1492604186	 372531384	 165699.
12:16:26 1227 1228	 1492604186	 534450940	 161920.
12:16:26 1228 1229	 1492604186	 700310264	 165859.
12:16:26 1229 1230	 1492604186	 858860704	 158550.
12:16:27 1230 1231	 1492604187	 20726056	 161866.
12:16:27 1231 1232	 1492604187	 157908953	 137183.
12:16:27 1232 1233	 1492604187	 319740870	 161832.
12:16:27 1233 1234	 1492604187	 485599752	 165858.
12:16:27 1234 1235	 1492604187	 647479691	 161880.
12:16:27 1235 1236	 1492604187	 809295734	 161816.
12:16:27 1236 1237	 1492604187	 975125527	 165830.
12:16:28 1237 1238	 1492604188	 136962891	 161838.
12:16:28 1238 1239	 1492604188	 274069119	 137106.
12:16:28 1239 1240	 1492604188	 435845378	 161776.
12:16:28 1240 1241	 1492604188	 597619493	 161774.
12:16:28 1241 1242	 1492604188	 763276947	 165658.
12:16:28 1242 1243	 1492604188	 925001062	 161724.
12:16:29 1243 1244	 1492604189	 90820723	 165819.
12:16:29 1244 1245	 1492604189	 252675486	 161855.
12:16:29 1245 1246	 1492604189	 389723007	 137048.
12:16:29 1246 1247	 1492604189	 551393551	 161670.
12:16:29 1247 1248	 1492604189	 717110186	 165717.
12:16:29 1248 1249	 1492604189	 878852583	 161742.
12:16:30 1249 1250	 1492604190	 40530680	 161678.
12:16:30 1250 1251	 1492604190	 206486827	 165957.
12:16:30 1251 1252	 1492604190	 368195858	 161709.
12:16:30 1252 1253	 1492604190	 501243627	 133047.
12:16:30 1253 1254	 1492604190	 667117652	 165874.
12:16:30 1254 1255	 1492604190	 828888933	 161772.
12:16:30 1255 1256	 1492604190	 994633379	 165744.
12:16:31 1256 1257	 1492604191	 156230630	 161597.
12:16:31 1257 1258	 1492604191	 322069726	 165839.
12:16:31 1258 1259	 1492604191	 483692443	 161623.
12:16:31 1259 1260	 1492604191	 621049268	 137357.
12:16:31 1260 1261	 1492604191	 808109718	 187061.
12:16:31 1261 1262	 1492604191	 941063256	 132953.
12:16:32 1262 1263	 1492604192	 106828371	 165765.
12:16:32 1263 1264	 1492604192	 268671851	 161844.
12:16:32 1264 1265	 1492604192	 430337063	 161665.
12:16:32 1265 1266	 1492604192	 596044039	 165707.
12:16:32 1266 1267	 1492604192	 757699728	 161655.
12:16:32 1267 1268	 1492604192	 923575248	 165876.
12:16:33 1268 1269	 1492604193	 56603561	 133028.
12:16:33 1269 1270	 1492604193	 222401645	 165798.
12:16:33 1270 1271	 1492604193	 384165631	 161764.
12:16:33 1271 1272	 1492604193	 546024870	 161860.
12:16:33 1272 1273	 1492604193	 711977273	 165952.
12:16:33 1273 1274	 1492604193	 873744141	 161767.
12:16:34 1274 1275	 1492604194	 39527066	 165783.
12:16:34 1275 1276	 1492604194	 201332529	 161805.
12:16:34 1276 1277	 1492604194	 338523462	 137191.
12:16:34 1277 1278	 1492604194	 500277290	 161754.
12:16:34 1278 1279	 1492604194	 662106516	 161829.
12:16:34 1279 1280	 1492604194	 827883075	 165777.
12:16:34 1280 1281	 1492604194	 989651724	 161768.
12:16:35 1281 1282	 1492604195	 155414065	 165763.
12:16:35 1282 1283	 1492604195	 317102059	 161688.
12:16:35 1283 1284	 1492604195	 454161366	 137059.
12:16:35 1284 1285	 1492604195	 615947098	 161786.
12:16:35 1285 1286	 1492604195	 777555308	 161608.
12:16:35 1286 1287	 1492604195	 943296538	 165741.
12:16:36 1287 1288	 1492604196	 105001336	 161705.
12:16:36 1288 1289	 1492604196	 270865316	 165864.
12:16:36 1289 1290	 1492604196	 432552097	 161687.
12:16:36 1290 1291	 1492604196	 565820480	 133268.
12:16:36 1291 1292	 1492604196	 731564364	 165744.
12:16:36 1292 1293	 1492604196	 893255814	 161692.
12:16:37 1293 1294	 1492604197	 59091509	 165835.
12:16:37 1294 1295	 1492604197	 220775341	 161684.
12:16:37 1295 1296	 1492604197	 386549794	 165775.
12:16:37 1296 1297	 1492604197	 548611963	 162062.
12:16:37 1297 1298	 1492604197	 681643137	 133031.
12:16:37 1298 1299	 1492604197	 847494157	 165851.
12:16:38 1299 1300	 1492604198	 9123032	 161629.
12:16:38 1300 1301	 1492604198	 174921479	 165798.
12:16:38 1301 1302	 1492604198	 336457874	 161537.
12:16:38 1302 1303	 1492604198	 502145248	 165687.
12:16:38 1303 1304	 1492604198	 663596353	 161451.
12:16:38 1304 1305	 1492604198	 800732450	 137136.
12:16:38 1305 1306	 1492604198	 962502003	 161770.
12:16:39 1306 1307	 1492604199	 124022274	 161520.
12:16:39 1307 1308	 1492604199	 289522274	 165500.
12:16:39 1308 1309	 1492604199	 451074826	 161553.
12:16:39 1309 1310	 1492604199	 588098345	 137023.
12:16:39 1310 1311	 1492604199	 749593361	 161495.
12:16:39 1311 1312	 1492604199	 915248137	 165655.
12:16:40 1312 1313	 1492604200	 77029002	 161781.
12:16:40 1313 1314	 1492604200	 242871149	 165842.
12:16:40 1314 1315	 1492604200	 404525928	 161655.
12:16:40 1315 1316	 1492604200	 566175624	 161649.
12:16:40 1316 1317	 1492604200	 703511857	 137337.
12:16:40 1317 1318	 1492604200	 865328099	 161816.
12:16:41 1318 1319	 1492604201	 31071474	 165743.
12:16:41 1319 1320	 1492604201	 192751125	 161680.
12:16:41 1320 1321	 1492604201	 354431532	 161680.
12:16:41 1321 1322	 1492604201	 520227404	 165796.
12:16:41 1322 1323	 1492604201	 681972604	 161745.
12:16:41 1323 1324	 1492604201	 847864776	 165893.
12:16:41 1324 1325	 1492604201	 981004978	 133140.
12:16:42 1325 1326	 1492604202	 146791275	 165786.
12:16:42 1326 1327	 1492604202	 308429957	 161639.
12:16:42 1327 1328	 1492604202	 470090645	 161660.
12:16:42 1328 1329	 1492604202	 635707974	 165618.
12:16:42 1329 1330	 1492604202	 797484486	 161776.
12:16:42 1330 1331	 1492604202	 963323959	 165840.
12:16:43 1331 1332	 1492604203	 96425981	 133102.
12:16:43 1332 1333	 1492604203	 262180944	 165755.
12:16:43 1333 1334	 1492604203	 423832445	 161651.
12:16:43 1334 1335	 1492604203	 589315986	 165484.
12:16:43 1335 1336	 1492604203	 750800671	 161484.
12:16:43 1336 1337	 1492604203	 916645912	 165846.
12:16:44 1337 1338	 1492604204	 49658922	 133013.
12:16:44 1338 1339	 1492604204	 211359743	 161700.
12:16:44 1339 1340	 1492604204	 377186234	 165827.
12:16:44 1340 1341	 1492604204	 539091808	 161906.
12:16:44 1341 1342	 1492604204	 704810324	 165718.
12:16:44 1342 1343	 1492604204	 866614302	 161804.
12:16:45 1343 1344	 1492604205	 28643972	 162030.
12:16:45 1344 1345	 1492604205	 194461623	 165817.
12:16:45 1345 1346	 1492604205	 327376279	 132915.
12:16:45 1346 1347	 1492604205	 489029138	 161653.
12:16:45 1347 1348	 1492604205	 654799505	 165770.
12:16:45 1348 1349	 1492604205	 816519508	 161720.
12:16:45 1349 1350	 1492604205	 982303024	 165784.
12:16:46 1350 1351	 1492604206	 143951876	 161649.
12:16:46 1351 1352	 1492604206	 309834372	 165882.
12:16:46 1352 1353	 1492604206	 442742106	 132908.
12:16:46 1353 1354	 1492604206	 608507641	 165765.
12:16:46 1354 1355	 1492604206	 770139817	 161632.
12:16:46 1355 1356	 1492604206	 931694639	 161555.
12:16:47 1356 1357	 1492604207	 93116636	 161422.
12:16:47 1357 1358	 1492604207	 258585893	 165470.
12:16:47 1358 1359	 1492604207	 391281849	 132696.
12:16:47 1359 1360	 1492604207	 556815218	 165533.
12:16:47 1360 1361	 1492604207	 718346463	 161531.
12:16:47 1361 1362	 1492604207	 883752211	 165406.
12:16:48 1362 1363	 1492604208	 16645284	 132893.
12:16:48 1363 1364	 1492604208	 177913247	 161268.
12:16:48 1364 1365	 1492604208	 343510058	 165597.
12:16:48 1365 1366	 1492604208	 505060762	 161550.
12:16:48 1366 1367	 1492604208	 671133105	 166073.
12:16:48 1367 1368	 1492604208	 828874062	 157741.
12:16:48 1368 1369	 1492604208	 961734402	 132860.
12:16:49 1369 1370	 1492604209	 127068160	 165334.
12:16:49 1370 1371	 1492604209	 288813933	 161746.
12:16:49 1371 1372	 1492604209	 450267544	 161453.
12:16:49 1372 1373	 1492604209	 615952570	 165685.
12:16:49 1373 1374	 1492604209	 777453074	 161501.
12:16:49 1374 1375	 1492604209	 914523705	 137070.
12:16:50 1375 1376	 1492604210	 76177704	 161654.
12:16:50 1376 1377	 1492604210	 238054650	 161878.
12:16:50 1377 1378	 1492604210	 403850308	 165795.
12:16:50 1378 1379	 1492604210	 565626222	 161776.
12:16:50 1379 1380	 1492604210	 731403796	 165778.
12:16:50 1380 1381	 1492604210	 893137881	 161734.
12:16:51 1381 1382	 1492604211	 26200316	 133062.
12:16:51 1382 1383	 1492604211	 191806319	 165606.
12:16:51 1383 1384	 1492604211	 353398196	 161592.
12:16:51 1384 1385	 1492604211	 518950486	 165552.
12:16:51 1385 1386	 1492604211	 680374272	 161424.
12:16:51 1386 1387	 1492604211	 845922191	 165548.
12:16:51 1387 1388	 1492604211	 978823640	 132901.
12:16:52 1388 1389	 1492604212	 140550283	 161727.
12:16:52 1389 1390	 1492604212	 306197413	 165647.
12:16:52 1390 1391	 1492604212	 467822251	 161625.
12:16:52 1391 1392	 1492604212	 633609039	 165787.
12:16:52 1392 1393	 1492604212	 766547289	 132938.
12:16:52 1393 1394	 1492604212	 932207463	 165660.
12:16:53 1394 1395	 1492604213	 93858372	 161651.
12:16:53 1395 1396	 1492604213	 255486429	 161628.
12:16:53 1396 1397	 1492604213	 421414963	 165929.
12:16:53 1397 1398	 1492604213	 582945572	 161530.
12:16:53 1398 1399	 1492604213	 748593712	 165648.
12:16:53 1399 1400	 1492604213	 881583117	 132990.
12:16:54 1400 1401	 1492604214	 43197849	 161615.
12:16:54 1401 1402	 1492604214	 208868514	 165670.
12:16:54 1402 1403	 1492604214	 370549751	 161681.
12:16:54 1403 1404	 1492604214	 536137450	 165588.
12:16:54 1404 1405	 1492604214	 697903130	 161766.
12:16:54 1405 1406	 1492604214	 859854394	 161951.
12:16:54 1406 1407	 1492604214	 997042640	 137188.
12:16:55 1407 1408	 1492604215	 158604764	 161563.
12:16:55 1408 1409	 1492604215	 324231276	 165626.
12:16:55 1409 1410	 1492604215	 485831651	 161600.
12:16:55 1410 1411	 1492604215	 651460841	 165630.
12:16:55 1411 1412	 1492604215	 813255692	 161794.
12:16:55 1412 1413	 1492604215	 946323456	 133068.
12:16:56 1413 1414	 1492604216	 111931994	 165609.
12:16:56 1414 1415	 1492604216	 273541142	 161609.
12:16:56 1415 1416	 1492604216	 435151642	 161610.
12:16:56 1416 1417	 1492604216	 601068584	 165917.
12:16:56 1417 1418	 1492604216	 762552652	 161484.
12:16:56 1418 1419	 1492604216	 899381976	 136830.
12:16:57 1419 1420	 1492604217	 60941770	 161559.
12:16:57 1420 1421	 1492604217	 222302059	 161361.
12:16:57 1421 1422	 1492604217	 387815096	 165513.
12:16:57 1422 1423	 1492604217	 553652496	 165837.
12:16:57 1423 1424	 1492604217	 715252256	 161600.
12:16:57 1424 1425	 1492604217	 876686929	 161435.
12:16:58 1425 1426	 1492604218	 13919635	 137232.
12:16:58 1426 1427	 1492604218	 175358331	 161439.
12:16:58 1427 1428	 1492604218	 341381170	 166023.
12:16:58 1428 1429	 1492604218	 503033355	 161652.
12:16:58 1429 1430	 1492604218	 664897519	 161864.
12:16:58 1430 1431	 1492604218	 830520506	 165623.
12:16:58 1431 1432	 1492604218	 963267257	 132747.
12:16:59 1432 1433	 1492604219	 128721392	 165454.
12:16:59 1433 1434	 1492604219	 290030069	 161309.
12:16:59 1434 1435	 1492604219	 451427204	 161397.
12:16:59 1435 1436	 1492604219	 617197959	 165771.
12:16:59 1436 1437	 1492604219	 750174779	 132977.
12:16:59 1437 1438	 1492604219	 941176125	 191001.
12:17:00 1438 1439	 1492604220	 74360024	 133184.
12:17:00 1439 1440	 1492604220	 240112767	 165752.
12:17:00 1440 1441	 1492604220	 402022645	 161910.
12:17:00 1441 1442	 1492604220	 567765597	 165743.
12:17:00 1442 1443	 1492604220	 729527817	 161763.
12:17:00 1443 1444	 1492604220	 891341483	 161813.
12:17:01 1444 1445	 1492604221	 57057893	 165717.
12:17:01 1445 1446	 1492604221	 190026944	 132969.
12:17:01 1446 1447	 1492604221	 355750121	 165723.
12:17:01 1447 1448	 1492604221	 517394034	 161644.
12:17:01 1448 1449	 1492604221	 683301418	 165907.
12:17:01 1449 1450	 1492604221	 844958947	 161658.
12:17:02 1450 1451	 1492604222	 43131403	 198172.
12:17:02 1451 1452	 1492604222	 204964988	 161834.
12:17:02 1452 1453	 1492604222	 338124971	 133160.
12:17:02 1453 1454	 1492604222	 503965863	 165841.
12:17:02 1454 1455	 1492604222	 665741126	 161775.
12:17:02 1455 1456	 1492604222	 831595455	 165854.
12:17:02 1456 1457	 1492604222	 993538333	 161943.
12:17:03 1457 1458	 1492604223	 155437502	 161899.
12:17:03 1458 1459	 1492604223	 321255197	 165818.
12:17:03 1459 1460	 1492604223	 454311511	 133056.
12:17:03 1460 1461	 1492604223	 620135840	 165825.
12:17:03 1461 1462	 1492604223	 782082877	 161947.
12:17:03 1462 1463	 1492604223	 948019935	 165937.
12:17:04 1463 1464	 1492604224	 109943301	 161923.
12:17:04 1464 1465	 1492604224	 271735063	 161792.
12:17:04 1465 1466	 1492604224	 437640187	 165905.
12:17:04 1466 1467	 1492604224	 570646526	 133006.
12:17:04 1467 1468	 1492604224	 736471847	 165826.
12:17:04 1468 1469	 1492604224	 898365835	 161894.
12:17:05 1469 1470	 1492604225	 60149969	 161784.
12:17:05 1470 1471	 1492604225	 225957061	 165807.
12:17:05 1471 1472	 1492604225	 387801509	 161844.
12:17:05 1472 1473	 1492604225	 553750977	 165950.
12:17:05 1473 1474	 1492604225	 715542139	 161791.
12:17:05 1474 1475	 1492604225	 852628438	 137086.
12:17:06 1475 1476	 1492604226	 14396183	 161768.
12:17:06 1476 1477	 1492604226	 176106323	 161710.
12:17:06 1477 1478	 1492604226	 342066289	 165960.
12:17:06 1478 1479	 1492604226	 503680031	 161614.
12:17:06 1479 1480	 1492604226	 669796520	 166116.
12:17:06 1480 1481	 1492604226	 831685252	 161889.
12:17:06 1481 1482	 1492604226	 964669421	 132984.
12:17:07 1482 1483	 1492604227	 130224073	 165555.
12:17:07 1483 1484	 1492604227	 291836196	 161612.
12:17:07 1484 1485	 1492604227	 457611727	 165775.
12:17:07 1485 1486	 1492604227	 619306540	 161695.
12:17:07 1486 1487	 1492604227	 784979384	 165673.
12:17:07 1487 1488	 1492604227	 918188846	 133210.
12:17:08 1488 1489	 1492604228	 80087109	 161898.
12:17:08 1489 1490	 1492604228	 246321715	 166234.
12:17:08 1490 1491	 1492604228	 408157121	 161836.
12:17:08 1491 1492	 1492604228	 573969874	 165813.
12:17:08 1492 1493	 1492604228	 735804778	 161834.
12:17:08 1493 1494	 1492604228	 897709913	 161906.
12:17:09 1494 1495	 1492604229	 63793971	 166084.
12:17:09 1495 1496	 1492604229	 196882156	 133088.
12:17:09 1496 1497	 1492604229	 362844655	 165962.
12:17:09 1497 1498	 1492604229	 524816587	 161972.
12:17:09 1498 1499	 1492604229	 686734191	 161918.
12:17:09 1499 1500	 1492604229	 852791079	 166057.
12:17:10 1500 1501	 1492604230	 14891303	 162100.
12:17:10 1501 1502	 1492604230	 181020760	 166129.
12:17:10 1502 1503	 1492604230	 343655407	 162635.
12:17:10 1503 1504	 1492604230	 501385462	 157730.
12:17:10 1504 1505	 1492604230	 667201696	 165816.
12:17:10 1505 1506	 1492604230	 829043424	 161842.
12:17:10 1506 1507	 1492604230	 966058700	 137015.
12:17:11 1507 1508	 1492604231	 127718850	 161661.
12:17:11 1508 1509	 1492604231	 293465251	 165746.
12:17:11 1509 1510	 1492604231	 455347615	 161882.
12:17:11 1510 1511	 1492604231	 621205952	 165859.
12:17:11 1511 1512	 1492604231	 782937826	 161732.
12:17:11 1512 1513	 1492604231	 944696050	 161758.
12:17:12 1513 1514	 1492604232	 110362304	 165666.
12:17:12 1514 1515	 1492604232	 243590619	 133228.
12:17:12 1515 1516	 1492604232	 409361551	 165771.
12:17:12 1516 1517	 1492604232	 571006064	 161645.
12:17:12 1517 1518	 1492604232	 732723546	 161717.
12:17:12 1518 1519	 1492604232	 898616699	 165893.
12:17:13 1519 1520	 1492604233	 60379487	 161763.
12:17:13 1520 1521	 1492604233	 222162268	 161783.
12:17:13 1521 1522	 1492604233	 388138068	 165976.
12:17:13 1522 1523	 1492604233	 521159470	 133021.
12:17:13 1523 1524	 1492604233	 686999084	 165840.
12:17:13 1524 1525	 1492604233	 848729609	 161730.
12:17:14 1525 1526	 1492604234	 14515317	 165786.
12:17:14 1526 1527	 1492604234	 180547780	 166032.
12:17:14 1527 1528	 1492604234	 342339305	 161792.
12:17:14 1528 1529	 1492604234	 504172890	 161834.
12:17:14 1529 1530	 1492604234	 670114847	 165942.
12:17:14 1530 1531	 1492604234	 831830675	 161715.
12:17:14 1531 1532	 1492604234	 964883138	 133053.
12:17:15 1532 1533	 1492604235	 130597908	 165715.
12:17:15 1533 1534	 1492604235	 296198834	 165601.
12:17:15 1534 1535	 1492604235	 457958555	 161759.
12:17:15 1535 1536	 1492604235	 619916966	 161959.
12:17:15 1536 1537	 1492604235	 785518293	 165601.
12:17:15 1537 1538	 1492604235	 947927840	 162410.
12:17:16 1538 1539	 1492604236	 105637164	 157709.
12:17:16 1539 1540	 1492604236	 271346283	 165709.
12:17:16 1540 1541	 1492604236	 404134832	 132789.
12:17:16 1541 1542	 1492604236	 565624710	 161489.
12:17:16 1542 1543	 1492604236	 731453580	 165829.
12:17:16 1543 1544	 1492604236	 893185012	 161732.
12:17:17 1544 1545	 1492604237	 58859367	 165674.
12:17:17 1545 1546	 1492604237	 220555611	 161696.
12:17:17 1546 1547	 1492604237	 382287434	 161732.
12:17:17 1547 1548	 1492604237	 548248514	 165961.
12:17:17 1548 1549	 1492604237	 681315201	 133067.
12:17:17 1549 1550	 1492604237	 842973786	 161659.
12:17:18 1550 1551	 1492604238	 8838169	 165864.
12:17:18 1551 1552	 1492604238	 170549234	 161711.
12:17:18 1552 1553	 1492604238	 336096713	 165547.
12:17:18 1553 1554	 1492604238	 497784914	 161689.
12:17:18 1554 1555	 1492604238	 663584806	 165800.
12:17:18 1555 1556	 1492604238	 796677051	 133092.
12:17:18 1556 1557	 1492604238	 958404808	 161728.
12:17:19 1557 1558	 1492604239	 124103403	 165698.
12:17:19 1558 1559	 1492604239	 285570058	 161467.
12:17:19 1559 1560	 1492604239	 447004575	 161434.
12:17:19 1560 1561	 1492604239	 612599556	 165595.
12:17:19 1561 1562	 1492604239	 774204024	 161605.
12:17:19 1562 1563	 1492604239	 907280586	 133076.
12:17:20 1563 1564	 1492604240	 73083755	 165803.
12:17:20 1564 1565	 1492604240	 234658815	 161576.
12:17:20 1565 1566	 1492604240	 396503794	 161845.
12:17:20 1566 1567	 1492604240	 562293741	 165789.
12:17:20 1567 1568	 1492604240	 724001060	 161708.
12:17:20 1568 1569	 1492604240	 889619441	 165618.
12:17:21 1569 1570	 1492604241	 51642909	 162024.
12:17:21 1570 1571	 1492604241	 184600489	 132957.
12:17:21 1571 1572	 1492604241	 350491402	 165891.
12:17:21 1572 1573	 1492604241	 512066617	 161575.
12:17:21 1573 1574	 1492604241	 673687644	 161621.
12:17:21 1574 1575	 1492604241	 839509536	 165822.
12:17:22 1575 1576	 1492604242	 1113919	 161605.
12:17:22 1576 1577	 1492604242	 134245199	 133131.
12:17:22 1577 1578	 1492604242	 299939615	 165694.
12:17:22 1578 1579	 1492604242	 461574341	 161635.
12:17:22 1579 1580	 1492604242	 623202036	 161628.
12:17:22 1580 1581	 1492604242	 789101573	 165899.
12:17:22 1581 1582	 1492604242	 955020966	 165920.
12:17:23 1582 1583	 1492604243	 116762118	 161741.
12:17:23 1583 1584	 1492604243	 253977946	 137216.
12:17:23 1584 1585	 1492604243	 415655836	 161678.
12:17:23 1585 1586	 1492604243	 577497026	 161841.
12:17:23 1586 1587	 1492604243	 743398597	 165901.
12:17:23 1587 1588	 1492604243	 905349064	 161951.
12:17:24 1588 1589	 1492604244	 67057136	 161708.
12:17:24 1589 1590	 1492604244	 233097795	 166041.
12:17:24 1590 1591	 1492604244	 366197874	 133100.
12:17:24 1591 1592	 1492604244	 532142648	 165944.
12:17:24 1592 1593	 1492604244	 698047807	 165906.
12:17:24 1593 1594	 1492604244	 859896198	 161848.
12:17:25 1594 1595	 1492604245	 21914581	 162018.
12:17:25 1595 1596	 1492604245	 187958883	 166045.
12:17:25 1596 1597	 1492604245	 349831056	 161872.
12:17:25 1597 1598	 1492604245	 515747089	 165916.
12:17:25 1598 1599	 1492604245	 677580935	 161834.
12:17:25 1599 1600	 1492604245	 814796312	 137215.
12:17:25 1600 1601	 1492604245	 976728012	 161932.
12:17:26 1601 1602	 1492604246	 138537318	 161809.
12:17:26 1602 1603	 1492604246	 304734178	 166197.
12:17:26 1603 1604	 1492604246	 466563915	 161830.
12:17:26 1604 1605	 1492604246	 632309724	 165745.
12:17:26 1605 1606	 1492604246	 790629550	 158320.
12:17:26 1606 1607	 1492604246	 956562962	 165934.
12:17:27 1607 1608	 1492604247	 118455133	 161892.
12:17:27 1608 1609	 1492604247	 255616938	 137162.
12:17:27 1609 1610	 1492604247	 417441818	 161825.
12:17:27 1610 1611	 1492604247	 583287966	 165846.
12:17:27 1611 1612	 1492604247	 745132531	 161844.
12:17:27 1612 1613	 1492604247	 911209214	 166077.
12:17:28 1613 1614	 1492604248	 73302124	 162093.
12:17:28 1614 1615	 1492604248	 235105532	 161803.
12:17:28 1615 1616	 1492604248	 400947624	 165842.
12:17:28 1616 1617	 1492604248	 534063028	 133116.
12:17:28 1617 1618	 1492604248	 699802283	 165739.
12:17:28 1618 1619	 1492604248	 861565533	 161763.
12:17:29 1619 1620	 1492604249	 23471167	 161906.
12:17:29 1620 1621	 1492604249	 189510358	 166039.
12:17:29 1621 1622	 1492604249	 351202891	 161693.
12:17:29 1622 1623	 1492604249	 517232744	 166029.
12:17:29 1623 1624	 1492604249	 678972217	 161740.
12:17:29 1624 1625	 1492604249	 812127879	 133156.
12:17:29 1625 1626	 1492604249	 977906945	 165779.
12:17:30 1626 1627	 1492604250	 139742730	 161835.
12:17:30 1627 1628	 1492604250	 305662131	 165920.
12:17:30 1628 1629	 1492604250	 467342959	 161681.
12:17:30 1629 1630	 1492604250	 633159575	 165816.
12:17:30 1630 1631	 1492604250	 794986324	 161827.
12:17:30 1631 1632	 1492604250	 932291913	 137306.
12:17:31 1632 1633	 1492604251	 94149274	 161857.
12:17:31 1633 1634	 1492604251	 256014323	 161865.
12:17:31 1634 1635	 1492604251	 418550515	 162536.
12:17:31 1635 1636	 1492604251	 580446907	 161897.
12:17:31 1636 1637	 1492604251	 742994565	 162547.
12:17:31 1637 1638	 1492604251	 904765317	 161771.
12:17:32 1638 1639	 1492604252	 66686827	 161922.
12:17:32 1639 1640	 1492604252	 232709596	 166022.
12:17:32 1640 1641	 1492604252	 398489127	 165780.
12:17:32 1641 1642	 1492604252	 560276928	 161788.
12:17:32 1642 1643	 1492604252	 693357251	 133080.
12:17:32 1643 1644	 1492604252	 884499367	 191142.
12:17:33 1644 1645	 1492604253	 17715623	 133216.
12:17:33 1645 1646	 1492604253	 183766365	 166051.
12:17:33 1646 1647	 1492604253	 345626993	 161861.
12:17:33 1647 1648	 1492604253	 507268050	 161641.
12:17:33 1648 1649	 1492604253	 673127650	 165859.
12:17:33 1649 1650	 1492604253	 834862689	 161735.
12:17:34 1650 1651	 1492604254	 907726	 166045.
12:17:34 1651 1652	 1492604254	 162681035	 161774.
12:17:34 1652 1653	 1492604254	 295763696	 133082.
12:17:34 1653 1654	 1492604254	 461553425	 165790.
12:17:34 1654 1655	 1492604254	 623260738	 161707.
12:17:34 1655 1656	 1492604254	 785216725	 161956.
12:17:34 1656 1657	 1492604254	 950949934	 165734.
12:17:35 1657 1658	 1492604255	 112708895	 161759.
12:17:35 1658 1659	 1492604255	 278598470	 165889.
12:17:35 1659 1660	 1492604255	 411581663	 132983.
12:17:35 1660 1661	 1492604255	 577405577	 165824.
12:17:35 1661 1662	 1492604255	 739110053	 161705.
12:17:35 1662 1663	 1492604255	 904835528	 165725.
12:17:36 1663 1664	 1492604256	 66551588	 161716.
12:17:36 1664 1665	 1492604256	 232525257	 165974.
12:17:36 1665 1666	 1492604256	 394236200	 161711.
12:17:36 1666 1667	 1492604256	 527384669	 133148.
12:17:36 1667 1668	 1492604256	 693127345	 165743.
12:17:36 1668 1669	 1492604256	 855210408	 162083.
12:17:37 1669 1670	 1492604257	 17006379	 161796.
12:17:37 1670 1671	 1492604257	 182783301	 165777.
12:17:37 1671 1672	 1492604257	 344607148	 161824.
12:17:37 1672 1673	 1492604257	 506695519	 162088.
12:17:37 1673 1674	 1492604257	 672615477	 165920.
12:17:37 1674 1675	 1492604257	 834346924	 161732.
12:17:37 1675 1676	 1492604257	 971849855	 137503.
12:17:38 1676 1677	 1492604258	 129702755	 157852.
12:17:38 1677 1678	 1492604258	 295464250	 165762.
12:17:38 1678 1679	 1492604258	 461453459	 165989.
12:17:38 1679 1680	 1492604258	 623206663	 161753.
12:17:38 1680 1681	 1492604258	 784867881	 161662.
12:17:38 1681 1682	 1492604258	 950821899	 165954.
12:17:39 1682 1683	 1492604259	 116593981	 165772.
12:17:39 1683 1684	 1492604259	 278246872	 161653.
12:17:39 1684 1685	 1492604259	 411429974	 133183.
12:17:39 1685 1686	 1492604259	 577296776	 165866.
12:17:39 1686 1687	 1492604259	 739029064	 161733.
12:17:39 1687 1688	 1492604259	 904750138	 165721.
12:17:40 1688 1689	 1492604260	 66408165	 161658.
12:17:40 1689 1690	 1492604260	 232137276	 165729.
12:17:40 1690 1691	 1492604260	 393861669	 161724.
12:17:40 1691 1692	 1492604260	 527357756	 133496.
12:17:40 1692 1693	 1492604260	 689146165	 161789.
12:17:40 1693 1694	 1492604260	 854975886	 165830.
12:17:41 1694 1695	 1492604261	 20991712	 166015.
12:17:41 1695 1696	 1492604261	 178897213	 157906.
12:17:41 1696 1697	 1492604261	 344703462	 165806.
12:17:41 1697 1698	 1492604261	 506435084	 161732.
12:17:41 1698 1699	 1492604261	 672250302	 165815.
12:17:41 1699 1700	 1492604261	 834020008	 161770.
12:17:41 1700 1701	 1492604261	 971149814	 137130.
12:17:42 1701 1702	 1492604262	 132726637	 161576.
12:17:42 1702 1703	 1492604262	 298539518	 165813.
12:17:42 1703 1704	 1492604262	 460244625	 161706.
12:17:42 1704 1705	 1492604262	 625968852	 165724.
12:17:42 1705 1706	 1492604262	 787770032	 161801.
12:17:42 1706 1707	 1492604262	 949559177	 161789.
12:17:43 1707 1708	 1492604263	 86802165	 137243.
12:17:43 1708 1709	 1492604263	 248322100	 161520.
12:17:43 1709 1710	 1492604263	 409853500	 161531.
12:17:43 1710 1711	 1492604263	 575773481	 165920.
12:17:43 1711 1712	 1492604263	 737681639	 161908.
12:17:43 1712 1713	 1492604263	 896495036	 158814.
12:17:44 1713 1714	 1492604264	 58082542	 161587.
12:17:44 1714 1715	 1492604264	 223905792	 165824.
12:17:44 1715 1716	 1492604264	 385648311	 161742.
12:17:44 1716 1717	 1492604264	 551383524	 165735.
12:17:44 1717 1718	 1492604264	 712916207	 161533.
12:17:44 1718 1719	 1492604264	 850074829	 137159.
12:17:45 1719 1720	 1492604265	 11573798	 161499.
12:17:45 1720 1721	 1492604265	 177351884	 165778.
12:17:45 1721 1722	 1492604265	 339140696	 161788.
12:17:45 1722 1723	 1492604265	 501040653	 161900.
12:17:45 1723 1724	 1492604265	 666793432	 165753.
12:17:45 1724 1725	 1492604265	 828528228	 161735.
12:17:45 1725 1726	 1492604265	 965607071	 137079.
12:17:46 1726 1727	 1492604266	 127250906	 161644.
12:17:46 1727 1728	 1492604266	 288997249	 161746.
12:17:46 1728 1729	 1492604266	 454814108	 165817.
12:17:46 1729 1730	 1492604266	 616585491	 161771.
12:17:46 1730 1731	 1492604266	 782412726	 165827.
12:17:46 1731 1732	 1492604266	 944163883	 161752.
12:17:47 1732 1733	 1492604267	 109780683	 165616.
12:17:47 1733 1734	 1492604267	 242733086	 132953.
12:17:47 1734 1735	 1492604267	 408703143	 165970.
12:17:47 1735 1736	 1492604267	 570450924	 161748.
12:17:47 1736 1737	 1492604267	 732463784	 162012.
12:17:47 1737 1738	 1492604267	 898257306	 165794.
12:17:48 1738 1739	 1492604268	 60042424	 161785.
12:17:48 1739 1740	 1492604268	 225797591	 165755.
12:17:48 1740 1741	 1492604268	 387523951	 161727.
12:17:48 1741 1742	 1492604268	 524639919	 137116.
12:17:48 1742 1743	 1492604268	 686312341	 161672.
12:17:48 1743 1744	 1492604268	 851953361	 165641.
12:17:49 1744 1745	 1492604269	 14086589	 162133.
12:17:49 1745 1746	 1492604269	 171880472	 157794.
12:17:49 1746 1747	 1492604269	 337612289	 165732.
12:17:49 1747 1748	 1492604269	 499290046	 161678.
12:17:49 1748 1749	 1492604269	 661277892	 161988.
12:17:49 1749 1750	 1492604269	 823276399	 161998.
12:17:49 1750 1751	 1492604269	 960241021	 136965.
12:17:50 1751 1752	 1492604270	 121996246	 161755.
12:17:50 1752 1753	 1492604270	 287753995	 165758.
12:17:50 1753 1754	 1492604270	 449663594	 161909.
12:17:50 1754 1755	 1492604270	 615578489	 165915.
12:17:50 1755 1756	 1492604270	 777416901	 161839.
12:17:50 1756 1757	 1492604270	 943191243	 165774.
12:17:51 1757 1758	 1492604271	 105135857	 161945.
12:17:51 1758 1759	 1492604271	 270991233	 165855.
12:17:51 1759 1760	 1492604271	 403976388	 132985.
12:17:51 1760 1761	 1492604271	 565631899	 161656.
12:17:51 1761 1762	 1492604271	 731575913	 165944.
12:17:51 1762 1763	 1492604271	 893751030	 162175.
12:17:52 1763 1764	 1492604272	 55367249	 161616.
12:17:52 1764 1765	 1492604272	 217160068	 161793.
12:17:52 1765 1766	 1492604272	 382836017	 165676.
12:17:52 1766 1767	 1492604272	 515909673	 133073.
12:17:52 1767 1768	 1492604272	 681727688	 165818.
12:17:52 1768 1769	 1492604272	 843468688	 161741.
12:17:53 1769 1770	 1492604273	 4828205	 161360.
12:17:53 1770 1771	 1492604273	 170650171	 165822.
12:17:53 1771 1772	 1492604273	 332318597	 161668.
12:17:53 1772 1773	 1492604273	 498218360	 165900.
12:17:53 1773 1774	 1492604273	 660142909	 161925.
12:17:53 1774 1775	 1492604273	 793176289	 133033.
12:17:53 1775 1776	 1492604273	 958948609	 165772.
12:17:54 1776 1777	 1492604274	 120741176	 161793.
12:17:54 1777 1778	 1492604274	 286302528	 165561.
12:17:54 1778 1779	 1492604274	 447944816	 161643.
12:17:54 1779 1780	 1492604274	 613872609	 165927.
12:17:54 1780 1781	 1492604274	 775385592	 161513.
12:17:54 1781 1782	 1492604274	 908425068	 133040.
12:17:55 1782 1783	 1492604275	 74209852	 165785.
12:17:55 1783 1784	 1492604275	 235975157	 161765.
12:17:55 1784 1785	 1492604275	 397868682	 161893.
12:17:55 1785 1786	 1492604275	 563447847	 165580.
12:17:55 1786 1787	 1492604275	 725092858	 161645.
12:17:55 1787 1788	 1492604275	 890873064	 165780.
12:17:56 1788 1789	 1492604276	 23864929	 132992.
12:17:56 1789 1790	 1492604276	 185534055	 161669.
12:17:56 1790 1791	 1492604276	 351421956	 165888.
12:17:56 1791 1792	 1492604276	 513183240	 161761.
12:17:56 1792 1793	 1492604276	 679082882	 165900.
12:17:56 1793 1794	 1492604276	 840800030	 161717.
12:17:57 1794 1795	 1492604277	 6656970	 165857.
12:17:57 1795 1796	 1492604277	 139693711	 133036.
12:17:57 1796 1797	 1492604277	 305449193	 165756.
12:17:57 1797 1798	 1492604277	 467193998	 161745.
12:17:57 1798 1799	 1492604277	 633063941	 165870.
12:17:57 1799 1800	 1492604277	 794785234	 161721.
12:17:57 1800 1801	 1492604277	 956387453	 161602.
12:17:58 1801 1802	 1492604278	 122337223	 165950.
12:17:58 1802 1803	 1492604278	 255374765	 133037.
12:17:58 1803 1804	 1492604278	 421188322	 165814.
12:17:58 1804 1805	 1492604278	 582973015	 161785.
12:17:58 1805 1806	 1492604278	 748786695	 165813.
12:17:58 1806 1807	 1492604278	 910476322	 161690.
12:17:59 1807 1808	 1492604279	 72064719	 161588.
12:17:59 1808 1809	 1492604279	 237846355	 165782.
12:17:59 1809 1810	 1492604279	 370753328	 132907.
12:17:59 1810 1811	 1492604279	 536551805	 165799.
12:17:59 1811 1812	 1492604279	 698271953	 161720.
12:17:59 1812 1813	 1492604279	 859907306	 161635.
12:18:00 1813 1814	 1492604280	 25857632	 165950.
12:18:00 1814 1815	 1492604280	 187761349	 161904.
12:18:00 1815 1816	 1492604280	 353507880	 165747.
12:18:00 1816 1817	 1492604280	 486457964	 132950.
12:18:00 1817 1818	 1492604280	 652019084	 165561.
12:18:00 1818 1819	 1492604280	 813694773	 161675.
12:18:00 1819 1820	 1492604280	 975422504	 161728.
12:18:01 1820 1821	 1492604281	 141470589	 166048.
12:18:01 1821 1822	 1492604281	 303321843	 161852.
12:18:01 1822 1823	 1492604281	 469124565	 165802.
12:18:01 1823 1824	 1492604281	 602010868	 132887.
12:18:01 1824 1825	 1492604281	 767835915	 165825.
12:18:01 1825 1826	 1492604281	 929635481	 161799.
12:18:02 1826 1827	 1492604282	 95511958	 165877.
12:18:02 1827 1828	 1492604282	 257300862	 161789.
12:18:02 1828 1829	 1492604282	 423372685	 166071.
12:18:02 1829 1830	 1492604282	 585261234	 161889.
12:18:02 1830 1831	 1492604282	 722678625	 137417.
12:18:02 1831 1832	 1492604282	 884655153	 161977.
12:18:03 1832 1833	 1492604283	 50598489	 165943.
12:18:03 1833 1834	 1492604283	 212509175	 161911.
12:18:03 1834 1835	 1492604283	 374279071	 161770.
12:18:03 1835 1836	 1492604283	 540052064	 165773.
12:18:03 1836 1837	 1492604283	 701958055	 161906.
12:18:03 1837 1838	 1492604283	 839097575	 137139.
12:18:03 1838 1839	 1492604284	 881886	 161785.
12:18:04 1839 1840	 1492604284	 166799002	 165917.
12:18:04 1840 1841	 1492604284	 328631014	 161832.
12:18:04 1841 1842	 1492604284	 494405752	 165774.
12:18:04 1842 1843	 1492604284	 656120911	 161716.
12:18:04 1843 1844	 1492604284	 822053745	 165932.
12:18:04 1844 1845	 1492604284	 955205952	 133153.
12:18:05 1845 1846	 1492604285	 121013883	 165808.
12:18:05 1846 1847	 1492604285	 282862756	 161848.
12:18:05 1847 1848	 1492604285	 444832086	 161970.
12:18:05 1848 1849	 1492604285	 610722660	 165890.
12:18:05 1849 1850	 1492604285	 772572172	 161850.
12:18:05 1850 1851	 1492604285	 939453259	 166881.
12:18:06 1851 1852	 1492604286	 97371299	 157918.
12:18:06 1852 1853	 1492604286	 259085607	 161714.
12:18:06 1853 1854	 1492604286	 396229320	 137144.
12:18:06 1854 1855	 1492604286	 557980156	 161751.
12:18:06 1855 1856	 1492604286	 723721660	 165741.
12:18:06 1856 1857	 1492604286	 885618467	 161897.
12:18:07 1857 1858	 1492604287	 51366598	 165748.
12:18:07 1858 1859	 1492604287	 213036188	 161670.
12:18:07 1859 1860	 1492604287	 374753397	 161717.
12:18:07 1860 1861	 1492604287	 540650020	 165897.
12:18:07 1861 1862	 1492604287	 673755801	 133106.
12:18:07 1862 1863	 1492604287	 839373773	 165617.
12:18:07 1863 1864	 1492604288	 1207868	 161835.
12:18:08 1864 1865	 1492604288	 167171484	 165963.
12:18:08 1865 1866	 1492604288	 325215496	 158044.
12:18:08 1866 1867	 1492604288	 491186331	 165971.
12:18:08 1867 1868	 1492604288	 653129027	 161943.
12:18:08 1868 1869	 1492604288	 790331000	 137202.
12:18:08 1869 1870	 1492604288	 952118387	 161787.
12:18:09 1870 1871	 1492604289	 117938171	 165820.
12:18:09 1871 1872	 1492604289	 279919009	 161981.
12:18:09 1872 1873	 1492604289	 446024336	 166105.
12:18:09 1873 1874	 1492604289	 607919999	 161896.
12:18:09 1874 1875	 1492604289	 773747179	 165827.
12:18:09 1875 1876	 1492604289	 906958038	 133211.
12:18:10 1876 1877	 1492604290	 72896810	 165939.
12:18:10 1877 1878	 1492604290	 234645762	 161748.
12:18:10 1878 1879	 1492604290	 400395751	 165750.
12:18:10 1879 1880	 1492604290	 562537202	 162142.
12:18:10 1880 1881	 1492604290	 724176094	 161639.
12:18:10 1881 1882	 1492604290	 889831141	 165655.
