06:57:35    0 Step	 time(s)	 time(ns)	 delta(ms)
06:57:35    0 1	 1492325855	 452041183	 920.
06:57:35    1 2	 1492325855	 613987647	 161946.
06:57:35    2 3	 1492325855	 780042653	 166055.
06:57:35    3 4	 1492325855	 942054693	 162012.
06:57:36    4 5	 1492325856	 108016853	 165963.
06:57:36    5 6	 1492325856	 269753879	 161737.
06:57:36    6 7	 1492325856	 435665491	 165911.
06:57:36    7 8	 1492325856	 568769515	 133104.
06:57:36    8 9	 1492325856	 734623227	 165854.
06:57:36    9 10	 1492325856	 896464046	 161841.
06:57:37   10 11	 1492325857	 62452409	 165988.
06:57:37   11 12	 1492325857	 224164566	 161712.
06:57:37   12 13	 1492325857	 386466960	 162303.
06:57:37   13 14	 1492325857	 548441436	 161974.
06:57:37   14 15	 1492325857	 714430360	 165989.
06:57:37   15 16	 1492325857	 847681807	 133252.
06:57:38   16 17	 1492325858	 13598097	 165916.
06:57:38   17 18	 1492325858	 175409158	 161811.
06:57:38   18 19	 1492325858	 341287355	 165878.
06:57:38   19 20	 1492325858	 503192262	 161905.
06:57:38   20 21	 1492325858	 669064480	 165872.
06:57:38   21 22	 1492325858	 830892237	 161828.
06:57:38   22 23	 1492325858	 968066614	 137174.
06:57:39   23 24	 1492325859	 129912908	 161847.
06:57:39   24 25	 1492325859	 295839110	 165926.
06:57:39   25 26	 1492325859	 457932187	 162093.
06:57:39   26 27	 1492325859	 619950534	 162018.
06:57:39   27 28	 1492325859	 785968975	 166019.
06:57:39   28 29	 1492325859	 948079222	 162110.
06:57:40   29 30	 1492325860	 110214898	 162136.
06:57:40   30 31	 1492325860	 247433509	 137218.
06:57:40   31 32	 1492325860	 409471104	 162038.
06:57:40   32 33	 1492325860	 575372304	 165901.
06:57:40   33 34	 1492325860	 737300320	 161928.
06:57:40   34 35	 1492325860	 904087762	 166787.
06:57:41   35 36	 1492325861	 61761084	 157674.
06:57:41   36 37	 1492325861	 223621142	 161860.
06:57:41   37 38	 1492325861	 389575305	 165954.
06:57:41   38 39	 1492325861	 551403291	 161828.
06:57:41   39 40	 1492325861	 684481238	 133078.
06:57:41   40 41	 1492325861	 850490967	 166010.
06:57:42   41 42	 1492325862	 12411746	 161920.
06:57:42   42 43	 1492325862	 174519025	 162108.
06:57:42   43 44	 1492325862	 340386111	 165867.
06:57:42   44 45	 1492325862	 502169293	 161783.
06:57:42   45 46	 1492325862	 668067849	 165899.
06:57:42   46 47	 1492325862	 801235483	 133167.
06:57:42   47 48	 1492325862	 967124118	 165889.
06:57:43   48 49	 1492325863	 125537951	 158414.
06:57:43   49 50	 1492325863	 291617257	 166079.
06:57:43   50 51	 1492325863	 453581982	 161965.
06:57:43   51 52	 1492325863	 616088078	 162506.
06:57:43   52 53	 1492325863	 782256613	 166169.
06:57:43   53 54	 1492325863	 944345897	 162089.
06:57:44   54 55	 1492325864	 106575908	 162230.
06:57:44   55 56	 1492325864	 239702249	 133126.
06:57:44   56 57	 1492325864	 405741617	 166039.
06:57:44   57 58	 1492325864	 567569223	 161828.
06:57:44   58 59	 1492325864	 733557272	 165988.
06:57:44   59 60	 1492325864	 899427740	 165870.
06:57:45   60 61	 1492325865	 61275341	 161848.
06:57:45   61 62	 1492325865	 227272816	 165998.
06:57:45   62 63	 1492325865	 360513203	 133240.
06:57:45   63 64	 1492325865	 522586827	 162074.
06:57:45   64 65	 1492325865	 688531490	 165944.
06:57:45   65 66	 1492325865	 850462573	 161931.
06:57:46   66 67	 1492325866	 16430983	 165969.
06:57:46   67 68	 1492325866	 178557063	 162126.
06:57:46   68 69	 1492325866	 344366411	 165809.
06:57:46   69 70	 1492325866	 477517257	 133151.
06:57:46   70 71	 1492325866	 643491613	 165974.
06:57:46   71 72	 1492325866	 805421491	 161930.
06:57:46   72 73	 1492325866	 971513753	 166092.
06:57:47   73 74	 1492325867	 133474623	 161961.
06:57:47   74 75	 1492325867	 299424427	 165950.
06:57:47   75 76	 1492325867	 461536150	 162115.
06:57:47   76 77	 1492325867	 598895453	 137356.
06:57:47   77 78	 1492325867	 786113883	 187219.
06:57:47   78 79	 1492325867	 919168049	 133054.
06:57:48   79 80	 1492325868	 85133523	 165965.
06:57:48   80 81	 1492325868	 247187229	 162054.
06:57:48   81 82	 1492325868	 409225839	 162039.
06:57:48   82 83	 1492325868	 575192357	 165966.
06:57:48   83 84	 1492325868	 737193323	 162001.
06:57:48   84 85	 1492325868	 899425377	 162232.
06:57:49   85 86	 1492325869	 65268461	 165843.
06:57:49   86 87	 1492325869	 198595823	 133328.
06:57:49   87 88	 1492325869	 360663353	 162067.
06:57:49   88 89	 1492325869	 526700599	 166037.
06:57:49   89 90	 1492325869	 688685805	 161986.
06:57:49   90 91	 1492325869	 854730828	 166045.
06:57:50   91 92	 1492325870	 20714495	 165983.
06:57:50   92 93	 1492325870	 178964694	 158250.
06:57:50   93 94	 1492325870	 345081657	 166117.
06:57:50   94 95	 1492325870	 478361278	 133280.
06:57:50   95 96	 1492325870	 644403964	 166043.
06:57:50   96 97	 1492325870	 806383360	 161979.
06:57:50   97 98	 1492325870	 972413473	 166030.
06:57:51   98 99	 1492325871	 135015106	 162602.
06:57:51   99 100	 1492325871	 296930784	 161916.
06:57:51  100 101	 1492325871	 458879459	 161948.
06:57:51  101 102	 1492325871	 596169431	 137290.
06:57:51  102 103	 1492325871	 758078345	 161909.
06:57:51  103 104	 1492325871	 924431273	 166353.
06:57:52  104 105	 1492325872	 86480319	 162049.
06:57:52  105 106	 1492325872	 248359297	 161879.
06:57:52  106 107	 1492325872	 414289249	 165930.
06:57:52  107 108	 1492325872	 576119859	 161831.
06:57:52  108 109	 1492325872	 738311502	 162191.
06:57:52  109 110	 1492325872	 871433895	 133123.
06:57:53  110 111	 1492325873	 33575831	 162142.
06:57:53  111 112	 1492325873	 199500821	 165925.
06:57:53  112 113	 1492325873	 361402864	 161902.
06:57:53  113 114	 1492325873	 516857458	 155454.
06:57:53  114 115	 1492325873	 675304742	 158447.
06:57:53  115 116	 1492325873	 837037555	 161733.
06:57:53  116 117	 1492325874	 2925000	 165888.
06:57:54  117 118	 1492325874	 164811483	 161886.
06:57:54  118 119	 1492325874	 330862923	 166052.
06:57:54  119 120	 1492325874	 488793936	 157931.
06:57:54  120 121	 1492325874	 654688961	 165895.
06:57:54  121 122	 1492325874	 787838991	 133150.
06:57:54  122 123	 1492325874	 953762454	 165923.
06:57:55  123 124	 1492325875	 116014335	 162252.
06:57:55  124 125	 1492325875	 277907675	 161893.
06:57:55  125 126	 1492325875	 439976062	 162069.
06:57:55  126 127	 1492325875	 602125633	 162149.
06:57:55  127 128	 1492325875	 763846748	 161721.
06:57:55  128 129	 1492325875	 929778885	 165933.
06:57:56  129 130	 1492325876	 63003999	 133225.
06:57:56  130 131	 1492325876	 228802940	 165799.
06:57:56  131 132	 1492325876	 387089355	 158286.
06:57:56  132 133	 1492325876	 548776303	 161687.
06:57:56  133 134	 1492325876	 714600705	 165824.
06:57:56  134 135	 1492325876	 880482172	 165882.
06:57:57  135 136	 1492325877	 42523829	 162042.
06:57:57  136 137	 1492325877	 204389939	 161866.
06:57:57  137 138	 1492325877	 337507512	 133117.
06:57:57  138 139	 1492325877	 503446805	 165940.
06:57:57  139 140	 1492325877	 669268751	 165821.
06:57:57  140 141	 1492325877	 831920541	 162652.
06:57:57  141 142	 1492325877	 989733947	 157814.
06:57:58  142 143	 1492325878	 155692946	 165959.
06:57:58  143 144	 1492325878	 317807701	 162114.
06:57:58  144 145	 1492325878	 479540920	 161734.
06:57:58  145 146	 1492325878	 612711224	 133170.
06:57:58  146 147	 1492325878	 778569595	 165858.
06:57:58  147 148	 1492325878	 940274424	 161705.
06:57:59  148 149	 1492325879	 106163499	 165889.
06:57:59  149 150	 1492325879	 268040651	 161877.
06:57:59  150 151	 1492325879	 433791107	 165751.
06:57:59  151 152	 1492325879	 592133037	 158342.
06:57:59  152 153	 1492325879	 757876970	 165744.
06:57:59  153 154	 1492325879	 916069910	 158193.
06:58:00  154 155	 1492325880	 53523189	 137453.
06:58:00  155 156	 1492325880	 215524127	 162001.
06:58:00  156 157	 1492325880	 381615149	 166091.
06:58:00  157 158	 1492325880	 543520557	 161905.
06:58:00  158 159	 1492325880	 705433145	 161913.
06:58:00  159 160	 1492325880	 871384949	 165952.
06:58:01  160 161	 1492325881	 37335889	 165951.
06:58:01  161 162	 1492325881	 170462609	 133126.
06:58:01  162 163	 1492325881	 336529522	 166067.
06:58:01  163 164	 1492325881	 498428849	 161900.
06:58:01  164 165	 1492325881	 664509025	 166080.
06:58:01  165 166	 1492325881	 830471670	 165963.
06:58:01  166 167	 1492325881	 992322392	 161850.
06:58:02  167 168	 1492325882	 158363497	 166041.
06:58:02  168 169	 1492325882	 291590983	 133228.
06:58:02  169 170	 1492325882	 457670525	 166079.
06:58:02  170 171	 1492325882	 619522521	 161852.
06:58:02  171 172	 1492325882	 785425494	 165903.
06:58:02  172 173	 1492325882	 947313161	 161888.
06:58:03  173 174	 1492325883	 113409127	 166096.
06:58:03  174 175	 1492325883	 246411275	 133002.
06:58:03  175 176	 1492325883	 412589373	 166178.
06:58:03  176 177	 1492325883	 574471365	 161882.
06:58:03  177 178	 1492325883	 736496859	 162026.
06:58:03  178 179	 1492325883	 898919273	 162422.
06:58:04  179 180	 1492325884	 64916315	 165997.
06:58:04  180 181	 1492325884	 226950108	 162034.
06:58:04  181 182	 1492325884	 392846841	 165897.
06:58:04  182 183	 1492325884	 526020984	 133174.
06:58:04  183 184	 1492325884	 691950327	 165929.
06:58:04  184 185	 1492325884	 853917666	 161967.
06:58:05  185 186	 1492325885	 15852034	 161935.
06:58:05  186 187	 1492325885	 181960612	 166108.
06:58:05  187 188	 1492325885	 348031592	 166071.
06:58:05  188 189	 1492325885	 509958167	 161927.
06:58:05  189 190	 1492325885	 647253317	 137295.
06:58:05  190 191	 1492325885	 809000838	 161748.
06:58:05  191 192	 1492325885	 974958465	 165957.
06:58:06  192 193	 1492325886	 136992621	 162034.
06:58:06  193 194	 1492325886	 298869832	 161878.
06:58:06  194 195	 1492325886	 464916934	 166047.
06:58:06  195 196	 1492325886	 597934468	 133017.
06:58:06  196 197	 1492325886	 756383696	 158449.
06:58:06  197 198	 1492325886	 922367148	 165984.
06:58:07  198 199	 1492325887	 88405390	 166038.
06:58:07  199 200	 1492325887	 250372409	 161967.
06:58:07  200 201	 1492325887	 416302278	 165930.
06:58:07  201 202	 1492325887	 578282904	 161981.
06:58:07  202 203	 1492325887	 740249178	 161966.
06:58:07  203 204	 1492325887	 906266605	 166017.
06:58:08  204 205	 1492325888	 39448908	 133183.
06:58:08  205 206	 1492325888	 205464589	 166015.
06:58:08  206 207	 1492325888	 367661471	 162197.
06:58:08  207 208	 1492325888	 529603662	 161942.
06:58:08  208 209	 1492325888	 691495109	 161892.
06:58:08  209 210	 1492325888	 857270912	 165776.
06:58:09  210 211	 1492325889	 19371112	 162100.
06:58:09  211 212	 1492325889	 156584506	 137213.
06:58:09  212 213	 1492325889	 318545192	 161961.
06:58:09  213 214	 1492325889	 477074518	 158529.
06:58:09  214 215	 1492325889	 639518749	 162444.
06:58:09  215 216	 1492325889	 801282784	 161765.
06:58:09  216 217	 1492325889	 967387185	 166104.
06:58:10  217 218	 1492325890	 129259177	 161872.
06:58:10  218 219	 1492325890	 295098161	 165839.
06:58:10  219 220	 1492325890	 460952817	 165855.
06:58:10  220 221	 1492325890	 594156514	 133203.
06:58:10  221 222	 1492325890	 756002419	 161846.
06:58:10  222 223	 1492325890	 921892482	 165890.
06:58:11  223 224	 1492325891	 80594709	 158702.
06:58:11  224 225	 1492325891	 243027886	 162434.
06:58:11  225 226	 1492325891	 405168404	 162140.
06:58:11  226 227	 1492325891	 567606209	 162438.
06:58:11  227 228	 1492325891	 733648016	 166042.
06:58:11  228 229	 1492325891	 895680232	 162032.
06:58:12  229 230	 1492325892	 61667009	 165987.
06:58:12  230 231	 1492325892	 194901409	 133234.
06:58:12  231 232	 1492325892	 360931668	 166030.
06:58:12  232 233	 1492325892	 522898079	 161967.
06:58:12  233 234	 1492325892	 688930799	 166033.
06:58:12  234 235	 1492325892	 850859207	 161928.
06:58:13  235 236	 1492325893	 12800783	 161941.
06:58:13  236 237	 1492325893	 149893565	 137093.
06:58:13  237 238	 1492325893	 311798218	 161905.
06:58:13  238 239	 1492325893	 477901266	 166103.
06:58:13  239 240	 1492325893	 639761292	 161860.
06:58:13  240 241	 1492325893	 805683291	 165922.
06:58:13  241 242	 1492325893	 967476871	 161794.
06:58:14  242 243	 1492325894	 133449440	 165972.
06:58:14  243 244	 1492325894	 266595093	 133146.
06:58:14  244 245	 1492325894	 428502313	 161907.
06:58:14  245 246	 1492325894	 594639935	 166138.
06:58:14  246 247	 1492325894	 757218405	 162578.
06:58:14  247 248	 1492325894	 915232987	 158015.
06:58:15  248 249	 1492325895	 81315295	 166082.
06:58:15  249 250	 1492325895	 243193152	 161878.
06:58:15  250 251	 1492325895	 409147041	 165954.
06:58:15  251 252	 1492325895	 542360058	 133213.
06:58:15  252 253	 1492325895	 708681107	 166321.
06:58:15  253 254	 1492325895	 870595085	 161914.
06:58:16  254 255	 1492325896	 36591070	 165996.
06:58:16  255 256	 1492325896	 198629132	 162038.
06:58:16  256 257	 1492325896	 364706921	 166078.
06:58:16  257 258	 1492325896	 526767814	 162061.
06:58:16  258 259	 1492325896	 664043521	 137275.
06:58:16  259 260	 1492325896	 826192659	 162149.
06:58:16  260 261	 1492325896	 992246816	 166055.
06:58:17  261 262	 1492325897	 154123177	 161876.
06:58:17  262 263	 1492325897	 320009779	 165886.
06:58:17  263 264	 1492325897	 482033897	 162025.
06:58:17  264 265	 1492325897	 648122336	 166088.
06:58:17  265 266	 1492325897	 781287850	 133166.
06:58:17  266 267	 1492325897	 947229505	 165941.
06:58:18  267 268	 1492325898	 109213706	 161984.
06:58:18  268 269	 1492325898	 275093801	 165881.
06:58:18  269 270	 1492325898	 437096384	 162002.
06:58:18  270 271	 1492325898	 599708912	 162613.
06:58:18  271 272	 1492325898	 758141261	 158432.
06:58:18  272 273	 1492325898	 924161492	 166020.
06:58:19  273 274	 1492325899	 86100766	 161939.
06:58:19  274 275	 1492325899	 223321568	 137221.
06:58:19  275 276	 1492325899	 385237173	 161916.
06:58:19  276 277	 1492325899	 547592879	 162356.
06:58:19  277 278	 1492325899	 709463829	 161871.
06:58:19  278 279	 1492325899	 871684746	 162220.
06:58:20  279 280	 1492325900	 34154205	 162470.
06:58:20  280 281	 1492325900	 196033922	 161880.
06:58:20  281 282	 1492325900	 361993245	 165959.
06:58:20  282 283	 1492325900	 523866096	 161873.
06:58:20  283 284	 1492325900	 686054390	 162188.
06:58:20  284 285	 1492325900	 819177830	 133124.
06:58:20  285 286	 1492325900	 985062554	 165885.
06:58:21  286 287	 1492325901	 147302025	 162239.
06:58:21  287 288	 1492325901	 309675204	 162373.
06:58:21  288 289	 1492325901	 467879330	 158204.
06:58:21  289 290	 1492325901	 626071782	 158192.
06:58:21  290 291	 1492325901	 792172322	 166101.
06:58:21  291 292	 1492325901	 954087729	 161915.
06:58:22  292 293	 1492325902	 120240067	 166153.
06:58:22  293 294	 1492325902	 282148232	 161908.
06:58:22  294 295	 1492325902	 419533245	 137385.
06:58:22  295 296	 1492325902	 581321326	 161788.
06:58:22  296 297	 1492325902	 743310265	 161989.
06:58:22  297 298	 1492325902	 909223515	 165913.
06:58:23  298 299	 1492325903	 70951677	 161728.
06:58:23  299 300	 1492325903	 237286550	 166335.
06:58:23  300 301	 1492325903	 400114513	 162828.
06:58:23  301 302	 1492325903	 553889330	 153775.
06:58:23  302 303	 1492325903	 715822652	 161933.
06:58:23  303 304	 1492325903	 881695167	 165873.
06:58:24  304 305	 1492325904	 18937864	 137243.
06:58:24  305 306	 1492325904	 180548655	 161611.
06:58:24  306 307	 1492325904	 346447900	 165899.
06:58:24  307 308	 1492325904	 508340919	 161893.
06:58:24  308 309	 1492325904	 674814506	 166473.
06:58:24  309 310	 1492325904	 832611838	 157798.
06:58:24  310 311	 1492325904	 994413448	 161801.
06:58:25  311 312	 1492325905	 131648299	 137235.
06:58:25  312 313	 1492325905	 293469309	 161821.
06:58:25  313 314	 1492325905	 459344848	 165876.
06:58:25  314 315	 1492325905	 621200360	 161855.
06:58:25  315 316	 1492325905	 787207922	 166008.
06:58:25  316 317	 1492325905	 948944662	 161736.
06:58:26  317 318	 1492325906	 82158962	 133215.
06:58:26  318 319	 1492325906	 248079150	 165920.
06:58:26  319 320	 1492325906	 409808576	 161729.
06:58:26  320 321	 1492325906	 575830669	 166022.
06:58:26  321 322	 1492325906	 737759045	 161929.
06:58:26  322 323	 1492325906	 903520073	 165761.
06:58:27  323 324	 1492325907	 65275988	 161756.
06:58:27  324 325	 1492325907	 202448087	 137172.
06:58:27  325 326	 1492325907	 364337849	 161890.
06:58:27  326 327	 1492325907	 530244441	 165906.
06:58:27  327 328	 1492325907	 692014673	 161770.
06:58:27  328 329	 1492325907	 858010851	 165997.
06:58:28  329 330	 1492325908	 19948594	 161937.
06:58:28  330 331	 1492325908	 182365738	 162417.
06:58:28  331 332	 1492325908	 344219689	 161854.
06:58:28  332 333	 1492325908	 477414426	 133195.
06:58:28  333 334	 1492325908	 643216808	 165803.
06:58:28  334 335	 1492325908	 805093270	 161876.
06:58:28  335 336	 1492325908	 970972036	 165879.
06:58:29  336 337	 1492325909	 132819220	 161847.
06:58:29  337 338	 1492325909	 298686171	 165867.
06:58:29  338 339	 1492325909	 431805582	 133119.
06:58:29  339 340	 1492325909	 597564156	 165759.
06:58:29  340 341	 1492325909	 759312624	 161748.
06:58:29  341 342	 1492325909	 925250975	 165939.
06:58:30  342 343	 1492325910	 87057644	 161806.
06:58:30  343 344	 1492325910	 253089393	 166032.
06:58:30  344 345	 1492325910	 411569586	 158480.
06:58:30  345 346	 1492325910	 573343741	 161774.
06:58:30  346 347	 1492325910	 710392651	 137049.
06:58:30  347 348	 1492325910	 872117939	 161726.
06:58:31  348 349	 1492325911	 34026603	 161908.
06:58:31  349 350	 1492325911	 199922690	 165896.
06:58:31  350 351	 1492325911	 361713792	 161791.
06:58:31  351 352	 1492325911	 527598528	 165885.
06:58:31  352 353	 1492325911	 690276494	 162678.
06:58:31  353 354	 1492325911	 848093685	 157817.
06:58:31  354 355	 1492325911	 985354589	 137261.
06:58:32  355 356	 1492325912	 147188509	 161834.
06:58:32  356 357	 1492325912	 309395528	 162207.
06:58:32  357 358	 1492325912	 475304112	 165909.
06:58:32  358 359	 1492325912	 637153768	 161849.
06:58:32  359 360	 1492325912	 798937644	 161784.
06:58:32  360 361	 1492325912	 964859711	 165922.
06:58:33  361 362	 1492325913	 126614166	 161755.
06:58:33  362 363	 1492325913	 263787201	 137173.
06:58:33  363 364	 1492325913	 425485595	 161698.
06:58:33  364 365	 1492325913	 591264683	 165779.
06:58:33  365 366	 1492325913	 752959868	 161696.
06:58:33  366 367	 1492325913	 918781725	 165821.
06:58:34  367 368	 1492325914	 80846018	 162065.
06:58:34  368 369	 1492325914	 214292079	 133446.
06:58:34  369 370	 1492325914	 376115198	 161823.
06:58:34  370 371	 1492325914	 541929684	 165814.
06:58:34  371 372	 1492325914	 703695782	 161767.
06:58:34  372 373	 1492325914	 869543954	 165848.
06:58:35  373 374	 1492325915	 31394236	 161850.
06:58:35  374 375	 1492325915	 193777951	 162384.
06:58:35  375 376	 1492325915	 355605577	 161827.
06:58:35  376 377	 1492325915	 488762401	 133157.
06:58:35  377 378	 1492325915	 654440916	 165679.
06:58:35  378 379	 1492325915	 816185019	 161744.
06:58:35  379 380	 1492325915	 982122586	 165937.
06:58:36  380 381	 1492325916	 144073148	 161951.
06:58:36  381 382	 1492325916	 310034704	 165961.
06:58:36  382 383	 1492325916	 468431291	 158397.
06:58:36  383 384	 1492325916	 630533528	 162102.
06:58:36  384 385	 1492325916	 792402643	 161869.
06:58:36  385 386	 1492325916	 929590754	 137188.
06:58:37  386 387	 1492325917	 91526559	 161936.
06:58:37  387 388	 1492325917	 257341223	 165815.
06:58:37  388 389	 1492325917	 419296791	 161955.
06:58:37  389 390	 1492325917	 585715621	 166419.
06:58:37  390 391	 1492325917	 743459198	 157744.
06:58:37  391 392	 1492325917	 909236046	 165777.
06:58:38  392 393	 1492325918	 42204518	 132968.
06:58:38  393 394	 1492325918	 208054461	 165850.
06:58:38  394 395	 1492325918	 369953470	 161899.
06:58:38  395 396	 1492325918	 535724386	 165771.
06:58:38  396 397	 1492325918	 697557843	 161834.
06:58:38  397 398	 1492325918	 863327751	 165769.
06:58:38  398 399	 1492325919	 443850	 137117.
06:58:39  399 400	 1492325919	 162296145	 161852.
06:58:39  400 401	 1492325919	 324050332	 161754.
06:58:39  401 402	 1492325919	 489882189	 165832.
06:58:39  402 403	 1492325919	 655535885	 165654.
06:58:39  403 404	 1492325919	 817223495	 161687.
06:58:39  404 405	 1492325919	 950311276	 133088.
06:58:40  405 406	 1492325920	 116143713	 165832.
06:58:40  406 407	 1492325920	 282085641	 165942.
06:58:40  407 408	 1492325920	 443986003	 161901.
06:58:40  408 409	 1492325920	 606235691	 162249.
06:58:40  409 410	 1492325920	 768619551	 162384.
06:58:40  410 411	 1492325920	 930747457	 162128.
06:58:41  411 412	 1492325921	 92517687	 161770.
06:58:41  412 413	 1492325921	 254364397	 161847.
06:58:41  413 414	 1492325921	 391414639	 137050.
06:58:41  414 415	 1492325921	 553276273	 161862.
06:58:41  415 416	 1492325921	 719251382	 165975.
06:58:41  416 417	 1492325921	 881111080	 161860.
06:58:42  417 418	 1492325922	 46952123	 165841.
06:58:42  418 419	 1492325922	 208694336	 161742.
06:58:42  419 420	 1492325922	 345782871	 137089.
06:58:42  420 421	 1492325922	 507604199	 161821.
06:58:42  421 422	 1492325922	 673497175	 165893.
06:58:42  422 423	 1492325922	 835284449	 161787.
06:58:42  423 424	 1492325923	 2010846	 166727.
06:58:43  424 425	 1492325923	 159848599	 157837.
06:58:43  425 426	 1492325923	 321862313	 162014.
06:58:43  426 427	 1492325923	 487829632	 165967.
06:58:43  427 428	 1492325923	 645776933	 157948.
06:58:43  428 429	 1492325923	 782994067	 137217.
06:58:43  429 430	 1492325923	 944830646	 161836.
06:58:44  430 431	 1492325924	 110661581	 165831.
06:58:44  431 432	 1492325924	 272860447	 162199.
06:58:44  432 433	 1492325924	 434645466	 161785.
06:58:44  433 434	 1492325924	 596715861	 162071.
06:58:44  434 435	 1492325924	 755027428	 158311.
06:58:44  435 436	 1492325924	 921102175	 166075.
06:58:45  436 437	 1492325925	 83258233	 162156.
06:58:45  437 438	 1492325925	 216416427	 133158.
06:58:45  438 439	 1492325925	 382312575	 165896.
06:58:45  439 440	 1492325925	 544078082	 161766.
06:58:45  440 441	 1492325925	 709907419	 165829.
06:58:45  441 442	 1492325925	 871733847	 161827.
06:58:46  442 443	 1492325926	 37578223	 165844.
06:58:46  443 444	 1492325926	 170719933	 133142.
06:58:46  444 445	 1492325926	 336539004	 165819.
06:58:46  445 446	 1492325926	 498242993	 161704.
06:58:46  446 447	 1492325926	 664128627	 165885.
06:58:46  447 448	 1492325926	 826521240	 162393.
06:58:46  448 449	 1492325926	 984513292	 157992.
06:58:47  449 450	 1492325927	 150341776	 165828.
06:58:47  450 451	 1492325927	 312289626	 161948.
06:58:47  451 452	 1492325927	 445468129	 133179.
06:58:47  452 453	 1492325927	 603682457	 158214.
06:58:47  453 454	 1492325927	 769547763	 165866.
06:58:47  454 455	 1492325927	 931312378	 161764.
06:58:48  455 456	 1492325928	 97398828	 166087.
06:58:48  456 457	 1492325928	 259196808	 161798.
06:58:48  457 458	 1492325928	 424939023	 165742.
06:58:48  458 459	 1492325928	 586723278	 161784.
06:58:48  459 460	 1492325928	 719823426	 133100.
06:58:48  460 461	 1492325928	 882137956	 162315.
06:58:49  461 462	 1492325929	 44285465	 162147.
06:58:49  462 463	 1492325929	 206178253	 161893.
06:58:49  463 464	 1492325929	 372004810	 165827.
06:58:49  464 465	 1492325929	 533921421	 161916.
06:58:49  465 466	 1492325929	 699705367	 165784.
06:58:49  466 467	 1492325929	 857732363	 158027.
06:58:50  467 468	 1492325930	 23552270	 165820.
06:58:50  468 469	 1492325930	 156736862	 133185.
06:58:50  469 470	 1492325930	 322717600	 165980.
06:58:50  470 471	 1492325930	 484514242	 161797.
06:58:50  471 472	 1492325930	 650303559	 165789.
06:58:50  472 473	 1492325930	 812222223	 161919.
06:58:50  473 474	 1492325930	 978128867	 165907.
06:58:51  474 475	 1492325931	 139933740	 161804.
06:58:51  475 476	 1492325931	 277140419	 137207.
06:58:51  476 477	 1492325931	 438928041	 161788.
06:58:51  477 478	 1492325931	 600654707	 161726.
06:58:51  478 479	 1492325931	 763481069	 162827.
06:58:51  479 480	 1492325931	 921291714	 157810.
06:58:52  480 481	 1492325932	 83034418	 161743.
06:58:52  481 482	 1492325932	 248845704	 165811.
06:58:52  482 483	 1492325932	 410570056	 161725.
06:58:52  483 484	 1492325932	 547652412	 137082.
06:58:52  484 485	 1492325932	 709400486	 161748.
06:58:52  485 486	 1492325932	 875270035	 165870.
06:58:53  486 487	 1492325933	 37073763	 161803.
06:58:53  487 488	 1492325933	 202827004	 165754.
06:58:53  488 489	 1492325933	 364630191	 161803.
06:58:53  489 490	 1492325933	 501775090	 137145.
06:58:53  490 491	 1492325933	 663477207	 161702.
06:58:53  491 492	 1492325933	 829297982	 165821.
06:58:53  492 493	 1492325933	 991192895	 161895.
06:58:54  493 494	 1492325934	 157343516	 166150.
06:58:54  494 495	 1492325934	 319257442	 161914.
06:58:54  495 496	 1492325934	 485233983	 165977.
06:58:54  496 497	 1492325934	 647085536	 161851.
06:58:54  497 498	 1492325934	 780133008	 133048.
06:58:54  498 499	 1492325934	 945805456	 165672.
06:58:55  499 500	 1492325935	 107633276	 161828.
06:58:55  500 501	 1492325935	 273503978	 165871.
06:58:55  501 502	 1492325935	 435240881	 161737.
06:58:55  502 503	 1492325935	 596829034	 161588.
06:58:55  503 504	 1492325935	 734014067	 137185.
06:58:55  504 505	 1492325935	 895764552	 161750.
06:58:56  505 506	 1492325936	 61694065	 165930.
06:58:56  506 507	 1492325936	 227523161	 165829.
06:58:56  507 508	 1492325936	 389445101	 161922.
06:58:56  508 509	 1492325936	 555370252	 165925.
06:58:56  509 510	 1492325936	 717174409	 161804.
06:58:56  510 511	 1492325936	 854371009	 137197.
06:58:57  511 512	 1492325937	 16206341	 161835.
06:58:57  512 513	 1492325937	 182097361	 165891.
06:58:57  513 514	 1492325937	 343725767	 161628.
06:58:57  514 515	 1492325937	 505896503	 162171.
06:58:57  515 516	 1492325937	 667575110	 161679.
06:58:57  516 517	 1492325937	 829345959	 161771.
06:58:57  517 518	 1492325937	 966693355	 137347.
06:58:58  518 519	 1492325938	 128493039	 161800.
06:58:58  519 520	 1492325938	 294344648	 165851.
06:58:58  520 521	 1492325938	 456075261	 161731.
06:58:58  521 522	 1492325938	 621916196	 165841.
06:58:58  522 523	 1492325938	 783634150	 161718.
06:58:58  523 524	 1492325938	 920704485	 137070.
06:58:59  524 525	 1492325939	 82520335	 161816.
06:58:59  525 526	 1492325939	 244396065	 161876.
06:58:59  526 527	 1492325939	 410159717	 165763.
06:58:59  527 528	 1492325939	 571912109	 161753.
06:58:59  528 529	 1492325939	 737662938	 165751.
06:58:59  529 530	 1492325939	 896465631	 158802.
06:59:00  530 531	 1492325940	 58275489	 161810.
06:59:00  531 532	 1492325940	 220279051	 162004.
06:59:00  532 533	 1492325940	 353396295	 133117.
06:59:00  533 534	 1492325940	 519213312	 165817.
06:59:00  534 535	 1492325940	 681042675	 161829.
06:59:00  535 536	 1492325940	 847028476	 165986.
06:59:01  536 537	 1492325941	 8861949	 161834.
06:59:01  537 538	 1492325941	 174738792	 165877.
06:59:01  538 539	 1492325941	 336695273	 161956.
06:59:01  539 540	 1492325941	 469753561	 133058.
06:59:01  540 541	 1492325941	 631579507	 161826.
06:59:01  541 542	 1492325941	 797636039	 166057.
06:59:01  542 543	 1492325941	 963500045	 165864.
06:59:02  543 544	 1492325942	 125527157	 162027.
06:59:02  544 545	 1492325942	 291424378	 165897.
06:59:02  545 546	 1492325942	 424650467	 133226.
06:59:02  546 547	 1492325942	 586645706	 161995.
06:59:02  547 548	 1492325942	 752511758	 165866.
06:59:02  548 549	 1492325942	 914518075	 162007.
06:59:03  549 550	 1492325943	 76668011	 162150.
06:59:03  550 551	 1492325943	 242629481	 165961.
06:59:03  551 552	 1492325943	 404364623	 161735.
06:59:03  552 553	 1492325943	 566673716	 162309.
06:59:03  553 554	 1492325943	 704045936	 137373.
06:59:03  554 555	 1492325943	 865894031	 161848.
06:59:04  555 556	 1492325944	 27990581	 162096.
06:59:04  556 557	 1492325944	 190539578	 162549.
06:59:04  557 558	 1492325944	 352473416	 161934.
06:59:04  558 559	 1492325944	 514325485	 161852.
06:59:04  559 560	 1492325944	 680191946	 165867.
06:59:04  560 561	 1492325944	 842092247	 161900.
06:59:04  561 562	 1492325944	 979313508	 137221.
06:59:05  562 563	 1492325945	 141413453	 162100.
06:59:05  563 564	 1492325945	 307456631	 166043.
06:59:05  564 565	 1492325945	 465757890	 158302.
06:59:05  565 566	 1492325945	 631719442	 165961.
06:59:05  566 567	 1492325945	 790434467	 158715.
06:59:05  567 568	 1492325945	 952351891	 161918.
06:59:06  568 569	 1492325946	 118448111	 166096.
06:59:06  569 570	 1492325946	 280451978	 162004.
06:59:06  570 571	 1492325946	 446571356	 166119.
06:59:06  571 572	 1492325946	 579956443	 133385.
06:59:06  572 573	 1492325946	 745897531	 165941.
06:59:06  573 574	 1492325946	 907779959	 161883.
06:59:07  574 575	 1492325947	 69837137	 162057.
06:59:07  575 576	 1492325947	 235779508	 165942.
06:59:07  576 577	 1492325947	 397730091	 161951.
06:59:07  577 578	 1492325947	 563602810	 165873.
06:59:07  578 579	 1492325947	 696943427	 133340.
06:59:07  579 580	 1492325947	 859007156	 162064.
06:59:08  580 581	 1492325948	 25037331	 166030.
06:59:08  581 582	 1492325948	 187012576	 161975.
06:59:08  582 583	 1492325948	 353324667	 166312.
06:59:08  583 584	 1492325948	 515369927	 162046.
06:59:08  584 585	 1492325948	 681207039	 165837.
06:59:08  585 586	 1492325948	 843325007	 162118.
06:59:08  586 587	 1492325948	 980584658	 137259.
06:59:09  587 588	 1492325949	 142477507	 161893.
06:59:09  588 589	 1492325949	 304419901	 161943.
06:59:09  589 590	 1492325949	 470377857	 165958.
06:59:09  590 591	 1492325949	 636359221	 165981.
06:59:09  591 592	 1492325949	 798259581	 161900.
06:59:09  592 593	 1492325949	 931370385	 133111.
06:59:10  593 594	 1492325950	 97383570	 166013.
06:59:10  594 595	 1492325950	 259230609	 161847.
06:59:10  595 596	 1492325950	 425222960	 165993.
06:59:10  596 597	 1492325950	 591100615	 165877.
06:59:10  597 598	 1492325950	 752930270	 161830.
06:59:10  598 599	 1492325950	 918828010	 165898.
06:59:11  599 600	 1492325951	 52338392	 133510.
06:59:11  600 601	 1492325951	 218449593	 166111.
06:59:11  601 602	 1492325951	 380281396	 161832.
06:59:11  602 603	 1492325951	 546281622	 166000.
06:59:11  603 604	 1492325951	 708208983	 161928.
06:59:11  604 605	 1492325951	 870246771	 162038.
06:59:12  605 606	 1492325952	 36277161	 166030.
06:59:12  606 607	 1492325952	 169482256	 133205.
06:59:12  607 608	 1492325952	 335348363	 165866.
06:59:12  608 609	 1492325952	 497396525	 162048.
06:59:12  609 610	 1492325952	 660029853	 162634.
06:59:12  610 611	 1492325952	 822098771	 162068.
06:59:12  611 612	 1492325952	 984041633	 161943.
06:59:13  612 613	 1492325953	 150050244	 166009.
06:59:13  613 614	 1492325953	 311864112	 161814.
06:59:13  614 615	 1492325953	 449241938	 137378.
06:59:13  615 616	 1492325953	 611085604	 161843.
06:59:13  616 617	 1492325953	 777757979	 166673.
06:59:13  617 618	 1492325953	 935527720	 157769.
06:59:14  618 619	 1492325954	 101503280	 165976.
06:59:14  619 620	 1492325954	 263346923	 161844.
06:59:14  620 621	 1492325954	 429234216	 165887.
06:59:14  621 622	 1492325954	 590980751	 161746.
06:59:14  622 623	 1492325954	 752831119	 161851.
06:59:14  623 624	 1492325954	 890057161	 137226.
06:59:15  624 625	 1492325955	 51827842	 161771.
06:59:15  625 626	 1492325955	 217673843	 165846.
06:59:15  626 627	 1492325955	 379526593	 161852.
06:59:15  627 628	 1492325955	 545261151	 165735.
06:59:15  628 629	 1492325955	 707041106	 161780.
06:59:15  629 630	 1492325955	 844474248	 137433.
06:59:16  630 631	 1492325956	 6395962	 161922.
06:59:16  631 632	 1492325956	 172242660	 165846.
06:59:16  632 633	 1492325956	 334108714	 161866.
06:59:16  633 634	 1492325956	 532328780	 198220.
06:59:16  634 635	 1492325956	 727936561	 195608.
06:59:16  635 636	 1492325956	 893826256	 165890.
06:59:17  636 637	 1492325957	 55647562	 161821.
06:59:17  637 638	 1492325957	 221620422	 165973.
06:59:17  638 639	 1492325957	 354808990	 133189.
06:59:17  639 640	 1492325957	 516877317	 162068.
06:59:17  640 641	 1492325957	 682692130	 165815.
06:59:17  641 642	 1492325957	 844457550	 161765.
06:59:18  642 643	 1492325958	 10537099	 166080.
06:59:18  643 644	 1492325958	 172610964	 162074.
06:59:18  644 645	 1492325958	 334374872	 161764.
06:59:18  645 646	 1492325958	 500183821	 165809.
06:59:18  646 647	 1492325958	 658484673	 158300.
06:59:18  647 648	 1492325958	 791760015	 133276.
06:59:18  648 649	 1492325958	 957739839	 165980.
06:59:19  649 650	 1492325959	 115875662	 158135.
06:59:19  650 651	 1492325959	 281804459	 165929.
06:59:19  651 652	 1492325959	 443773298	 161969.
06:59:19  652 653	 1492325959	 605788418	 162015.
06:59:19  653 654	 1492325959	 771749853	 165962.
06:59:19  654 655	 1492325959	 904879997	 133130.
06:59:20  655 656	 1492325960	 70904827	 166025.
06:59:20  656 657	 1492325960	 232902751	 161998.
06:59:20  657 658	 1492325960	 398854194	 165951.
06:59:20  658 659	 1492325960	 560895921	 162042.
06:59:20  659 660	 1492325960	 727034946	 166139.
06:59:20  660 661	 1492325960	 888985441	 161950.
06:59:21  661 662	 1492325961	 50915287	 161930.
06:59:21  662 663	 1492325961	 188223744	 137309.
06:59:21  663 664	 1492325961	 354179798	 165956.
06:59:21  664 665	 1492325961	 516048161	 161868.
06:59:21  665 666	 1492325961	 681957045	 165909.
06:59:21  666 667	 1492325961	 843800956	 161844.
06:59:22  667 668	 1492325962	 9715140	 165914.
06:59:22  668 669	 1492325962	 171789894	 162075.
06:59:22  669 670	 1492325962	 308965350	 137175.
06:59:22  670 671	 1492325962	 467482237	 158517.
06:59:22  671 672	 1492325962	 629696382	 162214.
06:59:22  672 673	 1492325962	 791499883	 161804.
06:59:22  673 674	 1492325962	 957278016	 165778.
06:59:23  674 675	 1492325963	 119303020	 162025.
06:59:23  675 676	 1492325963	 281219922	 161917.
06:59:23  676 677	 1492325963	 447177530	 165957.
06:59:23  677 678	 1492325963	 580450284	 133273.
06:59:23  678 679	 1492325963	 742416966	 161967.
06:59:23  679 680	 1492325963	 908455010	 166038.
06:59:24  680 681	 1492325964	 70478514	 162023.
06:59:24  681 682	 1492325964	 236418641	 165940.
06:59:24  682 683	 1492325964	 398194762	 161776.
06:59:24  683 684	 1492325964	 564221150	 166027.
06:59:24  684 685	 1492325964	 697362089	 133141.
06:59:24  685 686	 1492325964	 863361110	 165999.
06:59:25  686 687	 1492325965	 25327570	 161966.
06:59:25  687 688	 1492325965	 191153627	 165826.
06:59:25  688 689	 1492325965	 353023168	 161870.
06:59:25  689 690	 1492325965	 519002049	 165979.
06:59:25  690 691	 1492325965	 680852690	 161850.
06:59:25  691 692	 1492325965	 818434805	 137583.
06:59:25  692 693	 1492325965	 980515515	 162080.
06:59:26  693 694	 1492325966	 146762245	 166247.
06:59:26  694 695	 1492325966	 309021578	 162259.
06:59:26  695 696	 1492325966	 471127949	 162107.
06:59:26  696 697	 1492325966	 637196935	 166069.
06:59:26  697 698	 1492325966	 795480295	 158283.
06:59:26  698 699	 1492325966	 961637190	 166157.
06:59:27  699 700	 1492325967	 99248620	 137611.
06:59:27  700 701	 1492325967	 261450525	 162202.
06:59:27  701 702	 1492325967	 423530929	 162081.
06:59:27  702 703	 1492325967	 589526388	 165995.
06:59:27  703 704	 1492325967	 751697788	 162172.
06:59:27  704 705	 1492325967	 913624545	 161926.
06:59:28  705 706	 1492325968	 79736446	 166112.
06:59:28  706 707	 1492325968	 212845495	 133109.
06:59:28  707 708	 1492325968	 374875701	 162030.
06:59:28  708 709	 1492325968	 541059571	 166184.
06:59:28  709 710	 1492325968	 702896968	 161838.
06:59:28  710 711	 1492325968	 868767129	 165870.
06:59:29  711 712	 1492325969	 30753631	 161986.
06:59:29  712 713	 1492325969	 196836694	 166083.
06:59:29  713 714	 1492325969	 334086546	 137250.
06:59:29  714 715	 1492325969	 495856864	 161771.
06:59:29  715 716	 1492325969	 657782187	 161925.
06:59:29  716 717	 1492325969	 823849588	 166067.
06:59:29  717 718	 1492325969	 985938924	 162090.
06:59:30  718 719	 1492325970	 151755201	 165816.
06:59:30  719 720	 1492325970	 313656572	 161901.
06:59:30  720 721	 1492325970	 450981582	 137325.
06:59:30  721 722	 1492325970	 612957092	 161976.
06:59:30  722 723	 1492325970	 778955881	 165999.
06:59:30  723 724	 1492325970	 940970187	 162014.
06:59:31  724 725	 1492325971	 103146733	 162176.
06:59:31  725 726	 1492325971	 269194068	 166048.
06:59:31  726 727	 1492325971	 431167413	 161973.
06:59:31  727 728	 1492325971	 568414361	 137247.
06:59:31  728 729	 1492325971	 730346126	 161932.
06:59:31  729 730	 1492325971	 896348472	 166002.
06:59:32  730 731	 1492325972	 62351022	 166003.
06:59:32  731 732	 1492325972	 224132288	 161781.
06:59:32  732 733	 1492325972	 390004719	 165872.
06:59:32  733 734	 1492325972	 551816018	 161812.
06:59:32  734 735	 1492325972	 685042693	 133226.
06:59:32  735 736	 1492325972	 850842995	 165801.
06:59:33  736 737	 1492325973	 12737444	 161894.
06:59:33  737 738	 1492325973	 178549721	 165812.
06:59:33  738 739	 1492325973	 344436364	 165887.
06:59:33  739 740	 1492325973	 506320280	 161884.
06:59:33  740 741	 1492325973	 639489604	 133169.
06:59:33  741 742	 1492325973	 805408972	 165920.
06:59:33  742 743	 1492325973	 967249319	 161840.
06:59:34  743 744	 1492325974	 129290986	 162042.
06:59:34  744 745	 1492325974	 295138178	 165847.
06:59:34  745 746	 1492325974	 457069883	 161932.
06:59:34  746 747	 1492325974	 623011118	 165941.
06:59:34  747 748	 1492325974	 756257295	 133246.
06:59:34  748 749	 1492325974	 918605435	 162348.
06:59:35  749 750	 1492325975	 80385987	 161781.
06:59:35  750 751	 1492325975	 242490150	 162104.
06:59:35  751 752	 1492325975	 408334879	 165845.
06:59:35  752 753	 1492325975	 570289669	 161954.
06:59:35  753 754	 1492325975	 736428237	 166139.
06:59:35  754 755	 1492325975	 902262018	 165834.
06:59:36  755 756	 1492325976	 35891333	 133629.
06:59:36  756 757	 1492325976	 197913316	 162022.
06:59:36  757 758	 1492325976	 363979771	 166066.
06:59:36  758 759	 1492325976	 525898144	 161919.
06:59:36  759 760	 1492325976	 684604122	 158706.
06:59:36  760 761	 1492325976	 850663486	 166059.
06:59:37  761 762	 1492325977	 12502552	 161839.
06:59:37  762 763	 1492325977	 178446331	 165944.
06:59:37  763 764	 1492325977	 311624866	 133179.
06:59:37  764 765	 1492325977	 477795638	 166170.
06:59:37  765 766	 1492325977	 639818119	 162023.
06:59:37  766 767	 1492325977	 805748506	 165930.
06:59:37  767 768	 1492325977	 967538679	 161790.
06:59:38  768 769	 1492325978	 133574631	 166036.
06:59:38  769 770	 1492325978	 295324309	 161750.
06:59:38  770 771	 1492325978	 461302056	 165978.
06:59:38  771 772	 1492325978	 594535637	 133233.
06:59:38  772 773	 1492325978	 760740795	 166205.
06:59:38  773 774	 1492325978	 922537971	 161798.
06:59:39  774 775	 1492325979	 84462396	 161924.
06:59:39  775 776	 1492325979	 250440762	 165978.
06:59:39  776 777	 1492325979	 412333292	 161893.
06:59:39  777 778	 1492325979	 578060142	 165727.
06:59:39  778 779	 1492325979	 711037790	 132977.
06:59:39  779 780	 1492325979	 876877865	 165841.
06:59:40  780 781	 1492325980	 38767557	 161889.
06:59:40  781 782	 1492325980	 204674451	 165907.
06:59:40  782 783	 1492325980	 366417091	 161743.
06:59:40  783 784	 1492325980	 532230200	 165813.
06:59:40  784 785	 1492325980	 694087001	 161857.
06:59:40  785 786	 1492325980	 827125278	 133038.
06:59:40  786 787	 1492325980	 993014763	 165889.
06:59:41  787 788	 1492325981	 154668810	 161655.
06:59:41  788 789	 1492325981	 320329534	 165660.
06:59:41  789 790	 1492325981	 486203943	 165875.
06:59:41  790 791	 1492325981	 648201772	 161997.
06:59:41  791 792	 1492325981	 781301168	 133100.
06:59:41  792 793	 1492325981	 947067764	 165766.
06:59:42  793 794	 1492325982	 108952831	 161886.
06:59:42  794 795	 1492325982	 274910249	 165957.
06:59:42  795 796	 1492325982	 436713108	 161803.
06:59:42  796 797	 1492325982	 602516170	 165803.
06:59:42  797 798	 1492325982	 764227413	 161711.
06:59:42  798 799	 1492325982	 897317694	 133090.
06:59:43  799 800	 1492325983	 63243793	 165926.
06:59:43  800 801	 1492325983	 225200558	 161957.
06:59:43  801 802	 1492325983	 391097394	 165897.
06:59:43  802 803	 1492325983	 553009895	 161913.
06:59:43  803 804	 1492325983	 718957249	 165947.
06:59:43  804 805	 1492325983	 880711944	 161755.
06:59:44  805 806	 1492325984	 17929135	 137217.
06:59:44  806 807	 1492325984	 179751883	 161823.
06:59:44  807 808	 1492325984	 345554393	 165802.
06:59:44  808 809	 1492325984	 507315606	 161761.
06:59:44  809 810	 1492325984	 668992227	 161677.
06:59:44  810 811	 1492325984	 834735540	 165743.
06:59:44  811 812	 1492325984	 967888871	 133154.
06:59:45  812 813	 1492325985	 133952450	 166063.
06:59:45  813 814	 1492325985	 299797661	 165845.
06:59:45  814 815	 1492325985	 461564509	 161767.
06:59:45  815 816	 1492325985	 627299288	 165735.
06:59:45  816 817	 1492325985	 789111949	 161813.
06:59:45  817 818	 1492325985	 951014915	 161903.
06:59:46  818 819	 1492325986	 113514258	 162499.
06:59:46  819 820	 1492325986	 246901540	 133387.
06:59:46  820 821	 1492325986	 412794440	 165893.
06:59:46  821 822	 1492325986	 574666252	 161872.
06:59:46  822 823	 1492325986	 740551645	 165885.
06:59:46  823 824	 1492325986	 899202187	 158651.
06:59:47  824 825	 1492325987	 60938153	 161736.
06:59:47  825 826	 1492325987	 226724024	 165786.
06:59:47  826 827	 1492325987	 388562276	 161838.
06:59:47  827 828	 1492325987	 521718587	 133156.
06:59:47  828 829	 1492325987	 687609390	 165891.
06:59:47  829 830	 1492325987	 853801736	 166192.
06:59:48  830 831	 1492325988	 15716084	 161915.
06:59:48  831 832	 1492325988	 177688077	 161972.
06:59:48  832 833	 1492325988	 343563662	 165875.
06:59:48  833 834	 1492325988	 505401183	 161838.
06:59:48  834 835	 1492325988	 642567002	 137166.
06:59:48  835 836	 1492325988	 804293509	 161726.
06:59:48  836 837	 1492325988	 970134870	 165842.
06:59:49  837 838	 1492325989	 131806644	 161671.
06:59:49  838 839	 1492325989	 297722582	 165916.
06:59:49  839 840	 1492325989	 459535701	 161813.
06:59:49  840 841	 1492325989	 625484696	 165949.
06:59:49  841 842	 1492325989	 758648289	 133164.
06:59:49  842 843	 1492325989	 920383465	 161735.
06:59:50  843 844	 1492325990	 78854075	 158471.
06:59:50  844 845	 1492325990	 244655462	 165801.
06:59:50  845 846	 1492325990	 410380299	 165725.
06:59:50  846 847	 1492325990	 572122418	 161742.
06:59:50  847 848	 1492325990	 739363671	 167241.
06:59:50  848 849	 1492325990	 888945248	 149582.
06:59:51  849 850	 1492325991	 54860020	 165915.
06:59:51  850 851	 1492325991	 216741880	 161882.
06:59:51  851 852	 1492325991	 353885153	 137143.
06:59:51  852 853	 1492325991	 515762215	 161877.
06:59:51  853 854	 1492325991	 677420644	 161659.
06:59:51  854 855	 1492325991	 843289598	 165868.
06:59:51  855 856	 1492325992	 1504035	 158215.
06:59:52  856 857	 1492325992	 167460740	 165956.
06:59:52  857 858	 1492325992	 329207544	 161747.
06:59:52  858 859	 1492325992	 466332928	 137126.
06:59:52  859 860	 1492325992	 628276290	 161943.
06:59:52  860 861	 1492325992	 790278299	 162002.
06:59:52  861 862	 1492325992	 956154072	 165876.
06:59:53  862 863	 1492325993	 118024723	 161871.
06:59:53  863 864	 1492325993	 283849562	 165824.
06:59:53  864 865	 1492325993	 449727164	 165878.
06:59:53  865 866	 1492325993	 582943764	 133216.
06:59:53  866 867	 1492325993	 748669737	 165726.
06:59:53  867 868	 1492325993	 910513427	 161844.
06:59:54  868 869	 1492325994	 76411485	 165898.
06:59:54  869 870	 1492325994	 238246553	 161835.
06:59:54  870 871	 1492325994	 404144327	 165898.
06:59:54  871 872	 1492325994	 537366858	 133223.
06:59:54  872 873	 1492325994	 699198864	 161832.
06:59:54  873 874	 1492325994	 865163758	 165964.
06:59:55  874 875	 1492325995	 27040016	 161877.
06:59:55  875 876	 1492325995	 193019455	 165979.
06:59:55  876 877	 1492325995	 355119545	 162100.
06:59:55  877 878	 1492325995	 517253922	 162135.
06:59:55  878 879	 1492325995	 679021686	 161767.
06:59:55  879 880	 1492325995	 816224175	 137203.
06:59:55  880 881	 1492325995	 978074546	 161850.
06:59:56  881 882	 1492325996	 143932212	 165858.
06:59:56  882 883	 1492325996	 306120403	 162188.
06:59:56  883 884	 1492325996	 467954455	 161834.
06:59:56  884 885	 1492325996	 633976333	 166022.
06:59:56  885 886	 1492325996	 792104513	 158128.
06:59:56  886 887	 1492325996	 957972411	 165868.
06:59:57  887 888	 1492325997	 91380175	 133408.
06:59:57  888 889	 1492325997	 257337740	 165957.
06:59:57  889 890	 1492325997	 419099252	 161762.
06:59:57  890 891	 1492325997	 581011112	 161912.
06:59:57  891 892	 1492325997	 747230105	 166219.
06:59:57  892 893	 1492325997	 909176685	 161946.
06:59:58  893 894	 1492325998	 46398931	 137223.
06:59:58  894 895	 1492325998	 208732980	 162334.
06:59:58  895 896	 1492325998	 370605513	 161872.
06:59:58  896 897	 1492325998	 536553796	 165949.
06:59:58  897 898	 1492325998	 698368949	 161815.
06:59:58  898 899	 1492325998	 860506752	 162137.
06:59:59  899 900	 1492325999	 22732639	 162226.
06:59:59  900 901	 1492325999	 184640485	 161908.
06:59:59  901 902	 1492325999	 350541912	 165902.
06:59:59  902 903	 1492325999	 483834046	 133292.
06:59:59  903 904	 1492325999	 649780911	 165947.
06:59:59  904 905	 1492325999	 811747563	 161966.
06:59:59  905 906	 1492325999	 977955835	 166209.
07:00:00  906 907	 1492326000	 139944507	 161988.
07:00:00  907 908	 1492326000	 305873852	 165930.
07:00:00  908 909	 1492326000	 467888373	 162014.
07:00:00  909 910	 1492326000	 605110333	 137222.
07:00:00  910 911	 1492326000	 767265957	 162156.
07:00:00  911 912	 1492326000	 933187161	 165921.
07:00:01  912 913	 1492326001	 95073423	 161886.
07:00:01  913 914	 1492326001	 261053343	 165980.
07:00:01  914 915	 1492326001	 422969779	 161916.
07:00:01  915 916	 1492326001	 589855308	 166886.
07:00:01  916 917	 1492326001	 747953257	 158098.
07:00:01  917 918	 1492326001	 909968472	 162015.
07:00:02  918 919	 1492326002	 72329524	 162361.
07:00:02  919 920	 1492326002	 205623436	 133294.
07:00:02  920 921	 1492326002	 371606224	 165983.
07:00:02  921 922	 1492326002	 537756995	 166151.
07:00:02  922 923	 1492326002	 699756824	 162000.
07:00:02  923 924	 1492326002	 861821252	 162064.
07:00:03  924 925	 1492326003	 27794843	 165974.
07:00:03  925 926	 1492326003	 193937146	 166142.
07:00:03  926 927	 1492326003	 352714938	 158778.
07:00:03  927 928	 1492326003	 485964179	 133249.
07:00:03  928 929	 1492326003	 651985548	 166021.
07:00:03  929 930	 1492326003	 813905514	 161920.
07:00:03  930 931	 1492326003	 979881504	 165976.
07:00:04  931 932	 1492326004	 141923486	 162042.
07:00:04  932 933	 1492326004	 308110165	 166187.
07:00:04  933 934	 1492326004	 470070579	 161960.
07:00:04  934 935	 1492326004	 607322213	 137252.
07:00:04  935 936	 1492326004	 769296472	 161974.
07:00:04  936 937	 1492326004	 935171828	 165876.
07:00:05  937 938	 1492326005	 89984249	 154812.
07:00:05  938 939	 1492326005	 256128072	 166144.
07:00:05  939 940	 1492326005	 417943619	 161815.
07:00:05  940 941	 1492326005	 584047162	 166104.
07:00:05  941 942	 1492326005	 745910426	 161863.
07:00:05  942 943	 1492326005	 883320838	 137411.
07:00:06  943 944	 1492326006	 45437702	 162116.
07:00:06  944 945	 1492326006	 208383074	 162946.
07:00:06  945 946	 1492326006	 366552453	 158169.
07:00:06  946 947	 1492326006	 532588005	 166036.
07:00:06  947 948	 1492326006	 694510612	 161922.
07:00:06  948 949	 1492326006	 860566228	 166056.
07:00:07  949 950	 1492326007	 22562403	 161996.
07:00:07  950 951	 1492326007	 188569059	 166007.
07:00:07  951 952	 1492326007	 321933413	 133364.
07:00:07  952 953	 1492326007	 488224911	 166292.
07:00:07  953 954	 1492326007	 651096652	 162871.
07:00:07  954 955	 1492326007	 809547572	 158451.
07:00:07  955 956	 1492326007	 975519050	 165972.
07:00:08  956 957	 1492326008	 134229431	 158710.
07:00:08  957 958	 1492326008	 300292369	 166063.
07:00:08  958 959	 1492326008	 462430416	 162138.
07:00:08  959 960	 1492326008	 628669015	 166239.
07:00:08  960 961	 1492326008	 783464983	 154796.
07:00:08  961 962	 1492326008	 949756412	 166291.
07:00:09  962 963	 1492326009	 111852495	 162096.
07:00:09  963 964	 1492326009	 245155515	 133303.
07:00:09  964 965	 1492326009	 411236181	 166081.
07:00:09  965 966	 1492326009	 573402958	 162167.
07:00:09  966 967	 1492326009	 739418434	 166015.
07:00:09  967 968	 1492326009	 898209724	 158791.
07:00:10  968 969	 1492326010	 60198683	 161989.
07:00:10  969 970	 1492326010	 226188986	 165991.
07:00:10  970 971	 1492326010	 388227154	 162038.
07:00:10  971 972	 1492326010	 525638047	 137411.
07:00:10  972 973	 1492326010	 687587459	 161949.
07:00:10  973 974	 1492326010	 853577496	 165990.
07:00:11  974 975	 1492326011	 15444849	 161868.
07:00:11  975 976	 1492326011	 177789766	 162345.
07:00:11  976 977	 1492326011	 343965008	 166175.
07:00:11  977 978	 1492326011	 505992846	 162028.
07:00:11  978 979	 1492326011	 672078423	 166085.
07:00:11  979 980	 1492326011	 805342115	 133264.
07:00:11  980 981	 1492326011	 971293390	 165951.
07:00:12  981 982	 1492326012	 133154858	 161862.
07:00:12  982 983	 1492326012	 299298063	 166143.
07:00:12  983 984	 1492326012	 461233651	 161935.
07:00:12  984 985	 1492326012	 627303744	 166070.
07:00:12  985 986	 1492326012	 789314412	 162011.
07:00:12  986 987	 1492326012	 926779486	 137465.
07:00:13  987 988	 1492326013	 89242249	 162463.
07:00:13  988 989	 1492326013	 251255305	 162013.
07:00:13  989 990	 1492326013	 413430203	 162175.
07:00:13  990 991	 1492326013	 579420131	 165990.
07:00:13  991 992	 1492326013	 741301868	 161882.
07:00:13  992 993	 1492326013	 903438573	 162136.
07:00:14  993 994	 1492326014	 69503059	 166065.
07:00:14  994 995	 1492326014	 228176185	 158673.
07:00:14  995 996	 1492326014	 386971286	 158795.
07:00:14  996 997	 1492326014	 548888477	 161917.
07:00:14  997 998	 1492326014	 686218346	 137330.
07:00:14  998 999	 1492326014	 848139437	 161921.
07:00:15  999 1000	 1492326015	 14187115	 166048.
07:00:15 1000 1001	 1492326015	 176125620	 161938.
07:00:15 1001 1002	 1492326015	 342239107	 166114.
07:00:15 1002 1003	 1492326015	 504318889	 162080.
07:00:15 1003 1004	 1492326015	 670241402	 165922.
07:00:15 1004 1005	 1492326015	 803403866	 133163.
07:00:15 1005 1006	 1492326015	 969320289	 165916.
07:00:16 1006 1007	 1492326016	 131528593	 162208.
07:00:16 1007 1008	 1492326016	 293557565	 162029.
07:00:16 1008 1009	 1492326016	 459485426	 165928.
07:00:16 1009 1010	 1492326016	 625308477	 165823.
07:00:16 1010 1011	 1492326016	 776543567	 151235.
07:00:16 1011 1012	 1492326016	 942602653	 166059.
07:00:17 1012 1013	 1492326017	 104596016	 161994.
07:00:17 1013 1014	 1492326017	 270549023	 165953.
07:00:17 1014 1015	 1492326017	 403616514	 133067.
07:00:17 1015 1016	 1492326017	 569535139	 165919.
07:00:17 1016 1017	 1492326017	 731417622	 161882.
07:00:17 1017 1018	 1492326017	 897289694	 165872.
07:00:18 1018 1019	 1492326018	 59605625	 162316.
07:00:18 1019 1020	 1492326018	 217820716	 158215.
07:00:18 1020 1021	 1492326018	 383801547	 165981.
07:00:18 1021 1022	 1492326018	 545745902	 161945.
07:00:18 1022 1023	 1492326018	 682958752	 137212.
07:00:18 1023 1024	 1492326018	 844821523	 161863.
07:00:19 1024 1025	 1492326019	 10592169	 165771.
07:00:19 1025 1026	 1492326019	 172424060	 161832.
07:00:19 1026 1027	 1492326019	 338365535	 165941.
07:00:19 1027 1028	 1492326019	 500368712	 162003.
07:00:19 1028 1029	 1492326019	 662620064	 162252.
07:00:19 1029 1030	 1492326019	 799943234	 137323.
07:00:19 1030 1031	 1492326019	 961987766	 162044.
07:00:20 1031 1032	 1492326020	 127951476	 165964.
07:00:20 1032 1033	 1492326020	 289865859	 161915.
07:00:20 1033 1034	 1492326020	 455868883	 166003.
07:00:20 1034 1035	 1492326020	 617756928	 161888.
07:00:20 1035 1036	 1492326020	 783693317	 165936.
07:00:20 1036 1037	 1492326020	 917132261	 133439.
07:00:21 1037 1038	 1492326021	 79037624	 161905.
07:00:21 1038 1039	 1492326021	 241179622	 162142.
07:00:21 1039 1040	 1492326021	 403766994	 162588.
07:00:21 1040 1041	 1492326021	 565684168	 161917.
07:00:21 1041 1042	 1492326021	 731531998	 165848.
07:00:21 1042 1043	 1492326021	 893295410	 161763.
07:00:22 1043 1044	 1492326022	 59118009	 165823.
07:00:22 1044 1045	 1492326022	 220800225	 161682.
07:00:22 1045 1046	 1492326022	 354349047	 133549.
07:00:22 1046 1047	 1492326022	 512717120	 158368.
07:00:22 1047 1048	 1492326022	 675088807	 162372.
07:00:22 1048 1049	 1492326022	 837076712	 161987.
07:00:23 1049 1050	 1492326023	 3070389	 165994.
07:00:23 1050 1051	 1492326023	 165223512	 162153.
07:00:23 1051 1052	 1492326023	 331249319	 166026.
07:00:23 1052 1053	 1492326023	 493351676	 162102.
07:00:23 1053 1054	 1492326023	 660290538	 166939.
07:00:23 1054 1055	 1492326023	 818103879	 157814.
07:00:23 1055 1056	 1492326023	 980029987	 161926.
07:00:24 1056 1057	 1492326024	 113282819	 133253.
07:00:24 1057 1058	 1492326024	 279227319	 165944.
07:00:24 1058 1059	 1492326024	 441188614	 161961.
07:00:24 1059 1060	 1492326024	 607095189	 165907.
07:00:24 1060 1061	 1492326024	 769092679	 161997.
07:00:24 1061 1062	 1492326024	 931427953	 162336.
07:00:25 1062 1063	 1492326025	 93322098	 161894.
07:00:25 1063 1064	 1492326025	 255814515	 162492.
07:00:25 1064 1065	 1492326025	 417727254	 161913.
07:00:25 1065 1066	 1492326025	 554846084	 137119.
07:00:25 1066 1067	 1492326025	 716612620	 161766.
07:00:25 1067 1068	 1492326025	 882701386	 166089.
07:00:26 1068 1069	 1492326026	 44673004	 161972.
07:00:26 1069 1070	 1492326026	 210624388	 165951.
07:00:26 1070 1071	 1492326026	 372426449	 161802.
07:00:26 1071 1072	 1492326026	 538411440	 165985.
07:00:26 1072 1073	 1492326026	 671749654	 133338.
07:00:26 1073 1074	 1492326026	 837662717	 165913.
07:00:26 1074 1075	 1492326026	 999567922	 161906.
07:00:27 1075 1076	 1492326027	 161604868	 162037.
07:00:27 1076 1077	 1492326027	 327577551	 165972.
07:00:27 1077 1078	 1492326027	 490027385	 162450.
07:00:27 1078 1079	 1492326027	 652112295	 162085.
07:00:27 1079 1080	 1492326027	 814151010	 162039.
07:00:27 1080 1081	 1492326027	 951379766	 137228.
07:00:28 1081 1082	 1492326028	 113285115	 161906.
07:00:28 1082 1083	 1492326028	 275694920	 162410.
07:00:28 1083 1084	 1492326028	 438101887	 162407.
07:00:28 1084 1085	 1492326028	 595882401	 157780.
07:00:28 1085 1086	 1492326028	 761806311	 165924.
07:00:28 1086 1087	 1492326028	 927856488	 166050.
07:00:29 1087 1088	 1492326029	 89855750	 161999.
07:00:29 1088 1089	 1492326029	 227096535	 137241.
07:00:29 1089 1090	 1492326029	 389073357	 161977.
07:00:29 1090 1091	 1492326029	 554884072	 165811.
07:00:29 1091 1092	 1492326029	 716717243	 161833.
07:00:29 1092 1093	 1492326029	 878517322	 161800.
07:00:30 1093 1094	 1492326030	 44456891	 165940.
07:00:30 1094 1095	 1492326030	 210386578	 165929.
07:00:30 1095 1096	 1492326030	 343632265	 133246.
07:00:30 1096 1097	 1492326030	 509593642	 165962.
07:00:30 1097 1098	 1492326030	 671332249	 161738.
07:00:30 1098 1099	 1492326030	 837097730	 165765.
07:00:30 1099 1100	 1492326030	 998967397	 161870.
07:00:31 1100 1101	 1492326031	 165097344	 166130.
07:00:31 1101 1102	 1492326031	 323610275	 158513.
07:00:31 1102 1103	 1492326031	 456840543	 133230.
07:00:31 1103 1104	 1492326031	 622851274	 166011.
07:00:31 1104 1105	 1492326031	 784842876	 161992.
07:00:31 1105 1106	 1492326031	 947167154	 162324.
07:00:32 1106 1107	 1492326032	 113985780	 166819.
07:00:32 1107 1108	 1492326032	 271929291	 157943.
07:00:32 1108 1109	 1492326032	 433953263	 162024.
07:00:32 1109 1110	 1492326032	 600084057	 166131.
07:00:32 1110 1111	 1492326032	 761902181	 161818.
07:00:32 1111 1112	 1492326032	 899135848	 137234.
07:00:33 1112 1113	 1492326033	 61709236	 162573.
07:00:33 1113 1114	 1492326033	 219766229	 158057.
07:00:33 1114 1115	 1492326033	 382226745	 162460.
07:00:33 1115 1116	 1492326033	 544167778	 161941.
07:00:33 1116 1117	 1492326033	 710199361	 166032.
07:00:33 1117 1118	 1492326033	 872099833	 161901.
07:00:34 1118 1119	 1492326034	 38237117	 166137.
07:00:34 1119 1120	 1492326034	 200483254	 162246.
07:00:34 1120 1121	 1492326034	 362479184	 161996.
07:00:34 1121 1122	 1492326034	 499571250	 137092.
07:00:34 1122 1123	 1492326034	 661413887	 161843.
07:00:34 1123 1124	 1492326034	 827304634	 165890.
07:00:34 1124 1125	 1492326034	 989929600	 162625.
07:00:35 1125 1126	 1492326035	 151822850	 161894.
07:00:35 1126 1127	 1492326035	 313786010	 161963.
07:00:35 1127 1128	 1492326035	 479799999	 166014.
07:00:35 1128 1129	 1492326035	 612965119	 133165.
07:00:35 1129 1130	 1492326035	 778789319	 165824.
07:00:35 1130 1131	 1492326035	 940648013	 161859.
07:00:36 1131 1132	 1492326036	 102920949	 162273.
07:00:36 1132 1133	 1492326036	 268916130	 165995.
07:00:36 1133 1134	 1492326036	 427201657	 158285.
07:00:36 1134 1135	 1492326036	 593116491	 165915.
07:00:36 1135 1136	 1492326036	 759034597	 165918.
07:00:36 1136 1137	 1492326036	 892274177	 133240.
07:00:37 1137 1138	 1492326037	 54313729	 162039.
07:00:37 1138 1139	 1492326037	 220396714	 166083.
07:00:37 1139 1140	 1492326037	 382558086	 162162.
07:00:37 1140 1141	 1492326037	 548718927	 166161.
07:00:37 1141 1142	 1492326037	 710494745	 161775.
07:00:37 1142 1143	 1492326037	 872433161	 161939.
07:00:38 1143 1144	 1492326038	 38360497	 165927.
07:00:38 1144 1145	 1492326038	 175778330	 137418.
07:00:38 1145 1146	 1492326038	 337703936	 161926.
07:00:38 1146 1147	 1492326038	 503665942	 165962.
07:00:38 1147 1148	 1492326038	 661989870	 158324.
07:00:38 1148 1149	 1492326038	 828093862	 166104.
07:00:38 1149 1150	 1492326038	 989754641	 161660.
07:00:39 1150 1151	 1492326039	 155776008	 166022.
07:00:39 1151 1152	 1492326039	 317676334	 161900.
07:00:39 1152 1153	 1492326039	 480178004	 162502.
07:00:39 1153 1154	 1492326039	 613390655	 133212.
07:00:39 1154 1155	 1492326039	 775271447	 161881.
07:00:39 1155 1156	 1492326039	 941153452	 165882.
07:00:40 1156 1157	 1492326040	 103696523	 162543.
07:00:40 1157 1158	 1492326040	 265665046	 161969.
07:00:40 1158 1159	 1492326040	 427631501	 161966.
07:00:40 1159 1160	 1492326040	 593651280	 166020.
07:00:40 1160 1161	 1492326040	 755865963	 162215.
07:00:40 1161 1162	 1492326040	 888978900	 133113.
07:00:41 1162 1163	 1492326041	 54753541	 165774.
07:00:41 1163 1164	 1492326041	 216597575	 161844.
07:00:41 1164 1165	 1492326041	 382492778	 165895.
07:00:41 1165 1166	 1492326041	 544291609	 161799.
07:00:41 1166 1167	 1492326041	 710345262	 166054.
07:00:41 1167 1168	 1492326041	 843435637	 133090.
07:00:42 1168 1169	 1492326042	 9387450	 165952.
07:00:42 1169 1170	 1492326042	 171173036	 161786.
07:00:42 1170 1171	 1492326042	 337158157	 165985.
07:00:42 1171 1172	 1492326042	 499032074	 161874.
07:00:42 1172 1173	 1492326042	 665007490	 165975.
07:00:42 1173 1174	 1492326042	 826740297	 161733.
07:00:42 1174 1175	 1492326042	 963991028	 137251.
07:00:43 1175 1176	 1492326043	 125950879	 161960.
07:00:43 1176 1177	 1492326043	 291874113	 165923.
07:00:43 1177 1178	 1492326043	 453918096	 162044.
07:00:43 1178 1179	 1492326043	 620091102	 166173.
07:00:43 1179 1180	 1492326043	 785965597	 165874.
07:00:43 1180 1181	 1492326043	 947757786	 161792.
07:00:44 1181 1182	 1492326044	 80975135	 133218.
07:00:44 1182 1183	 1492326044	 246874681	 165900.
07:00:44 1183 1184	 1492326044	 412826920	 165952.
07:00:44 1184 1185	 1492326044	 574628517	 161801.
07:00:44 1185 1186	 1492326044	 740556230	 165928.
07:00:44 1186 1187	 1492326044	 902322296	 161766.
07:00:45 1187 1188	 1492326045	 60870807	 158549.
07:00:45 1188 1189	 1492326045	 198005120	 137134.
07:00:45 1189 1190	 1492326045	 359951244	 161946.
07:00:45 1190 1191	 1492326045	 525958399	 166007.
07:00:45 1191 1192	 1492326045	 687814953	 161857.
07:00:45 1192 1193	 1492326045	 853663025	 165848.
07:00:46 1193 1194	 1492326046	 15483922	 161821.
07:00:46 1194 1195	 1492326046	 181627827	 166144.
07:00:46 1195 1196	 1492326046	 314767828	 133140.
07:00:46 1196 1197	 1492326046	 480532097	 165764.
07:00:46 1197 1198	 1492326046	 642356919	 161825.
07:00:46 1198 1199	 1492326046	 808265305	 165908.
07:00:46 1199 1200	 1492326046	 970040657	 161775.
07:00:47 1200 1201	 1492326047	 136010937	 165971.
07:00:47 1201 1202	 1492326047	 297917852	 161907.
07:00:47 1202 1203	 1492326047	 435214833	 137297.
07:00:47 1203 1204	 1492326047	 597154595	 161939.
07:00:47 1204 1205	 1492326047	 763241570	 166087.
07:00:47 1205 1206	 1492326047	 925152196	 161911.
07:00:48 1206 1207	 1492326048	 91187744	 166036.
07:00:48 1207 1208	 1492326048	 253223633	 162035.
07:00:48 1208 1209	 1492326048	 415204340	 161981.
07:00:48 1209 1210	 1492326048	 552555434	 137351.
07:00:48 1210 1211	 1492326048	 714574417	 162019.
07:00:48 1211 1212	 1492326048	 880310653	 165736.
07:00:49 1212 1213	 1492326049	 42127033	 161817.
07:00:49 1213 1214	 1492326049	 208154037	 166027.
07:00:49 1214 1215	 1492326049	 370098530	 161944.
07:00:49 1215 1216	 1492326049	 536072087	 165974.
07:00:49 1216 1217	 1492326049	 669256256	 133184.
07:00:49 1217 1218	 1492326049	 835232191	 165976.
07:00:50 1218 1219	 1492326050	 1212192	 165980.
07:00:50 1219 1220	 1492326050	 163137971	 161926.
07:00:50 1220 1221	 1492326050	 329070144	 165932.
07:00:50 1221 1222	 1492326050	 491013456	 161943.
07:00:50 1222 1223	 1492326050	 656868695	 165855.
07:00:50 1223 1224	 1492326050	 790087507	 133219.
07:00:50 1224 1225	 1492326050	 951962270	 161875.
07:00:51 1225 1226	 1492326051	 118184401	 166222.
07:00:51 1226 1227	 1492326051	 280008240	 161824.
07:00:51 1227 1228	 1492326051	 442129629	 162121.
07:00:51 1228 1229	 1492326051	 608218014	 166089.
07:00:51 1229 1230	 1492326051	 762855540	 154637.
07:00:51 1230 1231	 1492326051	 925176034	 162321.
07:00:52 1231 1232	 1492326052	 91112870	 165937.
07:00:52 1232 1233	 1492326052	 253363159	 162250.
07:00:52 1233 1234	 1492326052	 386587265	 133224.
07:00:52 1234 1235	 1492326052	 552758644	 166171.
07:00:52 1235 1236	 1492326052	 714678618	 161920.
07:00:52 1236 1237	 1492326052	 876851686	 162174.
07:00:53 1237 1238	 1492326053	 42798775	 165946.
07:00:53 1238 1239	 1492326053	 204822239	 162024.
07:00:53 1239 1240	 1492326053	 366995294	 162173.
07:00:53 1240 1241	 1492326053	 532927460	 165932.
07:00:53 1241 1242	 1492326053	 666232779	 133305.
07:00:53 1242 1243	 1492326053	 832189024	 165957.
07:00:53 1243 1244	 1492326053	 990636397	 158447.
07:00:54 1244 1245	 1492326054	 157083531	 166447.
07:00:54 1245 1246	 1492326054	 318981357	 161898.
07:00:54 1246 1247	 1492326054	 485159510	 166178.
07:00:54 1247 1248	 1492326054	 647153464	 161994.
07:00:54 1248 1249	 1492326054	 813163185	 166010.
07:00:54 1249 1250	 1492326054	 946408656	 133245.
07:00:55 1250 1251	 1492326055	 108551697	 162143.
07:00:55 1251 1252	 1492326055	 270515557	 161964.
07:00:55 1252 1253	 1492326055	 436360309	 165845.
07:00:55 1253 1254	 1492326055	 598332163	 161972.
07:00:55 1254 1255	 1492326055	 764387761	 166055.
07:00:55 1255 1256	 1492326055	 926497352	 162110.
07:00:56 1256 1257	 1492326056	 88624578	 162127.
07:00:56 1257 1258	 1492326056	 225945690	 137321.
07:00:56 1258 1259	 1492326056	 388016520	 162071.
07:00:56 1259 1260	 1492326056	 550034417	 162018.
07:00:56 1260 1261	 1492326056	 716186513	 166152.
07:00:56 1261 1262	 1492326056	 878197636	 162011.
07:00:57 1262 1263	 1492326057	 44229712	 166032.
07:00:57 1263 1264	 1492326057	 206045789	 161817.
07:00:57 1264 1265	 1492326057	 371936724	 165890.
07:00:57 1265 1266	 1492326057	 530504305	 158568.
07:00:57 1266 1267	 1492326057	 663694584	 133190.
07:00:57 1267 1268	 1492326057	 829561403	 165867.
07:00:57 1268 1269	 1492326057	 991337023	 161776.
07:00:58 1269 1270	 1492326058	 157284597	 165947.
07:00:58 1270 1271	 1492326058	 319170642	 161886.
07:00:58 1271 1272	 1492326058	 485127864	 165958.
07:00:58 1272 1273	 1492326058	 647011173	 161883.
07:00:58 1273 1274	 1492326058	 784260775	 137249.
07:00:58 1274 1275	 1492326058	 946192650	 161932.
07:00:59 1275 1276	 1492326059	 112150670	 165958.
07:00:59 1276 1277	 1492326059	 274025555	 161875.
07:00:59 1277 1278	 1492326059	 439985548	 165960.
07:00:59 1278 1279	 1492326059	 601890700	 161905.
07:00:59 1279 1280	 1492326059	 767788850	 165899.
07:00:59 1280 1281	 1492326059	 900973422	 133184.
07:01:00 1281 1282	 1492326060	 66906341	 165933.
07:01:00 1282 1283	 1492326060	 228823186	 161917.
07:01:00 1283 1284	 1492326060	 391008959	 162186.
07:01:00 1284 1285	 1492326060	 557063209	 166054.
07:01:00 1285 1286	 1492326060	 723099448	 166036.
07:01:00 1286 1287	 1492326060	 885091415	 161992.
07:01:01 1287 1288	 1492326061	 51106598	 166015.
07:01:01 1288 1289	 1492326061	 184376239	 133270.
07:01:01 1289 1290	 1492326061	 346641526	 162265.
07:01:01 1290 1291	 1492326061	 512632255	 165991.
07:01:01 1291 1292	 1492326061	 674621191	 161989.
07:01:01 1292 1293	 1492326061	 840914026	 166293.
07:01:02 1293 1294	 1492326062	 3020566	 162106.
07:01:02 1294 1295	 1492326062	 165254924	 162235.
07:01:02 1295 1296	 1492326062	 331308976	 166054.
07:01:02 1296 1297	 1492326062	 489936024	 158627.
07:01:02 1297 1298	 1492326062	 648387182	 158451.
07:01:02 1298 1299	 1492326062	 810630430	 162243.
07:01:02 1299 1300	 1492326062	 972505812	 161876.
07:01:03 1300 1301	 1492326063	 110032856	 137527.
07:01:03 1301 1302	 1492326063	 276100881	 166068.
07:01:03 1302 1303	 1492326063	 438140966	 162040.
07:01:03 1303 1304	 1492326063	 596742846	 158602.
07:01:03 1304 1305	 1492326063	 758970911	 162228.
07:01:03 1305 1306	 1492326063	 921178410	 162207.
07:01:04 1306 1307	 1492326064	 87145081	 165967.
07:01:04 1307 1308	 1492326064	 249118606	 161973.
07:01:04 1308 1309	 1492326064	 415311584	 166194.
07:01:04 1309 1310	 1492326064	 548501176	 133189.
07:01:04 1310 1311	 1492326064	 714720651	 166219.
07:01:04 1311 1312	 1492326064	 876612770	 161893.
07:01:05 1312 1313	 1492326065	 42741545	 166128.
07:01:05 1313 1314	 1492326065	 204921518	 162180.
07:01:05 1314 1315	 1492326065	 371067796	 166147.
07:01:05 1315 1316	 1492326065	 533032784	 161964.
07:01:05 1316 1317	 1492326065	 670311554	 137279.
07:01:05 1317 1318	 1492326065	 832329676	 162018.
07:01:05 1318 1319	 1492326065	 995248452	 162919.
07:01:06 1319 1320	 1492326066	 157208967	 161961.
07:01:06 1320 1321	 1492326066	 315839236	 158630.
07:01:06 1321 1322	 1492326066	 481957187	 166118.
07:01:06 1322 1323	 1492326066	 643848615	 161892.
07:01:06 1323 1324	 1492326066	 809857255	 166008.
07:01:06 1324 1325	 1492326066	 971816695	 161959.
07:01:07 1325 1326	 1492326067	 137996904	 166181.
07:01:07 1326 1327	 1492326067	 271135135	 133138.
07:01:07 1327 1328	 1492326067	 437250926	 166116.
07:01:07 1328 1329	 1492326067	 598998717	 161747.
07:01:07 1329 1330	 1492326067	 761165224	 162167.
07:01:07 1330 1331	 1492326067	 923289081	 162124.
07:01:08 1331 1332	 1492326068	 89473937	 166185.
07:01:08 1332 1333	 1492326068	 251373145	 161899.
07:01:08 1333 1334	 1492326068	 388769971	 137397.
07:01:08 1334 1335	 1492326068	 550883266	 162113.
07:01:08 1335 1336	 1492326068	 717013156	 166130.
07:01:08 1336 1337	 1492326068	 897271092	 180258.
07:01:09 1337 1338	 1492326069	 30637127	 133366.
07:01:09 1338 1339	 1492326069	 192607563	 161970.
07:01:09 1339 1340	 1492326069	 354670322	 162063.
07:01:09 1340 1341	 1492326069	 517298248	 162628.
07:01:09 1341 1342	 1492326069	 683428945	 166131.
07:01:09 1342 1343	 1492326069	 841845235	 158416.
07:01:10 1343 1344	 1492326070	 7921497	 166076.
07:01:10 1344 1345	 1492326070	 169860171	 161939.
07:01:10 1345 1346	 1492326070	 307167642	 137307.
07:01:10 1346 1347	 1492326070	 469116165	 161949.
07:01:10 1347 1348	 1492326070	 635140306	 166024.
07:01:10 1348 1349	 1492326070	 797106742	 161966.
07:01:10 1349 1350	 1492326070	 963198983	 166093.
07:01:11 1350 1351	 1492326071	 125025109	 161826.
07:01:11 1351 1352	 1492326071	 291152464	 166127.
07:01:11 1352 1353	 1492326071	 424412304	 133260.
07:01:11 1353 1354	 1492326071	 590242199	 165830.
07:01:11 1354 1355	 1492326071	 752150380	 161908.
07:01:11 1355 1356	 1492326071	 918232031	 166082.
07:01:12 1356 1357	 1492326072	 80140990	 161909.
07:01:12 1357 1358	 1492326072	 242305490	 162164.
07:01:12 1358 1359	 1492326072	 404161823	 161857.
07:01:12 1359 1360	 1492326072	 570027013	 165865.
07:01:12 1360 1361	 1492326072	 707756609	 137729.
07:01:12 1361 1362	 1492326072	 862163998	 154408.
07:01:13 1362 1363	 1492326073	 23993741	 161829.
07:01:13 1363 1364	 1492326073	 189990877	 165998.
07:01:13 1364 1365	 1492326073	 351859007	 161868.
07:01:13 1365 1366	 1492326073	 517850967	 165992.
07:01:13 1366 1367	 1492326073	 679859364	 162008.
07:01:13 1367 1368	 1492326073	 845929200	 166070.
07:01:13 1368 1369	 1492326073	 979129490	 133200.
07:01:14 1369 1370	 1492326074	 141719854	 162591.
07:01:14 1370 1371	 1492326074	 303742827	 162023.
07:01:14 1371 1372	 1492326074	 466341149	 162598.
07:01:14 1372 1373	 1492326074	 628331253	 161990.
07:01:14 1373 1374	 1492326074	 794503858	 166173.
07:01:14 1374 1375	 1492326074	 956473007	 161969.
07:01:15 1375 1376	 1492326075	 118344304	 161871.
07:01:15 1376 1377	 1492326075	 284290186	 165946.
07:01:15 1377 1378	 1492326075	 446663961	 162374.
07:01:15 1378 1379	 1492326075	 608513236	 161849.
07:01:15 1379 1380	 1492326075	 741770161	 133257.
07:01:15 1380 1381	 1492326075	 903571078	 161801.
07:01:16 1381 1382	 1492326076	 69455506	 165884.
07:01:16 1382 1383	 1492326076	 231237699	 161782.
07:01:16 1383 1384	 1492326076	 397172545	 165935.
07:01:16 1384 1385	 1492326076	 559265941	 162094.
07:01:16 1385 1386	 1492326076	 725267773	 166001.
07:01:16 1386 1387	 1492326076	 858457735	 133191.
07:01:17 1387 1388	 1492326077	 20300257	 161842.
07:01:17 1388 1389	 1492326077	 186277681	 165977.
07:01:17 1389 1390	 1492326077	 352244623	 165967.
07:01:17 1390 1391	 1492326077	 514091494	 161847.
07:01:17 1391 1392	 1492326077	 675992402	 161901.
07:01:17 1392 1393	 1492326077	 841997388	 166005.
07:01:17 1393 1394	 1492326077	 975326505	 133329.
07:01:18 1394 1395	 1492326078	 137362480	 162036.
07:01:18 1395 1396	 1492326078	 299656923	 162295.
07:01:18 1396 1397	 1492326078	 465599641	 165942.
07:01:18 1397 1398	 1492326078	 627307925	 161709.
07:01:18 1398 1399	 1492326078	 793098870	 165791.
07:01:18 1399 1400	 1492326078	 954922164	 161823.
07:01:19 1400 1401	 1492326079	 120950054	 166028.
07:01:19 1401 1402	 1492326079	 254170330	 133220.
07:01:19 1402 1403	 1492326079	 420322139	 166152.
07:01:19 1403 1404	 1492326079	 582100631	 161778.
07:01:19 1404 1405	 1492326079	 744001022	 161901.
07:01:19 1405 1406	 1492326079	 905927412	 161926.
07:01:20 1406 1407	 1492326080	 71963910	 166037.
07:01:20 1407 1408	 1492326080	 238014884	 166051.
07:01:20 1408 1409	 1492326080	 371270747	 133256.
07:01:20 1409 1410	 1492326080	 533556386	 162285.
07:01:20 1410 1411	 1492326080	 695801554	 162245.
07:01:20 1411 1412	 1492326080	 861957327	 166156.
07:01:21 1412 1413	 1492326081	 23814020	 161857.
07:01:21 1413 1414	 1492326081	 185809251	 161995.
07:01:21 1414 1415	 1492326081	 352520123	 166711.
07:01:21 1415 1416	 1492326081	 510372564	 157852.
07:01:21 1416 1417	 1492326081	 676408244	 166036.
07:01:21 1417 1418	 1492326081	 809705845	 133298.
07:01:21 1418 1419	 1492326081	 975696534	 165990.
07:01:22 1419 1420	 1492326082	 137801844	 162106.
07:01:22 1420 1421	 1492326082	 299726642	 161924.
07:01:22 1421 1422	 1492326082	 465748617	 166022.
07:01:22 1422 1423	 1492326082	 628045065	 162297.
07:01:22 1423 1424	 1492326082	 789978546	 161933.
07:01:22 1424 1425	 1492326082	 955837002	 165859.
07:01:23 1425 1426	 1492326083	 89141317	 133304.
07:01:23 1426 1427	 1492326083	 255308861	 166168.
07:01:23 1427 1428	 1492326083	 417273460	 161964.
07:01:23 1428 1429	 1492326083	 583630604	 166357.
07:01:23 1429 1430	 1492326083	 741567663	 157937.
07:01:23 1430 1431	 1492326083	 907391755	 165824.
07:01:24 1431 1432	 1492326084	 69285168	 161894.
07:01:24 1432 1433	 1492326084	 235288862	 166004.
07:01:24 1433 1434	 1492326084	 368460626	 133171.
07:01:24 1434 1435	 1492326084	 534461584	 166001.
07:01:24 1435 1436	 1492326084	 692642445	 158181.
07:01:24 1436 1437	 1492326084	 858588258	 165946.
07:01:25 1437 1438	 1492326085	 24547278	 165959.
07:01:25 1438 1439	 1492326085	 182973009	 158426.
07:01:25 1439 1440	 1492326085	 345436888	 162464.
07:01:25 1440 1441	 1492326085	 511335501	 165898.
07:01:25 1441 1442	 1492326085	 673230039	 161895.
07:01:25 1442 1443	 1492326085	 840020140	 166790.
07:01:25 1443 1444	 1492326085	 997827709	 157807.
07:01:26 1444 1445	 1492326086	 159791820	 161965.
07:01:26 1445 1446	 1492326086	 297046981	 137255.
07:01:26 1446 1447	 1492326086	 458918396	 161871.
07:01:26 1447 1448	 1492326086	 624769115	 165851.
07:01:26 1448 1449	 1492326086	 786615010	 161846.
07:01:26 1449 1450	 1492326086	 948645696	 162031.
07:01:27 1450 1451	 1492326087	 114592362	 165946.
07:01:27 1451 1452	 1492326087	 247887291	 133295.
07:01:27 1452 1453	 1492326087	 413932196	 166045.
07:01:27 1453 1454	 1492326087	 575770954	 161839.
07:01:27 1454 1455	 1492326087	 741718688	 165947.
07:01:27 1455 1456	 1492326087	 903659997	 161942.
07:01:28 1456 1457	 1492326088	 69727519	 166067.
07:01:28 1457 1458	 1492326088	 235662370	 165935.
07:01:28 1458 1459	 1492326088	 368827628	 133165.
07:01:28 1459 1460	 1492326088	 534770498	 165943.
07:01:28 1460 1461	 1492326088	 696599252	 161829.
07:01:28 1461 1462	 1492326088	 862556547	 165957.
07:01:29 1462 1463	 1492326089	 24253419	 161697.
07:01:29 1463 1464	 1492326089	 186152806	 161900.
07:01:29 1464 1465	 1492326089	 352142839	 165990.
07:01:29 1465 1466	 1492326089	 485310556	 133167.
07:01:29 1466 1467	 1492326089	 651284494	 165974.
07:01:29 1467 1468	 1492326089	 813149288	 161865.
07:01:29 1468 1469	 1492326089	 979295805	 166146.
07:01:30 1469 1470	 1492326090	 141262739	 161967.
07:01:30 1470 1471	 1492326090	 303549616	 162287.
07:01:30 1471 1472	 1492326090	 469607171	 166058.
07:01:30 1472 1473	 1492326090	 602844875	 133238.
07:01:30 1473 1474	 1492326090	 769090153	 166245.
07:01:30 1474 1475	 1492326090	 930951148	 161861.
07:01:31 1475 1476	 1492326091	 93001273	 162050.
07:01:31 1476 1477	 1492326091	 259141866	 166141.
07:01:31 1477 1478	 1492326091	 421739818	 162598.
07:01:31 1478 1479	 1492326091	 583558054	 161818.
07:01:31 1479 1480	 1492326091	 746109484	 162551.
07:01:31 1480 1481	 1492326091	 900870415	 154761.
07:01:32 1481 1482	 1492326092	 66938517	 166068.
07:01:32 1482 1483	 1492326092	 228932072	 161994.
07:01:32 1483 1484	 1492326092	 362440227	 133508.
07:01:32 1484 1485	 1492326092	 528598330	 166158.
07:01:32 1485 1486	 1492326092	 690585410	 161987.
07:01:32 1486 1487	 1492326092	 856472733	 165887.
07:01:33 1487 1488	 1492326093	 18373961	 161902.
07:01:33 1488 1489	 1492326093	 184431015	 166057.
07:01:33 1489 1490	 1492326093	 342881617	 158450.
07:01:33 1490 1491	 1492326093	 509036242	 166155.
07:01:33 1491 1492	 1492326093	 642146211	 133110.
07:01:33 1492 1493	 1492326093	 808056230	 165910.
07:01:33 1493 1494	 1492326093	 969963552	 161907.
07:01:34 1494 1495	 1492326094	 135956979	 165994.
07:01:34 1495 1496	 1492326094	 297803975	 161847.
07:01:34 1496 1497	 1492326094	 460033953	 162230.
07:01:34 1497 1498	 1492326094	 626022593	 165988.
07:01:34 1498 1499	 1492326094	 784379074	 158357.
07:01:34 1499 1500	 1492326094	 950609347	 166230.
07:01:35 1500 1501	 1492326095	 83782245	 133173.
07:01:35 1501 1502	 1492326095	 249760996	 165979.
07:01:35 1502 1503	 1492326095	 411860110	 162099.
07:01:35 1503 1504	 1492326095	 577876402	 166016.
07:01:35 1504 1505	 1492326095	 739704950	 161829.
07:01:35 1505 1506	 1492326095	 905543022	 165838.
07:01:36 1506 1507	 1492326096	 67364018	 161821.
07:01:36 1507 1508	 1492326096	 200663999	 133300.
07:01:36 1508 1509	 1492326096	 366388053	 165724.
07:01:36 1509 1510	 1492326096	 528289874	 161902.
07:01:36 1510 1511	 1492326096	 694231205	 165941.
07:01:36 1511 1512	 1492326096	 856236709	 162005.
07:01:37 1512 1513	 1492326097	 22277675	 166041.
07:01:37 1513 1514	 1492326097	 180760254	 158483.
07:01:37 1514 1515	 1492326097	 346996765	 166236.
07:01:37 1515 1516	 1492326097	 509225783	 162229.
07:01:37 1516 1517	 1492326097	 646415143	 137190.
07:01:37 1517 1518	 1492326097	 808308826	 161894.
07:01:37 1518 1519	 1492326097	 974305799	 165997.
07:01:38 1519 1520	 1492326098	 136343629	 162037.
07:01:38 1520 1521	 1492326098	 294607147	 158264.
07:01:38 1521 1522	 1492326098	 460557674	 165950.
07:01:38 1522 1523	 1492326098	 622289355	 161732.
07:01:38 1523 1524	 1492326098	 788251700	 165962.
07:01:38 1524 1525	 1492326098	 921368669	 133117.
07:01:39 1525 1526	 1492326099	 83702514	 162334.
07:01:39 1526 1527	 1492326099	 245520724	 161818.
07:01:39 1527 1528	 1492326099	 407899839	 162380.
07:01:39 1528 1529	 1492326099	 569806626	 161906.
07:01:39 1529 1530	 1492326099	 735740688	 165934.
07:01:39 1530 1531	 1492326099	 897617957	 161878.
07:01:40 1531 1532	 1492326100	 63565707	 165947.
07:01:40 1532 1533	 1492326100	 225430845	 161866.
07:01:40 1533 1534	 1492326100	 362706511	 137275.
07:01:40 1534 1535	 1492326100	 525226716	 162520.
07:01:40 1535 1536	 1492326100	 687132651	 161906.
07:01:40 1536 1537	 1492326100	 849255635	 162123.
07:01:41 1537 1538	 1492326101	 11173475	 161918.
07:01:41 1538 1539	 1492326101	 177068102	 165895.
07:01:41 1539 1540	 1492326101	 338870976	 161803.
07:01:41 1540 1541	 1492326101	 501283616	 162412.
07:01:41 1541 1542	 1492326101	 634432397	 133149.
07:01:41 1542 1543	 1492326101	 800554374	 166122.
07:01:41 1543 1544	 1492326101	 958910150	 158356.
07:01:42 1544 1545	 1492326102	 124878871	 165969.
07:01:42 1545 1546	 1492326102	 286591488	 161712.
07:01:42 1546 1547	 1492326102	 452532614	 165941.
07:01:42 1547 1548	 1492326102	 614416716	 161884.
07:01:42 1548 1549	 1492326102	 783837176	 169421.
07:01:42 1549 1550	 1492326102	 917069933	 133233.
07:01:43 1550 1551	 1492326103	 82990117	 165920.
07:01:43 1551 1552	 1492326103	 245446866	 162457.
07:01:43 1552 1553	 1492326103	 403517867	 158071.
07:01:43 1553 1554	 1492326103	 565506637	 161988.
07:01:43 1554 1555	 1492326103	 731375048	 165869.
07:01:43 1555 1556	 1492326103	 893087893	 161713.
07:01:44 1556 1557	 1492326104	 58990258	 165902.
07:01:44 1557 1558	 1492326104	 192055125	 133065.
07:01:44 1558 1559	 1492326104	 358041949	 165987.
07:01:44 1559 1560	 1492326104	 519963322	 161921.
07:01:44 1560 1561	 1492326104	 682345085	 162382.
07:01:44 1561 1562	 1492326104	 844104422	 161759.
07:01:45 1562 1563	 1492326105	 14162182	 170058.
07:01:45 1563 1564	 1492326105	 171983743	 157821.
07:01:45 1564 1565	 1492326105	 338098807	 166116.
07:01:45 1565 1566	 1492326105	 475551472	 137452.
07:01:45 1566 1567	 1492326105	 637532065	 161981.
07:01:45 1567 1568	 1492326105	 799096950	 161565.
07:01:45 1568 1569	 1492326105	 972280416	 173183.
07:01:46 1569 1570	 1492326106	 134212986	 161933.
07:01:46 1570 1571	 1492326106	 271497086	 137284.
07:01:46 1571 1572	 1492326106	 433608483	 162111.
07:01:46 1572 1573	 1492326106	 599557042	 165949.
07:01:46 1573 1574	 1492326106	 761361008	 161804.
07:01:46 1574 1575	 1492326106	 927325616	 165964.
07:01:47 1575 1576	 1492326107	 89274877	 161950.
07:01:47 1576 1577	 1492326107	 255213305	 165938.
07:01:47 1577 1578	 1492326107	 388216120	 133003.
07:01:47 1578 1579	 1492326107	 549949762	 161733.
07:01:47 1579 1580	 1492326107	 715948680	 165999.
07:01:47 1580 1581	 1492326107	 877656637	 161708.
07:01:48 1581 1582	 1492326108	 43450974	 165795.
07:01:48 1582 1583	 1492326108	 205256863	 161806.
07:01:48 1583 1584	 1492326108	 342482777	 137225.
07:01:48 1584 1585	 1492326108	 529508271	 187026.
07:01:48 1585 1586	 1492326108	 662764787	 133256.
07:01:48 1586 1587	 1492326108	 828633191	 165869.
07:01:48 1587 1588	 1492326108	 990497881	 161865.
07:01:49 1588 1589	 1492326109	 152482688	 161984.
07:01:49 1589 1590	 1492326109	 311337016	 158855.
07:01:49 1590 1591	 1492326109	 473165752	 161828.
07:01:49 1591 1592	 1492326109	 639117226	 165952.
07:01:49 1592 1593	 1492326109	 800965120	 161848.
07:01:49 1593 1594	 1492326109	 966716924	 165752.
07:01:50 1594 1595	 1492326110	 99960820	 133243.
07:01:50 1595 1596	 1492326110	 265833287	 165873.
07:01:50 1596 1597	 1492326110	 423908562	 158075.
07:01:50 1597 1598	 1492326110	 589847165	 165939.
07:01:50 1598 1599	 1492326110	 755633966	 165787.
07:01:50 1599 1600	 1492326110	 913694569	 158060.
07:01:51 1600 1601	 1492326111	 79659789	 165966.
07:01:51 1601 1602	 1492326111	 241397820	 161738.
07:01:51 1602 1603	 1492326111	 378590891	 137193.
07:01:51 1603 1604	 1492326111	 536899549	 158308.
07:01:51 1604 1605	 1492326111	 702963087	 166064.
07:01:51 1605 1606	 1492326111	 857324801	 154362.
07:01:52 1606 1607	 1492326112	 23253798	 165929.
07:01:52 1607 1608	 1492326112	 185351435	 162097.
07:01:52 1608 1609	 1492326112	 347210313	 161859.
07:01:52 1609 1610	 1492326112	 513157234	 165947.
07:01:52 1610 1611	 1492326112	 674903477	 161746.
07:01:52 1611 1612	 1492326112	 837144657	 162241.
07:01:52 1612 1613	 1492326112	 970283269	 133139.
07:01:53 1613 1614	 1492326113	 132291070	 162008.
07:01:53 1614 1615	 1492326113	 298224827	 165934.
07:01:53 1615 1616	 1492326113	 460192216	 161967.
07:01:53 1616 1617	 1492326113	 622126941	 161935.
07:01:53 1617 1618	 1492326113	 788075849	 165949.
07:01:53 1618 1619	 1492326113	 949999740	 161923.
07:01:54 1619 1620	 1492326114	 108972619	 158973.
07:01:54 1620 1621	 1492326114	 270956599	 161984.
07:01:54 1621 1622	 1492326114	 433170328	 162214.
07:01:54 1622 1623	 1492326114	 595416587	 162246.
07:01:54 1623 1624	 1492326114	 732697390	 137281.
07:01:54 1624 1625	 1492326114	 894498846	 161802.
07:01:55 1625 1626	 1492326115	 60398495	 165899.
07:01:55 1626 1627	 1492326115	 222266713	 161868.
07:01:55 1627 1628	 1492326115	 388295407	 166029.
07:01:55 1628 1629	 1492326115	 550237567	 161942.
07:01:55 1629 1630	 1492326115	 712086353	 161849.
07:01:55 1630 1631	 1492326115	 849267695	 137181.
07:01:56 1631 1632	 1492326116	 15362806	 166096.
07:01:56 1632 1633	 1492326116	 177167205	 161804.
07:01:56 1633 1634	 1492326116	 343317700	 166150.
07:01:56 1634 1635	 1492326116	 505407106	 162090.
07:01:56 1635 1636	 1492326116	 671240899	 165834.
07:01:56 1636 1637	 1492326116	 833235792	 161994.
07:01:56 1637 1638	 1492326116	 995301318	 162066.
07:01:57 1638 1639	 1492326117	 132700816	 137400.
07:01:57 1639 1640	 1492326117	 294604016	 161903.
07:01:57 1640 1641	 1492326117	 456619661	 162015.
07:01:57 1641 1642	 1492326117	 622522981	 165904.
07:01:57 1642 1643	 1492326117	 781079193	 158556.
07:01:57 1643 1644	 1492326117	 942948848	 161870.
07:01:58 1644 1645	 1492326118	 108944327	 165995.
07:01:58 1645 1646	 1492326118	 270899773	 161955.
07:01:58 1646 1647	 1492326118	 436797521	 165898.
07:01:58 1647 1648	 1492326118	 570278537	 133481.
07:01:58 1648 1649	 1492326118	 732144389	 161866.
07:01:58 1649 1650	 1492326118	 894041159	 161897.
07:01:59 1650 1651	 1492326119	 60071020	 166030.
07:01:59 1651 1652	 1492326119	 222121919	 162051.
07:01:59 1652 1653	 1492326119	 388098332	 165976.
07:01:59 1653 1654	 1492326119	 550024946	 161927.
07:01:59 1654 1655	 1492326119	 712090753	 162066.
07:01:59 1655 1656	 1492326119	 849412605	 137321.
07:02:00 1656 1657	 1492326120	 11515396	 162103.
07:02:00 1657 1658	 1492326120	 177522498	 166007.
07:02:00 1658 1659	 1492326120	 339489858	 161968.
07:02:00 1659 1660	 1492326120	 505656948	 166167.
07:02:00 1660 1661	 1492326120	 667510335	 161853.
07:02:00 1661 1662	 1492326120	 833371790	 165862.
07:02:00 1662 1663	 1492326120	 966539205	 133167.
07:02:01 1663 1664	 1492326121	 132431719	 165892.
07:02:01 1664 1665	 1492326121	 298365090	 165934.
07:02:01 1665 1666	 1492326121	 460239788	 161875.
07:02:01 1666 1667	 1492326121	 626152959	 165913.
07:02:01 1667 1668	 1492326121	 788096635	 161943.
07:02:01 1668 1669	 1492326121	 921316994	 133221.
07:02:02 1669 1670	 1492326122	 87332324	 166015.
07:02:02 1670 1671	 1492326122	 249210250	 161878.
07:02:02 1671 1672	 1492326122	 415090752	 165880.
07:02:02 1672 1673	 1492326122	 577014263	 161924.
07:02:02 1673 1674	 1492326122	 739400245	 162386.
07:02:02 1674 1675	 1492326122	 901245828	 161846.
07:02:03 1675 1676	 1492326123	 67210353	 165964.
07:02:03 1676 1677	 1492326123	 200264242	 133054.
07:02:03 1677 1678	 1492326123	 366351661	 166087.
07:02:03 1678 1679	 1492326123	 528347201	 161996.
07:02:03 1679 1680	 1492326123	 694340394	 165993.
07:02:03 1680 1681	 1492326123	 856119965	 161780.
07:02:04 1681 1682	 1492326124	 18523106	 162403.
07:02:04 1682 1683	 1492326124	 184519625	 165996.
07:02:04 1683 1684	 1492326124	 346526831	 162008.
07:02:04 1684 1685	 1492326124	 483935068	 137408.
07:02:04 1685 1686	 1492326124	 646038550	 162103.
07:02:04 1686 1687	 1492326124	 811941219	 165903.
07:02:04 1687 1688	 1492326124	 974188888	 162248.
07:02:05 1688 1689	 1492326125	 136168186	 161979.
07:02:05 1689 1690	 1492326125	 302172457	 166004.
07:02:05 1690 1691	 1492326125	 464195028	 162023.
07:02:05 1691 1692	 1492326125	 601432420	 137237.
07:02:05 1692 1693	 1492326125	 763198317	 161766.
07:02:05 1693 1694	 1492326125	 929213653	 166016.
07:02:06 1694 1695	 1492326126	 91013140	 161799.
07:02:06 1695 1696	 1492326126	 252865312	 161852.
07:02:06 1696 1697	 1492326126	 418733455	 165868.
07:02:06 1697 1698	 1492326126	 584734805	 166001.
07:02:06 1698 1699	 1492326126	 717903050	 133169.
07:02:06 1699 1700	 1492326126	 883786876	 165884.
07:02:07 1700 1701	 1492326127	 45739064	 161952.
07:02:07 1701 1702	 1492326127	 211670762	 165931.
07:02:07 1702 1703	 1492326127	 373721727	 162051.
07:02:07 1703 1704	 1492326127	 539676961	 165956.
07:02:07 1704 1705	 1492326127	 701470596	 161793.
07:02:07 1705 1706	 1492326127	 838737216	 137267.
07:02:08 1706 1707	 1492326128	 4743598	 166006.
07:02:08 1707 1708	 1492326128	 166883015	 162140.
07:02:08 1708 1709	 1492326128	 332890529	 166007.
07:02:08 1709 1710	 1492326128	 494746858	 161857.
07:02:08 1710 1711	 1492326128	 656778306	 162031.
07:02:08 1711 1712	 1492326128	 822560217	 165782.
07:02:08 1712 1713	 1492326128	 955737062	 133177.
07:02:09 1713 1714	 1492326129	 121956053	 166219.
07:02:09 1714 1715	 1492326129	 283822282	 161866.
07:02:09 1715 1716	 1492326129	 449675390	 165853.
07:02:09 1716 1717	 1492326129	 611514221	 161839.
07:02:09 1717 1718	 1492326129	 777361270	 165847.
07:02:09 1718 1719	 1492326129	 910419314	 133058.
07:02:10 1719 1720	 1492326130	 76454857	 166036.
07:02:10 1720 1721	 1492326130	 238346413	 161891.
07:02:10 1721 1722	 1492326130	 404317436	 165971.
07:02:10 1722 1723	 1492326130	 565994736	 161677.
07:02:10 1723 1724	 1492326130	 727790915	 161797.
07:02:10 1724 1725	 1492326130	 890094051	 162303.
07:02:11 1725 1726	 1492326131	 56495070	 166401.
07:02:11 1726 1727	 1492326131	 214223166	 157728.
07:02:11 1727 1728	 1492326131	 377058586	 162835.
07:02:11 1728 1729	 1492326131	 510220699	 133162.
07:02:11 1729 1730	 1492326131	 676227835	 166008.
07:02:11 1730 1731	 1492326131	 837977494	 161749.
07:02:11 1731 1732	 1492326132	 3706145	 165729.
07:02:12 1732 1733	 1492326132	 165646160	 161940.
07:02:12 1733 1734	 1492326132	 331565361	 165919.
07:02:12 1734 1735	 1492326132	 493614303	 162049.
07:02:12 1735 1736	 1492326132	 626739992	 133126.
07:02:12 1736 1737	 1492326132	 792832839	 166093.
07:02:12 1737 1738	 1492326132	 954714601	 161881.
07:02:13 1738 1739	 1492326133	 120687274	 165973.
07:02:13 1739 1740	 1492326133	 282358730	 161671.
07:02:13 1740 1741	 1492326133	 448263609	 165905.
07:02:13 1741 1742	 1492326133	 610092420	 161829.
07:02:13 1742 1743	 1492326133	 743448789	 133356.
07:02:13 1743 1744	 1492326133	 909247087	 165799.
07:02:14 1744 1745	 1492326134	 71012217	 161765.
07:02:14 1745 1746	 1492326134	 236927617	 165915.
07:02:14 1746 1747	 1492326134	 398702953	 161776.
07:02:14 1747 1748	 1492326134	 564565342	 165862.
07:02:14 1748 1749	 1492326134	 726339983	 161775.
07:02:14 1749 1750	 1492326134	 859469054	 133129.
07:02:15 1750 1751	 1492326135	 25400689	 165931.
07:02:15 1751 1752	 1492326135	 187223314	 161823.
07:02:15 1752 1753	 1492326135	 353087869	 165865.
07:02:15 1753 1754	 1492326135	 518908812	 165821.
07:02:15 1754 1755	 1492326135	 680688094	 161779.
07:02:15 1755 1756	 1492326135	 842394789	 161706.
07:02:16 1756 1757	 1492326136	 4699920	 162306.
07:02:16 1757 1758	 1492326136	 137812628	 133112.
07:02:16 1758 1759	 1492326136	 303695298	 165883.
07:02:16 1759 1760	 1492326136	 462019491	 158324.
07:02:16 1760 1761	 1492326136	 620688404	 158669.
07:02:16 1761 1762	 1492326136	 782606236	 161918.
07:02:16 1762 1763	 1492326136	 948663625	 166057.
07:02:17 1763 1764	 1492326137	 110492435	 161829.
07:02:17 1764 1765	 1492326137	 276657687	 166165.
07:02:17 1765 1766	 1492326137	 438584413	 161927.
07:02:17 1766 1767	 1492326137	 600682743	 162099.
07:02:17 1767 1768	 1492326137	 738110065	 137427.
07:02:17 1768 1769	 1492326137	 903928824	 165819.
07:02:18 1769 1770	 1492326138	 65547119	 161618.
07:02:18 1770 1771	 1492326138	 227511122	 161964.
07:02:18 1771 1772	 1492326138	 393590109	 166079.
07:02:18 1772 1773	 1492326138	 555529939	 161940.
07:02:18 1773 1774	 1492326138	 721425383	 165895.
07:02:18 1774 1775	 1492326138	 854517691	 133092.
07:02:19 1775 1776	 1492326139	 20658244	 166141.
07:02:19 1776 1777	 1492326139	 182620875	 161963.
07:02:19 1777 1778	 1492326139	 348705463	 166084.
07:02:19 1778 1779	 1492326139	 510702945	 161998.
07:02:19 1779 1780	 1492326139	 677061149	 166358.
07:02:19 1780 1781	 1492326139	 835026732	 157965.
07:02:19 1781 1782	 1492326139	 997329689	 162303.
07:02:20 1782 1783	 1492326140	 159217671	 161888.
07:02:20 1783 1784	 1492326140	 296388199	 137171.
07:02:20 1784 1785	 1492326140	 458221029	 161833.
07:02:20 1785 1786	 1492326140	 624276438	 166055.
07:02:20 1786 1787	 1492326140	 786541112	 162265.
07:02:20 1787 1788	 1492326140	 948331358	 161790.
07:02:21 1788 1789	 1492326141	 114309019	 165978.
07:02:21 1789 1790	 1492326141	 276185202	 161876.
07:02:21 1790 1791	 1492326141	 413453836	 137269.
07:02:21 1791 1792	 1492326141	 575441426	 161987.
07:02:21 1792 1793	 1492326141	 741394332	 165953.
07:02:21 1793 1794	 1492326141	 907300690	 165906.
07:02:22 1794 1795	 1492326142	 69279509	 161979.
07:02:22 1795 1796	 1492326142	 235122904	 165844.
07:02:22 1796 1797	 1492326142	 396961550	 161838.
07:02:22 1797 1798	 1492326142	 534244306	 137283.
07:02:22 1798 1799	 1492326142	 695991174	 161747.
07:02:22 1799 1800	 1492326142	 861775405	 165784.
07:02:23 1800 1801	 1492326143	 27649789	 165874.
07:02:23 1801 1802	 1492326143	 189601628	 161952.
07:02:23 1802 1803	 1492326143	 351377307	 161776.
07:02:23 1803 1804	 1492326143	 488560062	 137183.
07:02:23 1804 1805	 1492326143	 650542562	 161982.
07:02:23 1805 1806	 1492326143	 816423281	 165881.
07:02:23 1806 1807	 1492326143	 978277731	 161854.
07:02:24 1807 1808	 1492326144	 140737949	 162461.
07:02:24 1808 1809	 1492326144	 299227238	 158489.
07:02:24 1809 1810	 1492326144	 461173628	 161947.
07:02:24 1810 1811	 1492326144	 627190473	 166016.
07:02:24 1811 1812	 1492326144	 793123620	 165933.
07:02:24 1812 1813	 1492326144	 926282196	 133159.
07:02:25 1813 1814	 1492326145	 92247921	 165966.
07:02:25 1814 1815	 1492326145	 254249393	 162001.
07:02:25 1815 1816	 1492326145	 420155065	 165906.
07:02:25 1816 1817	 1492326145	 582043330	 161888.
07:02:25 1817 1818	 1492326145	 747825360	 165782.
07:02:25 1818 1819	 1492326145	 909690194	 161865.
07:02:26 1819 1820	 1492326146	 43157388	 133467.
07:02:26 1820 1821	 1492326146	 209044553	 165887.
07:02:26 1821 1822	 1492326146	 363499169	 154455.
07:02:26 1822 1823	 1492326146	 529622316	 166123.
07:02:26 1823 1824	 1492326146	 691451699	 161829.
07:02:26 1824 1825	 1492326146	 857320964	 165870.
07:02:27 1825 1826	 1492326147	 19265251	 161944.
07:02:27 1826 1827	 1492326147	 185215828	 165951.
07:02:27 1827 1828	 1492326147	 318417921	 133202.
07:02:27 1828 1829	 1492326147	 480804385	 162386.
07:02:27 1829 1830	 1492326147	 642761382	 161957.
07:02:27 1830 1831	 1492326147	 808659453	 165898.
07:02:27 1831 1832	 1492326147	 989105681	 180446.
07:02:28 1832 1833	 1492326148	 122422727	 133317.
07:02:28 1833 1834	 1492326148	 288495704	 166073.
07:02:28 1834 1835	 1492326148	 447035763	 158541.
07:02:28 1835 1836	 1492326148	 609279238	 162243.
07:02:28 1836 1837	 1492326148	 775262009	 165983.
07:02:28 1837 1838	 1492326148	 937282689	 162020.
07:02:29 1838 1839	 1492326149	 103285682	 166004.
07:02:29 1839 1840	 1492326149	 265214815	 161929.
07:02:29 1840 1841	 1492326149	 402373074	 137158.
07:02:29 1841 1842	 1492326149	 564529979	 162157.
07:02:29 1842 1843	 1492326149	 726552007	 162022.
07:02:29 1843 1844	 1492326149	 888445727	 161893.
07:02:30 1844 1845	 1492326150	 54398590	 165953.
07:02:30 1845 1846	 1492326150	 216478470	 162080.
07:02:30 1846 1847	 1492326150	 382447336	 165969.
07:02:30 1847 1848	 1492326150	 548415373	 165968.
07:02:30 1848 1849	 1492326150	 681650495	 133235.
07:02:30 1849 1850	 1492326150	 843779302	 162129.
07:02:31 1850 1851	 1492326151	 5741104	 161962.
07:02:31 1851 1852	 1492326151	 171737627	 165996.
07:02:31 1852 1853	 1492326151	 337800390	 166063.
07:02:31 1853 1854	 1492326151	 499740054	 161940.
07:02:31 1854 1855	 1492326151	 662090622	 162350.
07:02:31 1855 1856	 1492326151	 824086562	 161996.
07:02:31 1856 1857	 1492326151	 961339001	 137253.
07:02:32 1857 1858	 1492326152	 123278323	 161939.
07:02:32 1858 1859	 1492326152	 289374667	 166096.
07:02:32 1859 1860	 1492326152	 451325710	 161951.
07:02:32 1860 1861	 1492326152	 617432623	 166107.
07:02:32 1861 1862	 1492326152	 779475749	 162043.
07:02:32 1862 1863	 1492326152	 941430232	 161955.
07:02:33 1863 1864	 1492326153	 107354356	 165924.
07:02:33 1864 1865	 1492326153	 240614608	 133260.
07:02:33 1865 1866	 1492326153	 406635690	 166021.
07:02:33 1866 1867	 1492326153	 568679294	 162044.
07:02:33 1867 1868	 1492326153	 730779796	 162101.
07:02:33 1868 1869	 1492326153	 892689509	 161909.
07:02:34 1869 1870	 1492326154	 58771607	 166082.
07:02:34 1870 1871	 1492326154	 220944735	 162173.
07:02:34 1871 1872	 1492326154	 382860636	 161916.
07:02:34 1872 1873	 1492326154	 520108245	 137248.
07:02:34 1873 1874	 1492326154	 681973834	 161866.
07:02:34 1874 1875	 1492326154	 847944231	 165970.
07:02:35 1875 1876	 1492326155	 9754859	 161811.
07:02:35 1876 1877	 1492326155	 175577872	 165823.
07:02:35 1877 1878	 1492326155	 337249782	 161671.
07:02:35 1878 1879	 1492326155	 499284800	 162036.
