17:31:31    0 Step	 time(s)	 time(ns)	 delta(ms)
17:31:31    0 1	 1492623091	 605178493	 29778.
17:31:31    1 2	 1492623091	 737987788	 132809.
17:31:31    2 3	 1492623091	 899903357	 161916.
17:31:32    3 4	 1492623092	 65671570	 165768.
17:31:32    4 5	 1492623092	 231501940	 165831.
17:31:32    5 6	 1492623092	 393219935	 161718.
17:31:32    6 7	 1492623092	 558921597	 165701.
17:31:32    7 8	 1492623092	 720694873	 161774.
17:31:32    8 9	 1492623092	 853707847	 133013.
17:31:33    9 10	 1492623093	 19513050	 165805.
17:31:33   10 11	 1492623093	 181025592	 161512.
17:31:33   11 12	 1492623093	 346658705	 165633.
17:31:33   12 13	 1492623093	 508197889	 161540.
17:31:33   13 14	 1492623093	 669826171	 161628.
17:31:33   14 15	 1492623093	 806939701	 137113.
17:31:33   15 16	 1492623093	 968673185	 161734.
17:31:34   16 17	 1492623094	 134438691	 165765.
17:31:34   17 18	 1492623094	 296001873	 161564.
17:31:34   18 19	 1492623094	 461760678	 165758.
17:31:34   19 20	 1492623094	 623311912	 161552.
17:31:34   20 21	 1492623094	 760328969	 137017.
17:31:34   21 22	 1492623094	 921742002	 161413.
17:31:35   22 23	 1492623095	 87468587	 165726.
17:31:35   23 24	 1492623095	 249240661	 161772.
17:31:35   24 25	 1492623095	 414846683	 165606.
17:31:35   25 26	 1492623095	 580520263	 165674.
17:31:35   26 27	 1492623095	 713567243	 133047.
17:31:35   27 28	 1492623095	 875278093	 161711.
17:31:36   28 29	 1492623096	 41072092	 165794.
17:31:36   29 30	 1492623096	 202727022	 161655.
17:31:36   30 31	 1492623096	 368654449	 165927.
17:31:36   31 32	 1492623096	 530229104	 161575.
17:31:36   32 33	 1492623096	 696064974	 165836.
17:31:36   33 34	 1492623096	 828904752	 132839.
17:31:37   34 35	 1492623097	 15922845	 187019.
17:31:37   35 36	 1492623097	 148737839	 132815.
17:31:37   36 37	 1492623097	 314519074	 165781.
17:31:37   37 38	 1492623097	 476281057	 161762.
17:31:37   38 39	 1492623097	 641826738	 165545.
17:31:37   39 40	 1492623097	 803432907	 161607.
17:31:37   40 41	 1492623097	 936082290	 132649.
17:31:38   41 42	 1492623098	 101528263	 165446.
17:31:38   42 43	 1492623098	 263035087	 161507.
17:31:38   43 44	 1492623098	 428441086	 165406.
17:31:38   44 45	 1492623098	 589890098	 161449.
17:31:38   45 46	 1492623098	 726898501	 137008.
17:31:38   46 47	 1492623098	 888509155	 161611.
17:31:39   47 48	 1492623099	 54373109	 165864.
17:31:39   48 49	 1492623099	 216049759	 161676.
17:31:39   49 50	 1492623099	 381931723	 165882.
17:31:39   50 51	 1492623099	 543542660	 161611.
17:31:39   51 52	 1492623099	 709193609	 165651.
17:31:39   52 53	 1492623099	 842173501	 132980.
17:31:40   53 54	 1492623100	 7773125	 165600.
17:31:40   54 55	 1492623100	 169709181	 161936.
17:31:40   55 56	 1492623100	 335547977	 165839.
17:31:40   56 57	 1492623100	 497427508	 161879.
17:31:40   57 58	 1492623100	 659066823	 161640.
17:31:40   58 59	 1492623100	 824809041	 165742.
17:31:40   59 60	 1492623100	 957725477	 132916.
17:31:41   60 61	 1492623101	 123483799	 165759.
17:31:41   61 62	 1492623101	 285053565	 161569.
17:31:41   62 63	 1492623101	 450781893	 165729.
17:31:41   63 64	 1492623101	 612523698	 161741.
17:31:41   64 65	 1492623101	 774113107	 161590.
17:31:41   65 66	 1492623101	 911078511	 136965.
17:31:42   66 67	 1492623102	 72886098	 161808.
17:31:42   67 68	 1492623102	 238580308	 165694.
17:31:42   68 69	 1492623102	 400061237	 161481.
17:31:42   69 70	 1492623102	 565587938	 165527.
17:31:42   70 71	 1492623102	 727156337	 161568.
17:31:42   71 72	 1492623102	 864377608	 137221.
17:31:43   72 73	 1492623103	 26225226	 161848.
17:31:43   73 74	 1492623103	 187998306	 161773.
17:31:43   74 75	 1492623103	 353949580	 165951.
17:31:43   75 76	 1492623103	 515818537	 161869.
17:31:43   76 77	 1492623103	 677433771	 161615.
17:31:43   77 78	 1492623103	 842989402	 165556.
17:31:43   78 79	 1492623103	 975727002	 132738.
17:31:44   79 80	 1492623104	 141443304	 165716.
17:31:44   80 81	 1492623104	 302952757	 161509.
17:31:44   81 82	 1492623104	 468599270	 165647.
17:31:44   82 83	 1492623104	 630255511	 161656.
17:31:44   83 84	 1492623104	 791982441	 161727.
17:31:44   84 85	 1492623104	 929097339	 137115.
17:31:45   85 86	 1492623105	 90782078	 161685.
17:31:45   86 87	 1492623105	 256351517	 165569.
17:31:45   87 88	 1492623105	 417984079	 161633.
17:31:45   88 89	 1492623105	 583631674	 165648.
17:31:45   89 90	 1492623105	 745129862	 161498.
17:31:45   90 91	 1492623105	 877969844	 132840.
17:31:46   91 92	 1492623106	 43825919	 165856.
17:31:46   92 93	 1492623106	 205412414	 161586.
17:31:46   93 94	 1492623106	 371189579	 165777.
17:31:46   94 95	 1492623106	 532733269	 161544.
17:31:46   95 96	 1492623106	 698323683	 165590.
17:31:46   96 97	 1492623106	 831233199	 132910.
17:31:46   97 98	 1492623106	 992966629	 161733.
17:31:47   98 99	 1492623107	 158569226	 165603.
17:31:47   99 100	 1492623107	 320138144	 161569.
17:31:47  100 101	 1492623107	 485770252	 165632.
17:31:47  101 102	 1492623107	 618654139	 132884.
17:31:47  102 103	 1492623107	 784146064	 165492.
17:31:47  103 104	 1492623107	 945950019	 161804.
17:31:48  104 105	 1492623108	 107553262	 161603.
17:31:48  105 106	 1492623108	 269189023	 161636.
17:31:48  106 107	 1492623108	 434794429	 165605.
17:31:48  107 108	 1492623108	 567852559	 133058.
17:31:48  108 109	 1492623108	 733469088	 165617.
17:31:48  109 110	 1492623108	 895045663	 161576.
17:31:49  110 111	 1492623109	 60636790	 165592.
17:31:49  111 112	 1492623109	 221878091	 161241.
17:31:49  112 113	 1492623109	 358793915	 136916.
17:31:49  113 114	 1492623109	 520299613	 161505.
17:31:49  114 115	 1492623109	 686092969	 165794.
17:31:49  115 116	 1492623109	 847762696	 161669.
17:31:50  116 117	 1492623110	 9490852	 161729.
17:31:50  117 118	 1492623110	 175152341	 165661.
17:31:50  118 119	 1492623110	 340786023	 165634.
17:31:50  119 120	 1492623110	 473697940	 132912.
17:31:50  120 121	 1492623110	 635493203	 161795.
17:31:50  121 122	 1492623110	 801201768	 165708.
17:31:50  122 123	 1492623110	 962621939	 161421.
17:31:51  123 124	 1492623111	 128441753	 165819.
17:31:51  124 125	 1492623111	 290008251	 161567.
17:31:51  125 126	 1492623111	 423004613	 132996.
17:31:51  126 127	 1492623111	 588750976	 165747.
17:31:51  127 128	 1492623111	 754339001	 165588.
17:31:51  128 129	 1492623111	 915919685	 161580.
17:31:52  129 130	 1492623112	 81643259	 165724.
17:31:52  130 131	 1492623112	 243305238	 161662.
17:31:52  131 132	 1492623112	 376132136	 132827.
17:31:52  132 133	 1492623112	 541709424	 165577.
17:31:52  133 134	 1492623112	 703362246	 161653.
17:31:52  134 135	 1492623112	 869153308	 165791.
17:31:53  135 136	 1492623113	 30811117	 161658.
17:31:53  136 137	 1492623113	 167638987	 136828.
17:31:53  137 138	 1492623113	 329197951	 161559.
17:31:53  138 139	 1492623113	 494878523	 165680.
17:31:53  139 140	 1492623113	 656511583	 161633.
17:31:53  140 141	 1492623113	 834093478	 177582.
17:31:53  141 142	 1492623113	 987951688	 153858.
17:31:54  142 143	 1492623114	 149721405	 161770.
17:31:54  143 144	 1492623114	 282712022	 132991.
17:31:54  144 145	 1492623114	 448273918	 165562.
17:31:54  145 146	 1492623114	 610005099	 161731.
17:31:54  146 147	 1492623114	 771545273	 161540.
17:31:54  147 148	 1492623114	 937303863	 165759.
17:31:55  148 149	 1492623115	 98754117	 161450.
17:31:55  149 150	 1492623115	 235784156	 137030.
17:31:55  150 151	 1492623115	 397317585	 161533.
17:31:55  151 152	 1492623115	 558979760	 161662.
17:31:55  152 153	 1492623115	 724876481	 165897.
17:31:55  153 154	 1492623115	 886524917	 161649.
17:31:56  154 155	 1492623116	 52239656	 165714.
17:31:56  155 156	 1492623116	 185217932	 132979.
17:31:56  156 157	 1492623116	 346646094	 161428.
17:31:56  157 158	 1492623116	 508588881	 161943.
17:31:56  158 159	 1492623116	 666165402	 157576.
17:31:56  159 160	 1492623116	 831670934	 165506.
17:31:56  160 161	 1492623116	 993352316	 161681.
17:31:57  161 162	 1492623117	 159041726	 165689.
17:31:57  162 163	 1492623117	 292222898	 133182.
17:31:57  163 164	 1492623117	 457742590	 165519.
17:31:57  164 165	 1492623117	 619196967	 161455.
17:31:57  165 166	 1492623117	 784973940	 165777.
17:31:57  166 167	 1492623117	 946472049	 161498.
17:31:58  167 168	 1492623118	 79237038	 132765.
17:31:58  168 169	 1492623118	 244720985	 165484.
17:31:58  169 170	 1492623118	 406070438	 161349.
17:31:58  170 171	 1492623118	 571637042	 165567.
17:31:58  171 172	 1492623118	 733259681	 161622.
17:31:58  172 173	 1492623118	 870326273	 137067.
17:31:59  173 174	 1492623119	 31878721	 161552.
17:31:59  174 175	 1492623119	 193320380	 161442.
17:31:59  175 176	 1492623119	 358758724	 165438.
17:31:59  176 177	 1492623119	 524337820	 165580.
17:31:59  177 178	 1492623119	 657192523	 132854.
17:31:59  178 179	 1492623119	 818862843	 161671.
17:31:59  179 180	 1492623119	 984633493	 165770.
17:32:00  180 181	 1492623120	 146254562	 161621.
17:32:00  181 182	 1492623120	 311848276	 165594.
17:32:00  182 183	 1492623120	 473461710	 161613.
17:32:00  183 184	 1492623120	 639140765	 165679.
17:32:00  184 185	 1492623120	 772037550	 132897.
17:32:00  185 186	 1492623120	 933424836	 161387.
17:32:01  186 187	 1492623121	 99212358	 165788.
17:32:01  187 188	 1492623121	 260888120	 161676.
17:32:01  188 189	 1492623121	 426564475	 165676.
17:32:01  189 190	 1492623121	 588177478	 161613.
17:32:01  190 191	 1492623121	 754205830	 166029.
17:32:01  191 192	 1492623121	 887176304	 132970.
17:32:02  192 193	 1492623122	 52948570	 165772.
17:32:02  193 194	 1492623122	 214486441	 161538.
17:32:02  194 195	 1492623122	 380123311	 165637.
17:32:02  195 196	 1492623122	 541728792	 161606.
17:32:02  196 197	 1492623122	 707261405	 165532.
17:32:02  197 198	 1492623122	 840130384	 132869.
17:32:02  198 199	 1492623123	 1902761	 161772.
17:32:03  199 200	 1492623123	 167709825	 165808.
17:32:03  200 201	 1492623123	 329314337	 161604.
17:32:03  201 202	 1492623123	 495039305	 165725.
17:32:03  202 203	 1492623123	 656833080	 161794.
17:32:03  203 204	 1492623123	 789958551	 133125.
17:32:03  204 205	 1492623123	 955828700	 165871.
17:32:04  205 206	 1492623124	 117883107	 162054.
17:32:04  206 207	 1492623124	 283711849	 165829.
17:32:04  207 208	 1492623124	 445752605	 162040.
17:32:04  208 209	 1492623124	 607673618	 161921.
17:32:04  209 210	 1492623124	 769589566	 161916.
17:32:04  210 211	 1492623124	 935449217	 165860.
17:32:05  211 212	 1492623125	 97327155	 161878.
17:32:05  212 213	 1492623125	 234488407	 137161.
17:32:05  213 214	 1492623125	 396221833	 161734.
17:32:05  214 215	 1492623125	 562097980	 165876.
17:32:05  215 216	 1492623125	 720131680	 158033.
17:32:05  216 217	 1492623125	 885923865	 165793.
17:32:06  217 218	 1492623126	 48081850	 162158.
17:32:06  218 219	 1492623126	 209745153	 161663.
17:32:06  219 220	 1492623126	 342717927	 132973.
17:32:06  220 221	 1492623126	 508388772	 165670.
17:32:06  221 222	 1492623126	 669973525	 161585.
17:32:06  222 223	 1492623126	 835568514	 165595.
17:32:06  223 224	 1492623126	 997270407	 161702.
17:32:07  224 225	 1492623127	 162911638	 165641.
17:32:07  225 226	 1492623127	 296026355	 133115.
17:32:07  226 227	 1492623127	 457633634	 161607.
17:32:07  227 228	 1492623127	 623449924	 165817.
17:32:07  228 229	 1492623127	 785259157	 161809.
17:32:07  229 230	 1492623127	 950945748	 165686.
17:32:08  230 231	 1492623128	 112899005	 161954.
17:32:08  231 232	 1492623128	 278775395	 165876.
17:32:08  232 233	 1492623128	 412115356	 133340.
17:32:08  233 234	 1492623128	 573957389	 161842.
17:32:08  234 235	 1492623128	 739809397	 165852.
17:32:08  235 236	 1492623128	 905698026	 165889.
17:32:09  236 237	 1492623129	 67518621	 161820.
17:32:09  237 238	 1492623129	 233507476	 165989.
17:32:09  238 239	 1492623129	 395314599	 161807.
17:32:09  239 240	 1492623129	 532684950	 137371.
17:32:09  240 241	 1492623129	 694621625	 161936.
17:32:09  241 242	 1492623129	 860364747	 165743.
17:32:10  242 243	 1492623130	 22415782	 162051.
17:32:10  243 244	 1492623130	 184193051	 161778.
17:32:10  244 245	 1492623130	 350216798	 166023.
17:32:10  245 246	 1492623130	 512152895	 161937.
17:32:10  246 247	 1492623130	 678987302	 166834.
17:32:10  247 248	 1492623130	 837033002	 158046.
17:32:10  248 249	 1492623131	 2720068	 165687.
17:32:11  249 250	 1492623131	 135839759	 133119.
17:32:11  250 251	 1492623131	 297789216	 161950.
17:32:11  251 252	 1492623131	 463616443	 165827.
17:32:11  252 253	 1492623131	 629765127	 166149.
17:32:11  253 254	 1492623131	 795583240	 165818.
17:32:11  254 255	 1492623131	 953683487	 158100.
17:32:12  255 256	 1492623132	 119371422	 165688.
17:32:12  256 257	 1492623132	 252400705	 133029.
17:32:12  257 258	 1492623132	 418241524	 165841.
17:32:12  258 259	 1492623132	 579951181	 161710.
17:32:12  259 260	 1492623132	 745932287	 165981.
17:32:12  260 261	 1492623132	 907652061	 161720.
17:32:13  261 262	 1492623133	 73360442	 165708.
17:32:13  262 263	 1492623133	 235060516	 161700.
17:32:13  263 264	 1492623133	 372154267	 137094.
17:32:13  264 265	 1492623133	 533992755	 161838.
17:32:13  265 266	 1492623133	 699890083	 165898.
17:32:13  266 267	 1492623133	 861447785	 161558.
17:32:14  267 268	 1492623134	 27191305	 165743.
17:32:14  268 269	 1492623134	 188978782	 161788.
17:32:14  269 270	 1492623134	 350738969	 161760.
17:32:14  270 271	 1492623134	 483910215	 133171.
17:32:14  271 272	 1492623134	 649827309	 165917.
17:32:14  272 273	 1492623134	 811406975	 161580.
17:32:14  273 274	 1492623134	 976943027	 165536.
17:32:15  274 275	 1492623135	 138793672	 161850.
17:32:15  275 276	 1492623135	 304636127	 165843.
17:32:15  276 277	 1492623135	 466186686	 161550.
17:32:15  277 278	 1492623135	 599037353	 132851.
17:32:15  278 279	 1492623135	 764680575	 165643.
17:32:15  279 280	 1492623135	 926274684	 161594.
17:32:16  280 281	 1492623136	 92065346	 165791.
17:32:16  281 282	 1492623136	 253710489	 161645.
17:32:16  282 283	 1492623136	 415360853	 161651.
17:32:16  283 284	 1492623136	 552145740	 136784.
17:32:16  284 285	 1492623136	 713703245	 161558.
17:32:16  285 286	 1492623136	 875037308	 161334.
17:32:17  286 287	 1492623137	 40704659	 165667.
17:32:17  287 288	 1492623137	 206372365	 165668.
17:32:17  288 289	 1492623137	 339397697	 133025.
17:32:17  289 290	 1492623137	 500998845	 161602.
17:32:17  290 291	 1492623137	 666686281	 165687.
17:32:17  291 292	 1492623137	 828452826	 161767.
17:32:17  292 293	 1492623137	 990405647	 161952.
17:32:18  293 294	 1492623138	 152026064	 161621.
17:32:18  294 295	 1492623138	 317730949	 165705.
17:32:18  295 296	 1492623138	 450872216	 133141.
17:32:18  296 297	 1492623138	 616569371	 165697.
17:32:18  297 298	 1492623138	 778346650	 161777.
17:32:18  298 299	 1492623138	 944058304	 165712.
17:32:19  299 300	 1492623139	 105923977	 161866.
17:32:19  300 301	 1492623139	 271768988	 165845.
17:32:19  301 302	 1492623139	 433607400	 161838.
17:32:19  302 303	 1492623139	 566690877	 133084.
17:32:19  303 304	 1492623139	 732340274	 165649.
17:32:19  304 305	 1492623139	 894028028	 161688.
17:32:20  305 306	 1492623140	 59878897	 165851.
17:32:20  306 307	 1492623140	 221676494	 161797.
17:32:20  307 308	 1492623140	 387378467	 165702.
17:32:20  308 309	 1492623140	 549014306	 161636.
17:32:20  309 310	 1492623140	 682373044	 133359.
17:32:20  310 311	 1492623140	 848100369	 165727.
17:32:21  311 312	 1492623141	 9901423	 161801.
17:32:21  312 313	 1492623141	 175559021	 165658.
17:32:21  313 314	 1492623141	 337332023	 161773.
17:32:21  314 315	 1492623141	 503105902	 165774.
17:32:21  315 316	 1492623141	 664853165	 161747.
17:32:21  316 317	 1492623141	 830669136	 165816.
17:32:21  317 318	 1492623141	 992491733	 161823.
17:32:22  318 319	 1492623142	 125683683	 133191.
17:32:22  319 320	 1492623142	 291341581	 165658.
17:32:22  320 321	 1492623142	 452988162	 161647.
17:32:22  321 322	 1492623142	 618775508	 165787.
17:32:22  322 323	 1492623142	 780501015	 161726.
17:32:22  323 324	 1492623142	 942482397	 161981.
17:32:23  324 325	 1492623143	 108348606	 165866.
17:32:23  325 326	 1492623143	 270112594	 161764.
17:32:23  326 327	 1492623143	 407273608	 137161.
17:32:23  327 328	 1492623143	 568969028	 161696.
17:32:23  328 329	 1492623143	 734536166	 165567.
17:32:23  329 330	 1492623143	 896754954	 162219.
17:32:24  330 331	 1492623144	 58640574	 161885.
17:32:24  331 332	 1492623144	 220362621	 161722.
17:32:24  332 333	 1492623144	 386195823	 165834.
17:32:24  333 334	 1492623144	 547909561	 161713.
17:32:24  334 335	 1492623144	 685008154	 137099.
17:32:24  335 336	 1492623144	 846726802	 161719.
17:32:25  336 337	 1492623145	 12432694	 165705.
17:32:25  337 338	 1492623145	 174221325	 161789.
17:32:25  338 339	 1492623145	 339814960	 165594.
17:32:25  339 340	 1492623145	 501479551	 161665.
17:32:25  340 341	 1492623145	 634518958	 133039.
17:32:25  341 342	 1492623145	 800038998	 165520.
17:32:25  342 343	 1492623145	 961813857	 161775.
17:32:26  343 344	 1492623146	 127503210	 165689.
17:32:26  344 345	 1492623146	 289197666	 161694.
17:32:26  345 346	 1492623146	 451020126	 161823.
17:32:26  346 347	 1492623146	 616734657	 165714.
17:32:26  347 348	 1492623146	 778276347	 161542.
17:32:26  348 349	 1492623146	 911320272	 133044.
17:32:27  349 350	 1492623147	 76952481	 165632.
17:32:27  350 351	 1492623147	 238830347	 161878.
17:32:27  351 352	 1492623147	 404631980	 165802.
17:32:27  352 353	 1492623147	 566368997	 161737.
17:32:27  353 354	 1492623147	 732153342	 165784.
17:32:27  354 355	 1492623147	 893871836	 161719.
17:32:28  355 356	 1492623148	 26787019	 132915.
17:32:28  356 357	 1492623148	 192408725	 165621.
17:32:28  357 358	 1492623148	 354200510	 161792.
17:32:28  358 359	 1492623148	 519915895	 165716.
17:32:28  359 360	 1492623148	 681807706	 161891.
17:32:28  360 361	 1492623148	 847551385	 165744.
17:32:29  361 362	 1492623149	 9278895	 161728.
17:32:29  362 363	 1492623149	 142463615	 133184.
17:32:29  363 364	 1492623149	 308251083	 165788.
17:32:29  364 365	 1492623149	 470058196	 161807.
17:32:29  365 366	 1492623149	 635836631	 165778.
17:32:29  366 367	 1492623149	 797492351	 161656.
17:32:29  367 368	 1492623149	 963249204	 165757.
17:32:30  368 369	 1492623150	 125445428	 162196.
17:32:30  369 370	 1492623150	 287238257	 161793.
17:32:30  370 371	 1492623150	 449199414	 161961.
17:32:30  371 372	 1492623150	 586268906	 137070.
17:32:30  372 373	 1492623150	 747851586	 161582.
17:32:30  373 374	 1492623150	 913617099	 165766.
17:32:31  374 375	 1492623151	 75414074	 161797.
17:32:31  375 376	 1492623151	 241419485	 166005.
17:32:31  376 377	 1492623151	 403078335	 161659.
17:32:31  377 378	 1492623151	 568905812	 165828.
17:32:31  378 379	 1492623151	 726723634	 157817.
17:32:31  379 380	 1492623151	 863928862	 137206.
17:32:32  380 381	 1492623152	 25849369	 161920.
17:32:32  381 382	 1492623152	 191630966	 165782.
17:32:32  382 383	 1492623152	 353447286	 161816.
17:32:32  383 384	 1492623152	 515384337	 161937.
17:32:32  384 385	 1492623152	 681135524	 165751.
17:32:32  385 386	 1492623152	 842681815	 161547.
17:32:33  386 387	 1492623153	 8531710	 165849.
17:32:33  387 388	 1492623153	 141581569	 133050.
17:32:33  388 389	 1492623153	 303245198	 161664.
17:32:33  389 390	 1492623153	 468963354	 165718.
17:32:33  390 391	 1492623153	 630556207	 161593.
17:32:33  391 392	 1492623153	 796255420	 165699.
17:32:33  392 393	 1492623153	 958027664	 161772.
17:32:34  393 394	 1492623154	 95102933	 137076.
17:32:34  394 395	 1492623154	 256824092	 161721.
17:32:34  395 396	 1492623154	 422471567	 165647.
17:32:34  396 397	 1492623154	 584123470	 161652.
17:32:34  397 398	 1492623154	 749926803	 165804.
17:32:34  398 399	 1492623154	 911563869	 161637.
17:32:35  399 400	 1492623155	 77299339	 165735.
17:32:35  400 401	 1492623155	 210342380	 133043.
17:32:35  401 402	 1492623155	 376090510	 165748.
17:32:35  402 403	 1492623155	 537678987	 161589.
17:32:35  403 404	 1492623155	 703411379	 165732.
17:32:35  404 405	 1492623155	 861515265	 158104.
17:32:36  405 406	 1492623156	 23195607	 161680.
17:32:36  406 407	 1492623156	 188853946	 165659.
17:32:36  407 408	 1492623156	 321842245	 132988.
17:32:36  408 409	 1492623156	 487411330	 165569.
17:32:36  409 410	 1492623156	 649196776	 161786.
17:32:36  410 411	 1492623156	 810774441	 161577.
17:32:36  411 412	 1492623156	 976307758	 165533.
17:32:37  412 413	 1492623157	 137967565	 161660.
17:32:37  413 414	 1492623157	 270763816	 132797.
17:32:37  414 415	 1492623157	 436608264	 165844.
17:32:37  415 416	 1492623157	 598324429	 161716.
17:32:37  416 417	 1492623157	 756401364	 158077.
17:32:37  417 418	 1492623157	 922204424	 165803.
17:32:38  418 419	 1492623158	 83890020	 161686.
17:32:38  419 420	 1492623158	 249261413	 165371.
17:32:38  420 421	 1492623158	 382190001	 132929.
17:32:38  421 422	 1492623158	 547799295	 165609.
17:32:38  422 423	 1492623158	 709365412	 161566.
17:32:38  423 424	 1492623158	 886559250	 177194.
17:32:39  424 425	 1492623159	 44115257	 157556.
17:32:39  425 426	 1492623159	 177075393	 132960.
17:32:39  426 427	 1492623159	 342710192	 165635.
17:32:39  427 428	 1492623159	 504183956	 161474.
17:32:39  428 429	 1492623159	 669740079	 165556.
17:32:39  429 430	 1492623159	 831458405	 161718.
17:32:39  430 431	 1492623159	 968385788	 136928.
17:32:40  431 432	 1492623160	 130123897	 161738.
17:32:40  432 433	 1492623160	 291574788	 161451.
17:32:40  433 434	 1492623160	 457021496	 165446.
17:32:40  434 435	 1492623160	 615401754	 158380.
17:32:40  435 436	 1492623160	 776905900	 161505.
17:32:40  436 437	 1492623160	 942403032	 165497.
17:32:41  437 438	 1492623161	 100371645	 157968.
17:32:41  438 439	 1492623161	 233138844	 132768.
17:32:41  439 440	 1492623161	 398892694	 165753.
17:32:41  440 441	 1492623161	 560432591	 161540.
17:32:41  441 442	 1492623161	 726085223	 165653.
17:32:41  442 443	 1492623161	 884034855	 157950.
17:32:42  443 444	 1492623162	 49740295	 165705.
17:32:42  444 445	 1492623162	 182605541	 132865.
17:32:42  445 446	 1492623162	 344438349	 161833.
17:32:42  446 447	 1492623162	 509936768	 165498.
17:32:42  447 448	 1492623162	 671357457	 161421.
17:32:42  448 449	 1492623162	 836938045	 165581.
17:32:42  449 450	 1492623162	 998201370	 161263.
17:32:43  450 451	 1492623163	 131179556	 132978.
17:32:43  451 452	 1492623163	 296791154	 165612.
17:32:43  452 453	 1492623163	 458376070	 161585.
17:32:43  453 454	 1492623163	 624051178	 165675.
17:32:43  454 455	 1492623163	 785544325	 161493.
17:32:43  455 456	 1492623163	 947059453	 161515.
17:32:44  456 457	 1492623164	 84151501	 137092.
17:32:44  457 458	 1492623164	 245601642	 161450.
17:32:44  458 459	 1492623164	 411107857	 165507.
17:32:44  459 460	 1492623164	 572688890	 161581.
17:32:44  460 461	 1492623164	 738150217	 165461.
17:32:44  461 462	 1492623164	 870986137	 132836.
17:32:45  462 463	 1492623165	 32489801	 161504.
17:32:45  463 464	 1492623165	 198168656	 165678.
17:32:45  464 465	 1492623165	 359894275	 161726.
17:32:45  465 466	 1492623165	 525365170	 165471.
17:32:45  466 467	 1492623165	 686862386	 161497.
17:32:45  467 468	 1492623165	 819734314	 132872.
17:32:45  468 469	 1492623165	 985429548	 165695.
17:32:46  469 470	 1492623166	 146697409	 161268.
17:32:46  470 471	 1492623166	 312057397	 165360.
17:32:46  471 472	 1492623166	 473702079	 161645.
17:32:46  472 473	 1492623166	 635391534	 161689.
17:32:46  473 474	 1492623166	 772458368	 137067.
17:32:46  474 475	 1492623166	 934243602	 161785.
17:32:47  475 476	 1492623167	 100224757	 165982.
17:32:47  476 477	 1492623167	 261716232	 161491.
17:32:47  477 478	 1492623167	 423075563	 161359.
17:32:47  478 479	 1492623167	 588749569	 165674.
17:32:47  479 480	 1492623167	 721592228	 132843.
17:32:47  480 481	 1492623167	 882934240	 161342.
17:32:48  481 482	 1492623168	 48539357	 165605.
17:32:48  482 483	 1492623168	 209889445	 161350.
17:32:48  483 484	 1492623168	 375422104	 165533.
17:32:48  484 485	 1492623168	 508263475	 132841.
17:32:48  485 486	 1492623168	 673802070	 165539.
17:32:48  486 487	 1492623168	 835500828	 161699.
17:32:48  487 488	 1492623169	 1058697	 165557.
17:32:49  488 489	 1492623169	 162524765	 161466.
17:32:49  489 490	 1492623169	 295332391	 132808.
17:32:49  490 491	 1492623169	 460889309	 165557.
17:32:49  491 492	 1492623169	 622465983	 161577.
17:32:49  492 493	 1492623169	 788075720	 165609.
17:32:49  493 494	 1492623169	 949956510	 161881.
17:32:50  494 495	 1492623170	 97844338	 147888.
17:32:50  495 496	 1492623170	 259602120	 161758.
17:32:50  496 497	 1492623170	 425172318	 165570.
17:32:50  497 498	 1492623170	 586840311	 161668.
17:32:50  498 499	 1492623170	 748517375	 161677.
17:32:50  499 500	 1492623170	 914174695	 165657.
17:32:51  500 501	 1492623171	 46930323	 132756.
17:32:51  501 502	 1492623171	 212820446	 165890.
17:32:51  502 503	 1492623171	 374323748	 161503.
17:32:51  503 504	 1492623171	 535992067	 161669.
17:32:51  504 505	 1492623171	 701654640	 165662.
17:32:51  505 506	 1492623171	 834630040	 132976.
17:32:51  506 507	 1492623172	 280516	 165650.
17:32:52  507 508	 1492623172	 161764585	 161484.
17:32:52  508 509	 1492623172	 327255695	 165491.
17:32:52  509 510	 1492623172	 488937214	 161682.
17:32:52  510 511	 1492623172	 650631837	 161695.
17:32:52  511 512	 1492623172	 787721531	 137089.
17:32:52  512 513	 1492623172	 949237092	 161516.
17:32:53  513 514	 1492623173	 110756522	 161519.
17:32:53  514 515	 1492623173	 276322365	 165566.
17:32:53  515 516	 1492623173	 437923701	 161601.
17:32:53  516 517	 1492623173	 603577315	 165654.
17:32:53  517 518	 1492623173	 736395257	 132818.
17:32:53  518 519	 1492623173	 901863578	 165468.
17:32:54  519 520	 1492623174	 63310633	 161447.
17:32:54  520 521	 1492623174	 224645100	 161335.
17:32:54  521 522	 1492623174	 361396786	 136752.
17:32:54  522 523	 1492623174	 523119235	 161722.
17:32:54  523 524	 1492623174	 688641927	 165523.
17:32:54  524 525	 1492623174	 850193573	 161551.
17:32:55  525 526	 1492623175	 15707971	 165515.
17:32:55  526 527	 1492623175	 177464290	 161756.
17:32:55  527 528	 1492623175	 343153168	 165689.
17:32:55  528 529	 1492623175	 475984689	 132831.
17:32:55  529 530	 1492623175	 637486848	 161503.
17:32:55  530 531	 1492623175	 803183669	 165696.
17:32:55  531 532	 1492623175	 964646791	 161464.
17:32:56  532 533	 1492623176	 130288748	 165641.
17:32:56  533 534	 1492623176	 263398423	 133110.
17:32:56  534 535	 1492623176	 424927497	 161529.
17:32:56  535 536	 1492623176	 590966790	 166040.
17:32:56  536 537	 1492623176	 752641175	 161674.
17:32:56  537 538	 1492623176	 918385543	 165744.
17:32:57  538 539	 1492623177	 80056020	 161671.
17:32:57  539 540	 1492623177	 241663238	 161607.
17:32:57  540 541	 1492623177	 378393075	 136730.
17:32:57  541 542	 1492623177	 539814359	 161421.
17:32:57  542 543	 1492623177	 701273190	 161459.
17:32:57  543 544	 1492623177	 866961406	 165688.
17:32:58  544 545	 1492623178	 28314013	 161353.
17:32:58  545 546	 1492623178	 165246197	 136932.
17:32:58  546 547	 1492623178	 326566770	 161320.
17:32:58  547 548	 1492623178	 492009384	 165443.
17:32:58  548 549	 1492623178	 653497122	 161488.
17:32:58  549 550	 1492623178	 814962240	 161465.
17:32:58  550 551	 1492623178	 952154084	 137192.
17:32:59  551 552	 1492623179	 113809864	 161656.
17:32:59  552 553	 1492623179	 275305706	 161495.
17:32:59  553 554	 1492623179	 440880695	 165575.
17:32:59  554 555	 1492623179	 602380728	 161500.
17:32:59  555 556	 1492623179	 768209701	 165829.
17:32:59  556 557	 1492623179	 901117898	 132909.
17:33:00  557 558	 1492623180	 66772697	 165654.
17:33:00  558 559	 1492623180	 228758708	 161986.
17:33:00  559 560	 1492623180	 394269165	 165511.
17:33:00  560 561	 1492623180	 555738849	 161470.
17:33:00  561 562	 1492623180	 717304107	 161565.
17:33:00  562 563	 1492623180	 850157417	 132853.
17:33:01  563 564	 1492623181	 15714572	 165557.
17:33:01  564 565	 1492623181	 181539908	 165826.
17:33:01  565 566	 1492623181	 343325786	 161786.
17:33:01  566 567	 1492623181	 505013841	 161688.
17:33:01  567 568	 1492623181	 670498668	 165484.
17:33:01  568 569	 1492623181	 803442643	 132944.
17:33:01  569 570	 1492623181	 969395112	 165953.
17:33:02  570 571	 1492623182	 131189806	 161795.
17:33:02  571 572	 1492623182	 296745077	 165555.
17:33:02  572 573	 1492623182	 458308641	 161563.
17:33:02  573 574	 1492623182	 623962961	 165655.
17:33:02  574 575	 1492623182	 756977744	 133014.
17:33:02  575 576	 1492623182	 922616509	 165639.
17:33:03  576 577	 1492623183	 84286752	 161670.
17:33:03  577 578	 1492623183	 245732452	 161446.
17:33:03  578 579	 1492623183	 411271125	 165539.
17:33:03  579 580	 1492623183	 572956697	 161685.
17:33:03  580 581	 1492623183	 710018230	 137062.
17:33:03  581 582	 1492623183	 871706140	 161688.
17:33:04  582 583	 1492623184	 37474788	 165769.
17:33:04  583 584	 1492623184	 199076584	 161601.
17:33:04  584 585	 1492623184	 364687859	 165612.
17:33:04  585 586	 1492623184	 526558135	 161870.
17:33:04  586 587	 1492623184	 659599507	 133041.
17:33:04  587 588	 1492623184	 825475253	 165876.
17:33:04  588 589	 1492623184	 987340095	 161865.
17:33:05  589 590	 1492623185	 153177282	 165837.
17:33:05  590 591	 1492623185	 314856331	 161679.
17:33:05  591 592	 1492623185	 480625063	 165769.
17:33:05  592 593	 1492623185	 642454458	 161829.
17:33:05  593 594	 1492623185	 779578362	 137124.
17:33:05  594 595	 1492623185	 941481716	 161903.
17:33:06  595 596	 1492623186	 107238389	 165757.
17:33:06  596 597	 1492623186	 269091526	 161853.
17:33:06  597 598	 1492623186	 430899404	 161808.
17:33:06  598 599	 1492623186	 596875010	 165976.
17:33:06  599 600	 1492623186	 758556071	 161681.
17:33:06  600 601	 1492623186	 925350636	 166794.
17:33:07  601 602	 1492623187	 82930524	 157580.
17:33:07  602 603	 1492623187	 216064534	 133134.
17:33:07  603 604	 1492623187	 381729683	 165665.
17:33:07  604 605	 1492623187	 543338011	 161609.
17:33:07  605 606	 1492623187	 705139078	 161801.
17:33:07  606 607	 1492623187	 871007708	 165868.
17:33:08  607 608	 1492623188	 32460458	 161453.
17:33:08  608 609	 1492623188	 169642757	 137182.
17:33:08  609 610	 1492623188	 330995553	 161353.
17:33:08  610 611	 1492623188	 496589498	 165594.
17:33:08  611 612	 1492623188	 658157639	 161568.
17:33:08  612 613	 1492623188	 819752442	 161595.
17:33:08  613 614	 1492623188	 956721943	 136970.
17:33:09  614 615	 1492623189	 118114189	 161392.
17:33:09  615 616	 1492623189	 283884420	 165770.
17:33:09  616 617	 1492623189	 445697151	 161813.
17:33:09  617 618	 1492623189	 607210704	 161513.
17:33:09  618 619	 1492623189	 768939666	 161729.
17:33:09  619 620	 1492623189	 934840807	 165902.
17:33:10  620 621	 1492623190	 67798016	 132957.
17:33:10  621 622	 1492623190	 229277579	 161479.
17:33:10  622 623	 1492623190	 395009122	 165732.
17:33:10  623 624	 1492623190	 556677213	 161668.
17:33:10  624 625	 1492623190	 722256544	 165579.
17:33:10  625 626	 1492623190	 855154078	 132898.
17:33:11  626 627	 1492623191	 20771915	 165618.
17:33:11  627 628	 1492623191	 182465304	 161693.
17:33:11  628 629	 1492623191	 343955072	 161490.
17:33:11  629 630	 1492623191	 505735052	 161780.
17:33:11  630 631	 1492623191	 671239070	 165504.
17:33:11  631 632	 1492623191	 803898901	 132660.
17:33:11  632 633	 1492623191	 965054760	 161155.
17:33:12  633 634	 1492623192	 130723242	 165669.
17:33:12  634 635	 1492623192	 291933505	 161210.
17:33:12  635 636	 1492623192	 457539427	 165606.
17:33:12  636 637	 1492623192	 590300883	 132762.
17:33:12  637 638	 1492623192	 755921994	 165621.
17:33:12  638 639	 1492623192	 917541770	 161619.
17:33:13  639 640	 1492623193	 78778879	 161238.
17:33:13  640 641	 1492623193	 244176138	 165397.
17:33:13  641 642	 1492623193	 376657823	 132482.
17:33:13  642 643	 1492623193	 542164577	 165506.
17:33:13  643 644	 1492623193	 703627410	 161463.
17:33:13  644 645	 1492623193	 869054120	 165427.
17:33:14  645 646	 1492623194	 30692596	 161638.
17:33:14  646 647	 1492623194	 167528532	 136836.
17:33:14  647 648	 1492623194	 328970615	 161442.
17:33:14  648 649	 1492623194	 490576079	 161606.
17:33:14  649 650	 1492623194	 656243997	 165668.
17:33:14  650 651	 1492623194	 817803029	 161559.
17:33:14  651 652	 1492623194	 983499122	 165696.
17:33:15  652 653	 1492623195	 116431749	 132932.
17:33:15  653 654	 1492623195	 278219122	 161788.
17:33:15  654 655	 1492623195	 443882725	 165663.
17:33:15  655 656	 1492623195	 605510856	 161629.
17:33:15  656 657	 1492623195	 771245451	 165734.
17:33:15  657 658	 1492623195	 933001021	 161756.
17:33:16  658 659	 1492623196	 98608137	 165607.
17:33:16  659 660	 1492623196	 231650344	 133042.
17:33:16  660 661	 1492623196	 393285768	 161635.
17:33:16  661 662	 1492623196	 558916389	 165631.
17:33:16  662 663	 1492623196	 720392043	 161476.
17:33:16  663 664	 1492623196	 881814064	 161422.
17:33:17  664 665	 1492623197	 47403391	 165589.
17:33:17  665 666	 1492623197	 209111108	 161708.
17:33:17  666 667	 1492623197	 346179076	 137068.
17:33:17  667 668	 1492623197	 507916674	 161737.
17:33:17  668 669	 1492623197	 669682952	 161767.
17:33:17  669 670	 1492623197	 835507830	 165825.
17:33:17  670 671	 1492623197	 997355895	 161848.
17:33:18  671 672	 1492623198	 156136093	 158780.
17:33:18  672 673	 1492623198	 317856279	 161720.
17:33:18  673 674	 1492623198	 483510335	 165654.
17:33:18  674 675	 1492623198	 645231627	 161721.
17:33:18  675 676	 1492623198	 810990990	 165760.
17:33:18  676 677	 1492623198	 943928242	 132937.
17:33:19  677 678	 1492623199	 105550209	 161622.
17:33:19  678 679	 1492623199	 271586311	 166036.
17:33:19  679 680	 1492623199	 433334914	 161749.
17:33:19  680 681	 1492623199	 599049604	 165714.
17:33:19  681 682	 1492623199	 760706972	 161658.
17:33:19  682 683	 1492623199	 922392457	 161685.
17:33:20  683 684	 1492623200	 59745124	 137353.
17:33:20  684 685	 1492623200	 221461423	 161716.
17:33:20  685 686	 1492623200	 387228886	 165768.
17:33:20  686 687	 1492623200	 549139744	 161910.
17:33:20  687 688	 1492623200	 710668671	 161529.
17:33:20  688 689	 1492623200	 876548012	 165880.
17:33:21  689 690	 1492623201	 38086404	 161538.
17:33:21  690 691	 1492623201	 175035510	 136949.
17:33:21  691 692	 1492623201	 336709798	 161675.
17:33:21  692 693	 1492623201	 498357738	 161647.
17:33:21  693 694	 1492623201	 660125218	 161768.
17:33:21  694 695	 1492623201	 825827952	 165703.
17:33:21  695 696	 1492623201	 987434146	 161606.
17:33:22  696 697	 1492623202	 153397082	 165963.
17:33:22  697 698	 1492623202	 286459825	 133063.
17:33:22  698 699	 1492623202	 452134011	 165674.
17:33:22  699 700	 1492623202	 613694237	 161560.
17:33:22  700 701	 1492623202	 775249287	 161555.
17:33:22  701 702	 1492623202	 941109520	 165860.
17:33:23  702 703	 1492623203	 103520445	 162411.
17:33:23  703 704	 1492623203	 265217620	 161697.
17:33:23  704 705	 1492623203	 426817087	 161600.
17:33:23  705 706	 1492623203	 563899887	 137083.
17:33:23  706 707	 1492623203	 725400988	 161501.
17:33:23  707 708	 1492623203	 890963016	 165562.
17:33:24  708 709	 1492623204	 52566611	 161603.
17:33:24  709 710	 1492623204	 214065479	 161499.
17:33:24  710 711	 1492623204	 350980075	 136915.
17:33:24  711 712	 1492623204	 512642268	 161662.
17:33:24  712 713	 1492623204	 674331240	 161689.
17:33:24  713 714	 1492623204	 839951261	 165620.
17:33:24  714 715	 1492623205	 1444803	 161494.
17:33:25  715 716	 1492623205	 167117239	 165672.
17:33:25  716 717	 1492623205	 300088879	 132972.
17:33:25  717 718	 1492623205	 465765390	 165676.
17:33:25  718 719	 1492623205	 627344828	 161579.
17:33:25  719 720	 1492623205	 792780999	 165437.
17:33:25  720 721	 1492623205	 954271478	 161490.
17:33:26  721 722	 1492623206	 87289305	 133018.
17:33:26  722 723	 1492623206	 252958231	 165669.
17:33:26  723 724	 1492623206	 414396026	 161438.
17:33:26  724 725	 1492623206	 579989803	 165594.
17:33:26  725 726	 1492623206	 741597612	 161607.
17:33:26  726 727	 1492623206	 878476688	 136879.
17:33:27  727 728	 1492623207	 39968919	 161493.
17:33:27  728 729	 1492623207	 201494331	 161525.
17:33:27  729 730	 1492623207	 367196436	 165702.
17:33:27  730 731	 1492623207	 528884341	 161688.
17:33:27  731 732	 1492623207	 694734842	 165851.
17:33:27  732 733	 1492623207	 827671608	 132936.
17:33:27  733 734	 1492623207	 993171450	 165500.
17:33:28  734 735	 1492623208	 154656839	 161486.
17:33:28  735 736	 1492623208	 320273361	 165616.
17:33:28  736 737	 1492623208	 481800996	 161528.
17:33:28  737 738	 1492623208	 614628488	 132827.
17:33:28  738 739	 1492623208	 780226322	 165598.
17:33:28  739 740	 1492623208	 941777541	 161551.
17:33:29  740 741	 1492623209	 107438605	 165661.
17:33:29  741 742	 1492623209	 268899044	 161461.
17:33:29  742 743	 1492623209	 405906562	 137007.
17:33:29  743 744	 1492623209	 567522090	 161616.
17:33:29  744 745	 1492623209	 732980512	 165458.
17:33:29  745 746	 1492623209	 894306315	 161326.
17:33:30  746 747	 1492623210	 55931958	 161626.
17:33:30  747 748	 1492623210	 221710219	 165778.
17:33:30  748 749	 1492623210	 354646702	 132936.
17:33:30  749 750	 1492623210	 520408784	 165763.
17:33:30  750 751	 1492623210	 681961602	 161552.
17:33:30  751 752	 1492623210	 843332507	 161371.
17:33:31  752 753	 1492623211	 9003801	 165672.
17:33:31  753 754	 1492623211	 142016030	 133012.
17:33:31  754 755	 1492623211	 307699633	 165683.
17:33:31  755 756	 1492623211	 469083206	 161384.
17:33:31  756 757	 1492623211	 634841140	 165758.
17:33:31  757 758	 1492623211	 796082751	 161241.
17:33:31  758 759	 1492623211	 932828741	 136746.
17:33:32  759 760	 1492623212	 94140332	 161312.
17:33:32  760 761	 1492623212	 255503354	 161363.
17:33:32  761 762	 1492623212	 421086578	 165583.
17:33:32  762 763	 1492623212	 582872916	 161787.
17:33:32  763 764	 1492623212	 744326865	 161454.
17:33:32  764 765	 1492623212	 877353034	 133026.
17:33:33  765 766	 1492623213	 43095320	 165742.
17:33:33  766 767	 1492623213	 204878755	 161783.
17:33:33  767 768	 1492623213	 366785232	 161907.
17:33:33  768 769	 1492623213	 532557607	 165772.
17:33:33  769 770	 1492623213	 694206126	 161649.
17:33:33  770 771	 1492623213	 860030892	 165825.
17:33:33  771 772	 1492623213	 993150931	 133120.
17:33:34  772 773	 1492623214	 154791812	 161641.
17:33:34  773 774	 1492623214	 320339096	 165547.
17:33:34  774 775	 1492623214	 481837388	 161498.
17:33:34  775 776	 1492623214	 647625956	 165789.
17:33:34  776 777	 1492623214	 809208827	 161583.
17:33:34  777 778	 1492623214	 970954881	 161746.
17:33:35  778 779	 1492623215	 104046865	 133092.
17:33:35  779 780	 1492623215	 269865134	 165818.
17:33:35  780 781	 1492623215	 431468104	 161603.
17:33:35  781 782	 1492623215	 597191156	 165723.
17:33:35  782 783	 1492623215	 758661194	 161470.
17:33:35  783 784	 1492623215	 924210198	 165549.
17:33:36  784 785	 1492623216	 57254185	 133044.
17:33:36  785 786	 1492623216	 218826889	 161573.
17:33:36  786 787	 1492623216	 384365535	 165538.
17:33:36  787 788	 1492623216	 545985835	 161621.
17:33:36  788 789	 1492623216	 711732809	 165747.
17:33:36  789 790	 1492623216	 873111579	 161378.
17:33:37  790 791	 1492623217	 5810146	 132699.
17:33:37  791 792	 1492623217	 171612575	 165802.
17:33:37  792 793	 1492623217	 333261862	 161650.
17:33:37  793 794	 1492623217	 494928935	 161667.
17:33:37  794 795	 1492623217	 660472714	 165543.
17:33:37  795 796	 1492623217	 821950527	 161478.
17:33:37  796 797	 1492623217	 959124347	 137174.
17:33:38  797 798	 1492623218	 120607064	 161483.
17:33:38  798 799	 1492623218	 282054120	 161447.
17:33:38  799 800	 1492623218	 447546673	 165492.
17:33:38  800 801	 1492623218	 609018955	 161473.
17:33:38  801 802	 1492623218	 745974221	 136955.
17:33:38  802 803	 1492623218	 907541970	 161568.
17:33:39  803 804	 1492623219	 73358302	 165816.
17:33:39  804 805	 1492623219	 231303788	 157945.
17:33:39  805 806	 1492623219	 392912038	 161609.
17:33:39  806 807	 1492623219	 558573926	 165662.
17:33:39  807 808	 1492623219	 720254677	 161681.
17:33:39  808 809	 1492623219	 857459413	 137204.
17:33:40  809 810	 1492623220	 19118336	 161659.
17:33:40  810 811	 1492623220	 180896743	 161778.
17:33:40  811 812	 1492623220	 342602820	 161707.
17:33:40  812 813	 1492623220	 508330663	 165728.
17:33:40  813 814	 1492623220	 669825725	 161494.
17:33:40  814 815	 1492623220	 806883520	 137058.
17:33:40  815 816	 1492623220	 968572206	 161689.
17:33:41  816 817	 1492623221	 134289229	 165717.
17:33:41  817 818	 1492623221	 295913108	 161624.
17:33:41  818 819	 1492623221	 457748524	 161835.
17:33:41  819 820	 1492623221	 623262914	 165515.
17:33:41  820 821	 1492623221	 756210899	 132948.
17:33:41  821 822	 1492623221	 922117756	 165906.
17:33:42  822 823	 1492623222	 83723635	 161607.
17:33:42  823 824	 1492623222	 245287617	 161563.
17:33:42  824 825	 1492623222	 411006954	 165720.
17:33:42  825 826	 1492623222	 572759663	 161752.
17:33:42  826 827	 1492623222	 734447813	 161689.
17:33:42  827 828	 1492623222	 871446116	 136998.
17:33:43  828 829	 1492623223	 32969349	 161523.
17:33:43  829 830	 1492623223	 198671476	 165702.
17:33:43  830 831	 1492623223	 360330063	 161659.
17:33:43  831 832	 1492623223	 521970178	 161640.
17:33:43  832 833	 1492623223	 687660976	 165691.
17:33:43  833 834	 1492623223	 820733557	 133072.
17:33:43  834 835	 1492623223	 986325705	 165592.
17:33:44  835 836	 1492623224	 147919290	 161594.
17:33:44  836 837	 1492623224	 309591187	 161672.
17:33:44  837 838	 1492623224	 475431702	 165840.
17:33:44  838 839	 1492623224	 637079121	 161648.
17:33:44  839 840	 1492623224	 773918064	 136839.
17:33:44  840 841	 1492623224	 935721226	 161803.
17:33:45  841 842	 1492623225	 97473376	 161752.
17:33:45  842 843	 1492623225	 263192586	 165719.
17:33:45  843 844	 1492623225	 424832914	 161641.
17:33:45  844 845	 1492623225	 590675424	 165842.
17:33:45  845 846	 1492623225	 752468990	 161794.
17:33:45  846 847	 1492623225	 889391124	 136922.
17:33:46  847 848	 1492623226	 51032530	 161641.
17:33:46  848 849	 1492623226	 216664159	 165632.
17:33:46  849 850	 1492623226	 378100209	 161436.
17:33:46  850 851	 1492623226	 543566750	 165466.
17:33:46  851 852	 1492623226	 705318691	 161752.
17:33:46  852 853	 1492623226	 838331925	 133014.
17:33:46  853 854	 1492623227	 3945822	 165614.
17:33:47  854 855	 1492623227	 165693658	 161747.
17:33:47  855 856	 1492623227	 327736220	 162043.
17:33:47  856 857	 1492623227	 485739609	 158003.
17:33:47  857 858	 1492623227	 651250393	 165511.
17:33:47  858 859	 1492623227	 812876158	 161626.
17:33:47  859 860	 1492623227	 974560520	 161684.
17:33:48  860 861	 1492623228	 111700902	 137141.
17:33:48  861 862	 1492623228	 273362788	 161661.
17:33:48  862 863	 1492623228	 434927714	 161565.
17:33:48  863 864	 1492623228	 600644235	 165717.
17:33:48  864 865	 1492623228	 758561449	 157917.
17:33:48  865 866	 1492623228	 924239822	 165679.
17:33:49  866 867	 1492623229	 57033548	 132793.
17:33:49  867 868	 1492623229	 218601016	 161568.
17:33:49  868 869	 1492623229	 384338064	 165737.
17:33:49  869 870	 1492623229	 545894152	 161556.
17:33:49  870 871	 1492623229	 707709603	 161815.
17:33:49  871 872	 1492623229	 873954452	 166245.
17:33:50  872 873	 1492623230	 35599302	 161645.
17:33:50  873 874	 1492623230	 197416611	 161817.
17:33:50  874 875	 1492623230	 334709303	 137293.
17:33:50  875 876	 1492623230	 496460379	 161751.
17:33:50  876 877	 1492623230	 662178680	 165718.
17:33:50  877 878	 1492623230	 823871644	 161693.
17:33:50  878 879	 1492623230	 985586774	 161715.
17:33:51  879 880	 1492623231	 151376046	 165790.
17:33:51  880 881	 1492623231	 313404968	 162029.
17:33:51  881 882	 1492623231	 479296014	 165891.
17:33:51  882 883	 1492623231	 612361050	 133065.
17:33:51  883 884	 1492623231	 774869548	 162508.
17:33:51  884 885	 1492623231	 932624169	 157755.
17:33:52  885 886	 1492623232	 94272485	 161648.
17:33:52  886 887	 1492623232	 259903999	 165632.
17:33:52  887 888	 1492623232	 421474703	 161570.
17:33:52  888 889	 1492623232	 587212366	 165738.
17:33:52  889 890	 1492623232	 748949828	 161738.
17:33:52  890 891	 1492623232	 881808442	 132858.
17:33:53  891 892	 1492623233	 47387219	 165579.
17:33:53  892 893	 1492623233	 208926700	 161539.
17:33:53  893 894	 1492623233	 375009249	 166083.
17:33:53  894 895	 1492623233	 536645142	 161636.
17:33:53  895 896	 1492623233	 698155070	 161510.
17:33:53  896 897	 1492623233	 834974041	 136819.
17:33:53  897 898	 1492623233	 996546898	 161573.
17:33:54  898 899	 1492623234	 158104939	 161558.
17:33:54  899 900	 1492623234	 323371422	 165266.
17:33:54  900 901	 1492623234	 484805331	 161434.
17:33:54  901 902	 1492623234	 650545834	 165741.
17:33:54  902 903	 1492623234	 783645116	 133099.
17:33:54  903 904	 1492623234	 949360256	 165715.
17:33:55  904 905	 1492623235	 111038852	 161679.
17:33:55  905 906	 1492623235	 276754739	 165715.
17:33:55  906 907	 1492623235	 438462523	 161708.
17:33:55  907 908	 1492623235	 600222793	 161761.
17:33:55  908 909	 1492623235	 765982092	 165759.
17:33:55  909 910	 1492623235	 899038146	 133056.
17:33:56  910 911	 1492623236	 64689999	 165652.
17:33:56  911 912	 1492623236	 226080703	 161390.
17:33:56  912 913	 1492623236	 391668576	 165588.
17:33:56  913 914	 1492623236	 553337220	 161669.
17:33:56  914 915	 1492623236	 715530202	 162193.
17:33:56  915 916	 1492623236	 848469101	 132939.
17:33:57  916 917	 1492623237	 10115872	 161647.
17:33:57  917 918	 1492623237	 172214479	 162098.
17:33:57  918 919	 1492623237	 338023673	 165809.
17:33:57  919 920	 1492623237	 499598348	 161575.
17:33:57  920 921	 1492623237	 661334069	 161736.
17:33:57  921 922	 1492623237	 827224109	 165890.
17:33:57  922 923	 1492623237	 988865526	 161641.
17:33:58  923 924	 1492623238	 121811477	 132946.
17:33:58  924 925	 1492623238	 287296039	 165485.
17:33:58  925 926	 1492623238	 448658726	 161362.
17:33:58  926 927	 1492623238	 614265524	 165607.
17:33:58  927 928	 1492623238	 775899158	 161634.
17:33:58  928 929	 1492623238	 937725419	 161826.
17:33:59  929 930	 1492623239	 74733741	 137008.
17:33:59  930 931	 1492623239	 236519105	 161786.
17:33:59  931 932	 1492623239	 398099052	 161580.
17:33:59  932 933	 1492623239	 563671716	 165572.
17:33:59  933 934	 1492623239	 725751142	 162080.
17:33:59  934 935	 1492623239	 887562841	 161812.
17:34:00  935 936	 1492623240	 53359075	 165796.
17:34:00  936 937	 1492623240	 215304398	 161945.
17:34:00  937 938	 1492623240	 348359310	 133055.
17:34:00  938 939	 1492623240	 514295886	 165937.
17:34:00  939 940	 1492623240	 676200054	 161904.
17:34:00  940 941	 1492623240	 842213490	 166013.
17:34:01  941 942	 1492623241	 3833588	 161620.
17:34:01  942 943	 1492623241	 169666504	 165833.
17:34:01  943 944	 1492623241	 331418087	 161752.
17:34:01  944 945	 1492623241	 493161459	 161743.
17:34:01  945 946	 1492623241	 659086499	 165926.
17:34:01  946 947	 1492623241	 792119220	 133032.
17:34:01  947 948	 1492623241	 953971565	 161852.
17:34:02  948 949	 1492623242	 119604049	 165633.
17:34:02  949 950	 1492623242	 281477672	 161873.
17:34:02  950 951	 1492623242	 447310429	 165833.
17:34:02  951 952	 1492623242	 609109257	 161799.
17:34:02  952 953	 1492623242	 771260508	 162151.
17:34:02  953 954	 1492623242	 932872914	 161613.
17:34:03  954 955	 1492623243	 91417663	 158544.
17:34:03  955 956	 1492623243	 228572532	 137155.
17:34:03  956 957	 1492623243	 390311730	 161739.
17:34:03  957 958	 1492623243	 552142150	 161831.
17:34:03  958 959	 1492623243	 714338289	 162196.
17:34:03  959 960	 1492623243	 880321834	 165983.
17:34:04  960 961	 1492623244	 42088148	 161767.
17:34:04  961 962	 1492623244	 203929624	 161841.
17:34:04  962 963	 1492623244	 369652612	 165723.
17:34:04  963 964	 1492623244	 502953959	 133302.
17:34:04  964 965	 1492623244	 668812214	 165858.
17:34:04  965 966	 1492623244	 830556585	 161744.
17:34:04  966 967	 1492623244	 996313517	 165757.
17:34:05  967 968	 1492623245	 158079622	 161766.
17:34:05  968 969	 1492623245	 319946307	 161867.
17:34:05  969 970	 1492623245	 485721864	 165776.
17:34:05  970 971	 1492623245	 619009722	 133287.
17:34:05  971 972	 1492623245	 785003180	 165994.
17:34:05  972 973	 1492623245	 946815077	 161812.
17:34:06  973 974	 1492623246	 112598187	 165783.
17:34:06  974 975	 1492623246	 274590013	 161992.
17:34:06  975 976	 1492623246	 440542250	 165952.
17:34:06  976 977	 1492623246	 602315002	 161773.
17:34:06  977 978	 1492623246	 735383410	 133068.
17:34:06  978 979	 1492623246	 901410252	 166027.
17:34:07  979 980	 1492623247	 63257039	 161847.
17:34:07  980 981	 1492623247	 229169543	 165912.
17:34:07  981 982	 1492623247	 390828379	 161659.
17:34:07  982 983	 1492623247	 552685234	 161857.
17:34:07  983 984	 1492623247	 718531354	 165846.
17:34:07  984 985	 1492623247	 880278698	 161748.
17:34:08  985 986	 1492623248	 17259337	 136980.
17:34:08  986 987	 1492623248	 179049689	 161790.
17:34:08  987 988	 1492623248	 345097722	 166048.
17:34:08  988 989	 1492623248	 506990388	 161893.
17:34:08  989 990	 1492623248	 668698067	 161708.
17:34:08  990 991	 1492623248	 830357707	 161659.
17:34:08  991 992	 1492623248	 996344636	 165987.
17:34:09  992 993	 1492623249	 158072142	 161728.
17:34:09  993 994	 1492623249	 295025494	 136953.
17:34:09  994 995	 1492623249	 456853595	 161828.
17:34:09  995 996	 1492623249	 622825885	 165973.
17:34:09  996 997	 1492623249	 784567075	 161741.
17:34:09  997 998	 1492623249	 946319570	 161752.
17:34:10  998 999	 1492623250	 112143753	 165824.
17:34:10  999 1000	 1492623250	 273980728	 161837.
17:34:10 1000 1001	 1492623250	 439867145	 165887.
17:34:10 1001 1002	 1492623250	 572960200	 133093.
17:34:10 1002 1003	 1492623250	 734837711	 161878.
17:34:10 1003 1004	 1492623250	 900684270	 165846.
17:34:11 1004 1005	 1492623251	 62382705	 161698.
17:34:11 1005 1006	 1492623251	 228361504	 165979.
17:34:11 1006 1007	 1492623251	 390275061	 161914.
17:34:11 1007 1008	 1492623251	 556187732	 165912.
17:34:11 1008 1009	 1492623251	 717865100	 161678.
17:34:11 1009 1010	 1492623251	 850871069	 133006.
17:34:12 1010 1011	 1492623252	 16512132	 165641.
17:34:12 1011 1012	 1492623252	 178412777	 161901.
17:34:12 1012 1013	 1492623252	 340348241	 161935.
17:34:12 1013 1014	 1492623252	 506188509	 165840.
17:34:12 1014 1015	 1492623252	 667847895	 161660.
17:34:12 1015 1016	 1492623252	 833714189	 165866.
17:34:12 1016 1017	 1492623252	 995412738	 161699.
17:34:13 1017 1018	 1492623253	 132618056	 137205.
17:34:13 1018 1019	 1492623253	 319862118	 187244.
17:34:13 1019 1020	 1492623253	 453198550	 133336.
17:34:13 1020 1021	 1492623253	 618987642	 165789.
17:34:13 1021 1022	 1492623253	 780713196	 161726.
17:34:13 1022 1023	 1492623253	 942390831	 161678.
17:34:14 1023 1024	 1492623254	 108317558	 165926.
17:34:14 1024 1025	 1492623254	 269783895	 161467.
17:34:14 1025 1026	 1492623254	 435653824	 165870.
17:34:14 1026 1027	 1492623254	 568774153	 133120.
17:34:14 1027 1028	 1492623254	 730747008	 161973.
17:34:14 1028 1029	 1492623254	 896641073	 165894.
17:34:15 1029 1030	 1492623255	 58408045	 161767.
17:34:15 1030 1031	 1492623255	 220379079	 161971.
17:34:15 1031 1032	 1492623255	 386541502	 166162.
17:34:15 1032 1033	 1492623255	 548459141	 161918.
17:34:15 1033 1034	 1492623255	 710303704	 161844.
17:34:15 1034 1035	 1492623255	 872033129	 161730.
17:34:16 1035 1036	 1492623256	 9010119	 136977.
17:34:16 1036 1037	 1492623256	 170691085	 161681.
17:34:16 1037 1038	 1492623256	 336609644	 165918.
17:34:16 1038 1039	 1492623256	 498399985	 161791.
17:34:16 1039 1040	 1492623256	 664080035	 165680.
17:34:16 1040 1041	 1492623256	 825790286	 161710.
17:34:16 1041 1042	 1492623256	 987536207	 161746.
17:34:17 1042 1043	 1492623257	 153448700	 165912.
17:34:17 1043 1044	 1492623257	 286453573	 133005.
17:34:17 1044 1045	 1492623257	 452439181	 165986.
17:34:17 1045 1046	 1492623257	 614250228	 161811.
17:34:17 1046 1047	 1492623257	 776053706	 161803.
17:34:17 1047 1048	 1492623257	 941962562	 165909.
17:34:18 1048 1049	 1492623258	 103757773	 161795.
17:34:18 1049 1050	 1492623258	 269543098	 165786.
17:34:18 1050 1051	 1492623258	 431227460	 161684.
17:34:18 1051 1052	 1492623258	 568272824	 137046.
17:34:18 1052 1053	 1492623258	 729996404	 161723.
17:34:18 1053 1054	 1492623258	 891780439	 161784.
17:34:19 1054 1055	 1492623259	 57469387	 165689.
17:34:19 1055 1056	 1492623259	 219132779	 161664.
17:34:19 1056 1057	 1492623259	 384594629	 165461.
17:34:19 1057 1058	 1492623259	 546347248	 161753.
17:34:19 1058 1059	 1492623259	 708087473	 161740.
17:34:19 1059 1060	 1492623259	 845149623	 137062.
17:34:20 1060 1061	 1492623260	 6876804	 161728.
17:34:20 1061 1062	 1492623260	 172585912	 165709.
17:34:20 1062 1063	 1492623260	 334325149	 161739.
17:34:20 1063 1064	 1492623260	 500146923	 165822.
17:34:20 1064 1065	 1492623260	 661843732	 161696.
17:34:20 1065 1066	 1492623260	 827748939	 165906.
17:34:20 1066 1067	 1492623260	 960806455	 133057.
17:34:21 1067 1068	 1492623261	 122796025	 161990.
17:34:21 1068 1069	 1492623261	 288381174	 165585.
17:34:21 1069 1070	 1492623261	 450038115	 161657.
17:34:21 1070 1071	 1492623261	 615870079	 165832.
17:34:21 1071 1072	 1492623261	 777299669	 161429.
17:34:21 1072 1073	 1492623261	 939220326	 161921.
17:34:22 1073 1074	 1492623262	 104997945	 165778.
17:34:22 1074 1075	 1492623262	 238295047	 133297.
17:34:22 1075 1076	 1492623262	 400051983	 161757.
17:34:22 1076 1077	 1492623262	 565870920	 165819.
17:34:22 1077 1078	 1492623262	 727600070	 161729.
17:34:22 1078 1079	 1492623262	 893314086	 165714.
17:34:23 1079 1080	 1492623263	 55039176	 161725.
17:34:23 1080 1081	 1492623263	 221047918	 166009.
17:34:23 1081 1082	 1492623263	 382819599	 161771.
17:34:23 1082 1083	 1492623263	 515846259	 133027.
17:34:23 1083 1084	 1492623263	 681478586	 165632.
17:34:23 1084 1085	 1492623263	 843239633	 161761.
17:34:24 1085 1086	 1492623264	 4812818	 161574.
17:34:24 1086 1087	 1492623264	 170491624	 165678.
17:34:24 1087 1088	 1492623264	 332227669	 161736.
17:34:24 1088 1089	 1492623264	 498044162	 165817.
17:34:24 1089 1090	 1492623264	 659873967	 161830.
17:34:24 1090 1091	 1492623264	 792932938	 133059.
17:34:24 1091 1092	 1492623264	 958643906	 165711.
17:34:25 1092 1093	 1492623265	 120362337	 161718.
17:34:25 1093 1094	 1492623265	 282064234	 161702.
17:34:25 1094 1095	 1492623265	 447923762	 165859.
17:34:25 1095 1096	 1492623265	 609499786	 161577.
17:34:25 1096 1097	 1492623265	 746649239	 137149.
17:34:25 1097 1098	 1492623265	 908384905	 161736.
17:34:26 1098 1099	 1492623266	 74045491	 165660.
17:34:26 1099 1100	 1492623266	 235900508	 161855.
17:34:26 1100 1101	 1492623266	 401702341	 165802.
17:34:26 1101 1102	 1492623266	 563394814	 161693.
17:34:26 1102 1103	 1492623266	 725219614	 161824.
17:34:26 1103 1104	 1492623266	 862242792	 137024.
17:34:27 1104 1105	 1492623267	 23947963	 161705.
17:34:27 1105 1106	 1492623267	 189734676	 165786.
17:34:27 1106 1107	 1492623267	 351234721	 161500.
17:34:27 1107 1108	 1492623267	 513036322	 161802.
17:34:27 1108 1109	 1492623267	 678634515	 165598.
17:34:27 1109 1110	 1492623267	 840260825	 161627.
17:34:27 1110 1111	 1492623267	 977450046	 137189.
17:34:28 1111 1112	 1492623268	 138872588	 161422.
17:34:28 1112 1113	 1492623268	 304557406	 165685.
17:34:28 1113 1114	 1492623268	 466350711	 161793.
17:34:28 1114 1115	 1492623268	 628038325	 161688.
17:34:28 1115 1116	 1492623268	 793865846	 165828.
17:34:28 1116 1117	 1492623268	 955526689	 161660.
17:34:29 1117 1118	 1492623269	 92544799	 137019.
17:34:29 1118 1119	 1492623269	 254409926	 161865.
17:34:29 1119 1120	 1492623269	 416486039	 162076.
17:34:29 1120 1121	 1492623269	 578165435	 161679.
17:34:29 1121 1122	 1492623269	 743930163	 165765.
17:34:29 1122 1123	 1492623269	 905578958	 161649.
17:34:30 1123 1124	 1492623270	 71466641	 165887.
17:34:30 1124 1125	 1492623270	 233315416	 161849.
17:34:30 1125 1126	 1492623270	 370383935	 137069.
17:34:30 1126 1127	 1492623270	 532059821	 161676.
17:34:30 1127 1128	 1492623270	 693790523	 161730.
17:34:30 1128 1129	 1492623270	 859704970	 165915.
17:34:31 1129 1130	 1492623271	 21499958	 161795.
17:34:31 1130 1131	 1492623271	 187251537	 165751.
17:34:31 1131 1132	 1492623271	 348887479	 161636.
17:34:31 1132 1133	 1492623271	 481907520	 133020.
17:34:31 1133 1134	 1492623271	 647460849	 165554.
17:34:31 1134 1135	 1492623271	 809147869	 161687.
17:34:31 1135 1136	 1492623271	 974948922	 165801.
17:34:32 1136 1137	 1492623272	 136796762	 161847.
17:34:32 1137 1138	 1492623272	 298479978	 161684.
17:34:32 1138 1139	 1492623272	 464263487	 165783.
17:34:32 1139 1140	 1492623272	 597353665	 133090.
17:34:32 1140 1141	 1492623272	 758875181	 161522.
17:34:32 1141 1142	 1492623272	 924612866	 165738.
17:34:33 1142 1143	 1492623273	 86322743	 161709.
17:34:33 1143 1144	 1492623273	 251888277	 165566.
17:34:33 1144 1145	 1492623273	 413566155	 161678.
17:34:33 1145 1146	 1492623273	 579223921	 165658.
17:34:33 1146 1147	 1492623273	 712267437	 133043.
17:34:33 1147 1148	 1492623273	 873771693	 161504.
17:34:34 1148 1149	 1492623274	 39588595	 165817.
17:34:34 1149 1150	 1492623274	 201232230	 161644.
17:34:34 1150 1151	 1492623274	 366821252	 165589.
17:34:34 1151 1152	 1492623274	 528422033	 161601.
17:34:34 1152 1153	 1492623274	 661480126	 133058.
17:34:34 1153 1154	 1492623274	 823132927	 161653.
17:34:34 1154 1155	 1492623274	 988841940	 165709.
17:34:35 1155 1156	 1492623275	 150503123	 161661.
17:34:35 1156 1157	 1492623275	 316350063	 165847.
17:34:35 1157 1158	 1492623275	 477991775	 161641.
17:34:35 1158 1159	 1492623275	 610934103	 132943.
17:34:35 1159 1160	 1492623275	 776765565	 165831.
17:34:35 1160 1161	 1492623275	 939137491	 162372.
17:34:36 1161 1162	 1492623276	 96713681	 157576.
17:34:36 1162 1163	 1492623276	 258333912	 161621.
17:34:36 1163 1164	 1492623276	 424073111	 165739.
17:34:36 1164 1165	 1492623276	 585243000	 161170.
17:34:36 1165 1166	 1492623276	 746530916	 161288.
17:34:36 1166 1167	 1492623276	 883454444	 136923.
17:34:37 1167 1168	 1492623277	 44979007	 161525.
17:34:37 1168 1169	 1492623277	 210421816	 165443.
17:34:37 1169 1170	 1492623277	 371842719	 161420.
17:34:37 1170 1171	 1492623277	 537805760	 165963.
17:34:37 1171 1172	 1492623277	 699420094	 161615.
17:34:37 1172 1173	 1492623277	 832412875	 132993.
17:34:37 1173 1174	 1492623277	 998048716	 165635.
17:34:38 1174 1175	 1492623278	 159558617	 161510.
17:34:38 1175 1176	 1492623278	 325226496	 165668.
17:34:38 1176 1177	 1492623278	 486805754	 161579.
17:34:38 1177 1178	 1492623278	 619710470	 132905.
17:34:38 1178 1179	 1492623278	 785312158	 165602.
17:34:38 1179 1180	 1492623278	 946846195	 161534.
17:34:39 1180 1181	 1492623279	 112466486	 165620.
17:34:39 1181 1182	 1492623279	 274222114	 161756.
17:34:39 1182 1183	 1492623279	 439929381	 165707.
17:34:39 1183 1184	 1492623279	 601515547	 161586.
17:34:39 1184 1185	 1492623279	 734418213	 132903.
17:34:39 1185 1186	 1492623279	 900120916	 165703.
17:34:40 1186 1187	 1492623280	 61796183	 161675.
17:34:40 1187 1188	 1492623280	 227550968	 165755.
17:34:40 1188 1189	 1492623280	 389174148	 161623.
17:34:40 1189 1190	 1492623280	 550929214	 161755.
17:34:40 1190 1191	 1492623280	 688002294	 137073.
17:34:40 1191 1192	 1492623280	 849415684	 161413.
17:34:41 1192 1193	 1492623281	 15174398	 165759.
17:34:41 1193 1194	 1492623281	 176989992	 161816.
17:34:41 1194 1195	 1492623281	 338494170	 161504.
17:34:41 1195 1196	 1492623281	 504156408	 165662.
17:34:41 1196 1197	 1492623281	 636994701	 132838.
17:34:41 1197 1198	 1492623281	 802828167	 165834.
17:34:41 1198 1199	 1492623281	 964309551	 161481.
17:34:42 1199 1200	 1492623282	 130053570	 165744.
17:34:42 1200 1201	 1492623282	 291967098	 161914.
17:34:42 1201 1202	 1492623282	 453567832	 161601.
17:34:42 1202 1203	 1492623282	 611818161	 158250.
17:34:42 1203 1204	 1492623282	 777500568	 165682.
17:34:42 1204 1205	 1492623282	 910340631	 132840.
17:34:43 1205 1206	 1492623283	 76205473	 165865.
17:34:43 1206 1207	 1492623283	 237911230	 161706.
17:34:43 1207 1208	 1492623283	 399540584	 161630.
17:34:43 1208 1209	 1492623283	 565096296	 165555.
17:34:43 1209 1210	 1492623283	 730719653	 165623.
17:34:43 1210 1211	 1492623283	 863775110	 133056.
17:34:44 1211 1212	 1492623284	 29248281	 165473.
17:34:44 1212 1213	 1492623284	 190985099	 161737.
17:34:44 1213 1214	 1492623284	 352650594	 161665.
17:34:44 1214 1215	 1492623284	 518585077	 165935.
17:34:44 1215 1216	 1492623284	 680057646	 161472.
17:34:44 1216 1217	 1492623284	 817001602	 136944.
17:34:44 1217 1218	 1492623284	 978472214	 161471.
17:34:45 1218 1219	 1492623285	 139944218	 161472.
17:34:45 1219 1220	 1492623285	 305505998	 165562.
17:34:45 1220 1221	 1492623285	 467044279	 161538.
17:34:45 1221 1222	 1492623285	 628384716	 161341.
17:34:45 1222 1223	 1492623285	 765394037	 137009.
17:34:45 1223 1224	 1492623285	 926992141	 161598.
17:34:46 1224 1225	 1492623286	 92754881	 165763.
17:34:46 1225 1226	 1492623286	 254501288	 161746.
17:34:46 1226 1227	 1492623286	 419938262	 165437.
17:34:46 1227 1228	 1492623286	 552841772	 132904.
17:34:46 1228 1229	 1492623286	 714252830	 161411.
17:34:46 1229 1230	 1492623286	 876509719	 162256.
17:34:47 1230 1231	 1492623287	 38448166	 161939.
17:34:47 1231 1232	 1492623287	 199991498	 161543.
17:34:47 1232 1233	 1492623287	 361464407	 161473.
17:34:47 1233 1234	 1492623287	 527147629	 165683.
17:34:47 1234 1235	 1492623287	 659872367	 132725.
17:34:47 1235 1236	 1492623287	 821368799	 161497.
17:34:47 1236 1237	 1492623287	 986967848	 165599.
17:34:48 1237 1238	 1492623288	 148486341	 161518.
17:34:48 1238 1239	 1492623288	 314181002	 165695.
17:34:48 1239 1240	 1492623288	 475767912	 161587.
17:34:48 1240 1241	 1492623288	 608520524	 132752.
17:34:48 1241 1242	 1492623288	 774195983	 165676.
17:34:48 1242 1243	 1492623288	 936040065	 161844.
17:34:49 1243 1244	 1492623289	 101748635	 165708.
17:34:49 1244 1245	 1492623289	 263151717	 161403.
17:34:49 1245 1246	 1492623289	 428784144	 165633.
17:34:49 1246 1247	 1492623289	 561668900	 132885.
17:34:49 1247 1248	 1492623289	 723138715	 161469.
17:34:49 1248 1249	 1492623289	 888561190	 165423.
17:34:50 1249 1250	 1492623290	 50087071	 161526.
17:34:50 1250 1251	 1492623290	 215824646	 165737.
17:34:50 1251 1252	 1492623290	 348613582	 132789.
17:34:50 1252 1253	 1492623290	 510259298	 161646.
17:34:50 1253 1254	 1492623290	 675897267	 165638.
17:34:50 1254 1255	 1492623290	 837400315	 161503.
17:34:51 1255 1256	 1492623291	 2858029	 165458.
17:34:51 1256 1257	 1492623291	 164304554	 161446.
17:34:51 1257 1258	 1492623291	 297174146	 132870.
17:34:51 1258 1259	 1492623291	 462885882	 165712.
17:34:51 1259 1260	 1492623291	 624388675	 161502.
17:34:51 1260 1261	 1492623291	 787041321	 162653.
17:34:51 1261 1262	 1492623291	 944417495	 157376.
17:34:52 1262 1263	 1492623292	 105849603	 161432.
17:34:52 1263 1264	 1492623292	 267374251	 161525.
17:34:52 1264 1265	 1492623292	 403951395	 136577.
17:34:52 1265 1266	 1492623292	 565524357	 161573.
17:34:52 1266 1267	 1492623292	 731045713	 165521.
17:34:52 1267 1268	 1492623292	 892702933	 161658.
17:34:53 1268 1269	 1492623293	 58464901	 165762.
17:34:53 1269 1270	 1492623293	 191328829	 132864.
17:34:53 1270 1271	 1492623293	 352712318	 161383.
17:34:53 1271 1272	 1492623293	 518331456	 165619.
17:34:53 1272 1273	 1492623293	 679721511	 161390.
17:34:53 1273 1274	 1492623293	 845412341	 165691.
17:34:54 1274 1275	 1492623294	 6846608	 161434.
17:34:54 1275 1276	 1492623294	 143959858	 137114.
17:34:54 1276 1277	 1492623294	 305231046	 161271.
17:34:54 1277 1278	 1492623294	 466671867	 161441.
17:34:54 1278 1279	 1492623294	 632027040	 165355.
17:34:54 1279 1280	 1492623294	 764819349	 132792.
17:34:54 1280 1281	 1492623294	 930427850	 165609.
17:34:55 1281 1282	 1492623295	 91953963	 161526.
17:34:55 1282 1283	 1492623295	 253737104	 161783.
17:34:55 1283 1284	 1492623295	 415242625	 161505.
17:34:55 1284 1285	 1492623295	 580720923	 165479.
17:34:55 1285 1286	 1492623295	 742256124	 161535.
17:34:55 1286 1287	 1492623295	 879252871	 136997.
17:34:56 1287 1288	 1492623296	 40587545	 161334.
17:34:56 1288 1289	 1492623296	 206151660	 165565.
17:34:56 1289 1290	 1492623296	 367787802	 161636.
17:34:56 1290 1291	 1492623296	 529918046	 162130.
17:34:56 1291 1292	 1492623296	 695457067	 165539.
17:34:56 1292 1293	 1492623296	 828467767	 133010.
17:34:56 1293 1294	 1492623296	 990001131	 161534.
17:34:57 1294 1295	 1492623297	 155686993	 165686.
17:34:57 1295 1296	 1492623297	 317432251	 161745.
17:34:57 1296 1297	 1492623297	 482932249	 165500.
17:34:57 1297 1298	 1492623297	 644501147	 161569.
17:34:57 1298 1299	 1492623297	 781578574	 137077.
17:34:57 1299 1300	 1492623297	 943252566	 161674.
17:34:58 1300 1301	 1492623298	 104941638	 161689.
17:34:58 1301 1302	 1492623298	 270703388	 165762.
17:34:58 1302 1303	 1492623298	 432420183	 161717.
17:34:58 1303 1304	 1492623298	 598082431	 165662.
17:34:58 1304 1305	 1492623298	 731085939	 133004.
17:34:58 1305 1306	 1492623298	 892675363	 161589.
17:34:59 1306 1307	 1492623299	 58271055	 165596.
17:34:59 1307 1308	 1492623299	 219871579	 161600.
17:34:59 1308 1309	 1492623299	 385530159	 165659.
17:34:59 1309 1310	 1492623299	 547115366	 161585.
17:34:59 1310 1311	 1492623299	 684101556	 136986.
17:34:59 1311 1312	 1492623299	 845429265	 161328.
17:35:00 1312 1313	 1492623300	 11050091	 165621.
17:35:00 1313 1314	 1492623300	 172814902	 161765.
17:35:00 1314 1315	 1492623300	 334487961	 161673.
17:35:00 1315 1316	 1492623300	 500140709	 165652.
17:35:00 1316 1317	 1492623300	 632978103	 132838.
17:35:00 1317 1318	 1492623300	 798471876	 165494.
17:35:00 1318 1319	 1492623300	 960148243	 161676.
17:35:01 1319 1320	 1492623301	 121913759	 161766.
17:35:01 1320 1321	 1492623301	 287536202	 165622.
17:35:01 1321 1322	 1492623301	 420792079	 133256.
17:35:01 1322 1323	 1492623301	 586960830	 166169.
17:35:01 1323 1324	 1492623301	 748711144	 161750.
17:35:01 1324 1325	 1492623301	 914590675	 165880.
17:35:02 1325 1326	 1492623302	 76507070	 161916.
17:35:02 1326 1327	 1492623302	 242428142	 165921.
17:35:02 1327 1328	 1492623302	 404278098	 161850.
17:35:02 1328 1329	 1492623302	 569966451	 165688.
17:35:02 1329 1330	 1492623302	 703033726	 133067.
17:35:02 1330 1331	 1492623302	 868810367	 165777.
17:35:03 1331 1332	 1492623303	 32236799	 163427.
17:35:03 1332 1333	 1492623303	 185939955	 153703.
17:35:03 1333 1334	 1492623303	 347554266	 161614.
17:35:03 1334 1335	 1492623303	 513458179	 165904.
17:35:03 1335 1336	 1492623303	 675181951	 161724.
17:35:03 1336 1337	 1492623303	 841033329	 165851.
17:35:04 1337 1338	 1492623304	 2947421	 161914.
17:35:04 1338 1339	 1492623304	 136137077	 133190.
17:35:04 1339 1340	 1492623304	 302248866	 166112.
17:35:04 1340 1341	 1492623304	 464124685	 161875.
17:35:04 1341 1342	 1492623304	 630181577	 166057.
17:35:04 1342 1343	 1492623304	 791906801	 161726.
17:35:04 1343 1344	 1492623304	 957760735	 165853.
17:35:05 1344 1345	 1492623305	 119468647	 161708.
17:35:05 1345 1346	 1492623305	 285303079	 165835.
17:35:05 1346 1347	 1492623305	 418462558	 133159.
17:35:05 1347 1348	 1492623305	 584190900	 165729.
17:35:05 1348 1349	 1492623305	 745832052	 161641.
17:35:05 1349 1350	 1492623305	 911916996	 166085.
17:35:06 1350 1351	 1492623306	 73937822	 162021.
17:35:06 1351 1352	 1492623306	 239690937	 165753.
17:35:06 1352 1353	 1492623306	 372842588	 133151.
17:35:06 1353 1354	 1492623306	 534592562	 161750.
17:35:06 1354 1355	 1492623306	 700478071	 165886.
17:35:06 1355 1356	 1492623306	 862208133	 161730.
17:35:07 1356 1357	 1492623307	 28141500	 165933.
17:35:07 1357 1358	 1492623307	 189909410	 161768.
17:35:07 1358 1359	 1492623307	 355785223	 165876.
17:35:07 1359 1360	 1492623307	 488878025	 133093.
17:35:07 1360 1361	 1492623307	 654811054	 165933.
17:35:07 1361 1362	 1492623307	 816767254	 161956.
17:35:07 1362 1363	 1492623307	 979115877	 162349.
17:35:08 1363 1364	 1492623308	 140827710	 161711.
17:35:08 1364 1365	 1492623308	 302516922	 161690.
17:35:08 1365 1366	 1492623308	 468359234	 165842.
17:35:08 1366 1367	 1492623308	 630741465	 162382.
17:35:08 1367 1368	 1492623308	 792558811	 161818.
17:35:08 1368 1369	 1492623308	 954352931	 161794.
17:35:09 1369 1370	 1492623309	 91480414	 137127.
17:35:09 1370 1371	 1492623309	 253254667	 161774.
17:35:09 1371 1372	 1492623309	 419266753	 166012.
17:35:09 1372 1373	 1492623309	 581159995	 161894.
17:35:09 1373 1374	 1492623309	 747027086	 165867.
17:35:09 1374 1375	 1492623309	 908948559	 161921.
17:35:10 1375 1376	 1492623310	 74894522	 165946.
17:35:10 1376 1377	 1492623310	 208096598	 133206.
17:35:10 1377 1378	 1492623310	 373800562	 165701.
17:35:10 1378 1379	 1492623310	 535472603	 161671.
17:35:10 1379 1380	 1492623310	 701280145	 165808.
17:35:10 1380 1381	 1492623310	 863068687	 161788.
17:35:11 1381 1382	 1492623311	 28999871	 165932.
17:35:11 1382 1383	 1492623311	 190922122	 161922.
17:35:11 1383 1384	 1492623311	 324176176	 133254.
17:35:11 1384 1385	 1492623311	 490179594	 166003.
17:35:11 1385 1386	 1492623311	 656306904	 166128.
17:35:11 1386 1387	 1492623311	 818105076	 161798.
17:35:11 1387 1388	 1492623311	 980022757	 161917.
17:35:12 1388 1389	 1492623312	 146004078	 165982.
17:35:12 1389 1390	 1492623312	 307799963	 161796.
17:35:12 1390 1391	 1492623312	 473840586	 166040.
17:35:12 1391 1392	 1492623312	 607125189	 133285.
17:35:12 1392 1393	 1492623312	 772996207	 165871.
17:35:12 1393 1394	 1492623312	 934782181	 161786.
17:35:13 1394 1395	 1492623313	 96522336	 161740.
17:35:13 1395 1396	 1492623313	 262361616	 165839.
17:35:13 1396 1397	 1492623313	 423979797	 161619.
17:35:13 1397 1398	 1492623313	 589903483	 165923.
17:35:13 1398 1399	 1492623313	 722760167	 132857.
17:35:13 1399 1400	 1492623313	 884553919	 161794.
17:35:14 1400 1401	 1492623314	 50395074	 165841.
17:35:14 1401 1402	 1492623314	 212152120	 161757.
17:35:14 1402 1403	 1492623314	 377931732	 165779.
17:35:14 1403 1404	 1492623314	 539704771	 161773.
17:35:14 1404 1405	 1492623314	 701434570	 161730.
17:35:14 1405 1406	 1492623314	 867201998	 165768.
17:35:14 1406 1407	 1492623315	 144121	 132942.
17:35:15 1407 1408	 1492623315	 165896191	 165752.
17:35:15 1408 1409	 1492623315	 327543653	 161648.
17:35:15 1409 1410	 1492623315	 489250422	 161706.
17:35:15 1410 1411	 1492623315	 650969652	 161719.
17:35:15 1411 1412	 1492623315	 816595486	 165626.
17:35:15 1412 1413	 1492623315	 949515531	 132920.
17:35:16 1413 1414	 1492623316	 111028519	 161513.
17:35:16 1414 1415	 1492623316	 276780641	 165752.
17:35:16 1415 1416	 1492623316	 438589783	 161810.
17:35:16 1416 1417	 1492623316	 604262814	 165673.
17:35:16 1417 1418	 1492623316	 765788548	 161525.
17:35:16 1418 1419	 1492623316	 927367764	 161579.
17:35:17 1419 1420	 1492623317	 64321832	 136955.
17:35:17 1420 1421	 1492623317	 225882311	 161560.
17:35:17 1421 1422	 1492623317	 387382162	 161500.
17:35:17 1422 1423	 1492623317	 553187885	 165806.
17:35:17 1423 1424	 1492623317	 714784275	 161596.
17:35:17 1424 1425	 1492623317	 876373027	 161589.
17:35:18 1425 1426	 1492623318	 13587259	 137214.
17:35:18 1426 1427	 1492623318	 175139945	 161553.
17:35:18 1427 1428	 1492623318	 336316150	 161176.
17:35:18 1428 1429	 1492623318	 501786566	 165470.
17:35:18 1429 1430	 1492623318	 663266139	 161480.
17:35:18 1430 1431	 1492623318	 800212443	 136946.
17:35:18 1431 1432	 1492623318	 961626525	 161414.
17:35:19 1432 1433	 1492623319	 123250889	 161625.
17:35:19 1433 1434	 1492623319	 285039008	 161788.
17:35:19 1434 1435	 1492623319	 450832247	 165793.
17:35:19 1435 1436	 1492623319	 612527438	 161695.
17:35:19 1436 1437	 1492623319	 778247633	 165720.
17:35:19 1437 1438	 1492623319	 936309907	 158063.
17:35:20 1438 1439	 1492623320	 73379558	 137069.
17:35:20 1439 1440	 1492623320	 235050380	 161671.
17:35:20 1440 1441	 1492623320	 396923305	 161873.
17:35:20 1441 1442	 1492623320	 562849494	 165926.
17:35:20 1442 1443	 1492623320	 724955625	 162106.
17:35:20 1443 1444	 1492623320	 886405691	 161450.
17:35:21 1444 1445	 1492623321	 48061870	 161657.
17:35:21 1445 1446	 1492623321	 184810008	 136748.
17:35:21 1446 1447	 1492623321	 346432191	 161622.
17:35:21 1447 1448	 1492623321	 508299759	 161867.
17:35:21 1448 1449	 1492623321	 674005330	 165706.
17:35:21 1449 1450	 1492623321	 835507260	 161502.
17:35:22 1450 1451	 1492623322	 1211524	 165704.
17:35:22 1451 1452	 1492623322	 163003785	 161793.
17:35:22 1452 1453	 1492623322	 296123057	 133119.
17:35:22 1453 1454	 1492623322	 461700483	 165577.
17:35:22 1454 1455	 1492623322	 623367000	 161667.
17:35:22 1455 1456	 1492623322	 785087400	 161720.
17:35:22 1456 1457	 1492623322	 950828469	 165741.
17:35:23 1457 1458	 1492623323	 112304425	 161476.
17:35:23 1458 1459	 1492623323	 278194362	 165890.
17:35:23 1459 1460	 1492623323	 411135738	 132941.
17:35:23 1460 1461	 1492623323	 572367908	 161233.
17:35:23 1461 1462	 1492623323	 738188333	 165820.
17:35:23 1462 1463	 1492623323	 899863861	 161676.
17:35:24 1463 1464	 1492623324	 65405973	 165542.
17:35:24 1464 1465	 1492623324	 227160478	 161754.
17:35:24 1465 1466	 1492623324	 364315584	 137155.
17:35:24 1466 1467	 1492623324	 526187507	 161872.
17:35:24 1467 1468	 1492623324	 687813448	 161626.
17:35:24 1468 1469	 1492623324	 853537029	 165724.
17:35:25 1469 1470	 1492623325	 15124293	 161587.
17:35:25 1470 1471	 1492623325	 173308222	 158184.
17:35:25 1471 1472	 1492623325	 339214450	 165906.
17:35:25 1472 1473	 1492623325	 500867688	 161653.
17:35:25 1473 1474	 1492623325	 633779953	 132913.
17:35:25 1474 1475	 1492623325	 799473460	 165693.
17:35:25 1475 1476	 1492623325	 961105434	 161632.
17:35:26 1476 1477	 1492623326	 126897398	 165792.
17:35:26 1477 1478	 1492623326	 288287692	 161390.
17:35:26 1478 1479	 1492623326	 449912989	 161626.
17:35:26 1479 1480	 1492623326	 587028588	 137115.
17:35:26 1480 1481	 1492623326	 748456902	 161429.
17:35:26 1481 1482	 1492623326	 913988440	 165531.
17:35:27 1482 1483	 1492623327	 75290987	 161303.
17:35:27 1483 1484	 1492623327	 240992885	 165702.
17:35:27 1484 1485	 1492623327	 373802171	 132809.
17:35:27 1485 1486	 1492623327	 535398020	 161596.
17:35:27 1486 1487	 1492623327	 700967110	 165569.
17:35:27 1487 1488	 1492623327	 862475093	 161508.
17:35:28 1488 1489	 1492623328	 28095903	 165621.
17:35:28 1489 1490	 1492623328	 189655447	 161559.
17:35:28 1490 1491	 1492623328	 322365248	 132710.
17:35:28 1491 1492	 1492623328	 488004822	 165640.
17:35:28 1492 1493	 1492623328	 649487415	 161482.
17:35:28 1493 1494	 1492623328	 810998814	 161512.
17:35:28 1494 1495	 1492623328	 976728076	 165729.
17:35:29 1495 1496	 1492623329	 109617668	 132889.
17:35:29 1496 1497	 1492623329	 275112013	 165495.
17:35:29 1497 1498	 1492623329	 436409095	 161297.
17:35:29 1498 1499	 1492623329	 601938168	 165529.
17:35:29 1499 1500	 1492623329	 763429305	 161491.
17:35:29 1500 1501	 1492623329	 896211409	 132782.
17:35:30 1501 1502	 1492623330	 62135033	 165924.
17:35:30 1502 1503	 1492623330	 224236112	 162101.
17:35:30 1503 1504	 1492623330	 385808123	 161572.
17:35:30 1504 1505	 1492623330	 547231692	 161423.
17:35:30 1505 1506	 1492623330	 708689841	 161459.
17:35:30 1506 1507	 1492623330	 874267290	 165577.
17:35:31 1507 1508	 1492623331	 6959870	 132693.
17:35:31 1508 1509	 1492623331	 168626423	 161666.
17:35:31 1509 1510	 1492623331	 334262799	 165637.
17:35:31 1510 1511	 1492623331	 495815444	 161552.
17:35:31 1511 1512	 1492623331	 661529512	 165714.
17:35:31 1512 1513	 1492623331	 823057575	 161528.
17:35:31 1513 1514	 1492623331	 959969049	 136912.
17:35:32 1514 1515	 1492623332	 121582025	 161613.
17:35:32 1515 1516	 1492623332	 283071166	 161489.
17:35:32 1516 1517	 1492623332	 448682587	 165612.
17:35:32 1517 1518	 1492623332	 610011471	 161328.
17:35:32 1518 1519	 1492623332	 742920995	 132910.
17:35:32 1519 1520	 1492623332	 908462203	 165541.
17:35:33 1520 1521	 1492623333	 70404990	 161943.
17:35:33 1521 1522	 1492623333	 232120769	 161715.
17:35:33 1522 1523	 1492623333	 397696842	 165577.
17:35:33 1523 1524	 1492623333	 559281695	 161584.
17:35:33 1524 1525	 1492623333	 724937432	 165656.
17:35:33 1525 1526	 1492623333	 857843040	 132906.
17:35:34 1526 1527	 1492623334	 19476796	 161634.
17:35:34 1527 1528	 1492623334	 185106295	 165629.
17:35:34 1528 1529	 1492623334	 346556755	 161450.
17:35:34 1529 1530	 1492623334	 512227699	 165671.
17:35:34 1530 1531	 1492623334	 645082376	 132855.
17:35:34 1531 1532	 1492623334	 806719890	 161638.
17:35:34 1532 1533	 1492623334	 972198631	 165478.
17:35:35 1533 1534	 1492623335	 133944558	 161746.
17:35:35 1534 1535	 1492623335	 299711895	 165768.
17:35:35 1535 1536	 1492623335	 461310481	 161598.
17:35:35 1536 1537	 1492623335	 622992829	 161683.
17:35:35 1537 1538	 1492623335	 785053897	 162061.
17:35:35 1538 1539	 1492623335	 918124255	 133070.
17:35:36 1539 1540	 1492623336	 83871348	 165747.
17:35:36 1540 1541	 1492623336	 245468091	 161597.
17:35:36 1541 1542	 1492623336	 411036392	 165568.
17:35:36 1542 1543	 1492623336	 572771802	 161736.
17:35:36 1543 1544	 1492623336	 738492870	 165721.
17:35:36 1544 1545	 1492623336	 871371745	 132878.
17:35:37 1545 1546	 1492623337	 33082644	 161711.
17:35:37 1546 1547	 1492623337	 198855945	 165774.
17:35:37 1547 1548	 1492623337	 360384703	 161528.
17:35:37 1548 1549	 1492623337	 522097941	 161714.
17:35:37 1549 1550	 1492623337	 687872352	 165774.
17:35:37 1550 1551	 1492623337	 820968607	 133096.
17:35:37 1551 1552	 1492623337	 986755797	 165788.
17:35:38 1552 1553	 1492623338	 148524344	 161768.
17:35:38 1553 1554	 1492623338	 314278806	 165755.
17:35:38 1554 1555	 1492623338	 475843441	 161564.
17:35:38 1555 1556	 1492623338	 637507325	 161664.
17:35:38 1556 1557	 1492623338	 774338770	 136831.
17:35:38 1557 1558	 1492623338	 935908791	 161570.
17:35:39 1558 1559	 1492623339	 101674584	 165766.
17:35:39 1559 1560	 1492623339	 263335446	 161661.
17:35:39 1560 1561	 1492623339	 428798491	 165463.
17:35:39 1561 1562	 1492623339	 590213607	 161415.
17:35:39 1562 1563	 1492623339	 723041247	 132828.
17:35:39 1563 1564	 1492623339	 888656519	 165616.
17:35:40 1564 1565	 1492623340	 50290385	 161633.
17:35:40 1565 1566	 1492623340	 216120319	 165830.
17:35:40 1566 1567	 1492623340	 377798539	 161678.
17:35:40 1567 1568	 1492623340	 543426128	 165628.
17:35:40 1568 1569	 1492623340	 676324523	 132898.
17:35:40 1569 1570	 1492623340	 842051458	 165727.
17:35:40 1570 1571	 1492623341	 3648452	 161597.
17:35:41 1571 1572	 1492623341	 165565319	 161917.
17:35:41 1572 1573	 1492623341	 331159390	 165594.
17:35:41 1573 1574	 1492623341	 492789052	 161630.
17:35:41 1574 1575	 1492623341	 629752317	 136963.
17:35:41 1575 1576	 1492623341	 791425550	 161673.
17:35:41 1576 1577	 1492623341	 953281625	 161856.
17:35:42 1577 1578	 1492623342	 118924981	 165644.
17:35:42 1578 1579	 1492623342	 280514962	 161590.
17:35:42 1579 1580	 1492623342	 442160576	 161645.
17:35:42 1580 1581	 1492623342	 579213900	 137054.
17:35:42 1581 1582	 1492623342	 740827883	 161614.
17:35:42 1582 1583	 1492623342	 906640569	 165812.
17:35:43 1583 1584	 1492623343	 68429054	 161789.
17:35:43 1584 1585	 1492623343	 234512301	 166083.
17:35:43 1585 1586	 1492623343	 396289069	 161777.
17:35:43 1586 1587	 1492623343	 562171394	 165882.
17:35:43 1587 1588	 1492623343	 723945168	 161774.
17:35:43 1588 1589	 1492623343	 857217373	 133272.
17:35:44 1589 1590	 1492623344	 23182413	 165965.
17:35:44 1590 1591	 1492623344	 184960925	 161779.
17:35:44 1591 1592	 1492623344	 350709251	 165748.
17:35:44 1592 1593	 1492623344	 512595493	 161886.
17:35:44 1593 1594	 1492623344	 674363336	 161768.
17:35:44 1594 1595	 1492623344	 840141268	 165778.
17:35:44 1595 1596	 1492623345	 1918019	 161777.
17:35:45 1596 1597	 1492623345	 139074736	 137156.
17:35:45 1597 1598	 1492623345	 300774164	 161700.
17:35:45 1598 1599	 1492623345	 462481063	 161707.
17:35:45 1599 1600	 1492623345	 628095557	 165614.
17:35:45 1600 1601	 1492623345	 789828192	 161733.
17:35:45 1601 1602	 1492623345	 955596502	 165768.
17:35:46 1602 1603	 1492623346	 117365872	 161770.
17:35:46 1603 1604	 1492623346	 250548980	 133183.
17:35:46 1604 1605	 1492623346	 416423085	 165874.
17:35:46 1605 1606	 1492623346	 578165808	 161743.
17:35:46 1606 1607	 1492623346	 743926678	 165760.
17:35:46 1607 1608	 1492623346	 905608815	 161683.
17:35:47 1608 1609	 1492623347	 71455004	 165846.
17:35:47 1609 1610	 1492623347	 233159555	 161704.
17:35:47 1610 1611	 1492623347	 370075415	 136916.
17:35:47 1611 1612	 1492623347	 531912548	 161837.
17:35:47 1612 1613	 1492623347	 693828755	 161916.
17:35:47 1613 1614	 1492623347	 859469884	 165642.
17:35:48 1614 1615	 1492623348	 21186622	 161716.
17:35:48 1615 1616	 1492623348	 186968680	 165782.
17:35:48 1616 1617	 1492623348	 348620204	 161652.
17:35:48 1617 1618	 1492623348	 485450806	 136831.
17:35:48 1618 1619	 1492623348	 647199118	 161748.
17:35:48 1619 1620	 1492623348	 808927659	 161728.
17:35:48 1620 1621	 1492623348	 971096010	 162169.
17:35:49 1621 1622	 1492623349	 132855160	 161759.
17:35:49 1622 1623	 1492623349	 298686820	 165832.
17:35:49 1623 1624	 1492623349	 460349282	 161662.
17:35:49 1624 1625	 1492623349	 593293902	 132945.
17:35:49 1625 1626	 1492623349	 759208681	 165914.
17:35:49 1626 1627	 1492623349	 920895815	 161688.
17:35:50 1627 1628	 1492623350	 86551834	 165656.
17:35:50 1628 1629	 1492623350	 248220322	 161668.
17:35:50 1629 1630	 1492623350	 409788088	 161568.
17:35:50 1630 1631	 1492623350	 546805508	 137017.
17:35:50 1631 1632	 1492623350	 708494845	 161690.
17:35:50 1632 1633	 1492623350	 874331622	 165836.
17:35:51 1633 1634	 1492623351	 36125221	 161794.
17:35:51 1634 1635	 1492623351	 201843516	 165718.
17:35:51 1635 1636	 1492623351	 363406982	 161564.
17:35:51 1636 1637	 1492623351	 525133968	 161727.
17:35:51 1637 1638	 1492623351	 658365912	 133232.
17:35:51 1638 1639	 1492623351	 824228140	 165862.
17:35:51 1639 1640	 1492623351	 985646533	 161418.
17:35:52 1640 1641	 1492623352	 151264155	 165618.
17:35:52 1641 1642	 1492623352	 312902421	 161638.
17:35:52 1642 1643	 1492623352	 478739752	 165837.
17:35:52 1643 1644	 1492623352	 641374298	 162635.
17:35:52 1644 1645	 1492623352	 799173111	 157799.
17:35:52 1645 1646	 1492623352	 960832002	 161659.
17:35:53 1646 1647	 1492623353	 97749396	 136917.
17:35:53 1647 1648	 1492623353	 259327333	 161578.
17:35:53 1648 1649	 1492623353	 424884724	 165557.
17:35:53 1649 1650	 1492623353	 586750472	 161866.
17:35:53 1650 1651	 1492623353	 748510081	 161760.
17:35:53 1651 1652	 1492623353	 914190489	 165680.
17:35:54 1652 1653	 1492623354	 75898024	 161708.
17:35:54 1653 1654	 1492623354	 212878380	 136980.
17:35:54 1654 1655	 1492623354	 374416413	 161538.
17:35:54 1655 1656	 1492623354	 539860067	 165444.
17:35:54 1656 1657	 1492623354	 701523953	 161664.
17:35:54 1657 1658	 1492623354	 863001716	 161477.
17:35:54 1658 1659	 1492623355	 14650	 137013.
17:35:55 1659 1660	 1492623355	 161708169	 161694.
17:35:55 1660 1661	 1492623355	 327462664	 165754.
17:35:55 1661 1662	 1492623355	 489116001	 161654.
17:35:55 1662 1663	 1492623355	 650581597	 161465.
17:35:55 1663 1664	 1492623355	 816081129	 165500.
17:35:55 1664 1665	 1492623355	 948923481	 132842.
17:35:56 1665 1666	 1492623356	 114534957	 165612.
17:35:56 1666 1667	 1492623356	 276099249	 161564.
17:35:56 1667 1668	 1492623356	 437849750	 161750.
17:35:56 1668 1669	 1492623356	 603604014	 165755.
17:35:56 1669 1670	 1492623356	 765001828	 161398.
17:35:56 1670 1671	 1492623356	 897953490	 132951.
17:35:57 1671 1672	 1492623357	 63689982	 165737.
17:35:57 1672 1673	 1492623357	 225370930	 161681.
17:35:57 1673 1674	 1492623357	 391131329	 165760.
17:35:57 1674 1675	 1492623357	 552854679	 161723.
17:35:57 1675 1676	 1492623357	 714517289	 161663.
17:35:57 1676 1677	 1492623357	 880384478	 165867.
17:35:58 1677 1678	 1492623358	 13509071	 133125.
17:35:58 1678 1679	 1492623358	 179559267	 166050.
17:35:58 1679 1680	 1492623358	 341178994	 161620.
17:35:58 1680 1681	 1492623358	 502707546	 161528.
17:35:58 1681 1682	 1492623358	 668252040	 165545.
17:35:58 1682 1683	 1492623358	 829876719	 161624.
17:35:58 1683 1684	 1492623358	 995224283	 165348.
17:35:59 1684 1685	 1492623359	 128115565	 132891.
17:35:59 1685 1686	 1492623359	 289394125	 161279.
17:35:59 1686 1687	 1492623359	 454790562	 165396.
17:35:59 1687 1688	 1492623359	 616311377	 161521.
17:35:59 1688 1689	 1492623359	 781839349	 165528.
17:35:59 1689 1690	 1492623359	 914731168	 132892.
17:36:00 1690 1691	 1492623360	 80198934	 165468.
17:36:00 1691 1692	 1492623360	 242046575	 161847.
17:36:00 1692 1693	 1492623360	 407618558	 165572.
17:36:00 1693 1694	 1492623360	 569428563	 161810.
17:36:00 1694 1695	 1492623360	 731559683	 162131.
17:36:00 1695 1696	 1492623360	 897574511	 166015.
17:36:01 1696 1697	 1492623361	 59275414	 161701.
17:36:01 1697 1698	 1492623361	 196419763	 137144.
17:36:01 1698 1699	 1492623361	 357979486	 161560.
17:36:01 1699 1700	 1492623361	 519739483	 161760.
17:36:01 1700 1701	 1492623361	 685410153	 165671.
17:36:01 1701 1702	 1492623361	 847321699	 161911.
17:36:02 1702 1703	 1492623362	 13100919	 165780.
17:36:02 1703 1704	 1492623362	 174909369	 161808.
17:36:02 1704 1705	 1492623362	 307970951	 133062.
17:36:02 1705 1706	 1492623362	 473709335	 165738.
17:36:02 1706 1707	 1492623362	 635569277	 161860.
17:36:02 1707 1708	 1492623362	 801289679	 165720.
17:36:02 1708 1709	 1492623362	 963004777	 161716.
17:36:03 1709 1710	 1492623363	 124941500	 161936.
17:36:03 1710 1711	 1492623363	 290625208	 165684.
17:36:03 1711 1712	 1492623363	 423662432	 133037.
17:36:03 1712 1713	 1492623363	 581821350	 158159.
17:36:03 1713 1714	 1492623363	 747406762	 165585.
17:36:03 1714 1715	 1492623363	 909182130	 161776.
17:36:04 1715 1716	 1492623364	 75099245	 165917.
17:36:04 1716 1717	 1492623364	 236988491	 161889.
17:36:04 1717 1718	 1492623364	 402764293	 165776.
17:36:04 1718 1719	 1492623364	 535937865	 133174.
17:36:04 1719 1720	 1492623364	 702105835	 166168.
17:36:04 1720 1721	 1492623364	 863823258	 161717.
17:36:05 1721 1722	 1492623365	 25707031	 161884.
17:36:05 1722 1723	 1492623365	 191644003	 165937.
17:36:05 1723 1724	 1492623365	 353348143	 161704.
17:36:05 1724 1725	 1492623365	 519073705	 165725.
17:36:05 1725 1726	 1492623365	 652051863	 132979.
17:36:05 1726 1727	 1492623365	 817975927	 165924.
17:36:05 1727 1728	 1492623365	 979785181	 161809.
17:36:06 1728 1729	 1492623366	 141555321	 161770.
17:36:06 1729 1730	 1492623366	 307310295	 165755.
17:36:06 1730 1731	 1492623366	 469099246	 161789.
17:36:06 1731 1732	 1492623366	 634823570	 165724.
17:36:06 1732 1733	 1492623366	 768016639	 133193.
17:36:06 1733 1734	 1492623366	 929738394	 161722.
17:36:07 1734 1735	 1492623367	 95657504	 165919.
17:36:07 1735 1736	 1492623367	 257427216	 161770.
17:36:07 1736 1737	 1492623367	 423207237	 165780.
17:36:07 1737 1738	 1492623367	 584959634	 161752.
17:36:07 1738 1739	 1492623367	 750808845	 165850.
17:36:07 1739 1740	 1492623367	 883993149	 133184.
17:36:08 1740 1741	 1492623368	 49862017	 165869.
17:36:08 1741 1742	 1492623368	 211485527	 161623.
17:36:08 1742 1743	 1492623368	 373060356	 161575.
17:36:08 1743 1744	 1492623368	 538778078	 165718.
17:36:08 1744 1745	 1492623368	 697191544	 158413.
17:36:08 1745 1746	 1492623368	 858782857	 161592.
17:36:08 1746 1747	 1492623368	 995976059	 137193.
17:36:09 1747 1748	 1492623369	 157792328	 161816.
17:36:09 1748 1749	 1492623369	 323571704	 165779.
17:36:09 1749 1750	 1492623369	 485422222	 161851.
17:36:09 1750 1751	 1492623369	 651372443	 165950.
17:36:09 1751 1752	 1492623369	 813300889	 161929.
17:36:09 1752 1753	 1492623369	 974993919	 161693.
17:36:10 1753 1754	 1492623370	 140833343	 165839.
17:36:10 1754 1755	 1492623370	 273896563	 133063.
17:36:10 1755 1756	 1492623370	 439833367	 165937.
17:36:10 1756 1757	 1492623370	 601562637	 161729.
17:36:10 1757 1758	 1492623370	 767339635	 165777.
17:36:10 1758 1759	 1492623370	 929012771	 161673.
17:36:11 1759 1760	 1492623371	 94743652	 165731.
17:36:11 1760 1761	 1492623371	 256564198	 161821.
17:36:11 1761 1762	 1492623371	 393596402	 137032.
17:36:11 1762 1763	 1492623371	 555336621	 161740.
17:36:11 1763 1764	 1492623371	 721143835	 165808.
17:36:11 1764 1765	 1492623371	 882821725	 161677.
17:36:12 1765 1766	 1492623372	 44585339	 161764.
17:36:12 1766 1767	 1492623372	 210372451	 165787.
17:36:12 1767 1768	 1492623372	 372239338	 161867.
17:36:12 1768 1769	 1492623372	 509381685	 137142.
17:36:12 1769 1770	 1492623372	 671116225	 161735.
17:36:12 1770 1771	 1492623372	 836687593	 165571.
17:36:12 1771 1772	 1492623372	 998428423	 161741.
17:36:13 1772 1773	 1492623373	 160175433	 161747.
17:36:13 1773 1774	 1492623373	 326077678	 165902.
17:36:13 1774 1775	 1492623373	 487880103	 161803.
17:36:13 1775 1776	 1492623373	 653622584	 165742.
17:36:13 1776 1777	 1492623373	 786593471	 132971.
17:36:13 1777 1778	 1492623373	 948234142	 161641.
17:36:14 1778 1779	 1492623374	 114078273	 165844.
17:36:14 1779 1780	 1492623374	 275774722	 161696.
17:36:14 1780 1781	 1492623374	 441507001	 165733.
17:36:14 1781 1782	 1492623374	 603222236	 161715.
17:36:14 1782 1783	 1492623374	 740349356	 137127.
17:36:14 1783 1784	 1492623374	 902294466	 161945.
17:36:15 1784 1785	 1492623375	 64086523	 161792.
17:36:15 1785 1786	 1492623375	 230027945	 165942.
17:36:15 1786 1787	 1492623375	 391737951	 161710.
17:36:15 1787 1788	 1492623375	 557462599	 165724.
17:36:15 1788 1789	 1492623375	 719011754	 161549.
17:36:15 1789 1790	 1492623375	 851856575	 132845.
17:36:16 1790 1791	 1492623376	 17573471	 165717.
17:36:16 1791 1792	 1492623376	 179026131	 161453.
17:36:16 1792 1793	 1492623376	 344788064	 165762.
17:36:16 1793 1794	 1492623376	 506483029	 161695.
17:36:16 1794 1795	 1492623376	 668032344	 161549.
17:36:16 1795 1796	 1492623376	 805040144	 137008.
17:36:16 1796 1797	 1492623376	 970708473	 165668.
17:36:17 1797 1798	 1492623377	 132333941	 161626.
17:36:17 1798 1799	 1492623377	 294015074	 161681.
17:36:17 1799 1800	 1492623377	 459828262	 165813.
17:36:17 1800 1801	 1492623377	 621592305	 161764.
17:36:17 1801 1802	 1492623377	 787468068	 165876.
17:36:17 1802 1803	 1492623377	 949486906	 162019.
17:36:18 1803 1804	 1492623378	 82640778	 133154.
17:36:18 1804 1805	 1492623378	 248425575	 165784.
17:36:18 1805 1806	 1492623378	 410197874	 161773.
17:36:18 1806 1807	 1492623378	 575860626	 165662.
17:36:18 1807 1808	 1492623378	 737546676	 161686.
17:36:18 1808 1809	 1492623378	 899242081	 161696.
17:36:19 1809 1810	 1492623379	 64840718	 165598.
17:36:19 1810 1811	 1492623379	 197906938	 133067.
17:36:19 1811 1812	 1492623379	 363692511	 165785.
17:36:19 1812 1813	 1492623379	 525393393	 161701.
17:36:19 1813 1814	 1492623379	 691133627	 165740.
17:36:19 1814 1815	 1492623379	 853481794	 162349.
17:36:20 1815 1816	 1492623380	 11154014	 157672.
17:36:20 1816 1817	 1492623380	 176877771	 165723.
17:36:20 1817 1818	 1492623380	 338501749	 161624.
17:36:20 1818 1819	 1492623380	 475422479	 136921.
17:36:20 1819 1820	 1492623380	 637079416	 161657.
17:36:20 1820 1821	 1492623380	 802826046	 165747.
17:36:20 1821 1822	 1492623380	 964558840	 161733.
17:36:21 1822 1823	 1492623381	 126181501	 161622.
17:36:21 1823 1824	 1492623381	 291884110	 165703.
17:36:21 1824 1825	 1492623381	 453485010	 161601.
17:36:21 1825 1826	 1492623381	 590451498	 136966.
17:36:21 1826 1827	 1492623381	 752123523	 161672.
17:36:21 1827 1828	 1492623381	 913947334	 161824.
17:36:22 1828 1829	 1492623382	 79659519	 165712.
17:36:22 1829 1830	 1492623382	 241252095	 161593.
17:36:22 1830 1831	 1492623382	 406703495	 165451.
17:36:22 1831 1832	 1492623382	 539655886	 132953.
17:36:22 1832 1833	 1492623382	 705346490	 165690.
17:36:22 1833 1834	 1492623382	 866912337	 161566.
17:36:23 1834 1835	 1492623383	 32637655	 165725.
17:36:23 1835 1836	 1492623383	 194482139	 161845.
17:36:23 1836 1837	 1492623383	 360171479	 165689.
17:36:23 1837 1838	 1492623383	 493171497	 133000.
17:36:23 1838 1839	 1492623383	 654834790	 161664.
17:36:23 1839 1840	 1492623383	 820415460	 165580.
17:36:23 1840 1841	 1492623383	 982083500	 161668.
17:36:24 1841 1842	 1492623384	 143734350	 161651.
17:36:24 1842 1843	 1492623384	 309420316	 165686.
17:36:24 1843 1844	 1492623384	 471143108	 161723.
17:36:24 1844 1845	 1492623384	 608120211	 136977.
17:36:24 1845 1846	 1492623384	 769769124	 161649.
17:36:24 1846 1847	 1492623384	 931360080	 161591.
17:36:25 1847 1848	 1492623385	 97215311	 165855.
17:36:25 1848 1849	 1492623385	 262791542	 165576.
17:36:25 1849 1850	 1492623385	 424425652	 161634.
17:36:25 1850 1851	 1492623385	 557355594	 132930.
17:36:25 1851 1852	 1492623385	 722627671	 165272.
17:36:25 1852 1853	 1492623385	 884127739	 161500.
17:36:26 1853 1854	 1492623386	 49852066	 165725.
17:36:26 1854 1855	 1492623386	 211697726	 161846.
17:36:26 1855 1856	 1492623386	 373374663	 161676.
17:36:26 1856 1857	 1492623386	 539045811	 165672.
17:36:26 1857 1858	 1492623386	 671923419	 132877.
17:36:26 1858 1859	 1492623386	 833423570	 161500.
17:36:26 1859 1860	 1492623386	 999175972	 165753.
17:36:27 1860 1861	 1492623387	 160935004	 161759.
17:36:27 1861 1862	 1492623387	 326801301	 165866.
17:36:27 1862 1863	 1492623387	 488425582	 161624.
17:36:27 1863 1864	 1492623387	 621399605	 132974.
17:36:27 1864 1865	 1492623387	 787143586	 165744.
17:36:27 1865 1866	 1492623387	 948831989	 161689.
17:36:28 1866 1867	 1492623388	 114438924	 165607.
17:36:28 1867 1868	 1492623388	 276141084	 161702.
17:36:28 1868 1869	 1492623388	 441979799	 165839.
17:36:28 1869 1870	 1492623388	 575025641	 133045.
17:36:28 1870 1871	 1492623388	 736703099	 161678.
17:36:28 1871 1872	 1492623388	 902483318	 165780.
17:36:29 1872 1873	 1492623389	 64244192	 161761.
17:36:29 1873 1874	 1492623389	 230243099	 165999.
17:36:29 1874 1875	 1492623389	 391842656	 161599.
17:36:29 1875 1876	 1492623389	 557621641	 165779.
17:36:29 1876 1877	 1492623389	 690582790	 132962.
17:36:29 1877 1878	 1492623389	 856315836	 165733.
17:36:30 1878 1879	 1492623390	 18111444	 161795.
17:36:30 1879 1880	 1492623390	 183983574	 165872.
17:36:30 1880 1881	 1492623390	 345560883	 161578.
17:36:30 1881 1882	 1492623390	 511367204	 165806.
17:36:30 1882 1883	 1492623390	 673193692	 161826.
17:36:30 1883 1884	 1492623390	 805950554	 132757.
17:36:30 1884 1885	 1492623390	 971505253	 165555.
17:36:31 1885 1886	 1492623391	 133256310	 161751.
17:36:31 1886 1887	 1492623391	 299128554	 165872.
17:36:31 1887 1888	 1492623391	 460877087	 161749.
17:36:31 1888 1889	 1492623391	 622460658	 161583.
