07:09:34    0 Step	 time(s)	 time(ns)	 delta(ms)
07:09:34    0 1	 1492499374	 856779744	 957.
07:09:35    1 2	 1492499375	 18701839	 161923.
07:09:35    2 3	 1492499375	 184755170	 166053.
07:09:35    3 4	 1492499375	 346649467	 161894.
07:09:35    4 5	 1492499375	 512710019	 166061.
07:09:35    5 6	 1492499375	 674556273	 161846.
07:09:35    6 7	 1492499375	 840773784	 166218.
07:09:35    7 8	 1492499376	 2394513	 161620.
07:09:36    8 9	 1492499376	 139741955	 137348.
07:09:36    9 10	 1492499376	 301516333	 161774.
07:09:36   10 11	 1492499376	 467423312	 165907.
07:09:36   11 12	 1492499376	 629221356	 161798.
07:09:36   12 13	 1492499376	 795256790	 166036.
07:09:36   13 14	 1492499376	 957269616	 162012.
07:09:37   14 15	 1492499377	 123249500	 165980.
07:09:37   15 16	 1492499377	 285245473	 161996.
07:09:37   16 17	 1492499377	 451532703	 166287.
07:09:37   17 18	 1492499377	 584722211	 133190.
07:09:37   18 19	 1492499377	 750585858	 165864.
07:09:37   19 20	 1492499377	 912441757	 161855.
07:09:38   20 21	 1492499378	 78222225	 165781.
07:09:38   21 22	 1492499378	 240099208	 161877.
07:09:38   22 23	 1492499378	 401979721	 161880.
07:09:38   23 24	 1492499378	 567922286	 165943.
07:09:38   24 25	 1492499378	 701020074	 133098.
07:09:38   25 26	 1492499378	 866941346	 165921.
07:09:39   26 27	 1492499379	 28481322	 161540.
07:09:39   27 28	 1492499379	 194290594	 165809.
07:09:39   28 29	 1492499379	 356274284	 161984.
07:09:39   29 30	 1492499379	 518076078	 161802.
07:09:39   30 31	 1492499379	 684008942	 165933.
07:09:39   31 32	 1492499379	 817091930	 133083.
07:09:39   32 33	 1492499379	 983027851	 165936.
07:09:40   33 34	 1492499380	 144990806	 161963.
07:09:40   34 35	 1492499380	 311014425	 166023.
07:09:40   35 36	 1492499380	 472862608	 161848.
07:09:40   36 37	 1492499380	 638973437	 166111.
07:09:40   37 38	 1492499380	 800886398	 161913.
07:09:40   38 39	 1492499380	 966707683	 165821.
07:09:41   39 40	 1492499381	 99852793	 133146.
07:09:41   40 41	 1492499381	 261543487	 161690.
07:09:41   41 42	 1492499381	 427534062	 165991.
07:09:41   42 43	 1492499381	 589183050	 161649.
07:09:41   43 44	 1492499381	 754895363	 165712.
07:09:41   44 45	 1492499381	 916565073	 161670.
07:09:42   45 46	 1492499382	 53710742	 137145.
07:09:42   46 47	 1492499382	 215667714	 161957.
07:09:42   47 48	 1492499382	 381770865	 166104.
07:09:42   48 49	 1492499382	 543669711	 161898.
07:09:42   49 50	 1492499382	 709779809	 166111.
07:09:42   50 51	 1492499382	 871675368	 161895.
07:09:43   51 52	 1492499383	 37702624	 166027.
07:09:43   52 53	 1492499383	 199652567	 161950.
07:09:43   53 54	 1492499383	 365573161	 165921.
07:09:43   54 55	 1492499383	 498846336	 133273.
07:09:43   55 56	 1492499383	 660790198	 161944.
07:09:43   56 57	 1492499383	 826662634	 165872.
07:09:43   57 58	 1492499383	 988782941	 162121.
07:09:44   58 59	 1492499384	 154710360	 165927.
07:09:44   59 60	 1492499384	 316605011	 161895.
07:09:44   60 61	 1492499384	 482376025	 165771.
07:09:44   61 62	 1492499384	 615589577	 133213.
07:09:44   62 63	 1492499384	 781860329	 166271.
07:09:44   63 64	 1492499384	 944079184	 162219.
07:09:45   64 65	 1492499385	 105907366	 161828.
07:09:45   65 66	 1492499385	 271756705	 165849.
07:09:45   66 67	 1492499385	 433801454	 162045.
07:09:45   67 68	 1492499385	 595612578	 161811.
07:09:45   68 69	 1492499385	 757792543	 162180.
07:09:45   69 70	 1492499385	 923745395	 165953.
07:09:46   70 71	 1492499386	 56947865	 133203.
07:09:46   71 72	 1492499386	 219307671	 162359.
07:09:46   72 73	 1492499386	 381166931	 161860.
07:09:46   73 74	 1492499386	 547220125	 166053.
07:09:46   74 75	 1492499386	 709124326	 161904.
07:09:46   75 76	 1492499386	 875032061	 165908.
07:09:47   76 77	 1492499387	 37081456	 162049.
07:09:47   77 78	 1492499387	 199027621	 161946.
07:09:47   78 79	 1492499387	 364988640	 165961.
07:09:47   79 80	 1492499387	 498234614	 133246.
07:09:47   80 81	 1492499387	 660051521	 161817.
07:09:47   81 82	 1492499387	 825917095	 165866.
07:09:47   82 83	 1492499387	 987745920	 161829.
07:09:48   83 84	 1492499388	 153676267	 165930.
07:09:48   84 85	 1492499388	 315546388	 161870.
07:09:48   85 86	 1492499388	 477446993	 161901.
07:09:48   86 87	 1492499388	 643535912	 166089.
07:09:48   87 88	 1492499388	 776604739	 133068.
07:09:48   88 89	 1492499388	 935120537	 158516.
07:09:49   89 90	 1492499389	 101055478	 165935.
07:09:49   90 91	 1492499389	 262994883	 161940.
07:09:49   91 92	 1492499389	 424842024	 161847.
07:09:49   92 93	 1492499389	 586921638	 162079.
07:09:49   93 94	 1492499389	 753244127	 166323.
07:09:49   94 95	 1492499389	 910950765	 157706.
07:09:50   95 96	 1492499390	 76865550	 165915.
07:09:50   96 97	 1492499390	 210055204	 133190.
07:09:50   97 98	 1492499390	 375862089	 165807.
07:09:50   98 99	 1492499390	 537759674	 161897.
07:09:50   99 100	 1492499390	 703795770	 166036.
07:09:50  100 101	 1492499390	 865679797	 161885.
07:09:51  101 102	 1492499391	 31598657	 165918.
07:09:51  102 103	 1492499391	 193510762	 161912.
07:09:51  103 104	 1492499391	 330845937	 137336.
07:09:51  104 105	 1492499391	 492775193	 161929.
07:09:51  105 106	 1492499391	 658538160	 165763.
07:09:51  106 107	 1492499391	 820335847	 161798.
07:09:51  107 108	 1492499391	 986236391	 165900.
07:09:52  108 109	 1492499392	 148343431	 162107.
07:09:52  109 110	 1492499392	 310124736	 161782.
07:09:52  110 111	 1492499392	 475948433	 165823.
07:09:52  111 112	 1492499392	 609125804	 133178.
07:09:52  112 113	 1492499392	 771030441	 161904.
07:09:52  113 114	 1492499392	 937002067	 165972.
07:09:53  114 115	 1492499393	 99075024	 162073.
07:09:53  115 116	 1492499393	 260819447	 161744.
07:09:53  116 117	 1492499393	 426791251	 165972.
07:09:53  117 118	 1492499393	 588563954	 161773.
07:09:53  118 119	 1492499393	 725695492	 137131.
07:09:53  119 120	 1492499393	 887454324	 161759.
07:09:54  120 121	 1492499394	 53516382	 166062.
07:09:54  121 122	 1492499394	 215590950	 162075.
07:09:54  122 123	 1492499394	 377547067	 161956.
07:09:54  123 124	 1492499394	 543472924	 165926.
07:09:54  124 125	 1492499394	 705332445	 161859.
07:09:54  125 126	 1492499394	 871324131	 165992.
07:09:54  126 127	 1492499395	 4493405	 133169.
07:09:55  127 128	 1492499395	 166348421	 161855.
07:09:55  128 129	 1492499395	 332295025	 165947.
07:09:55  129 130	 1492499395	 498246347	 165951.
07:09:55  130 131	 1492499395	 659796903	 161551.
07:09:55  131 132	 1492499395	 825663016	 165866.
07:09:55  132 133	 1492499395	 987569308	 161906.
07:09:56  133 134	 1492499396	 124708637	 137139.
07:09:56  134 135	 1492499396	 286598018	 161890.
07:09:56  135 136	 1492499396	 452458411	 165860.
07:09:56  136 137	 1492499396	 614466429	 162008.
07:09:56  137 138	 1492499396	 776281093	 161815.
07:09:56  138 139	 1492499396	 942444499	 166163.
07:09:57  139 140	 1492499397	 104420499	 161976.
07:09:57  140 141	 1492499397	 266402719	 161982.
07:09:57  141 142	 1492499397	 403616221	 137214.
07:09:57  142 143	 1492499397	 565446674	 161830.
07:09:57  143 144	 1492499397	 727153338	 161707.
07:09:57  144 145	 1492499397	 893055162	 165902.
07:09:58  145 146	 1492499398	 55023478	 161968.
07:09:58  146 147	 1492499398	 220943205	 165920.
07:09:58  147 148	 1492499398	 382911067	 161968.
07:09:58  148 149	 1492499398	 548913331	 166002.
07:09:58  149 150	 1492499398	 682266226	 133353.
07:09:58  150 151	 1492499398	 844103700	 161837.
07:09:59  151 152	 1492499399	 6055070	 161952.
07:09:59  152 153	 1492499399	 171904378	 165849.
07:09:59  153 154	 1492499399	 337749797	 165845.
07:09:59  154 155	 1492499399	 499384244	 161635.
07:09:59  155 156	 1492499399	 632291842	 132908.
07:09:59  156 157	 1492499399	 798107784	 165816.
07:09:59  157 158	 1492499399	 959895925	 161788.
07:10:00  158 159	 1492499400	 125885850	 165990.
07:10:00  159 160	 1492499400	 287647656	 161761.
07:10:00  160 161	 1492499400	 453597573	 165950.
07:10:00  161 162	 1492499400	 615493706	 161896.
07:10:00  162 163	 1492499400	 781357091	 165864.
07:10:00  163 164	 1492499400	 914632086	 133275.
07:10:01  164 165	 1492499401	 80571111	 165939.
07:10:01  165 166	 1492499401	 242419437	 161848.
07:10:01  166 167	 1492499401	 404285295	 161866.
07:10:01  167 168	 1492499401	 570033923	 165749.
07:10:01  168 169	 1492499401	 735966722	 165932.
07:10:01  169 170	 1492499401	 897905440	 161939.
07:10:02  170 171	 1492499402	 35464092	 137559.
07:10:02  171 172	 1492499402	 197335052	 161871.
07:10:02  172 173	 1492499402	 363311241	 165976.
07:10:02  173 174	 1492499402	 525201917	 161891.
07:10:02  174 175	 1492499402	 691276836	 166075.
07:10:02  175 176	 1492499402	 853955224	 162678.
07:10:03  176 177	 1492499403	 11763917	 157809.
07:10:03  177 178	 1492499403	 177750930	 165987.
07:10:03  178 179	 1492499403	 339628411	 161877.
07:10:03  179 180	 1492499403	 472676001	 133048.
07:10:03  180 181	 1492499403	 638669743	 165993.
07:10:03  181 182	 1492499403	 800589842	 161921.
07:10:03  182 183	 1492499403	 966466879	 165877.
07:10:04  183 184	 1492499404	 128291203	 161824.
07:10:04  184 185	 1492499404	 294199176	 165908.
07:10:04  185 186	 1492499404	 427425251	 133226.
07:10:04  186 187	 1492499404	 589865505	 162440.
07:10:04  187 188	 1492499404	 751816608	 161951.
07:10:04  188 189	 1492499404	 913964055	 162148.
07:10:05  189 190	 1492499405	 76022820	 162059.
07:10:05  190 191	 1492499405	 242006764	 165983.
07:10:05  191 192	 1492499405	 403912467	 161906.
07:10:05  192 193	 1492499405	 570351208	 166439.
07:10:05  193 194	 1492499405	 736480408	 166129.
07:10:05  194 195	 1492499405	 869644647	 133164.
07:10:06  195 196	 1492499406	 35573888	 165930.
07:10:06  196 197	 1492499406	 197386321	 161812.
07:10:06  197 198	 1492499406	 363266670	 165880.
07:10:06  198 199	 1492499406	 525170016	 161904.
07:10:06  199 200	 1492499406	 691323436	 166153.
07:10:06  200 201	 1492499406	 853104291	 161781.
07:10:06  201 202	 1492499406	 986653800	 133550.
07:10:07  202 203	 1492499407	 152484984	 165831.
07:10:07  203 204	 1492499407	 314399967	 161915.
07:10:07  204 205	 1492499407	 480523316	 166123.
07:10:07  205 206	 1492499407	 642644037	 162121.
07:10:07  206 207	 1492499407	 804446523	 161802.
07:10:07  207 208	 1492499407	 970427547	 165981.
07:10:08  208 209	 1492499408	 136466973	 166040.
07:10:08  209 210	 1492499408	 269727933	 133261.
07:10:08  210 211	 1492499408	 435794844	 166067.
07:10:08  211 212	 1492499408	 597814289	 162019.
07:10:08  212 213	 1492499408	 763789117	 165975.
07:10:08  213 214	 1492499408	 925826945	 162038.
07:10:09  214 215	 1492499409	 91852357	 166025.
07:10:09  215 216	 1492499409	 253870744	 162018.
07:10:09  216 217	 1492499409	 391129763	 137259.
07:10:09  217 218	 1492499409	 553221798	 162093.
07:10:09  218 219	 1492499409	 719340047	 166118.
07:10:09  219 220	 1492499409	 881309933	 161970.
07:10:10  220 221	 1492499410	 43159564	 161849.
07:10:10  221 222	 1492499410	 209045871	 165887.
07:10:10  222 223	 1492499410	 371018360	 161972.
07:10:10  223 224	 1492499410	 508267423	 137249.
07:10:10  224 225	 1492499410	 670072114	 161805.
07:10:10  225 226	 1492499410	 835944882	 165873.
07:10:10  226 227	 1492499410	 997816770	 161871.
07:10:11  227 228	 1492499411	 163739660	 165923.
07:10:11  228 229	 1492499411	 325480324	 161741.
07:10:11  229 230	 1492499411	 491691547	 166211.
07:10:11  230 231	 1492499411	 624908390	 133217.
07:10:11  231 232	 1492499411	 786719668	 161811.
07:10:11  232 233	 1492499411	 952733161	 166014.
07:10:12  233 234	 1492499412	 114624443	 161891.
07:10:12  234 235	 1492499412	 280731289	 166107.
07:10:12  235 236	 1492499412	 442619164	 161888.
07:10:12  236 237	 1492499412	 608421526	 165802.
07:10:12  237 238	 1492499412	 745905313	 137484.
07:10:12  238 239	 1492499412	 907784290	 161879.
07:10:13  239 240	 1492499413	 69738688	 161955.
07:10:13  240 241	 1492499413	 235735516	 165996.
07:10:13  241 242	 1492499413	 401766135	 166031.
07:10:13  242 243	 1492499413	 563709500	 161943.
07:10:13  243 244	 1492499413	 729762651	 166053.
07:10:13  244 245	 1492499413	 862957090	 133195.
07:10:14  245 246	 1492499414	 24879249	 161922.
07:10:14  246 247	 1492499414	 191071355	 166192.
07:10:14  247 248	 1492499414	 352954276	 161883.
07:10:14  248 249	 1492499414	 518915329	 165961.
07:10:14  249 250	 1492499414	 684882773	 165970.
07:10:14  250 251	 1492499414	 846708584	 161823.
07:10:14  251 252	 1492499414	 979756170	 133048.
07:10:15  252 253	 1492499415	 145733218	 165977.
07:10:15  253 254	 1492499415	 307671879	 161939.
07:10:15  254 255	 1492499415	 473525892	 165854.
07:10:15  255 256	 1492499415	 635648740	 162122.
07:10:15  256 257	 1492499415	 801681047	 166033.
07:10:15  257 258	 1492499415	 963601788	 161920.
07:10:16  258 259	 1492499416	 129783093	 166182.
07:10:16  259 260	 1492499416	 288037896	 158255.
07:10:16  260 261	 1492499416	 421143492	 133105.
07:10:16  261 262	 1492499416	 586975755	 165833.
07:10:16  262 263	 1492499416	 748857319	 161881.
07:10:16  263 264	 1492499416	 914855596	 165999.
07:10:17  264 265	 1492499417	 76775834	 161920.
07:10:17  265 266	 1492499417	 238806951	 162031.
07:10:17  266 267	 1492499417	 404742242	 165935.
07:10:17  267 268	 1492499417	 566545412	 161803.
07:10:17  268 269	 1492499417	 703834608	 137289.
07:10:17  269 270	 1492499417	 865638831	 161804.
07:10:18  270 271	 1492499418	 31639505	 166001.
07:10:18  271 272	 1492499418	 193661796	 162023.
07:10:18  272 273	 1492499418	 359602318	 165940.
07:10:18  273 274	 1492499418	 521548384	 161946.
07:10:18  274 275	 1492499418	 687532000	 165984.
07:10:18  275 276	 1492499418	 849293725	 161762.
07:10:18  276 277	 1492499418	 982454759	 133160.
07:10:19  277 278	 1492499419	 148384528	 165930.
07:10:19  278 279	 1492499419	 310278817	 161895.
07:10:19  279 280	 1492499419	 472247530	 161968.
07:10:19  280 281	 1492499419	 638419244	 166172.
07:10:19  281 282	 1492499419	 800217377	 161798.
07:10:19  282 283	 1492499419	 962815492	 162598.
07:10:20  283 284	 1492499420	 124829401	 162014.
07:10:20  284 285	 1492499420	 290736745	 165907.
07:10:20  285 286	 1492499420	 423774542	 133038.
07:10:20  286 287	 1492499420	 589721951	 165948.
07:10:20  287 288	 1492499420	 751606005	 161884.
07:10:20  288 289	 1492499420	 917551965	 165946.
07:10:21  289 290	 1492499421	 79349392	 161797.
07:10:21  290 291	 1492499421	 246572700	 167223.
07:10:21  291 292	 1492499421	 408498946	 161927.
07:10:21  292 293	 1492499421	 574590323	 166091.
07:10:21  293 294	 1492499421	 736656127	 162066.
07:10:21  294 295	 1492499421	 898647320	 161991.
07:10:22  295 296	 1492499422	 35792745	 137145.
07:10:22  296 297	 1492499422	 197655707	 161863.
07:10:22  297 298	 1492499422	 363578661	 165923.
07:10:22  298 299	 1492499422	 525941037	 162363.
07:10:22  299 300	 1492499422	 687818856	 161878.
07:10:22  300 301	 1492499422	 853600867	 165782.
07:10:23  301 302	 1492499423	 15479236	 161878.
07:10:23  302 303	 1492499423	 177445544	 161966.
07:10:23  303 304	 1492499423	 343307352	 165862.
07:10:23  304 305	 1492499423	 476621098	 133314.
07:10:23  305 306	 1492499423	 642676287	 166055.
07:10:23  306 307	 1492499423	 804588030	 161912.
07:10:23  307 308	 1492499423	 970492633	 165904.
07:10:24  308 309	 1492499424	 128708050	 158216.
07:10:24  309 310	 1492499424	 294589030	 165881.
07:10:24  310 311	 1492499424	 456552234	 161963.
07:10:24  311 312	 1492499424	 622345397	 165793.
07:10:24  312 313	 1492499424	 755508652	 133163.
07:10:24  313 314	 1492499424	 921370345	 165862.
07:10:25  314 315	 1492499425	 83320089	 161950.
07:10:25  315 316	 1492499425	 249107766	 165787.
07:10:25  316 317	 1492499425	 410887084	 161780.
07:10:25  317 318	 1492499425	 572704751	 161817.
07:10:25  318 319	 1492499425	 738610690	 165906.
07:10:25  319 320	 1492499425	 904428877	 165819.
07:10:26  320 321	 1492499426	 37675128	 133246.
07:10:26  321 322	 1492499426	 199682195	 162007.
07:10:26  322 323	 1492499426	 365543175	 165861.
07:10:26  323 324	 1492499426	 527312540	 161769.
07:10:26  324 325	 1492499426	 693078878	 165767.
07:10:26  325 326	 1492499426	 854865169	 161786.
07:10:27  326 327	 1492499427	 20926203	 166061.
07:10:27  327 328	 1492499427	 154027662	 133101.
07:10:27  328 329	 1492499427	 319872208	 165845.
07:10:27  329 330	 1492499427	 481649163	 161777.
07:10:27  330 331	 1492499427	 647665934	 166017.
07:10:27  331 332	 1492499427	 809420441	 161754.
07:10:27  332 333	 1492499427	 975306070	 165886.
07:10:28  333 334	 1492499428	 137127691	 161821.
07:10:28  334 335	 1492499428	 274142953	 137016.
07:10:28  335 336	 1492499428	 435944047	 161801.
07:10:28  336 337	 1492499428	 597672108	 161728.
07:10:28  337 338	 1492499428	 763565522	 165893.
07:10:28  338 339	 1492499428	 925321522	 161756.
07:10:29  339 340	 1492499429	 91290706	 165969.
07:10:29  340 341	 1492499429	 257307167	 166017.
07:10:29  341 342	 1492499429	 418857426	 161550.
07:10:29  342 343	 1492499429	 556026437	 137169.
07:10:29  343 344	 1492499429	 717863457	 161837.
07:10:29  344 345	 1492499429	 883533931	 165671.
07:10:30  345 346	 1492499430	 45387259	 161853.
07:10:30  346 347	 1492499430	 211422614	 166035.
07:10:30  347 348	 1492499430	 373236340	 161814.
07:10:30  348 349	 1492499430	 506402906	 133167.
07:10:30  349 350	 1492499430	 672266962	 165864.
07:10:30  350 351	 1492499430	 838094999	 165828.
07:10:30  351 352	 1492499430	 999887808	 161793.
07:10:31  352 353	 1492499431	 165676126	 165788.
07:10:31  353 354	 1492499431	 327645240	 161969.
07:10:31  354 355	 1492499431	 489453991	 161809.
07:10:31  355 356	 1492499431	 626677446	 137223.
07:10:31  356 357	 1492499431	 788484769	 161808.
07:10:31  357 358	 1492499431	 954475793	 165990.
07:10:32  358 359	 1492499432	 116428958	 161954.
07:10:32  359 360	 1492499432	 282228384	 165799.
07:10:32  360 361	 1492499432	 443994458	 161766.
07:10:32  361 362	 1492499432	 610092833	 166099.
07:10:32  362 363	 1492499432	 772161471	 162068.
07:10:32  363 364	 1492499432	 909353817	 137192.
07:10:33  364 365	 1492499433	 71279266	 161926.
07:10:33  365 366	 1492499433	 237114295	 165835.
07:10:33  366 367	 1492499433	 398882911	 161769.
07:10:33  367 368	 1492499433	 564772976	 165890.
07:10:33  368 369	 1492499433	 726516903	 161744.
07:10:33  369 370	 1492499433	 892498576	 165981.
07:10:34  370 371	 1492499434	 25580535	 133082.
07:10:34  371 372	 1492499434	 187498915	 161919.
07:10:34  372 373	 1492499434	 353277382	 165778.
07:10:34  373 374	 1492499434	 515026941	 161750.
07:10:34  374 375	 1492499434	 680959870	 165933.
07:10:34  375 376	 1492499434	 842843473	 161883.
07:10:35  376 377	 1492499435	 8682249	 165839.
07:10:35  377 378	 1492499435	 170510455	 161828.
07:10:35  378 379	 1492499435	 307914695	 137404.
07:10:35  379 380	 1492499435	 469568266	 161654.
07:10:35  380 381	 1492499435	 635522005	 165954.
07:10:35  381 382	 1492499435	 797347874	 161826.
07:10:35  382 383	 1492499435	 963126811	 165779.
07:10:36  383 384	 1492499436	 124724587	 161597.
07:10:36  384 385	 1492499436	 261901667	 137177.
07:10:36  385 386	 1492499436	 423815189	 161914.
07:10:36  386 387	 1492499436	 589791817	 165977.
07:10:36  387 388	 1492499436	 751731200	 161939.
07:10:36  388 389	 1492499436	 918431811	 166700.
07:10:37  389 390	 1492499437	 76093230	 157662.
07:10:37  390 391	 1492499437	 237826888	 161734.
07:10:37  391 392	 1492499437	 403685270	 165858.
07:10:37  392 393	 1492499437	 565601636	 161916.
07:10:37  393 394	 1492499437	 731306696	 165705.
07:10:37  394 395	 1492499437	 864389177	 133083.
07:10:38  395 396	 1492499438	 30159851	 165771.
07:10:38  396 397	 1492499438	 191980477	 161820.
07:10:38  397 398	 1492499438	 353906757	 161926.
07:10:38  398 399	 1492499438	 519702920	 165797.
07:10:38  399 400	 1492499438	 681481764	 161778.
07:10:38  400 401	 1492499438	 818603394	 137122.
07:10:38  401 402	 1492499438	 980301645	 161698.
07:10:39  402 403	 1492499439	 146080990	 165780.
07:10:39  403 404	 1492499439	 307985067	 161904.
07:10:39  404 405	 1492499439	 473984835	 166000.
07:10:39  405 406	 1492499439	 635858101	 161873.
07:10:39  406 407	 1492499439	 797682515	 161824.
07:10:39  407 408	 1492499439	 934857685	 137175.
07:10:40  408 409	 1492499440	 96705842	 161849.
07:10:40  409 410	 1492499440	 262600406	 165894.
07:10:40  410 411	 1492499440	 424430729	 161830.
07:10:40  411 412	 1492499440	 590267402	 165837.
07:10:40  412 413	 1492499440	 752283537	 162016.
07:10:40  413 414	 1492499440	 918119707	 165836.
07:10:41  414 415	 1492499441	 80061406	 161942.
07:10:41  415 416	 1492499441	 213212862	 133152.
07:10:41  416 417	 1492499441	 375326877	 162114.
07:10:41  417 418	 1492499441	 541273164	 165946.
07:10:41  418 419	 1492499441	 703099453	 161826.
07:10:41  419 420	 1492499441	 869098734	 165999.
07:10:42  420 421	 1492499442	 30944925	 161847.
07:10:42  421 422	 1492499442	 197002552	 166057.
07:10:42  422 423	 1492499442	 358998011	 161996.
07:10:42  423 424	 1492499442	 492188802	 133191.
07:10:42  424 425	 1492499442	 658226161	 166037.
07:10:42  425 426	 1492499442	 819982102	 161756.
07:10:42  426 427	 1492499442	 985748159	 165766.
07:10:43  427 428	 1492499443	 147534513	 161786.
07:10:43  428 429	 1492499443	 313319048	 165785.
07:10:43  429 430	 1492499443	 475123628	 161804.
07:10:43  430 431	 1492499443	 612347777	 137224.
07:10:43  431 432	 1492499443	 774087492	 161740.
07:10:43  432 433	 1492499443	 939804955	 165718.
07:10:44  433 434	 1492499444	 101586101	 161781.
07:10:44  434 435	 1492499444	 267495384	 165909.
07:10:44  435 436	 1492499444	 429320724	 161825.
07:10:44  436 437	 1492499444	 595122723	 165803.
07:10:44  437 438	 1492499444	 728357127	 133234.
07:10:44  438 439	 1492499444	 894206955	 165850.
07:10:45  439 440	 1492499445	 55927825	 161721.
07:10:45  440 441	 1492499445	 221853441	 165925.
07:10:45  441 442	 1492499445	 383646355	 161793.
07:10:45  442 443	 1492499445	 549386553	 165740.
07:10:45  443 444	 1492499445	 682543217	 133157.
07:10:45  444 445	 1492499445	 844654532	 162111.
07:10:46  445 446	 1492499446	 10572312	 165918.
07:10:46  446 447	 1492499446	 172530571	 161958.
07:10:46  447 448	 1492499446	 338436450	 165906.
07:10:46  448 449	 1492499446	 500206429	 161770.
07:10:46  449 450	 1492499446	 666124252	 165918.
07:10:46  450 451	 1492499446	 828008597	 161884.
07:10:46  451 452	 1492499446	 965188949	 137181.
07:10:47  452 453	 1492499447	 126896988	 161708.
07:10:47  453 454	 1492499447	 292827622	 165930.
07:10:47  454 455	 1492499447	 454631898	 161805.
07:10:47  455 456	 1492499447	 620490211	 165858.
07:10:47  456 457	 1492499447	 782237404	 161747.
07:10:47  457 458	 1492499447	 948002269	 165765.
07:10:48  458 459	 1492499448	 109849867	 161848.
07:10:48  459 460	 1492499448	 247076765	 137226.
07:10:48  460 461	 1492499448	 409093626	 162017.
07:10:48  461 462	 1492499448	 575094828	 166002.
07:10:48  462 463	 1492499448	 736953687	 161858.
07:10:48  463 464	 1492499448	 898812084	 161859.
07:10:49  464 465	 1492499449	 64865260	 166053.
07:10:49  465 466	 1492499449	 226571559	 161706.
07:10:49  466 467	 1492499449	 363692338	 137121.
07:10:49  467 468	 1492499449	 525532899	 161841.
07:10:49  468 469	 1492499449	 691567005	 166034.
07:10:49  469 470	 1492499449	 853217237	 161650.
07:10:50  470 471	 1492499450	 14915594	 161698.
07:10:50  471 472	 1492499450	 180937946	 166023.
07:10:50  472 473	 1492499450	 342885235	 161947.
07:10:50  473 474	 1492499450	 508834772	 165950.
07:10:50  474 475	 1492499450	 642110318	 133275.
07:10:50  475 476	 1492499450	 807828733	 165718.
07:10:50  476 477	 1492499450	 969766811	 161939.
07:10:51  477 478	 1492499451	 135649025	 165882.
07:10:51  478 479	 1492499451	 297589187	 161940.
07:10:51  479 480	 1492499451	 463402271	 165813.
07:10:51  480 481	 1492499451	 625204950	 161803.
07:10:51  481 482	 1492499451	 762495771	 137290.
07:10:51  482 483	 1492499451	 924230385	 161735.
07:10:52  483 484	 1492499452	 86068321	 161838.
07:10:52  484 485	 1492499452	 251858997	 165791.
07:10:52  485 486	 1492499452	 413584240	 161725.
07:10:52  486 487	 1492499452	 579518465	 165934.
07:10:52  487 488	 1492499452	 737439085	 157921.
07:10:52  488 489	 1492499452	 903443885	 166005.
07:10:53  489 490	 1492499453	 36597059	 133153.
07:10:53  490 491	 1492499453	 202384893	 165788.
07:10:53  491 492	 1492499453	 364232729	 161847.
07:10:53  492 493	 1492499453	 525968111	 161736.
07:10:53  493 494	 1492499453	 691781475	 165813.
07:10:53  494 495	 1492499453	 850332063	 158551.
07:10:54  495 496	 1492499454	 16130092	 165798.
07:10:54  496 497	 1492499454	 178054323	 161924.
07:10:54  497 498	 1492499454	 311146637	 133092.
07:10:54  498 499	 1492499454	 477051112	 165905.
07:10:54  499 500	 1492499454	 638825803	 161775.
07:10:54  500 501	 1492499454	 804619429	 165793.
07:10:54  501 502	 1492499454	 966340768	 161722.
07:10:55  502 503	 1492499455	 132250694	 165909.
07:10:55  503 504	 1492499455	 294063044	 161813.
07:10:55  504 505	 1492499455	 427063533	 133000.
07:10:55  505 506	 1492499455	 592988348	 165925.
07:10:55  506 507	 1492499455	 754814975	 161827.
07:10:55  507 508	 1492499455	 920673237	 165858.
07:10:56  508 509	 1492499456	 86670682	 165997.
07:10:56  509 510	 1492499456	 248380536	 161710.
07:10:56  510 511	 1492499456	 410296510	 161916.
07:10:56  511 512	 1492499456	 576140965	 165845.
07:10:56  512 513	 1492499456	 709500372	 133359.
07:10:56  513 514	 1492499456	 875473569	 165973.
07:10:57  514 515	 1492499457	 37244068	 161771.
07:10:57  515 516	 1492499457	 203069132	 165825.
07:10:57  516 517	 1492499457	 364806066	 161737.
07:10:57  517 518	 1492499457	 530738799	 165933.
07:10:57  518 519	 1492499457	 692504592	 161765.
07:10:57  519 520	 1492499457	 825724223	 133220.
07:10:57  520 521	 1492499457	 991655860	 165932.
07:10:58  521 522	 1492499458	 153452390	 161796.
07:10:58  522 523	 1492499458	 319242581	 165790.
07:10:58  523 524	 1492499458	 480931274	 161689.
07:10:58  524 525	 1492499458	 646847843	 165917.
07:10:58  525 526	 1492499458	 808414083	 161566.
07:10:58  526 527	 1492499458	 945577014	 137163.
07:10:59  527 528	 1492499459	 107407652	 161830.
07:10:59  528 529	 1492499459	 273301194	 165894.
07:10:59  529 530	 1492499459	 435056750	 161755.
07:10:59  530 531	 1492499459	 596868876	 161813.
07:10:59  531 532	 1492499459	 762760330	 165891.
07:10:59  532 533	 1492499459	 895681499	 132921.
07:11:00  533 534	 1492499460	 57433505	 161752.
07:11:00  534 535	 1492499460	 223273395	 165840.
07:11:00  535 536	 1492499460	 389100085	 165827.
07:11:00  536 537	 1492499460	 550916269	 161816.
07:11:00  537 538	 1492499460	 716811651	 165895.
07:11:00  538 539	 1492499460	 878813535	 162002.
07:11:01  539 540	 1492499461	 11863278	 133050.
07:11:01  540 541	 1492499461	 177710812	 165847.
07:11:01  541 542	 1492499461	 339471591	 161761.
07:11:01  542 543	 1492499461	 505444176	 165973.
07:11:01  543 544	 1492499461	 671375350	 165931.
07:11:01  544 545	 1492499461	 833131368	 161756.
07:11:01  545 546	 1492499461	 994761942	 161631.
07:11:02  546 547	 1492499462	 131875503	 137113.
07:11:02  547 548	 1492499462	 293628033	 161753.
07:11:02  548 549	 1492499462	 455923353	 162295.
07:11:02  549 550	 1492499462	 617919199	 161996.
07:11:02  550 551	 1492499462	 783791366	 165872.
07:11:02  551 552	 1492499462	 945717771	 161926.
07:11:03  552 553	 1492499463	 111748837	 166032.
07:11:03  553 554	 1492499463	 273796867	 162048.
07:11:03  554 555	 1492499463	 411169323	 137372.
07:11:03  555 556	 1492499463	 573153024	 161984.
07:11:03  556 557	 1492499463	 739224585	 166071.
07:11:03  557 558	 1492499463	 901103948	 161880.
07:11:04  558 559	 1492499464	 66951755	 165847.
07:11:04  559 560	 1492499464	 228765930	 161815.
07:11:04  560 561	 1492499464	 365882303	 137116.
07:11:04  561 562	 1492499464	 527852852	 161971.
07:11:04  562 563	 1492499464	 686514796	 158662.
07:11:04  563 564	 1492499464	 852466154	 165951.
07:11:05  564 565	 1492499465	 14331436	 161865.
07:11:05  565 566	 1492499465	 169406043	 155075.
07:11:05  566 567	 1492499465	 331141092	 161735.
07:11:05  567 568	 1492499465	 497057565	 165916.
07:11:05  568 569	 1492499465	 658822631	 161765.
07:11:05  569 570	 1492499465	 824604766	 165783.
07:11:05  570 571	 1492499465	 986386087	 161781.
07:11:06  571 572	 1492499466	 123664690	 137278.
07:11:06  572 573	 1492499466	 285557275	 161893.
07:11:06  573 574	 1492499466	 451381533	 165824.
07:11:06  574 575	 1492499466	 613127795	 161746.
07:11:06  575 576	 1492499466	 778875446	 165748.
07:11:06  576 577	 1492499466	 940767152	 161892.
07:11:07  577 578	 1492499467	 77937704	 137170.
07:11:07  578 579	 1492499467	 239732472	 161795.
07:11:07  579 580	 1492499467	 401695368	 161963.
07:11:07  580 581	 1492499467	 567576585	 165881.
07:11:07  581 582	 1492499467	 729811001	 162235.
07:11:07  582 583	 1492499467	 891642344	 161831.
07:11:08  583 584	 1492499468	 57550960	 165909.
07:11:08  584 585	 1492499468	 190827792	 133277.
07:11:08  585 586	 1492499468	 352799086	 161971.
07:11:08  586 587	 1492499468	 518574459	 165775.
07:11:08  587 588	 1492499468	 680418501	 161844.
07:11:08  588 589	 1492499468	 846567552	 166149.
07:11:09  589 590	 1492499469	 12315252	 165748.
07:11:09  590 591	 1492499469	 145626293	 133311.
07:11:09  591 592	 1492499469	 307540157	 161914.
07:11:09  592 593	 1492499469	 473438674	 165898.
07:11:09  593 594	 1492499469	 639316858	 165879.
07:11:09  594 595	 1492499469	 801220860	 161904.
07:11:09  595 596	 1492499469	 963135138	 161914.
07:11:10  596 597	 1492499470	 129186487	 166051.
07:11:10  597 598	 1492499470	 262663047	 133477.
07:11:10  598 599	 1492499470	 424431456	 161768.
07:11:10  599 600	 1492499470	 590488291	 166057.
07:11:10  600 601	 1492499470	 752371007	 161883.
07:11:10  601 602	 1492499470	 918161503	 165790.
07:11:11  602 603	 1492499471	 80061179	 161900.
07:11:11  603 604	 1492499471	 246024624	 165963.
07:11:11  604 605	 1492499471	 379046844	 133023.
07:11:11  605 606	 1492499471	 540975358	 161928.
07:11:11  606 607	 1492499471	 706932830	 165958.
07:11:11  607 608	 1492499471	 872856006	 165923.
07:11:12  608 609	 1492499472	 34746951	 161891.
07:11:12  609 610	 1492499472	 200676512	 165929.
07:11:12  610 611	 1492499472	 362543177	 161867.
07:11:12  611 612	 1492499472	 499772560	 137229.
07:11:12  612 613	 1492499472	 661702567	 161930.
07:11:12  613 614	 1492499472	 823564412	 161862.
07:11:12  614 615	 1492499472	 989578303	 166014.
07:11:13  615 616	 1492499473	 151616274	 162038.
07:11:13  616 617	 1492499473	 317501629	 165885.
07:11:13  617 618	 1492499473	 479370996	 161870.
07:11:13  618 619	 1492499473	 612448526	 133077.
07:11:13  619 620	 1492499473	 778144556	 165696.
07:11:13  620 621	 1492499473	 939955755	 161811.
07:11:14  621 622	 1492499474	 105911289	 165956.
07:11:14  622 623	 1492499474	 267726618	 161815.
07:11:14  623 624	 1492499474	 433764719	 166038.
07:11:14  624 625	 1492499474	 595594356	 161830.
07:11:14  625 626	 1492499474	 728840783	 133246.
07:11:14  626 627	 1492499474	 894862711	 166022.
07:11:15  627 628	 1492499475	 56845910	 161984.
07:11:15  628 629	 1492499475	 222739934	 165894.
07:11:15  629 630	 1492499475	 384426405	 161686.
07:11:15  630 631	 1492499475	 550580017	 166154.
07:11:15  631 632	 1492499475	 712412371	 161832.
07:11:15  632 633	 1492499475	 874458295	 162046.
07:11:16  633 634	 1492499476	 11854867	 137397.
07:11:16  634 635	 1492499476	 173759351	 161904.
07:11:16  635 636	 1492499476	 335665310	 161906.
07:11:16  636 637	 1492499476	 501524566	 165859.
07:11:16  637 638	 1492499476	 663407809	 161884.
07:11:16  638 639	 1492499476	 829590991	 166183.
07:11:16  639 640	 1492499476	 991828106	 162237.
07:11:17  640 641	 1492499477	 157804026	 165976.
07:11:17  641 642	 1492499477	 290955569	 133151.
07:11:17  642 643	 1492499477	 456930164	 165975.
07:11:17  643 644	 1492499477	 618716748	 161787.
07:11:17  644 645	 1492499477	 780552252	 161835.
07:11:17  645 646	 1492499477	 946576538	 166024.
07:11:18  646 647	 1492499478	 108315349	 161739.
07:11:18  647 648	 1492499478	 274119775	 165805.
07:11:18  648 649	 1492499478	 407233364	 133113.
07:11:18  649 650	 1492499478	 573032417	 165799.
07:11:18  650 651	 1492499478	 734945319	 161913.
07:11:18  651 652	 1492499478	 900890715	 165945.
07:11:19  652 653	 1492499479	 62866316	 161976.
07:11:19  653 654	 1492499479	 228812632	 165946.
07:11:19  654 655	 1492499479	 390644665	 161832.
07:11:19  655 656	 1492499479	 527824396	 137180.
07:11:19  656 657	 1492499479	 689732419	 161908.
07:11:19  657 658	 1492499479	 855631902	 165900.
07:11:20  658 659	 1492499480	 17434788	 161802.
07:11:20  659 660	 1492499480	 183274582	 165840.
07:11:20  660 661	 1492499480	 345115791	 161842.
07:11:20  661 662	 1492499480	 507239653	 162123.
07:11:20  662 663	 1492499480	 644500901	 137262.
07:11:20  663 664	 1492499480	 806418937	 161918.
07:11:20  664 665	 1492499480	 972303165	 165884.
07:11:21  665 666	 1492499481	 134114671	 161811.
07:11:21  666 667	 1492499481	 299849158	 165735.
07:11:21  667 668	 1492499481	 461667005	 161818.
07:11:21  668 669	 1492499481	 627447823	 165781.
07:11:21  669 670	 1492499481	 760768097	 133320.
07:11:21  670 671	 1492499481	 922618437	 161850.
07:11:22  671 672	 1492499482	 84957689	 162339.
07:11:22  672 673	 1492499482	 250887778	 165930.
07:11:22  673 674	 1492499482	 412666142	 161779.
07:11:22  674 675	 1492499482	 578754694	 166088.
07:11:22  675 676	 1492499482	 740677733	 161923.
07:11:22  676 677	 1492499482	 902663651	 161986.
07:11:23  677 678	 1492499483	 39909749	 137246.
07:11:23  678 679	 1492499483	 205782272	 165873.
07:11:23  679 680	 1492499483	 367670258	 161888.
07:11:23  680 681	 1492499483	 529736976	 162067.
07:11:23  681 682	 1492499483	 691492250	 161755.
07:11:23  682 683	 1492499483	 857427755	 165935.
07:11:24  683 684	 1492499484	 19294478	 161867.
07:11:24  684 685	 1492499484	 156406134	 137112.
07:11:24  685 686	 1492499484	 318181316	 161775.
07:11:24  686 687	 1492499484	 484033167	 165852.
07:11:24  687 688	 1492499484	 645898479	 161865.
07:11:24  688 689	 1492499484	 807790442	 161892.
07:11:24  689 690	 1492499484	 973759302	 165969.
07:11:25  690 691	 1492499485	 135659352	 161900.
07:11:25  691 692	 1492499485	 272875685	 137216.
07:11:25  692 693	 1492499485	 434644535	 161769.
07:11:25  693 694	 1492499485	 600548041	 165904.
07:11:25  694 695	 1492499485	 762534992	 161987.
07:11:25  695 696	 1492499485	 928396826	 165862.
07:11:26  696 697	 1492499486	 90372112	 161975.
07:11:26  697 698	 1492499486	 256435243	 166063.
07:11:26  698 699	 1492499486	 389595505	 133160.
07:11:26  699 700	 1492499486	 555629591	 166034.
07:11:26  700 701	 1492499486	 717551743	 161922.
07:11:26  701 702	 1492499486	 879350330	 161799.
07:11:27  702 703	 1492499487	 45234576	 165884.
07:11:27  703 704	 1492499487	 206911299	 161677.
07:11:27  704 705	 1492499487	 372887763	 165976.
07:11:27  705 706	 1492499487	 506073574	 133186.
07:11:27  706 707	 1492499487	 697295759	 191223.
07:11:27  707 708	 1492499487	 830456821	 133161.
07:11:27  708 709	 1492499487	 996332337	 165875.
07:11:28  709 710	 1492499488	 158159312	 161827.
07:11:28  710 711	 1492499488	 324031830	 165873.
07:11:28  711 712	 1492499488	 489948176	 165916.
07:11:28  712 713	 1492499488	 651764234	 161816.
07:11:28  713 714	 1492499488	 817584339	 165820.
07:11:28  714 715	 1492499488	 950790117	 133206.
07:11:29  715 716	 1492499489	 112483218	 161693.
07:11:29  716 717	 1492499489	 278329605	 165846.
07:11:29  717 718	 1492499489	 440213292	 161884.
07:11:29  718 719	 1492499489	 606277456	 166064.
07:11:29  719 720	 1492499489	 768190700	 161913.
07:11:29  720 721	 1492499489	 934203844	 166014.
07:11:30  721 722	 1492499490	 67173178	 132969.
07:11:30  722 723	 1492499490	 229431207	 162258.
07:11:30  723 724	 1492499490	 391303702	 161873.
07:11:30  724 725	 1492499490	 552959917	 161656.
07:11:30  725 726	 1492499490	 718807391	 165847.
07:11:30  726 727	 1492499490	 880753234	 161946.
07:11:31  727 728	 1492499491	 46702055	 165949.
07:11:31  728 729	 1492499491	 208571148	 161869.
07:11:31  729 730	 1492499491	 345666205	 137095.
07:11:31  730 731	 1492499491	 507508279	 161842.
07:11:31  731 732	 1492499491	 669316339	 161808.
07:11:31  732 733	 1492499491	 835160287	 165844.
07:11:31  733 734	 1492499492	 1193065	 166033.
07:11:32  734 735	 1492499492	 163087147	 161894.
07:11:32  735 736	 1492499492	 328849694	 165762.
07:11:32  736 737	 1492499492	 461729186	 132880.
07:11:32  737 738	 1492499492	 623430860	 161702.
07:11:32  738 739	 1492499492	 789208617	 165777.
07:11:32  739 740	 1492499492	 955050861	 165843.
07:11:33  740 741	 1492499493	 116762783	 161712.
07:11:33  741 742	 1492499493	 282591793	 165828.
07:11:33  742 743	 1492499493	 415672865	 133082.
07:11:33  743 744	 1492499493	 581739234	 166066.
07:11:33  744 745	 1492499493	 743540688	 161802.
07:11:33  745 746	 1492499493	 905416262	 161875.
07:11:34  746 747	 1492499494	 71325262	 165909.
07:11:34  747 748	 1492499494	 233249733	 161924.
07:11:34  748 749	 1492499494	 399072329	 165823.
07:11:34  749 750	 1492499494	 532156643	 133084.
07:11:34  750 751	 1492499494	 694108258	 161952.
07:11:34  751 752	 1492499494	 859915919	 165808.
07:11:35  752 753	 1492499495	 21894503	 161978.
07:11:35  753 754	 1492499495	 187918924	 166025.
07:11:35  754 755	 1492499495	 349786900	 161868.
07:11:35  755 756	 1492499495	 515594524	 165807.
07:11:35  756 757	 1492499495	 648883608	 133289.
07:11:35  757 758	 1492499495	 814916327	 166033.
07:11:35  758 759	 1492499495	 976787997	 161872.
07:11:36  759 760	 1492499496	 138938182	 162150.
07:11:36  760 761	 1492499496	 304908729	 165970.
07:11:36  761 762	 1492499496	 466662042	 161754.
07:11:36  762 763	 1492499496	 632433542	 165771.
07:11:36  763 764	 1492499496	 765585908	 133153.
07:11:36  764 765	 1492499496	 927720861	 162135.
07:11:37  765 766	 1492499497	 89604677	 161883.
07:11:37  766 767	 1492499497	 255635969	 166032.
07:11:37  767 768	 1492499497	 417743200	 162107.
07:11:37  768 769	 1492499497	 583569115	 165826.
07:11:37  769 770	 1492499497	 745399252	 161830.
07:11:37  770 771	 1492499497	 911375731	 165976.
07:11:38  771 772	 1492499498	 44594519	 133219.
07:11:38  772 773	 1492499498	 206559406	 161965.
07:11:38  773 774	 1492499498	 372590474	 166031.
07:11:38  774 775	 1492499498	 534355139	 161765.
07:11:38  775 776	 1492499498	 700298867	 165944.
07:11:38  776 777	 1492499498	 862112155	 161813.
07:11:39  777 778	 1492499499	 28888342	 166776.
07:11:39  778 779	 1492499499	 186738067	 157850.
07:11:39  779 780	 1492499499	 348458272	 161720.
07:11:39  780 781	 1492499499	 481631708	 133173.
07:11:39  781 782	 1492499499	 647711164	 166080.
07:11:39  782 783	 1492499499	 809485762	 161774.
07:11:39  783 784	 1492499499	 975280664	 165795.
07:11:40  784 785	 1492499500	 137297995	 162018.
07:11:40  785 786	 1492499500	 303347086	 166049.
07:11:40  786 787	 1492499500	 465223884	 161877.
07:11:40  787 788	 1492499500	 602257755	 137033.
07:11:40  788 789	 1492499500	 763978949	 161722.
07:11:40  789 790	 1492499500	 929995600	 166016.
07:11:41  790 791	 1492499501	 91836438	 161841.
07:11:41  791 792	 1492499501	 257645947	 165810.
07:11:41  792 793	 1492499501	 419435860	 161790.
07:11:41  793 794	 1492499501	 585398738	 165962.
07:11:41  794 795	 1492499501	 718784138	 133386.
07:11:41  795 796	 1492499501	 884734876	 165951.
07:11:42  796 797	 1492499502	 46598756	 161863.
07:11:42  797 798	 1492499502	 212519374	 165921.
07:11:42  798 799	 1492499502	 374258323	 161739.
07:11:42  799 800	 1492499502	 540291897	 166034.
07:11:42  800 801	 1492499502	 702335454	 162043.
07:11:42  801 802	 1492499502	 835629300	 133294.
07:11:42  802 803	 1492499503	 1599456	 165970.
07:11:43  803 804	 1492499503	 163642274	 162043.
07:11:43  804 805	 1492499503	 329767130	 166125.
07:11:43  805 806	 1492499503	 491960208	 162193.
07:11:43  806 807	 1492499503	 657912487	 165952.
07:11:43  807 808	 1492499503	 819906489	 161994.
07:11:43  808 809	 1492499503	 981963393	 162057.
07:11:44  809 810	 1492499504	 148032506	 166069.
07:11:44  810 811	 1492499504	 281403874	 133372.
07:11:44  811 812	 1492499504	 447424712	 166020.
07:11:44  812 813	 1492499504	 610204476	 162780.
07:11:44  813 814	 1492499504	 767977884	 157774.
07:11:44  814 815	 1492499504	 933930183	 165952.
07:11:45  815 816	 1492499505	 95693414	 161763.
07:11:45  816 817	 1492499505	 261570999	 165878.
07:11:45  817 818	 1492499505	 423541421	 161970.
07:11:45  818 819	 1492499505	 589587167	 166046.
07:11:45  819 820	 1492499505	 722976751	 133389.
07:11:45  820 821	 1492499505	 888909787	 165934.
07:11:46  821 822	 1492499506	 50886850	 161977.
07:11:46  822 823	 1492499506	 213294171	 162407.
07:11:46  823 824	 1492499506	 379349207	 166055.
07:11:46  824 825	 1492499506	 541229697	 161880.
07:11:46  825 826	 1492499506	 707196677	 165967.
07:11:46  826 827	 1492499506	 869105377	 161909.
07:11:46  827 828	 1492499507	 2220765	 133115.
07:11:47  828 829	 1492499507	 168106988	 165887.
07:11:47  829 830	 1492499507	 329980492	 161873.
07:11:47  830 831	 1492499507	 495959737	 165979.
07:11:47  831 832	 1492499507	 657917248	 161958.
07:11:47  832 833	 1492499507	 823739201	 165822.
07:11:47  833 834	 1492499507	 985568733	 161829.
07:11:48  834 835	 1492499508	 122881682	 137313.
07:11:48  835 836	 1492499508	 285167906	 162287.
07:11:48  836 837	 1492499508	 451108766	 165940.
07:11:48  837 838	 1492499508	 617007631	 165900.
07:11:48  838 839	 1492499508	 778993125	 161985.
07:11:48  839 840	 1492499508	 940937060	 161944.
07:11:49  840 841	 1492499509	 106719170	 165782.
07:11:49  841 842	 1492499509	 239978780	 133259.
07:11:49  842 843	 1492499509	 406020158	 166042.
07:11:49  843 844	 1492499509	 571951407	 165931.
07:11:49  844 845	 1492499509	 733925232	 161974.
07:11:49  845 846	 1492499509	 895770760	 161846.
07:11:50  846 847	 1492499510	 61851348	 166080.
07:11:50  847 848	 1492499510	 223822387	 161971.
07:11:50  848 849	 1492499510	 389932541	 166110.
07:11:50  849 850	 1492499510	 551944603	 162013.
07:11:50  850 851	 1492499510	 689270144	 137325.
07:11:50  851 852	 1492499510	 851152310	 161882.
07:11:51  852 853	 1492499511	 17107275	 165955.
07:11:51  853 854	 1492499511	 178991529	 161884.
07:11:51  854 855	 1492499511	 341222581	 162231.
07:11:51  855 856	 1492499511	 503224523	 162002.
07:11:51  856 857	 1492499511	 669263016	 166039.
07:11:51  857 858	 1492499511	 835302864	 166040.
07:11:51  858 859	 1492499511	 968500543	 133197.
07:11:52  859 860	 1492499512	 134471424	 165971.
07:11:52  860 861	 1492499512	 296402020	 161931.
07:11:52  861 862	 1492499512	 462259501	 165857.
07:11:52  862 863	 1492499512	 624271288	 162012.
07:11:52  863 864	 1492499512	 786292334	 162021.
07:11:52  864 865	 1492499512	 952183841	 165892.
07:11:53  865 866	 1492499513	 85382984	 133199.
07:11:53  866 867	 1492499513	 251399513	 166016.
07:11:53  867 868	 1492499513	 413228685	 161829.
07:11:53  868 869	 1492499513	 579174725	 165946.
07:11:53  869 870	 1492499513	 745414938	 166241.
07:11:53  870 871	 1492499513	 907302586	 161887.
07:11:54  871 872	 1492499514	 73188002	 165886.
07:11:54  872 873	 1492499514	 206452033	 133264.
07:11:54  873 874	 1492499514	 372660579	 166208.
07:11:54  874 875	 1492499514	 534608580	 161948.
07:11:54  875 876	 1492499514	 700448136	 165840.
07:11:54  876 877	 1492499514	 862375137	 161927.
07:11:55  877 878	 1492499515	 28360033	 165985.
07:11:55  878 879	 1492499515	 194135863	 165776.
07:11:55  879 880	 1492499515	 327365697	 133229.
07:11:55  880 881	 1492499515	 489606412	 162241.
07:11:55  881 882	 1492499515	 651503884	 161898.
07:11:55  882 883	 1492499515	 817395198	 165891.
07:11:55  883 884	 1492499515	 980031139	 162636.
07:11:56  884 885	 1492499516	 141919623	 161888.
07:11:56  885 886	 1492499516	 303797632	 161878.
07:11:56  886 887	 1492499516	 469892861	 166096.
07:11:56  887 888	 1492499516	 603046669	 133153.
07:11:56  888 889	 1492499516	 764839221	 161793.
07:11:56  889 890	 1492499516	 930844283	 166005.
07:11:57  890 891	 1492499517	 92784092	 161940.
07:11:57  891 892	 1492499517	 258827309	 166043.
07:11:57  892 893	 1492499517	 420701173	 161874.
07:11:57  893 894	 1492499517	 586650224	 165949.
07:11:57  894 895	 1492499517	 748733024	 162083.
07:11:57  895 896	 1492499517	 886056957	 137324.
07:11:58  896 897	 1492499518	 48020691	 161963.
07:11:58  897 898	 1492499518	 214180544	 166160.
07:11:58  898 899	 1492499518	 376075795	 161896.
07:11:58  899 900	 1492499518	 542082238	 166006.
07:11:58  900 901	 1492499518	 703843013	 161761.
07:11:58  901 902	 1492499518	 869996361	 166153.
07:11:58  902 903	 1492499519	 3165196	 133169.
07:11:59  903 904	 1492499519	 169139307	 165974.
07:11:59  904 905	 1492499519	 331015284	 161876.
07:11:59  905 906	 1492499519	 497088605	 166073.
07:11:59  906 907	 1492499519	 658927679	 161839.
07:11:59  907 908	 1492499519	 824803711	 165876.
07:11:59  908 909	 1492499519	 986639767	 161836.
07:12:00  909 910	 1492499520	 152711911	 166073.
07:12:00  910 911	 1492499520	 285943605	 133231.
07:12:00  911 912	 1492499520	 451825707	 165882.
07:12:00  912 913	 1492499520	 613790251	 161965.
07:12:00  913 914	 1492499520	 779914236	 166124.
07:12:00  914 915	 1492499520	 941958054	 162044.
07:12:01  915 916	 1492499521	 103918270	 161960.
07:12:01  916 917	 1492499521	 269991911	 166074.
07:12:01  917 918	 1492499521	 436059665	 166067.
07:12:01  918 919	 1492499521	 569300254	 133241.
07:12:01  919 920	 1492499521	 735410472	 166110.
07:12:01  920 921	 1492499521	 897388783	 161978.
07:12:02  921 922	 1492499522	 59297008	 161909.
07:12:02  922 923	 1492499522	 225277316	 165980.
07:12:02  923 924	 1492499522	 387193284	 161916.
07:12:02  924 925	 1492499522	 553238539	 166045.
07:12:02  925 926	 1492499522	 686458570	 133220.
07:12:02  926 927	 1492499522	 848342965	 161885.
07:12:03  927 928	 1492499523	 14301541	 165958.
07:12:03  928 929	 1492499523	 176331867	 162031.
07:12:03  929 930	 1492499523	 342484976	 166153.
07:12:03  930 931	 1492499523	 504525862	 162041.
07:12:03  931 932	 1492499523	 670549001	 166023.
07:12:03  932 933	 1492499523	 807900539	 137351.
07:12:03  933 934	 1492499523	 969833054	 161933.
07:12:04  934 935	 1492499524	 135807629	 165974.
07:12:04  935 936	 1492499524	 297733261	 161926.
07:12:04  936 937	 1492499524	 463834465	 166101.
07:12:04  937 938	 1492499524	 625805381	 161971.
07:12:04  938 939	 1492499524	 791729178	 165924.
07:12:04  939 940	 1492499524	 925075558	 133346.
07:12:05  940 941	 1492499525	 87137954	 162063.
07:12:05  941 942	 1492499525	 249522739	 162384.
07:12:05  942 943	 1492499525	 415453480	 165931.
07:12:05  943 944	 1492499525	 577306875	 161854.
07:12:05  944 945	 1492499525	 743406193	 166099.
07:12:05  945 946	 1492499525	 905343194	 161937.
07:12:06  946 947	 1492499526	 38663604	 133320.
07:12:06  947 948	 1492499526	 204947624	 166284.
07:12:06  948 949	 1492499526	 367143141	 162196.
07:12:06  949 950	 1492499526	 533191927	 166049.
07:12:06  950 951	 1492499526	 695395102	 162203.
07:12:06  951 952	 1492499526	 857080739	 161685.
07:12:07  952 953	 1492499527	 23064196	 165984.
07:12:07  953 954	 1492499527	 185037824	 161974.
07:12:07  954 955	 1492499527	 322441452	 137403.
07:12:07  955 956	 1492499527	 484330390	 161889.
07:12:07  956 957	 1492499527	 646563357	 162233.
07:12:07  957 958	 1492499527	 812323818	 165761.
07:12:07  958 959	 1492499527	 974177764	 161853.
07:12:08  959 960	 1492499528	 136052429	 161875.
07:12:08  960 961	 1492499528	 301899957	 165848.
07:12:08  961 962	 1492499528	 435013172	 133113.
07:12:08  962 963	 1492499528	 601066811	 166053.
07:12:08  963 964	 1492499528	 763168112	 162102.
07:12:08  964 965	 1492499528	 925113476	 161945.
07:12:09  965 966	 1492499529	 90979312	 165866.
07:12:09  966 967	 1492499529	 252918621	 161939.
07:12:09  967 968	 1492499529	 418850297	 165932.
07:12:09  968 969	 1492499529	 551938578	 133088.
07:12:09  969 970	 1492499529	 717841449	 165903.
07:12:09  970 971	 1492499529	 879654230	 161813.
07:12:10  971 972	 1492499530	 41567095	 161913.
07:12:10  972 973	 1492499530	 207564107	 165997.
07:12:10  973 974	 1492499530	 373459455	 165895.
07:12:10  974 975	 1492499530	 535506352	 162047.
07:12:10  975 976	 1492499530	 668722586	 133216.
07:12:10  976 977	 1492499530	 834689587	 165967.
07:12:10  977 978	 1492499530	 996713778	 162024.
07:12:11  978 979	 1492499531	 162917750	 166204.
07:12:11  979 980	 1492499531	 324904622	 161987.
07:12:11  980 981	 1492499531	 490865281	 165961.
07:12:11  981 982	 1492499531	 652821040	 161956.
07:12:11  982 983	 1492499531	 790076390	 137255.
07:12:11  983 984	 1492499531	 951989077	 161913.
07:12:12  984 985	 1492499532	 117948112	 165959.
07:12:12  985 986	 1492499532	 279770962	 161823.
07:12:12  986 987	 1492499532	 445828645	 166057.
07:12:12  987 988	 1492499532	 593805746	 147977.
07:12:12  988 989	 1492499532	 755755036	 161950.
07:12:12  989 990	 1492499532	 921861590	 166106.
07:12:13  990 991	 1492499533	 83730369	 161869.
07:12:13  991 992	 1492499533	 245586117	 161856.
07:12:13  992 993	 1492499533	 411711870	 166126.
07:12:13  993 994	 1492499533	 544910908	 133199.
07:12:13  994 995	 1492499533	 710906166	 165995.
07:12:13  995 996	 1492499533	 877058778	 166153.
07:12:14  996 997	 1492499534	 38982233	 161923.
07:12:14  997 998	 1492499534	 204879676	 165897.
07:12:14  998 999	 1492499534	 366656316	 161777.
07:12:14  999 1000	 1492499534	 528566922	 161911.
07:12:14 1000 1001	 1492499534	 694534038	 165967.
07:12:14 1001 1002	 1492499534	 827637841	 133104.
07:12:14 1002 1003	 1492499534	 993617099	 165979.
07:12:15 1003 1004	 1492499535	 155390657	 161773.
07:12:15 1004 1005	 1492499535	 321471681	 166082.
07:12:15 1005 1006	 1492499535	 483392902	 161921.
07:12:15 1006 1007	 1492499535	 649517232	 166124.
07:12:15 1007 1008	 1492499535	 811298884	 161782.
07:12:15 1008 1009	 1492499535	 948500494	 137201.
07:12:16 1009 1010	 1492499536	 110372286	 161872.
07:12:16 1010 1011	 1492499536	 276401417	 166029.
07:12:16 1011 1012	 1492499536	 438294788	 161893.
07:12:16 1012 1013	 1492499536	 604088273	 165794.
07:12:16 1013 1014	 1492499536	 766041990	 161954.
07:12:16 1014 1015	 1492499536	 931907491	 165865.
07:12:17 1015 1016	 1492499537	 64979091	 133072.
07:12:17 1016 1017	 1492499537	 230867962	 165889.
07:12:17 1017 1018	 1492499537	 392686968	 161819.
07:12:17 1018 1019	 1492499537	 559453287	 166766.
07:12:17 1019 1020	 1492499537	 717364734	 157911.
07:12:17 1020 1021	 1492499537	 879294274	 161930.
07:12:18 1021 1022	 1492499538	 45460846	 166167.
07:12:18 1022 1023	 1492499538	 207276899	 161816.
07:12:18 1023 1024	 1492499538	 373175888	 165899.
07:12:18 1024 1025	 1492499538	 506366189	 133190.
07:12:18 1025 1026	 1492499538	 672206413	 165840.
07:12:18 1026 1027	 1492499538	 833996005	 161790.
07:12:18 1027 1028	 1492499538	 999954862	 165959.
07:12:19 1028 1029	 1492499539	 161932717	 161977.
07:12:19 1029 1030	 1492499539	 327843056	 165911.
07:12:19 1030 1031	 1492499539	 489747848	 161905.
07:12:19 1031 1032	 1492499539	 651914526	 162166.
07:12:19 1032 1033	 1492499539	 785039664	 133125.
07:12:19 1033 1034	 1492499539	 951385368	 166346.
07:12:20 1034 1035	 1492499540	 108958675	 157573.
07:12:20 1035 1036	 1492499540	 274797161	 165839.
07:12:20 1036 1037	 1492499540	 436677366	 161880.
07:12:20 1037 1038	 1492499540	 598380698	 161703.
07:12:20 1038 1039	 1492499540	 764248108	 165868.
07:12:20 1039 1040	 1492499540	 926136022	 161888.
07:12:21 1040 1041	 1492499541	 63183665	 137047.
07:12:21 1041 1042	 1492499541	 224855208	 161672.
07:12:21 1042 1043	 1492499541	 390655445	 165800.
07:12:21 1043 1044	 1492499541	 552454449	 161799.
07:12:21 1044 1045	 1492499541	 718365337	 165911.
07:12:21 1045 1046	 1492499541	 880107856	 161743.
07:12:22 1046 1047	 1492499542	 13260722	 133152.
07:12:22 1047 1048	 1492499542	 179085592	 165825.
07:12:22 1048 1049	 1492499542	 340915502	 161830.
07:12:22 1049 1050	 1492499542	 506806962	 165892.
07:12:22 1050 1051	 1492499542	 668616714	 161809.
07:12:22 1051 1052	 1492499542	 834446111	 165830.
07:12:22 1052 1053	 1492499542	 996513820	 162068.
07:12:23 1053 1054	 1492499543	 133788768	 137274.
07:12:23 1054 1055	 1492499543	 295776090	 161988.
07:12:23 1055 1056	 1492499543	 461727567	 165951.
07:12:23 1056 1057	 1492499543	 623495704	 161768.
07:12:23 1057 1058	 1492499543	 789257603	 165762.
07:12:23 1058 1059	 1492499543	 951181576	 161924.
07:12:24 1059 1060	 1492499544	 116956519	 165775.
07:12:24 1060 1061	 1492499544	 250099696	 133143.
07:12:24 1061 1062	 1492499544	 415946014	 165847.
07:12:24 1062 1063	 1492499544	 577714411	 161768.
07:12:24 1063 1064	 1492499544	 743657930	 165944.
07:12:24 1064 1065	 1492499544	 905535601	 161877.
07:12:25 1065 1066	 1492499545	 71255646	 165720.
07:12:25 1066 1067	 1492499545	 229479128	 158224.
07:12:25 1067 1068	 1492499545	 395419383	 165940.
07:12:25 1068 1069	 1492499545	 528657644	 133238.
07:12:25 1069 1070	 1492499545	 694499429	 165842.
07:12:25 1070 1071	 1492499545	 856432264	 161933.
07:12:26 1071 1072	 1492499546	 22077037	 165645.
07:12:26 1072 1073	 1492499546	 183871770	 161794.
07:12:26 1073 1074	 1492499546	 349752540	 165881.
07:12:26 1074 1075	 1492499546	 511391985	 161640.
07:12:26 1075 1076	 1492499546	 644398419	 133006.
07:12:26 1076 1077	 1492499546	 810208919	 165811.
07:12:26 1077 1078	 1492499546	 972210593	 162001.
07:12:27 1078 1079	 1492499547	 133992008	 161782.
07:12:27 1079 1080	 1492499547	 299817248	 165825.
07:12:27 1080 1081	 1492499547	 461507473	 161690.
07:12:27 1081 1082	 1492499547	 627455312	 165948.
07:12:27 1082 1083	 1492499547	 760415212	 132960.
07:12:27 1083 1084	 1492499547	 926244902	 165830.
07:12:28 1084 1085	 1492499548	 87940846	 161696.
07:12:28 1085 1086	 1492499548	 253783480	 165842.
07:12:28 1086 1087	 1492499548	 415519372	 161736.
07:12:28 1087 1088	 1492499548	 577448850	 161930.
07:12:28 1088 1089	 1492499548	 743300349	 165851.
07:12:28 1089 1090	 1492499548	 905422779	 162123.
07:12:29 1090 1091	 1492499549	 38741820	 133319.
07:12:29 1091 1092	 1492499549	 204449440	 165707.
07:12:29 1092 1093	 1492499549	 366271374	 161822.
07:12:29 1093 1094	 1492499549	 532120321	 165849.
07:12:29 1094 1095	 1492499549	 693908950	 161789.
07:12:29 1095 1096	 1492499549	 859650632	 165741.
07:12:29 1096 1097	 1492499549	 992725815	 133076.
07:12:30 1097 1098	 1492499550	 158507177	 165781.
07:12:30 1098 1099	 1492499550	 320361121	 161854.
07:12:30 1099 1100	 1492499550	 482171087	 161810.
07:12:30 1100 1101	 1492499550	 648092575	 165921.
07:12:30 1101 1102	 1492499550	 809848401	 161756.
07:12:30 1102 1103	 1492499550	 975665348	 165817.
07:12:31 1103 1104	 1492499551	 108750753	 133085.
07:12:31 1104 1105	 1492499551	 270465370	 161715.
07:12:31 1105 1106	 1492499551	 436220909	 165756.
07:12:31 1106 1107	 1492499551	 598196347	 161975.
07:12:31 1107 1108	 1492499551	 759979398	 161783.
07:12:31 1108 1109	 1492499551	 925800002	 165821.
07:12:32 1109 1110	 1492499552	 87588172	 161788.
07:12:32 1110 1111	 1492499552	 224770446	 137182.
07:12:32 1111 1112	 1492499552	 386810500	 162040.
07:12:32 1112 1113	 1492499552	 548536302	 161726.
07:12:32 1113 1114	 1492499552	 714348772	 165813.
07:12:32 1114 1115	 1492499552	 872530763	 158181.
07:12:33 1115 1116	 1492499553	 38336942	 165807.
07:12:33 1116 1117	 1492499553	 200084751	 161747.
07:12:33 1117 1118	 1492499553	 365889157	 165805.
07:12:33 1118 1119	 1492499553	 498865306	 132976.
07:12:33 1119 1120	 1492499553	 664659687	 165794.
07:12:33 1120 1121	 1492499553	 826462720	 161803.
07:12:33 1121 1122	 1492499553	 992445247	 165983.
07:12:34 1122 1123	 1492499554	 154270983	 161826.
07:12:34 1123 1124	 1492499554	 316132666	 161861.
07:12:34 1124 1125	 1492499554	 478492901	 162361.
07:12:34 1125 1126	 1492499554	 640342514	 161849.
07:12:34 1126 1127	 1492499554	 777472483	 137130.
07:12:34 1127 1128	 1492499554	 939282493	 161810.
07:12:35 1128 1129	 1492499555	 104953483	 165671.
07:12:35 1129 1130	 1492499555	 266888788	 161936.
07:12:35 1130 1131	 1492499555	 432800632	 165911.
07:12:35 1131 1132	 1492499555	 594576234	 161776.
07:12:35 1132 1133	 1492499555	 760460591	 165884.
07:12:35 1133 1134	 1492499555	 893578866	 133119.
07:12:36 1134 1135	 1492499556	 59439595	 165861.
07:12:36 1135 1136	 1492499556	 221126402	 161686.
07:12:36 1136 1137	 1492499556	 383271470	 162145.
07:12:36 1137 1138	 1492499556	 549053828	 165783.
07:12:36 1138 1139	 1492499556	 710858020	 161804.
07:12:36 1139 1140	 1492499556	 876629738	 165771.
07:12:37 1140 1141	 1492499557	 38591754	 161962.
07:12:37 1141 1142	 1492499557	 171739519	 133148.
07:12:37 1142 1143	 1492499557	 333494397	 161755.
07:12:37 1143 1144	 1492499557	 499554193	 166060.
07:12:37 1144 1145	 1492499557	 661264709	 161710.
07:12:37 1145 1146	 1492499557	 827062942	 165799.
07:12:37 1146 1147	 1492499557	 992947663	 165884.
07:12:38 1147 1148	 1492499558	 154647666	 161700.
07:12:38 1148 1149	 1492499558	 287772171	 133125.
07:12:38 1149 1150	 1492499558	 453582416	 165810.
07:12:38 1150 1151	 1492499558	 615670846	 162089.
07:12:38 1151 1152	 1492499558	 777156924	 161486.
07:12:38 1152 1153	 1492499558	 942569391	 165412.
07:12:39 1153 1154	 1492499559	 104282310	 161713.
07:12:39 1154 1155	 1492499559	 270059932	 165778.
07:12:39 1155 1156	 1492499559	 403232970	 133173.
07:12:39 1156 1157	 1492499559	 564843375	 161610.
07:12:39 1157 1158	 1492499559	 730449277	 165606.
07:12:39 1158 1159	 1492499559	 891947766	 161498.
07:12:40 1159 1160	 1492499560	 57659263	 165712.
07:12:40 1160 1161	 1492499560	 190658195	 132999.
07:12:40 1161 1162	 1492499560	 352379305	 161721.
07:12:40 1162 1163	 1492499560	 518230441	 165851.
07:12:40 1163 1164	 1492499560	 680066666	 161836.
07:12:40 1164 1165	 1492499560	 845898981	 165833.
07:12:41 1165 1166	 1492499561	 7743555	 161844.
07:12:41 1166 1167	 1492499561	 169825047	 162082.
07:12:41 1167 1168	 1492499561	 335622536	 165797.
07:12:41 1168 1169	 1492499561	 468722478	 133100.
07:12:41 1169 1170	 1492499561	 634422233	 165700.
07:12:41 1170 1171	 1492499561	 796241009	 161819.
07:12:41 1171 1172	 1492499561	 958081615	 161840.
07:12:42 1172 1173	 1492499562	 120326288	 162245.
07:12:42 1173 1174	 1492499562	 286204463	 165878.
07:12:42 1174 1175	 1492499562	 448137470	 161933.
07:12:42 1175 1176	 1492499562	 613831870	 165695.
07:12:42 1176 1177	 1492499562	 746934582	 133102.
07:12:42 1177 1178	 1492499562	 908614495	 161680.
07:12:43 1178 1179	 1492499563	 74364549	 165750.
07:12:43 1179 1180	 1492499563	 240125752	 165761.
07:12:43 1180 1181	 1492499563	 401959514	 161834.
07:12:43 1181 1182	 1492499563	 563820269	 161861.
07:12:43 1182 1183	 1492499563	 725858109	 162038.
07:12:43 1183 1184	 1492499563	 891715799	 165858.
07:12:44 1184 1185	 1492499564	 24838048	 133122.
07:12:44 1185 1186	 1492499564	 190576457	 165738.
07:12:44 1186 1187	 1492499564	 352285637	 161709.
07:12:44 1187 1188	 1492499564	 517995789	 165710.
07:12:44 1188 1189	 1492499564	 679786174	 161791.
07:12:44 1189 1190	 1492499564	 841499243	 161713.
07:12:44 1190 1191	 1492499564	 978589019	 137090.
07:12:45 1191 1192	 1492499565	 140422170	 161833.
07:12:45 1192 1193	 1492499565	 302314287	 161892.
07:12:45 1193 1194	 1492499565	 467972544	 165658.
07:12:45 1194 1195	 1492499565	 629778907	 161807.
07:12:45 1195 1196	 1492499565	 796481128	 166702.
07:12:45 1196 1197	 1492499565	 953986790	 157506.
07:12:46 1197 1198	 1492499566	 115647805	 161660.
07:12:46 1198 1199	 1492499566	 252795329	 137148.
07:12:46 1199 1200	 1492499566	 414500284	 161705.
07:12:46 1200 1201	 1492499566	 580263738	 165763.
07:12:46 1201 1202	 1492499566	 741972921	 161710.
07:12:46 1202 1203	 1492499566	 907621033	 165648.
07:12:47 1203 1204	 1492499567	 69326872	 161706.
07:12:47 1204 1205	 1492499567	 206443977	 137117.
07:12:47 1205 1206	 1492499567	 368148979	 161705.
07:12:47 1206 1207	 1492499567	 533884642	 165735.
07:12:47 1207 1208	 1492499567	 695718174	 161834.
07:12:47 1208 1209	 1492499567	 861489398	 165771.
07:12:48 1209 1210	 1492499568	 23246661	 161757.
07:12:48 1210 1211	 1492499568	 184946628	 161701.
07:12:48 1211 1212	 1492499568	 322033977	 137087.
07:12:48 1212 1213	 1492499568	 483871072	 161837.
07:12:48 1213 1214	 1492499568	 649505164	 165634.
07:12:48 1214 1215	 1492499568	 811351694	 161846.
07:12:48 1215 1216	 1492499568	 976994291	 165643.
07:12:49 1216 1217	 1492499569	 138707594	 161713.
07:12:49 1217 1218	 1492499569	 304463830	 165757.
07:12:49 1218 1219	 1492499569	 437655827	 133192.
07:12:49 1219 1220	 1492499569	 603489907	 165834.
07:12:49 1220 1221	 1492499569	 765192343	 161702.
07:12:49 1221 1222	 1492499569	 927088696	 161896.
07:12:50 1222 1223	 1492499570	 93023464	 165935.
07:12:50 1223 1224	 1492499570	 254866552	 161843.
07:12:50 1224 1225	 1492499570	 420518889	 165653.
07:12:50 1225 1226	 1492499570	 553597206	 133078.
07:12:50 1226 1227	 1492499570	 715582238	 161985.
07:12:50 1227 1228	 1492499570	 881369580	 165787.
07:12:51 1228 1229	 1492499571	 43358997	 161990.
07:12:51 1229 1230	 1492499571	 209289482	 165930.
07:12:51 1230 1231	 1492499571	 371050650	 161761.
07:12:51 1231 1232	 1492499571	 536810431	 165760.
07:12:51 1232 1233	 1492499571	 698592532	 161782.
07:12:51 1233 1234	 1492499571	 831645290	 133053.
07:12:51 1234 1235	 1492499571	 997593188	 165948.
07:12:52 1235 1236	 1492499572	 159390116	 161797.
07:12:52 1236 1237	 1492499572	 325192261	 165802.
07:12:52 1237 1238	 1492499572	 487500935	 162309.
07:12:52 1238 1239	 1492499572	 649421135	 161920.
07:12:52 1239 1240	 1492499572	 811294658	 161873.
07:12:52 1240 1241	 1492499572	 977495429	 166201.
07:12:53 1241 1242	 1492499573	 135106751	 157611.
07:12:53 1242 1243	 1492499573	 272167072	 137061.
07:12:53 1243 1244	 1492499573	 433901675	 161734.
07:12:53 1244 1245	 1492499573	 599661019	 165760.
07:12:53 1245 1246	 1492499573	 765500239	 165839.
07:12:53 1246 1247	 1492499573	 927186436	 161686.
07:12:54 1247 1248	 1492499574	 92936584	 165750.
07:12:54 1248 1249	 1492499574	 226026243	 133090.
07:12:54 1249 1250	 1492499574	 391775912	 165750.
07:12:54 1250 1251	 1492499574	 553468000	 161692.
07:12:54 1251 1252	 1492499574	 715139453	 161671.
07:12:54 1252 1253	 1492499574	 881011455	 165872.
07:12:55 1253 1254	 1492499575	 42649909	 161639.
07:12:55 1254 1255	 1492499575	 179872282	 137222.
07:12:55 1255 1256	 1492499575	 341721919	 161850.
07:12:55 1256 1257	 1492499575	 507552638	 165831.
07:12:55 1257 1258	 1492499575	 669389694	 161836.
07:12:55 1258 1259	 1492499575	 835386839	 165998.
07:12:55 1259 1260	 1492499575	 997239152	 161852.
07:12:56 1260 1261	 1492499576	 163839360	 166600.
07:12:56 1261 1262	 1492499576	 321619273	 157780.
07:12:56 1262 1263	 1492499576	 454626411	 133007.
07:12:56 1263 1264	 1492499576	 620390819	 165765.
07:12:56 1264 1265	 1492499576	 786309621	 165918.
07:12:56 1265 1266	 1492499576	 948103090	 161794.
07:12:57 1266 1267	 1492499577	 114007179	 165904.
07:12:57 1267 1268	 1492499577	 275731043	 161724.
07:12:57 1268 1269	 1492499577	 408812035	 133081.
07:12:57 1269 1270	 1492499577	 574725306	 165913.
07:12:57 1270 1271	 1492499577	 736298852	 161574.
07:12:57 1271 1272	 1492499577	 902244230	 165945.
07:12:58 1272 1273	 1492499578	 63940840	 161697.
07:12:58 1273 1274	 1492499578	 226083680	 162142.
07:12:58 1274 1275	 1492499578	 391838925	 165756.
07:12:58 1275 1276	 1492499578	 524744660	 132905.
07:12:58 1276 1277	 1492499578	 690596603	 165852.
07:12:58 1277 1278	 1492499578	 852381889	 161786.
07:12:59 1278 1279	 1492499579	 18130226	 165748.
07:12:59 1279 1280	 1492499579	 179828086	 161698.
07:12:59 1280 1281	 1492499579	 345677416	 165849.
07:12:59 1281 1282	 1492499579	 507384436	 161707.
07:12:59 1282 1283	 1492499579	 644461322	 137077.
07:12:59 1283 1284	 1492499579	 806069222	 161608.
07:12:59 1284 1285	 1492499579	 971854186	 165785.
07:13:00 1285 1286	 1492499580	 133768617	 161914.
07:13:00 1286 1287	 1492499580	 299736703	 165968.
07:13:00 1287 1288	 1492499580	 461710981	 161975.
07:13:00 1288 1289	 1492499580	 627662603	 165951.
07:13:00 1289 1290	 1492499580	 761093506	 133431.
07:13:00 1290 1291	 1492499580	 927326631	 166233.
07:13:01 1291 1292	 1492499581	 89089846	 161764.
07:13:01 1292 1293	 1492499581	 251042713	 161952.
07:13:01 1293 1294	 1492499581	 417105118	 166063.
07:13:01 1294 1295	 1492499581	 583029835	 165925.
07:13:01 1295 1296	 1492499581	 744818135	 161788.
07:13:01 1296 1297	 1492499581	 910798923	 165981.
07:13:02 1297 1298	 1492499582	 44126313	 133327.
07:13:02 1298 1299	 1492499582	 210033187	 165907.
07:13:02 1299 1300	 1492499582	 372011047	 161978.
07:13:02 1300 1301	 1492499582	 533922805	 161912.
07:13:02 1301 1302	 1492499582	 699868403	 165945.
07:13:02 1302 1303	 1492499582	 861532661	 161664.
07:13:02 1303 1304	 1492499582	 998606488	 137074.
07:13:03 1304 1305	 1492499583	 160478268	 161872.
07:13:03 1305 1306	 1492499583	 326540773	 166062.
07:13:03 1306 1307	 1492499583	 488458349	 161918.
07:13:03 1307 1308	 1492499583	 654417364	 165959.
07:13:03 1308 1309	 1492499583	 816270935	 161854.
07:13:03 1309 1310	 1492499583	 982183577	 165912.
07:13:04 1310 1311	 1492499584	 115204384	 133021.
07:13:04 1311 1312	 1492499584	 281141071	 165937.
07:13:04 1312 1313	 1492499584	 439441606	 158300.
07:13:04 1313 1314	 1492499584	 605627756	 166186.
07:13:04 1314 1315	 1492499584	 767589826	 161963.
07:13:04 1315 1316	 1492499584	 929673623	 162083.
07:13:05 1316 1317	 1492499585	 95755175	 166082.
07:13:05 1317 1318	 1492499585	 257639186	 161884.
07:13:05 1318 1319	 1492499585	 423609359	 165970.
07:13:05 1319 1320	 1492499585	 556824773	 133215.
07:13:05 1320 1321	 1492499585	 722738467	 165914.
07:13:05 1321 1322	 1492499585	 884626226	 161888.
07:13:06 1322 1323	 1492499586	 50408184	 165782.
07:13:06 1323 1324	 1492499586	 212276307	 161868.
07:13:06 1324 1325	 1492499586	 378261501	 165985.
07:13:06 1325 1326	 1492499586	 540172286	 161911.
07:13:06 1326 1327	 1492499586	 673415097	 133243.
07:13:06 1327 1328	 1492499586	 839417101	 166002.
07:13:07 1328 1329	 1492499587	 5304939	 165888.
07:13:07 1329 1330	 1492499587	 167261235	 161956.
07:13:07 1330 1331	 1492499587	 333246908	 165986.
07:13:07 1331 1332	 1492499587	 495220081	 161973.
07:13:07 1332 1333	 1492499587	 661094797	 165875.
07:13:07 1333 1334	 1492499587	 823134574	 162039.
07:13:07 1334 1335	 1492499587	 956303700	 133169.
07:13:08 1335 1336	 1492499588	 121932485	 165629.
07:13:08 1336 1337	 1492499588	 283744932	 161813.
07:13:08 1337 1338	 1492499588	 449818885	 166074.
07:13:08 1338 1339	 1492499588	 611765117	 161946.
07:13:08 1339 1340	 1492499588	 777656414	 165891.
07:13:08 1340 1341	 1492499588	 939415937	 161760.
07:13:09 1341 1342	 1492499589	 105381212	 165965.
07:13:09 1342 1343	 1492499589	 238561037	 133180.
07:13:09 1343 1344	 1492499589	 404394404	 165833.
07:13:09 1344 1345	 1492499589	 566502334	 162108.
07:13:09 1345 1346	 1492499589	 732741228	 166239.
07:13:09 1346 1347	 1492499589	 894960810	 162220.
07:13:10 1347 1348	 1492499590	 56874739	 161913.
07:13:10 1348 1349	 1492499590	 222874348	 166000.
07:13:10 1349 1350	 1492499590	 388843482	 165969.
07:13:10 1350 1351	 1492499590	 550744651	 161901.
07:13:10 1351 1352	 1492499590	 687949870	 137206.
07:13:10 1352 1353	 1492499590	 849821879	 161872.
07:13:11 1353 1354	 1492499591	 15931978	 166110.
07:13:11 1354 1355	 1492499591	 177804166	 161872.
07:13:11 1355 1356	 1492499591	 343930565	 166127.
07:13:11 1356 1357	 1492499591	 505786739	 161855.
07:13:11 1357 1358	 1492499591	 671454505	 165668.
07:13:11 1358 1359	 1492499591	 804560762	 133107.
07:13:11 1359 1360	 1492499591	 966585419	 162024.
07:13:12 1360 1361	 1492499592	 128674339	 162089.
07:13:12 1361 1362	 1492499592	 294468682	 165794.
07:13:12 1362 1363	 1492499592	 456251029	 161783.
07:13:12 1363 1364	 1492499592	 621862905	 165612.
07:13:12 1364 1365	 1492499592	 783320899	 161458.
07:13:12 1365 1366	 1492499592	 945104473	 161783.
07:13:13 1366 1367	 1492499593	 82307865	 137204.
07:13:13 1367 1368	 1492499593	 244082111	 161774.
07:13:13 1368 1369	 1492499593	 410013886	 165932.
07:13:13 1369 1370	 1492499593	 571801220	 161787.
07:13:13 1370 1371	 1492499593	 737815423	 166014.
07:13:13 1371 1372	 1492499593	 899717576	 161902.
07:13:14 1372 1373	 1492499594	 61647272	 161930.
07:13:14 1373 1374	 1492499594	 227629770	 165982.
07:13:14 1374 1375	 1492499594	 360843291	 133214.
07:13:14 1375 1376	 1492499594	 526780339	 165937.
07:13:14 1376 1377	 1492499594	 688630095	 161850.
07:13:14 1377 1378	 1492499594	 854385370	 165755.
07:13:15 1378 1379	 1492499595	 16278875	 161894.
07:13:15 1379 1380	 1492499595	 178620180	 162341.
07:13:15 1380 1381	 1492499595	 340500710	 161880.
07:13:15 1381 1382	 1492499595	 506600704	 166101.
07:13:15 1382 1383	 1492499595	 668435072	 161834.
07:13:15 1383 1384	 1492499595	 801504512	 133069.
07:13:15 1384 1385	 1492499595	 967299072	 165795.
07:13:16 1385 1386	 1492499596	 129318409	 162019.
07:13:16 1386 1387	 1492499596	 295391360	 166073.
07:13:16 1387 1388	 1492499596	 457438111	 162047.
07:13:16 1388 1389	 1492499596	 619463133	 162025.
07:13:16 1389 1390	 1492499596	 785437452	 165974.
07:13:16 1390 1391	 1492499596	 947326311	 161889.
07:13:17 1391 1392	 1492499597	 113193108	 165867.
07:13:17 1392 1393	 1492499597	 246378762	 133185.
07:13:17 1393 1394	 1492499597	 408299734	 161921.
07:13:17 1394 1395	 1492499597	 574195343	 165896.
07:13:17 1395 1396	 1492499597	 736074231	 161879.
07:13:17 1396 1397	 1492499597	 902010164	 165936.
07:13:18 1397 1398	 1492499598	 63721150	 161711.
07:13:18 1398 1399	 1492499598	 229636029	 165915.
07:13:18 1399 1400	 1492499598	 391747688	 162112.
07:13:18 1400 1401	 1492499598	 524780048	 133032.
07:13:18 1401 1402	 1492499598	 690704520	 165924.
07:13:18 1402 1403	 1492499598	 853403932	 162700.
07:13:19 1403 1404	 1492499599	 11210767	 157806.
07:13:19 1404 1405	 1492499599	 177120873	 165911.
07:13:19 1405 1406	 1492499599	 338979207	 161858.
07:13:19 1406 1407	 1492499599	 504957269	 165978.
07:13:19 1407 1408	 1492499599	 666703776	 161746.
07:13:19 1408 1409	 1492499599	 832671270	 165968.
07:13:19 1409 1410	 1492499599	 965753466	 133082.
07:13:20 1410 1411	 1492499600	 127743359	 161990.
07:13:20 1411 1412	 1492499600	 293720856	 165978.
07:13:20 1412 1413	 1492499600	 455532704	 161811.
07:13:20 1413 1414	 1492499600	 621267972	 165736.
07:13:20 1414 1415	 1492499600	 783293797	 162026.
07:13:20 1415 1416	 1492499600	 945153033	 161859.
07:13:21 1416 1417	 1492499601	 110832640	 165679.
07:13:21 1417 1418	 1492499601	 243955233	 133123.
07:13:21 1418 1419	 1492499601	 409896754	 165941.
07:13:21 1419 1420	 1492499601	 571780601	 161884.
07:13:21 1420 1421	 1492499601	 733440360	 161660.
07:13:21 1421 1422	 1492499601	 899364944	 165925.
07:13:22 1422 1423	 1492499602	 61234464	 161869.
07:13:22 1423 1424	 1492499602	 227324695	 166090.
07:13:22 1424 1425	 1492499602	 360456359	 133132.
07:13:22 1425 1426	 1492499602	 526461900	 166006.
07:13:22 1426 1427	 1492499602	 688178173	 161716.
07:13:22 1427 1428	 1492499602	 854175521	 165997.
07:13:23 1428 1429	 1492499603	 15983656	 161808.
07:13:23 1429 1430	 1492499603	 181891130	 165908.
07:13:23 1430 1431	 1492499603	 343639734	 161748.
07:13:23 1431 1432	 1492499603	 476744466	 133105.
07:13:23 1432 1433	 1492499603	 642687677	 165943.
07:13:23 1433 1434	 1492499603	 804527152	 161840.
07:13:23 1434 1435	 1492499603	 970426036	 165899.
07:13:24 1435 1436	 1492499604	 132315963	 161890.
07:13:24 1436 1437	 1492499604	 294539951	 162224.
07:13:24 1437 1438	 1492499604	 456431046	 161891.
07:13:24 1438 1439	 1492499604	 618127700	 161696.
07:13:24 1439 1440	 1492499604	 755299730	 137172.
07:13:24 1440 1441	 1492499604	 917125898	 161827.
07:13:25 1441 1442	 1492499605	 83058636	 165932.
07:13:25 1442 1443	 1492499605	 244998032	 161940.
07:13:25 1443 1444	 1492499605	 410742010	 165744.
07:13:25 1444 1445	 1492499605	 572570012	 161828.
07:13:25 1445 1446	 1492499605	 738299862	 165730.
07:13:25 1446 1447	 1492499605	 871339719	 133039.
07:13:26 1447 1448	 1492499606	 37263722	 165924.
07:13:26 1448 1449	 1492499606	 199082376	 161819.
07:13:26 1449 1450	 1492499606	 361196026	 162114.
07:13:26 1450 1451	 1492499606	 527092634	 165896.
07:13:26 1451 1452	 1492499606	 688875388	 161783.
07:13:26 1452 1453	 1492499606	 854779908	 165905.
07:13:26 1453 1454	 1492499606	 987916740	 133136.
07:13:27 1454 1455	 1492499607	 153763804	 165848.
07:13:27 1455 1456	 1492499607	 315570442	 161806.
07:13:27 1456 1457	 1492499607	 481534303	 165964.
07:13:27 1457 1458	 1492499607	 643367406	 161833.
07:13:27 1458 1459	 1492499607	 809153834	 165787.
07:13:27 1459 1460	 1492499607	 970880298	 161726.
07:13:28 1460 1461	 1492499608	 103953631	 133073.
07:13:28 1461 1462	 1492499608	 269885977	 165933.
07:13:28 1462 1463	 1492499608	 431624207	 161738.
07:13:28 1463 1464	 1492499608	 597682445	 166058.
07:13:28 1464 1465	 1492499608	 759434037	 161752.
07:13:28 1465 1466	 1492499608	 925386132	 165952.
07:13:29 1466 1467	 1492499609	 58364106	 132978.
07:13:29 1467 1468	 1492499609	 224312278	 165948.
07:13:29 1468 1469	 1492499609	 386242387	 161930.
07:13:29 1469 1470	 1492499609	 552017303	 165775.
07:13:29 1470 1471	 1492499609	 710602894	 158586.
07:13:29 1471 1472	 1492499609	 872518323	 161915.
07:13:30 1472 1473	 1492499610	 38486655	 165968.
07:13:30 1473 1474	 1492499610	 200459976	 161974.
07:13:30 1474 1475	 1492499610	 362407740	 161947.
07:13:30 1475 1476	 1492499610	 499647831	 137241.
07:13:30 1476 1477	 1492499610	 661433995	 161786.
07:13:30 1477 1478	 1492499610	 827361801	 165928.
07:13:30 1478 1479	 1492499610	 989187516	 161825.
07:13:31 1479 1480	 1492499611	 155045347	 165858.
07:13:31 1480 1481	 1492499611	 316968239	 161923.
07:13:31 1481 1482	 1492499611	 483020890	 166053.
07:13:31 1482 1483	 1492499611	 616262500	 133241.
07:13:31 1483 1484	 1492499611	 778170582	 161908.
07:13:31 1484 1485	 1492499611	 944072367	 165902.
07:13:32 1485 1486	 1492499612	 105870145	 161798.
07:13:32 1486 1487	 1492499612	 271802042	 165932.
07:13:32 1487 1488	 1492499612	 433630998	 161829.
07:13:32 1488 1489	 1492499612	 599406937	 165776.
07:13:32 1489 1490	 1492499612	 732601692	 133194.
07:13:32 1490 1491	 1492499612	 894442923	 161842.
07:13:33 1491 1492	 1492499613	 60209578	 165766.
07:13:33 1492 1493	 1492499613	 221959409	 161750.
07:13:33 1493 1494	 1492499613	 387829738	 165870.
07:13:33 1494 1495	 1492499613	 549600522	 161771.
07:13:33 1495 1496	 1492499613	 715478756	 165879.
07:13:33 1496 1497	 1492499613	 848638399	 133159.
07:13:34 1497 1498	 1492499614	 14620209	 165982.
07:13:34 1498 1499	 1492499614	 176450724	 161830.
07:13:34 1499 1500	 1492499614	 342351829	 165902.
07:13:34 1500 1501	 1492499614	 496881927	 154530.
07:13:34 1501 1502	 1492499614	 662898906	 166017.
07:13:34 1502 1503	 1492499614	 835798652	 172899.
07:13:34 1503 1504	 1492499614	 968834871	 133037.
07:13:35 1504 1505	 1492499615	 134673233	 165838.
07:13:35 1505 1506	 1492499615	 296431488	 161758.
07:13:35 1506 1507	 1492499615	 462363046	 165932.
07:13:35 1507 1508	 1492499615	 624266071	 161903.
07:13:35 1508 1509	 1492499615	 786164028	 161898.
07:13:35 1509 1510	 1492499615	 919389411	 133225.
07:13:36 1510 1511	 1492499616	 85411525	 166022.
07:13:36 1511 1512	 1492499616	 247293738	 161882.
07:13:36 1512 1513	 1492499616	 413246947	 165954.
07:13:36 1513 1514	 1492499616	 579290244	 166043.
07:13:36 1514 1515	 1492499616	 741169047	 161879.
07:13:36 1515 1516	 1492499616	 903016681	 161847.
07:13:37 1516 1517	 1492499617	 40088047	 137072.
07:13:37 1517 1518	 1492499617	 201832447	 161744.
07:13:37 1518 1519	 1492499617	 367771600	 165939.
07:13:37 1519 1520	 1492499617	 529860058	 162089.
07:13:37 1520 1521	 1492499617	 695780455	 165920.
07:13:37 1521 1522	 1492499617	 857630159	 161850.
07:13:38 1522 1523	 1492499618	 19613269	 161983.
07:13:38 1523 1524	 1492499618	 185436102	 165823.
07:13:38 1524 1525	 1492499618	 318532323	 133096.
07:13:38 1525 1526	 1492499618	 484217682	 165685.
07:13:38 1526 1527	 1492499618	 646063765	 161846.
07:13:38 1527 1528	 1492499618	 811835175	 165772.
07:13:38 1528 1529	 1492499618	 973568089	 161733.
07:13:39 1529 1530	 1492499619	 139460445	 165892.
07:13:39 1530 1531	 1492499619	 272500928	 133041.
07:13:39 1531 1532	 1492499619	 438515782	 166014.
07:13:39 1532 1533	 1492499619	 600117452	 161602.
07:13:39 1533 1534	 1492499619	 761929528	 161812.
07:13:39 1534 1535	 1492499619	 927994929	 166066.
07:13:40 1535 1536	 1492499620	 89896187	 161901.
07:13:40 1536 1537	 1492499620	 255792138	 165896.
07:13:40 1537 1538	 1492499620	 388779224	 132987.
07:13:40 1538 1539	 1492499620	 554667153	 165888.
07:13:40 1539 1540	 1492499620	 720771088	 166104.
07:13:40 1540 1541	 1492499620	 878596164	 157825.
07:13:41 1541 1542	 1492499621	 44409179	 165813.
07:13:41 1542 1543	 1492499621	 210181735	 165772.
07:13:41 1543 1544	 1492499621	 371933257	 161752.
07:13:41 1544 1545	 1492499621	 504995640	 133062.
07:13:41 1545 1546	 1492499621	 670777698	 165782.
07:13:41 1546 1547	 1492499621	 832709396	 161932.
07:13:41 1547 1548	 1492499621	 998728925	 166020.
07:13:42 1548 1549	 1492499622	 160484525	 161755.
07:13:42 1549 1550	 1492499622	 326350596	 165866.
07:13:42 1550 1551	 1492499622	 488371096	 162021.
07:13:42 1551 1552	 1492499622	 621511948	 133141.
07:13:42 1552 1553	 1492499622	 787370380	 165858.
07:13:42 1553 1554	 1492499622	 949353055	 161983.
07:13:43 1554 1555	 1492499623	 115335602	 165982.
07:13:43 1555 1556	 1492499623	 277386374	 162051.
07:13:43 1556 1557	 1492499623	 443265917	 165880.
07:13:43 1557 1558	 1492499623	 605151160	 161885.
07:13:43 1558 1559	 1492499623	 771126031	 165975.
07:13:43 1559 1560	 1492499623	 904294265	 133168.
07:13:44 1560 1561	 1492499624	 70356076	 166062.
07:13:44 1561 1562	 1492499624	 232185866	 161830.
07:13:44 1562 1563	 1492499624	 398226370	 166040.
07:13:44 1563 1564	 1492499624	 560057943	 161832.
07:13:44 1564 1565	 1492499624	 718730588	 158672.
07:13:44 1565 1566	 1492499624	 884513353	 165783.
07:13:45 1566 1567	 1492499625	 46374814	 161862.
07:13:45 1567 1568	 1492499625	 212321269	 165946.
07:13:45 1568 1569	 1492499625	 345450639	 133129.
07:13:45 1569 1570	 1492499625	 511604352	 166154.
07:13:45 1570 1571	 1492499625	 673445722	 161841.
07:13:45 1571 1572	 1492499625	 835172024	 161727.
07:13:45 1572 1573	 1492499626	 857015	 165685.
07:13:46 1573 1574	 1492499626	 166795269	 165938.
07:13:46 1574 1575	 1492499626	 328711638	 161916.
07:13:46 1575 1576	 1492499626	 461717661	 133006.
07:13:46 1576 1577	 1492499626	 627680203	 165963.
07:13:46 1577 1578	 1492499626	 789415709	 161735.
07:13:46 1578 1579	 1492499626	 955204975	 165790.
07:13:47 1579 1580	 1492499627	 117051919	 161847.
07:13:47 1580 1581	 1492499627	 282815547	 165763.
07:13:47 1581 1582	 1492499627	 415902631	 133087.
07:13:47 1582 1583	 1492499627	 581765501	 165863.
07:13:47 1583 1584	 1492499627	 743481847	 161717.
07:13:47 1584 1585	 1492499627	 909412981	 165931.
07:13:48 1585 1586	 1492499628	 71182748	 161769.
07:13:48 1586 1587	 1492499628	 237002486	 165820.
07:13:48 1587 1588	 1492499628	 398820077	 161818.
07:13:48 1588 1589	 1492499628	 536129092	 137309.
07:13:48 1589 1590	 1492499628	 697879272	 161750.
07:13:48 1590 1591	 1492499628	 863690406	 165811.
07:13:49 1591 1592	 1492499629	 25572985	 161883.
07:13:49 1592 1593	 1492499629	 191423309	 165850.
07:13:49 1593 1594	 1492499629	 353269538	 161846.
07:13:49 1594 1595	 1492499629	 490318344	 137049.
07:13:49 1595 1596	 1492499629	 652218035	 161900.
07:13:49 1596 1597	 1492499629	 818286791	 166069.
07:13:49 1597 1598	 1492499629	 980156759	 161869.
07:13:50 1598 1599	 1492499630	 145950487	 165794.
07:13:50 1599 1600	 1492499630	 307747752	 161797.
07:13:50 1600 1601	 1492499630	 473722202	 165975.
07:13:50 1601 1602	 1492499630	 632006697	 158284.
07:13:50 1602 1603	 1492499630	 769180084	 137174.
07:13:50 1603 1604	 1492499630	 930865864	 161686.
07:13:51 1604 1605	 1492499631	 96824523	 165958.
07:13:51 1605 1606	 1492499631	 258772674	 161948.
07:13:51 1606 1607	 1492499631	 424649272	 165877.
07:13:51 1607 1608	 1492499631	 586588083	 161939.
07:13:51 1608 1609	 1492499631	 753326933	 166739.
07:13:51 1609 1610	 1492499631	 911043114	 157716.
07:13:52 1610 1611	 1492499632	 48330540	 137287.
07:13:52 1611 1612	 1492499632	 210181844	 161852.
07:13:52 1612 1613	 1492499632	 376140339	 165958.
07:13:52 1613 1614	 1492499632	 538103066	 161963.
07:13:52 1614 1615	 1492499632	 700138181	 162035.
07:13:52 1615 1616	 1492499632	 862286735	 162148.
07:13:53 1616 1617	 1492499633	 28400703	 166114.
07:13:53 1617 1618	 1492499633	 190332915	 161933.
07:13:53 1618 1619	 1492499633	 327427004	 137094.
07:13:53 1619 1620	 1492499633	 489224669	 161797.
07:13:53 1620 1621	 1492499633	 654966239	 165742.
07:13:53 1621 1622	 1492499633	 816690754	 161724.
07:13:53 1622 1623	 1492499633	 978545654	 161855.
07:13:54 1623 1624	 1492499634	 144504047	 165959.
07:13:54 1624 1625	 1492499634	 306432406	 161928.
07:13:54 1625 1626	 1492499634	 443632429	 137200.
07:13:54 1626 1627	 1492499634	 605357512	 161725.
07:13:54 1627 1628	 1492499634	 771529023	 166172.
07:13:54 1628 1629	 1492499634	 933435353	 161906.
07:13:55 1629 1630	 1492499635	 99316352	 165881.
07:13:55 1630 1631	 1492499635	 260985014	 161669.
07:13:55 1631 1632	 1492499635	 422782835	 161798.
07:13:55 1632 1633	 1492499635	 584911608	 162128.
07:13:55 1633 1634	 1492499635	 722197738	 137286.
07:13:55 1634 1635	 1492499635	 884007361	 161810.
07:13:56 1635 1636	 1492499636	 50064140	 166057.
07:13:56 1636 1637	 1492499636	 211896316	 161832.
07:13:56 1637 1638	 1492499636	 373941683	 162045.
07:13:56 1638 1639	 1492499636	 536159555	 162218.
07:13:56 1639 1640	 1492499636	 702039950	 165881.
07:13:56 1640 1641	 1492499636	 863933511	 161893.
07:13:56 1641 1642	 1492499636	 997017558	 133084.
07:13:57 1642 1643	 1492499637	 162973916	 165957.
07:13:57 1643 1644	 1492499637	 324902086	 161928.
07:13:57 1644 1645	 1492499637	 490690989	 165789.
07:13:57 1645 1646	 1492499637	 652449434	 161758.
07:13:57 1646 1647	 1492499637	 814370250	 161921.
07:13:57 1647 1648	 1492499637	 980233260	 165863.
07:13:58 1648 1649	 1492499638	 142014889	 161782.
07:13:58 1649 1650	 1492499638	 279223053	 137208.
07:13:58 1650 1651	 1492499638	 441064639	 161841.
07:13:58 1651 1652	 1492499638	 606822048	 165758.
07:13:58 1652 1653	 1492499638	 768703001	 161881.
07:13:58 1653 1654	 1492499638	 930557217	 161854.
07:13:59 1654 1655	 1492499639	 96434538	 165877.
07:13:59 1655 1656	 1492499639	 258242423	 161808.
07:13:59 1656 1657	 1492499639	 395468050	 137226.
07:13:59 1657 1658	 1492499639	 557336685	 161868.
07:13:59 1658 1659	 1492499639	 723068865	 165733.
07:13:59 1659 1660	 1492499639	 885098120	 162029.
07:14:00 1660 1661	 1492499640	 46961616	 161863.
07:14:00 1661 1662	 1492499640	 209135474	 162174.
07:14:00 1662 1663	 1492499640	 375022005	 165887.
07:14:00 1663 1664	 1492499640	 536992714	 161971.
07:14:00 1664 1665	 1492499640	 674577180	 137584.
07:14:00 1665 1666	 1492499640	 836508905	 161932.
07:14:00 1666 1667	 1492499640	 998399936	 161891.
07:14:01 1667 1668	 1492499641	 164342551	 165942.
07:14:01 1668 1669	 1492499641	 326340735	 161998.
07:14:01 1669 1670	 1492499641	 492255784	 165915.
07:14:01 1670 1671	 1492499641	 654044339	 161789.
07:14:01 1671 1672	 1492499641	 791219972	 137176.
07:14:01 1672 1673	 1492499641	 953141899	 161922.
07:14:02 1673 1674	 1492499642	 119178369	 166036.
07:14:02 1674 1675	 1492499642	 281103460	 161925.
07:14:02 1675 1676	 1492499642	 446853303	 165750.
07:14:02 1676 1677	 1492499642	 608705941	 161853.
07:14:02 1677 1678	 1492499642	 774888370	 166182.
07:14:02 1678 1679	 1492499642	 908060207	 133172.
07:14:03 1679 1680	 1492499643	 70230117	 162170.
07:14:03 1680 1681	 1492499643	 236228350	 165998.
07:14:03 1681 1682	 1492499643	 397944927	 161717.
07:14:03 1682 1683	 1492499643	 563972762	 166027.
07:14:03 1683 1684	 1492499643	 725740322	 161768.
07:14:03 1684 1685	 1492499643	 891614392	 165874.
07:14:04 1685 1686	 1492499644	 24923397	 133309.
07:14:04 1686 1687	 1492499644	 187025135	 162102.
07:14:04 1687 1688	 1492499644	 353088704	 166063.
07:14:04 1688 1689	 1492499644	 515114039	 162026.
07:14:04 1689 1690	 1492499644	 681063061	 165949.
07:14:04 1690 1691	 1492499644	 843226693	 162163.
07:14:05 1691 1692	 1492499645	 5369136	 162143.
07:14:05 1692 1693	 1492499645	 171393378	 166024.
07:14:05 1693 1694	 1492499645	 333438199	 162045.
07:14:05 1694 1695	 1492499645	 466648435	 133210.
07:14:05 1695 1696	 1492499645	 632468808	 165821.
07:14:05 1696 1697	 1492499645	 794223385	 161754.
07:14:05 1697 1698	 1492499645	 960015878	 165793.
07:14:06 1698 1699	 1492499646	 121845632	 161829.
07:14:06 1699 1700	 1492499646	 288001286	 166156.
07:14:06 1700 1701	 1492499646	 421152479	 133151.
07:14:06 1701 1702	 1492499646	 586967006	 165815.
07:14:06 1702 1703	 1492499646	 748734674	 161767.
07:14:06 1703 1704	 1492499646	 914699206	 165965.
07:14:07 1704 1705	 1492499647	 76693773	 161994.
07:14:07 1705 1706	 1492499647	 242851366	 166158.
07:14:07 1706 1707	 1492499647	 404906387	 162055.
07:14:07 1707 1708	 1492499647	 542327320	 137421.
07:14:07 1708 1709	 1492499647	 704430314	 162103.
07:14:07 1709 1710	 1492499647	 870377271	 165947.
07:14:08 1710 1711	 1492499648	 32196882	 161820.
07:14:08 1711 1712	 1492499648	 198064502	 165867.
07:14:08 1712 1713	 1492499648	 359967842	 161904.
07:14:08 1713 1714	 1492499648	 493121665	 133153.
07:14:08 1714 1715	 1492499648	 684292151	 191171.
07:14:08 1715 1716	 1492499648	 817569369	 133277.
07:14:08 1716 1717	 1492499648	 979443631	 161874.
07:14:09 1717 1718	 1492499649	 145386128	 165943.
07:14:09 1718 1719	 1492499649	 311258043	 165872.
07:14:09 1719 1720	 1492499649	 473185844	 161928.
07:14:09 1720 1721	 1492499649	 639266530	 166080.
07:14:09 1721 1722	 1492499649	 801327067	 162061.
07:14:09 1722 1723	 1492499649	 938612635	 137285.
07:14:10 1723 1724	 1492499650	 100552193	 161940.
07:14:10 1724 1725	 1492499650	 266602402	 166050.
07:14:10 1725 1726	 1492499650	 428409706	 161807.
07:14:10 1726 1727	 1492499650	 594279029	 165870.
07:14:10 1727 1728	 1492499650	 756073926	 161795.
07:14:10 1728 1729	 1492499650	 922128185	 166054.
07:14:11 1729 1730	 1492499651	 55329611	 133201.
07:14:11 1730 1731	 1492499651	 221376404	 166047.
07:14:11 1731 1732	 1492499651	 383598516	 162222.
07:14:11 1732 1733	 1492499651	 545563025	 161965.
07:14:11 1733 1734	 1492499651	 711582186	 166019.
07:14:11 1734 1735	 1492499651	 877499721	 165917.
07:14:12 1735 1736	 1492499652	 39533796	 162035.
07:14:12 1736 1737	 1492499652	 201637978	 162104.
07:14:12 1737 1738	 1492499652	 334931756	 133293.
07:14:12 1738 1739	 1492499652	 501145175	 166214.
07:14:12 1739 1740	 1492499652	 663136416	 161991.
07:14:12 1740 1741	 1492499652	 829008304	 165872.
07:14:12 1741 1742	 1492499652	 990872131	 161864.
07:14:13 1742 1743	 1492499653	 153045713	 162173.
07:14:13 1743 1744	 1492499653	 314885253	 161840.
07:14:13 1744 1745	 1492499653	 480918440	 166033.
07:14:13 1745 1746	 1492499653	 614009486	 133091.
07:14:13 1746 1747	 1492499653	 779884060	 165875.
07:14:13 1747 1748	 1492499653	 941917532	 162033.
07:14:14 1748 1749	 1492499654	 103913117	 161996.
07:14:14 1749 1750	 1492499654	 269808671	 165895.
07:14:14 1750 1751	 1492499654	 431650989	 161843.
07:14:14 1751 1752	 1492499654	 597612839	 165962.
07:14:14 1752 1753	 1492499654	 759402682	 161790.
07:14:14 1753 1754	 1492499654	 896637589	 137234.
07:14:15 1754 1755	 1492499655	 58504149	 161867.
07:14:15 1755 1756	 1492499655	 220444401	 161940.
07:14:15 1756 1757	 1492499655	 386448938	 166005.
07:14:15 1757 1758	 1492499655	 548290447	 161841.
07:14:15 1758 1759	 1492499655	 714199791	 165910.
07:14:15 1759 1760	 1492499655	 876012424	 161812.
07:14:16 1760 1761	 1492499656	 13140281	 137128.
07:14:16 1761 1762	 1492499656	 175095242	 161955.
07:14:16 1762 1763	 1492499656	 341056049	 165961.
07:14:16 1763 1764	 1492499656	 503116248	 162060.
07:14:16 1764 1765	 1492499656	 665071739	 161955.
07:14:16 1765 1766	 1492499656	 830887669	 165816.
07:14:16 1766 1767	 1492499656	 992881043	 161994.
07:14:17 1767 1768	 1492499657	 129978948	 137098.
07:14:17 1768 1769	 1492499657	 291787713	 161809.
07:14:17 1769 1770	 1492499657	 457999461	 166211.
07:14:17 1770 1771	 1492499657	 620001511	 162002.
07:14:17 1771 1772	 1492499657	 785904150	 165903.
07:14:17 1772 1773	 1492499657	 947872391	 161968.
07:14:18 1773 1774	 1492499658	 109774665	 161902.
07:14:18 1774 1775	 1492499658	 275537703	 165764.
07:14:18 1775 1776	 1492499658	 408893604	 133355.
07:14:18 1776 1777	 1492499658	 570707564	 161814.
07:14:18 1777 1778	 1492499658	 736743672	 166036.
07:14:18 1778 1779	 1492499658	 902483083	 165740.
07:14:19 1779 1780	 1492499659	 64457707	 161974.
07:14:19 1780 1781	 1492499659	 226337863	 161881.
07:14:19 1781 1782	 1492499659	 392355753	 166017.
07:14:19 1782 1783	 1492499659	 554269841	 161915.
07:14:19 1783 1784	 1492499659	 691349020	 137079.
07:14:19 1784 1785	 1492499659	 853393645	 162044.
07:14:20 1785 1786	 1492499660	 20382649	 166989.
07:14:20 1786 1787	 1492499660	 178281088	 157899.
07:14:20 1787 1788	 1492499660	 340118960	 161838.
07:14:20 1788 1789	 1492499660	 505975237	 165856.
07:14:20 1789 1790	 1492499660	 667832937	 161858.
07:14:20 1790 1791	 1492499660	 833701186	 165868.
07:14:20 1791 1792	 1492499660	 995569378	 161868.
07:14:21 1792 1793	 1492499661	 132678454	 137109.
07:14:21 1793 1794	 1492499661	 294454358	 161776.
07:14:21 1794 1795	 1492499661	 456382924	 161929.
07:14:21 1795 1796	 1492499661	 622252057	 165869.
07:14:21 1796 1797	 1492499661	 784071304	 161819.
07:14:21 1797 1798	 1492499661	 949991414	 165920.
07:14:22 1798 1799	 1492499662	 108427144	 158436.
07:14:22 1799 1800	 1492499662	 274231242	 165804.
07:14:22 1800 1801	 1492499662	 436026925	 161796.
07:14:22 1801 1802	 1492499662	 573337024	 137310.
07:14:22 1802 1803	 1492499662	 735140882	 161804.
07:14:22 1803 1804	 1492499662	 901174271	 166033.
07:14:23 1804 1805	 1492499663	 62994788	 161820.
07:14:23 1805 1806	 1492499663	 229250049	 166256.
07:14:23 1806 1807	 1492499663	 391102474	 161852.
07:14:23 1807 1808	 1492499663	 557058923	 165957.
07:14:23 1808 1809	 1492499663	 718841498	 161782.
07:14:23 1809 1810	 1492499663	 856157320	 137316.
07:14:24 1810 1811	 1492499664	 17914003	 161757.
07:14:24 1811 1812	 1492499664	 183883087	 165969.
07:14:24 1812 1813	 1492499664	 345673567	 161790.
07:14:24 1813 1814	 1492499664	 511463528	 165790.
07:14:24 1814 1815	 1492499664	 669552912	 158090.
07:14:24 1815 1816	 1492499664	 835341093	 165788.
07:14:24 1816 1817	 1492499664	 968438922	 133098.
07:14:25 1817 1818	 1492499665	 134406506	 165967.
07:14:25 1818 1819	 1492499665	 296132003	 161726.
07:14:25 1819 1820	 1492499665	 461884314	 165752.
07:14:25 1820 1821	 1492499665	 623837541	 161953.
07:14:25 1821 1822	 1492499665	 785799265	 161962.
07:14:25 1822 1823	 1492499665	 951767760	 165968.
07:14:26 1823 1824	 1492499666	 84970428	 133203.
07:14:26 1824 1825	 1492499666	 250809043	 165839.
07:14:26 1825 1826	 1492499666	 412771078	 161962.
07:14:26 1826 1827	 1492499666	 574552766	 161781.
07:14:26 1827 1828	 1492499666	 740563433	 166011.
07:14:26 1828 1829	 1492499666	 902429367	 161866.
07:14:27 1829 1830	 1492499667	 68505244	 166076.
07:14:27 1830 1831	 1492499667	 201683454	 133178.
07:14:27 1831 1832	 1492499667	 367763338	 166080.
07:14:27 1832 1833	 1492499667	 529831680	 162068.
07:14:27 1833 1834	 1492499667	 695820889	 165990.
07:14:27 1834 1835	 1492499667	 857748365	 161927.
07:14:28 1835 1836	 1492499668	 23790645	 166042.
07:14:28 1836 1837	 1492499668	 190031015	 166241.
07:14:28 1837 1838	 1492499668	 351816703	 161785.
07:14:28 1838 1839	 1492499668	 484881892	 133066.
07:14:28 1839 1840	 1492499668	 646570466	 161688.
07:14:28 1840 1841	 1492499668	 812539133	 165969.
07:14:28 1841 1842	 1492499668	 974755698	 162216.
07:14:29 1842 1843	 1492499669	 136658524	 161903.
07:14:29 1843 1844	 1492499669	 302447188	 165789.
07:14:29 1844 1845	 1492499669	 464353941	 161907.
07:14:29 1845 1846	 1492499669	 630280004	 165926.
07:14:29 1846 1847	 1492499669	 763421542	 133141.
07:14:29 1847 1848	 1492499669	 929280948	 165860.
07:14:30 1848 1849	 1492499670	 91120996	 161840.
07:14:30 1849 1850	 1492499670	 257194418	 166073.
07:14:30 1850 1851	 1492499670	 415199002	 158005.
07:14:30 1851 1852	 1492499670	 581067528	 165868.
07:14:30 1852 1853	 1492499670	 742822830	 161756.
07:14:30 1853 1854	 1492499670	 908767582	 165944.
07:14:31 1854 1855	 1492499671	 42029590	 133262.
07:14:31 1855 1856	 1492499671	 207971788	 165942.
07:14:31 1856 1857	 1492499671	 369883834	 161912.
07:14:31 1857 1858	 1492499671	 535771131	 165888.
07:14:31 1858 1859	 1492499671	 697727863	 161957.
07:14:31 1859 1860	 1492499671	 863612664	 165884.
07:14:32 1860 1861	 1492499672	 25297063	 161685.
07:14:32 1861 1862	 1492499672	 158344220	 133047.
07:14:32 1862 1863	 1492499672	 324334150	 165990.
07:14:32 1863 1864	 1492499672	 486170947	 161837.
07:14:32 1864 1865	 1492499672	 652031584	 165860.
07:14:32 1865 1866	 1492499672	 814013595	 161982.
07:14:32 1866 1867	 1492499672	 979770834	 165758.
07:14:33 1867 1868	 1492499673	 141699116	 161928.
07:14:33 1868 1869	 1492499673	 307620045	 165921.
07:14:33 1869 1870	 1492499673	 469733326	 162113.
07:14:33 1870 1871	 1492499673	 607088557	 137355.
07:14:33 1871 1872	 1492499673	 768984084	 161896.
07:14:33 1872 1873	 1492499673	 935025711	 166041.
07:14:34 1873 1874	 1492499674	 96835539	 161810.
07:14:34 1874 1875	 1492499674	 262843749	 166008.
07:14:34 1875 1876	 1492499674	 424754603	 161911.
07:14:34 1876 1877	 1492499674	 590883921	 166130.
07:14:34 1877 1878	 1492499674	 752823742	 161939.
07:14:34 1878 1879	 1492499674	 886012386	 133189.
