03:03:40    0 Step	 time(s)	 time(ns)	 delta(ms)
03:03:40    0 1	 1492743820	 955958275	 919.
03:03:41    1 2	 1492743821	 121733861	 165776.
03:03:41    2 3	 1492743821	 283283979	 161550.
03:03:41    3 4	 1492743821	 448916801	 165633.
03:03:41    4 5	 1492743821	 610717095	 161800.
03:03:41    5 6	 1492743821	 776564274	 165847.
03:03:41    6 7	 1492743821	 938165765	 161601.
03:03:42    7 8	 1492743822	 71238331	 133073.
03:03:42    8 9	 1492743822	 236896055	 165658.
03:03:42    9 10	 1492743822	 398589097	 161693.
03:03:42   10 11	 1492743822	 564347549	 165758.
03:03:42   11 12	 1492743822	 726072096	 161725.
03:03:42   12 13	 1492743822	 887671742	 161599.
03:03:43   13 14	 1492743823	 53368495	 165697.
03:03:43   14 15	 1492743823	 186437341	 133069.
03:03:43   15 16	 1492743823	 352494731	 166057.
03:03:43   16 17	 1492743823	 514082563	 161588.
03:03:43   17 18	 1492743823	 675722330	 161640.
03:03:43   18 19	 1492743823	 837435217	 161713.
03:03:43   19 20	 1492743824	 3155784	 165721.
03:03:44   20 21	 1492743824	 164749399	 161593.
03:03:44   21 22	 1492743824	 301890095	 137141.
03:03:44   22 23	 1492743824	 463784075	 161894.
03:03:44   23 24	 1492743824	 629391272	 165607.
03:03:44   24 25	 1492743824	 791001496	 161610.
03:03:44   25 26	 1492743824	 956786162	 165785.
03:03:45   26 27	 1492743825	 118629716	 161843.
03:03:45   27 28	 1492743825	 280241544	 161612.
03:03:45   28 29	 1492743825	 446134298	 165893.
03:03:45   29 30	 1492743825	 579144743	 133010.
03:03:45   30 31	 1492743825	 744891153	 165747.
03:03:45   31 32	 1492743825	 906691186	 161800.
03:03:46   32 33	 1492743826	 72642090	 165951.
03:03:46   33 34	 1492743826	 234105386	 161463.
03:03:46   34 35	 1492743826	 399734080	 165629.
03:03:46   35 36	 1492743826	 561622479	 161888.
03:03:46   36 37	 1492743826	 723354948	 161733.
03:03:46   37 38	 1492743826	 889218260	 165863.
03:03:47   38 39	 1492743827	 22284388	 133066.
03:03:47   39 40	 1492743827	 188066929	 165783.
03:03:47   40 41	 1492743827	 349750936	 161684.
03:03:47   41 42	 1492743827	 515507753	 165756.
03:03:47   42 43	 1492743827	 677193516	 161686.
03:03:47   43 44	 1492743827	 839060477	 161867.
03:03:48   44 45	 1492743828	 4778367	 165718.
03:03:48   45 46	 1492743828	 137902845	 133125.
03:03:48   46 47	 1492743828	 299534840	 161632.
03:03:48   47 48	 1492743828	 465426554	 165891.
03:03:48   48 49	 1492743828	 627166261	 161740.
03:03:48   49 50	 1492743828	 792754635	 165588.
03:03:48   50 51	 1492743828	 954454728	 161700.
03:03:49   51 52	 1492743829	 116285303	 161831.
03:03:49   52 53	 1492743829	 253360646	 137075.
03:03:49   53 54	 1492743829	 415034647	 161674.
03:03:49   54 55	 1492743829	 581063276	 166029.
03:03:49   55 56	 1492743829	 743139066	 162076.
03:03:49   56 57	 1492743829	 905010291	 161871.
03:03:50   57 58	 1492743830	 66782146	 161772.
03:03:50   58 59	 1492743830	 232631180	 165849.
03:03:50   59 60	 1492743830	 394384898	 161754.
03:03:50   60 61	 1492743830	 556148142	 161763.
03:03:50   61 62	 1492743830	 718380423	 162232.
03:03:50   62 63	 1492743830	 880310408	 161930.
03:03:51   63 64	 1492743831	 17594592	 137284.
03:03:51   64 65	 1492743831	 179409214	 161815.
03:03:51   65 66	 1492743831	 341180983	 161772.
03:03:51   66 67	 1492743831	 507078530	 165897.
03:03:51   67 68	 1492743831	 668795674	 161717.
03:03:51   68 69	 1492743831	 834641857	 165847.
03:03:51   69 70	 1492743831	 997274460	 162632.
03:03:52   70 71	 1492743832	 158856863	 161583.
03:03:52   71 72	 1492743832	 320629779	 161773.
03:03:52   72 73	 1492743832	 486456240	 165826.
03:03:52   73 74	 1492743832	 619637388	 133181.
03:03:52   74 75	 1492743832	 781422084	 161785.
03:03:52   75 76	 1492743832	 947418935	 165997.
03:03:53   76 77	 1492743833	 109367651	 161948.
03:03:53   77 78	 1492743833	 275238882	 165872.
03:03:53   78 79	 1492743833	 436975945	 161737.
03:03:53   79 80	 1492743833	 598829134	 161853.
03:03:53   80 81	 1492743833	 764690517	 165861.
03:03:53   81 82	 1492743833	 897775669	 133085.
03:03:54   82 83	 1492743834	 63732898	 165958.
03:03:54   83 84	 1492743834	 225797035	 162064.
03:03:54   84 85	 1492743834	 391728790	 165932.
03:03:54   85 86	 1492743834	 553723471	 161994.
03:03:54   86 87	 1492743834	 719593682	 165870.
03:03:54   87 88	 1492743834	 881239075	 161646.
03:03:55   88 89	 1492743835	 42859096	 161620.
03:03:55   89 90	 1492743835	 208702382	 165843.
03:03:55   90 91	 1492743835	 341704192	 133002.
03:03:55   91 92	 1492743835	 503310997	 161607.
03:03:55   92 93	 1492743835	 669127146	 165816.
03:03:55   93 94	 1492743835	 830826741	 161699.
03:03:55   94 95	 1492743835	 996743202	 165917.
03:03:56   95 96	 1492743836	 158526286	 161783.
03:03:56   96 97	 1492743836	 320020666	 161494.
03:03:56   97 98	 1492743836	 456913561	 136893.
03:03:56   98 99	 1492743836	 618365153	 161452.
03:03:56   99 100	 1492743836	 784213678	 165848.
03:03:56  100 101	 1492743836	 945835948	 161623.
03:03:57  101 102	 1492743837	 111648979	 165813.
03:03:57  102 103	 1492743837	 273220848	 161572.
03:03:57  103 104	 1492743837	 406133368	 132912.
03:03:57  104 105	 1492743837	 571766879	 165634.
03:03:57  105 106	 1492743837	 733375718	 161608.
03:03:57  106 107	 1492743837	 899138111	 165763.
03:03:58  107 108	 1492743838	 60755005	 161617.
03:03:58  108 109	 1492743838	 222336628	 161581.
03:03:58  109 110	 1492743838	 388094043	 165758.
03:03:58  110 111	 1492743838	 525266752	 137172.
03:03:58  111 112	 1492743838	 686902678	 161636.
03:03:58  112 113	 1492743838	 848448106	 161546.
03:03:59  113 114	 1492743839	 14246886	 165799.
03:03:59  114 115	 1492743839	 175801095	 161554.
03:03:59  115 116	 1492743839	 337465727	 161664.
03:03:59  116 117	 1492743839	 503102264	 165637.
03:03:59  117 118	 1492743839	 635975684	 132873.
03:03:59  118 119	 1492743839	 797886248	 161911.
03:03:59  119 120	 1492743839	 959574482	 161688.
03:04:00  120 121	 1492743840	 125253243	 165679.
03:04:00  121 122	 1492743840	 286896334	 161643.
03:04:00  122 123	 1492743840	 452483685	 165587.
03:04:00  123 124	 1492743840	 585504476	 133021.
03:04:00  124 125	 1492743840	 751280950	 165777.
03:04:00  125 126	 1492743840	 912927641	 161646.
03:04:01  126 127	 1492743841	 74707209	 161780.
03:04:01  127 128	 1492743841	 240349575	 165642.
03:04:01  128 129	 1492743841	 402140410	 161791.
03:04:01  129 130	 1492743841	 568173847	 166034.
03:04:01  130 131	 1492743841	 729944314	 161770.
03:04:01  131 132	 1492743841	 867036752	 137092.
03:04:02  132 133	 1492743842	 28897324	 161861.
03:04:02  133 134	 1492743842	 194834866	 165938.
03:04:02  134 135	 1492743842	 356682022	 161847.
03:04:02  135 136	 1492743842	 518462249	 161780.
03:04:02  136 137	 1492743842	 684221926	 165760.
03:04:02  137 138	 1492743842	 845993269	 161771.
03:04:03  138 139	 1492743843	 11780200	 165787.
03:04:03  139 140	 1492743843	 144816110	 133036.
03:04:03  140 141	 1492743843	 306718092	 161902.
03:04:03  141 142	 1492743843	 472846212	 166128.
03:04:03  142 143	 1492743843	 634571596	 161725.
03:04:03  143 144	 1492743843	 800616429	 166045.
03:04:03  144 145	 1492743843	 962405873	 161790.
03:04:04  145 146	 1492743844	 124250431	 161844.
03:04:04  146 147	 1492743844	 290448062	 166198.
03:04:04  147 148	 1492743844	 456470264	 166022.
03:04:04  148 149	 1492743844	 589555752	 133086.
03:04:04  149 150	 1492743844	 751414786	 161859.
03:04:04  150 151	 1492743844	 917139408	 165724.
03:04:05  151 152	 1492743845	 79061016	 161922.
03:04:05  152 153	 1492743845	 241163110	 162102.
03:04:05  153 154	 1492743845	 407178784	 166016.
03:04:05  154 155	 1492743845	 569041658	 161862.
03:04:05  155 156	 1492743845	 735071825	 166031.
03:04:05  156 157	 1492743845	 896937035	 161865.
03:04:06  157 158	 1492743846	 62794358	 165857.
03:04:06  158 159	 1492743846	 195918711	 133124.
03:04:06  159 160	 1492743846	 361886523	 165968.
03:04:06  160 161	 1492743846	 523783086	 161897.
03:04:06  161 162	 1492743846	 685644266	 161861.
03:04:06  162 163	 1492743846	 851388233	 165744.
03:04:07  163 164	 1492743847	 13297268	 161909.
03:04:07  164 165	 1492743847	 179342754	 166045.
03:04:07  165 166	 1492743847	 341117405	 161775.
03:04:07  166 167	 1492743847	 506953457	 165836.
03:04:07  167 168	 1492743847	 639910057	 132957.
03:04:07  168 169	 1492743847	 801630476	 161720.
03:04:07  169 170	 1492743847	 967471364	 165841.
03:04:08  170 171	 1492743848	 129344215	 161873.
03:04:08  171 172	 1492743848	 295111968	 165768.
03:04:08  172 173	 1492743848	 456956384	 161844.
03:04:08  173 174	 1492743848	 618989451	 162033.
03:04:08  174 175	 1492743848	 784838541	 165849.
03:04:08  175 176	 1492743848	 946953656	 162115.
03:04:09  176 177	 1492743849	 84433540	 137480.
03:04:09  177 178	 1492743849	 246276358	 161843.
03:04:09  178 179	 1492743849	 412321096	 166045.
03:04:09  179 180	 1492743849	 574305234	 161984.
03:04:09  180 181	 1492743849	 736168145	 161863.
03:04:09  181 182	 1492743849	 902054759	 165886.
03:04:10  182 183	 1492743850	 63862624	 161808.
03:04:10  183 184	 1492743850	 229801515	 165939.
03:04:10  184 185	 1492743850	 363059277	 133258.
03:04:10  185 186	 1492743850	 528822567	 165763.
03:04:10  186 187	 1492743850	 690474917	 161653.
03:04:10  187 188	 1492743850	 856457293	 165982.
03:04:11  188 189	 1492743851	 18430660	 161973.
03:04:11  189 190	 1492743851	 180252121	 161822.
03:04:11  190 191	 1492743851	 346026190	 165774.
03:04:11  191 192	 1492743851	 507654578	 161628.
03:04:11  192 193	 1492743851	 644915953	 137262.
03:04:11  193 194	 1492743851	 806818910	 161903.
03:04:11  194 195	 1492743851	 968434753	 161615.
03:04:12  195 196	 1492743852	 134350055	 165916.
03:04:12  196 197	 1492743852	 296026197	 161676.
03:04:12  197 198	 1492743852	 461738721	 165712.
03:04:12  198 199	 1492743852	 623577795	 161840.
03:04:12  199 200	 1492743852	 785332988	 161755.
03:04:12  200 201	 1492743852	 922486205	 137153.
03:04:13  201 202	 1492743853	 84290033	 161804.
03:04:13  202 203	 1492743853	 249986529	 165696.
03:04:13  203 204	 1492743853	 411571426	 161585.
03:04:13  204 205	 1492743853	 577103476	 165532.
03:04:13  205 206	 1492743853	 738667493	 161564.
03:04:13  206 207	 1492743853	 900315971	 161649.
03:04:14  207 208	 1492743854	 37898737	 137582.
03:04:14  208 209	 1492743854	 199839342	 161941.
03:04:14  209 210	 1492743854	 361718107	 161879.
03:04:14  210 211	 1492743854	 527279780	 165561.
03:04:14  211 212	 1492743854	 689030507	 161751.
03:04:14  212 213	 1492743854	 850730657	 161700.
03:04:15  213 214	 1492743855	 16606900	 165877.
03:04:15  214 215	 1492743855	 178382465	 161775.
03:04:15  215 216	 1492743855	 311300200	 132918.
03:04:15  216 217	 1492743855	 477115313	 165815.
03:04:15  217 218	 1492743855	 638756361	 161641.
03:04:15  218 219	 1492743855	 804524988	 165769.
03:04:15  219 220	 1492743855	 966165168	 161640.
03:04:16  220 221	 1492743856	 131887341	 165722.
03:04:16  221 222	 1492743856	 293406641	 161519.
03:04:16  222 223	 1492743856	 430320017	 136914.
03:04:16  223 224	 1492743856	 591720868	 161401.
03:04:16  224 225	 1492743856	 757183454	 165462.
03:04:16  225 226	 1492743856	 918707303	 161524.
03:04:17  226 227	 1492743857	 80604287	 161897.
03:04:17  227 228	 1492743857	 246334867	 165731.
03:04:17  228 229	 1492743857	 379283990	 132949.
03:04:17  229 230	 1492743857	 545130833	 165847.
03:04:17  230 231	 1492743857	 706487003	 161356.
03:04:17  231 232	 1492743857	 872133553	 165646.
03:04:18  232 233	 1492743858	 33818523	 161686.
03:04:18  233 234	 1492743858	 195275849	 161457.
03:04:18  234 235	 1492743858	 360988166	 165712.
03:04:18  235 236	 1492743858	 493975741	 132987.
03:04:18  236 237	 1492743858	 655588945	 161614.
03:04:18  237 238	 1492743858	 821419131	 165830.
03:04:18  238 239	 1492743858	 982976414	 161557.
03:04:19  239 240	 1492743859	 148567203	 165591.
03:04:19  240 241	 1492743859	 309996318	 161429.
03:04:19  241 242	 1492743859	 446792702	 136796.
03:04:19  242 243	 1492743859	 608276168	 161484.
03:04:19  243 244	 1492743859	 773705832	 165429.
03:04:19  244 245	 1492743859	 935004443	 161299.
03:04:20  245 246	 1492743860	 96789269	 161785.
03:04:20  246 247	 1492743860	 233578650	 136789.
03:04:20  247 248	 1492743860	 395155509	 161577.
03:04:20  248 249	 1492743860	 556783993	 161629.
03:04:20  249 250	 1492743860	 722488554	 165704.
03:04:20  250 251	 1492743860	 884091227	 161603.
03:04:21  251 252	 1492743861	 50025444	 165934.
03:04:21  252 253	 1492743861	 211946213	 161921.
03:04:21  253 254	 1492743861	 348850365	 136904.
03:04:21  254 255	 1492743861	 510327094	 161477.
03:04:21  255 256	 1492743861	 671876358	 161549.
03:04:21  256 257	 1492743861	 837540951	 165665.
03:04:21  257 258	 1492743861	 998842889	 161302.
03:04:22  258 259	 1492743862	 135780845	 136938.
03:04:22  259 260	 1492743862	 297218006	 161437.
03:04:22  260 261	 1492743862	 458856379	 161638.
03:04:22  261 262	 1492743862	 624389558	 165533.
03:04:22  262 263	 1492743862	 785948839	 161560.
03:04:22  263 264	 1492743862	 951571137	 165622.
03:04:23  264 265	 1492743863	 84613864	 133043.
03:04:23  265 266	 1492743863	 250256753	 165642.
03:04:23  266 267	 1492743863	 411925558	 161669.
03:04:23  267 268	 1492743863	 577749479	 165824.
03:04:23  268 269	 1492743863	 739407418	 161658.
03:04:23  269 270	 1492743863	 901105754	 161698.
03:04:24  270 271	 1492743864	 66732463	 165627.
03:04:24  271 272	 1492743864	 199574523	 132842.
03:04:24  272 273	 1492743864	 361161213	 161587.
03:04:24  273 274	 1492743864	 526889453	 165728.
03:04:24  274 275	 1492743864	 688641336	 161752.
03:04:24  275 276	 1492743864	 854341242	 165700.
03:04:25  276 277	 1492743865	 16229468	 161888.
03:04:25  277 278	 1492743865	 181863349	 165634.
03:04:25  278 279	 1492743865	 314801844	 132939.
03:04:25  279 280	 1492743865	 476473039	 161671.
03:04:25  280 281	 1492743865	 637862695	 161389.
03:04:25  281 282	 1492743865	 803414319	 165552.
03:04:25  282 283	 1492743865	 964981480	 161567.
03:04:26  283 284	 1492743866	 130958828	 165978.
03:04:26  284 285	 1492743866	 263852853	 132894.
03:04:26  285 286	 1492743866	 425417830	 161565.
03:04:26  286 287	 1492743866	 590923968	 165506.
03:04:26  287 288	 1492743866	 753457625	 162533.
03:04:26  288 289	 1492743866	 910971959	 157515.
03:04:27  289 290	 1492743867	 76612790	 165641.
03:04:27  290 291	 1492743867	 237993817	 161381.
03:04:27  291 292	 1492743867	 374809365	 136815.
03:04:27  292 293	 1492743867	 536042804	 161234.
03:04:27  293 294	 1492743867	 697369286	 161326.
03:04:27  294 295	 1492743867	 862680882	 165312.
03:04:28  295 296	 1492743868	 24225884	 161545.
03:04:28  296 297	 1492743868	 156844531	 132618.
03:04:28  297 298	 1492743868	 322128051	 165284.
03:04:28  298 299	 1492743868	 483570950	 161443.
03:04:28  299 300	 1492743868	 649109913	 165539.
03:04:28  300 301	 1492743868	 810598466	 161488.
03:04:28  301 302	 1492743868	 947341746	 136743.
03:04:29  302 303	 1492743869	 108824967	 161484.
03:04:29  303 304	 1492743869	 270208235	 161383.
03:04:29  304 305	 1492743869	 435684234	 165476.
03:04:29  305 306	 1492743869	 597370284	 161686.
03:04:29  306 307	 1492743869	 730168591	 132798.
03:04:29  307 308	 1492743869	 895846654	 165678.
03:04:30  308 309	 1492743870	 57422997	 161577.
03:04:30  309 310	 1492743870	 223018566	 165595.
03:04:30  310 311	 1492743870	 384500806	 161483.
03:04:30  311 312	 1492743870	 545934068	 161433.
03:04:30  312 313	 1492743870	 682798718	 136864.
03:04:30  313 314	 1492743870	 844257400	 161459.
03:04:31  314 315	 1492743871	 10001524	 165744.
03:04:31  315 316	 1492743871	 171668783	 161668.
03:04:31  316 317	 1492743871	 337179346	 165510.
03:04:31  317 318	 1492743871	 470203485	 133024.
03:04:31  318 319	 1492743871	 631650249	 161447.
03:04:31  319 320	 1492743871	 797267154	 165617.
03:04:31  320 321	 1492743871	 958751839	 161485.
03:04:32  321 322	 1492743872	 120343207	 161591.
03:04:32  322 323	 1492743872	 257272120	 136929.
03:04:32  323 324	 1492743872	 418738727	 161466.
03:04:32  324 325	 1492743872	 584569568	 165831.
03:04:32  325 326	 1492743872	 746272417	 161703.
03:04:32  326 327	 1492743872	 911833816	 165562.
03:04:33  327 328	 1492743873	 73283199	 161449.
03:04:33  328 329	 1492743873	 210226658	 136943.
03:04:33  329 330	 1492743873	 371960830	 161735.
03:04:33  330 331	 1492743873	 533510974	 161550.
03:04:33  331 332	 1492743873	 699131246	 165620.
03:04:33  332 333	 1492743873	 860771971	 161641.
03:04:34  333 334	 1492743874	 26370652	 165598.
03:04:34  334 335	 1492743874	 159237305	 132867.
03:04:34  335 336	 1492743874	 320710075	 161473.
03:04:34  336 337	 1492743874	 486366815	 165657.
03:04:34  337 338	 1492743874	 647939058	 161572.
03:04:34  338 339	 1492743874	 813645168	 165706.
03:04:34  339 340	 1492743874	 975272440	 161627.
03:04:35  340 341	 1492743875	 112375809	 137103.
03:04:35  341 342	 1492743875	 274200038	 161825.
03:04:35  342 343	 1492743875	 435702552	 161502.
03:04:35  343 344	 1492743875	 601406826	 165705.
03:04:35  344 345	 1492743875	 763282894	 161876.
03:04:35  345 346	 1492743875	 924738817	 161456.
03:04:36  346 347	 1492743876	 86167300	 161428.
03:04:36  347 348	 1492743876	 223184064	 137017.
03:04:36  348 349	 1492743876	 384723417	 161539.
03:04:36  349 350	 1492743876	 550448848	 165726.
03:04:36  350 351	 1492743876	 712145184	 161696.
03:04:36  351 352	 1492743876	 877895460	 165750.
03:04:37  352 353	 1492743877	 39600584	 161705.
03:04:37  353 354	 1492743877	 201667977	 162068.
03:04:37  354 355	 1492743877	 334556918	 132889.
03:04:37  355 356	 1492743877	 500238607	 165681.
03:04:37  356 357	 1492743877	 661874012	 161636.
03:04:37  357 358	 1492743877	 823225842	 161352.
03:04:37  358 359	 1492743877	 989556793	 166331.
03:04:38  359 360	 1492743878	 146902094	 157345.
03:04:38  360 361	 1492743878	 279610547	 132708.
03:04:38  361 362	 1492743878	 445098442	 165488.
03:04:38  362 363	 1492743878	 606525911	 161428.
03:04:38  363 364	 1492743878	 768156363	 161630.
03:04:38  364 365	 1492743878	 934013662	 165857.
03:04:39  365 366	 1492743879	 95435486	 161422.
03:04:39  366 367	 1492743879	 228527034	 133092.
03:04:39  367 368	 1492743879	 394112518	 165585.
03:04:39  368 369	 1492743879	 555618295	 161506.
03:04:39  369 370	 1492743879	 721334085	 165716.
03:04:39  370 371	 1492743879	 882718542	 161384.
03:04:40  371 372	 1492743880	 44172656	 161454.
03:04:40  372 373	 1492743880	 181158400	 136986.
03:04:40  373 374	 1492743880	 342868809	 161711.
03:04:40  374 375	 1492743880	 508416137	 165547.
03:04:40  375 376	 1492743880	 670111049	 161695.
03:04:40  376 377	 1492743880	 831530071	 161419.
03:04:40  377 378	 1492743880	 997065443	 165535.
03:04:41  378 379	 1492743881	 129924361	 132859.
03:04:41  379 380	 1492743881	 291234390	 161310.
03:04:41  380 381	 1492743881	 456988095	 165754.
03:04:41  381 382	 1492743881	 618502990	 161515.
03:04:41  382 383	 1492743881	 784301928	 165799.
03:04:41  383 384	 1492743881	 917303628	 133001.
03:04:42  384 385	 1492743882	 82950360	 165647.
03:04:42  385 386	 1492743882	 244550536	 161600.
03:04:42  386 387	 1492743882	 410337036	 165787.
03:04:42  387 388	 1492743882	 572100804	 161764.
03:04:42  388 389	 1492743882	 737944648	 165843.
03:04:42  389 390	 1492743882	 899713988	 161770.
03:04:43  390 391	 1492743883	 65807049	 166093.
03:04:43  391 392	 1492743883	 198751927	 132945.
03:04:43  392 393	 1492743883	 360275939	 161524.
03:04:43  393 394	 1492743883	 526043313	 165767.
03:04:43  394 395	 1492743883	 687528461	 161485.
03:04:43  395 396	 1492743883	 853178108	 165650.
03:04:44  396 397	 1492743884	 14816298	 161638.
03:04:44  397 398	 1492743884	 147768871	 132953.
03:04:44  398 399	 1492743884	 313288306	 165519.
03:04:44  399 400	 1492743884	 474959308	 161671.
03:04:44  400 401	 1492743884	 640852971	 165894.
03:04:44  401 402	 1492743884	 802456669	 161603.
03:04:44  402 403	 1492743884	 964392340	 161936.
03:04:45  403 404	 1492743885	 130115903	 165724.
03:04:45  404 405	 1492743885	 263182058	 133066.
03:04:45  405 406	 1492743885	 424976332	 161794.
03:04:45  406 407	 1492743885	 590817088	 165841.
03:04:45  407 408	 1492743885	 752464215	 161647.
03:04:45  408 409	 1492743885	 918088895	 165625.
03:04:46  409 410	 1492743886	 79730086	 161641.
03:04:46  410 411	 1492743886	 245567757	 165837.
03:04:46  411 412	 1492743886	 407336123	 161769.
03:04:46  412 413	 1492743886	 573113523	 165777.
03:04:46  413 414	 1492743886	 706201536	 133088.
03:04:46  414 415	 1492743886	 868020338	 161819.
03:04:47  415 416	 1492743887	 33819429	 165799.
03:04:47  416 417	 1492743887	 195952026	 162133.
03:04:47  417 418	 1492743887	 357936827	 161985.
03:04:47  418 419	 1492743887	 519788120	 161851.
03:04:47  419 420	 1492743887	 681439728	 161651.
03:04:47  420 421	 1492743887	 847235967	 165797.
03:04:48  421 422	 1492743888	 8904477	 161668.
03:04:48  422 423	 1492743888	 146038204	 137134.
03:04:48  423 424	 1492743888	 307788622	 161750.
03:04:48  424 425	 1492743888	 473574394	 165786.
03:04:48  425 426	 1492743888	 635168352	 161594.
03:04:48  426 427	 1492743888	 797099223	 161931.
03:04:48  427 428	 1492743888	 963023312	 165924.
03:04:49  428 429	 1492743889	 124911997	 161889.
03:04:49  429 430	 1492743889	 290683082	 165771.
03:04:49  430 431	 1492743889	 423760437	 133077.
03:04:49  431 432	 1492743889	 585633617	 161873.
03:04:49  432 433	 1492743889	 751474991	 165842.
03:04:49  433 434	 1492743889	 913296375	 161821.
03:04:50  434 435	 1492743890	 79341015	 166045.
03:04:50  435 436	 1492743890	 241226206	 161885.
03:04:50  436 437	 1492743890	 407166229	 165940.
03:04:50  437 438	 1492743890	 569077346	 161911.
03:04:50  438 439	 1492743890	 706261448	 137184.
03:04:50  439 440	 1492743890	 867984206	 161723.
03:04:51  440 441	 1492743891	 29761026	 161777.
03:04:51  441 442	 1492743891	 195753077	 165992.
03:04:51  442 443	 1492743891	 357685088	 161932.
03:04:51  443 444	 1492743891	 523456407	 165771.
03:04:51  444 445	 1492743891	 685346082	 161890.
03:04:51  445 446	 1492743891	 851264183	 165918.
03:04:51  446 447	 1492743891	 984427854	 133164.
03:04:52  447 448	 1492743892	 146301495	 161873.
03:04:52  448 449	 1492743892	 312173709	 165872.
03:04:52  449 450	 1492743892	 474031696	 161858.
03:04:52  450 451	 1492743892	 639945781	 165915.
03:04:52  451 452	 1492743892	 801935131	 161989.
03:04:52  452 453	 1492743892	 963830507	 161895.
03:04:53  453 454	 1492743893	 129759373	 165929.
03:04:53  454 455	 1492743893	 291708480	 161949.
03:04:53  455 456	 1492743893	 428931698	 137223.
03:04:53  456 457	 1492743893	 590805059	 161874.
03:04:53  457 458	 1492743893	 756762867	 165958.
03:04:53  458 459	 1492743893	 918511448	 161748.
03:04:54  459 460	 1492743894	 84429052	 165918.
03:04:54  460 461	 1492743894	 246277390	 161848.
03:04:54  461 462	 1492743894	 408325407	 162048.
03:04:54  462 463	 1492743894	 574367264	 166042.
03:04:54  463 464	 1492743894	 707497615	 133130.
03:04:54  464 465	 1492743894	 894583010	 187086.
03:04:55  465 466	 1492743895	 27843129	 133260.
03:04:55  466 467	 1492743895	 193625533	 165782.
03:04:55  467 468	 1492743895	 355514470	 161889.
03:04:55  468 469	 1492743895	 521572242	 166058.
03:04:55  469 470	 1492743895	 683596432	 162024.
03:04:55  470 471	 1492743895	 845480371	 161884.
03:04:56  471 472	 1492743896	 7417967	 161938.
03:04:56  472 473	 1492743896	 173369753	 165951.
03:04:56  473 474	 1492743896	 335247008	 161878.
03:04:56  474 475	 1492743896	 501219730	 165973.
03:04:56  475 476	 1492743896	 634373431	 133153.
03:04:56  476 477	 1492743896	 800307350	 165934.
03:04:56  477 478	 1492743896	 962361528	 162054.
03:04:57  478 479	 1492743897	 124322926	 161962.
03:04:57  479 480	 1492743897	 286048347	 161725.
03:04:57  480 481	 1492743897	 448006131	 161958.
03:04:57  481 482	 1492743897	 613698515	 165692.
03:04:57  482 483	 1492743897	 775688750	 161990.
03:04:57  483 484	 1492743897	 941432288	 165744.
03:04:58  484 485	 1492743898	 103413157	 161981.
03:04:58  485 486	 1492743898	 236611787	 133199.
03:04:58  486 487	 1492743898	 402614276	 166002.
03:04:58  487 488	 1492743898	 564542634	 161928.
03:04:58  488 489	 1492743898	 730374970	 165833.
03:04:58  489 490	 1492743898	 892067779	 161692.
03:04:59  490 491	 1492743899	 58022033	 165955.
03:04:59  491 492	 1492743899	 220084994	 162063.
03:04:59  492 493	 1492743899	 386014919	 165930.
03:04:59  493 494	 1492743899	 519220668	 133205.
03:04:59  494 495	 1492743899	 681160832	 161941.
03:04:59  495 496	 1492743899	 847236965	 166076.
03:05:00  496 497	 1492743900	 9065444	 161828.
03:05:00  497 498	 1492743900	 175090901	 166026.
03:05:00  498 499	 1492743900	 336878464	 161787.
03:05:00  499 500	 1492743900	 502840995	 165963.
03:05:00  500 501	 1492743900	 664614847	 161774.
03:05:00  501 502	 1492743900	 830469436	 165854.
03:05:00  502 503	 1492743900	 963562301	 133093.
03:05:01  503 504	 1492743901	 125357622	 161795.
03:05:01  504 505	 1492743901	 291289316	 165932.
03:05:01  505 506	 1492743901	 453097724	 161808.
03:05:01  506 507	 1492743901	 619206514	 166109.
03:05:01  507 508	 1492743901	 781051622	 161845.
03:05:01  508 509	 1492743901	 946908652	 165857.
03:05:02  509 510	 1492743902	 108776935	 161869.
03:05:02  510 511	 1492743902	 246031573	 137254.
03:05:02  511 512	 1492743902	 408086033	 162055.
03:05:02  512 513	 1492743902	 570185397	 162099.
03:05:02  513 514	 1492743902	 732178153	 161993.
03:05:02  514 515	 1492743902	 898068002	 165890.
03:05:03  515 516	 1492743903	 59853602	 161785.
03:05:03  516 517	 1492743903	 225752360	 165899.
03:05:03  517 518	 1492743903	 387528787	 161777.
03:05:03  518 519	 1492743903	 553342936	 165814.
03:05:03  519 520	 1492743903	 686557531	 133214.
03:05:03  520 521	 1492743903	 852344532	 165787.
03:05:04  521 522	 1492743904	 14134962	 161791.
03:05:04  522 523	 1492743904	 175891131	 161756.
03:05:04  523 524	 1492743904	 341731246	 165840.
03:05:04  524 525	 1492743904	 503473922	 161743.
03:05:04  525 526	 1492743904	 669257490	 165783.
03:05:04  526 527	 1492743904	 830877847	 161621.
03:05:04  527 528	 1492743904	 964019528	 133141.
03:05:05  528 529	 1492743905	 130076201	 166057.
03:05:05  529 530	 1492743905	 291756453	 161680.
03:05:05  530 531	 1492743905	 457558064	 165802.
03:05:05  531 532	 1492743905	 619207597	 161649.
03:05:05  532 533	 1492743905	 785134258	 165927.
03:05:05  533 534	 1492743905	 946867129	 161733.
03:05:06  534 535	 1492743906	 84074033	 137207.
03:05:06  535 536	 1492743906	 245938450	 161864.
03:05:06  536 537	 1492743906	 411899405	 165961.
03:05:06  537 538	 1492743906	 573467354	 161568.
03:05:06  538 539	 1492743906	 739170407	 165703.
03:05:06  539 540	 1492743906	 900996922	 161827.
03:05:07  540 541	 1492743907	 66764860	 165768.
03:05:07  541 542	 1492743907	 203980410	 137215.
03:05:07  542 543	 1492743907	 365654501	 161675.
03:05:07  543 544	 1492743907	 527457799	 161803.
03:05:07  544 545	 1492743907	 693362784	 165905.
03:05:07  545 546	 1492743907	 855260676	 161897.
03:05:08  546 547	 1492743908	 21277160	 166017.
03:05:08  547 548	 1492743908	 183037137	 161760.
03:05:08  548 549	 1492743908	 348919478	 165882.
03:05:08  549 550	 1492743908	 482023068	 133104.
03:05:08  550 551	 1492743908	 643951780	 161929.
03:05:08  551 552	 1492743908	 809998819	 166046.
03:05:08  552 553	 1492743908	 971950468	 161952.
03:05:09  553 554	 1492743909	 137778426	 165828.
03:05:09  554 555	 1492743909	 299733609	 161955.
03:05:09  555 556	 1492743909	 465680562	 165947.
03:05:09  556 557	 1492743909	 627587874	 161908.
03:05:09  557 558	 1492743909	 764838793	 137251.
03:05:09  558 559	 1492743909	 926667576	 161828.
03:05:10  559 560	 1492743910	 92400445	 165734.
03:05:10  560 561	 1492743910	 254183998	 161783.
03:05:10  561 562	 1492743910	 420218636	 166034.
03:05:10  562 563	 1492743910	 582150750	 161932.
03:05:10  563 564	 1492743910	 747962001	 165812.
03:05:10  564 565	 1492743910	 880975377	 133013.
03:05:11  565 566	 1492743911	 42780332	 161805.
03:05:11  566 567	 1492743911	 208532404	 165752.
03:05:11  567 568	 1492743911	 370343094	 161811.
03:05:11  568 569	 1492743911	 536200839	 165858.
03:05:11  569 570	 1492743911	 698061026	 161860.
03:05:11  570 571	 1492743911	 865017197	 166956.
03:05:12  571 572	 1492743912	 18662130	 153645.
03:05:12  572 573	 1492743912	 180675922	 162014.
03:05:12  573 574	 1492743912	 346523181	 165847.
03:05:12  574 575	 1492743912	 479638183	 133115.
03:05:12  575 576	 1492743912	 645643557	 166005.
03:05:12  576 577	 1492743912	 807439542	 161796.
03:05:12  577 578	 1492743912	 973400300	 165961.
03:05:13  578 579	 1492743913	 135360652	 161960.
03:05:13  579 580	 1492743913	 297379987	 162020.
03:05:13  580 581	 1492743913	 463414994	 166035.
03:05:13  581 582	 1492743913	 625191396	 161776.
03:05:13  582 583	 1492743913	 762365154	 137174.
03:05:13  583 584	 1492743913	 924109340	 161744.
03:05:14  584 585	 1492743914	 89959267	 165850.
03:05:14  585 586	 1492743914	 251746115	 161787.
03:05:14  586 587	 1492743914	 417529230	 165783.
03:05:14  587 588	 1492743914	 579258593	 161729.
03:05:14  588 589	 1492743914	 745335115	 166077.
03:05:14  589 590	 1492743914	 878482116	 133147.
03:05:15  590 591	 1492743915	 44367608	 165885.
03:05:15  591 592	 1492743915	 206199525	 161832.
03:05:15  592 593	 1492743915	 367964722	 161765.
03:05:15  593 594	 1492743915	 533794822	 165831.
03:05:15  594 595	 1492743915	 695617182	 161822.
03:05:15  595 596	 1492743915	 861478565	 165861.
03:05:16  596 597	 1492743916	 19579182	 158101.
03:05:16  597 598	 1492743916	 185444126	 165865.
03:05:16  598 599	 1492743916	 318602597	 133158.
03:05:16  599 600	 1492743916	 484331838	 165730.
03:05:16  600 601	 1492743916	 646297067	 161965.
03:05:16  601 602	 1492743916	 812073644	 165776.
03:05:16  602 603	 1492743916	 973936293	 161863.
03:05:17  603 604	 1492743917	 136135535	 162199.
03:05:17  604 605	 1492743917	 301918123	 165783.
03:05:17  605 606	 1492743917	 463854451	 161936.
03:05:17  606 607	 1492743917	 597053140	 133199.
03:05:17  607 608	 1492743917	 762845509	 165792.
03:05:17  608 609	 1492743917	 924722724	 161878.
03:05:18  609 610	 1492743918	 90540348	 165817.
03:05:18  610 611	 1492743918	 256375371	 165835.
03:05:18  611 612	 1492743918	 418324207	 161949.
03:05:18  612 613	 1492743918	 580126942	 161803.
03:05:18  613 614	 1492743918	 717250864	 137124.
03:05:18  614 615	 1492743918	 879111177	 161860.
03:05:19  615 616	 1492743919	 40970236	 161859.
03:05:19  616 617	 1492743919	 206811839	 165842.
03:05:19  617 618	 1492743919	 368904771	 162092.
03:05:19  618 619	 1492743919	 530831793	 161928.
03:05:19  619 620	 1492743919	 696612786	 165780.
03:05:19  620 621	 1492743919	 858400550	 161788.
03:05:20  621 622	 1492743920	 24268646	 165868.
03:05:20  622 623	 1492743920	 157297969	 133030.
03:05:20  623 624	 1492743920	 319096346	 161798.
03:05:20  624 625	 1492743920	 485145198	 166049.
03:05:20  625 626	 1492743920	 646930192	 161785.
03:05:20  626 627	 1492743920	 812666749	 165736.
03:05:20  627 628	 1492743920	 974669823	 162004.
03:05:21  628 629	 1492743921	 136526290	 161856.
03:05:21  629 630	 1492743921	 298489731	 161963.
03:05:21  630 631	 1492743921	 464269762	 165781.
03:05:21  631 632	 1492743921	 597506886	 133237.
03:05:21  632 633	 1492743921	 759127112	 161620.
03:05:21  633 634	 1492743921	 924829238	 165702.
03:05:22  634 635	 1492743922	 86569728	 161740.
03:05:22  635 636	 1492743922	 248462194	 161893.
03:05:22  636 637	 1492743922	 414296166	 165834.
03:05:22  637 638	 1492743922	 580100911	 165805.
03:05:22  638 639	 1492743922	 713169599	 133068.
03:05:22  639 640	 1492743922	 874911547	 161742.
03:05:23  640 641	 1492743923	 40841853	 165931.
03:05:23  641 642	 1492743923	 206868919	 166027.
03:05:23  642 643	 1492743923	 369088944	 162220.
03:05:23  643 644	 1492743923	 526828150	 157739.
03:05:23  644 645	 1492743923	 692744478	 165916.
03:05:23  645 646	 1492743923	 854540863	 161797.
03:05:24  646 647	 1492743924	 20464264	 165923.
03:05:24  647 648	 1492743924	 153471079	 133007.
03:05:24  648 649	 1492743924	 315195408	 161724.
03:05:24  649 650	 1492743924	 477262086	 162067.
03:05:24  650 651	 1492743924	 643043057	 165781.
03:05:24  651 652	 1492743924	 804854732	 161811.
03:05:24  652 653	 1492743924	 970799139	 165945.
03:05:25  653 654	 1492743925	 132645982	 161847.
03:05:25  654 655	 1492743925	 298281950	 165636.
03:05:25  655 656	 1492743925	 431395472	 133113.
03:05:25  656 657	 1492743925	 593210852	 161816.
03:05:25  657 658	 1492743925	 759041805	 165831.
03:05:25  658 659	 1492743925	 920663141	 161621.
03:05:26  659 660	 1492743926	 82844783	 162182.
03:05:26  660 661	 1492743926	 248700159	 165855.
03:05:26  661 662	 1492743926	 410569384	 161869.
03:05:26  662 663	 1492743926	 576270945	 165702.
03:05:26  663 664	 1492743926	 709376171	 133105.
03:05:26  664 665	 1492743926	 871082448	 161706.
03:05:27  665 666	 1492743927	 36992275	 165910.
03:05:27  666 667	 1492743927	 198676500	 161684.
03:05:27  667 668	 1492743927	 364799342	 166123.
03:05:27  668 669	 1492743927	 526598099	 161799.
03:05:27  669 670	 1492743927	 688377577	 161779.
03:05:27  670 671	 1492743927	 854195405	 165818.
03:05:28  671 672	 1492743928	 15943334	 161748.
03:05:28  672 673	 1492743928	 153132060	 137189.
03:05:28  673 674	 1492743928	 314904231	 161772.
03:05:28  674 675	 1492743928	 480809457	 165905.
03:05:28  675 676	 1492743928	 642673113	 161864.
03:05:28  676 677	 1492743928	 810275718	 167602.
03:05:28  677 678	 1492743928	 955787263	 145512.
03:05:29  678 679	 1492743929	 121648179	 165861.
03:05:29  679 680	 1492743929	 283626900	 161979.
03:05:29  680 681	 1492743929	 449431646	 165804.
03:05:29  681 682	 1492743929	 611241399	 161811.
03:05:29  682 683	 1492743929	 777220719	 165978.
03:05:29  683 684	 1492743929	 939015318	 161795.
03:05:30  684 685	 1492743930	 76211536	 137196.
03:05:30  685 686	 1492743930	 237972632	 161761.
03:05:30  686 687	 1492743930	 399910397	 161938.
03:05:30  687 688	 1492743930	 565931811	 166022.
03:05:30  688 689	 1492743930	 727805683	 161873.
03:05:30  689 690	 1492743930	 893761530	 165956.
03:05:31  690 691	 1492743931	 55625440	 161864.
03:05:31  691 692	 1492743931	 221591906	 165967.
03:05:31  692 693	 1492743931	 383416294	 161824.
03:05:31  693 694	 1492743931	 520527597	 137111.
03:05:31  694 695	 1492743931	 682332554	 161805.
03:05:31  695 696	 1492743931	 844025506	 161693.
03:05:32  696 697	 1492743932	 9774431	 165749.
03:05:32  697 698	 1492743932	 171557351	 161783.
03:05:32  698 699	 1492743932	 337423064	 165866.
03:05:32  699 700	 1492743932	 499238139	 161815.
03:05:32  700 701	 1492743932	 665045059	 165807.
03:05:32  701 702	 1492743932	 798146607	 133101.
03:05:32  702 703	 1492743932	 959836875	 161691.
03:05:33  703 704	 1492743933	 125811108	 165974.
03:05:33  704 705	 1492743933	 287510881	 161700.
03:05:33  705 706	 1492743933	 453320316	 165809.
03:05:33  706 707	 1492743933	 615138361	 161818.
03:05:33  707 708	 1492743933	 780978793	 165841.
03:05:33  708 709	 1492743933	 914105221	 133126.
03:05:34  709 710	 1492743934	 75984453	 161879.
03:05:34  710 711	 1492743934	 241653695	 165669.
03:05:34  711 712	 1492743934	 403341547	 161688.
03:05:34  712 713	 1492743934	 569060409	 165719.
03:05:34  713 714	 1492743934	 730733705	 161673.
03:05:34  714 715	 1492743934	 896475438	 165742.
03:05:35  715 716	 1492743935	 58271335	 161796.
03:05:35  716 717	 1492743935	 195324696	 137053.
03:05:35  717 718	 1492743935	 357118323	 161794.
03:05:35  718 719	 1492743935	 522988658	 165870.
03:05:35  719 720	 1492743935	 684706487	 161718.
03:05:35  720 721	 1492743935	 846336824	 161631.
03:05:36  721 722	 1492743936	 11972340	 165635.
03:05:36  722 723	 1492743936	 173593003	 161621.
03:05:36  723 724	 1492743936	 310798992	 137206.
03:05:36  724 725	 1492743936	 472485340	 161686.
03:05:36  725 726	 1492743936	 634304081	 161819.
03:05:36  726 727	 1492743936	 799975244	 165671.
03:05:36  727 728	 1492743936	 961643020	 161668.
03:05:37  728 729	 1492743937	 127564492	 165921.
03:05:37  729 730	 1492743937	 289441617	 161877.
03:05:37  730 731	 1492743937	 451733967	 162293.
03:05:37  731 732	 1492743937	 613477316	 161743.
03:05:37  732 733	 1492743937	 746595309	 133118.
03:05:37  733 734	 1492743937	 912422829	 165828.
03:05:38  734 735	 1492743938	 74083571	 161660.
03:05:38  735 736	 1492743938	 239837095	 165754.
03:05:38  736 737	 1492743938	 401700014	 161863.
03:05:38  737 738	 1492743938	 567271068	 165571.
03:05:38  738 739	 1492743938	 728869884	 161599.
03:05:38  739 740	 1492743938	 862127513	 133257.
03:05:39  740 741	 1492743939	 28020279	 165893.
03:05:39  741 742	 1492743939	 189843889	 161824.
03:05:39  742 743	 1492743939	 355693735	 165849.
03:05:39  743 744	 1492743939	 517529830	 161837.
03:05:39  744 745	 1492743939	 683605934	 166076.
03:05:39  745 746	 1492743939	 845413546	 161807.
03:05:40  746 747	 1492743940	 11321468	 165908.
03:05:40  747 748	 1492743940	 144467967	 133147.
03:05:40  748 749	 1492743940	 306242989	 161775.
03:05:40  749 750	 1492743940	 468319019	 162076.
03:05:40  750 751	 1492743940	 630000745	 161681.
03:05:40  751 752	 1492743940	 795868129	 165868.
03:05:40  752 753	 1492743940	 957590873	 161723.
03:05:41  753 754	 1492743941	 123492195	 165901.
03:05:41  754 755	 1492743941	 285109275	 161617.
03:05:41  755 756	 1492743941	 418143576	 133034.
03:05:41  756 757	 1492743941	 583872467	 165729.
03:05:41  757 758	 1492743941	 745367978	 161496.
03:05:41  758 759	 1492743941	 910938032	 165570.
03:05:42  759 760	 1492743942	 72634536	 161696.
03:05:42  760 761	 1492743942	 234039639	 161405.
03:05:42  761 762	 1492743942	 371042676	 137003.
03:05:42  762 763	 1492743942	 532550360	 161508.
03:05:42  763 764	 1492743942	 698204479	 165654.
03:05:42  764 765	 1492743942	 859786632	 161582.
03:05:43  765 766	 1492743943	 21417810	 161632.
03:05:43  766 767	 1492743943	 187018289	 165600.
03:05:43  767 768	 1492743943	 348989485	 161971.
03:05:43  768 769	 1492743943	 486245046	 137256.
03:05:43  769 770	 1492743943	 648125601	 161880.
03:05:43  770 771	 1492743943	 809882038	 161757.
03:05:43  771 772	 1492743943	 975621592	 165739.
03:05:44  772 773	 1492743944	 137388395	 161767.
03:05:44  773 774	 1492743944	 303294019	 165906.
03:05:44  774 775	 1492743944	 465003550	 161709.
03:05:44  775 776	 1492743944	 626782202	 161779.
03:05:44  776 777	 1492743944	 763851249	 137069.
03:05:44  777 778	 1492743944	 925619856	 161769.
03:05:45  778 779	 1492743945	 87563237	 161943.
03:05:45  779 780	 1492743945	 253419251	 165856.
03:05:45  780 781	 1492743945	 415467501	 162048.
03:05:45  781 782	 1492743945	 577734460	 162267.
03:05:45  782 783	 1492743945	 744147258	 166413.
03:05:45  783 784	 1492743945	 901572714	 157425.
03:05:46  784 785	 1492743946	 63365674	 161793.
03:05:46  785 786	 1492743946	 229107391	 165742.
03:05:46  786 787	 1492743946	 390900556	 161793.
03:05:46  787 788	 1492743946	 528166729	 137266.
03:05:46  788 789	 1492743946	 689872559	 161706.
03:05:46  789 790	 1492743946	 855661831	 165790.
03:05:47  790 791	 1492743947	 17424544	 161762.
03:05:47  791 792	 1492743947	 175682294	 158258.
03:05:47  792 793	 1492743947	 341408279	 165726.
03:05:47  793 794	 1492743947	 503286502	 161878.
03:05:47  794 795	 1492743947	 668921601	 165635.
03:05:47  795 796	 1492743947	 830791855	 161871.
03:05:47  796 797	 1492743947	 968075544	 137283.
03:05:48  797 798	 1492743948	 129994436	 161919.
03:05:48  798 799	 1492743948	 291695053	 161701.
03:05:48  799 800	 1492743948	 457388805	 165694.
03:05:48  800 801	 1492743948	 619126216	 161737.
03:05:48  801 802	 1492743948	 784923104	 165797.
03:05:48  802 803	 1492743948	 946585525	 161662.
03:05:49  803 804	 1492743949	 112290961	 165706.
03:05:49  804 805	 1492743949	 245367846	 133077.
03:05:49  805 806	 1492743949	 411088061	 165720.
03:05:49  806 807	 1492743949	 572850374	 161762.
03:05:49  807 808	 1492743949	 734474920	 161625.
03:05:49  808 809	 1492743949	 900202445	 165727.
03:05:50  809 810	 1492743950	 62204830	 162003.
03:05:50  810 811	 1492743950	 223896344	 161691.
03:05:50  811 812	 1492743950	 357064784	 133168.
03:05:50  812 813	 1492743950	 522694978	 165631.
03:05:50  813 814	 1492743950	 684306397	 161611.
03:05:50  814 815	 1492743950	 850050539	 165744.
03:05:51  815 816	 1492743951	 12046718	 161996.
03:05:51  816 817	 1492743951	 174408364	 162362.
03:05:51  817 818	 1492743951	 336235874	 161828.
03:05:51  818 819	 1492743951	 502149361	 165913.
03:05:51  819 820	 1492743951	 635102318	 132953.
03:05:51  820 821	 1492743951	 801002955	 165901.
03:05:51  821 822	 1492743951	 962749930	 161747.
03:05:52  822 823	 1492743952	 128593695	 165843.
03:05:52  823 824	 1492743952	 290314376	 161721.
03:05:52  824 825	 1492743952	 456248169	 165934.
03:05:52  825 826	 1492743952	 618129602	 161881.
03:05:52  826 827	 1492743952	 779897024	 161768.
03:05:52  827 828	 1492743952	 916997263	 137100.
03:05:53  828 829	 1492743953	 78810916	 161814.
03:05:53  829 830	 1492743953	 244624003	 165813.
03:05:53  830 831	 1492743953	 406331507	 161707.
03:05:53  831 832	 1492743953	 568153025	 161822.
03:05:53  832 833	 1492743953	 733956957	 165804.
03:05:53  833 834	 1492743953	 895677611	 161720.
03:05:54  834 835	 1492743954	 61351317	 165674.
03:05:54  835 836	 1492743954	 194322506	 132971.
03:05:54  836 837	 1492743954	 356047686	 161725.
03:05:54  837 838	 1492743954	 521771472	 165724.
03:05:54  838 839	 1492743954	 683198350	 161427.
03:05:54  839 840	 1492743954	 848886045	 165688.
03:05:55  840 841	 1492743955	 10554197	 161668.
03:05:55  841 842	 1492743955	 176524951	 165971.
03:05:55  842 843	 1492743955	 338316381	 161791.
03:05:55  843 844	 1492743955	 471431626	 133115.
03:05:55  844 845	 1492743955	 662323552	 190892.
03:05:55  845 846	 1492743955	 795474484	 133151.
03:05:55  846 847	 1492743955	 957392376	 161918.
03:05:56  847 848	 1492743956	 119397911	 162006.
03:05:56  848 849	 1492743956	 285211214	 165813.
03:05:56  849 850	 1492743956	 446890250	 161679.
03:05:56  850 851	 1492743956	 608742313	 161852.
03:05:56  851 852	 1492743956	 774443454	 165701.
03:05:56  852 853	 1492743956	 936155908	 161713.
03:05:57  853 854	 1492743957	 102416920	 166261.
03:05:57  854 855	 1492743957	 260043939	 157627.
03:05:57  855 856	 1492743957	 396987889	 136944.
03:05:57  856 857	 1492743957	 558592228	 161604.
03:05:57  857 858	 1492743957	 720346398	 161754.
03:05:57  858 859	 1492743957	 886090820	 165745.
03:05:58  859 860	 1492743958	 47782577	 161692.
03:05:58  860 861	 1492743958	 213487580	 165704.
03:05:58  861 862	 1492743958	 375337308	 161850.
03:05:58  862 863	 1492743958	 512323011	 136986.
03:05:58  863 864	 1492743958	 674118580	 161795.
03:05:58  864 865	 1492743958	 839991301	 165873.
03:05:58  865 866	 1492743959	 1797849	 161807.
03:05:59  866 867	 1492743959	 163549455	 161751.
03:05:59  867 868	 1492743959	 329461128	 165912.
03:05:59  868 869	 1492743959	 491315949	 161855.
03:05:59  869 870	 1492743959	 628184701	 136868.
03:05:59  870 871	 1492743959	 789810220	 161626.
03:05:59  871 872	 1492743959	 955546248	 165736.
03:06:00  872 873	 1492743960	 117305956	 161760.
03:06:00  873 874	 1492743960	 279111124	 161805.
03:06:00  874 875	 1492743960	 445519673	 166408.
03:06:00  875 876	 1492743960	 603449283	 157930.
03:06:00  876 877	 1492743960	 765165315	 161716.
03:06:00  877 878	 1492743960	 926809053	 161644.
03:06:01  878 879	 1492743961	 92764630	 165955.
03:06:01  879 880	 1492743961	 225909844	 133146.
03:06:01  880 881	 1492743961	 387787958	 161878.
03:06:01  881 882	 1492743961	 553802330	 166014.
03:06:01  882 883	 1492743961	 711932108	 158130.
03:06:01  883 884	 1492743961	 877900509	 165968.
03:06:02  884 885	 1492743962	 39700361	 161800.
03:06:02  885 886	 1492743962	 205570106	 165870.
03:06:02  886 887	 1492743962	 367355021	 161785.
03:06:02  887 888	 1492743962	 504448180	 137093.
03:06:02  888 889	 1492743962	 666386660	 161938.
03:06:02  889 890	 1492743962	 828675921	 162290.
03:06:02  890 891	 1492743962	 990525550	 161849.
03:06:03  891 892	 1492743963	 156386936	 165862.
03:06:03  892 893	 1492743963	 318364819	 161978.
03:06:03  893 894	 1492743963	 480382999	 162018.
03:06:03  894 895	 1492743963	 646382991	 166000.
03:06:03  895 896	 1492743963	 808372691	 161989.
03:06:03  896 897	 1492743963	 974098741	 165726.
03:06:04  897 898	 1492743964	 107500161	 133402.
03:06:04  898 899	 1492743964	 273493970	 165994.
03:06:04  899 900	 1492743964	 435296693	 161802.
03:06:04  900 901	 1492743964	 601191121	 165895.
03:06:04  901 902	 1492743964	 763207010	 162016.
03:06:04  902 903	 1492743964	 925063159	 161856.
03:06:05  903 904	 1492743965	 90894621	 165831.
03:06:05  904 905	 1492743965	 252767726	 161873.
03:06:05  905 906	 1492743965	 418869368	 166102.
03:06:05  906 907	 1492743965	 552059946	 133191.
03:06:05  907 908	 1492743965	 717987780	 165928.
03:06:05  908 909	 1492743965	 879834568	 161846.
03:06:06  909 910	 1492743966	 41548960	 161715.
03:06:06  910 911	 1492743966	 207543879	 165995.
03:06:06  911 912	 1492743966	 369662088	 162118.
03:06:06  912 913	 1492743966	 531583699	 161922.
03:06:06  913 914	 1492743966	 697366729	 165782.
03:06:06  914 915	 1492743966	 859079570	 161713.
03:06:06  915 916	 1492743966	 992300801	 133222.
03:06:07  916 917	 1492743967	 158128134	 165827.
03:06:07  917 918	 1492743967	 320108528	 161980.
03:06:07  918 919	 1492743967	 486140597	 166032.
03:06:07  919 920	 1492743967	 647872679	 161733.
03:06:07  920 921	 1492743967	 809673577	 161800.
03:06:07  921 922	 1492743967	 975619588	 165946.
03:06:08  922 923	 1492743968	 137698661	 162079.
03:06:08  923 924	 1492743968	 275207174	 137509.
03:06:08  924 925	 1492743968	 437186236	 161979.
03:06:08  925 926	 1492743968	 603080067	 165894.
03:06:08  926 927	 1492743968	 764965267	 161885.
03:06:08  927 928	 1492743968	 931088112	 166123.
03:06:09  928 929	 1492743969	 93065892	 161978.
03:06:09  929 930	 1492743969	 254981061	 161915.
03:06:09  930 931	 1492743969	 416545699	 161564.
03:06:09  931 932	 1492743969	 582386570	 165841.
03:06:09  932 933	 1492743969	 744126829	 161741.
03:06:09  933 934	 1492743969	 877079886	 132953.
03:06:10  934 935	 1492743970	 43206364	 166126.
03:06:10  935 936	 1492743970	 205059273	 161853.
03:06:10  936 937	 1492743970	 371110899	 166052.
03:06:10  937 938	 1492743970	 532874609	 161763.
03:06:10  938 939	 1492743970	 694806718	 161932.
03:06:10  939 940	 1492743970	 856620740	 161814.
03:06:11  940 941	 1492743971	 22253405	 165633.
03:06:11  941 942	 1492743971	 155234681	 132981.
03:06:11  942 943	 1492743971	 320991548	 165757.
03:06:11  943 944	 1492743971	 482906298	 161915.
03:06:11  944 945	 1492743971	 644741209	 161835.
03:06:11  945 946	 1492743971	 810918457	 166177.
03:06:11  946 947	 1492743971	 972687610	 161769.
03:06:12  947 948	 1492743972	 138499556	 165812.
03:06:12  948 949	 1492743972	 300285048	 161786.
03:06:12  949 950	 1492743972	 433404900	 133120.
03:06:12  950 951	 1492743972	 599154425	 165749.
03:06:12  951 952	 1492743972	 760854902	 161701.
03:06:12  952 953	 1492743972	 922647244	 161792.
03:06:13  953 954	 1492743973	 88615054	 165968.
03:06:13  954 955	 1492743973	 250420462	 161805.
03:06:13  955 956	 1492743973	 412109789	 161690.
03:06:13  956 957	 1492743973	 578215120	 166105.
03:06:13  957 958	 1492743973	 711278242	 133063.
03:06:13  958 959	 1492743973	 873024314	 161746.
03:06:14  959 960	 1492743974	 39053964	 166030.
03:06:14  960 961	 1492743974	 200715371	 161661.
03:06:14  961 962	 1492743974	 366568993	 165854.
03:06:14  962 963	 1492743974	 521080379	 154511.
03:06:14  963 964	 1492743974	 686965933	 165886.
03:06:14  964 965	 1492743974	 848871840	 161906.
03:06:15  965 966	 1492743975	 14846495	 165974.
03:06:15  966 967	 1492743975	 176702429	 161856.
03:06:15  967 968	 1492743975	 342461333	 165759.
03:06:15  968 969	 1492743975	 475521092	 133060.
03:06:15  969 970	 1492743975	 637141235	 161620.
03:06:15  970 971	 1492743975	 802662797	 165522.
03:06:15  971 972	 1492743975	 960849735	 158186.
03:06:16  972 973	 1492743976	 122659225	 161810.
03:06:16  973 974	 1492743976	 288267864	 165609.
03:06:16  974 975	 1492743976	 449985097	 161717.
03:06:16  975 976	 1492743976	 615575945	 165591.
03:06:16  976 977	 1492743976	 748507052	 132931.
03:06:16  977 978	 1492743976	 909954371	 161447.
03:06:17  978 979	 1492743977	 71701441	 161747.
03:06:17  979 980	 1492743977	 237479661	 165778.
03:06:17  980 981	 1492743977	 399282989	 161804.
03:06:17  981 982	 1492743977	 564914904	 165632.
03:06:17  982 983	 1492743977	 726681211	 161766.
03:06:17  983 984	 1492743977	 888378164	 161697.
03:06:18  984 985	 1492743978	 25558895	 137181.
03:06:18  985 986	 1492743978	 187455039	 161896.
03:06:18  986 987	 1492743978	 345825206	 158370.
03:06:18  987 988	 1492743978	 507441196	 161616.
03:06:18  988 989	 1492743978	 673090950	 165650.
03:06:18  989 990	 1492743978	 834817238	 161726.
03:06:18  990 991	 1492743979	 1085088	 166268.
03:06:19  991 992	 1492743979	 158814810	 157730.
03:06:19  992 993	 1492743979	 324560705	 165745.
03:06:19  993 994	 1492743979	 486438123	 161878.
03:06:19  994 995	 1492743979	 652231564	 165793.
03:06:19  995 996	 1492743979	 814312198	 162081.
03:06:19  996 997	 1492743979	 947398026	 133086.
03:06:20  997 998	 1492743980	 109115757	 161717.
03:06:20  998 999	 1492743980	 274858725	 165743.
03:06:20  999 1000	 1492743980	 436635143	 161777.
03:06:20 1000 1001	 1492743980	 598289951	 161655.
03:06:20 1001 1002	 1492743980	 764116913	 165827.
03:06:20 1002 1003	 1492743980	 925884660	 161767.
03:06:21 1003 1004	 1492743981	 59024980	 133141.
03:06:21 1004 1005	 1492743981	 224976250	 165951.
03:06:21 1005 1006	 1492743981	 386717808	 161741.
03:06:21 1006 1007	 1492743981	 552629093	 165912.
03:06:21 1007 1008	 1492743981	 714182040	 161553.
03:06:21 1008 1009	 1492743981	 880149719	 165967.
03:06:22 1009 1010	 1492743982	 41940372	 161791.
03:06:22 1010 1011	 1492743982	 203785907	 161846.
03:06:22 1011 1012	 1492743982	 365387613	 161601.
03:06:22 1012 1013	 1492743982	 502662074	 137275.
03:06:22 1013 1014	 1492743982	 664287353	 161625.
03:06:22 1014 1015	 1492743982	 829937403	 165650.
03:06:22 1015 1016	 1492743982	 991580541	 161643.
03:06:23 1016 1017	 1492743983	 153500180	 161920.
03:06:23 1017 1018	 1492743983	 315250352	 161750.
03:06:23 1018 1019	 1492743983	 481033543	 165783.
03:06:23 1019 1020	 1492743983	 642886334	 161853.
03:06:23 1020 1021	 1492743983	 780117790	 137232.
03:06:23 1021 1022	 1492743983	 941845885	 161728.
03:06:24 1022 1023	 1492743984	 100027647	 158182.
03:06:24 1023 1024	 1492743984	 265901501	 165873.
03:06:24 1024 1025	 1492743984	 427742620	 161841.
03:06:24 1025 1026	 1492743984	 589316902	 161575.
03:06:24 1026 1027	 1492743984	 755000971	 165684.
03:06:24 1027 1028	 1492743984	 916793090	 161792.
03:06:25 1028 1029	 1492743985	 82809247	 166016.
03:06:25 1029 1030	 1492743985	 215899303	 133090.
03:06:25 1030 1031	 1492743985	 377687616	 161788.
03:06:25 1031 1032	 1492743985	 543709786	 166022.
03:06:25 1032 1033	 1492743985	 705490677	 161781.
03:06:25 1033 1034	 1492743985	 871190153	 165700.
03:06:26 1034 1035	 1492743986	 32943622	 161753.
03:06:26 1035 1036	 1492743986	 198724791	 165782.
03:06:26 1036 1037	 1492743986	 331754671	 133029.
03:06:26 1037 1038	 1492743986	 522844771	 191091.
03:06:26 1038 1039	 1492743986	 655798262	 132953.
03:06:26 1039 1040	 1492743986	 817830816	 162033.
03:06:26 1040 1041	 1492743986	 979574465	 161743.
03:06:27 1041 1042	 1492743987	 145314160	 165740.
03:06:27 1042 1043	 1492743987	 307258806	 161945.
03:06:27 1043 1044	 1492743987	 469098778	 161840.
03:06:27 1044 1045	 1492743987	 634872755	 165773.
03:06:27 1045 1046	 1492743987	 796875344	 162003.
03:06:27 1046 1047	 1492743987	 958564424	 161689.
03:06:28 1047 1048	 1492743988	 91471495	 132907.
03:06:28 1048 1049	 1492743988	 257397443	 165926.
03:06:28 1049 1050	 1492743988	 419145656	 161748.
03:06:28 1050 1051	 1492743988	 580731584	 161586.
03:06:28 1051 1052	 1492743988	 746476323	 165745.
03:06:28 1052 1053	 1492743988	 908490200	 162014.
03:06:29 1053 1054	 1492743989	 66626562	 158136.
03:06:29 1054 1055	 1492743989	 232604228	 165978.
03:06:29 1055 1056	 1492743989	 394309803	 161706.
03:06:29 1056 1057	 1492743989	 560044802	 165735.
03:06:29 1057 1058	 1492743989	 693261969	 133217.
03:06:29 1058 1059	 1492743989	 854895597	 161633.
03:06:30 1059 1060	 1492743990	 20746763	 165851.
03:06:30 1060 1061	 1492743990	 182502708	 161756.
03:06:30 1061 1062	 1492743990	 348427267	 165925.
03:06:30 1062 1063	 1492743990	 510180211	 161753.
03:06:30 1063 1064	 1492743990	 675822684	 165642.
03:06:30 1064 1065	 1492743990	 837747389	 161925.
03:06:31 1065 1066	 1492743991	 7632184	 169885.
03:06:31 1066 1067	 1492743991	 136662669	 129030.
03:06:31 1067 1068	 1492743991	 298259038	 161597.
03:06:31 1068 1069	 1492743991	 464002036	 165743.
03:06:31 1069 1070	 1492743991	 625619285	 161617.
03:06:31 1070 1071	 1492743991	 791326550	 165707.
03:06:31 1071 1072	 1492743991	 952960562	 161634.
03:06:32 1072 1073	 1492743992	 118566248	 165606.
03:06:32 1073 1074	 1492743992	 280237823	 161672.
03:06:32 1074 1075	 1492743992	 413400692	 133162.
03:06:32 1075 1076	 1492743992	 579296244	 165896.
03:06:32 1076 1077	 1492743992	 741281995	 161986.
03:06:32 1077 1078	 1492743992	 903002629	 161720.
03:06:33 1078 1079	 1492743993	 64984484	 161982.
03:06:33 1079 1080	 1492743993	 226891828	 161908.
03:06:33 1080 1081	 1492743993	 388781491	 161889.
03:06:33 1081 1082	 1492743993	 550358154	 161577.
03:06:33 1082 1083	 1492743993	 712000053	 161642.
03:06:33 1083 1084	 1492743993	 845082721	 133082.
03:06:34 1084 1085	 1492743994	 10786922	 165705.
03:06:34 1085 1086	 1492743994	 172418113	 161631.
03:06:34 1086 1087	 1492743994	 338286670	 165868.
03:06:34 1087 1088	 1492743994	 500008528	 161722.
03:06:34 1088 1089	 1492743994	 661973538	 161965.
03:06:34 1089 1090	 1492743994	 827741540	 165768.
03:06:34 1090 1091	 1492743994	 989236008	 161495.
03:06:35 1091 1092	 1492743995	 122004558	 132768.
03:06:35 1092 1093	 1492743995	 287847299	 165843.
03:06:35 1093 1094	 1492743995	 449616135	 161769.
03:06:35 1094 1095	 1492743995	 611645621	 162029.
03:06:35 1095 1096	 1492743995	 777464834	 165820.
03:06:35 1096 1097	 1492743995	 939011469	 161546.
03:06:36 1097 1098	 1492743996	 104758536	 165747.
03:06:36 1098 1099	 1492743996	 237750855	 132993.
03:06:36 1099 1100	 1492743996	 403330531	 165579.
03:06:36 1100 1101	 1492743996	 564936367	 161606.
03:06:36 1101 1102	 1492743996	 726644252	 161708.
03:06:36 1102 1103	 1492743996	 892213304	 165569.
03:06:37 1103 1104	 1492743997	 53672131	 161459.
03:06:37 1104 1105	 1492743997	 186579332	 132907.
03:06:37 1105 1106	 1492743997	 352257781	 165679.
03:06:37 1106 1107	 1492743997	 514208871	 161951.
03:06:37 1107 1108	 1492743997	 679896221	 165687.
03:06:37 1108 1109	 1492743997	 841494344	 161598.
03:06:38 1109 1110	 1492743998	 3482793	 161989.
03:06:38 1110 1111	 1492743998	 165167712	 161684.
03:06:38 1111 1112	 1492743998	 330479723	 165313.
03:06:38 1112 1113	 1492743998	 463499701	 133019.
03:06:38 1113 1114	 1492743998	 629105630	 165606.
03:06:38 1114 1115	 1492743998	 790669045	 161564.
03:06:38 1115 1116	 1492743998	 956245856	 165577.
03:06:39 1116 1117	 1492743999	 117775158	 161529.
03:06:39 1117 1118	 1492743999	 279375454	 161600.
03:06:39 1118 1119	 1492743999	 416381587	 137006.
03:06:39 1119 1120	 1492743999	 578067742	 161686.
03:06:39 1120 1121	 1492743999	 743731431	 165664.
03:06:39 1121 1122	 1492743999	 905277617	 161546.
03:06:40 1122 1123	 1492744000	 71092622	 165815.
03:06:40 1123 1124	 1492744000	 232788832	 161697.
03:06:40 1124 1125	 1492744000	 390803404	 158014.
03:06:40 1125 1126	 1492744000	 527811715	 137008.
03:06:40 1126 1127	 1492744000	 689438897	 161628.
03:06:40 1127 1128	 1492744000	 854937624	 165498.
03:06:41 1128 1129	 1492744001	 16670945	 161734.
03:06:41 1129 1130	 1492744001	 178368863	 161698.
03:06:41 1130 1131	 1492744001	 344193570	 165824.
03:06:41 1131 1132	 1492744001	 505941182	 161748.
03:06:41 1132 1133	 1492744001	 667621537	 161680.
03:06:41 1133 1134	 1492744001	 804633755	 137012.
03:06:41 1134 1135	 1492744001	 966110282	 161477.
03:06:42 1135 1136	 1492744002	 131694931	 165585.
03:06:42 1136 1137	 1492744002	 293340018	 161645.
03:06:42 1137 1138	 1492744002	 454967898	 161628.
03:06:42 1138 1139	 1492744002	 620682720	 165714.
03:06:42 1139 1140	 1492744002	 753856959	 133175.
03:06:42 1140 1141	 1492744002	 919556299	 165699.
03:06:43 1141 1142	 1492744003	 81323938	 161768.
03:06:43 1142 1143	 1492744003	 243131418	 161807.
03:06:43 1143 1144	 1492744003	 405002940	 161872.
03:06:43 1144 1145	 1492744003	 570791687	 165788.
03:06:43 1145 1146	 1492744003	 732523457	 161732.
03:06:43 1146 1147	 1492744003	 898062399	 165539.
03:06:44 1147 1148	 1492744004	 31035772	 132973.
03:06:44 1148 1149	 1492744004	 196781656	 165746.
03:06:44 1149 1150	 1492744004	 358444942	 161664.
03:06:44 1150 1151	 1492744004	 520278116	 161833.
03:06:44 1151 1152	 1492744004	 686045423	 165767.
03:06:44 1152 1153	 1492744004	 847663594	 161618.
03:06:45 1153 1154	 1492744005	 9451814	 161789.
03:06:45 1154 1155	 1492744005	 146465426	 137013.
03:06:45 1155 1156	 1492744005	 308219825	 161755.
03:06:45 1156 1157	 1492744005	 473972344	 165752.
03:06:45 1157 1158	 1492744005	 635658096	 161686.
03:06:45 1158 1159	 1492744005	 797437109	 161779.
03:06:45 1159 1160	 1492744005	 959137696	 161700.
03:06:46 1160 1161	 1492744006	 124903967	 165767.
03:06:46 1161 1162	 1492744006	 257946614	 133042.
03:06:46 1162 1163	 1492744006	 423962031	 166016.
03:06:46 1163 1164	 1492744006	 585565221	 161603.
03:06:46 1164 1165	 1492744006	 747329757	 161764.
03:06:46 1165 1166	 1492744006	 913135140	 165806.
03:06:47 1166 1167	 1492744007	 74829196	 161694.
03:06:47 1167 1168	 1492744007	 240679147	 165850.
03:06:47 1168 1169	 1492744007	 402402888	 161724.
03:06:47 1169 1170	 1492744007	 535404618	 133001.
03:06:47 1170 1171	 1492744007	 701392110	 165988.
03:06:47 1171 1172	 1492744007	 884877251	 183485.
03:06:48 1172 1173	 1492744008	 18178295	 133301.
03:06:48 1173 1174	 1492744008	 184096537	 165918.
03:06:48 1174 1175	 1492744008	 345971816	 161875.
03:06:48 1175 1176	 1492744008	 511900165	 165929.
03:06:48 1176 1177	 1492744008	 673515825	 161616.
03:06:48 1177 1178	 1492744008	 835296863	 161781.
03:06:48 1178 1179	 1492744009	 1263963	 165967.
03:06:49 1179 1180	 1492744009	 162951475	 161687.
03:06:49 1180 1181	 1492744009	 328749998	 165799.
03:06:49 1181 1182	 1492744009	 461670701	 132920.
03:06:49 1182 1183	 1492744009	 627422980	 165753.
03:06:49 1183 1184	 1492744009	 789151457	 161728.
03:06:49 1184 1185	 1492744009	 950859829	 161709.
03:06:50 1185 1186	 1492744010	 116721110	 165861.
03:06:50 1186 1187	 1492744010	 278236404	 161515.
03:06:50 1187 1188	 1492744010	 443929081	 165693.
03:06:50 1188 1189	 1492744010	 576850134	 132921.
03:06:50 1189 1190	 1492744010	 738490140	 161640.
03:06:50 1190 1191	 1492744010	 904291570	 165801.
03:06:51 1191 1192	 1492744011	 65915082	 161624.
03:06:51 1192 1193	 1492744011	 231730972	 165816.
03:06:51 1193 1194	 1492744011	 393269537	 161538.
03:06:51 1194 1195	 1492744011	 558924433	 165655.
03:06:51 1195 1196	 1492744011	 691999670	 133075.
03:06:51 1196 1197	 1492744011	 853688284	 161689.
03:06:52 1197 1198	 1492744012	 19285286	 165597.
03:06:52 1198 1199	 1492744012	 180762642	 161477.
03:06:52 1199 1200	 1492744012	 346452916	 165691.
03:06:52 1200 1201	 1492744012	 507884963	 161432.
03:06:52 1201 1202	 1492744012	 640800187	 132915.
03:06:52 1202 1203	 1492744012	 806479785	 165680.
03:06:52 1203 1204	 1492744012	 968096174	 161616.
03:06:53 1204 1205	 1492744013	 134059195	 165963.
03:06:53 1205 1206	 1492744013	 295688878	 161630.
03:06:53 1206 1207	 1492744013	 457473521	 161784.
03:06:53 1207 1208	 1492744013	 623235129	 165762.
03:06:53 1208 1209	 1492744013	 756147963	 132913.
03:06:53 1209 1210	 1492744013	 917885540	 161737.
03:06:54 1210 1211	 1492744014	 83667774	 165782.
03:06:54 1211 1212	 1492744014	 245172234	 161505.
03:06:54 1212 1213	 1492744014	 410735809	 165564.
03:06:54 1213 1214	 1492744014	 572621880	 161886.
03:06:54 1214 1215	 1492744014	 734181555	 161560.
03:06:54 1215 1216	 1492744014	 867030131	 132848.
03:06:55 1216 1217	 1492744015	 29179728	 162149.
03:06:55 1217 1218	 1492744015	 190849872	 161671.
03:06:55 1218 1219	 1492744015	 352444071	 161594.
03:06:55 1219 1220	 1492744015	 518306925	 165863.
03:06:55 1220 1221	 1492744015	 680047265	 161740.
03:06:55 1221 1222	 1492744015	 841902864	 161856.
03:06:55 1222 1223	 1492744015	 978852186	 136949.
03:06:56 1223 1224	 1492744016	 140477560	 161625.
03:06:56 1224 1225	 1492744016	 306011743	 165534.
03:06:56 1225 1226	 1492744016	 467767069	 161756.
03:06:56 1226 1227	 1492744016	 629423925	 161657.
03:06:56 1227 1228	 1492744016	 795231581	 165807.
03:06:56 1228 1229	 1492744016	 956880218	 161649.
03:06:57 1229 1230	 1492744017	 90018900	 133139.
03:06:57 1230 1231	 1492744017	 255869091	 165850.
03:06:57 1231 1232	 1492744017	 417613808	 161745.
03:06:57 1232 1233	 1492744017	 579216463	 161602.
03:06:57 1233 1234	 1492744017	 744999726	 165783.
03:06:57 1234 1235	 1492744017	 906678112	 161679.
03:06:58 1235 1236	 1492744018	 72468085	 165790.
03:06:58 1236 1237	 1492744018	 234093809	 161626.
03:06:58 1237 1238	 1492744018	 367004295	 132910.
03:06:58 1238 1239	 1492744018	 532713680	 165709.
03:06:58 1239 1240	 1492744018	 694330650	 161617.
03:06:58 1240 1241	 1492744018	 856407051	 162077.
03:06:59 1241 1242	 1492744019	 18093184	 161686.
03:06:59 1242 1243	 1492744019	 183920885	 165828.
03:06:59 1243 1244	 1492744019	 345593726	 161672.
03:06:59 1244 1245	 1492744019	 478581845	 132989.
03:06:59 1245 1246	 1492744019	 644333181	 165751.
03:06:59 1246 1247	 1492744019	 798943835	 154611.
03:06:59 1247 1248	 1492744019	 964521099	 165577.
03:07:00 1248 1249	 1492744020	 126297927	 161777.
03:07:00 1249 1250	 1492744020	 287994385	 161696.
03:07:00 1250 1251	 1492744020	 453818694	 165824.
03:07:00 1251 1252	 1492744020	 615627857	 161810.
03:07:00 1252 1253	 1492744020	 781526240	 165898.
03:07:00 1253 1254	 1492744020	 943256880	 161731.
03:07:01 1254 1255	 1492744021	 105139736	 161883.
03:07:01 1255 1256	 1492744021	 242354579	 137214.
03:07:01 1256 1257	 1492744021	 404194370	 161840.
03:07:01 1257 1258	 1492744021	 566110047	 161916.
03:07:01 1258 1259	 1492744021	 732199467	 166089.
03:07:01 1259 1260	 1492744021	 894142728	 161943.
03:07:02 1260 1261	 1492744022	 60075692	 165933.
03:07:02 1261 1262	 1492744022	 221760912	 161686.
03:07:02 1262 1263	 1492744022	 384230555	 162469.
03:07:02 1263 1264	 1492744022	 541959996	 157730.
03:07:02 1264 1265	 1492744022	 707696550	 165736.
03:07:02 1265 1266	 1492744022	 840839361	 133143.
03:07:03 1266 1267	 1492744023	 6652258	 165813.
03:07:03 1267 1268	 1492744023	 168613520	 161961.
03:07:03 1268 1269	 1492744023	 330532029	 161919.
03:07:03 1269 1270	 1492744023	 496689950	 166158.
03:07:03 1270 1271	 1492744023	 658833152	 162143.
03:07:03 1271 1272	 1492744023	 820617215	 161784.
03:07:03 1272 1273	 1492744023	 982316748	 161699.
03:07:04 1273 1274	 1492744024	 119407940	 137092.
03:07:04 1274 1275	 1492744024	 281108158	 161700.
03:07:04 1275 1276	 1492744024	 446946448	 165838.
03:07:04 1276 1277	 1492744024	 608647227	 161701.
03:07:04 1277 1278	 1492744024	 774486124	 165839.
03:07:04 1278 1279	 1492744024	 932945214	 158459.
03:07:05 1279 1280	 1492744025	 94729477	 161784.
03:07:05 1280 1281	 1492744025	 256471845	 161743.
03:07:05 1281 1282	 1492744025	 422304575	 165832.
03:07:05 1282 1283	 1492744025	 555349877	 133046.
03:07:05 1283 1284	 1492744025	 720986223	 165636.
03:07:05 1284 1285	 1492744025	 882855398	 161869.
03:07:06 1285 1286	 1492744026	 48687578	 165832.
03:07:06 1286 1287	 1492744026	 210425937	 161739.
03:07:06 1287 1288	 1492744026	 376184359	 165758.
03:07:06 1288 1289	 1492744026	 538269462	 162085.
03:07:06 1289 1290	 1492744026	 671388808	 133119.
03:07:06 1290 1291	 1492744026	 837256055	 165868.
03:07:06 1291 1292	 1492744026	 998971306	 161715.
03:07:07 1292 1293	 1492744027	 164987211	 166016.
03:07:07 1293 1294	 1492744027	 326985038	 161998.
03:07:07 1294 1295	 1492744027	 492923929	 165939.
03:07:07 1295 1296	 1492744027	 654658272	 161734.
03:07:07 1296 1297	 1492744027	 816627580	 161969.
03:07:07 1297 1298	 1492744027	 978486953	 161860.
03:07:08 1298 1299	 1492744028	 111506322	 133019.
03:07:08 1299 1300	 1492744028	 277268460	 165762.
03:07:08 1300 1301	 1492744028	 439021486	 161753.
03:07:08 1301 1302	 1492744028	 604945412	 165924.
03:07:08 1302 1303	 1492744028	 766769915	 161825.
03:07:08 1303 1304	 1492744028	 932554137	 165784.
03:07:09 1304 1305	 1492744029	 94379463	 161825.
03:07:09 1305 1306	 1492744029	 227647407	 133268.
03:07:09 1306 1307	 1492744029	 393496749	 165849.
03:07:09 1307 1308	 1492744029	 555280911	 161785.
03:07:09 1308 1309	 1492744029	 721227490	 165946.
03:07:09 1309 1310	 1492744029	 882971674	 161744.
03:07:10 1310 1311	 1492744030	 49027401	 166056.
03:07:10 1311 1312	 1492744030	 210867223	 161840.
03:07:10 1312 1313	 1492744030	 376769653	 165902.
03:07:10 1313 1314	 1492744030	 538489422	 161720.
03:07:10 1314 1315	 1492744030	 671601368	 133112.
03:07:10 1315 1316	 1492744030	 837570219	 165969.
03:07:10 1316 1317	 1492744030	 999357468	 161787.
03:07:11 1317 1318	 1492744031	 165174000	 165817.
03:07:11 1318 1319	 1492744031	 326824833	 161651.
03:07:11 1319 1320	 1492744031	 492675982	 165851.
03:07:11 1320 1321	 1492744031	 654254486	 161578.
03:07:11 1321 1322	 1492744031	 791458911	 137205.
03:07:11 1322 1323	 1492744031	 953181214	 161722.
03:07:12 1323 1324	 1492744032	 115019575	 161838.
03:07:12 1324 1325	 1492744032	 280885609	 165866.
03:07:12 1325 1326	 1492744032	 442603773	 161718.
03:07:12 1326 1327	 1492744032	 604461693	 161858.
03:07:12 1327 1328	 1492744032	 766680715	 162219.
03:07:12 1328 1329	 1492744032	 928519214	 161839.
03:07:13 1329 1330	 1492744033	 94483908	 165965.
03:07:13 1330 1331	 1492744033	 256110879	 161627.
03:07:13 1331 1332	 1492744033	 389259847	 133149.
03:07:13 1332 1333	 1492744033	 555032989	 165773.
03:07:13 1333 1334	 1492744033	 716823596	 161790.
03:07:13 1334 1335	 1492744033	 882754233	 165931.
03:07:14 1335 1336	 1492744034	 44364045	 161610.
03:07:14 1336 1337	 1492744034	 206163471	 161799.
03:07:14 1337 1338	 1492744034	 372093916	 165931.
03:07:14 1338 1339	 1492744034	 533919008	 161825.
03:07:14 1339 1340	 1492744034	 695830949	 161912.
03:07:14 1340 1341	 1492744034	 833023920	 137193.
03:07:14 1341 1342	 1492744034	 994816560	 161792.
03:07:15 1342 1343	 1492744035	 156708825	 161893.
03:07:15 1343 1344	 1492744035	 322522268	 165813.
03:07:15 1344 1345	 1492744035	 484172158	 161650.
03:07:15 1345 1346	 1492744035	 649927050	 165755.
03:07:15 1346 1347	 1492744035	 811574742	 161647.
03:07:15 1347 1348	 1492744035	 977330673	 165756.
03:07:16 1348 1349	 1492744036	 110638791	 133308.
03:07:16 1349 1350	 1492744036	 276372308	 165734.
03:07:16 1350 1351	 1492744036	 438181240	 161809.
03:07:16 1351 1352	 1492744036	 599953874	 161773.
03:07:16 1352 1353	 1492744036	 765808971	 165855.
03:07:16 1353 1354	 1492744036	 927438751	 161629.
03:07:17 1354 1355	 1492744037	 93261178	 165823.
03:07:17 1355 1356	 1492744037	 255006934	 161746.
03:07:17 1356 1357	 1492744037	 387969996	 132963.
03:07:17 1357 1358	 1492744037	 554057711	 166087.
03:07:17 1358 1359	 1492744037	 715703482	 161646.
03:07:17 1359 1360	 1492744037	 877625601	 161922.
03:07:18 1360 1361	 1492744038	 43348429	 165723.
03:07:18 1361 1362	 1492744038	 205090253	 161742.
03:07:18 1362 1363	 1492744038	 370997017	 165907.
03:07:18 1363 1364	 1492744038	 532595232	 161598.
03:07:18 1364 1365	 1492744038	 694639064	 162044.
03:07:18 1365 1366	 1492744038	 827737717	 133098.
03:07:18 1366 1367	 1492744038	 993675076	 165938.
03:07:19 1367 1368	 1492744039	 155426664	 161751.
03:07:19 1368 1369	 1492744039	 321168881	 165743.
03:07:19 1369 1370	 1492744039	 483021228	 161852.
03:07:19 1370 1371	 1492744039	 649018817	 165998.
03:07:19 1371 1372	 1492744039	 810824732	 161805.
03:07:19 1372 1373	 1492744039	 972570507	 161746.
03:07:20 1373 1374	 1492744040	 138462398	 165892.
03:07:20 1374 1375	 1492744040	 271780228	 133318.
03:07:20 1375 1376	 1492744040	 433604853	 161825.
03:07:20 1376 1377	 1492744040	 599365058	 165760.
03:07:20 1377 1378	 1492744040	 761126452	 161761.
03:07:20 1378 1379	 1492744040	 926850175	 165724.
03:07:21 1379 1380	 1492744041	 88689648	 161839.
03:07:21 1380 1381	 1492744041	 250544855	 161856.
03:07:21 1381 1382	 1492744041	 416462176	 165917.
03:07:21 1382 1383	 1492744041	 578426655	 161964.
03:07:21 1383 1384	 1492744041	 744378338	 165952.
03:07:21 1384 1385	 1492744041	 902744800	 158367.
03:07:22 1385 1386	 1492744042	 39930867	 137186.
03:07:22 1386 1387	 1492744042	 201593773	 161662.
03:07:22 1387 1388	 1492744042	 363530492	 161937.
03:07:22 1388 1389	 1492744042	 529496248	 165966.
03:07:22 1389 1390	 1492744042	 691183835	 161688.
03:07:22 1390 1391	 1492744042	 856981666	 165797.
03:07:23 1391 1392	 1492744043	 18665736	 161684.
03:07:23 1392 1393	 1492744043	 180402930	 161738.
03:07:23 1393 1394	 1492744043	 317836017	 137433.
03:07:23 1394 1395	 1492744043	 479524569	 161688.
03:07:23 1395 1396	 1492744043	 645326538	 165802.
03:07:23 1396 1397	 1492744043	 807055288	 161729.
03:07:23 1397 1398	 1492744043	 968925087	 161870.
03:07:24 1398 1399	 1492744044	 134719857	 165795.
03:07:24 1399 1400	 1492744044	 296358755	 161638.
03:07:24 1400 1401	 1492744044	 433440007	 137082.
03:07:24 1401 1402	 1492744044	 595269449	 161829.
03:07:24 1402 1403	 1492744044	 761020680	 165751.
03:07:24 1403 1404	 1492744044	 922674289	 161654.
03:07:25 1404 1405	 1492744045	 84486030	 161812.
03:07:25 1405 1406	 1492744045	 246589469	 162103.
03:07:25 1406 1407	 1492744045	 408482275	 161893.
03:07:25 1407 1408	 1492744045	 574347844	 165866.
03:07:25 1408 1409	 1492744045	 736084974	 161737.
03:07:25 1409 1410	 1492744045	 869133921	 133049.
03:07:26 1410 1411	 1492744046	 34982748	 165848.
03:07:26 1411 1412	 1492744046	 196706330	 161724.
03:07:26 1412 1413	 1492744046	 362521661	 165816.
03:07:26 1413 1414	 1492744046	 524193781	 161671.
03:07:26 1414 1415	 1492744046	 689858348	 165665.
03:07:26 1415 1416	 1492744046	 851459733	 161601.
03:07:27 1416 1417	 1492744047	 13197797	 161739.
03:07:27 1417 1418	 1492744047	 150367360	 137169.
03:07:27 1418 1419	 1492744047	 312242362	 161875.
03:07:27 1419 1420	 1492744047	 474128218	 161886.
03:07:27 1420 1421	 1492744047	 635789332	 161661.
03:07:27 1421 1422	 1492744047	 801808045	 166019.
03:07:27 1422 1423	 1492744047	 963545650	 161737.
03:07:28 1423 1424	 1492744048	 129318923	 165774.
03:07:28 1424 1425	 1492744048	 291414124	 162095.
03:07:28 1425 1426	 1492744048	 453209093	 161795.
03:07:28 1426 1427	 1492744048	 586132014	 132923.
03:07:28 1427 1428	 1492744048	 752160407	 166028.
03:07:28 1428 1429	 1492744048	 913962862	 161803.
03:07:29 1429 1430	 1492744049	 75885242	 161922.
03:07:29 1430 1431	 1492744049	 241840331	 165955.
03:07:29 1431 1432	 1492744049	 400039900	 158200.
03:07:29 1432 1433	 1492744049	 565936500	 165896.
03:07:29 1433 1434	 1492744049	 727687976	 161752.
03:07:29 1434 1435	 1492744049	 893570994	 165883.
03:07:30 1435 1436	 1492744050	 55266597	 161695.
03:07:30 1436 1437	 1492744050	 188226136	 132960.
03:07:30 1437 1438	 1492744050	 354252376	 166026.
03:07:30 1438 1439	 1492744050	 515823100	 161571.
03:07:30 1439 1440	 1492744050	 681584080	 165761.
03:07:30 1440 1441	 1492744050	 843389816	 161806.
03:07:31 1441 1442	 1492744051	 5133746	 161743.
03:07:31 1442 1443	 1492744051	 171032060	 165899.
03:07:31 1443 1444	 1492744051	 333069654	 162037.
03:07:31 1444 1445	 1492744051	 466012531	 132943.
03:07:31 1445 1446	 1492744051	 627493307	 161481.
03:07:31 1446 1447	 1492744051	 793228766	 165735.
03:07:31 1447 1448	 1492744051	 958789745	 165561.
03:07:32 1448 1449	 1492744052	 120592097	 161803.
03:07:32 1449 1450	 1492744052	 282254741	 161662.
03:07:32 1450 1451	 1492744052	 448139959	 165886.
03:07:32 1451 1452	 1492744052	 581396404	 133256.
03:07:32 1452 1453	 1492744052	 743038635	 161642.
03:07:32 1453 1454	 1492744052	 908791899	 165754.
03:07:33 1454 1455	 1492744053	 70771968	 161980.
03:07:33 1455 1456	 1492744053	 236460062	 165688.
03:07:33 1456 1457	 1492744053	 398218192	 161758.
03:07:33 1457 1458	 1492744053	 559932674	 161714.
03:07:33 1458 1459	 1492744053	 725683291	 165751.
03:07:33 1459 1460	 1492744053	 858796139	 133113.
03:07:34 1460 1461	 1492744054	 20359254	 161563.
03:07:34 1461 1462	 1492744054	 186134503	 165775.
03:07:34 1462 1463	 1492744054	 344103661	 157969.
03:07:34 1463 1464	 1492744054	 510236189	 166133.
03:07:34 1464 1465	 1492744054	 671904885	 161669.
03:07:34 1465 1466	 1492744054	 833471346	 161566.
03:07:34 1466 1467	 1492744054	 999277383	 165806.
03:07:35 1467 1468	 1492744055	 160997193	 161720.
03:07:35 1468 1469	 1492744055	 294098783	 133102.
03:07:35 1469 1470	 1492744055	 459906265	 165807.
03:07:35 1470 1471	 1492744055	 621678422	 161772.
03:07:35 1471 1472	 1492744055	 787467096	 165789.
03:07:35 1472 1473	 1492744055	 949308209	 161841.
03:07:36 1473 1474	 1492744056	 110998117	 161690.
03:07:36 1474 1475	 1492744056	 305940658	 194942.
03:07:36 1475 1476	 1492744056	 467592434	 161652.
03:07:36 1476 1477	 1492744056	 633422838	 165831.
03:07:36 1477 1478	 1492744056	 799293980	 165871.
03:07:36 1478 1479	 1492744056	 932409438	 133115.
03:07:37 1479 1480	 1492744057	 124343618	 191934.
03:07:37 1480 1481	 1492744057	 261352237	 137009.
03:07:37 1481 1482	 1492744057	 453746703	 192394.
03:07:37 1482 1483	 1492744057	 615405599	 161659.
03:07:37 1483 1484	 1492744057	 781149588	 165744.
03:07:37 1484 1485	 1492744057	 914187032	 133038.
03:07:38 1485 1486	 1492744058	 75901719	 161714.
03:07:38 1486 1487	 1492744058	 241774852	 165874.
03:07:38 1487 1488	 1492744058	 403297646	 161522.
03:07:38 1488 1489	 1492744058	 570432271	 167135.
03:07:38 1489 1490	 1492744058	 731963205	 161531.
03:07:38 1490 1491	 1492744058	 898593339	 166630.
03:07:39 1491 1492	 1492744059	 56076259	 157483.
03:07:39 1492 1493	 1492744059	 217732435	 161656.
03:07:39 1493 1494	 1492744059	 383472451	 165740.
03:07:39 1494 1495	 1492744059	 545251717	 161780.
03:07:39 1495 1496	 1492744059	 682498554	 137246.
03:07:39 1496 1497	 1492744059	 844184087	 161686.
03:07:40 1497 1498	 1492744060	 5941814	 161758.
03:07:40 1498 1499	 1492744060	 171622212	 165680.
03:07:40 1499 1500	 1492744060	 334777503	 163155.
03:07:40 1500 1501	 1492744060	 500526684	 165749.
03:07:40 1501 1502	 1492744060	 662283445	 161757.
03:07:40 1502 1503	 1492744060	 827978395	 165695.
03:07:40 1503 1504	 1492744060	 989643441	 161665.
03:07:41 1504 1505	 1492744061	 122609063	 132966.
03:07:41 1505 1506	 1492744061	 288293251	 165684.
03:07:41 1506 1507	 1492744061	 449776448	 161483.
03:07:41 1507 1508	 1492744061	 615386431	 165610.
03:07:41 1508 1509	 1492744061	 777026190	 161640.
03:07:41 1509 1510	 1492744061	 938812154	 161786.
03:07:42 1510 1511	 1492744062	 104462674	 165650.
03:07:42 1511 1512	 1492744062	 237460783	 132999.
03:07:42 1512 1513	 1492744062	 399152240	 161691.
03:07:42 1513 1514	 1492744062	 564838544	 165686.
03:07:42 1514 1515	 1492744062	 726722993	 161885.
03:07:42 1515 1516	 1492744062	 888438626	 161715.
03:07:43 1516 1517	 1492744063	 54260180	 165822.
03:07:43 1517 1518	 1492744063	 216045189	 161785.
03:07:43 1518 1519	 1492744063	 378040749	 161995.
03:07:43 1519 1520	 1492744063	 511207794	 133167.
03:07:43 1520 1521	 1492744063	 677030504	 165823.
03:07:43 1521 1522	 1492744063	 838850796	 161821.
03:07:44 1522 1523	 1492744064	 4697270	 165846.
03:07:44 1523 1524	 1492744064	 166423454	 161726.
03:07:44 1524 1525	 1492744064	 328052914	 161630.
03:07:44 1525 1526	 1492744064	 493955954	 165903.
03:07:44 1526 1527	 1492744064	 655852521	 161896.
03:07:44 1527 1528	 1492744064	 788783679	 132931.
03:07:44 1528 1529	 1492744064	 954500721	 165717.
03:07:45 1529 1530	 1492744065	 116464816	 161965.
03:07:45 1530 1531	 1492744065	 278182244	 161717.
03:07:45 1531 1532	 1492744065	 443763864	 165582.
03:07:45 1532 1533	 1492744065	 605398059	 161634.
03:07:45 1533 1534	 1492744065	 771169265	 165771.
03:07:45 1534 1535	 1492744065	 904175003	 133006.
03:07:46 1535 1536	 1492744066	 65895697	 161720.
03:07:46 1536 1537	 1492744066	 231553777	 165659.
03:07:46 1537 1538	 1492744066	 393579090	 162025.
03:07:46 1538 1539	 1492744066	 559471752	 165892.
03:07:46 1539 1540	 1492744066	 721124192	 161653.
03:07:46 1540 1541	 1492744066	 882852211	 161728.
03:07:47 1541 1542	 1492744067	 48692840	 165841.
03:07:47 1542 1543	 1492744067	 181737466	 133044.
03:07:47 1543 1544	 1492744067	 347444596	 165707.
03:07:47 1544 1545	 1492744067	 508986768	 161542.
03:07:47 1545 1546	 1492744067	 674787376	 165801.
03:07:47 1546 1547	 1492744067	 836692284	 161905.
03:07:47 1547 1548	 1492744067	 998942595	 162250.
03:07:48 1548 1549	 1492744068	 160539327	 161597.
03:07:48 1549 1550	 1492744068	 326331609	 165792.
03:07:48 1550 1551	 1492744068	 459543326	 133212.
03:07:48 1551 1552	 1492744068	 625563914	 166021.
03:07:48 1552 1553	 1492744068	 787231447	 161667.
03:07:48 1553 1554	 1492744068	 949156254	 161925.
03:07:49 1554 1555	 1492744069	 115001336	 165845.
03:07:49 1555 1556	 1492744069	 276858602	 161857.
03:07:49 1556 1557	 1492744069	 442731243	 165873.
03:07:49 1557 1558	 1492744069	 604556780	 161825.
03:07:49 1558 1559	 1492744069	 737718295	 133162.
03:07:49 1559 1560	 1492744069	 903616436	 165898.
03:07:50 1560 1561	 1492744070	 65511809	 161896.
03:07:50 1561 1562	 1492744070	 231231003	 165719.
03:07:50 1562 1563	 1492744070	 393164861	 161934.
03:07:50 1563 1564	 1492744070	 559086274	 165921.
03:07:50 1564 1565	 1492744070	 720763988	 161678.
03:07:50 1565 1566	 1492744070	 882570484	 161806.
03:07:51 1566 1567	 1492744071	 48603010	 166033.
03:07:51 1567 1568	 1492744071	 181718589	 133115.
03:07:51 1568 1569	 1492744071	 343547929	 161830.
03:07:51 1569 1570	 1492744071	 509403475	 165855.
03:07:51 1570 1571	 1492744071	 671386869	 161984.
03:07:51 1571 1572	 1492744071	 833365451	 161978.
03:07:51 1572 1573	 1492744071	 999203570	 165838.
03:07:52 1573 1574	 1492744072	 161126132	 161923.
03:07:52 1574 1575	 1492744072	 323071540	 161945.
03:07:52 1575 1576	 1492744072	 488945785	 165875.
03:07:52 1576 1577	 1492744072	 622047830	 133102.
03:07:52 1577 1578	 1492744072	 787731489	 165683.
03:07:52 1578 1579	 1492744072	 949749019	 162018.
03:07:53 1579 1580	 1492744073	 111520110	 161771.
03:07:53 1580 1581	 1492744073	 273537230	 162017.
03:07:53 1581 1582	 1492744073	 439278679	 165741.
03:07:53 1582 1583	 1492744073	 601275891	 161998.
03:07:53 1583 1584	 1492744073	 763011027	 161735.
03:07:53 1584 1585	 1492744073	 928735445	 165724.
03:07:54 1585 1586	 1492744074	 61776554	 133041.
03:07:54 1586 1587	 1492744074	 223610490	 161834.
03:07:54 1587 1588	 1492744074	 389478281	 165868.
03:07:54 1588 1589	 1492744074	 551296958	 161819.
03:07:54 1589 1590	 1492744074	 717258175	 165961.
03:07:54 1590 1591	 1492744074	 879011996	 161754.
03:07:55 1591 1592	 1492744075	 44889971	 165878.
03:07:55 1592 1593	 1492744075	 206595430	 161705.
03:07:55 1593 1594	 1492744075	 339757683	 133162.
03:07:55 1594 1595	 1492744075	 505534189	 165777.
03:07:55 1595 1596	 1492744075	 667484626	 161950.
03:07:55 1596 1597	 1492744075	 834063920	 166580.
03:07:55 1597 1598	 1492744075	 991784545	 157720.
03:07:56 1598 1599	 1492744076	 153582218	 161798.
03:07:56 1599 1600	 1492744076	 319518925	 165937.
03:07:56 1600 1601	 1492744076	 481243687	 161724.
03:07:56 1601 1602	 1492744076	 642943686	 161700.
03:07:56 1602 1603	 1492744076	 808779662	 165836.
03:07:56 1603 1604	 1492744076	 941899310	 133120.
03:07:57 1604 1605	 1492744077	 103860206	 161961.
03:07:57 1605 1606	 1492744077	 269545602	 165685.
03:07:57 1606 1607	 1492744077	 431422979	 161878.
03:07:57 1607 1608	 1492744077	 593276655	 161853.
03:07:57 1608 1609	 1492744077	 759085708	 165809.
03:07:57 1609 1610	 1492744077	 921007997	 161923.
03:07:58 1610 1611	 1492744078	 83136711	 162128.
03:07:58 1611 1612	 1492744078	 244842109	 161706.
03:07:58 1612 1613	 1492744078	 377795573	 132953.
03:07:58 1613 1614	 1492744078	 543672501	 165877.
03:07:58 1614 1615	 1492744078	 705446027	 161774.
03:07:58 1615 1616	 1492744078	 867155265	 161709.
03:07:59 1616 1617	 1492744079	 33081666	 165926.
03:07:59 1617 1618	 1492744079	 194736052	 161655.
03:07:59 1618 1619	 1492744079	 356385831	 161650.
03:07:59 1619 1620	 1492744079	 518433467	 162047.
03:07:59 1620 1621	 1492744079	 684190690	 165757.
03:07:59 1621 1622	 1492744079	 817318036	 133128.
03:07:59 1622 1623	 1492744079	 983001295	 165683.
03:08:00 1623 1624	 1492744080	 144778519	 161777.
03:08:00 1624 1625	 1492744080	 306514840	 161737.
03:08:00 1625 1626	 1492744080	 472284265	 165769.
03:08:00 1626 1627	 1492744080	 633984902	 161701.
03:08:00 1627 1628	 1492744080	 799853789	 165869.
03:08:00 1628 1629	 1492744080	 961636138	 161782.
03:08:01 1629 1630	 1492744081	 98749146	 137113.
03:08:01 1630 1631	 1492744081	 260421862	 161673.
03:08:01 1631 1632	 1492744081	 422229173	 161807.
03:08:01 1632 1633	 1492744081	 588149800	 165921.
03:08:01 1633 1634	 1492744081	 746635985	 158486.
03:08:01 1634 1635	 1492744081	 908369629	 161733.
03:08:02 1635 1636	 1492744082	 74595694	 166226.
03:08:02 1636 1637	 1492744082	 236343089	 161748.
03:08:02 1637 1638	 1492744082	 398204935	 161862.
03:08:02 1638 1639	 1492744082	 564174484	 165969.
03:08:02 1639 1640	 1492744082	 697197774	 133023.
03:08:02 1640 1641	 1492744082	 859006699	 161809.
03:08:03 1641 1642	 1492744083	 25021439	 166015.
03:08:03 1642 1643	 1492744083	 186725428	 161704.
03:08:03 1643 1644	 1492744083	 352517807	 165793.
03:08:03 1644 1645	 1492744083	 514150732	 161632.
03:08:03 1645 1646	 1492744083	 680188982	 166039.
03:08:03 1646 1647	 1492744083	 842074416	 161885.
03:08:03 1647 1648	 1492744083	 979153041	 137079.
03:08:04 1648 1649	 1492744084	 141157298	 162012.
03:08:04 1649 1650	 1492744084	 306950730	 165785.
03:08:04 1650 1651	 1492744084	 468890678	 161940.
03:08:04 1651 1652	 1492744084	 630958492	 162068.
03:08:04 1652 1653	 1492744084	 796790944	 165833.
03:08:04 1653 1654	 1492744084	 958468004	 161677.
03:08:05 1654 1655	 1492744085	 120198191	 161730.
03:08:05 1655 1656	 1492744085	 257545736	 137347.
03:08:05 1656 1657	 1492744085	 419384334	 161839.
03:08:05 1657 1658	 1492744085	 585180112	 165796.
03:08:05 1658 1659	 1492744085	 746930521	 161750.
03:08:05 1659 1660	 1492744085	 912750071	 165820.
03:08:06 1660 1661	 1492744086	 74702910	 161953.
03:08:06 1661 1662	 1492744086	 240906397	 166203.
03:08:06 1662 1663	 1492744086	 374072414	 133166.
03:08:06 1663 1664	 1492744086	 539869008	 165797.
03:08:06 1664 1665	 1492744086	 701623074	 161754.
03:08:06 1665 1666	 1492744086	 863338963	 161716.
03:08:07 1666 1667	 1492744087	 29265752	 165927.
03:08:07 1667 1668	 1492744087	 187964226	 158698.
03:08:07 1668 1669	 1492744087	 349938829	 161975.
03:08:07 1669 1670	 1492744087	 511696759	 161757.
03:08:07 1670 1671	 1492744087	 677378504	 165682.
03:08:07 1671 1672	 1492744087	 839594991	 162217.
03:08:07 1672 1673	 1492744087	 972818998	 133224.
03:08:08 1673 1674	 1492744088	 138865807	 166047.
03:08:08 1674 1675	 1492744088	 300862798	 161997.
03:08:08 1675 1676	 1492744088	 462831902	 161969.
03:08:08 1676 1677	 1492744088	 628749555	 165917.
03:08:08 1677 1678	 1492744088	 790426510	 161677.
03:08:08 1678 1679	 1492744088	 956340576	 165914.
03:08:09 1679 1680	 1492744089	 118201644	 161861.
03:08:09 1680 1681	 1492744089	 280100430	 161899.
03:08:09 1681 1682	 1492744089	 417492824	 137393.
03:08:09 1682 1683	 1492744089	 579288187	 161795.
03:08:09 1683 1684	 1492744089	 745188527	 165900.
03:08:09 1684 1685	 1492744089	 907028820	 161841.
03:08:10 1685 1686	 1492744090	 68975041	 161946.
03:08:10 1686 1687	 1492744090	 235110550	 166135.
03:08:10 1687 1688	 1492744090	 398031391	 162921.
03:08:10 1688 1689	 1492744090	 556016123	 157985.
03:08:10 1689 1690	 1492744090	 721920464	 165904.
03:08:10 1690 1691	 1492744090	 883979564	 162059.
03:08:11 1691 1692	 1492744091	 17098379	 133119.
03:08:11 1692 1693	 1492744091	 182924706	 165826.
03:08:11 1693 1694	 1492744091	 348808699	 165884.
03:08:11 1694 1695	 1492744091	 510609435	 161801.
03:08:11 1695 1696	 1492744091	 676649340	 166040.
03:08:11 1696 1697	 1492744091	 838446477	 161797.
03:08:11 1697 1698	 1492744092	 379586	 161933.
03:08:12 1698 1699	 1492744092	 166196799	 165818.
03:08:12 1699 1700	 1492744092	 331913539	 165716.
03:08:12 1700 1701	 1492744092	 464982665	 133069.
03:08:12 1701 1702	 1492744092	 623264368	 158282.
03:08:12 1702 1703	 1492744092	 814559470	 191295.
03:08:12 1703 1704	 1492744092	 947725500	 133166.
03:08:13 1704 1705	 1492744093	 109884707	 162159.
03:08:13 1705 1706	 1492744093	 271690752	 161806.
03:08:13 1706 1707	 1492744093	 437569650	 165879.
03:08:13 1707 1708	 1492744093	 599343165	 161774.
03:08:13 1708 1709	 1492744093	 761294932	 161952.
03:08:13 1709 1710	 1492744093	 927185617	 165890.
03:08:14 1710 1711	 1492744094	 88950812	 161766.
03:08:14 1711 1712	 1492744094	 254913682	 165962.
03:08:14 1712 1713	 1492744094	 388015569	 133102.
03:08:14 1713 1714	 1492744094	 546332081	 158317.
03:08:14 1714 1715	 1492744094	 712032175	 165700.
03:08:14 1715 1716	 1492744094	 873879806	 161848.
03:08:15 1716 1717	 1492744095	 39709659	 165830.
03:08:15 1717 1718	 1492744095	 201627254	 161917.
03:08:15 1718 1719	 1492744095	 363467511	 161840.
03:08:15 1719 1720	 1492744095	 525518887	 162052.
03:08:15 1720 1721	 1492744095	 691458393	 165939.
03:08:15 1721 1722	 1492744095	 853309101	 161851.
03:08:15 1722 1723	 1492744095	 990392074	 137083.
03:08:16 1723 1724	 1492744096	 151934726	 161543.
03:08:16 1724 1725	 1492744096	 317763912	 165829.
03:08:16 1725 1726	 1492744096	 479910292	 162146.
03:08:16 1726 1727	 1492744096	 641740112	 161830.
03:08:16 1727 1728	 1492744096	 803555275	 161815.
03:08:16 1728 1729	 1492744096	 969827547	 166272.
03:08:17 1729 1730	 1492744097	 131610303	 161783.
03:08:17 1730 1731	 1492744097	 293303369	 161693.
03:08:17 1731 1732	 1492744097	 426406385	 133103.
03:08:17 1732 1733	 1492744097	 592279370	 165873.
03:08:17 1733 1734	 1492744097	 753908652	 161629.
03:08:17 1734 1735	 1492744097	 919704465	 165796.
03:08:18 1735 1736	 1492744098	 81580428	 161876.
03:08:18 1736 1737	 1492744098	 247504902	 165925.
03:08:18 1737 1738	 1492744098	 409382028	 161877.
03:08:18 1738 1739	 1492744098	 575331872	 165950.
03:08:18 1739 1740	 1492744098	 708469794	 133138.
03:08:18 1740 1741	 1492744098	 870277100	 161807.
03:08:19 1741 1742	 1492744099	 36195579	 165918.
03:08:19 1742 1743	 1492744099	 197869364	 161674.
03:08:19 1743 1744	 1492744099	 363736087	 165867.
03:08:19 1744 1745	 1492744099	 525555550	 161819.
03:08:19 1745 1746	 1492744099	 687478653	 161923.
03:08:19 1746 1747	 1492744099	 853134026	 165656.
03:08:19 1747 1748	 1492744099	 986286534	 133152.
03:08:20 1748 1749	 1492744100	 152188291	 165902.
03:08:20 1749 1750	 1492744100	 347078018	 194890.
03:08:20 1750 1751	 1492744100	 542909670	 195831.
03:08:20 1751 1752	 1492744100	 706499670	 163590.
03:08:20 1752 1753	 1492744100	 872336277	 165837.
03:08:21 1753 1754	 1492744101	 34235619	 161899.
03:08:21 1754 1755	 1492744101	 200096629	 165862.
03:08:21 1755 1756	 1492744101	 333328911	 133232.
03:08:21 1756 1757	 1492744101	 530015401	 196686.
03:08:21 1757 1758	 1492744101	 691978775	 161963.
03:08:21 1758 1759	 1492744101	 857882622	 165904.
03:08:22 1759 1760	 1492744102	 19732594	 161850.
03:08:22 1760 1761	 1492744102	 182932445	 163200.
03:08:22 1761 1762	 1492744102	 348832479	 165900.
03:08:22 1762 1763	 1492744102	 510676550	 161844.
03:08:22 1763 1764	 1492744102	 643674200	 132998.
03:08:22 1764 1765	 1492744102	 809460948	 165787.
03:08:22 1765 1766	 1492744102	 971163292	 161702.
03:08:23 1766 1767	 1492744103	 136945033	 165782.
03:08:23 1767 1768	 1492744103	 298710078	 161765.
03:08:23 1768 1769	 1492744103	 464378930	 165669.
03:08:23 1769 1770	 1492744103	 626154249	 161775.
03:08:23 1770 1771	 1492744103	 787867241	 161713.
03:08:23 1771 1772	 1492744103	 925023620	 137156.
03:08:24 1772 1773	 1492744104	 86831242	 161808.
03:08:24 1773 1774	 1492744104	 252728525	 165897.
03:08:24 1774 1775	 1492744104	 414502765	 161774.
03:08:24 1775 1776	 1492744104	 580255267	 165753.
03:08:24 1776 1777	 1492744104	 742011366	 161756.
03:08:24 1777 1778	 1492744104	 907841026	 165830.
03:08:25 1778 1779	 1492744105	 40887587	 133046.
03:08:25 1779 1780	 1492744105	 199031217	 158144.
03:08:25 1780 1781	 1492744105	 364790248	 165759.
03:08:25 1781 1782	 1492744105	 526410364	 161620.
03:08:25 1782 1783	 1492744105	 692401266	 165991.
03:08:25 1783 1784	 1492744105	 854072889	 161672.
03:08:26 1784 1785	 1492744106	 19970282	 165897.
03:08:26 1785 1786	 1492744106	 181718790	 161749.
03:08:26 1786 1787	 1492744106	 343483439	 161764.
03:08:26 1787 1788	 1492744106	 480678278	 137195.
03:08:26 1788 1789	 1492744106	 642394225	 161716.
03:08:26 1789 1790	 1492744106	 808249786	 165856.
03:08:26 1790 1791	 1492744106	 970007932	 161758.
03:08:27 1791 1792	 1492744107	 131746346	 161738.
03:08:27 1792 1793	 1492744107	 297675004	 165929.
03:08:27 1793 1794	 1492744107	 463506307	 165831.
03:08:27 1794 1795	 1492744107	 625179898	 161674.
03:08:27 1795 1796	 1492744107	 758405005	 133225.
03:08:27 1796 1797	 1492744107	 924105708	 165700.
03:08:28 1797 1798	 1492744108	 85886649	 161781.
03:08:28 1798 1799	 1492744108	 251855728	 165970.
03:08:28 1799 1800	 1492744108	 413636633	 161780.
03:08:28 1800 1801	 1492744108	 575372349	 161736.
03:08:28 1801 1802	 1492744108	 737512356	 162140.
03:08:28 1802 1803	 1492744108	 899226746	 161714.
03:08:29 1803 1804	 1492744109	 64956383	 165730.
03:08:29 1804 1805	 1492744109	 198082506	 133126.
03:08:29 1805 1806	 1492744109	 363662276	 165580.
03:08:29 1806 1807	 1492744109	 525263441	 161601.
03:08:29 1807 1808	 1492744109	 690883459	 165620.
03:08:29 1808 1809	 1492744109	 853567760	 162684.
03:08:30 1809 1810	 1492744110	 11135577	 157568.
03:08:30 1810 1811	 1492744110	 172692518	 161557.
03:08:30 1811 1812	 1492744110	 338430531	 165738.
03:08:30 1812 1813	 1492744110	 471517069	 133087.
03:08:30 1813 1814	 1492744110	 637246017	 165729.
03:08:30 1814 1815	 1492744110	 799270969	 162025.
03:08:30 1815 1816	 1492744110	 960942376	 161671.
03:08:31 1816 1817	 1492744111	 126707673	 165765.
03:08:31 1817 1818	 1492744111	 288406152	 161699.
03:08:31 1818 1819	 1492744111	 454100114	 165694.
03:08:31 1819 1820	 1492744111	 587108714	 133008.
03:08:31 1820 1821	 1492744111	 752951206	 165843.
03:08:31 1821 1822	 1492744111	 914599606	 161648.
03:08:32 1822 1823	 1492744112	 80425501	 165826.
03:08:32 1823 1824	 1492744112	 242177860	 161753.
03:08:32 1824 1825	 1492744112	 407870138	 165692.
03:08:32 1825 1826	 1492744112	 569623917	 161754.
03:08:32 1826 1827	 1492744112	 735547608	 165923.
03:08:32 1827 1828	 1492744112	 868726748	 133179.
03:08:33 1828 1829	 1492744113	 30699732	 161973.
03:08:33 1829 1830	 1492744113	 196358255	 165659.
03:08:33 1830 1831	 1492744113	 358236400	 161878.
03:08:33 1831 1832	 1492744113	 524169016	 165933.
03:08:33 1832 1833	 1492744113	 686063199	 161894.
03:08:33 1833 1834	 1492744113	 847688388	 161625.
03:08:34 1834 1835	 1492744114	 13561579	 165873.
03:08:34 1835 1836	 1492744114	 175447248	 161886.
03:08:34 1836 1837	 1492744114	 312659913	 137213.
03:08:34 1837 1838	 1492744114	 474756074	 162096.
03:08:34 1838 1839	 1492744114	 636725511	 161969.
03:08:34 1839 1840	 1492744114	 802637861	 165913.
03:08:34 1840 1841	 1492744114	 964458629	 161820.
03:08:35 1841 1842	 1492744115	 130439933	 165982.
03:08:35 1842 1843	 1492744115	 292131562	 161691.
03:08:35 1843 1844	 1492744115	 458055169	 165924.
03:08:35 1844 1845	 1492744115	 619722604	 161667.
03:08:35 1845 1846	 1492744115	 781620867	 161899.
03:08:35 1846 1847	 1492744115	 918933329	 137312.
03:08:36 1847 1848	 1492744116	 80887574	 161954.
03:08:36 1848 1849	 1492744116	 242865354	 161978.
03:08:36 1849 1850	 1492744116	 408755522	 165890.
03:08:36 1850 1851	 1492744116	 570324368	 161569.
03:08:36 1851 1852	 1492744116	 736088256	 165764.
03:08:36 1852 1853	 1492744116	 897776310	 161688.
03:08:37 1853 1854	 1492744117	 59467607	 161691.
03:08:37 1854 1855	 1492744117	 225255747	 165789.
03:08:37 1855 1856	 1492744117	 358291920	 133036.
03:08:37 1856 1857	 1492744117	 524136955	 165845.
03:08:37 1857 1858	 1492744117	 685827024	 161690.
03:08:37 1858 1859	 1492744117	 847457653	 161630.
03:08:38 1859 1860	 1492744118	 13258236	 165801.
03:08:38 1860 1861	 1492744118	 175028369	 161770.
03:08:38 1861 1862	 1492744118	 337168374	 162140.
03:08:38 1862 1863	 1492744118	 502925994	 165758.
03:08:38 1863 1864	 1492744118	 635969790	 133044.
03:08:38 1864 1865	 1492744118	 801783366	 165813.
03:08:38 1865 1866	 1492744118	 963360952	 161578.
03:08:39 1866 1867	 1492744119	 129201502	 165840.
03:08:39 1867 1868	 1492744119	 291181584	 161980.
03:08:39 1868 1869	 1492744119	 452936367	 161755.
03:08:39 1869 1870	 1492744119	 618760260	 165824.
03:08:39 1870 1871	 1492744119	 780470325	 161710.
03:08:39 1871 1872	 1492744119	 913462655	 132993.
03:08:40 1872 1873	 1492744120	 79262815	 165800.
03:08:40 1873 1874	 1492744120	 241015149	 161752.
03:08:40 1874 1875	 1492744120	 406886305	 165871.
03:08:40 1875 1876	 1492744120	 568658021	 161772.
03:08:40 1876 1877	 1492744120	 734420669	 165762.
03:08:40 1877 1878	 1492744120	 896216499	 161796.
03:08:41 1878 1879	 1492744121	 29130464	 132914.
