21:38:57    0 Step	 time(s)	 time(ns)	 delta(ms)
21:38:57    0 1	 1492465137	 456494669	 916.
21:38:57    1 2	 1492465137	 618015694	 161521.
21:38:57    2 3	 1492465137	 784183493	 166168.
21:38:57    3 4	 1492465137	 950204025	 166021.
21:38:58    4 5	 1492465138	 112102814	 161899.
21:38:58    5 6	 1492465138	 249310970	 137208.
21:38:58    6 7	 1492465138	 411389597	 162078.
21:38:58    7 8	 1492465138	 577302775	 165913.
21:38:58    8 9	 1492465138	 739211143	 161909.
21:38:58    9 10	 1492465138	 905146693	 165935.
21:38:59   10 11	 1492465139	 67201183	 162055.
21:38:59   11 12	 1492465139	 229219384	 162018.
21:38:59   12 13	 1492465139	 395237275	 166018.
21:38:59   13 14	 1492465139	 528403798	 133167.
21:38:59   14 15	 1492465139	 694204120	 165800.
21:38:59   15 16	 1492465139	 855902123	 161698.
21:39:00   16 17	 1492465140	 21957605	 166055.
21:39:00   17 18	 1492465140	 183816698	 161859.
21:39:00   18 19	 1492465140	 349765930	 165950.
21:39:00   19 20	 1492465140	 511800375	 162034.
21:39:00   20 21	 1492465140	 674254172	 162454.
21:39:00   21 22	 1492465140	 836180373	 161926.
21:39:00   22 23	 1492465140	 969394561	 133214.
21:39:01   23 24	 1492465141	 135430962	 166037.
21:39:01   24 25	 1492465141	 301603077	 166172.
21:39:01   25 26	 1492465141	 463673551	 162070.
21:39:01   26 27	 1492465141	 629779205	 166106.
21:39:01   27 28	 1492465141	 791740934	 161962.
21:39:01   28 29	 1492465141	 957790712	 166049.
21:39:02   29 30	 1492465142	 119751021	 161961.
21:39:02   30 31	 1492465142	 252928490	 133177.
21:39:02   31 32	 1492465142	 419001759	 166074.
21:39:02   32 33	 1492465142	 580894488	 161892.
21:39:02   33 34	 1492465142	 746923667	 166029.
21:39:02   34 35	 1492465142	 923586929	 176664.
21:39:03   35 36	 1492465143	 56839875	 133253.
21:39:03   36 37	 1492465143	 222716842	 165877.
21:39:03   37 38	 1492465143	 384626588	 161909.
21:39:03   38 39	 1492465143	 550649941	 166024.
21:39:03   39 40	 1492465143	 712787715	 162137.
21:39:03   40 41	 1492465143	 874917514	 162130.
21:39:04   41 42	 1492465144	 40788894	 165872.
21:39:04   42 43	 1492465144	 178167068	 137378.
21:39:04   43 44	 1492465144	 340039387	 161872.
21:39:04   44 45	 1492465144	 506022052	 165983.
21:39:04   45 46	 1492465144	 667860401	 161838.
21:39:04   46 47	 1492465144	 833820702	 165960.
21:39:04   47 48	 1492465144	 996081321	 162261.
21:39:05   48 49	 1492465145	 158042422	 161961.
21:39:05   49 50	 1492465145	 295384813	 137343.
21:39:05   50 51	 1492465145	 461385412	 166000.
21:39:05   51 52	 1492465145	 623148944	 161764.
21:39:05   52 53	 1492465145	 785355372	 162206.
21:39:05   53 54	 1492465145	 947151507	 161796.
21:39:06   54 55	 1492465146	 113151997	 166001.
21:39:06   55 56	 1492465146	 279047832	 165896.
21:39:06   56 57	 1492465146	 412229852	 133182.
21:39:06   57 58	 1492465146	 578195307	 165965.
21:39:06   58 59	 1492465146	 740161617	 161966.
21:39:06   59 60	 1492465146	 906271921	 166111.
21:39:07   60 61	 1492465147	 68293048	 162021.
21:39:07   61 62	 1492465147	 234355504	 166062.
21:39:07   62 63	 1492465147	 396384443	 162029.
21:39:07   63 64	 1492465147	 533668130	 137284.
21:39:07   64 65	 1492465147	 695597054	 161929.
21:39:07   65 66	 1492465147	 861571623	 165974.
21:39:08   66 67	 1492465148	 23509886	 161939.
21:39:08   67 68	 1492465148	 185410934	 161901.
21:39:08   68 69	 1492465148	 351408193	 165997.
21:39:08   69 70	 1492465148	 513602855	 162195.
21:39:08   70 71	 1492465148	 646898015	 133295.
21:39:08   71 72	 1492465148	 812977311	 166079.
21:39:08   72 73	 1492465148	 978905711	 165928.
21:39:09   73 74	 1492465149	 140727070	 161822.
21:39:09   74 75	 1492465149	 306903787	 166176.
21:39:09   75 76	 1492465149	 469056039	 162153.
21:39:09   76 77	 1492465149	 635186082	 166130.
21:39:09   77 78	 1492465149	 768473281	 133287.
21:39:09   78 79	 1492465149	 934665497	 166192.
21:39:10   79 80	 1492465150	 96492980	 161828.
21:39:10   80 81	 1492465150	 262533077	 166040.
21:39:10   81 82	 1492465150	 428659280	 166126.
21:39:10   82 83	 1492465150	 590615236	 161956.
21:39:10   83 84	 1492465150	 756665546	 166050.
21:39:10   84 85	 1492465150	 890028462	 133363.
21:39:11   85 86	 1492465151	 56005311	 165977.
21:39:11   86 87	 1492465151	 218008744	 162003.
21:39:11   87 88	 1492465151	 383981539	 165973.
21:39:11   88 89	 1492465151	 545921258	 161940.
21:39:11   89 90	 1492465151	 711911602	 165990.
21:39:11   90 91	 1492465151	 873741000	 161830.
21:39:12   91 92	 1492465152	 10941829	 137201.
21:39:12   92 93	 1492465152	 172852075	 161910.
21:39:12   93 94	 1492465152	 338756623	 165904.
21:39:12   94 95	 1492465152	 504741301	 165985.
21:39:12   95 96	 1492465152	 666523304	 161782.
21:39:12   96 97	 1492465152	 832503640	 165980.
21:39:12   97 98	 1492465152	 965689316	 133186.
21:39:13   98 99	 1492465153	 127672596	 161983.
21:39:13   99 100	 1492465153	 293606353	 165934.
21:39:13  100 101	 1492465153	 459645690	 166039.
21:39:13  101 102	 1492465153	 621573305	 161928.
21:39:13  102 103	 1492465153	 787493450	 165920.
21:39:13  103 104	 1492465153	 949366512	 161873.
21:39:14  104 105	 1492465154	 82659507	 133293.
21:39:14  105 106	 1492465154	 248561255	 165902.
21:39:14  106 107	 1492465154	 414542732	 165981.
21:39:14  107 108	 1492465154	 572889162	 158347.
21:39:14  108 109	 1492465154	 738796454	 165907.
21:39:14  109 110	 1492465154	 900476517	 161680.
21:39:15  110 111	 1492465155	 62311036	 161835.
21:39:15  111 112	 1492465155	 199451374	 137140.
21:39:15  112 113	 1492465155	 365347917	 165897.
21:39:15  113 114	 1492465155	 527253958	 161906.
21:39:15  114 115	 1492465155	 693196289	 165942.
21:39:15  115 116	 1492465155	 854941148	 161745.
21:39:16  116 117	 1492465156	 20840619	 165899.
21:39:16  117 118	 1492465156	 182969597	 162129.
21:39:16  118 119	 1492465156	 316092599	 133123.
21:39:16  119 120	 1492465156	 481985778	 165894.
21:39:16  120 121	 1492465156	 643930687	 161944.
21:39:16  121 122	 1492465156	 810541086	 166611.
21:39:16  122 123	 1492465156	 968222655	 157681.
21:39:17  123 124	 1492465157	 134082131	 165860.
21:39:17  124 125	 1492465157	 296113690	 162031.
21:39:17  125 126	 1492465157	 458000458	 161887.
21:39:17  126 127	 1492465157	 595177574	 137177.
21:39:17  127 128	 1492465157	 757081835	 161905.
21:39:17  128 129	 1492465157	 919080247	 161998.
21:39:18  129 130	 1492465158	 85098700	 166018.
21:39:18  130 131	 1492465158	 246822238	 161724.
21:39:18  131 132	 1492465158	 412881007	 166059.
21:39:18  132 133	 1492465158	 574752299	 161871.
21:39:18  133 134	 1492465158	 712072267	 137320.
21:39:18  134 135	 1492465158	 873852068	 161780.
21:39:19  135 136	 1492465159	 39856522	 166004.
21:39:19  136 137	 1492465159	 201797482	 161941.
21:39:19  137 138	 1492465159	 367763495	 165966.
21:39:19  138 139	 1492465159	 533755230	 165992.
21:39:19  139 140	 1492465159	 695579691	 161824.
21:39:19  140 141	 1492465159	 857663742	 162084.
21:39:19  141 142	 1492465159	 994976175	 137313.
21:39:20  142 143	 1492465160	 156944050	 161968.
21:39:20  143 144	 1492465160	 322865063	 165921.
21:39:20  144 145	 1492465160	 484842641	 161977.
21:39:20  145 146	 1492465160	 650738235	 165896.
21:39:20  146 147	 1492465160	 812663052	 161925.
21:39:20  147 148	 1492465160	 949974002	 137311.
21:39:21  148 149	 1492465161	 111948475	 161974.
21:39:21  149 150	 1492465161	 277830950	 165883.
21:39:21  150 151	 1492465161	 439661614	 161830.
21:39:21  151 152	 1492465161	 605763260	 166102.
21:39:21  152 153	 1492465161	 767670183	 161907.
21:39:21  153 154	 1492465161	 933518006	 165848.
21:39:22  154 155	 1492465162	 66719588	 133201.
21:39:22  155 156	 1492465162	 232542605	 165823.
21:39:22  156 157	 1492465162	 398486058	 165944.
21:39:22  157 158	 1492465162	 560306273	 161820.
21:39:22  158 159	 1492465162	 726240726	 165934.
21:39:22  159 160	 1492465162	 888084132	 161844.
21:39:23  160 161	 1492465163	 54191986	 166108.
21:39:23  161 162	 1492465163	 187305464	 133113.
21:39:23  162 163	 1492465163	 353160616	 165855.
21:39:23  163 164	 1492465163	 514939245	 161779.
21:39:23  164 165	 1492465163	 680992259	 166053.
21:39:23  165 166	 1492465163	 842916420	 161924.
21:39:24  166 167	 1492465164	 8907669	 165991.
21:39:24  167 168	 1492465164	 142067140	 133160.
21:39:24  168 169	 1492465164	 308210360	 166143.
21:39:24  169 170	 1492465164	 470139793	 161929.
21:39:24  170 171	 1492465164	 632056040	 161917.
21:39:24  171 172	 1492465164	 798142107	 166086.
21:39:24  172 173	 1492465164	 960012456	 161870.
21:39:25  173 174	 1492465165	 126079652	 166067.
21:39:25  174 175	 1492465165	 287986333	 161907.
21:39:25  175 176	 1492465165	 425252357	 137266.
21:39:25  176 177	 1492465165	 587105234	 161853.
21:39:25  177 178	 1492465165	 753117026	 166012.
21:39:25  178 179	 1492465165	 914932088	 161815.
21:39:26  179 180	 1492465166	 80939163	 166007.
21:39:26  180 181	 1492465166	 242830624	 161891.
21:39:26  181 182	 1492465166	 379993013	 137163.
21:39:26  182 183	 1492465166	 541996808	 162004.
21:39:26  183 184	 1492465166	 708019273	 166022.
21:39:26  184 185	 1492465166	 869935891	 161917.
21:39:27  185 186	 1492465167	 31856592	 161920.
21:39:27  186 187	 1492465167	 197667493	 165811.
21:39:27  187 188	 1492465167	 363803896	 166137.
21:39:27  188 189	 1492465167	 521672801	 157869.
21:39:27  189 190	 1492465167	 658932046	 137259.
21:39:27  190 191	 1492465167	 820868021	 161936.
21:39:27  191 192	 1492465167	 986655868	 165788.
21:39:28  192 193	 1492465168	 148610424	 161954.
21:39:28  193 194	 1492465168	 314432458	 165822.
21:39:28  194 195	 1492465168	 476380226	 161948.
21:39:28  195 196	 1492465168	 642336156	 165956.
21:39:28  196 197	 1492465168	 775542007	 133206.
21:39:28  197 198	 1492465168	 941495140	 165953.
21:39:29  198 199	 1492465169	 103434551	 161939.
21:39:29  199 200	 1492465169	 269415457	 165981.
21:39:29  200 201	 1492465169	 431220459	 161805.
21:39:29  201 202	 1492465169	 597202742	 165982.
21:39:29  202 203	 1492465169	 759066927	 161865.
21:39:29  203 204	 1492465169	 892256315	 133189.
21:39:30  204 205	 1492465170	 58119973	 165864.
21:39:30  205 206	 1492465170	 220042809	 161923.
21:39:30  206 207	 1492465170	 381903569	 161860.
21:39:30  207 208	 1492465170	 547902967	 166000.
21:39:30  208 209	 1492465170	 713944229	 166041.
21:39:30  209 210	 1492465170	 875951457	 162007.
21:39:31  210 211	 1492465171	 13172606	 137221.
21:39:31  211 212	 1492465171	 175316576	 162144.
21:39:31  212 213	 1492465171	 337446711	 162130.
21:39:31  213 214	 1492465171	 503599587	 166153.
21:39:31  214 215	 1492465171	 665342738	 161743.
21:39:31  215 216	 1492465171	 827151947	 161810.
21:39:31  216 217	 1492465171	 993084448	 165932.
21:39:32  217 218	 1492465172	 159137596	 166053.
21:39:32  218 219	 1492465172	 292353641	 133216.
21:39:32  219 220	 1492465172	 454322064	 161969.
21:39:32  220 221	 1492465172	 616820578	 162498.
21:39:32  221 222	 1492465172	 778617370	 161797.
21:39:32  222 223	 1492465172	 940464016	 161847.
21:39:33  223 224	 1492465173	 106345213	 165881.
21:39:33  224 225	 1492465173	 272214042	 165869.
21:39:33  225 226	 1492465173	 434131055	 161917.
21:39:33  226 227	 1492465173	 567360915	 133230.
21:39:33  227 228	 1492465173	 733465624	 166104.
21:39:33  228 229	 1492465173	 895333782	 161868.
21:39:34  229 230	 1492465174	 61188439	 165855.
21:39:34  230 231	 1492465174	 226945992	 165758.
21:39:34  231 232	 1492465174	 388882227	 161936.
21:39:34  232 233	 1492465174	 554843872	 165962.
21:39:34  233 234	 1492465174	 716712393	 161868.
21:39:34  234 235	 1492465174	 849889036	 133177.
21:39:35  235 236	 1492465175	 15787723	 165898.
21:39:35  236 237	 1492465175	 177952169	 162165.
21:39:35  237 238	 1492465175	 343798847	 165847.
21:39:35  238 239	 1492465175	 505542199	 161743.
21:39:35  239 240	 1492465175	 671366218	 165824.
21:39:35  240 241	 1492465175	 833157698	 161791.
21:39:35  241 242	 1492465175	 966292823	 133136.
21:39:36  242 243	 1492465176	 132181015	 165888.
21:39:36  243 244	 1492465176	 294227004	 162046.
21:39:36  244 245	 1492465176	 456214940	 161988.
21:39:36  245 246	 1492465176	 622197041	 165982.
21:39:36  246 247	 1492465176	 794946482	 172749.
21:39:36  247 248	 1492465176	 928081881	 133136.
21:39:37  248 249	 1492465177	 93987014	 165905.
21:39:37  249 250	 1492465177	 259908916	 165922.
21:39:37  250 251	 1492465177	 421909972	 162001.
21:39:37  251 252	 1492465177	 587898098	 165988.
21:39:37  252 253	 1492465177	 749695953	 161798.
21:39:37  253 254	 1492465177	 886926050	 137230.
21:39:38  254 255	 1492465178	 48746408	 161820.
21:39:38  255 256	 1492465178	 214580537	 165834.
21:39:38  256 257	 1492465178	 376324817	 161745.
21:39:38  257 258	 1492465178	 538684863	 162360.
21:39:38  258 259	 1492465178	 700660322	 161975.
21:39:38  259 260	 1492465178	 866528254	 165868.
21:39:39  260 261	 1492465179	 28394383	 161866.
21:39:39  261 262	 1492465179	 190169125	 161775.
21:39:39  262 263	 1492465179	 327551740	 137383.
21:39:39  263 264	 1492465179	 489619654	 162067.
21:39:39  264 265	 1492465179	 651573412	 161954.
21:39:39  265 266	 1492465179	 817296411	 165723.
21:39:39  266 267	 1492465179	 979164671	 161868.
21:39:40  267 268	 1492465180	 145273763	 166110.
21:39:40  268 269	 1492465180	 307179892	 161906.
21:39:40  269 270	 1492465180	 473061332	 165881.
21:39:40  270 271	 1492465180	 606147269	 133086.
21:39:40  271 272	 1492465180	 772068628	 165921.
21:39:40  272 273	 1492465180	 933997953	 161930.
21:39:41  273 274	 1492465181	 99926203	 165928.
21:39:41  274 275	 1492465181	 261907107	 161981.
21:39:41  275 276	 1492465181	 427928733	 166021.
21:39:41  276 277	 1492465181	 589840584	 161912.
21:39:41  277 278	 1492465181	 727058542	 137218.
21:39:41  278 279	 1492465181	 889048048	 161990.
21:39:42  279 280	 1492465182	 55157549	 166109.
21:39:42  280 281	 1492465182	 217037617	 161880.
21:39:42  281 282	 1492465182	 382889453	 165852.
21:39:42  282 283	 1492465182	 544798996	 161910.
21:39:42  283 284	 1492465182	 710956144	 166157.
21:39:42  284 285	 1492465182	 872961407	 162005.
21:39:43  285 286	 1492465183	 6199233	 133238.
21:39:43  286 287	 1492465183	 172205919	 166007.
21:39:43  287 288	 1492465183	 338195818	 165990.
21:39:43  288 289	 1492465183	 500089062	 161893.
21:39:43  289 290	 1492465183	 666091820	 166003.
21:39:43  290 291	 1492465183	 828038919	 161947.
21:39:43  291 292	 1492465183	 993987910	 165949.
21:39:44  292 293	 1492465184	 155759360	 161771.
21:39:44  293 294	 1492465184	 292995015	 137236.
21:39:44  294 295	 1492465184	 454881595	 161886.
21:39:44  295 296	 1492465184	 616816273	 161935.
21:39:44  296 297	 1492465184	 782750277	 165934.
21:39:44  297 298	 1492465184	 944618792	 161868.
21:39:45  298 299	 1492465185	 110560078	 165942.
21:39:45  299 300	 1492465185	 276645321	 166085.
21:39:45  300 301	 1492465185	 409884421	 133239.
21:39:45  301 302	 1492465185	 571760722	 161876.
21:39:45  302 303	 1492465185	 737820466	 166060.
21:39:45  303 304	 1492465185	 903998469	 166178.
21:39:46  304 305	 1492465186	 65988331	 161990.
21:39:46  305 306	 1492465186	 231910440	 165922.
21:39:46  306 307	 1492465186	 393753390	 161843.
21:39:46  307 308	 1492465186	 531038118	 137285.
21:39:46  308 309	 1492465186	 693065505	 162027.
21:39:46  309 310	 1492465186	 858923797	 165859.
21:39:47  310 311	 1492465187	 20775023	 161851.
21:39:47  311 312	 1492465187	 186836881	 166062.
21:39:47  312 313	 1492465187	 348801915	 161965.
21:39:47  313 314	 1492465187	 510892358	 162090.
21:39:47  314 315	 1492465187	 672670508	 161778.
21:39:47  315 316	 1492465187	 809834370	 137164.
21:39:47  316 317	 1492465187	 971724658	 161890.
21:39:48  317 318	 1492465188	 137675787	 165951.
21:39:48  318 319	 1492465188	 303593410	 165918.
21:39:48  319 320	 1492465188	 465373255	 161780.
21:39:48  320 321	 1492465188	 631248292	 165875.
21:39:48  321 322	 1492465188	 793123629	 161875.
21:39:48  322 323	 1492465188	 930341018	 137218.
21:39:49  323 324	 1492465189	 92261939	 161921.
21:39:49  324 325	 1492465189	 258148333	 165886.
21:39:49  325 326	 1492465189	 420087954	 161940.
21:39:49  326 327	 1492465189	 586150822	 166063.
21:39:49  327 328	 1492465189	 748250331	 162099.
21:39:49  328 329	 1492465189	 914164100	 165914.
21:39:50  329 330	 1492465190	 72557089	 158393.
21:39:50  330 331	 1492465190	 209739331	 137182.
21:39:50  331 332	 1492465190	 371502507	 161763.
21:39:50  332 333	 1492465190	 537409099	 165907.
21:39:50  333 334	 1492465190	 699242921	 161834.
21:39:50  334 335	 1492465190	 865051266	 165808.
21:39:51  335 336	 1492465191	 27043316	 161992.
21:39:51  336 337	 1492465191	 193005161	 165962.
21:39:51  337 338	 1492465191	 354938293	 161933.
21:39:51  338 339	 1492465191	 492082539	 137144.
21:39:51  339 340	 1492465191	 653927694	 161845.
21:39:51  340 341	 1492465191	 815810459	 161883.
21:39:51  341 342	 1492465191	 981700103	 165890.
21:39:52  342 343	 1492465192	 143492483	 161792.
21:39:52  343 344	 1492465192	 309641391	 166149.
21:39:52  344 345	 1492465192	 471290818	 161650.
21:39:52  345 346	 1492465192	 608414325	 137123.
21:39:52  346 347	 1492465192	 770292774	 161878.
21:39:52  347 348	 1492465192	 936202611	 165910.
21:39:53  348 349	 1492465193	 98097049	 161895.
21:39:53  349 350	 1492465193	 259995449	 161898.
21:39:53  350 351	 1492465193	 425928229	 165933.
21:39:53  351 352	 1492465193	 587847938	 161920.
21:39:53  352 353	 1492465193	 750083068	 162235.
21:39:53  353 354	 1492465193	 883292687	 133209.
21:39:54  354 355	 1492465194	 49455890	 166164.
21:39:54  355 356	 1492465194	 211251817	 161796.
21:39:54  356 357	 1492465194	 373176040	 161924.
21:39:54  357 358	 1492465194	 539377322	 166201.
21:39:54  358 359	 1492465194	 701161634	 161784.
21:39:54  359 360	 1492465194	 867088264	 165927.
21:39:54  360 361	 1492465195	 150584	 133062.
21:39:55  361 362	 1492465195	 166116538	 165966.
21:39:55  362 363	 1492465195	 328020670	 161904.
21:39:55  363 364	 1492465195	 493867762	 165847.
21:39:55  364 365	 1492465195	 656032992	 162166.
21:39:55  365 366	 1492465195	 822069662	 166036.
21:39:55  366 367	 1492465195	 984383329	 162314.
21:39:56  367 368	 1492465196	 150355002	 165972.
21:39:56  368 369	 1492465196	 283647089	 133292.
21:39:56  369 370	 1492465196	 445487367	 161840.
21:39:56  370 371	 1492465196	 611365941	 165879.
21:39:56  371 372	 1492465196	 773215408	 161849.
21:39:56  372 373	 1492465196	 939073181	 165858.
21:39:57  373 374	 1492465197	 100788816	 161716.
21:39:57  374 375	 1492465197	 266564702	 165775.
21:39:57  375 376	 1492465197	 399770818	 133207.
21:39:57  376 377	 1492465197	 561342595	 161571.
21:39:57  377 378	 1492465197	 727191566	 165849.
21:39:57  378 379	 1492465197	 885190776	 157999.
21:39:58  379 380	 1492465198	 50876798	 165687.
21:39:58  380 381	 1492465198	 212529668	 161652.
21:39:58  381 382	 1492465198	 349730569	 137201.
21:39:58  382 383	 1492465198	 511625602	 161895.
21:39:58  383 384	 1492465198	 677432901	 165808.
21:39:58  384 385	 1492465198	 839431288	 161998.
21:39:58  385 386	 1492465199	 1373920	 161943.
21:39:59  386 387	 1492465199	 167343334	 165969.
21:39:59  387 388	 1492465199	 333296876	 165954.
21:39:59  388 389	 1492465199	 466400349	 133103.
21:39:59  389 390	 1492465199	 628184537	 161784.
21:39:59  390 391	 1492465199	 794244737	 166060.
21:39:59  391 392	 1492465199	 960135753	 165891.
21:40:00  392 393	 1492465200	 122043003	 161908.
21:40:00  393 394	 1492465200	 288166015	 166123.
21:40:00  394 395	 1492465200	 450223757	 162057.
21:40:00  395 396	 1492465200	 612006219	 161783.
21:40:00  396 397	 1492465200	 778064460	 166058.
21:40:00  397 398	 1492465200	 911318411	 133254.
21:40:01  398 399	 1492465201	 77155112	 165837.
21:40:01  399 400	 1492465201	 239035466	 161880.
21:40:01  400 401	 1492465201	 401456577	 162421.
21:40:01  401 402	 1492465201	 567524764	 166068.
21:40:01  402 403	 1492465201	 729660947	 162137.
21:40:01  403 404	 1492465201	 895929600	 166268.
21:40:02  404 405	 1492465202	 58015998	 162087.
21:40:02  405 406	 1492465202	 195508703	 137492.
21:40:02  406 407	 1492465202	 357523776	 162015.
21:40:02  407 408	 1492465202	 519429380	 161906.
21:40:02  408 409	 1492465202	 685527237	 166098.
21:40:02  409 410	 1492465202	 851628575	 166101.
21:40:03  410 411	 1492465203	 13705201	 162077.
21:40:03  411 412	 1492465203	 172299791	 158595.
21:40:03  412 413	 1492465203	 338386486	 166086.
21:40:03  413 414	 1492465203	 471712210	 133326.
21:40:03  414 415	 1492465203	 638065700	 166353.
21:40:03  415 416	 1492465203	 800069373	 162004.
21:40:03  416 417	 1492465203	 966158966	 166090.
21:40:04  417 418	 1492465204	 128059407	 161900.
21:40:04  418 419	 1492465204	 294118711	 166059.
21:40:04  419 420	 1492465204	 456217416	 162099.
21:40:04  420 421	 1492465204	 622244913	 166028.
21:40:04  421 422	 1492465204	 755577757	 133332.
21:40:04  422 423	 1492465204	 921601438	 166024.
21:40:05  423 424	 1492465205	 87837973	 166237.
21:40:05  424 425	 1492465205	 249820351	 161982.
21:40:05  425 426	 1492465205	 415819914	 166000.
21:40:05  426 427	 1492465205	 577870236	 162050.
21:40:05  427 428	 1492465205	 743983078	 166113.
21:40:05  428 429	 1492465205	 877340396	 133357.
21:40:06  429 430	 1492465206	 39402804	 162063.
21:40:06  430 431	 1492465206	 205408970	 166006.
21:40:06  431 432	 1492465206	 367669804	 162261.
21:40:06  432 433	 1492465206	 533799065	 166129.
21:40:06  433 434	 1492465206	 696545210	 162746.
21:40:06  434 435	 1492465206	 858560487	 162015.
21:40:07  435 436	 1492465207	 24653076	 166093.
21:40:07  436 437	 1492465207	 157888096	 133235.
21:40:07  437 438	 1492465207	 319888118	 162000.
21:40:07  438 439	 1492465207	 486167391	 166279.
21:40:07  439 440	 1492465207	 652418119	 166251.
21:40:07  440 441	 1492465207	 814549734	 162131.
21:40:07  441 442	 1492465207	 980831389	 166282.
21:40:08  442 443	 1492465208	 142967097	 162136.
21:40:08  443 444	 1492465208	 309197650	 166230.
21:40:08  444 445	 1492465208	 442541254	 133344.
21:40:08  445 446	 1492465208	 608667391	 166126.
21:40:08  446 447	 1492465208	 774786898	 166120.
21:40:08  447 448	 1492465208	 936847544	 162060.
21:40:09  448 449	 1492465209	 102985040	 166138.
21:40:09  449 450	 1492465209	 264853991	 161869.
21:40:09  450 451	 1492465209	 398140435	 133286.
21:40:09  451 452	 1492465209	 564172312	 166032.
21:40:09  452 453	 1492465209	 730186050	 166014.
21:40:09  453 454	 1492465209	 892357005	 162171.
21:40:10  454 455	 1492465210	 58506606	 166149.
21:40:10  455 456	 1492465210	 220450192	 161944.
21:40:10  456 457	 1492465210	 386468212	 166018.
21:40:10  457 458	 1492465210	 548369160	 161901.
21:40:10  458 459	 1492465210	 710837455	 162468.
21:40:10  459 460	 1492465210	 848292247	 137455.
21:40:11  460 461	 1492465211	 10347765	 162055.
21:40:11  461 462	 1492465211	 176170889	 165824.
21:40:11  462 463	 1492465211	 338283984	 162113.
21:40:11  463 464	 1492465211	 504386189	 166102.
21:40:11  464 465	 1492465211	 666281480	 161895.
21:40:11  465 466	 1492465211	 832296945	 166016.
21:40:11  466 467	 1492465211	 965788829	 133492.
21:40:12  467 468	 1492465212	 128132480	 162343.
21:40:12  468 469	 1492465212	 294078481	 165946.
21:40:12  469 470	 1492465212	 456561884	 162484.
21:40:12  470 471	 1492465212	 618713124	 162151.
21:40:12  471 472	 1492465212	 784980050	 166267.
21:40:12  472 473	 1492465212	 947201623	 162221.
21:40:13  473 474	 1492465213	 113362626	 166161.
21:40:13  474 475	 1492465213	 275405704	 162043.
21:40:13  475 476	 1492465213	 408719041	 133314.
21:40:13  476 477	 1492465213	 574815603	 166096.
21:40:13  477 478	 1492465213	 736777237	 161962.
21:40:13  478 479	 1492465213	 902906276	 166129.
21:40:14  479 480	 1492465214	 65073259	 162167.
21:40:14  480 481	 1492465214	 231093046	 166020.
21:40:14  481 482	 1492465214	 393291723	 162198.
21:40:14  482 483	 1492465214	 530711869	 137421.
21:40:14  483 484	 1492465214	 696805024	 166093.
21:40:14  484 485	 1492465214	 858902298	 162097.
21:40:15  485 486	 1492465215	 24927319	 166025.
21:40:15  486 487	 1492465215	 186869517	 161942.
21:40:15  487 488	 1492465215	 349210328	 162341.
21:40:15  488 489	 1492465215	 511111246	 161901.
21:40:15  489 490	 1492465215	 648353015	 137242.
21:40:15  490 491	 1492465215	 810251659	 161898.
21:40:15  491 492	 1492465215	 976198487	 165947.
21:40:16  492 493	 1492465216	 138106331	 161908.
21:40:16  493 494	 1492465216	 304087115	 165981.
21:40:16  494 495	 1492465216	 462406368	 158319.
21:40:16  495 496	 1492465216	 628543479	 166137.
21:40:16  496 497	 1492465216	 790403185	 161860.
21:40:16  497 498	 1492465216	 927616628	 137213.
21:40:17  498 499	 1492465217	 89513505	 161897.
21:40:17  499 500	 1492465217	 255609698	 166096.
21:40:17  500 501	 1492465217	 417592534	 161983.
21:40:17  501 502	 1492465217	 583607852	 166016.
21:40:17  502 503	 1492465217	 745364086	 161756.
21:40:17  503 504	 1492465217	 907335565	 161971.
21:40:18  504 505	 1492465218	 69253534	 161918.
21:40:18  505 506	 1492465218	 206712447	 137459.
21:40:18  506 507	 1492465218	 368602474	 161890.
21:40:18  507 508	 1492465218	 534694372	 166092.
21:40:18  508 509	 1492465218	 696560625	 161866.
21:40:18  509 510	 1492465218	 862486516	 165926.
21:40:19  510 511	 1492465219	 24354268	 161868.
21:40:19  511 512	 1492465219	 190501399	 166147.
21:40:19  512 513	 1492465219	 352248362	 161747.
21:40:19  513 514	 1492465219	 489306019	 137058.
21:40:19  514 515	 1492465219	 651007954	 161702.
21:40:19  515 516	 1492465219	 816766368	 165758.
21:40:19  516 517	 1492465219	 978590745	 161824.
21:40:20  517 518	 1492465220	 144598073	 166008.
21:40:20  518 519	 1492465220	 306408941	 161811.
21:40:20  519 520	 1492465220	 443631562	 137222.
21:40:20  520 521	 1492465220	 605577107	 161946.
21:40:20  521 522	 1492465220	 771396652	 165819.
21:40:20  522 523	 1492465220	 937228617	 165832.
21:40:21  523 524	 1492465221	 99084089	 161856.
21:40:21  524 525	 1492465221	 260899357	 161815.
21:40:21  525 526	 1492465221	 398056791	 137158.
21:40:21  526 527	 1492465221	 559818931	 161762.
21:40:21  527 528	 1492465221	 725642480	 165823.
21:40:21  528 529	 1492465221	 891574077	 165932.
21:40:22  529 530	 1492465222	 54104119	 162530.
21:40:22  530 531	 1492465222	 212066881	 157963.
21:40:22  531 532	 1492465222	 373819699	 161752.
21:40:22  532 533	 1492465222	 539769348	 165950.
21:40:22  533 534	 1492465222	 672972734	 133203.
21:40:22  534 535	 1492465222	 838971385	 165999.
21:40:22  535 536	 1492465223	 819112	 161848.
21:40:23  536 537	 1492465223	 159418515	 158599.
21:40:23  537 538	 1492465223	 325323916	 165906.
21:40:23  538 539	 1492465223	 487465003	 162141.
21:40:23  539 540	 1492465223	 649402521	 161937.
21:40:23  540 541	 1492465223	 815370053	 165968.
21:40:23  541 542	 1492465223	 977380636	 162010.
21:40:24  542 543	 1492465224	 143270459	 165890.
21:40:24  543 544	 1492465224	 276425241	 133155.
21:40:24  544 545	 1492465224	 438221310	 161796.
21:40:24  545 546	 1492465224	 599963364	 161742.
21:40:24  546 547	 1492465224	 766093659	 166130.
21:40:24  547 548	 1492465224	 924908204	 158815.
21:40:25  548 549	 1492465225	 86791044	 161883.
21:40:25  549 550	 1492465225	 248723121	 161932.
21:40:25  550 551	 1492465225	 414663797	 165941.
21:40:25  551 552	 1492465225	 547860997	 133197.
21:40:25  552 553	 1492465225	 713792975	 165932.
21:40:25  553 554	 1492465225	 879723239	 165930.
21:40:26  554 555	 1492465226	 41692215	 161969.
21:40:26  555 556	 1492465226	 207701385	 166009.
21:40:26  556 557	 1492465226	 369579913	 161879.
21:40:26  557 558	 1492465226	 535557785	 165978.
21:40:26  558 559	 1492465226	 668673731	 133115.
21:40:26  559 560	 1492465226	 834570322	 165897.
21:40:26  560 561	 1492465226	 996430359	 161860.
21:40:27  561 562	 1492465227	 162338905	 165909.
21:40:27  562 563	 1492465227	 324354887	 162016.
21:40:27  563 564	 1492465227	 486360165	 162005.
21:40:27  564 565	 1492465227	 653115634	 166755.
21:40:27  565 566	 1492465227	 810867675	 157753.
21:40:27  566 567	 1492465227	 943981338	 133113.
21:40:28  567 568	 1492465228	 110065596	 166084.
21:40:28  568 569	 1492465228	 271853274	 161788.
21:40:28  569 570	 1492465228	 437929405	 166076.
21:40:28  570 571	 1492465228	 600054502	 162125.
21:40:28  571 572	 1492465228	 766056545	 166002.
21:40:28  572 573	 1492465228	 927940369	 161884.
21:40:29  573 574	 1492465229	 93818612	 165878.
21:40:29  574 575	 1492465229	 226774542	 132956.
21:40:29  575 576	 1492465229	 388606661	 161832.
21:40:29  576 577	 1492465229	 554601759	 165995.
21:40:29  577 578	 1492465229	 720570216	 165969.
21:40:29  578 579	 1492465229	 882560854	 161991.
21:40:30  579 580	 1492465230	 44374991	 161814.
21:40:30  580 581	 1492465230	 210495474	 166120.
21:40:30  581 582	 1492465230	 372272428	 161777.
21:40:30  582 583	 1492465230	 505485980	 133214.
21:40:30  583 584	 1492465230	 671430998	 165945.
21:40:30  584 585	 1492465230	 833268657	 161837.
21:40:30  585 586	 1492465230	 999414589	 166146.
21:40:31  586 587	 1492465231	 161453030	 162039.
21:40:31  587 588	 1492465231	 323353216	 161900.
21:40:31  588 589	 1492465231	 489326772	 165973.
21:40:31  589 590	 1492465231	 622583615	 133257.
21:40:31  590 591	 1492465231	 784884214	 162301.
21:40:31  591 592	 1492465231	 950792756	 165908.
21:40:32  592 593	 1492465232	 112762790	 161970.
21:40:32  593 594	 1492465232	 274570441	 161808.
21:40:32  594 595	 1492465232	 440516586	 165946.
21:40:32  595 596	 1492465232	 602449403	 161933.
21:40:32  596 597	 1492465232	 739649227	 137200.
21:40:32  597 598	 1492465232	 901433611	 161784.
21:40:33  598 599	 1492465233	 67574265	 166141.
21:40:33  599 600	 1492465233	 229744114	 162170.
21:40:33  600 601	 1492465233	 391591757	 161847.
21:40:33  601 602	 1492465233	 557417621	 165826.
21:40:33  602 603	 1492465233	 719227193	 161810.
21:40:33  603 604	 1492465233	 856344139	 137117.
21:40:34  604 605	 1492465234	 18181189	 161837.
21:40:34  605 606	 1492465234	 184052340	 165871.
21:40:34  606 607	 1492465234	 349966598	 165914.
21:40:34  607 608	 1492465234	 511829149	 161863.
21:40:34  608 609	 1492465234	 673923150	 162094.
21:40:34  609 610	 1492465234	 839884908	 165962.
21:40:34  610 611	 1492465234	 973167967	 133283.
21:40:35  611 612	 1492465235	 139172856	 166005.
21:40:35  612 613	 1492465235	 301151505	 161978.
21:40:35  613 614	 1492465235	 463109963	 161959.
21:40:35  614 615	 1492465235	 629179320	 166069.
21:40:35  615 616	 1492465235	 791047801	 161869.
21:40:35  616 617	 1492465235	 956947247	 165899.
21:40:36  617 618	 1492465236	 119083529	 162136.
21:40:36  618 619	 1492465236	 256211491	 137128.
21:40:36  619 620	 1492465236	 418229360	 162018.
21:40:36  620 621	 1492465236	 580053973	 161825.
21:40:36  621 622	 1492465236	 745897754	 165843.
21:40:36  622 623	 1492465236	 907939174	 162042.
21:40:37  623 624	 1492465237	 73880726	 165941.
21:40:37  624 625	 1492465237	 235774522	 161894.
21:40:37  625 626	 1492465237	 373048807	 137275.
21:40:37  626 627	 1492465237	 535188103	 162139.
21:40:37  627 628	 1492465237	 701184312	 165996.
21:40:37  628 629	 1492465237	 863068690	 161884.
21:40:38  629 630	 1492465238	 24986417	 161918.
21:40:38  630 631	 1492465238	 190883272	 165897.
21:40:38  631 632	 1492465238	 352635650	 161752.
21:40:38  632 633	 1492465238	 518742827	 166108.
21:40:38  633 634	 1492465238	 651957944	 133215.
21:40:38  634 635	 1492465238	 818019584	 166061.
21:40:38  635 636	 1492465238	 980701818	 162683.
21:40:39  636 637	 1492465239	 138583841	 157882.
21:40:39  637 638	 1492465239	 304460128	 165876.
21:40:39  638 639	 1492465239	 470478296	 166018.
21:40:39  639 640	 1492465239	 632357193	 161879.
21:40:39  640 641	 1492465239	 798312138	 165955.
21:40:39  641 642	 1492465239	 931484643	 133172.
21:40:40  642 643	 1492465240	 97622312	 166138.
21:40:40  643 644	 1492465240	 259592498	 161970.
21:40:40  644 645	 1492465240	 421452442	 161860.
21:40:40  645 646	 1492465240	 587363548	 165911.
21:40:40  646 647	 1492465240	 749384199	 162021.
21:40:40  647 648	 1492465240	 915294863	 165911.
21:40:41  648 649	 1492465241	 48401444	 133106.
21:40:41  649 650	 1492465241	 214276500	 165875.
21:40:41  650 651	 1492465241	 376084597	 161808.
21:40:41  651 652	 1492465241	 542075289	 165991.
21:40:41  652 653	 1492465241	 704002175	 161927.
21:40:41  653 654	 1492465241	 870027130	 166025.
21:40:42  654 655	 1492465242	 31897307	 161870.
21:40:42  655 656	 1492465242	 169147549	 137250.
21:40:42  656 657	 1492465242	 330987226	 161840.
21:40:42  657 658	 1492465242	 496931014	 165944.
21:40:42  658 659	 1492465242	 658778432	 161847.
21:40:42  659 660	 1492465242	 824856639	 166078.
21:40:42  660 661	 1492465242	 986901408	 162045.
21:40:43  661 662	 1492465243	 153004682	 166103.
21:40:43  662 663	 1492465243	 314888641	 161884.
21:40:43  663 664	 1492465243	 452058245	 137170.
21:40:43  664 665	 1492465243	 613936596	 161878.
21:40:43  665 666	 1492465243	 779969903	 166034.
21:40:43  666 667	 1492465243	 941724114	 161754.
21:40:44  667 668	 1492465244	 107863208	 166139.
21:40:44  668 669	 1492465244	 269828842	 161966.
21:40:44  669 670	 1492465244	 435840850	 166012.
21:40:44  670 671	 1492465244	 597795745	 161954.
21:40:44  671 672	 1492465244	 731099556	 133304.
21:40:44  672 673	 1492465244	 897126878	 166028.
21:40:45  673 674	 1492465245	 59009929	 161883.
21:40:45  674 675	 1492465245	 225252635	 166242.
21:40:45  675 676	 1492465245	 387299894	 162048.
21:40:45  676 677	 1492465245	 553422197	 166122.
21:40:45  677 678	 1492465245	 715325510	 161903.
21:40:45  678 679	 1492465245	 848520245	 133195.
21:40:46  679 680	 1492465246	 14338016	 165818.
21:40:46  680 681	 1492465246	 180349791	 166012.
21:40:46  681 682	 1492465246	 342385093	 162035.
21:40:46  682 683	 1492465246	 504263776	 161878.
21:40:46  683 684	 1492465246	 670151696	 165888.
21:40:46  684 685	 1492465246	 832162530	 162011.
21:40:46  685 686	 1492465246	 969339365	 137177.
21:40:47  686 687	 1492465247	 131295014	 161956.
21:40:47  687 688	 1492465247	 297131863	 165837.
21:40:47  688 689	 1492465247	 459119615	 161987.
21:40:47  689 690	 1492465247	 625209522	 166090.
21:40:47  690 691	 1492465247	 791298273	 166089.
21:40:47  691 692	 1492465247	 953389503	 162091.
21:40:48  692 693	 1492465248	 90743814	 137355.
21:40:48  693 694	 1492465248	 252762203	 162018.
21:40:48  694 695	 1492465248	 414837061	 162075.
21:40:48  695 696	 1492465248	 576990934	 162154.
21:40:48  696 697	 1492465248	 743105267	 166114.
21:40:48  697 698	 1492465248	 905242508	 162137.
21:40:49  698 699	 1492465249	 67023727	 161781.
21:40:49  699 700	 1492465249	 232920521	 165897.
21:40:49  700 701	 1492465249	 366257189	 133337.
21:40:49  701 702	 1492465249	 532428915	 166172.
21:40:49  702 703	 1492465249	 694430905	 162002.
21:40:49  703 704	 1492465249	 860593718	 166162.
21:40:50  704 705	 1492465250	 22758115	 162165.
21:40:50  705 706	 1492465250	 188841166	 166083.
21:40:50  706 707	 1492465250	 350884350	 162043.
21:40:50  707 708	 1492465250	 512895913	 162012.
21:40:50  708 709	 1492465250	 650273059	 137377.
21:40:50  709 710	 1492465250	 812215929	 161943.
21:40:50  710 711	 1492465250	 978578235	 166362.
21:40:51  711 712	 1492465251	 140437961	 161860.
21:40:51  712 713	 1492465251	 306539724	 166101.
21:40:51  713 714	 1492465251	 468315852	 161777.
21:40:51  714 715	 1492465251	 634218342	 165902.
21:40:51  715 716	 1492465251	 767386735	 133168.
21:40:51  716 717	 1492465251	 933345773	 165959.
21:40:52  717 718	 1492465252	 95278967	 161934.
21:40:52  718 719	 1492465252	 261413294	 166134.
21:40:52  719 720	 1492465252	 423281386	 161868.
21:40:52  720 721	 1492465252	 589329427	 166048.
21:40:52  721 722	 1492465252	 722700910	 133372.
21:40:52  722 723	 1492465252	 884636306	 161935.
21:40:53  723 724	 1492465253	 50924880	 166289.
21:40:53  724 725	 1492465253	 212990006	 162065.
21:40:53  725 726	 1492465253	 379064629	 166074.
21:40:53  726 727	 1492465253	 545111366	 166047.
21:40:53  727 728	 1492465253	 707129196	 162018.
21:40:53  728 729	 1492465253	 840347337	 133218.
21:40:54  729 730	 1492465254	 6579882	 166233.
21:40:54  730 731	 1492465254	 168565411	 161985.
21:40:54  731 732	 1492465254	 334306928	 165742.
21:40:54  732 733	 1492465254	 496012252	 161705.
21:40:54  733 734	 1492465254	 662143437	 166131.
21:40:54  734 735	 1492465254	 824184580	 162041.
21:40:54  735 736	 1492465254	 961548664	 137364.
21:40:55  736 737	 1492465255	 123759171	 162211.
21:40:55  737 738	 1492465255	 289798218	 166039.
21:40:55  738 739	 1492465255	 451847241	 162049.
21:40:55  739 740	 1492465255	 617847725	 166000.
21:40:55  740 741	 1492465255	 783759504	 165912.
21:40:55  741 742	 1492465255	 924237859	 140479.
21:40:56  742 743	 1492465256	 90218022	 165980.
21:40:56  743 744	 1492465256	 252060489	 161842.
21:40:56  744 745	 1492465256	 418209032	 166149.
21:40:56  745 746	 1492465256	 580174849	 161966.
21:40:56  746 747	 1492465256	 746339806	 166165.
21:40:56  747 748	 1492465256	 909106628	 162766.
21:40:57  748 749	 1492465257	 67029929	 157924.
21:40:57  749 750	 1492465257	 233054811	 166025.
21:40:57  750 751	 1492465257	 366236845	 133182.
21:40:57  751 752	 1492465257	 532300302	 166063.
21:40:57  752 753	 1492465257	 694427460	 162127.
21:40:57  753 754	 1492465257	 860381151	 165954.
21:40:58  754 755	 1492465258	 22289319	 161908.
21:40:58  755 756	 1492465258	 188341282	 166052.
21:40:58  756 757	 1492465258	 350238803	 161898.
21:40:58  757 758	 1492465258	 487517986	 137279.
21:40:58  758 759	 1492465258	 649424984	 161907.
21:40:58  759 760	 1492465258	 815463103	 166038.
21:40:58  760 761	 1492465258	 977570369	 162107.
21:40:59  761 762	 1492465259	 140101391	 162531.
21:40:59  762 763	 1492465259	 302158651	 162057.
21:40:59  763 764	 1492465259	 468136086	 165978.
21:40:59  764 765	 1492465259	 630202218	 162066.
21:40:59  765 766	 1492465259	 767744142	 137542.
21:40:59  766 767	 1492465259	 929712653	 161968.
21:41:00  767 768	 1492465260	 95903551	 166191.
21:41:00  768 769	 1492465260	 257860428	 161957.
21:41:00  769 770	 1492465260	 423805317	 165945.
21:41:00  770 771	 1492465260	 585830785	 162025.
21:41:00  771 772	 1492465260	 751983149	 166153.
21:41:00  772 773	 1492465260	 885270534	 133287.
21:41:01  773 774	 1492465261	 51531747	 166261.
21:41:01  774 775	 1492465261	 213651312	 162120.
21:41:01  775 776	 1492465261	 379688588	 166037.
21:41:01  776 777	 1492465261	 541788151	 162100.
21:41:01  777 778	 1492465261	 707896077	 166108.
21:41:01  778 779	 1492465261	 869851517	 161955.
21:41:02  779 780	 1492465262	 7301928	 137451.
21:41:02  780 781	 1492465262	 169427426	 162125.
21:41:02  781 782	 1492465262	 335709344	 166282.
21:41:02  782 783	 1492465262	 497906319	 162197.
21:41:02  783 784	 1492465262	 663997877	 166092.
21:41:02  784 785	 1492465262	 826117496	 162119.
21:41:02  785 786	 1492465262	 992379056	 166262.
21:41:03  786 787	 1492465263	 154461700	 162082.
21:41:03  787 788	 1492465263	 291839832	 137379.
21:41:03  788 789	 1492465263	 453993422	 162153.
21:41:03  789 790	 1492465263	 620158126	 166165.
21:41:03  790 791	 1492465263	 786314497	 166156.
21:41:03  791 792	 1492465263	 948373615	 162059.
21:41:04  792 793	 1492465264	 114294497	 165921.
21:41:04  793 794	 1492465264	 276508219	 162214.
21:41:04  794 795	 1492465264	 414008341	 137500.
21:41:04  795 796	 1492465264	 576158874	 162151.
21:41:04  796 797	 1492465264	 742345036	 166186.
21:41:04  797 798	 1492465264	 904280923	 161936.
21:41:05  798 799	 1492465265	 70425694	 166144.
21:41:05  799 800	 1492465265	 236692106	 166267.
21:41:05  800 801	 1492465265	 394698536	 158006.
21:41:05  801 802	 1492465265	 532063448	 137365.
21:41:05  802 803	 1492465265	 694330752	 162267.
21:41:05  803 804	 1492465265	 860434883	 166105.
21:41:06  804 805	 1492465266	 22445181	 162010.
21:41:06  805 806	 1492465266	 188536591	 166091.
21:41:06  806 807	 1492465266	 350565598	 162029.
21:41:06  807 808	 1492465266	 516625789	 166061.
21:41:06  808 809	 1492465266	 678667993	 162042.
21:41:06  809 810	 1492465266	 816051871	 137384.
21:41:06  810 811	 1492465266	 978104933	 162053.
21:41:07  811 812	 1492465267	 144432402	 166327.
21:41:07  812 813	 1492465267	 306490951	 162059.
21:41:07  813 814	 1492465267	 472711254	 166220.
21:41:07  814 815	 1492465267	 634896887	 162186.
21:41:07  815 816	 1492465267	 801058809	 166162.
21:41:07  816 817	 1492465267	 934288461	 133229.
21:41:08  817 818	 1492465268	 100352529	 166064.
21:41:08  818 819	 1492465268	 262519386	 162167.
21:41:08  819 820	 1492465268	 428494611	 165975.
21:41:08  820 821	 1492465268	 590440368	 161946.
21:41:08  821 822	 1492465268	 756548024	 166108.
21:41:08  822 823	 1492465268	 918659548	 162111.
21:41:09  823 824	 1492465269	 56136373	 137477.
21:41:09  824 825	 1492465269	 218345330	 162209.
21:41:09  825 826	 1492465269	 384460882	 166116.
21:41:09  826 827	 1492465269	 546681209	 162220.
21:41:09  827 828	 1492465269	 708866375	 162185.
21:41:09  828 829	 1492465269	 874932480	 166066.
21:41:10  829 830	 1492465270	 37019781	 162088.
21:41:10  830 831	 1492465270	 203196565	 166176.
21:41:10  831 832	 1492465270	 336642042	 133446.
21:41:10  832 833	 1492465270	 502649745	 166007.
21:41:10  833 834	 1492465270	 668872137	 166223.
21:41:10  834 835	 1492465270	 830851838	 161980.
21:41:10  835 836	 1492465270	 996988326	 166136.
21:41:11  836 837	 1492465271	 159001172	 162013.
21:41:11  837 838	 1492465271	 325012768	 166012.
21:41:11  838 839	 1492465271	 458162634	 133149.
21:41:11  839 840	 1492465271	 616966738	 158804.
21:41:11  840 841	 1492465271	 783029537	 166063.
21:41:11  841 842	 1492465271	 945002506	 161973.
21:41:12  842 843	 1492465272	 111082097	 166080.
21:41:12  843 844	 1492465272	 273244269	 162162.
21:41:12  844 845	 1492465272	 435261142	 162017.
21:41:12  845 846	 1492465272	 601233155	 165972.
21:41:12  846 847	 1492465272	 734481188	 133248.
21:41:12  847 848	 1492465272	 926297365	 191816.
21:41:13  848 849	 1492465273	 59750529	 133453.
21:41:13  849 850	 1492465273	 218297668	 158547.
21:41:13  850 851	 1492465273	 384658596	 166361.
21:41:13  851 852	 1492465273	 546823938	 162166.
21:41:13  852 853	 1492465273	 712807358	 165983.
21:41:13  853 854	 1492465273	 874716150	 161909.
21:41:14  854 855	 1492465274	 40795787	 166079.
21:41:14  855 856	 1492465274	 202597343	 161802.
21:41:14  856 857	 1492465274	 339898610	 137301.
21:41:14  857 858	 1492465274	 501876204	 161978.
21:41:14  858 859	 1492465274	 667945019	 166069.
21:41:14  859 860	 1492465274	 830046644	 162101.
21:41:14  860 861	 1492465274	 996151030	 166105.
21:41:15  861 862	 1492465275	 158320884	 162170.
21:41:15  862 863	 1492465275	 324424261	 166103.
21:41:15  863 864	 1492465275	 457863491	 133439.
21:41:15  864 865	 1492465275	 624042149	 166179.
21:41:15  865 866	 1492465275	 786120620	 162079.
21:41:15  866 867	 1492465275	 952194829	 166074.
21:41:16  867 868	 1492465276	 118275918	 166081.
21:41:16  868 869	 1492465276	 280333929	 162058.
21:41:16  869 870	 1492465276	 442432218	 162098.
21:41:16  870 871	 1492465276	 579922721	 137490.
21:41:16  871 872	 1492465276	 741925361	 162003.
21:41:16  872 873	 1492465276	 904320463	 162395.
21:41:17  873 874	 1492465277	 66252858	 161933.
21:41:17  874 875	 1492465277	 228525481	 162272.
21:41:17  875 876	 1492465277	 394700939	 166176.
21:41:17  876 877	 1492465277	 556796826	 162096.
21:41:17  877 878	 1492465277	 722767190	 165970.
21:41:17  878 879	 1492465277	 856070714	 133303.
21:41:18  879 880	 1492465278	 22151388	 166081.
21:41:18  880 881	 1492465278	 184245032	 162094.
21:41:18  881 882	 1492465278	 346682213	 162437.
21:41:18  882 883	 1492465278	 508690327	 162008.
21:41:18  883 884	 1492465278	 674683477	 165993.
21:41:18  884 885	 1492465278	 836618154	 161935.
21:41:19  885 886	 1492465279	 2688935	 166071.
21:41:19  886 887	 1492465279	 164740314	 162051.
21:41:19  887 888	 1492465279	 301970286	 137230.
21:41:19  888 889	 1492465279	 463965223	 161995.
21:41:19  889 890	 1492465279	 630037820	 166073.
21:41:19  890 891	 1492465279	 792211677	 162173.
21:41:19  891 892	 1492465279	 958390899	 166180.
21:41:20  892 893	 1492465280	 120328121	 161937.
21:41:20  893 894	 1492465280	 257808250	 137480.
21:41:20  894 895	 1492465280	 419730243	 161922.
21:41:20  895 896	 1492465280	 585787041	 166057.
21:41:20  896 897	 1492465280	 747858673	 162071.
21:41:20  897 898	 1492465280	 914016269	 166158.
21:41:21  898 899	 1492465281	 75960234	 161944.
21:41:21  899 900	 1492465281	 241990731	 166030.
21:41:21  900 901	 1492465281	 375343791	 133353.
21:41:21  901 902	 1492465281	 541874983	 166532.
21:41:21  902 903	 1492465281	 704055697	 162180.
21:41:21  903 904	 1492465281	 866137698	 162082.
21:41:22  904 905	 1492465282	 32141060	 166004.
21:41:22  905 906	 1492465282	 194497693	 162356.
21:41:22  906 907	 1492465282	 356760611	 162263.
21:41:22  907 908	 1492465282	 522969683	 166209.
21:41:22  908 909	 1492465282	 656421591	 133452.
21:41:22  909 910	 1492465282	 818335269	 161914.
21:41:22  910 911	 1492465282	 984512526	 166177.
21:41:23  911 912	 1492465283	 146698163	 162186.
21:41:23  912 913	 1492465283	 312711360	 166013.
21:41:23  913 914	 1492465283	 478761589	 166050.
21:41:23  914 915	 1492465283	 640809008	 162048.
21:41:23  915 916	 1492465283	 778079319	 137270.
21:41:23  916 917	 1492465283	 939953063	 161874.
21:41:24  917 918	 1492465284	 106119947	 166167.
21:41:24  918 919	 1492465284	 268021612	 161901.
21:41:24  919 920	 1492465284	 433947998	 165927.
21:41:24  920 921	 1492465284	 596140944	 162193.
21:41:24  921 922	 1492465284	 758091136	 161950.
21:41:24  922 923	 1492465284	 895506466	 137415.
21:41:25  923 924	 1492465285	 57436617	 161930.
21:41:25  924 925	 1492465285	 223384711	 165948.
21:41:25  925 926	 1492465285	 389466418	 166082.
21:41:25  926 927	 1492465285	 551626448	 162160.
21:41:25  927 928	 1492465285	 717686307	 166060.
21:41:25  928 929	 1492465285	 879791916	 162106.
21:41:26  929 930	 1492465286	 13038945	 133247.
21:41:26  930 931	 1492465286	 179210682	 166171.
21:41:26  931 932	 1492465286	 341502204	 162292.
21:41:26  932 933	 1492465286	 503566834	 162065.
21:41:26  933 934	 1492465286	 669553104	 165986.
21:41:26  934 935	 1492465286	 831495857	 161943.
21:41:26  935 936	 1492465286	 994260359	 162764.
21:41:27  936 937	 1492465287	 156350715	 162090.
21:41:27  937 938	 1492465287	 318629949	 162280.
21:41:27  938 939	 1492465287	 456080503	 137450.
21:41:27  939 940	 1492465287	 618111683	 162031.
21:41:27  940 941	 1492465287	 784222925	 166112.
21:41:27  941 942	 1492465287	 946109951	 161887.
21:41:28  942 943	 1492465288	 112098710	 165988.
21:41:28  943 944	 1492465288	 274010366	 161912.
21:41:28  944 945	 1492465288	 440157856	 166148.
21:41:28  945 946	 1492465288	 573362443	 133204.
21:41:28  946 947	 1492465288	 739387032	 166025.
21:41:28  947 948	 1492465288	 901182696	 161795.
21:41:29  948 949	 1492465289	 67305645	 166123.
21:41:29  949 950	 1492465289	 233406256	 166101.
21:41:29  950 951	 1492465289	 395396790	 161990.
21:41:29  951 952	 1492465289	 561408210	 166012.
21:41:29  952 953	 1492465289	 694627189	 133219.
21:41:29  953 954	 1492465289	 882894860	 188268.
21:41:30  954 955	 1492465290	 37289728	 154395.
21:41:30  955 956	 1492465290	 203379815	 166090.
21:41:30  956 957	 1492465290	 336648813	 133269.
21:41:30  957 958	 1492465290	 502736347	 166087.
21:41:30  958 959	 1492465290	 664783941	 162048.
21:41:30  959 960	 1492465290	 831097585	 166313.
21:41:30  960 961	 1492465290	 993078439	 161981.
21:41:31  961 962	 1492465291	 159520635	 166442.
21:41:31  962 963	 1492465291	 321646246	 162126.
21:41:31  963 964	 1492465291	 483560597	 161914.
21:41:31  964 965	 1492465291	 620910366	 137350.
21:41:31  965 966	 1492465291	 782949871	 162040.
21:41:31  966 967	 1492465291	 948950334	 166000.
21:41:32  967 968	 1492465292	 110981317	 162031.
21:41:32  968 969	 1492465292	 276996450	 166015.
21:41:32  969 970	 1492465292	 439031781	 162036.
21:41:32  970 971	 1492465292	 605817642	 166785.
21:41:32  971 972	 1492465292	 763686213	 157869.
21:41:32  972 973	 1492465292	 901002619	 137317.
21:41:33  973 974	 1492465293	 63203814	 162201.
21:41:33  974 975	 1492465293	 229258870	 166055.
21:41:33  975 976	 1492465293	 391423238	 162164.
21:41:33  976 977	 1492465293	 553545847	 162123.
21:41:33  977 978	 1492465293	 715955714	 162409.
21:41:33  978 979	 1492465293	 878291349	 162336.
21:41:34  979 980	 1492465294	 44260240	 165969.
21:41:34  980 981	 1492465294	 206204685	 161944.
21:41:34  981 982	 1492465294	 343577561	 137374.
21:41:34  982 983	 1492465294	 505712336	 162134.
21:41:34  983 984	 1492465294	 671752004	 166040.
21:41:34  984 985	 1492465294	 833672858	 161921.
21:41:34  985 986	 1492465294	 999631905	 165959.
21:41:35  986 987	 1492465295	 161543743	 161911.
21:41:35  987 988	 1492465295	 327744552	 166201.
21:41:35  988 989	 1492465295	 460969489	 133225.
21:41:35  989 990	 1492465295	 626896371	 165927.
21:41:35  990 991	 1492465295	 788898870	 162003.
21:41:35  991 992	 1492465295	 954993936	 166095.
21:41:36  992 993	 1492465296	 117044307	 162050.
21:41:36  993 994	 1492465296	 275523735	 158479.
21:41:36  994 995	 1492465296	 441597052	 166074.
21:41:36  995 996	 1492465296	 603687144	 162090.
21:41:36  996 997	 1492465296	 741011150	 137324.
21:41:36  997 998	 1492465296	 903108640	 162097.
21:41:37  998 999	 1492465297	 69157330	 166049.
21:41:37  999 1000	 1492465297	 231162457	 162005.
21:41:37 1000 1001	 1492465297	 397232584	 166070.
21:41:37 1001 1002	 1492465297	 559430158	 162198.
21:41:37 1002 1003	 1492465297	 725560592	 166130.
21:41:37 1003 1004	 1492465297	 887620206	 162060.
21:41:38 1004 1005	 1492465298	 24967370	 137347.
21:41:38 1005 1006	 1492465298	 186836217	 161869.
21:41:38 1006 1007	 1492465298	 349079327	 162243.
21:41:38 1007 1008	 1492465298	 514957749	 165878.
21:41:38 1008 1009	 1492465298	 676916918	 161960.
21:41:38 1009 1010	 1492465298	 843021622	 166104.
21:41:39 1010 1011	 1492465299	 4904889	 161884.
21:41:39 1011 1012	 1492465299	 142380348	 137475.
21:41:39 1012 1013	 1492465299	 304369102	 161989.
21:41:39 1013 1014	 1492465299	 470318243	 165949.
21:41:39 1014 1015	 1492465299	 632356914	 162039.
21:41:39 1015 1016	 1492465299	 798537363	 166180.
21:41:39 1016 1017	 1492465299	 960487133	 161950.
21:41:40 1017 1018	 1492465300	 126613813	 166127.
21:41:40 1018 1019	 1492465300	 289314715	 162700.
21:41:40 1019 1020	 1492465300	 451336052	 162022.
21:41:40 1020 1021	 1492465300	 584522403	 133186.
21:41:40 1021 1022	 1492465300	 746724341	 162202.
21:41:40 1022 1023	 1492465300	 908611057	 161887.
21:41:41 1023 1024	 1492465301	 74727710	 166116.
21:41:41 1024 1025	 1492465301	 236564244	 161837.
21:41:41 1025 1026	 1492465301	 402616140	 166052.
21:41:41 1026 1027	 1492465301	 568566634	 165950.
21:41:41 1027 1028	 1492465301	 701807678	 133241.
21:41:41 1028 1029	 1492465301	 863681919	 161875.
21:41:42 1029 1030	 1492465302	 29681053	 165999.
21:41:42 1030 1031	 1492465302	 195632614	 165951.
21:41:42 1031 1032	 1492465302	 357698189	 162066.
21:41:42 1032 1033	 1492465302	 519635013	 161937.
21:41:42 1033 1034	 1492465302	 685500693	 165866.
21:41:42 1034 1035	 1492465302	 818738089	 133237.
21:41:42 1035 1036	 1492465302	 984797832	 166060.
21:41:43 1036 1037	 1492465303	 146956886	 162159.
21:41:43 1037 1038	 1492465303	 313086378	 166129.
21:41:43 1038 1039	 1492465303	 474924962	 161839.
21:41:43 1039 1040	 1492465303	 640945019	 166020.
21:41:43 1040 1041	 1492465303	 802959323	 162014.
21:41:43 1041 1042	 1492465303	 940241137	 137282.
21:41:44 1042 1043	 1492465304	 102244250	 162003.
21:41:44 1043 1044	 1492465304	 268374701	 166130.
21:41:44 1044 1045	 1492465304	 430441942	 162068.
21:41:44 1045 1046	 1492465304	 596463398	 166021.
21:41:44 1046 1047	 1492465304	 762722898	 166260.
21:41:44 1047 1048	 1492465304	 924607384	 161884.
21:41:45 1048 1049	 1492465305	 57926751	 133319.
21:41:45 1049 1050	 1492465305	 224097064	 166171.
21:41:45 1050 1051	 1492465305	 386396641	 162299.
21:41:45 1051 1052	 1492465305	 552322748	 165926.
21:41:45 1052 1053	 1492465305	 714632702	 162310.
21:41:45 1053 1054	 1492465305	 880778021	 166146.
21:41:46 1054 1055	 1492465306	 42817336	 162039.
21:41:46 1055 1056	 1492465306	 208874943	 166058.
21:41:46 1056 1057	 1492465306	 342137894	 133263.
21:41:46 1057 1058	 1492465306	 508211977	 166074.
21:41:46 1058 1059	 1492465306	 670311742	 162099.
21:41:46 1059 1060	 1492465306	 836435155	 166124.
21:41:46 1060 1061	 1492465306	 998721626	 162286.
21:41:47 1061 1062	 1492465307	 164719991	 165999.
21:41:47 1062 1063	 1492465307	 327121956	 162402.
21:41:47 1063 1064	 1492465307	 489015334	 161893.
21:41:47 1064 1065	 1492465307	 622461360	 133446.
21:41:47 1065 1066	 1492465307	 788669543	 166208.
21:41:47 1066 1067	 1492465307	 950678619	 162009.
21:41:48 1067 1068	 1492465308	 116740682	 166062.
21:41:48 1068 1069	 1492465308	 278876820	 162137.
21:41:48 1069 1070	 1492465308	 441014049	 162137.
21:41:48 1070 1071	 1492465308	 607004226	 165990.
21:41:48 1071 1072	 1492465308	 769422366	 162418.
21:41:48 1072 1073	 1492465308	 902640445	 133218.
21:41:49 1073 1074	 1492465309	 68670095	 166030.
21:41:49 1074 1075	 1492465309	 230640961	 161971.
21:41:49 1075 1076	 1492465309	 396770421	 166129.
21:41:49 1076 1077	 1492465309	 558809106	 162039.
21:41:49 1077 1078	 1492465309	 725071101	 166262.
21:41:49 1078 1079	 1492465309	 887018992	 161948.
21:41:50 1079 1080	 1492465310	 53083000	 166064.
21:41:50 1080 1081	 1492465310	 186503234	 133420.
21:41:50 1081 1082	 1492465310	 345072160	 158569.
21:41:50 1082 1083	 1492465310	 511114796	 166043.
21:41:50 1083 1084	 1492465310	 673125088	 162010.
21:41:50 1084 1085	 1492465310	 839185051	 166060.
21:41:51 1085 1086	 1492465311	 5332491	 166147.
21:41:51 1086 1087	 1492465311	 167310616	 161978.
21:41:51 1087 1088	 1492465311	 333505590	 166195.
21:41:51 1088 1089	 1492465311	 466861898	 133357.
21:41:51 1089 1090	 1492465311	 658316624	 191454.
21:41:51 1090 1091	 1492465311	 791585894	 133270.
21:41:51 1091 1092	 1492465311	 953982630	 162396.
21:41:52 1092 1093	 1492465312	 116163605	 162181.
21:41:52 1093 1094	 1492465312	 274843249	 158680.
21:41:52 1094 1095	 1492465312	 437301199	 162458.
21:41:52 1095 1096	 1492465312	 599384790	 162084.
21:41:52 1096 1097	 1492465312	 761560251	 162175.
21:41:52 1097 1098	 1492465312	 927746819	 166187.
21:41:53 1098 1099	 1492465313	 89960285	 162213.
21:41:53 1099 1100	 1492465313	 256089408	 166129.
21:41:53 1100 1101	 1492465313	 418196747	 162107.
21:41:53 1101 1102	 1492465313	 555691085	 137495.
21:41:53 1102 1103	 1492465313	 717756477	 162065.
21:41:53 1103 1104	 1492465313	 883899740	 166143.
21:41:54 1104 1105	 1492465314	 45954514	 162055.
21:41:54 1105 1106	 1492465314	 211976389	 166022.
21:41:54 1106 1107	 1492465314	 373888783	 161913.
21:41:54 1107 1108	 1492465314	 539998974	 166110.
21:41:54 1108 1109	 1492465314	 673390428	 133391.
21:41:54 1109 1110	 1492465314	 839627560	 166237.
21:41:54 1110 1111	 1492465315	 1754817	 162128.
21:41:55 1111 1112	 1492465315	 167691891	 165937.
21:41:55 1112 1113	 1492465315	 329856611	 162164.
21:41:55 1113 1114	 1492465315	 496215760	 166360.
21:41:55 1114 1115	 1492465315	 658351304	 162135.
21:41:55 1115 1116	 1492465315	 795805420	 137454.
21:41:55 1116 1117	 1492465315	 957702082	 161897.
21:41:56 1117 1118	 1492465316	 119698224	 161996.
21:41:56 1118 1119	 1492465316	 285862851	 166165.
21:41:56 1119 1120	 1492465316	 448070241	 162207.
21:41:56 1120 1121	 1492465316	 614013717	 165943.
21:41:56 1121 1122	 1492465316	 775985898	 161973.
21:41:56 1122 1123	 1492465316	 913433202	 137447.
21:41:57 1123 1124	 1492465317	 75536559	 162103.
21:41:57 1124 1125	 1492465317	 241667334	 166131.
21:41:57 1125 1126	 1492465317	 403818395	 162151.
21:41:57 1126 1127	 1492465317	 565860200	 162042.
21:41:57 1127 1128	 1492465317	 728322239	 162462.
21:41:57 1128 1129	 1492465317	 894530806	 166209.
21:41:58 1129 1130	 1492465318	 56474384	 161943.
21:41:58 1130 1131	 1492465318	 222831146	 166357.
21:41:58 1131 1132	 1492465318	 356149049	 133318.
21:41:58 1132 1133	 1492465318	 518161957	 162013.
21:41:58 1133 1134	 1492465318	 684207113	 166045.
21:41:58 1134 1135	 1492465318	 846617795	 162411.
21:41:59 1135 1136	 1492465319	 8451400	 161833.
21:41:59 1136 1137	 1492465319	 174517354	 166066.
21:41:59 1137 1138	 1492465319	 337271443	 162754.
21:41:59 1138 1139	 1492465319	 495154639	 157883.
21:41:59 1139 1140	 1492465319	 657491709	 162337.
21:41:59 1140 1141	 1492465319	 790475103	 132984.
21:41:59 1141 1142	 1492465319	 952639812	 162165.
21:42:00 1142 1143	 1492465320	 118584137	 165944.
21:42:00 1143 1144	 1492465320	 284654006	 166070.
21:42:00 1144 1145	 1492465320	 446961449	 162307.
21:42:00 1145 1146	 1492465320	 609198538	 162237.
21:42:00 1146 1147	 1492465320	 775498725	 166300.
21:42:00 1147 1148	 1492465320	 908815388	 133317.
21:42:01 1148 1149	 1492465321	 75027099	 166212.
21:42:01 1149 1150	 1492465321	 241284699	 166257.
21:42:01 1150 1151	 1492465321	 403589350	 162305.
21:42:01 1151 1152	 1492465321	 569907505	 166318.
21:42:01 1152 1153	 1492465321	 732043734	 162136.
21:42:01 1153 1154	 1492465321	 898213127	 166170.
21:42:02 1154 1155	 1492465322	 60342576	 162129.
21:42:02 1155 1156	 1492465322	 197773372	 137431.
21:42:02 1156 1157	 1492465322	 360017133	 162244.
21:42:02 1157 1158	 1492465322	 522128356	 162111.
21:42:02 1158 1159	 1492465322	 688273288	 166145.
21:42:02 1159 1160	 1492465322	 850196962	 161924.
21:42:03 1160 1161	 1492465323	 17045774	 166848.
21:42:03 1161 1162	 1492465323	 175182746	 158137.
21:42:03 1162 1163	 1492465323	 341383805	 166202.
21:42:03 1163 1164	 1492465323	 507456760	 166072.
21:42:03 1164 1165	 1492465323	 640728934	 133273.
21:42:03 1165 1166	 1492465323	 802642312	 161913.
21:42:03 1166 1167	 1492465323	 968680230	 166038.
21:42:04 1167 1168	 1492465324	 130963372	 162283.
21:42:04 1168 1169	 1492465324	 293038404	 162075.
21:42:04 1169 1170	 1492465324	 459265410	 166227.
21:42:04 1170 1171	 1492465324	 621716656	 162451.
21:42:04 1171 1172	 1492465324	 783902540	 162186.
21:42:04 1172 1173	 1492465324	 946234916	 162333.
21:42:05 1173 1174	 1492465325	 83656514	 137421.
21:42:05 1174 1175	 1492465325	 242025098	 158369.
21:42:05 1175 1176	 1492465325	 408125674	 166100.
21:42:05 1176 1177	 1492465325	 566870077	 158745.
21:42:05 1177 1178	 1492465325	 733057655	 166187.
21:42:05 1178 1179	 1492465325	 894966335	 161909.
21:42:06 1179 1180	 1492465326	 61052218	 166086.
21:42:06 1180 1181	 1492465326	 223000297	 161948.
21:42:06 1181 1182	 1492465326	 360379865	 137380.
21:42:06 1182 1183	 1492465326	 522680171	 162300.
21:42:06 1183 1184	 1492465326	 688939620	 166259.
21:42:06 1184 1185	 1492465326	 850945014	 162006.
21:42:07 1185 1186	 1492465327	 17028948	 166084.
21:42:07 1186 1187	 1492465327	 179165466	 162136.
21:42:07 1187 1188	 1492465327	 345376168	 166211.
21:42:07 1188 1189	 1492465327	 478718942	 133343.
21:42:07 1189 1190	 1492465327	 644706304	 165987.
21:42:07 1190 1191	 1492465327	 806740801	 162035.
21:42:07 1191 1192	 1492465327	 972646922	 165906.
21:42:08 1192 1193	 1492465328	 134642437	 161995.
21:42:08 1193 1194	 1492465328	 300727525	 166085.
21:42:08 1194 1195	 1492465328	 462798501	 162071.
21:42:08 1195 1196	 1492465328	 628915481	 166117.
21:42:08 1196 1197	 1492465328	 758826616	 129911.
21:42:08 1197 1198	 1492465328	 924846147	 166020.
21:42:09 1198 1199	 1492465329	 86856920	 162011.
21:42:09 1199 1200	 1492465329	 248951995	 162095.
21:42:09 1200 1201	 1492465329	 415122443	 166170.
21:42:09 1201 1202	 1492465329	 577406789	 162285.
21:42:09 1202 1203	 1492465329	 739683193	 162276.
21:42:09 1203 1204	 1492465329	 905793438	 166110.
21:42:10 1204 1205	 1492465330	 39155939	 133363.
21:42:10 1205 1206	 1492465330	 205448613	 166292.
21:42:10 1206 1207	 1492465330	 367389509	 161941.
21:42:10 1207 1208	 1492465330	 529736322	 162347.
21:42:10 1208 1209	 1492465330	 688522257	 158786.
21:42:10 1209 1210	 1492465330	 850605820	 162084.
21:42:11 1210 1211	 1492465331	 16726834	 166121.
21:42:11 1211 1212	 1492465331	 178706605	 161979.
21:42:11 1212 1213	 1492465331	 344756940	 166051.
21:42:11 1213 1214	 1492465331	 506773377	 162016.
21:42:11 1214 1215	 1492465331	 644224307	 137451.
21:42:11 1215 1216	 1492465331	 810368451	 166145.
21:42:11 1216 1217	 1492465331	 972440015	 162071.
21:42:12 1217 1218	 1492465332	 138418528	 165978.
21:42:12 1218 1219	 1492465332	 300364748	 161946.
21:42:12 1219 1220	 1492465332	 466607897	 166244.
21:42:12 1220 1221	 1492465332	 628709732	 162101.
21:42:12 1221 1222	 1492465332	 794935635	 166226.
21:42:12 1222 1223	 1492465332	 953488994	 158554.
21:42:13 1223 1224	 1492465333	 90796762	 137307.
21:42:13 1224 1225	 1492465333	 252906429	 162110.
21:42:13 1225 1226	 1492465333	 415182295	 162276.
21:42:13 1226 1227	 1492465333	 581264371	 166082.
21:42:13 1227 1228	 1492465333	 743106753	 161842.
21:42:13 1228 1229	 1492465333	 905460861	 162355.
21:42:14 1229 1230	 1492465334	 65008084	 159547.
21:42:14 1230 1231	 1492465334	 223092287	 158084.
21:42:14 1231 1232	 1492465334	 389407862	 166316.
21:42:14 1232 1233	 1492465334	 555571925	 166164.
21:42:14 1233 1234	 1492465334	 717705467	 162133.
21:42:14 1234 1235	 1492465334	 880087894	 162383.
21:42:15 1235 1236	 1492465335	 13529588	 133441.
21:42:15 1236 1237	 1492465335	 179566533	 166037.
21:42:15 1237 1238	 1492465335	 341634536	 162068.
21:42:15 1238 1239	 1492465335	 507675321	 166041.
21:42:15 1239 1240	 1492465335	 669749234	 162074.
21:42:15 1240 1241	 1492465335	 835616315	 165867.
21:42:15 1241 1242	 1492465335	 997570595	 161954.
21:42:16 1242 1243	 1492465336	 134853811	 137284.
21:42:16 1243 1244	 1492465336	 296962364	 162108.
21:42:16 1244 1245	 1492465336	 462986943	 166025.
21:42:16 1245 1246	 1492465336	 624932428	 161945.
21:42:16 1246 1247	 1492465336	 790946988	 166015.
21:42:16 1247 1248	 1492465336	 953429295	 162482.
21:42:17 1248 1249	 1492465337	 115379071	 161950.
21:42:17 1249 1250	 1492465337	 248617473	 133238.
21:42:17 1250 1251	 1492465337	 414574441	 165957.
21:42:17 1251 1252	 1492465337	 580403693	 165829.
21:42:17 1252 1253	 1492465337	 742495196	 162092.
21:42:17 1253 1254	 1492465337	 908588641	 166093.
21:42:18 1254 1255	 1492465338	 70424851	 161837.
21:42:18 1255 1256	 1492465338	 236443482	 166018.
21:42:18 1256 1257	 1492465338	 369618612	 133175.
21:42:18 1257 1258	 1492465338	 535589058	 165971.
21:42:18 1258 1259	 1492465338	 697564337	 161975.
21:42:18 1259 1260	 1492465338	 859700304	 162136.
21:42:19 1260 1261	 1492465339	 26534678	 166834.
21:42:19 1261 1262	 1492465339	 184420468	 157886.
21:42:19 1262 1263	 1492465339	 350423671	 166003.
21:42:19 1263 1264	 1492465339	 508896735	 158473.
21:42:19 1264 1265	 1492465339	 670918226	 162022.
21:42:19 1265 1266	 1492465339	 837012645	 166094.
21:42:19 1266 1267	 1492465339	 999076921	 162065.
21:42:20 1267 1268	 1492465340	 132267366	 133190.
21:42:20 1268 1269	 1492465340	 298234954	 165968.
21:42:20 1269 1270	 1492465340	 464492524	 166257.
21:42:20 1270 1271	 1492465340	 626673927	 162182.
21:42:20 1271 1272	 1492465340	 788671419	 161997.
21:42:20 1272 1273	 1492465340	 950960290	 162289.
21:42:21 1273 1274	 1492465341	 117552406	 166592.
21:42:21 1274 1275	 1492465341	 275460695	 157908.
21:42:21 1275 1276	 1492465341	 441402417	 165942.
21:42:21 1276 1277	 1492465341	 574565183	 133163.
21:42:21 1277 1278	 1492465341	 736813030	 162248.
21:42:21 1278 1279	 1492465341	 898754868	 161942.
21:42:22 1279 1280	 1492465342	 64722798	 165968.
21:42:22 1280 1281	 1492465342	 226761528	 162038.
21:42:22 1281 1282	 1492465342	 392789610	 166028.
21:42:22 1282 1283	 1492465342	 554650579	 161861.
21:42:22 1283 1284	 1492465342	 713323815	 158674.
21:42:22 1284 1285	 1492465342	 879473306	 166149.
21:42:23 1285 1286	 1492465343	 41497983	 162025.
21:42:23 1286 1287	 1492465343	 178786866	 137289.
21:42:23 1287 1288	 1492465343	 340695368	 161908.
21:42:23 1288 1289	 1492465343	 506718630	 166023.
21:42:23 1289 1290	 1492465343	 668699001	 161981.
21:42:23 1290 1291	 1492465343	 834680868	 165982.
21:42:23 1291 1292	 1492465343	 996864488	 162183.
21:42:24 1292 1293	 1492465344	 158811855	 161948.
21:42:24 1293 1294	 1492465344	 324711588	 165899.
21:42:24 1294 1295	 1492465344	 458117071	 133406.
21:42:24 1295 1296	 1492465344	 624968442	 166851.
21:42:24 1296 1297	 1492465344	 782753703	 157785.
21:42:24 1297 1298	 1492465344	 944644903	 161892.
21:42:25 1298 1299	 1492465345	 110718903	 166074.
21:42:25 1299 1300	 1492465345	 272634108	 161915.
21:42:25 1300 1301	 1492465345	 438500367	 165866.
21:42:25 1301 1302	 1492465345	 600789075	 162289.
21:42:25 1302 1303	 1492465345	 762951793	 162163.
21:42:25 1303 1304	 1492465345	 900401342	 137449.
21:42:26 1304 1305	 1492465346	 62422313	 162021.
21:42:26 1305 1306	 1492465346	 228415386	 165993.
21:42:26 1306 1307	 1492465346	 390325961	 161911.
21:42:26 1307 1308	 1492465346	 556440211	 166114.
21:42:26 1308 1309	 1492465346	 718377562	 161937.
21:42:26 1309 1310	 1492465346	 884349925	 165973.
21:42:27 1310 1311	 1492465347	 17378424	 133028.
21:42:27 1311 1312	 1492465347	 183428907	 166051.
21:42:27 1312 1313	 1492465347	 345254172	 161825.
21:42:27 1313 1314	 1492465347	 511331705	 166077.
21:42:27 1314 1315	 1492465347	 673383370	 162052.
21:42:27 1315 1316	 1492465347	 839439873	 166057.
21:42:27 1316 1317	 1492465347	 972670950	 133231.
21:42:28 1317 1318	 1492465348	 138680311	 166009.
21:42:28 1318 1319	 1492465348	 300696478	 162016.
21:42:28 1319 1320	 1492465348	 466790821	 166095.
21:42:28 1320 1321	 1492465348	 628763491	 161972.
21:42:28 1321 1322	 1492465348	 795118638	 166355.
21:42:28 1322 1323	 1492465348	 953108724	 157990.
21:42:29 1323 1324	 1492465349	 119174881	 166067.
21:42:29 1324 1325	 1492465349	 252407946	 133233.
21:42:29 1325 1326	 1492465349	 418494943	 166087.
21:42:29 1326 1327	 1492465349	 580423088	 161928.
21:42:29 1327 1328	 1492465349	 746446983	 166024.
21:42:29 1328 1329	 1492465349	 908356695	 161909.
21:42:30 1329 1330	 1492465350	 74421188	 166065.
21:42:30 1330 1331	 1492465350	 236417263	 161996.
21:42:30 1331 1332	 1492465350	 369772872	 133356.
21:42:30 1332 1333	 1492465350	 535721735	 165948.
21:42:30 1333 1334	 1492465350	 697672942	 161952.
21:42:30 1334 1335	 1492465350	 859466457	 161793.
21:42:31 1335 1336	 1492465351	 25832362	 166366.
21:42:31 1336 1337	 1492465351	 187762913	 161931.
21:42:31 1337 1338	 1492465351	 353783355	 166020.
21:42:31 1338 1339	 1492465351	 515747511	 161964.
21:42:31 1339 1340	 1492465351	 653034251	 137287.
21:42:31 1340 1341	 1492465351	 814886676	 161852.
21:42:31 1341 1342	 1492465351	 980796982	 165911.
21:42:32 1342 1343	 1492465352	 142766587	 161969.
21:42:32 1343 1344	 1492465352	 308786298	 166020.
21:42:32 1344 1345	 1492465352	 470679187	 161893.
21:42:32 1345 1346	 1492465352	 607908025	 137229.
21:42:32 1346 1347	 1492465352	 769835493	 161927.
21:42:32 1347 1348	 1492465352	 935886149	 166051.
21:42:33 1348 1349	 1492465353	 97888609	 162002.
21:42:33 1349 1350	 1492465353	 263898282	 166010.
21:42:33 1350 1351	 1492465353	 425838504	 161940.
21:42:33 1351 1352	 1492465353	 591931015	 166093.
21:42:33 1352 1353	 1492465353	 725198438	 133267.
21:42:33 1353 1354	 1492465353	 891175252	 165977.
21:42:34 1354 1355	 1492465354	 52952566	 161777.
21:42:34 1355 1356	 1492465354	 219162018	 166210.
21:42:34 1356 1357	 1492465354	 381170833	 162009.
21:42:34 1357 1358	 1492465354	 547227859	 166057.
21:42:34 1358 1359	 1492465354	 709065342	 161837.
21:42:34 1359 1360	 1492465354	 846217395	 137152.
21:42:35 1360 1361	 1492465355	 8108662	 161891.
21:42:35 1361 1362	 1492465355	 174097555	 165989.
21:42:35 1362 1363	 1492465355	 335929739	 161832.
21:42:35 1363 1364	 1492465355	 501888046	 165959.
21:42:35 1364 1365	 1492465355	 667808956	 165921.
21:42:35 1365 1366	 1492465355	 829797278	 161988.
21:42:35 1366 1367	 1492465355	 992246352	 162449.
21:42:36 1367 1368	 1492465356	 125561801	 133316.
21:42:36 1368 1369	 1492465356	 291596274	 166034.
21:42:36 1369 1370	 1492465356	 453736873	 162141.
21:42:36 1370 1371	 1492465356	 619724250	 165987.
21:42:36 1371 1372	 1492465356	 781892694	 162168.
21:42:36 1372 1373	 1492465356	 943796832	 161905.
21:42:37 1373 1374	 1492465357	 109804364	 166007.
21:42:37 1374 1375	 1492465357	 242994124	 133190.
21:42:37 1375 1376	 1492465357	 408938362	 165944.
21:42:37 1376 1377	 1492465357	 571021555	 162083.
21:42:37 1377 1378	 1492465357	 736964147	 165943.
21:42:37 1378 1379	 1492465357	 898939374	 161975.
21:42:38 1379 1380	 1492465358	 64926014	 165987.
21:42:38 1380 1381	 1492465358	 226810412	 161884.
21:42:38 1381 1382	 1492465358	 388696677	 161886.
21:42:38 1382 1383	 1492465358	 525981019	 137285.
21:42:38 1383 1384	 1492465358	 687947937	 161967.
21:42:38 1384 1385	 1492465358	 850123010	 162175.
21:42:39 1385 1386	 1492465359	 16196160	 166073.
21:42:39 1386 1387	 1492465359	 178140768	 161944.
21:42:39 1387 1388	 1492465359	 340091536	 161951.
21:42:39 1388 1389	 1492465359	 506070799	 165980.
21:42:39 1389 1390	 1492465359	 639175994	 133105.
21:42:39 1390 1391	 1492465359	 805133811	 165958.
21:42:39 1391 1392	 1492465359	 966975151	 161841.
21:42:40 1392 1393	 1492465360	 133027874	 166053.
21:42:40 1393 1394	 1492465360	 294948787	 161921.
21:42:40 1394 1395	 1492465360	 457301496	 162352.
21:42:40 1395 1396	 1492465360	 619560439	 162259.
21:42:40 1396 1397	 1492465360	 781757388	 162197.
21:42:40 1397 1398	 1492465360	 943577413	 161820.
21:42:41 1398 1399	 1492465361	 80803389	 137226.
21:42:41 1399 1400	 1492465361	 242765061	 161962.
21:42:41 1400 1401	 1492465361	 408728222	 165963.
21:42:41 1401 1402	 1492465361	 570667875	 161940.
21:42:41 1402 1403	 1492465361	 736847609	 166179.
21:42:41 1403 1404	 1492465361	 898803638	 161956.
21:42:42 1404 1405	 1492465362	 64750365	 165947.
21:42:42 1405 1406	 1492465362	 197827649	 133077.
21:42:42 1406 1407	 1492465362	 363755248	 165928.
21:42:42 1407 1408	 1492465362	 525779228	 162024.
21:42:42 1408 1409	 1492465362	 691775405	 165996.
21:42:42 1409 1410	 1492465362	 853806026	 162031.
21:42:43 1410 1411	 1492465363	 19644538	 165838.
21:42:43 1411 1412	 1492465363	 181456427	 161812.
21:42:43 1412 1413	 1492465363	 318900164	 137444.
21:42:43 1413 1414	 1492465363	 480738409	 161838.
21:42:43 1414 1415	 1492465363	 646556719	 165818.
21:42:43 1415 1416	 1492465363	 808402085	 161846.
21:42:43 1416 1417	 1492465363	 974580532	 166178.
21:42:44 1417 1418	 1492465364	 136475932	 161896.
21:42:44 1418 1419	 1492465364	 302492356	 166016.
21:42:44 1419 1420	 1492465364	 435815011	 133323.
21:42:44 1420 1421	 1492465364	 601921497	 166106.
21:42:44 1421 1422	 1492465364	 763781026	 161860.
21:42:44 1422 1423	 1492465364	 925726932	 161946.
21:42:45 1423 1424	 1492465365	 91782948	 166056.
21:42:45 1424 1425	 1492465365	 253720234	 161937.
21:42:45 1425 1426	 1492465365	 419699349	 165979.
21:42:45 1426 1427	 1492465365	 552980957	 133282.
21:42:45 1427 1428	 1492465365	 719052106	 166071.
21:42:45 1428 1429	 1492465365	 885060856	 166009.
21:42:46 1429 1430	 1492465366	 47041371	 161980.
21:42:46 1430 1431	 1492465366	 209030503	 161989.
21:42:46 1431 1432	 1492465366	 375068230	 166038.
21:42:46 1432 1433	 1492465366	 537023215	 161955.
21:42:46 1433 1434	 1492465366	 702921635	 165898.
21:42:46 1434 1435	 1492465366	 836086891	 133166.
21:42:46 1435 1436	 1492465367	 2084370	 165997.
21:42:47 1436 1437	 1492465367	 164231622	 162147.
21:42:47 1437 1438	 1492465367	 330288362	 166057.
21:42:47 1438 1439	 1492465367	 488801835	 158514.
21:42:47 1439 1440	 1492465367	 650758265	 161956.
21:42:47 1440 1441	 1492465367	 816745359	 165987.
21:42:47 1441 1442	 1492465367	 978724870	 161980.
21:42:48 1442 1443	 1492465368	 115881851	 137157.
21:42:48 1443 1444	 1492465368	 277874839	 161993.
21:42:48 1444 1445	 1492465368	 444004062	 166129.
21:42:48 1445 1446	 1492465368	 606009951	 162006.
21:42:48 1446 1447	 1492465368	 771838857	 165829.
21:42:48 1447 1448	 1492465368	 933635095	 161796.
21:42:49 1448 1449	 1492465369	 99380961	 165746.
21:42:49 1449 1450	 1492465369	 232534896	 133154.
21:42:49 1450 1451	 1492465369	 398590158	 166055.
21:42:49 1451 1452	 1492465369	 560631252	 162041.
21:42:49 1452 1453	 1492465369	 726699017	 166068.
21:42:49 1453 1454	 1492465369	 888553191	 161854.
21:42:50 1454 1455	 1492465370	 54588187	 166035.
21:42:50 1455 1456	 1492465370	 220743136	 166155.
21:42:50 1456 1457	 1492465370	 382703256	 161960.
21:42:50 1457 1458	 1492465370	 515906259	 133203.
21:42:50 1458 1459	 1492465370	 681851364	 165945.
21:42:50 1459 1460	 1492465370	 843857335	 162006.
21:42:51 1460 1461	 1492465371	 9868136	 166011.
21:42:51 1461 1462	 1492465371	 171683773	 161815.
21:42:51 1462 1463	 1492465371	 337774558	 166091.
21:42:51 1463 1464	 1492465371	 499656030	 161882.
21:42:51 1464 1465	 1492465371	 636827378	 137171.
21:42:51 1465 1466	 1492465371	 798638651	 161811.
21:42:51 1466 1467	 1492465371	 960567281	 161929.
21:42:52 1467 1468	 1492465372	 126632928	 166066.
21:42:52 1468 1469	 1492465372	 292658564	 166025.
21:42:52 1469 1470	 1492465372	 454693005	 162035.
21:42:52 1470 1471	 1492465372	 606267845	 151575.
21:42:52 1471 1472	 1492465372	 772106969	 165839.
21:42:52 1472 1473	 1492465372	 930357248	 158250.
21:42:53 1473 1474	 1492465373	 97061141	 166704.
21:42:53 1474 1475	 1492465373	 254887921	 157827.
21:42:53 1475 1476	 1492465373	 420860272	 165972.
21:42:53 1476 1477	 1492465373	 553978321	 133118.
21:42:53 1477 1478	 1492465373	 719995741	 166018.
21:42:53 1478 1479	 1492465373	 881780968	 161785.
21:42:54 1479 1480	 1492465374	 47711183	 165930.
21:42:54 1480 1481	 1492465374	 209452659	 161742.
21:42:54 1481 1482	 1492465374	 375295072	 165842.
21:42:54 1482 1483	 1492465374	 537017856	 161723.
21:42:54 1483 1484	 1492465374	 674312316	 137294.
21:42:54 1484 1485	 1492465374	 836222785	 161910.
21:42:54 1485 1486	 1492465375	 2248977	 166027.
21:42:55 1486 1487	 1492465375	 164208829	 161960.
21:42:55 1487 1488	 1492465375	 326197977	 161989.
21:42:55 1488 1489	 1492465375	 492187226	 165989.
21:42:55 1489 1490	 1492465375	 658145799	 165959.
21:42:55 1490 1491	 1492465375	 791382190	 133236.
21:42:55 1491 1492	 1492465375	 957545276	 166163.
21:42:56 1492 1493	 1492465376	 119527626	 161982.
21:42:56 1493 1494	 1492465376	 281440857	 161914.
21:42:56 1494 1495	 1492465376	 447397388	 165956.
21:42:56 1495 1496	 1492465376	 609475054	 162078.
21:42:56 1496 1497	 1492465376	 771714086	 162239.
21:42:56 1497 1498	 1492465376	 933537791	 161824.
21:42:57 1498 1499	 1492465377	 70786762	 137248.
21:42:57 1499 1500	 1492465377	 232688539	 161902.
21:42:57 1500 1501	 1492465377	 398780568	 166092.
21:42:57 1501 1502	 1492465377	 560674723	 161894.
21:42:57 1502 1503	 1492465377	 727547321	 166873.
21:42:57 1503 1504	 1492465377	 881660105	 154113.
21:42:58 1504 1505	 1492465378	 43781860	 162122.
21:42:58 1505 1506	 1492465378	 206044633	 162262.
21:42:58 1506 1507	 1492465378	 367877877	 161834.
21:42:58 1507 1508	 1492465378	 533915982	 166038.
21:42:58 1508 1509	 1492465378	 695810814	 161895.
21:42:58 1509 1510	 1492465378	 833071940	 137261.
21:42:58 1510 1511	 1492465378	 999033240	 165961.
21:42:59 1511 1512	 1492465379	 161045912	 162013.
21:42:59 1512 1513	 1492465379	 326965091	 165919.
21:42:59 1513 1514	 1492465379	 489386394	 162421.
21:42:59 1514 1515	 1492465379	 647191440	 157805.
21:42:59 1515 1516	 1492465379	 813059592	 165868.
21:42:59 1516 1517	 1492465379	 974817388	 161758.
21:43:00 1517 1518	 1492465380	 111970177	 137153.
21:43:00 1518 1519	 1492465380	 273934809	 161965.
21:43:00 1519 1520	 1492465380	 440014760	 166079.
21:43:00 1520 1521	 1492465380	 602052363	 162038.
21:43:00 1521 1522	 1492465380	 768082979	 166031.
21:43:00 1522 1523	 1492465380	 929986261	 161903.
21:43:01 1523 1524	 1492465381	 96102885	 166117.
21:43:01 1524 1525	 1492465381	 229319937	 133217.
21:43:01 1525 1526	 1492465381	 395361636	 166041.
21:43:01 1526 1527	 1492465381	 554029810	 158669.
21:43:01 1527 1528	 1492465381	 720111781	 166081.
21:43:01 1528 1529	 1492465381	 878439202	 158328.
21:43:02 1529 1530	 1492465382	 44389570	 165950.
21:43:02 1530 1531	 1492465382	 202823231	 158434.
21:43:02 1531 1532	 1492465382	 368775224	 165952.
21:43:02 1532 1533	 1492465382	 530729940	 161955.
21:43:02 1533 1534	 1492465382	 696779512	 166049.
21:43:02 1534 1535	 1492465382	 829937055	 133158.
21:43:02 1535 1536	 1492465382	 991956887	 162020.
21:43:03 1536 1537	 1492465383	 158133355	 166176.
21:43:03 1537 1538	 1492465383	 319958112	 161825.
21:43:03 1538 1539	 1492465383	 485860428	 165902.
21:43:03 1539 1540	 1492465383	 647834906	 161975.
21:43:03 1540 1541	 1492465383	 813919053	 166084.
21:43:03 1541 1542	 1492465383	 979829471	 165910.
21:43:04 1542 1543	 1492465384	 113294716	 133465.
21:43:04 1543 1544	 1492465384	 275413098	 162119.
21:43:04 1544 1545	 1492465384	 441654536	 166241.
21:43:04 1545 1546	 1492465384	 603650240	 161996.
21:43:04 1546 1547	 1492465384	 769642432	 165992.
21:43:04 1547 1548	 1492465384	 931673567	 162031.
21:43:05 1548 1549	 1492465385	 97717725	 166044.
21:43:05 1549 1550	 1492465385	 230976268	 133259.
21:43:05 1550 1551	 1492465385	 393251155	 162275.
21:43:05 1551 1552	 1492465385	 555222220	 161971.
21:43:05 1552 1553	 1492465385	 721201306	 165979.
21:43:05 1553 1554	 1492465385	 887124136	 165923.
21:43:06 1554 1555	 1492465386	 49108739	 161984.
21:43:06 1555 1556	 1492465386	 210899295	 161791.
21:43:06 1556 1557	 1492465386	 348276905	 137378.
21:43:06 1557 1558	 1492465386	 510097955	 161821.
21:43:06 1558 1559	 1492465386	 676422764	 166324.
21:43:06 1559 1560	 1492465386	 838338504	 161916.
21:43:06 1560 1561	 1492465387	 125537	 161787.
21:43:07 1561 1562	 1492465387	 166120559	 165995.
21:43:07 1562 1563	 1492465387	 328174575	 162054.
21:43:07 1563 1564	 1492465387	 494451970	 166278.
21:43:07 1564 1565	 1492465387	 627580449	 133128.
21:43:07 1565 1566	 1492465387	 789804487	 162224.
21:43:07 1566 1567	 1492465387	 955788447	 165984.
21:43:08 1567 1568	 1492465388	 117750357	 161962.
21:43:08 1568 1569	 1492465388	 283727716	 165977.
21:43:08 1569 1570	 1492465388	 445707928	 161981.
21:43:08 1570 1571	 1492465388	 611805586	 166097.
21:43:08 1571 1572	 1492465388	 745088666	 133283.
21:43:08 1572 1573	 1492465388	 907181422	 162093.
21:43:09 1573 1574	 1492465389	 69694749	 162513.
21:43:09 1574 1575	 1492465389	 235723506	 166029.
21:43:09 1575 1576	 1492465389	 397796408	 162073.
21:43:09 1576 1577	 1492465389	 559673300	 161877.
21:43:09 1577 1578	 1492465389	 725796515	 166123.
21:43:09 1578 1579	 1492465389	 887732285	 161936.
21:43:10 1579 1580	 1492465390	 25051032	 137319.
21:43:10 1580 1581	 1492465390	 187149356	 162098.
21:43:10 1581 1582	 1492465390	 353174731	 166025.
21:43:10 1582 1583	 1492465390	 515124561	 161950.
21:43:10 1583 1584	 1492465390	 677131639	 162007.
21:43:10 1584 1585	 1492465390	 843123425	 165992.
21:43:11 1585 1586	 1492465391	 5196127	 162073.
21:43:11 1586 1587	 1492465391	 171938302	 166742.
21:43:11 1587 1588	 1492465391	 329883743	 157945.
21:43:11 1588 1589	 1492465391	 463072621	 133189.
21:43:11 1589 1590	 1492465391	 629066383	 165994.
21:43:11 1590 1591	 1492465391	 790955443	 161889.
21:43:11 1591 1592	 1492465391	 957036631	 166081.
21:43:12 1592 1593	 1492465392	 118984685	 161949.
21:43:12 1593 1594	 1492465392	 284966534	 165981.
21:43:12 1594 1595	 1492465392	 447337991	 162372.
21:43:12 1595 1596	 1492465392	 584728093	 137390.
21:43:12 1596 1597	 1492465392	 746943489	 162215.
21:43:12 1597 1598	 1492465392	 908946521	 162003.
21:43:13 1598 1599	 1492465393	 75135868	 166190.
21:43:13 1599 1600	 1492465393	 237267330	 162131.
21:43:13 1600 1601	 1492465393	 403308597	 166041.
21:43:13 1601 1602	 1492465393	 569231979	 165924.
21:43:13 1602 1603	 1492465393	 702586535	 133354.
21:43:13 1603 1604	 1492465393	 864622392	 162036.
21:43:14 1604 1605	 1492465394	 30691857	 166070.
21:43:14 1605 1606	 1492465394	 192617861	 161926.
21:43:14 1606 1607	 1492465394	 358585713	 165967.
21:43:14 1607 1608	 1492465394	 520458791	 161874.
21:43:14 1608 1609	 1492465394	 686619519	 166160.
21:43:14 1609 1610	 1492465394	 819868015	 133249.
21:43:14 1610 1611	 1492465394	 982139900	 162272.
21:43:15 1611 1612	 1492465395	 148269585	 166129.
21:43:15 1612 1613	 1492465395	 310175842	 161907.
21:43:15 1613 1614	 1492465395	 476255806	 166080.
21:43:15 1614 1615	 1492465395	 638372578	 162116.
21:43:15 1615 1616	 1492465395	 804612619	 166240.
21:43:15 1616 1617	 1492465395	 966590527	 161978.
21:43:16 1617 1618	 1492465396	 128824001	 162234.
21:43:16 1618 1619	 1492465396	 266281403	 137457.
21:43:16 1619 1620	 1492465396	 428177574	 161896.
21:43:16 1620 1621	 1492465396	 590524995	 162348.
21:43:16 1621 1622	 1492465396	 756595392	 166070.
21:43:16 1622 1623	 1492465396	 922788375	 166193.
21:43:17 1623 1624	 1492465397	 84867388	 162079.
21:43:17 1624 1625	 1492465397	 250945175	 166078.
21:43:17 1625 1626	 1492465397	 413011187	 162066.
21:43:17 1626 1627	 1492465397	 546226993	 133216.
21:43:17 1627 1628	 1492465397	 712252714	 166025.
21:43:17 1628 1629	 1492465397	 874266221	 162014.
21:43:18 1629 1630	 1492465398	 40441337	 166175.
21:43:18 1630 1631	 1492465398	 198999127	 158558.
21:43:18 1631 1632	 1492465398	 361223310	 162224.
21:43:18 1632 1633	 1492465398	 527348239	 166125.
21:43:18 1633 1634	 1492465398	 689299535	 161951.
21:43:18 1634 1635	 1492465398	 855308450	 166009.
21:43:18 1635 1636	 1492465398	 988698002	 133390.
21:43:19 1636 1637	 1492465399	 150797875	 162100.
21:43:19 1637 1638	 1492465399	 316956120	 166158.
21:43:19 1638 1639	 1492465399	 478813630	 161857.
21:43:19 1639 1640	 1492465399	 641131809	 162319.
21:43:19 1640 1641	 1492465399	 806950634	 165818.
21:43:19 1641 1642	 1492465399	 968859110	 161909.
21:43:20 1642 1643	 1492465400	 106242935	 137384.
21:43:20 1643 1644	 1492465400	 268278143	 162035.
21:43:20 1644 1645	 1492465400	 430671049	 162393.
21:43:20 1645 1646	 1492465400	 592766549	 162096.
21:43:20 1646 1647	 1492465400	 758670833	 165904.
21:43:20 1647 1648	 1492465400	 920964488	 162293.
21:43:21 1648 1649	 1492465401	 82978764	 162014.
21:43:21 1649 1650	 1492465401	 249074640	 166096.
21:43:21 1650 1651	 1492465401	 386312419	 137238.
21:43:21 1651 1652	 1492465401	 548173337	 161861.
21:43:21 1652 1653	 1492465401	 714324792	 166152.
21:43:21 1653 1654	 1492465401	 876392902	 162068.
21:43:22 1654 1655	 1492465402	 42515497	 166122.
21:43:22 1655 1656	 1492465402	 204608943	 162094.
21:43:22 1656 1657	 1492465402	 370562418	 165953.
21:43:22 1657 1658	 1492465402	 503840400	 133278.
21:43:22 1658 1659	 1492465402	 665695252	 161855.
21:43:22 1659 1660	 1492465402	 831737098	 166042.
21:43:22 1660 1661	 1492465402	 993766110	 162029.
21:43:23 1661 1662	 1492465403	 159889143	 166123.
21:43:23 1662 1663	 1492465403	 321874226	 161985.
21:43:23 1663 1664	 1492465403	 487997557	 166123.
21:43:23 1664 1665	 1492465403	 650146806	 162150.
21:43:23 1665 1666	 1492465403	 787467777	 137320.
21:43:23 1666 1667	 1492465403	 949412586	 161945.
21:43:24 1667 1668	 1492465404	 115446333	 166034.
21:43:24 1668 1669	 1492465404	 277394163	 161948.
21:43:24 1669 1670	 1492465404	 443499526	 166105.
21:43:24 1670 1671	 1492465404	 605548858	 162050.
21:43:24 1671 1672	 1492465404	 742770489	 137221.
21:43:24 1672 1673	 1492465404	 904717243	 161947.
21:43:25 1673 1674	 1492465405	 70821124	 166104.
21:43:25 1674 1675	 1492465405	 232821359	 162000.
21:43:25 1675 1676	 1492465405	 398845223	 166024.
21:43:25 1676 1677	 1492465405	 561033366	 162188.
21:43:25 1677 1678	 1492465405	 727106154	 166073.
21:43:25 1678 1679	 1492465405	 860412800	 133307.
21:43:26 1679 1680	 1492465406	 27223985	 166811.
21:43:26 1680 1681	 1492465406	 185092681	 157868.
21:43:26 1681 1682	 1492465406	 351323165	 166231.
21:43:26 1682 1683	 1492465406	 513383393	 162060.
21:43:26 1683 1684	 1492465406	 675490891	 162108.
21:43:26 1684 1685	 1492465406	 841531965	 166041.
21:43:26 1685 1686	 1492465407	 3587732	 162055.
21:43:27 1686 1687	 1492465407	 169656984	 166070.
21:43:27 1687 1688	 1492465407	 302885478	 133228.
21:43:27 1688 1689	 1492465407	 468912538	 166027.
21:43:27 1689 1690	 1492465407	 630926905	 162015.
21:43:27 1690 1691	 1492465407	 797020246	 166093.
21:43:27 1691 1692	 1492465407	 959045783	 162025.
21:43:28 1692 1693	 1492465408	 121213011	 162168.
21:43:28 1693 1694	 1492465408	 287318017	 166105.
21:43:28 1694 1695	 1492465408	 420704615	 133387.
21:43:28 1695 1696	 1492465408	 586833338	 166128.
21:43:28 1696 1697	 1492465408	 748851325	 162018.
21:43:28 1697 1698	 1492465408	 914859919	 166009.
21:43:29 1698 1699	 1492465409	 76817061	 161957.
21:43:29 1699 1700	 1492465409	 242863080	 166046.
21:43:29 1700 1701	 1492465409	 404934611	 162071.
21:43:29 1701 1702	 1492465409	 538242626	 133308.
21:43:29 1702 1703	 1492465409	 704499241	 166257.
21:43:29 1703 1704	 1492465409	 866430446	 161931.
21:43:30 1704 1705	 1492465410	 32519641	 166089.
21:43:30 1705 1706	 1492465410	 194467708	 161948.
21:43:30 1706 1707	 1492465410	 360551281	 166084.
21:43:30 1707 1708	 1492465410	 526507387	 165956.
21:43:30 1708 1709	 1492465410	 659682027	 133175.
21:43:30 1709 1710	 1492465410	 825808768	 166126.
21:43:30 1710 1711	 1492465410	 987774987	 161967.
21:43:31 1711 1712	 1492465411	 153708384	 165933.
21:43:31 1712 1713	 1492465411	 312831023	 159123.
21:43:31 1713 1714	 1492465411	 474858479	 162027.
21:43:31 1714 1715	 1492465411	 636937552	 162079.
21:43:31 1715 1716	 1492465411	 803039826	 166103.
21:43:31 1716 1717	 1492465411	 965054958	 162015.
21:43:32 1717 1718	 1492465412	 102425367	 137370.
21:43:32 1718 1719	 1492465412	 268521177	 166096.
21:43:32 1719 1720	 1492465412	 430828179	 162307.
21:43:32 1720 1721	 1492465412	 592907237	 162079.
21:43:32 1721 1722	 1492465412	 759079056	 166172.
21:43:32 1722 1723	 1492465412	 921439493	 162360.
21:43:33 1723 1724	 1492465413	 83492313	 162053.
21:43:33 1724 1725	 1492465413	 249596035	 166104.
21:43:33 1725 1726	 1492465413	 411681447	 162085.
21:43:33 1726 1727	 1492465413	 549200376	 137519.
21:43:33 1727 1728	 1492465413	 711267255	 162067.
21:43:33 1728 1729	 1492465413	 877354542	 166087.
21:43:34 1729 1730	 1492465414	 39344828	 161991.
21:43:34 1730 1731	 1492465414	 201300376	 161955.
21:43:34 1731 1732	 1492465414	 367308208	 166008.
21:43:34 1732 1733	 1492465414	 533346361	 166038.
21:43:34 1733 1734	 1492465414	 666535738	 133189.
21:43:34 1734 1735	 1492465414	 828691141	 162156.
21:43:34 1735 1736	 1492465414	 994655525	 165964.
21:43:35 1736 1737	 1492465415	 156788991	 162134.
21:43:35 1737 1738	 1492465415	 322746273	 165957.
21:43:35 1738 1739	 1492465415	 484928045	 162182.
21:43:35 1739 1740	 1492465415	 650996343	 166068.
21:43:35 1740 1741	 1492465415	 784206667	 133211.
21:43:35 1741 1742	 1492465415	 946225700	 162018.
21:43:36 1742 1743	 1492465416	 112216125	 165991.
21:43:36 1743 1744	 1492465416	 274970940	 162755.
21:43:36 1744 1745	 1492465416	 432833707	 157862.
21:43:36 1745 1746	 1492465416	 598883750	 166050.
21:43:36 1746 1747	 1492465416	 760883583	 162000.
21:43:36 1747 1748	 1492465416	 926684130	 165801.
21:43:37 1748 1749	 1492465417	 59788459	 133104.
21:43:37 1749 1750	 1492465417	 225789910	 166002.
21:43:37 1750 1751	 1492465417	 392183710	 166393.
21:43:37 1751 1752	 1492465417	 550295737	 158112.
21:43:37 1752 1753	 1492465417	 712119340	 161824.
21:43:37 1753 1754	 1492465417	 878054569	 165935.
21:43:38 1754 1755	 1492465418	 39917119	 161863.
21:43:38 1755 1756	 1492465418	 205894616	 165977.
21:43:38 1756 1757	 1492465418	 371885476	 165991.
21:43:38 1757 1758	 1492465418	 505166708	 133281.
21:43:38 1758 1759	 1492465418	 667227844	 162062.
21:43:38 1759 1760	 1492465418	 833168031	 165940.
21:43:38 1760 1761	 1492465418	 995139990	 161972.
21:43:39 1761 1762	 1492465419	 161131035	 165991.
21:43:39 1762 1763	 1492465419	 327058639	 165927.
21:43:39 1763 1764	 1492465419	 488975360	 161917.
21:43:39 1764 1765	 1492465419	 626256102	 137281.
21:43:39 1765 1766	 1492465419	 788148475	 161892.
21:43:39 1766 1767	 1492465419	 954046717	 165898.
21:43:40 1767 1768	 1492465420	 108783377	 154737.
21:43:40 1768 1769	 1492465420	 274887870	 166105.
21:43:40 1769 1770	 1492465420	 440839913	 165952.
21:43:40 1770 1771	 1492465420	 602835155	 161995.
21:43:40 1771 1772	 1492465420	 769000652	 166165.
21:43:40 1772 1773	 1492465420	 931057683	 162057.
21:43:41 1773 1774	 1492465421	 64423758	 133367.
21:43:41 1774 1775	 1492465421	 230604346	 166180.
21:43:41 1775 1776	 1492465421	 392645863	 162042.
21:43:41 1776 1777	 1492465421	 558805847	 166160.
21:43:41 1777 1778	 1492465421	 720955045	 162149.
21:43:41 1778 1779	 1492465421	 887014976	 166060.
21:43:42 1779 1780	 1492465422	 49055212	 162040.
21:43:42 1780 1781	 1492465422	 214983667	 165929.
21:43:42 1781 1782	 1492465422	 348259575	 133275.
21:43:42 1782 1783	 1492465422	 514267063	 166008.
21:43:42 1783 1784	 1492465422	 676364456	 162097.
21:43:42 1784 1785	 1492465422	 838379307	 162015.
21:43:43 1785 1786	 1492465423	 4608363	 166229.
21:43:43 1786 1787	 1492465423	 166643802	 162036.
21:43:43 1787 1788	 1492465423	 332754017	 166110.
21:43:43 1788 1789	 1492465423	 494754777	 162000.
21:43:43 1789 1790	 1492465423	 628072889	 133319.
21:43:43 1790 1791	 1492465423	 790466075	 162393.
21:43:43 1791 1792	 1492465423	 956494325	 166028.
21:43:44 1792 1793	 1492465424	 115187610	 158693.
21:43:44 1793 1794	 1492465424	 277174297	 161987.
21:43:44 1794 1795	 1492465424	 443240990	 166067.
21:43:44 1795 1796	 1492465424	 605256662	 162015.
21:43:44 1796 1797	 1492465424	 771299714	 166043.
21:43:44 1797 1798	 1492465424	 933320363	 162021.
21:43:45 1798 1799	 1492465425	 70752460	 137432.
21:43:45 1799 1800	 1492465425	 232625812	 161874.
21:43:45 1800 1801	 1492465425	 394649783	 162023.
21:43:45 1801 1802	 1492465425	 560763697	 166115.
21:43:45 1802 1803	 1492465425	 726908352	 166144.
21:43:45 1803 1804	 1492465425	 888912197	 162004.
21:43:46 1804 1805	 1492465426	 51007969	 162096.
21:43:46 1805 1806	 1492465426	 188228573	 137221.
21:43:46 1806 1807	 1492465426	 350221523	 161992.
21:43:46 1807 1808	 1492465426	 516394067	 166173.
21:43:46 1808 1809	 1492465426	 678623426	 162229.
21:43:46 1809 1810	 1492465426	 840663686	 162040.
21:43:47 1810 1811	 1492465427	 6692740	 166029.
21:43:47 1811 1812	 1492465427	 168778039	 162086.
21:43:47 1812 1813	 1492465427	 334954011	 166176.
21:43:47 1813 1814	 1492465427	 468194707	 133240.
21:43:47 1814 1815	 1492465427	 659599506	 191405.
21:43:47 1815 1816	 1492465427	 792861432	 133262.
21:43:47 1816 1817	 1492465427	 958948004	 166087.
21:43:48 1817 1818	 1492465428	 120950610	 162002.
21:43:48 1818 1819	 1492465428	 287072173	 166122.
21:43:48 1819 1820	 1492465428	 449127810	 162056.
21:43:48 1820 1821	 1492465428	 615114810	 165987.
21:43:48 1821 1822	 1492465428	 777315898	 162201.
21:43:48 1822 1823	 1492465428	 914629853	 137314.
21:43:49 1823 1824	 1492465429	 76704238	 162074.
21:43:49 1824 1825	 1492465429	 242730681	 166026.
21:43:49 1825 1826	 1492465429	 404849978	 162120.
21:43:49 1826 1827	 1492465429	 571207809	 166358.
21:43:49 1827 1828	 1492465429	 733302350	 162094.
21:43:49 1828 1829	 1492465429	 899290138	 165988.
21:43:50 1829 1830	 1492465430	 61220984	 161931.
21:43:50 1830 1831	 1492465430	 198699294	 137478.
21:43:50 1831 1832	 1492465430	 360684164	 161985.
21:43:50 1832 1833	 1492465430	 522748451	 162064.
21:43:50 1833 1834	 1492465430	 688782225	 166034.
21:43:50 1834 1835	 1492465430	 850785913	 162004.
21:43:51 1835 1836	 1492465431	 16865615	 166079.
21:43:51 1836 1837	 1492465431	 178993140	 162128.
21:43:51 1837 1838	 1492465431	 344992176	 165999.
21:43:51 1838 1839	 1492465431	 478160087	 133168.
21:43:51 1839 1840	 1492465431	 640182923	 162023.
21:43:51 1840 1841	 1492465431	 806165616	 165982.
21:43:51 1841 1842	 1492465431	 968228366	 162063.
21:43:52 1842 1843	 1492465432	 134279440	 166051.
21:43:52 1843 1844	 1492465432	 296099541	 161820.
21:43:52 1844 1845	 1492465432	 462099158	 166000.
21:43:52 1845 1846	 1492465432	 595345469	 133246.
21:43:52 1846 1847	 1492465432	 757263294	 161918.
21:43:52 1847 1848	 1492465432	 923210259	 165947.
21:43:53 1848 1849	 1492465433	 89325177	 166115.
21:43:53 1849 1850	 1492465433	 251270620	 161945.
21:43:53 1850 1851	 1492465433	 417232058	 165962.
21:43:53 1851 1852	 1492465433	 579549340	 162317.
21:43:53 1852 1853	 1492465433	 741461835	 161913.
21:43:53 1853 1854	 1492465433	 874693716	 133231.
21:43:54 1854 1855	 1492465434	 36545598	 161852.
21:43:54 1855 1856	 1492465434	 202548036	 166003.
21:43:54 1856 1857	 1492465434	 364447298	 161899.
21:43:54 1857 1858	 1492465434	 530399199	 165952.
21:43:54 1858 1859	 1492465434	 692307007	 161908.
21:43:54 1859 1860	 1492465434	 829481016	 137174.
21:43:54 1860 1861	 1492465434	 991422811	 161942.
21:43:55 1861 1862	 1492465435	 149799997	 158377.
21:43:55 1862 1863	 1492465435	 315888417	 166088.
21:43:55 1863 1864	 1492465435	 477958884	 162071.
21:43:55 1864 1865	 1492465435	 643983886	 166025.
21:43:55 1865 1866	 1492465435	 806170950	 162187.
21:43:55 1866 1867	 1492465435	 972362586	 166191.
21:43:56 1867 1868	 1492465436	 134380334	 162018.
21:43:56 1868 1869	 1492465436	 300380817	 166001.
21:43:56 1869 1870	 1492465436	 433749390	 133368.
21:43:56 1870 1871	 1492465436	 599765337	 166016.
21:43:56 1871 1872	 1492465436	 761696068	 161931.
21:43:56 1872 1873	 1492465436	 923507837	 161812.
21:43:57 1873 1874	 1492465437	 89588662	 166080.
21:43:57 1874 1875	 1492465437	 251492522	 161904.
21:43:57 1875 1876	 1492465437	 417560617	 166068.
21:43:57 1876 1877	 1492465437	 550774825	 133215.
