01:09:10    0 Step	 time(s)	 time(ns)	 delta(ms)
01:09:10    0 1	 1492477750	 971700407	 923.
01:09:11    1 2	 1492477751	 137449498	 165749.
01:09:11    2 3	 1492477751	 299728504	 162279.
01:09:11    3 4	 1492477751	 465893389	 166165.
01:09:11    4 5	 1492477751	 627845974	 161953.
01:09:11    5 6	 1492477751	 765170515	 137324.
01:09:11    6 7	 1492477751	 927163428	 161993.
01:09:12    7 8	 1492477752	 89025066	 161862.
01:09:12    8 9	 1492477752	 254987346	 165962.
01:09:12    9 10	 1492477752	 416811012	 161824.
01:09:12   10 11	 1492477752	 582723131	 165912.
01:09:12   11 12	 1492477752	 744748658	 162025.
01:09:12   12 13	 1492477752	 877912074	 133164.
01:09:13   13 14	 1492477753	 44034367	 166122.
01:09:13   14 15	 1492477753	 205903762	 161870.
01:09:13   15 16	 1492477753	 367811082	 161907.
01:09:13   16 17	 1492477753	 533762845	 165952.
01:09:13   17 18	 1492477753	 695815544	 162052.
01:09:13   18 19	 1492477753	 861835094	 166020.
01:09:14   19 20	 1492477754	 23556196	 161721.
01:09:14   20 21	 1492477754	 157130915	 133575.
01:09:14   21 22	 1492477754	 318970866	 161840.
01:09:14   22 23	 1492477754	 485036207	 166065.
01:09:14   23 24	 1492477754	 646821420	 161785.
01:09:14   24 25	 1492477754	 808986465	 162165.
01:09:14   25 26	 1492477754	 975066724	 166081.
01:09:15   26 27	 1492477755	 136892041	 161825.
01:09:15   27 28	 1492477755	 302824147	 165932.
01:09:15   28 29	 1492477755	 436040682	 133216.
01:09:15   29 30	 1492477755	 601934967	 165895.
01:09:15   30 31	 1492477755	 763692329	 161757.
01:09:15   31 32	 1492477755	 925698782	 162007.
01:09:16   32 33	 1492477756	 91697053	 165998.
01:09:16   33 34	 1492477756	 253375200	 161678.
01:09:16   34 35	 1492477756	 419311664	 165936.
01:09:16   35 36	 1492477756	 552532708	 133221.
01:09:16   36 37	 1492477756	 718633986	 166102.
01:09:16   37 38	 1492477756	 880445897	 161812.
01:09:17   38 39	 1492477757	 46328379	 165882.
01:09:17   39 40	 1492477757	 208188641	 161860.
01:09:17   40 41	 1492477757	 374118765	 165931.
01:09:17   41 42	 1492477757	 535970437	 161851.
01:09:17   42 43	 1492477757	 669053084	 133083.
01:09:17   43 44	 1492477757	 834745081	 165692.
01:09:17   44 45	 1492477757	 996629263	 161884.
01:09:18   45 46	 1492477758	 162291289	 165662.
01:09:18   46 47	 1492477758	 324122214	 161831.
01:09:18   47 48	 1492477758	 490199964	 166078.
01:09:18   48 49	 1492477758	 652016454	 161816.
01:09:18   49 50	 1492477758	 785066682	 133050.
01:09:18   50 51	 1492477758	 950985586	 165919.
01:09:19   51 52	 1492477759	 112781315	 161796.
01:09:19   52 53	 1492477759	 278589870	 165809.
01:09:19   53 54	 1492477759	 440267200	 161677.
01:09:19   54 55	 1492477759	 605968188	 165701.
01:09:19   55 56	 1492477759	 768013087	 162045.
01:09:19   56 57	 1492477759	 929830133	 161817.
01:09:20   57 58	 1492477760	 67049267	 137219.
01:09:20   58 59	 1492477760	 228910364	 161861.
01:09:20   59 60	 1492477760	 394853210	 165943.
01:09:20   60 61	 1492477760	 556613060	 161760.
01:09:20   61 62	 1492477760	 722378559	 165765.
01:09:20   62 63	 1492477760	 884144220	 161766.
01:09:21   63 64	 1492477761	 49869570	 165725.
01:09:21   64 65	 1492477761	 183092795	 133224.
01:09:21   65 66	 1492477761	 344864306	 161771.
01:09:21   66 67	 1492477761	 510732978	 165869.
01:09:21   67 68	 1492477761	 669092323	 158359.
01:09:21   68 69	 1492477761	 835137965	 166046.
01:09:21   69 70	 1492477761	 997788424	 162650.
01:09:22   70 71	 1492477762	 155531921	 157744.
01:09:22   71 72	 1492477762	 321377056	 165845.
01:09:22   72 73	 1492477762	 483215830	 161839.
01:09:22   73 74	 1492477762	 645148263	 161932.
01:09:22   74 75	 1492477762	 782491895	 137344.
01:09:22   75 76	 1492477762	 944378188	 161886.
01:09:23   76 77	 1492477763	 110264663	 165887.
01:09:23   77 78	 1492477763	 272041900	 161777.
01:09:23   78 79	 1492477763	 437887337	 165845.
01:09:23   79 80	 1492477763	 599661126	 161774.
01:09:23   80 81	 1492477763	 736804967	 137144.
01:09:23   81 82	 1492477763	 898643494	 161838.
01:09:24   82 83	 1492477764	 64525138	 165882.
01:09:24   83 84	 1492477764	 226439361	 161914.
01:09:24   84 85	 1492477764	 388723316	 162284.
01:09:24   85 86	 1492477764	 550597791	 161875.
01:09:24   86 87	 1492477764	 716449833	 165852.
01:09:24   87 88	 1492477764	 878282183	 161832.
01:09:25   88 89	 1492477765	 15468708	 137186.
01:09:25   89 90	 1492477765	 177397577	 161929.
01:09:25   90 91	 1492477765	 343173210	 165776.
01:09:25   91 92	 1492477765	 505008847	 161836.
01:09:25   92 93	 1492477765	 670831461	 165822.
01:09:25   93 94	 1492477765	 832647196	 161816.
01:09:25   94 95	 1492477765	 998542277	 165895.
01:09:26   95 96	 1492477766	 131696941	 133155.
01:09:26   96 97	 1492477766	 293380622	 161683.
01:09:26   97 98	 1492477766	 459178467	 165798.
01:09:26   98 99	 1492477766	 621099379	 161921.
01:09:26   99 100	 1492477766	 786956796	 165858.
01:09:26  100 101	 1492477766	 948711361	 161754.
01:09:27  101 102	 1492477767	 114575541	 165864.
01:09:27  102 103	 1492477767	 247569311	 132994.
01:09:27  103 104	 1492477767	 409239655	 161670.
01:09:27  104 105	 1492477767	 575284685	 166045.
01:09:27  105 106	 1492477767	 737178855	 161895.
01:09:27  106 107	 1492477767	 903115350	 165936.
01:09:28  107 108	 1492477768	 64891186	 161776.
01:09:28  108 109	 1492477768	 230804489	 165914.
01:09:28  109 110	 1492477768	 363922225	 133117.
01:09:28  110 111	 1492477768	 525738928	 161817.
01:09:28  111 112	 1492477768	 691835374	 166096.
01:09:28  112 113	 1492477768	 857726775	 165892.
01:09:29  113 114	 1492477769	 19599876	 161873.
01:09:29  114 115	 1492477769	 185655903	 166056.
01:09:29  115 116	 1492477769	 347602804	 161947.
01:09:29  116 117	 1492477769	 513526744	 165924.
01:09:29  117 118	 1492477769	 646683158	 133156.
01:09:29  118 119	 1492477769	 812732922	 166050.
01:09:29  119 120	 1492477769	 974728961	 161996.
01:09:30  120 121	 1492477770	 136405063	 161676.
01:09:30  121 122	 1492477770	 302347572	 165942.
01:09:30  122 123	 1492477770	 464431145	 162084.
01:09:30  123 124	 1492477770	 630369130	 165938.
01:09:30  124 125	 1492477770	 792159107	 161790.
01:09:30  125 126	 1492477770	 925211053	 133052.
01:09:31  126 127	 1492477771	 91167062	 165956.
01:09:31  127 128	 1492477771	 253022941	 161856.
01:09:31  128 129	 1492477771	 418883822	 165861.
01:09:31  129 130	 1492477771	 580767072	 161883.
01:09:31  130 131	 1492477771	 746707584	 165940.
01:09:31  131 132	 1492477771	 908549074	 161842.
01:09:32  132 133	 1492477772	 45685219	 137136.
01:09:32  133 134	 1492477772	 207420839	 161736.
01:09:32  134 135	 1492477772	 373253259	 165832.
01:09:32  135 136	 1492477772	 535021394	 161768.
01:09:32  136 137	 1492477772	 700790768	 165770.
01:09:32  137 138	 1492477772	 862421894	 161631.
01:09:32  138 139	 1492477772	 995507809	 133086.
01:09:33  139 140	 1492477773	 161412354	 165904.
01:09:33  140 141	 1492477773	 323164479	 161752.
01:09:33  141 142	 1492477773	 488992933	 165829.
01:09:33  142 143	 1492477773	 650758611	 161765.
01:09:33  143 144	 1492477773	 816426132	 165668.
01:09:33  144 145	 1492477773	 978105225	 161679.
01:09:34  145 146	 1492477774	 115173982	 137069.
01:09:34  146 147	 1492477774	 276988780	 161815.
01:09:34  147 148	 1492477774	 442847063	 165858.
01:09:34  148 149	 1492477774	 604609238	 161762.
01:09:34  149 150	 1492477774	 770545089	 165936.
01:09:34  150 151	 1492477774	 932272395	 161727.
01:09:35  151 152	 1492477775	 98788126	 166516.
01:09:35  152 153	 1492477775	 256626793	 157839.
01:09:35  153 154	 1492477775	 389704456	 133077.
01:09:35  154 155	 1492477775	 555714709	 166010.
01:09:35  155 156	 1492477775	 717548074	 161834.
01:09:35  156 157	 1492477775	 879407641	 161859.
01:09:36  157 158	 1492477776	 45194144	 165787.
01:09:36  158 159	 1492477776	 206973520	 161779.
01:09:36  159 160	 1492477776	 372690447	 165717.
01:09:36  160 161	 1492477776	 505819502	 133129.
01:09:36  161 162	 1492477776	 671750709	 165931.
01:09:36  162 163	 1492477776	 833548023	 161798.
01:09:36  163 164	 1492477776	 995385822	 161838.
01:09:37  164 165	 1492477777	 158038710	 162652.
01:09:37  165 166	 1492477777	 320111582	 162073.
01:09:37  166 167	 1492477777	 486352850	 166242.
01:09:37  167 168	 1492477777	 648365148	 162012.
01:09:37  168 169	 1492477777	 814164455	 165799.
01:09:37  169 170	 1492477777	 947352776	 133189.
01:09:38  170 171	 1492477778	 109259037	 161906.
01:09:38  171 172	 1492477778	 275326286	 166067.
01:09:38  172 173	 1492477778	 437170047	 161844.
01:09:38  173 174	 1492477778	 599173887	 162004.
01:09:38  174 175	 1492477778	 765006677	 165832.
01:09:38  175 176	 1492477778	 924334810	 159329.
01:09:39  176 177	 1492477779	 82160288	 157825.
01:09:39  177 178	 1492477779	 248002054	 165842.
01:09:39  178 179	 1492477779	 409798039	 161796.
01:09:39  179 180	 1492477779	 575406092	 165608.
01:09:39  180 181	 1492477779	 708476040	 133070.
01:09:39  181 182	 1492477779	 870414755	 161939.
01:09:40  182 183	 1492477780	 36305029	 165890.
01:09:40  183 184	 1492477780	 198156403	 161851.
01:09:40  184 185	 1492477780	 363871499	 165715.
01:09:40  185 186	 1492477780	 525624493	 161753.
01:09:40  186 187	 1492477780	 662754361	 137130.
01:09:40  187 188	 1492477780	 824554058	 161800.
01:09:40  188 189	 1492477780	 990495253	 165941.
01:09:41  189 190	 1492477781	 152491040	 161996.
01:09:41  190 191	 1492477781	 318244668	 165753.
01:09:41  191 192	 1492477781	 480079793	 161836.
01:09:41  192 193	 1492477781	 645994271	 165914.
01:09:41  193 194	 1492477781	 779123825	 133130.
01:09:41  194 195	 1492477781	 941031304	 161907.
01:09:42  195 196	 1492477782	 106937106	 165906.
01:09:42  196 197	 1492477782	 268649906	 161713.
01:09:42  197 198	 1492477782	 434486066	 165836.
01:09:42  198 199	 1492477782	 600492783	 166007.
01:09:42  199 200	 1492477782	 762305541	 161812.
01:09:42  200 201	 1492477782	 895485783	 133181.
01:09:43  201 202	 1492477783	 61285684	 165799.
01:09:43  202 203	 1492477783	 223363637	 162078.
01:09:43  203 204	 1492477783	 389398507	 166035.
01:09:43  204 205	 1492477783	 551256814	 161859.
01:09:43  205 206	 1492477783	 717129666	 165872.
01:09:43  206 207	 1492477783	 878887370	 161758.
01:09:44  207 208	 1492477784	 16083664	 137196.
01:09:44  208 209	 1492477784	 178152964	 162070.
01:09:44  209 210	 1492477784	 339991077	 161838.
01:09:44  210 211	 1492477784	 505949799	 165959.
01:09:44  211 212	 1492477784	 667888088	 161938.
01:09:44  212 213	 1492477784	 833786803	 165899.
01:09:44  213 214	 1492477784	 995802867	 162016.
01:09:45  214 215	 1492477785	 157802040	 161999.
01:09:45  215 216	 1492477785	 294915147	 137113.
01:09:45  216 217	 1492477785	 456698004	 161783.
01:09:45  217 218	 1492477785	 618656900	 161959.
01:09:45  218 219	 1492477785	 784543688	 165886.
01:09:45  219 220	 1492477785	 946243985	 161701.
01:09:46  220 221	 1492477786	 112121767	 165878.
01:09:46  221 222	 1492477786	 273831896	 161710.
01:09:46  222 223	 1492477786	 411055061	 137223.
01:09:46  223 224	 1492477786	 573218358	 162163.
01:09:46  224 225	 1492477786	 735067239	 161849.
01:09:46  225 226	 1492477786	 900960613	 165893.
01:09:47  226 227	 1492477787	 62812436	 161852.
01:09:47  227 228	 1492477787	 225446565	 162634.
01:09:47  228 229	 1492477787	 387356730	 161911.
01:09:47  229 230	 1492477787	 553228254	 165871.
01:09:47  230 231	 1492477787	 711594561	 158366.
01:09:47  231 232	 1492477787	 873580613	 161986.
01:09:48  232 233	 1492477788	 39687378	 166107.
01:09:48  233 234	 1492477788	 172782577	 133095.
01:09:48  234 235	 1492477788	 338664877	 165883.
01:09:48  235 236	 1492477788	 500651899	 161987.
01:09:48  236 237	 1492477788	 662583366	 161931.
01:09:48  237 238	 1492477788	 828418016	 165835.
01:09:48  238 239	 1492477788	 990144607	 161726.
01:09:49  239 240	 1492477789	 156172684	 166028.
01:09:49  240 241	 1492477789	 318025242	 161853.
01:09:49  241 242	 1492477789	 455285416	 137260.
01:09:49  242 243	 1492477789	 617004920	 161720.
01:09:49  243 244	 1492477789	 782896130	 165891.
01:09:49  244 245	 1492477789	 944932684	 162036.
01:09:50  245 246	 1492477790	 103071893	 158140.
01:09:50  246 247	 1492477790	 268981879	 165910.
01:09:50  247 248	 1492477790	 430734784	 161753.
01:09:50  248 249	 1492477790	 596566195	 165831.
01:09:50  249 250	 1492477790	 729713019	 133147.
01:09:50  250 251	 1492477790	 891575478	 161863.
01:09:51  251 252	 1492477791	 57572508	 165996.
01:09:51  252 253	 1492477791	 219451346	 161879.
01:09:51  253 254	 1492477791	 385392217	 165941.
01:09:51  254 255	 1492477791	 547352328	 161960.
01:09:51  255 256	 1492477791	 713184250	 165832.
01:09:51  256 257	 1492477791	 874929770	 161746.
01:09:52  257 258	 1492477792	 12253620	 137323.
01:09:52  258 259	 1492477792	 174091870	 161839.
01:09:52  259 260	 1492477792	 339881832	 165790.
01:09:52  260 261	 1492477792	 501738008	 161856.
01:09:52  261 262	 1492477792	 667793418	 166055.
01:09:52  262 263	 1492477792	 829604803	 161812.
01:09:52  263 264	 1492477792	 995469629	 165865.
01:09:53  264 265	 1492477793	 128645980	 133176.
01:09:53  265 266	 1492477793	 290623321	 161977.
01:09:53  266 267	 1492477793	 456462277	 165839.
01:09:53  267 268	 1492477793	 618196090	 161734.
01:09:53  268 269	 1492477793	 784056323	 165860.
01:09:53  269 270	 1492477793	 945744411	 161688.
01:09:54  270 271	 1492477794	 107585504	 161841.
01:09:54  271 272	 1492477794	 244700098	 137115.
01:09:54  272 273	 1492477794	 410401205	 165701.
01:09:54  273 274	 1492477794	 572160156	 161759.
01:09:54  274 275	 1492477794	 733989536	 161829.
01:09:54  275 276	 1492477794	 899833105	 165844.
01:09:55  276 277	 1492477795	 61617126	 161784.
01:09:55  277 278	 1492477795	 198691550	 137074.
01:09:55  278 279	 1492477795	 360500964	 161810.
01:09:55  279 280	 1492477795	 526542070	 166041.
01:09:55  280 281	 1492477795	 688358725	 161817.
01:09:55  281 282	 1492477795	 851795197	 163436.
01:09:56  282 283	 1492477796	 5479370	 153684.
01:09:56  283 284	 1492477796	 171490341	 166011.
01:09:56  284 285	 1492477796	 333224342	 161734.
01:09:56  285 286	 1492477796	 499090366	 165866.
01:09:56  286 287	 1492477796	 657142452	 158052.
01:09:56  287 288	 1492477796	 823066531	 165924.
01:09:56  288 289	 1492477796	 956149256	 133083.
01:09:57  289 290	 1492477797	 121978005	 165829.
01:09:57  290 291	 1492477797	 283800015	 161822.
01:09:57  291 292	 1492477797	 445591458	 161791.
01:09:57  292 293	 1492477797	 611381325	 165790.
01:09:57  293 294	 1492477797	 773056331	 161675.
01:09:57  294 295	 1492477797	 910226928	 137171.
01:09:58  295 296	 1492477798	 71941445	 161714.
01:09:58  296 297	 1492477798	 237861300	 165920.
01:09:58  297 298	 1492477798	 403665664	 165804.
01:09:58  298 299	 1492477798	 565690489	 162025.
01:09:58  299 300	 1492477798	 727485631	 161795.
01:09:58  300 301	 1492477798	 893204536	 165719.
01:09:59  301 302	 1492477799	 26224341	 133020.
01:09:59  302 303	 1492477799	 192098822	 165875.
01:09:59  303 304	 1492477799	 353813873	 161715.
01:09:59  304 305	 1492477799	 519604784	 165791.
01:09:59  305 306	 1492477799	 681265734	 161661.
01:09:59  306 307	 1492477799	 847058448	 165792.
01:09:59  307 308	 1492477799	 980080949	 133023.
01:10:00  308 309	 1492477800	 141880166	 161799.
01:10:00  309 310	 1492477800	 307816121	 165936.
01:10:00  310 311	 1492477800	 469632497	 161816.
01:10:00  311 312	 1492477800	 635505556	 165873.
01:10:00  312 313	 1492477800	 797306755	 161802.
01:10:00  313 314	 1492477800	 963202032	 165895.
01:10:01  314 315	 1492477801	 96563741	 133362.
01:10:01  315 316	 1492477801	 262480195	 165916.
01:10:01  316 317	 1492477801	 424414257	 161934.
01:10:01  317 318	 1492477801	 582927434	 158513.
01:10:01  318 319	 1492477801	 748966492	 166039.
01:10:01  319 320	 1492477801	 910810633	 161844.
01:10:02  320 321	 1492477802	 76755611	 165945.
01:10:02  321 322	 1492477802	 238860638	 162105.
01:10:02  322 323	 1492477802	 400764031	 161904.
01:10:02  323 324	 1492477802	 563050268	 162286.
01:10:02  324 325	 1492477802	 700326445	 137276.
01:10:02  325 326	 1492477802	 862225708	 161899.
01:10:03  326 327	 1492477803	 28307488	 166082.
01:10:03  327 328	 1492477803	 190297301	 161990.
01:10:03  328 329	 1492477803	 356179521	 165882.
01:10:03  329 330	 1492477803	 518069692	 161890.
01:10:03  330 331	 1492477803	 684024292	 165955.
01:10:03  331 332	 1492477803	 817241152	 133217.
01:10:03  332 333	 1492477803	 979693360	 162452.
01:10:04  333 334	 1492477804	 141739537	 162046.
01:10:04  334 335	 1492477804	 303659993	 161921.
01:10:04  335 336	 1492477804	 469578622	 165918.
01:10:04  336 337	 1492477804	 631483221	 161905.
01:10:04  337 338	 1492477804	 797463236	 165980.
01:10:04  338 339	 1492477804	 959336328	 161873.
01:10:05  339 340	 1492477805	 92568259	 133232.
01:10:05  340 341	 1492477805	 258616167	 166048.
01:10:05  341 342	 1492477805	 420478046	 161862.
01:10:05  342 343	 1492477805	 586505378	 166027.
01:10:05  343 344	 1492477805	 748329798	 161825.
01:10:05  344 345	 1492477805	 914445435	 166115.
01:10:06  345 346	 1492477806	 76357763	 161913.
01:10:06  346 347	 1492477806	 238272910	 161915.
01:10:06  347 348	 1492477806	 375647849	 137375.
01:10:06  348 349	 1492477806	 537659625	 162011.
01:10:06  349 350	 1492477806	 703491055	 165832.
01:10:06  350 351	 1492477806	 865226030	 161735.
01:10:07  351 352	 1492477807	 31199136	 165973.
01:10:07  352 353	 1492477807	 193401975	 162203.
01:10:07  353 354	 1492477807	 359292835	 165891.
01:10:07  354 355	 1492477807	 521226923	 161934.
01:10:07  355 356	 1492477807	 654474333	 133247.
01:10:07  356 357	 1492477807	 820420120	 165946.
01:10:07  357 358	 1492477807	 982247045	 161827.
01:10:08  358 359	 1492477808	 148233575	 165986.
01:10:08  359 360	 1492477808	 310058217	 161825.
01:10:08  360 361	 1492477808	 475866459	 165808.
01:10:08  361 362	 1492477808	 641930708	 166064.
01:10:08  362 363	 1492477808	 803835473	 161905.
01:10:08  363 364	 1492477808	 937039718	 133205.
01:10:09  364 365	 1492477809	 102912496	 165872.
01:10:09  365 366	 1492477809	 264810074	 161898.
01:10:09  366 367	 1492477809	 426660298	 161850.
01:10:09  367 368	 1492477809	 592476402	 165816.
01:10:09  368 369	 1492477809	 758202439	 165726.
01:10:09  369 370	 1492477809	 891468319	 133266.
01:10:10  370 371	 1492477810	 57509823	 166042.
01:10:10  371 372	 1492477810	 223670600	 166160.
01:10:10  372 373	 1492477810	 385729965	 162060.
01:10:10  373 374	 1492477810	 551814897	 166085.
01:10:10  374 375	 1492477810	 713777956	 161963.
01:10:10  375 376	 1492477810	 879966109	 166188.
01:10:11  376 377	 1492477811	 13203672	 133237.
01:10:11  377 378	 1492477811	 179303743	 166101.
01:10:11  378 379	 1492477811	 345347167	 166043.
01:10:11  379 380	 1492477811	 507265189	 161918.
01:10:11  380 381	 1492477811	 673423704	 166158.
01:10:11  381 382	 1492477811	 835370809	 161948.
01:10:11  382 383	 1492477811	 997457688	 162087.
01:10:12  383 384	 1492477812	 134807250	 137349.
01:10:12  384 385	 1492477812	 296518863	 161712.
01:10:12  385 386	 1492477812	 462482562	 165963.
01:10:12  386 387	 1492477812	 624448534	 161966.
01:10:12  387 388	 1492477812	 790597892	 166150.
01:10:12  388 389	 1492477812	 938453151	 147855.
01:10:13  389 390	 1492477813	 100354667	 161901.
01:10:13  390 391	 1492477813	 266163450	 165809.
01:10:13  391 392	 1492477813	 428049886	 161887.
01:10:13  392 393	 1492477813	 594228478	 166178.
01:10:13  393 394	 1492477813	 756113923	 161886.
01:10:13  394 395	 1492477813	 893281252	 137167.
01:10:14  395 396	 1492477814	 55129133	 161848.
01:10:14  396 397	 1492477814	 221115584	 165986.
01:10:14  397 398	 1492477814	 383040978	 161926.
01:10:14  398 399	 1492477814	 544989079	 161948.
01:10:14  399 400	 1492477814	 710946122	 165957.
01:10:14  400 401	 1492477814	 872820967	 161875.
01:10:15  401 402	 1492477815	 10081225	 137260.
01:10:15  402 403	 1492477815	 171939689	 161858.
01:10:15  403 404	 1492477815	 337781374	 165842.
01:10:15  404 405	 1492477815	 499561068	 161780.
01:10:15  405 406	 1492477815	 665704256	 166143.
01:10:15  406 407	 1492477815	 827774086	 162070.
01:10:15  407 408	 1492477815	 993671557	 165897.
01:10:16  408 409	 1492477816	 155635567	 161964.
01:10:16  409 410	 1492477816	 293146530	 137511.
01:10:16  410 411	 1492477816	 454916307	 161770.
01:10:16  411 412	 1492477816	 620899474	 165983.
01:10:16  412 413	 1492477816	 782873582	 161974.
01:10:16  413 414	 1492477816	 948793106	 165920.
01:10:17  414 415	 1492477817	 110592796	 161800.
01:10:17  415 416	 1492477817	 276608272	 166015.
01:10:17  416 417	 1492477817	 409652873	 133045.
01:10:17  417 418	 1492477817	 575648490	 165995.
01:10:17  418 419	 1492477817	 737583156	 161935.
01:10:17  419 420	 1492477817	 899353698	 161770.
01:10:18  420 421	 1492477818	 65287105	 165934.
01:10:18  421 422	 1492477818	 227077082	 161790.
01:10:18  422 423	 1492477818	 392947989	 165871.
01:10:18  423 424	 1492477818	 526107369	 133159.
01:10:18  424 425	 1492477818	 691784413	 165677.
01:10:18  425 426	 1492477818	 853562157	 161778.
01:10:19  426 427	 1492477819	 19259045	 165697.
01:10:19  427 428	 1492477819	 180949975	 161691.
01:10:19  428 429	 1492477819	 342744583	 161795.
01:10:19  429 430	 1492477819	 508711376	 165966.
01:10:19  430 431	 1492477819	 641822610	 133111.
01:10:19  431 432	 1492477819	 807626866	 165805.
01:10:19  432 433	 1492477819	 969557716	 161931.
01:10:20  433 434	 1492477820	 131762894	 162205.
01:10:20  434 435	 1492477820	 293578959	 161816.
01:10:20  435 436	 1492477820	 459458952	 165880.
01:10:20  436 437	 1492477820	 621018609	 161560.
01:10:20  437 438	 1492477820	 786998812	 165980.
01:10:20  438 439	 1492477820	 920147525	 133148.
01:10:21  439 440	 1492477821	 86048821	 165902.
01:10:21  440 441	 1492477821	 247852588	 161803.
01:10:21  441 442	 1492477821	 409795551	 161943.
01:10:21  442 443	 1492477821	 575752384	 165957.
01:10:21  443 444	 1492477821	 737601522	 161849.
01:10:21  444 445	 1492477821	 903435794	 165835.
01:10:22  445 446	 1492477822	 61736689	 158301.
01:10:22  446 447	 1492477822	 198923830	 137187.
01:10:22  447 448	 1492477822	 360834765	 161911.
01:10:22  448 449	 1492477822	 526768234	 165933.
01:10:22  449 450	 1492477822	 684812007	 158044.
01:10:22  450 451	 1492477822	 850675508	 165863.
01:10:23  451 452	 1492477823	 12610973	 161936.
01:10:23  452 453	 1492477823	 178647163	 166036.
01:10:23  453 454	 1492477823	 340521766	 161875.
01:10:23  454 455	 1492477823	 477696259	 137174.
01:10:23  455 456	 1492477823	 639500251	 161804.
01:10:23  456 457	 1492477823	 805518404	 166018.
01:10:23  457 458	 1492477823	 967526469	 162008.
01:10:24  458 459	 1492477824	 133667689	 166142.
01:10:24  459 460	 1492477824	 295605126	 161937.
01:10:24  460 461	 1492477824	 457404188	 161799.
01:10:24  461 462	 1492477824	 623291417	 165887.
01:10:24  462 463	 1492477824	 756300656	 133009.
01:10:24  463 464	 1492477824	 922230705	 165931.
01:10:25  464 465	 1492477825	 84313949	 162083.
01:10:25  465 466	 1492477825	 246552903	 162239.
01:10:25  466 467	 1492477825	 408773766	 162221.
01:10:25  467 468	 1492477825	 574658797	 165885.
01:10:25  468 469	 1492477825	 736632617	 161974.
01:10:25  469 470	 1492477825	 902578929	 165946.
01:10:26  470 471	 1492477826	 35934380	 133355.
01:10:26  471 472	 1492477826	 197867569	 161933.
01:10:26  472 473	 1492477826	 363793209	 165926.
01:10:26  473 474	 1492477826	 529950195	 166157.
01:10:26  474 475	 1492477826	 691904935	 161955.
01:10:26  475 476	 1492477826	 857780369	 165875.
01:10:27  476 477	 1492477827	 15953062	 158173.
01:10:27  477 478	 1492477827	 181927926	 165975.
01:10:27  478 479	 1492477827	 315143306	 133215.
01:10:27  479 480	 1492477827	 481066999	 165924.
01:10:27  480 481	 1492477827	 643055720	 161988.
01:10:27  481 482	 1492477827	 809092418	 166037.
01:10:27  482 483	 1492477827	 971005131	 161913.
01:10:28  483 484	 1492477828	 136946029	 165941.
01:10:28  484 485	 1492477828	 298803381	 161857.
01:10:28  485 486	 1492477828	 464749317	 165946.
01:10:28  486 487	 1492477828	 597920026	 133171.
01:10:28  487 488	 1492477828	 763786228	 165866.
01:10:28  488 489	 1492477828	 925689911	 161904.
01:10:29  489 490	 1492477829	 91601318	 165911.
01:10:29  490 491	 1492477829	 253553127	 161952.
01:10:29  491 492	 1492477829	 419544657	 165991.
01:10:29  492 493	 1492477829	 556867513	 137323.
01:10:29  493 494	 1492477829	 718815849	 161949.
01:10:29  494 495	 1492477829	 877399928	 158584.
01:10:30  495 496	 1492477830	 43275916	 165876.
01:10:30  496 497	 1492477830	 209116288	 165840.
01:10:30  497 498	 1492477830	 371000138	 161884.
01:10:30  498 499	 1492477830	 536989914	 165990.
01:10:30  499 500	 1492477830	 698881490	 161892.
01:10:30  500 501	 1492477830	 864862934	 165984.
01:10:30  501 502	 1492477830	 997931239	 133065.
01:10:31  502 503	 1492477831	 163825634	 165894.
01:10:31  503 504	 1492477831	 325743499	 161918.
01:10:31  504 505	 1492477831	 491790255	 166047.
01:10:31  505 506	 1492477831	 653801201	 162011.
01:10:31  506 507	 1492477831	 819744906	 165944.
01:10:31  507 508	 1492477831	 952908286	 133163.
01:10:32  508 509	 1492477832	 118923346	 166015.
01:10:32  509 510	 1492477832	 280848564	 161925.
01:10:32  510 511	 1492477832	 446722681	 165874.
01:10:32  511 512	 1492477832	 608711731	 161990.
01:10:32  512 513	 1492477832	 774615047	 165903.
01:10:32  513 514	 1492477832	 940619704	 166004.
01:10:33  514 515	 1492477833	 73841423	 133222.
01:10:33  515 516	 1492477833	 235699150	 161858.
01:10:33  516 517	 1492477833	 401675524	 165976.
01:10:33  517 518	 1492477833	 567577181	 165902.
01:10:33  518 519	 1492477833	 729549066	 161972.
01:10:33  519 520	 1492477833	 895482875	 165934.
01:10:34  520 521	 1492477834	 28684696	 133201.
01:10:34  521 522	 1492477834	 194697619	 166014.
01:10:34  522 523	 1492477834	 356658535	 161960.
01:10:34  523 524	 1492477834	 518729617	 162071.
01:10:34  524 525	 1492477834	 684759636	 166030.
01:10:34  525 526	 1492477834	 850722551	 165963.
01:10:35  526 527	 1492477835	 12775226	 162053.
01:10:35  527 528	 1492477835	 174950442	 162175.
01:10:35  528 529	 1492477835	 312081306	 137131.
01:10:35  529 530	 1492477835	 473998440	 161917.
01:10:35  530 531	 1492477835	 639895134	 165897.
01:10:35  531 532	 1492477835	 805909683	 166014.
01:10:35  532 533	 1492477835	 967851651	 161942.
01:10:36  533 534	 1492477836	 129892881	 162042.
01:10:36  534 535	 1492477836	 295833436	 165940.
01:10:36  535 536	 1492477836	 433049793	 137217.
01:10:36  536 537	 1492477836	 594963047	 161913.
01:10:36  537 538	 1492477836	 760912055	 165949.
01:10:36  538 539	 1492477836	 922695112	 161783.
01:10:37  539 540	 1492477837	 88599026	 165904.
01:10:37  540 541	 1492477837	 254421563	 165822.
01:10:37  541 542	 1492477837	 387524696	 133103.
01:10:37  542 543	 1492477837	 549846673	 162322.
01:10:37  543 544	 1492477837	 715867948	 166022.
01:10:37  544 545	 1492477837	 877695994	 161828.
01:10:38  545 546	 1492477838	 39490549	 161794.
01:10:38  546 547	 1492477838	 205492802	 166003.
01:10:38  547 548	 1492477838	 371497179	 166004.
01:10:38  548 549	 1492477838	 533511326	 162014.
01:10:38  549 550	 1492477838	 666666466	 133156.
01:10:38  550 551	 1492477838	 832592639	 165925.
01:10:38  551 552	 1492477838	 994450879	 161859.
01:10:39  552 553	 1492477839	 160267744	 165817.
01:10:39  553 554	 1492477839	 322234255	 161966.
01:10:39  554 555	 1492477839	 488153295	 165919.
01:10:39  555 556	 1492477839	 650089570	 161936.
01:10:39  556 557	 1492477839	 787277946	 137189.
01:10:39  557 558	 1492477839	 949220068	 161942.
01:10:40  558 559	 1492477840	 115221585	 166001.
01:10:40  559 560	 1492477840	 277035402	 161814.
01:10:40  560 561	 1492477840	 439113665	 162078.
01:10:40  561 562	 1492477840	 605205550	 166092.
01:10:40  562 563	 1492477840	 767191745	 161987.
01:10:40  563 564	 1492477840	 933216690	 166024.
01:10:41  564 565	 1492477841	 66533521	 133317.
01:10:41  565 566	 1492477841	 232525287	 165992.
01:10:41  566 567	 1492477841	 394310439	 161785.
01:10:41  567 568	 1492477841	 560335574	 166025.
01:10:41  568 569	 1492477841	 722154044	 161819.
01:10:41  569 570	 1492477841	 888045030	 165891.
01:10:42  570 571	 1492477842	 50185930	 162141.
01:10:42  571 572	 1492477842	 208885026	 158699.
01:10:42  572 573	 1492477842	 370715784	 161831.
01:10:42  573 574	 1492477842	 536663210	 165947.
01:10:42  574 575	 1492477842	 669806792	 133144.
01:10:42  575 576	 1492477842	 831609044	 161802.
01:10:42  576 577	 1492477842	 997519033	 165910.
01:10:43  577 578	 1492477843	 159450556	 161931.
01:10:43  578 579	 1492477843	 325504628	 166054.
01:10:43  579 580	 1492477843	 487241862	 161738.
01:10:43  580 581	 1492477843	 653131845	 165890.
01:10:43  581 582	 1492477843	 786248212	 133116.
01:10:43  582 583	 1492477843	 952316579	 166068.
01:10:44  583 584	 1492477844	 114155245	 161839.
01:10:44  584 585	 1492477844	 279937212	 165782.
01:10:44  585 586	 1492477844	 441878014	 161941.
01:10:44  586 587	 1492477844	 607830467	 165952.
01:10:44  587 588	 1492477844	 769753444	 161923.
01:10:44  588 589	 1492477844	 902975113	 133222.
01:10:45  589 590	 1492477845	 69009081	 166034.
01:10:45  590 591	 1492477845	 234987250	 165978.
01:10:45  591 592	 1492477845	 396695354	 161708.
01:10:45  592 593	 1492477845	 562473083	 165778.
01:10:45  593 594	 1492477845	 724309836	 161837.
01:10:45  594 595	 1492477845	 890328832	 166019.
01:10:46  595 596	 1492477846	 23542130	 133213.
01:10:46  596 597	 1492477846	 185526199	 161984.
01:10:46  597 598	 1492477846	 351330180	 165804.
01:10:46  598 599	 1492477846	 513296006	 161966.
01:10:46  599 600	 1492477846	 679062094	 165766.
01:10:46  600 601	 1492477846	 841741941	 162680.
01:10:46  601 602	 1492477846	 999575382	 157833.
01:10:47  602 603	 1492477847	 165374117	 165799.
01:10:47  603 604	 1492477847	 327190294	 161816.
01:10:47  604 605	 1492477847	 464362011	 137172.
01:10:47  605 606	 1492477847	 626200323	 161838.
01:10:47  606 607	 1492477847	 792181634	 165981.
01:10:47  607 608	 1492477847	 953940120	 161759.
01:10:48  608 609	 1492477848	 115890202	 161950.
01:10:48  609 610	 1492477848	 281795259	 165905.
01:10:48  610 611	 1492477848	 447703662	 165908.
01:10:48  611 612	 1492477848	 609995000	 162292.
01:10:48  612 613	 1492477848	 743150927	 133156.
01:10:48  613 614	 1492477848	 905021064	 161870.
01:10:49  614 615	 1492477849	 67259324	 162238.
01:10:49  615 616	 1492477849	 233204015	 165945.
01:10:49  616 617	 1492477849	 395182614	 161978.
01:10:49  617 618	 1492477849	 561084511	 165902.
01:10:49  618 619	 1492477849	 723041982	 161958.
01:10:49  619 620	 1492477849	 884813799	 161772.
01:10:50  620 621	 1492477850	 22107532	 137293.
01:10:50  621 622	 1492477850	 183951920	 161845.
01:10:50  622 623	 1492477850	 349823615	 165871.
01:10:50  623 624	 1492477850	 515868245	 166045.
01:10:50  624 625	 1492477850	 677714016	 161846.
01:10:50  625 626	 1492477850	 843640399	 165926.
01:10:51  626 627	 1492477851	 5339854	 161700.
01:10:51  627 628	 1492477851	 138470067	 133130.
01:10:51  628 629	 1492477851	 304477436	 166007.
01:10:51  629 630	 1492477851	 466340573	 161863.
01:10:51  630 631	 1492477851	 632304318	 165964.
01:10:51  631 632	 1492477851	 794175623	 161871.
01:10:51  632 633	 1492477851	 960149937	 165975.
01:10:52  633 634	 1492477852	 122103675	 161953.
01:10:52  634 635	 1492477852	 255332542	 133229.
01:10:52  635 636	 1492477852	 421257569	 165925.
01:10:52  636 637	 1492477852	 583134646	 161877.
01:10:52  637 638	 1492477852	 748963064	 165829.
01:10:52  638 639	 1492477852	 944225038	 195262.
01:10:53  639 640	 1492477853	 110237831	 166013.
01:10:53  640 641	 1492477853	 272032915	 161795.
01:10:53  641 642	 1492477853	 438878283	 166845.
01:10:53  642 643	 1492477853	 600757354	 161879.
01:10:53  643 644	 1492477853	 768441769	 167685.
01:10:53  644 645	 1492477853	 930284085	 161842.
01:10:54  645 646	 1492477854	 96365173	 166081.
01:10:54  646 647	 1492477854	 258326823	 161962.
01:10:54  647 648	 1492477854	 424350781	 166024.
01:10:54  648 649	 1492477854	 586431211	 162080.
01:10:54  649 650	 1492477854	 723698008	 137267.
01:10:54  650 651	 1492477854	 915855618	 192157.
01:10:55  651 652	 1492477855	 81780850	 165926.
01:10:55  652 653	 1492477855	 245083277	 163302.
01:10:55  653 654	 1492477855	 411054285	 165971.
01:10:55  654 655	 1492477855	 544291028	 133237.
01:10:55  655 656	 1492477855	 710323861	 166033.
01:10:55  656 657	 1492477855	 872372903	 162049.
01:10:56  657 658	 1492477856	 38327440	 165954.
01:10:56  658 659	 1492477856	 200139486	 161812.
01:10:56  659 660	 1492477856	 366149248	 166010.
01:10:56  660 661	 1492477856	 528283099	 162134.
01:10:56  661 662	 1492477856	 690145526	 161862.
01:10:56  662 663	 1492477856	 827330136	 137185.
01:10:56  663 664	 1492477856	 989094247	 161764.
01:10:57  664 665	 1492477857	 154907852	 165814.
01:10:57  665 666	 1492477857	 316653882	 161746.
01:10:57  666 667	 1492477857	 478442572	 161788.
01:10:57  667 668	 1492477857	 644621919	 166180.
01:10:57  668 669	 1492477857	 806514765	 161893.
01:10:57  669 670	 1492477857	 939581729	 133067.
01:10:58  670 671	 1492477858	 105555334	 165973.
01:10:58  671 672	 1492477858	 267403287	 161848.
01:10:58  672 673	 1492477858	 433509017	 166106.
01:10:58  673 674	 1492477858	 595703261	 162194.
01:10:58  674 675	 1492477858	 761684903	 165982.
01:10:58  675 676	 1492477858	 923541498	 161856.
01:10:59  676 677	 1492477859	 89320576	 165779.
01:10:59  677 678	 1492477859	 222496379	 133176.
01:10:59  678 679	 1492477859	 384302449	 161806.
01:10:59  679 680	 1492477859	 550413771	 166112.
01:10:59  680 681	 1492477859	 712520122	 162106.
01:10:59  681 682	 1492477859	 878713752	 166194.
01:11:00  682 683	 1492477860	 40628949	 161915.
01:11:00  683 684	 1492477860	 206569214	 165940.
01:11:00  684 685	 1492477860	 368408039	 161839.
01:11:00  685 686	 1492477860	 505662473	 137254.
01:11:00  686 687	 1492477860	 667366872	 161705.
01:11:00  687 688	 1492477860	 829031807	 161665.
01:11:00  688 689	 1492477860	 994951323	 165919.
01:11:01  689 690	 1492477861	 156892437	 161941.
01:11:01  690 691	 1492477861	 322908106	 166016.
01:11:01  691 692	 1492477861	 456113720	 133206.
01:11:01  692 693	 1492477861	 622049372	 165935.
01:11:01  693 694	 1492477861	 783956758	 161908.
01:11:01  694 695	 1492477861	 946158580	 162201.
01:11:02  695 696	 1492477862	 111985686	 165827.
01:11:02  696 697	 1492477862	 273866915	 161882.
01:11:02  697 698	 1492477862	 436155881	 162289.
01:11:02  698 699	 1492477862	 598088847	 161933.
01:11:02  699 700	 1492477862	 735336758	 137247.
01:11:02  700 701	 1492477862	 897184571	 161848.
01:11:03  701 702	 1492477863	 63032212	 165848.
01:11:03  702 703	 1492477863	 224910716	 161879.
01:11:03  703 704	 1492477863	 386867555	 161956.
01:11:03  704 705	 1492477863	 549329211	 162462.
01:11:03  705 706	 1492477863	 711454392	 162125.
01:11:03  706 707	 1492477863	 878298399	 166844.
01:11:04  707 708	 1492477864	 36049546	 157751.
01:11:04  708 709	 1492477864	 173294340	 137245.
01:11:04  709 710	 1492477864	 334964479	 161670.
01:11:04  710 711	 1492477864	 500792719	 165828.
01:11:04  711 712	 1492477864	 662920508	 162128.
01:11:04  712 713	 1492477864	 824818167	 161898.
01:11:04  713 714	 1492477864	 990708931	 165891.
01:11:05  714 715	 1492477865	 152815480	 162106.
01:11:05  715 716	 1492477865	 318676522	 165861.
01:11:05  716 717	 1492477865	 451770086	 133094.
01:11:05  717 718	 1492477865	 617607106	 165837.
01:11:05  718 719	 1492477865	 779501648	 161894.
01:11:05  719 720	 1492477865	 945568127	 166067.
01:11:06  720 721	 1492477866	 107256307	 161688.
01:11:06  721 722	 1492477866	 273196533	 165940.
01:11:06  722 723	 1492477866	 406418736	 133223.
01:11:06  723 724	 1492477866	 572302217	 165883.
01:11:06  724 725	 1492477866	 734085957	 161784.
01:11:06  725 726	 1492477866	 899976666	 165890.
01:11:07  726 727	 1492477867	 65730866	 165755.
01:11:07  727 728	 1492477867	 227776158	 162045.
01:11:07  728 729	 1492477867	 364884464	 137108.
01:11:07  729 730	 1492477867	 526656222	 161772.
01:11:07  730 731	 1492477867	 692462588	 165806.
01:11:07  731 732	 1492477867	 854323872	 161862.
01:11:08  732 733	 1492477868	 16117920	 161794.
01:11:08  733 734	 1492477868	 181987102	 165869.
01:11:08  734 735	 1492477868	 347866202	 165879.
01:11:08  735 736	 1492477868	 481057986	 133192.
01:11:08  736 737	 1492477868	 642957379	 161899.
01:11:08  737 738	 1492477868	 804981738	 162025.
01:11:08  738 739	 1492477868	 970912277	 165930.
01:11:09  739 740	 1492477869	 132985186	 162073.
01:11:09  740 741	 1492477869	 299013377	 166028.
01:11:09  741 742	 1492477869	 465200980	 166188.
01:11:09  742 743	 1492477869	 598551238	 133350.
01:11:09  743 744	 1492477869	 764605663	 166054.
01:11:09  744 745	 1492477869	 926709275	 162104.
01:11:10  745 746	 1492477870	 92588112	 165879.
01:11:10  746 747	 1492477870	 254409955	 161822.
01:11:10  747 748	 1492477870	 420395605	 165985.
01:11:10  748 749	 1492477870	 582543890	 162149.
01:11:10  749 750	 1492477870	 715641312	 133097.
01:11:10  750 751	 1492477870	 881591923	 165951.
01:11:11  751 752	 1492477871	 43513690	 161921.
01:11:11  752 753	 1492477871	 209463033	 165950.
01:11:11  753 754	 1492477871	 371183562	 161720.
01:11:11  754 755	 1492477871	 537285991	 166103.
01:11:11  755 756	 1492477871	 699481383	 162195.
01:11:11  756 757	 1492477871	 861417281	 161936.
01:11:11  757 758	 1492477871	 998495206	 137078.
01:11:12  758 759	 1492477872	 160424240	 161929.
01:11:12  759 760	 1492477872	 326477984	 166054.
01:11:12  760 761	 1492477872	 488497978	 162020.
01:11:12  761 762	 1492477872	 654325220	 165827.
01:11:12  762 763	 1492477872	 816090137	 161765.
01:11:12  763 764	 1492477872	 953287908	 137198.
01:11:13  764 765	 1492477873	 115215061	 161927.
01:11:13  765 766	 1492477873	 281169530	 165954.
01:11:13  766 767	 1492477873	 443071137	 161902.
01:11:13  767 768	 1492477873	 609021752	 165951.
01:11:13  768 769	 1492477873	 774833756	 165812.
01:11:13  769 770	 1492477873	 936644155	 161810.
01:11:14  770 771	 1492477874	 69731038	 133087.
01:11:14  771 772	 1492477874	 261037598	 191306.
01:11:14  772 773	 1492477874	 394096738	 133060.
01:11:14  773 774	 1492477874	 555842116	 161745.
01:11:14  774 775	 1492477874	 721787562	 165945.
01:11:14  775 776	 1492477874	 887605189	 165818.
01:11:15  776 777	 1492477875	 49438225	 161833.
01:11:15  777 778	 1492477875	 211210071	 161772.
01:11:15  778 779	 1492477875	 348310052	 137100.
01:11:15  779 780	 1492477875	 510108798	 161799.
01:11:15  780 781	 1492477875	 676039096	 165930.
01:11:15  781 782	 1492477875	 837874373	 161835.
01:11:16  782 783	 1492477876	 3775413	 165901.
01:11:16  783 784	 1492477876	 165538194	 161763.
01:11:16  784 785	 1492477876	 331346451	 165808.
01:11:16  785 786	 1492477876	 493230116	 161884.
01:11:16  786 787	 1492477876	 626374212	 133144.
01:11:16  787 788	 1492477876	 792121458	 165747.
01:11:16  788 789	 1492477876	 957933201	 165812.
01:11:17  789 790	 1492477877	 116104878	 158172.
01:11:17  790 791	 1492477877	 278017870	 161913.
01:11:17  791 792	 1492477877	 443438633	 165420.
01:11:17  792 793	 1492477877	 605166096	 161728.
01:11:17  793 794	 1492477877	 742341521	 137175.
01:11:17  794 795	 1492477877	 904045286	 161704.
01:11:18  795 796	 1492477878	 69807987	 165763.
01:11:18  796 797	 1492477878	 231638271	 161830.
01:11:18  797 798	 1492477878	 393402879	 161765.
01:11:18  798 799	 1492477878	 559305636	 165903.
01:11:18  799 800	 1492477878	 720960918	 161655.
01:11:18  800 801	 1492477878	 854042200	 133081.
01:11:19  801 802	 1492477879	 19766186	 165724.
01:11:19  802 803	 1492477879	 181536825	 161771.
01:11:19  803 804	 1492477879	 347378315	 165841.
01:11:19  804 805	 1492477879	 509142116	 161764.
01:11:19  805 806	 1492477879	 674864072	 165722.
01:11:19  806 807	 1492477879	 836984935	 162121.
01:11:19  807 808	 1492477879	 970170323	 133185.
01:11:20  808 809	 1492477880	 135918658	 165748.
01:11:20  809 810	 1492477880	 297670682	 161752.
01:11:20  810 811	 1492477880	 463397187	 165727.
01:11:20  811 812	 1492477880	 625189504	 161793.
01:11:20  812 813	 1492477880	 791166973	 165977.
01:11:20  813 814	 1492477880	 924190830	 133024.
01:11:21  814 815	 1492477881	 86003261	 161812.
01:11:21  815 816	 1492477881	 251862977	 165860.
01:11:21  816 817	 1492477881	 413607221	 161744.
01:11:21  817 818	 1492477881	 579312685	 165705.
01:11:21  818 819	 1492477881	 741172603	 161860.
01:11:21  819 820	 1492477881	 907057412	 165885.
01:11:22  820 821	 1492477882	 40071897	 133015.
01:11:22  821 822	 1492477882	 201956540	 161884.
01:11:22  822 823	 1492477882	 367755071	 165799.
01:11:22  823 824	 1492477882	 529802307	 162047.
01:11:22  824 825	 1492477882	 691572914	 161771.
01:11:22  825 826	 1492477882	 853770430	 162197.
01:11:23  826 827	 1492477883	 19807252	 166037.
01:11:23  827 828	 1492477883	 181614330	 161807.
01:11:23  828 829	 1492477883	 314756317	 133142.
01:11:23  829 830	 1492477883	 476862740	 162106.
01:11:23  830 831	 1492477883	 642795923	 165934.
01:11:23  831 832	 1492477883	 804738613	 161942.
01:11:23  832 833	 1492477883	 970402968	 165665.
01:11:24  833 834	 1492477884	 132322437	 161919.
01:11:24  834 835	 1492477884	 298196302	 165874.
01:11:24  835 836	 1492477884	 460410850	 162215.
01:11:24  836 837	 1492477884	 593502302	 133091.
01:11:24  837 838	 1492477884	 759387298	 165885.
01:11:24  838 839	 1492477884	 925299007	 165912.
01:11:25  839 840	 1492477885	 87134530	 161835.
01:11:25  840 841	 1492477885	 253000698	 165867.
01:11:25  841 842	 1492477885	 414898799	 161898.
01:11:25  842 843	 1492477885	 576768655	 161869.
01:11:25  843 844	 1492477885	 713835048	 137067.
01:11:25  844 845	 1492477885	 875617327	 161782.
01:11:26  845 846	 1492477886	 41483867	 165867.
01:11:26  846 847	 1492477886	 203298970	 161815.
01:11:26  847 848	 1492477886	 369116716	 165817.
01:11:26  848 849	 1492477886	 531177381	 162061.
01:11:26  849 850	 1492477886	 697115681	 165938.
01:11:26  850 851	 1492477886	 830071466	 132956.
01:11:26  851 852	 1492477886	 995836990	 165766.
01:11:27  852 853	 1492477887	 157581126	 161744.
01:11:27  853 854	 1492477887	 319442734	 161861.
01:11:27  854 855	 1492477887	 485346371	 165904.
01:11:27  855 856	 1492477887	 651284975	 165939.
01:11:27  856 857	 1492477887	 784438396	 133153.
01:11:27  857 858	 1492477887	 946315262	 161877.
01:11:28  858 859	 1492477888	 112287425	 165972.
01:11:28  859 860	 1492477888	 274224636	 161937.
01:11:28  860 861	 1492477888	 440097796	 165874.
01:11:28  861 862	 1492477888	 605894699	 165796.
01:11:28  862 863	 1492477888	 767784553	 161890.
01:11:28  863 864	 1492477888	 900949788	 133166.
01:11:29  864 865	 1492477889	 66843247	 165893.
01:11:29  865 866	 1492477889	 228797535	 161954.
01:11:29  866 867	 1492477889	 394659553	 165862.
01:11:29  867 868	 1492477889	 556518796	 161860.
01:11:29  868 869	 1492477889	 722438759	 165920.
01:11:29  869 870	 1492477889	 884375749	 161937.
01:11:30  870 871	 1492477890	 21414742	 137039.
01:11:30  871 872	 1492477890	 183199678	 161784.
01:11:30  872 873	 1492477890	 348954789	 165756.
01:11:30  873 874	 1492477890	 510745555	 161790.
01:11:30  874 875	 1492477890	 676652690	 165907.
01:11:30  875 876	 1492477890	 838451549	 161799.
01:11:31  876 877	 1492477891	 4392685	 165942.
01:11:31  877 878	 1492477891	 137791480	 133398.
01:11:31  878 879	 1492477891	 303950117	 166159.
01:11:31  879 880	 1492477891	 465913509	 161963.
01:11:31  880 881	 1492477891	 631913804	 166001.
01:11:31  881 882	 1492477891	 797768082	 165854.
01:11:31  882 883	 1492477891	 955750950	 157983.
01:11:32  883 884	 1492477892	 121701951	 165951.
01:11:32  884 885	 1492477892	 283438063	 161736.
01:11:32  885 886	 1492477892	 420761452	 137323.
01:11:32  886 887	 1492477892	 582647166	 161886.
01:11:32  887 888	 1492477892	 748638814	 165992.
01:11:32  888 889	 1492477892	 910648968	 162010.
01:11:33  889 890	 1492477893	 76694736	 166046.
01:11:33  890 891	 1492477893	 238652525	 161957.
01:11:33  891 892	 1492477893	 404515163	 165863.
01:11:33  892 893	 1492477893	 566415099	 161900.
01:11:33  893 894	 1492477893	 703673618	 137258.
01:11:33  894 895	 1492477893	 865564856	 161892.
01:11:34  895 896	 1492477894	 27886751	 162322.
01:11:34  896 897	 1492477894	 189607180	 161720.
01:11:34  897 898	 1492477894	 351483687	 161876.
01:11:34  898 899	 1492477894	 517386876	 165904.
01:11:34  899 900	 1492477894	 679485394	 162098.
01:11:34  900 901	 1492477894	 845359186	 165874.
01:11:34  901 902	 1492477894	 978596731	 133238.
01:11:35  902 903	 1492477895	 144548593	 165951.
01:11:35  903 904	 1492477895	 306457319	 161909.
01:11:35  904 905	 1492477895	 472417481	 165960.
01:11:35  905 906	 1492477895	 634392257	 161975.
01:11:35  906 907	 1492477895	 796897099	 162505.
01:11:35  907 908	 1492477895	 958693147	 161796.
01:11:36  908 909	 1492477896	 124628970	 165936.
01:11:36  909 910	 1492477896	 286358403	 161729.
01:11:36  910 911	 1492477896	 423589375	 137231.
01:11:36  911 912	 1492477896	 585540357	 161951.
01:11:36  912 913	 1492477896	 752407120	 166867.
01:11:36  913 914	 1492477896	 906240330	 153833.
01:11:37  914 915	 1492477897	 72204246	 165964.
01:11:37  915 916	 1492477897	 234209096	 162005.
01:11:37  916 917	 1492477897	 400127123	 165918.
01:11:37  917 918	 1492477897	 562180041	 162053.
01:11:37  918 919	 1492477897	 728155088	 165975.
01:11:37  919 920	 1492477897	 890246949	 162092.
01:11:38  920 921	 1492477898	 27536209	 137289.
01:11:38  921 922	 1492477898	 189180343	 161644.
01:11:38  922 923	 1492477898	 351036548	 161856.
01:11:38  923 924	 1492477898	 516948772	 165913.
01:11:38  924 925	 1492477898	 682814181	 165865.
01:11:38  925 926	 1492477898	 844535539	 161721.
01:11:39  926 927	 1492477899	 10501387	 165966.
01:11:39  927 928	 1492477899	 143711507	 133210.
01:11:39  928 929	 1492477899	 305571985	 161861.
01:11:39  929 930	 1492477899	 471594731	 166023.
01:11:39  930 931	 1492477899	 633450112	 161855.
01:11:39  931 932	 1492477899	 799481515	 166031.
01:11:39  932 933	 1492477899	 961375571	 161894.
01:11:40  933 934	 1492477900	 127198631	 165823.
01:11:40  934 935	 1492477900	 260229218	 133031.
01:11:40  935 936	 1492477900	 426094684	 165865.
01:11:40  936 937	 1492477900	 587936060	 161842.
01:11:40  937 938	 1492477900	 753959663	 166023.
01:11:40  938 939	 1492477900	 915846094	 161887.
01:11:41  939 940	 1492477901	 81913232	 166067.
01:11:41  940 941	 1492477901	 243742909	 161830.
01:11:41  941 942	 1492477901	 409632555	 165889.
01:11:41  942 943	 1492477901	 542869069	 133237.
01:11:41  943 944	 1492477901	 708792946	 165924.
01:11:41  944 945	 1492477901	 870640344	 161847.
01:11:42  945 946	 1492477902	 36480674	 165840.
01:11:42  946 947	 1492477902	 198399735	 161920.
01:11:42  947 948	 1492477902	 364255121	 165855.
01:11:42  948 949	 1492477902	 526131908	 161877.
01:11:42  949 950	 1492477902	 659329970	 133198.
01:11:42  950 951	 1492477902	 825181294	 165851.
01:11:42  951 952	 1492477902	 986985780	 161805.
01:11:43  952 953	 1492477903	 153055822	 166070.
01:11:43  953 954	 1492477903	 314901122	 161845.
01:11:43  954 955	 1492477903	 480858746	 165958.
01:11:43  955 956	 1492477903	 642738176	 161879.
01:11:43  956 957	 1492477903	 775850310	 133112.
01:11:43  957 958	 1492477903	 941694698	 165844.
01:11:44  958 959	 1492477904	 103611927	 161918.
01:11:44  959 960	 1492477904	 269528285	 165916.
01:11:44  960 961	 1492477904	 431385520	 161857.
01:11:44  961 962	 1492477904	 597283033	 165898.
01:11:44  962 963	 1492477904	 759112748	 161830.
01:11:44  963 964	 1492477904	 896526805	 137414.
01:11:45  964 965	 1492477905	 58391277	 161864.
01:11:45  965 966	 1492477905	 224458503	 166067.
01:11:45  966 967	 1492477905	 386354292	 161896.
01:11:45  967 968	 1492477905	 548240816	 161887.
01:11:45  968 969	 1492477905	 714247950	 166007.
01:11:45  969 970	 1492477905	 876132188	 161884.
01:11:46  970 971	 1492477906	 42204409	 166072.
01:11:46  971 972	 1492477906	 175478079	 133274.
01:11:46  972 973	 1492477906	 337314253	 161836.
01:11:46  973 974	 1492477906	 503436265	 166122.
01:11:46  974 975	 1492477906	 665311282	 161875.
01:11:46  975 976	 1492477906	 831129602	 165818.
01:11:46  976 977	 1492477906	 993000517	 161871.
01:11:47  977 978	 1492477907	 158907408	 165907.
01:11:47  978 979	 1492477907	 320915149	 162008.
01:11:47  979 980	 1492477907	 454027191	 133112.
01:11:47  980 981	 1492477907	 619950532	 165923.
01:11:47  981 982	 1492477907	 781691981	 161742.
01:11:47  982 983	 1492477907	 947569913	 165878.
01:11:48  983 984	 1492477908	 109709973	 162140.
01:11:48  984 985	 1492477908	 275836921	 166127.
01:11:48  985 986	 1492477908	 437657393	 161820.
01:11:48  986 987	 1492477908	 603752113	 166095.
01:11:48  987 988	 1492477908	 736996607	 133244.
01:11:48  988 989	 1492477908	 898902741	 161907.
01:11:49  989 990	 1492477909	 64862469	 165959.
01:11:49  990 991	 1492477909	 230562358	 165700.
01:11:49  991 992	 1492477909	 392417887	 161856.
01:11:49  992 993	 1492477909	 554240171	 161822.
01:11:49  993 994	 1492477909	 720112163	 165872.
01:11:49  994 995	 1492477909	 857312229	 137200.
01:11:50  995 996	 1492477910	 19091547	 161779.
01:11:50  996 997	 1492477910	 184972127	 165881.
01:11:50  997 998	 1492477910	 346773091	 161801.
01:11:50  998 999	 1492477910	 508716945	 161944.
01:11:50  999 1000	 1492477910	 674667626	 165950.
01:11:50 1000 1001	 1492477910	 836816816	 162150.
01:11:50 1001 1002	 1492477910	 970052730	 133236.
01:11:51 1002 1003	 1492477911	 135786747	 165734.
01:11:51 1003 1004	 1492477911	 297653901	 161867.
01:11:51 1004 1005	 1492477911	 463517149	 165863.
01:11:51 1005 1006	 1492477911	 625327318	 161810.
01:11:51 1006 1007	 1492477911	 791198139	 165871.
01:11:51 1007 1008	 1492477911	 953064473	 161867.
01:11:52 1008 1009	 1492477912	 86243888	 133179.
01:11:52 1009 1010	 1492477912	 252037682	 165793.
01:11:52 1010 1011	 1492477912	 413858378	 161821.
01:11:52 1011 1012	 1492477912	 579774300	 165916.
01:11:52 1012 1013	 1492477912	 741577740	 161804.
01:11:52 1013 1014	 1492477912	 907400843	 165823.
01:11:53 1014 1015	 1492477913	 40469803	 133069.
01:11:53 1015 1016	 1492477913	 206203154	 165733.
01:11:53 1016 1017	 1492477913	 368176434	 161973.
01:11:53 1017 1018	 1492477913	 534053462	 165877.
01:11:53 1018 1019	 1492477913	 696652264	 162599.
01:11:53 1019 1020	 1492477913	 854332913	 157681.
01:11:54 1020 1021	 1492477914	 20270801	 165938.
01:11:54 1021 1022	 1492477914	 182201407	 161930.
01:11:54 1022 1023	 1492477914	 348095719	 165894.
01:11:54 1023 1024	 1492477914	 481248174	 133153.
01:11:54 1024 1025	 1492477914	 647314691	 166066.
01:11:54 1025 1026	 1492477914	 813216717	 165903.
01:11:54 1026 1027	 1492477914	 975069225	 161852.
01:11:55 1027 1028	 1492477915	 141001151	 165932.
01:11:55 1028 1029	 1492477915	 302849280	 161848.
01:11:55 1029 1030	 1492477915	 464701584	 161852.
01:11:55 1030 1031	 1492477915	 602009520	 137308.
01:11:55 1031 1032	 1492477915	 763830462	 161821.
01:11:55 1032 1033	 1492477915	 929930145	 166100.
01:11:56 1033 1034	 1492477916	 91828537	 161898.
01:11:56 1034 1035	 1492477916	 257792837	 165965.
01:11:56 1035 1036	 1492477916	 419740756	 161948.
01:11:56 1036 1037	 1492477916	 581856193	 162115.
01:11:56 1037 1038	 1492477916	 747873282	 166017.
01:11:56 1038 1039	 1492477916	 880965408	 133092.
01:11:57 1039 1040	 1492477917	 47205054	 166240.
01:11:57 1040 1041	 1492477917	 208902464	 161697.
01:11:57 1041 1042	 1492477917	 374752854	 165851.
01:11:57 1042 1043	 1492477917	 536721474	 161968.
01:11:57 1043 1044	 1492477917	 702579717	 165859.
01:11:57 1044 1045	 1492477917	 864339659	 161759.
01:11:57 1045 1046	 1492477918	 1527500	 137188.
01:11:58 1046 1047	 1492477918	 163430825	 161904.
01:11:58 1047 1048	 1492477918	 329297229	 165866.
01:11:58 1048 1049	 1492477918	 491163908	 161867.
01:11:58 1049 1050	 1492477918	 652954076	 161790.
01:11:58 1050 1051	 1492477918	 818778541	 165824.
01:11:58 1051 1052	 1492477918	 980731008	 161953.
01:11:59 1052 1053	 1492477919	 118039501	 137308.
01:11:59 1053 1054	 1492477919	 279819201	 161780.
01:11:59 1054 1055	 1492477919	 445715954	 165897.
01:11:59 1055 1056	 1492477919	 607579713	 161864.
01:11:59 1056 1057	 1492477919	 773635995	 166056.
01:11:59 1057 1058	 1492477919	 935710041	 162074.
01:12:00 1058 1059	 1492477920	 101869927	 166160.
01:12:00 1059 1060	 1492477920	 267915278	 166045.
01:12:00 1060 1061	 1492477920	 401165161	 133250.
01:12:00 1061 1062	 1492477920	 563060643	 161895.
01:12:00 1062 1063	 1492477920	 728905154	 165845.
01:12:00 1063 1064	 1492477920	 894858440	 165953.
01:12:01 1064 1065	 1492477921	 56910920	 162053.
01:12:01 1065 1066	 1492477921	 219069278	 162158.
01:12:01 1066 1067	 1492477921	 381059926	 161991.
01:12:01 1067 1068	 1492477921	 546948872	 165889.
01:12:01 1068 1069	 1492477921	 680271683	 133323.
01:12:01 1069 1070	 1492477921	 846422944	 166151.
01:12:02 1070 1071	 1492477922	 8355327	 161932.
01:12:02 1071 1072	 1492477922	 174471200	 166116.
01:12:02 1072 1073	 1492477922	 336530468	 162059.
01:12:02 1073 1074	 1492477922	 502588911	 166059.
01:12:02 1074 1075	 1492477922	 664453412	 161864.
01:12:02 1075 1076	 1492477922	 826273678	 161820.
01:12:02 1076 1077	 1492477922	 963396909	 137124.
01:12:03 1077 1078	 1492477923	 125263366	 161866.
01:12:03 1078 1079	 1492477923	 291272395	 166009.
01:12:03 1079 1080	 1492477923	 453354665	 162082.
01:12:03 1080 1081	 1492477923	 619361160	 166007.
01:12:03 1081 1082	 1492477923	 781526219	 162165.
01:12:03 1082 1083	 1492477923	 947596367	 166070.
01:12:04 1083 1084	 1492477924	 109515480	 161919.
01:12:04 1084 1085	 1492477924	 242715679	 133200.
01:12:04 1085 1086	 1492477924	 408686796	 165972.
01:12:04 1086 1087	 1492477924	 574640121	 165953.
01:12:04 1087 1088	 1492477924	 736607487	 161967.
01:12:04 1088 1089	 1492477924	 902594222	 165987.
01:12:05 1089 1090	 1492477925	 71459082	 168865.
01:12:05 1090 1091	 1492477925	 208731556	 137272.
01:12:05 1091 1092	 1492477925	 374673034	 165942.
01:12:05 1092 1093	 1492477925	 536608118	 161935.
01:12:05 1093 1094	 1492477925	 702732971	 166125.
01:12:05 1094 1095	 1492477925	 865196224	 162463.
01:12:06 1095 1096	 1492477926	 27130595	 161934.
01:12:06 1096 1097	 1492477926	 164366132	 137236.
01:12:06 1097 1098	 1492477926	 326250817	 161885.
01:12:06 1098 1099	 1492477926	 492354069	 166103.
01:12:06 1099 1100	 1492477926	 654307714	 161954.
01:12:06 1100 1101	 1492477926	 820334229	 166026.
01:12:06 1101 1102	 1492477926	 982331217	 161997.
01:12:07 1102 1103	 1492477927	 148302662	 165971.
01:12:07 1103 1104	 1492477927	 281473831	 133172.
01:12:07 1104 1105	 1492477927	 447532750	 166059.
01:12:07 1105 1106	 1492477927	 613505451	 165972.
01:12:07 1106 1107	 1492477927	 775342034	 161837.
01:12:07 1107 1108	 1492477927	 941623215	 166281.
01:12:08 1108 1109	 1492477928	 103614403	 161991.
01:12:08 1109 1110	 1492477928	 269850646	 166236.
01:12:08 1110 1111	 1492477928	 431959745	 162110.
01:12:08 1111 1112	 1492477928	 598119057	 166159.
01:12:08 1112 1113	 1492477928	 731316338	 133197.
01:12:08 1113 1114	 1492477928	 897277910	 165962.
01:12:09 1114 1115	 1492477929	 59069208	 161791.
01:12:09 1115 1116	 1492477929	 220828684	 161759.
01:12:09 1116 1117	 1492477929	 386692026	 165864.
01:12:09 1117 1118	 1492477929	 552898186	 166206.
01:12:09 1118 1119	 1492477929	 714754417	 161856.
01:12:09 1119 1120	 1492477929	 852041704	 137287.
01:12:10 1120 1121	 1492477930	 13944002	 161903.
01:12:10 1121 1122	 1492477930	 180082354	 166138.
01:12:10 1122 1123	 1492477930	 342062527	 161980.
01:12:10 1123 1124	 1492477930	 503871347	 161809.
01:12:10 1124 1125	 1492477930	 670492971	 166622.
01:12:10 1125 1126	 1492477930	 828249721	 157756.
01:12:10 1126 1127	 1492477930	 994067401	 165818.
01:12:11 1127 1128	 1492477931	 127127142	 133060.
01:12:11 1128 1129	 1492477931	 292933183	 165806.
01:12:11 1129 1130	 1492477931	 454872942	 161940.
01:12:11 1130 1131	 1492477931	 620860088	 165987.
01:12:11 1131 1132	 1492477931	 787052535	 166192.
01:12:11 1132 1133	 1492477931	 949372175	 162320.
01:12:12 1133 1134	 1492477932	 111327256	 161955.
01:12:12 1134 1135	 1492477932	 277384005	 166057.
01:12:12 1135 1136	 1492477932	 410551418	 133167.
01:12:12 1136 1137	 1492477932	 576713060	 166162.
01:12:12 1137 1138	 1492477932	 734794859	 158082.
01:12:12 1138 1139	 1492477932	 900731725	 165937.
01:12:13 1139 1140	 1492477933	 62603919	 161872.
01:12:13 1140 1141	 1492477933	 228548830	 165945.
01:12:13 1141 1142	 1492477933	 390314373	 161765.
01:12:13 1142 1143	 1492477933	 527506106	 137192.
01:12:13 1143 1144	 1492477933	 689328278	 161822.
01:12:13 1144 1145	 1492477933	 855196533	 165868.
01:12:14 1145 1146	 1492477934	 17248832	 162053.
01:12:14 1146 1147	 1492477934	 183028461	 165779.
01:12:14 1147 1148	 1492477934	 344922647	 161894.
01:12:14 1148 1149	 1492477934	 510764581	 165842.
01:12:14 1149 1150	 1492477934	 643863835	 133100.
01:12:14 1150 1151	 1492477934	 809627926	 165764.
01:12:14 1151 1152	 1492477934	 975491714	 165863.
01:12:15 1152 1153	 1492477935	 137407656	 161916.
01:12:15 1153 1154	 1492477935	 303286459	 165879.
01:12:15 1154 1155	 1492477935	 465211271	 161925.
01:12:15 1155 1156	 1492477935	 627160798	 161950.
01:12:15 1156 1157	 1492477935	 764408394	 137247.
01:12:15 1157 1158	 1492477935	 926261223	 161853.
01:12:16 1158 1159	 1492477936	 92363702	 166102.
01:12:16 1159 1160	 1492477936	 254177635	 161814.
01:12:16 1160 1161	 1492477936	 420108292	 165931.
01:12:16 1161 1162	 1492477936	 582080559	 161972.
01:12:16 1162 1163	 1492477936	 744077843	 161998.
01:12:16 1163 1164	 1492477936	 909934818	 165857.
01:12:17 1164 1165	 1492477937	 43104917	 133170.
01:12:17 1165 1166	 1492477937	 205070149	 161965.
01:12:17 1166 1167	 1492477937	 371078519	 166008.
01:12:17 1167 1168	 1492477937	 532855161	 161777.
01:12:17 1168 1169	 1492477937	 698652509	 165797.
01:12:17 1169 1170	 1492477937	 860441491	 161789.
01:12:18 1170 1171	 1492477938	 26281971	 165841.
01:12:18 1171 1172	 1492477938	 159374106	 133092.
01:12:18 1172 1173	 1492477938	 321052518	 161678.
01:12:18 1173 1174	 1492477938	 486831457	 165779.
01:12:18 1174 1175	 1492477938	 648495450	 161664.
01:12:18 1175 1176	 1492477938	 814280822	 165786.
01:12:18 1176 1177	 1492477938	 947357884	 133077.
01:12:19 1177 1178	 1492477939	 113296947	 165939.
01:12:19 1178 1179	 1492477939	 275216586	 161919.
01:12:19 1179 1180	 1492477939	 441104613	 165888.
01:12:19 1180 1181	 1492477939	 602918845	 161815.
01:12:19 1181 1182	 1492477939	 764861717	 161943.
01:12:19 1182 1183	 1492477939	 926993724	 162131.
01:12:20 1183 1184	 1492477940	 92994146	 166001.
01:12:20 1184 1185	 1492477940	 226122620	 133128.
01:12:20 1185 1186	 1492477940	 392060918	 165939.
01:12:20 1186 1187	 1492477940	 553935079	 161874.
01:12:20 1187 1188	 1492477940	 719755715	 165820.
01:12:20 1188 1189	 1492477940	 881526023	 161771.
01:12:21 1189 1190	 1492477941	 43327801	 161802.
01:12:21 1190 1191	 1492477941	 209441033	 166113.
01:12:21 1191 1192	 1492477941	 342707587	 133266.
01:12:21 1192 1193	 1492477941	 508612808	 165906.
01:12:21 1193 1194	 1492477941	 670457539	 161844.
01:12:21 1194 1195	 1492477941	 836398824	 165942.
01:12:21 1195 1196	 1492477941	 999132342	 162733.
01:12:22 1196 1197	 1492477942	 157345795	 158214.
01:12:22 1197 1198	 1492477942	 319134748	 161789.
01:12:22 1198 1199	 1492477942	 485148388	 166013.
01:12:22 1199 1200	 1492477942	 647085059	 161937.
01:12:22 1200 1201	 1492477942	 809016623	 161931.
01:12:22 1201 1202	 1492477942	 946152759	 137137.
01:12:23 1202 1203	 1492477943	 107861160	 161708.
01:12:23 1203 1204	 1492477943	 273802799	 165942.
01:12:23 1204 1205	 1492477943	 435619596	 161816.
01:12:23 1205 1206	 1492477943	 601540249	 165921.
01:12:23 1206 1207	 1492477943	 763743784	 162204.
01:12:23 1207 1208	 1492477943	 929684832	 165941.
01:12:24 1208 1209	 1492477944	 62802155	 133117.
01:12:24 1209 1210	 1492477944	 224691231	 161889.
01:12:24 1210 1211	 1492477944	 390659089	 165968.
01:12:24 1211 1212	 1492477944	 556699728	 166041.
01:12:24 1212 1213	 1492477944	 718686087	 161986.
01:12:24 1213 1214	 1492477944	 880622842	 161937.
01:12:25 1214 1215	 1492477945	 46555933	 165933.
01:12:25 1215 1216	 1492477945	 208390167	 161834.
01:12:25 1216 1217	 1492477945	 345616876	 137227.
01:12:25 1217 1218	 1492477945	 507646397	 162029.
01:12:25 1218 1219	 1492477945	 669685596	 162039.
01:12:25 1219 1220	 1492477945	 835810024	 166125.
01:12:25 1220 1221	 1492477945	 997527630	 161717.
01:12:26 1221 1222	 1492477946	 163553871	 166027.
01:12:26 1222 1223	 1492477946	 325511873	 161958.
01:12:26 1223 1224	 1492477946	 487671955	 162160.
01:12:26 1224 1225	 1492477946	 625057318	 137385.
01:12:26 1225 1226	 1492477946	 786922216	 161865.
01:12:26 1226 1227	 1492477946	 949194387	 162272.
01:12:27 1227 1228	 1492477947	 111312989	 162119.
01:12:27 1228 1229	 1492477947	 277357570	 166044.
01:12:27 1229 1230	 1492477947	 439181474	 161824.
01:12:27 1230 1231	 1492477947	 605214915	 166034.
01:12:27 1231 1232	 1492477947	 767132754	 161918.
01:12:27 1232 1233	 1492477947	 933136835	 166004.
01:12:28 1233 1234	 1492477948	 66329635	 133192.
01:12:28 1234 1235	 1492477948	 232156028	 165827.
01:12:28 1235 1236	 1492477948	 394064701	 161909.
01:12:28 1236 1237	 1492477948	 560120196	 166055.
01:12:28 1237 1238	 1492477948	 722182108	 162062.
01:12:28 1238 1239	 1492477948	 883983522	 161801.
01:12:29 1239 1240	 1492477949	 46007169	 162024.
01:12:29 1240 1241	 1492477949	 183176909	 137170.
01:12:29 1241 1242	 1492477949	 345105471	 161928.
01:12:29 1242 1243	 1492477949	 511086055	 165981.
01:12:29 1243 1244	 1492477949	 673279895	 162194.
01:12:29 1244 1245	 1492477949	 835315750	 162036.
01:12:29 1245 1246	 1492477950	 1278512	 165962.
01:12:30 1246 1247	 1492477950	 163067600	 161789.
01:12:30 1247 1248	 1492477950	 329098144	 166031.
01:12:30 1248 1249	 1492477950	 491128946	 162031.
01:12:30 1249 1250	 1492477950	 657148695	 166019.
01:12:30 1250 1251	 1492477950	 790452386	 133304.
01:12:30 1251 1252	 1492477950	 952475260	 162023.
01:12:31 1252 1253	 1492477951	 118386582	 165911.
01:12:31 1253 1254	 1492477951	 280271958	 161886.
01:12:31 1254 1255	 1492477951	 446176628	 165904.
01:12:31 1255 1256	 1492477951	 607921599	 161745.
01:12:31 1256 1257	 1492477951	 773984712	 166064.
01:12:31 1257 1258	 1492477951	 907413210	 133428.
01:12:32 1258 1259	 1492477952	 69316619	 161903.
01:12:32 1259 1260	 1492477952	 231325873	 162010.
01:12:32 1260 1261	 1492477952	 415321669	 183995.
01:12:32 1261 1262	 1492477952	 552672269	 137351.
01:12:32 1262 1263	 1492477952	 714702049	 162030.
01:12:32 1263 1264	 1492477952	 880679942	 165978.
01:12:33 1264 1265	 1492477953	 42634612	 161955.
01:12:33 1265 1266	 1492477953	 208542788	 165908.
01:12:33 1266 1267	 1492477953	 370590228	 162047.
01:12:33 1267 1268	 1492477953	 536642574	 166053.
01:12:33 1268 1269	 1492477953	 698904360	 162261.
01:12:33 1269 1270	 1492477953	 860944226	 162040.
01:12:33 1270 1271	 1492477953	 994094089	 133150.
01:12:34 1271 1272	 1492477954	 159975996	 165882.
01:12:34 1272 1273	 1492477954	 321832821	 161857.
01:12:34 1273 1274	 1492477954	 487576246	 165743.
01:12:34 1274 1275	 1492477954	 649551599	 161975.
01:12:34 1275 1276	 1492477954	 815697519	 166146.
01:12:34 1276 1277	 1492477954	 977511067	 161814.
01:12:35 1277 1278	 1492477955	 139403102	 161892.
01:12:35 1278 1279	 1492477955	 276758813	 137356.
01:12:35 1279 1280	 1492477955	 438558653	 161799.
01:12:35 1280 1281	 1492477955	 604468577	 165910.
01:12:35 1281 1282	 1492477955	 766596308	 162128.
01:12:35 1282 1283	 1492477955	 932548151	 165952.
01:12:36 1283 1284	 1492477956	 94355037	 161807.
01:12:36 1284 1285	 1492477956	 256377944	 162023.
01:12:36 1285 1286	 1492477956	 393498320	 137120.
01:12:36 1286 1287	 1492477956	 555741085	 162243.
01:12:36 1287 1288	 1492477956	 721725853	 165985.
01:12:36 1288 1289	 1492477956	 883728548	 162002.
01:12:37 1289 1290	 1492477957	 49560970	 165833.
01:12:37 1290 1291	 1492477957	 211425505	 161865.
01:12:37 1291 1292	 1492477957	 377355249	 165929.
01:12:37 1292 1293	 1492477957	 539391975	 162037.
01:12:37 1293 1294	 1492477957	 701333346	 161941.
01:12:37 1294 1295	 1492477957	 838488751	 137156.
01:12:37 1295 1296	 1492477958	 1200443	 162711.
01:12:38 1296 1297	 1492477958	 158961071	 157761.
01:12:38 1297 1298	 1492477958	 317452714	 158492.
01:12:38 1298 1299	 1492477958	 479270325	 161817.
01:12:38 1299 1300	 1492477958	 645080643	 165811.
01:12:38 1300 1301	 1492477958	 806816268	 161735.
01:12:38 1301 1302	 1492477958	 969030952	 162215.
01:12:39 1302 1303	 1492477959	 135000849	 165970.
01:12:39 1303 1304	 1492477959	 297082103	 162081.
01:12:39 1304 1305	 1492477959	 462866705	 165784.
01:12:39 1305 1306	 1492477959	 595992556	 133127.
01:12:39 1306 1307	 1492477959	 761821217	 165828.
01:12:39 1307 1308	 1492477959	 927783048	 165962.
01:12:40 1308 1309	 1492477960	 89938584	 162155.
01:12:40 1309 1310	 1492477960	 255935943	 165998.
01:12:40 1310 1311	 1492477960	 417617004	 161681.
01:12:40 1311 1312	 1492477960	 583562392	 165945.
01:12:40 1312 1313	 1492477960	 716724948	 133163.
01:12:40 1313 1314	 1492477960	 882729441	 166004.
01:12:41 1314 1315	 1492477961	 44638160	 161909.
01:12:41 1315 1316	 1492477961	 210573137	 165935.
01:12:41 1316 1317	 1492477961	 372410320	 161837.
01:12:41 1317 1318	 1492477961	 538341944	 165932.
01:12:41 1318 1319	 1492477961	 700212530	 161870.
01:12:41 1319 1320	 1492477961	 862533261	 162321.
01:12:41 1320 1321	 1492477961	 995481511	 132948.
01:12:42 1321 1322	 1492477962	 161198000	 165717.
01:12:42 1322 1323	 1492477962	 323056935	 161859.
01:12:42 1323 1324	 1492477962	 488807772	 165751.
01:12:42 1324 1325	 1492477962	 650626810	 161819.
01:12:42 1325 1326	 1492477962	 812450890	 161824.
01:12:42 1326 1327	 1492477962	 978355100	 165904.
01:12:43 1327 1328	 1492477963	 111670777	 133316.
01:12:43 1328 1329	 1492477963	 277558372	 165887.
01:12:43 1329 1330	 1492477963	 439516291	 161958.
01:12:43 1330 1331	 1492477963	 601322588	 161806.
01:12:43 1331 1332	 1492477963	 767277806	 165956.
01:12:43 1332 1333	 1492477963	 929114967	 161837.
01:12:44 1333 1334	 1492477964	 94773109	 165658.
01:12:44 1334 1335	 1492477964	 227979149	 133206.
01:12:44 1335 1336	 1492477964	 394065207	 166086.
01:12:44 1336 1337	 1492477964	 555870116	 161805.
01:12:44 1337 1338	 1492477964	 721788820	 165919.
01:12:44 1338 1339	 1492477964	 887700923	 165912.
01:12:45 1339 1340	 1492477965	 49550603	 161849.
01:12:45 1340 1341	 1492477965	 182636174	 133086.
01:12:45 1341 1342	 1492477965	 348530411	 165894.
01:12:45 1342 1343	 1492477965	 514342647	 165812.
01:12:45 1343 1344	 1492477965	 676193043	 161851.
01:12:45 1344 1345	 1492477965	 841939837	 165747.
01:12:46 1345 1346	 1492477966	 3831717	 161892.
01:12:46 1346 1347	 1492477966	 165654163	 161822.
01:12:46 1347 1348	 1492477966	 302852625	 137198.
01:12:46 1348 1349	 1492477966	 464995376	 162143.
01:12:46 1349 1350	 1492477966	 626880251	 161885.
01:12:46 1350 1351	 1492477966	 792779536	 165899.
01:12:46 1351 1352	 1492477966	 954674693	 161895.
01:12:47 1352 1353	 1492477967	 116566316	 161892.
01:12:47 1353 1354	 1492477967	 282555083	 165989.
01:12:47 1354 1355	 1492477967	 444359075	 161804.
01:12:47 1355 1356	 1492477967	 581490934	 137132.
01:12:47 1356 1357	 1492477967	 743289463	 161798.
01:12:47 1357 1358	 1492477967	 909107404	 165818.
01:12:48 1358 1359	 1492477968	 70863175	 161756.
01:12:48 1359 1360	 1492477968	 236854955	 165992.
01:12:48 1360 1361	 1492477968	 398651196	 161796.
01:12:48 1361 1362	 1492477968	 535755415	 137104.
01:12:48 1362 1363	 1492477968	 697671887	 161917.
01:12:48 1363 1364	 1492477968	 863465683	 165793.
01:12:49 1364 1365	 1492477969	 25309168	 161844.
01:12:49 1365 1366	 1492477969	 191362153	 166053.
01:12:49 1366 1367	 1492477969	 353274816	 161913.
01:12:49 1367 1368	 1492477969	 490441194	 137166.
01:12:49 1368 1369	 1492477969	 652287759	 161847.
01:12:49 1369 1370	 1492477969	 818150317	 165862.
01:12:49 1370 1371	 1492477969	 979987704	 161837.
01:12:50 1371 1372	 1492477970	 141934105	 161947.
01:12:50 1372 1373	 1492477970	 307784130	 165850.
01:12:50 1373 1374	 1492477970	 473674100	 165890.
01:12:50 1374 1375	 1492477970	 606895401	 133221.
01:12:50 1375 1376	 1492477970	 768700282	 161805.
01:12:50 1376 1377	 1492477970	 934436184	 165736.
01:12:51 1377 1378	 1492477971	 100402034	 165966.
01:12:51 1378 1379	 1492477971	 262379490	 161977.
01:12:51 1379 1380	 1492477971	 428245121	 165866.
01:12:51 1380 1381	 1492477971	 561196742	 132951.
01:12:51 1381 1382	 1492477971	 722938368	 161742.
01:12:51 1382 1383	 1492477971	 888942385	 166004.
01:12:52 1383 1384	 1492477972	 51073950	 162132.
01:12:52 1384 1385	 1492477972	 212898391	 161824.
01:12:52 1385 1386	 1492477972	 378733878	 165836.
01:12:52 1386 1387	 1492477972	 540538547	 161804.
01:12:52 1387 1388	 1492477972	 706514839	 165977.
01:12:52 1388 1389	 1492477972	 839650982	 133136.
01:12:53 1389 1390	 1492477973	 5460510	 165809.
01:12:53 1390 1391	 1492477973	 167433718	 161974.
01:12:53 1391 1392	 1492477973	 329429813	 161996.
01:12:53 1392 1393	 1492477973	 495190708	 165761.
01:12:53 1393 1394	 1492477973	 656893935	 161703.
01:12:53 1394 1395	 1492477973	 794008274	 137114.
01:12:53 1395 1396	 1492477973	 955757742	 161750.
01:12:54 1396 1397	 1492477974	 121504270	 165746.
01:12:54 1397 1398	 1492477974	 283319241	 161815.
01:12:54 1398 1399	 1492477974	 449362541	 166043.
01:12:54 1399 1400	 1492477974	 611220996	 161859.
01:12:54 1400 1401	 1492477974	 773183168	 161962.
01:12:54 1401 1402	 1492477974	 939298477	 166115.
01:12:55 1402 1403	 1492477975	 72485963	 133188.
01:12:55 1403 1404	 1492477975	 234390919	 161905.
01:12:55 1404 1405	 1492477975	 400136513	 165745.
01:12:55 1405 1406	 1492477975	 561967079	 161831.
01:12:55 1406 1407	 1492477975	 727715706	 165748.
01:12:55 1407 1408	 1492477975	 893593485	 165878.
01:12:56 1408 1409	 1492477976	 26698915	 133106.
01:12:56 1409 1410	 1492477976	 193095449	 166396.
01:12:56 1410 1411	 1492477976	 350750449	 157655.
01:12:56 1411 1412	 1492477976	 516700097	 165950.
01:12:56 1412 1413	 1492477976	 678436389	 161736.
01:12:56 1413 1414	 1492477976	 844248214	 165812.
01:12:57 1414 1415	 1492477977	 6018409	 161770.
01:12:57 1415 1416	 1492477977	 171979227	 165961.
01:12:57 1416 1417	 1492477977	 301224784	 129246.
01:12:57 1417 1418	 1492477977	 467307898	 166083.
01:12:57 1418 1419	 1492477977	 629065838	 161758.
01:12:57 1419 1420	 1492477977	 794891621	 165825.
01:12:57 1420 1421	 1492477977	 956718923	 161828.
01:12:58 1421 1422	 1492477978	 118516196	 161797.
01:12:58 1422 1423	 1492477978	 284197406	 165681.
01:12:58 1423 1424	 1492477978	 417427389	 133230.
01:12:58 1424 1425	 1492477978	 583403910	 165977.
01:12:58 1425 1426	 1492477978	 745183767	 161780.
01:12:58 1426 1427	 1492477978	 911030508	 165846.
01:12:59 1427 1428	 1492477979	 72801329	 161771.
01:12:59 1428 1429	 1492477979	 238592480	 165791.
01:12:59 1429 1430	 1492477979	 371603210	 133011.
01:12:59 1430 1431	 1492477979	 537381312	 165778.
01:12:59 1431 1432	 1492477979	 699370686	 161989.
01:12:59 1432 1433	 1492477979	 861337897	 161968.
01:13:00 1433 1434	 1492477980	 23408865	 162071.
01:13:00 1434 1435	 1492477980	 189478791	 166070.
01:13:00 1435 1436	 1492477980	 351176935	 161698.
01:13:00 1436 1437	 1492477980	 488239772	 137063.
01:13:00 1437 1438	 1492477980	 650135152	 161895.
01:13:00 1438 1439	 1492477980	 815930073	 165795.
01:13:00 1439 1440	 1492477980	 977677329	 161747.
01:13:01 1440 1441	 1492477981	 143543780	 165866.
01:13:01 1441 1442	 1492477981	 309433153	 165890.
01:13:01 1442 1443	 1492477981	 471406144	 161973.
01:13:01 1443 1444	 1492477981	 604646120	 133240.
01:13:01 1444 1445	 1492477981	 770676524	 166030.
01:13:01 1445 1446	 1492477981	 932847881	 162172.
01:13:02 1446 1447	 1492477982	 98964122	 166116.
01:13:02 1447 1448	 1492477982	 260894308	 161930.
01:13:02 1448 1449	 1492477982	 426787783	 165894.
01:13:02 1449 1450	 1492477982	 588716737	 161929.
01:13:02 1450 1451	 1492477982	 754823256	 166106.
01:13:02 1451 1452	 1492477982	 888008369	 133185.
01:13:03 1452 1453	 1492477983	 54034887	 166027.
01:13:03 1453 1454	 1492477983	 215999005	 161964.
01:13:03 1454 1455	 1492477983	 382001777	 166003.
01:13:03 1455 1456	 1492477983	 543918684	 161916.
01:13:03 1456 1457	 1492477983	 709726523	 165808.
01:13:03 1457 1458	 1492477983	 842842750	 133117.
01:13:04 1458 1459	 1492477984	 4641123	 161798.
01:13:04 1459 1460	 1492477984	 170543614	 165902.
01:13:04 1460 1461	 1492477984	 336465048	 165922.
01:13:04 1461 1462	 1492477984	 498367999	 161903.
01:13:04 1462 1463	 1492477984	 664495535	 166127.
01:13:04 1463 1464	 1492477984	 826599594	 162105.
01:13:04 1464 1465	 1492477984	 963907534	 137307.
01:13:05 1465 1466	 1492477985	 125950820	 162044.
01:13:05 1466 1467	 1492477985	 292038732	 166088.
01:13:05 1467 1468	 1492477985	 450312886	 158274.
01:13:05 1468 1469	 1492477985	 616233037	 165920.
01:13:05 1469 1470	 1492477985	 778077325	 161844.
01:13:05 1470 1471	 1492477985	 933562403	 155485.
01:13:06 1471 1472	 1492477986	 95474166	 161912.
01:13:06 1472 1473	 1492477986	 261518579	 166045.
01:13:06 1473 1474	 1492477986	 423553760	 162035.
01:13:06 1474 1475	 1492477986	 585450230	 161896.
01:13:06 1475 1476	 1492477986	 722606391	 137156.
01:13:06 1476 1477	 1492477986	 884459022	 161853.
01:13:07 1477 1478	 1492477987	 46620553	 162161.
01:13:07 1478 1479	 1492477987	 212780526	 166160.
01:13:07 1479 1480	 1492477987	 378764474	 165984.
01:13:07 1480 1481	 1492477987	 540887467	 162123.
01:13:07 1481 1482	 1492477987	 706880200	 165993.
01:13:07 1482 1483	 1492477987	 840266606	 133386.
01:13:07 1483 1484	 1492477988	 2484836	 162219.
01:13:08 1484 1485	 1492477988	 164468070	 161983.
01:13:08 1485 1486	 1492477988	 330526430	 166058.
01:13:08 1486 1487	 1492477988	 492324779	 161799.
01:13:08 1487 1488	 1492477988	 658556968	 166232.
01:13:08 1488 1489	 1492477988	 820592116	 162035.
01:13:08 1489 1490	 1492477988	 986514611	 165922.
01:13:09 1490 1491	 1492477989	 119908236	 133394.
01:13:09 1491 1492	 1492477989	 285912444	 166004.
01:13:09 1492 1493	 1492477989	 447775210	 161863.
01:13:09 1493 1494	 1492477989	 613836146	 166061.
01:13:09 1494 1495	 1492477989	 775895001	 162059.
01:13:09 1495 1496	 1492477989	 938038397	 162143.
01:13:10 1496 1497	 1492477990	 104255498	 166217.
01:13:10 1497 1498	 1492477990	 266518246	 162263.
01:13:10 1498 1499	 1492477990	 399718782	 133201.
01:13:10 1499 1500	 1492477990	 565789931	 166071.
01:13:10 1500 1501	 1492477990	 727977559	 162187.
01:13:10 1501 1502	 1492477990	 893975124	 165998.
01:13:11 1502 1503	 1492477991	 58328809	 164354.
01:13:11 1503 1504	 1492477991	 207996785	 149668.
01:13:11 1504 1505	 1492477991	 369796631	 161799.
01:13:11 1505 1506	 1492477991	 535711724	 165916.
01:13:11 1506 1507	 1492477991	 697591613	 161879.
01:13:11 1507 1508	 1492477991	 859538813	 161948.
01:13:12 1508 1509	 1492477992	 25653817	 166115.
01:13:12 1509 1510	 1492477992	 162878877	 137225.
01:13:12 1510 1511	 1492477992	 324961916	 162083.
01:13:12 1511 1512	 1492477992	 490950431	 165988.
01:13:12 1512 1513	 1492477992	 652960911	 162011.
01:13:12 1513 1514	 1492477992	 818990822	 166030.
01:13:12 1514 1515	 1492477992	 980873610	 161882.
01:13:13 1515 1516	 1492477993	 118117349	 137244.
01:13:13 1516 1517	 1492477993	 280271337	 162154.
01:13:13 1517 1518	 1492477993	 442158122	 161887.
01:13:13 1518 1519	 1492477993	 604288853	 162131.
01:13:13 1519 1520	 1492477993	 770145611	 165856.
01:13:13 1520 1521	 1492477993	 932238164	 162093.
01:13:14 1521 1522	 1492477994	 98198881	 165961.
01:13:14 1522 1523	 1492477994	 231325885	 133127.
01:13:14 1523 1524	 1492477994	 393181231	 161855.
01:13:14 1524 1525	 1492477994	 559494499	 166313.
01:13:14 1525 1526	 1492477994	 721571161	 162077.
01:13:14 1526 1527	 1492477994	 883508512	 161937.
01:13:15 1527 1528	 1492477995	 49384967	 165877.
01:13:15 1528 1529	 1492477995	 211279181	 161894.
01:13:15 1529 1530	 1492477995	 377086573	 165807.
01:13:15 1530 1531	 1492477995	 510254590	 133168.
01:13:15 1531 1532	 1492477995	 672076317	 161822.
01:13:15 1532 1533	 1492477995	 838037660	 165961.
01:13:15 1533 1534	 1492477995	 999704910	 161668.
01:13:16 1534 1535	 1492477996	 161503118	 161798.
01:13:16 1535 1536	 1492477996	 327416332	 165913.
01:13:16 1536 1537	 1492477996	 489307595	 161891.
01:13:16 1537 1538	 1492477996	 652186496	 162879.
01:13:16 1538 1539	 1492477996	 810016403	 157830.
01:13:16 1539 1540	 1492477996	 947299188	 137283.
01:13:17 1540 1541	 1492477997	 109440775	 162142.
01:13:17 1541 1542	 1492477997	 271273000	 161832.
01:13:17 1542 1543	 1492477997	 437108910	 165836.
01:13:17 1543 1544	 1492477997	 598982416	 161873.
01:13:17 1544 1545	 1492477997	 764981590	 165999.
01:13:17 1545 1546	 1492477997	 926873968	 161893.
01:13:18 1546 1547	 1492477998	 85519292	 158645.
01:13:18 1547 1548	 1492477998	 251287231	 165768.
01:13:18 1548 1549	 1492477998	 384417236	 133130.
01:13:18 1549 1550	 1492477998	 550478678	 166061.
01:13:18 1550 1551	 1492477998	 712347638	 161869.
01:13:18 1551 1552	 1492477998	 874046485	 161699.
01:13:19 1552 1553	 1492477999	 39862231	 165816.
01:13:19 1553 1554	 1492477999	 201670220	 161808.
01:13:19 1554 1555	 1492477999	 363631857	 161962.
01:13:19 1555 1556	 1492477999	 500786049	 137154.
01:13:19 1556 1557	 1492477999	 662502394	 161716.
01:13:19 1557 1558	 1492477999	 828499094	 165997.
01:13:19 1558 1559	 1492477999	 990388743	 161890.
01:13:20 1559 1560	 1492478000	 156398570	 166009.
01:13:20 1560 1561	 1492478000	 318242593	 161844.
01:13:20 1561 1562	 1492478000	 484163387	 165921.
01:13:20 1562 1563	 1492478000	 646127456	 161964.
01:13:20 1563 1564	 1492478000	 779209973	 133083.
01:13:20 1564 1565	 1492478000	 941222197	 162012.
01:13:21 1565 1566	 1492478001	 107046171	 165824.
01:13:21 1566 1567	 1492478001	 268953384	 161907.
01:13:21 1567 1568	 1492478001	 431049375	 162096.
01:13:21 1568 1569	 1492478001	 596805835	 165757.
01:13:21 1569 1570	 1492478001	 758722416	 161916.
01:13:21 1570 1571	 1492478001	 895911855	 137190.
01:13:22 1571 1572	 1492478002	 57801234	 161889.
01:13:22 1572 1573	 1492478002	 223738425	 165937.
01:13:22 1573 1574	 1492478002	 385613870	 161876.
01:13:22 1574 1575	 1492478002	 551414190	 165800.
01:13:22 1575 1576	 1492478002	 713070115	 161656.
01:13:22 1576 1577	 1492478002	 879054029	 165984.
01:13:23 1577 1578	 1492478003	 12194165	 133140.
01:13:23 1578 1579	 1492478003	 174147812	 161954.
01:13:23 1579 1580	 1492478003	 340152829	 166005.
01:13:23 1580 1581	 1492478003	 502010921	 161858.
01:13:23 1581 1582	 1492478003	 667885879	 165875.
01:13:23 1582 1583	 1492478003	 833747634	 165861.
01:13:23 1583 1584	 1492478003	 995578953	 161832.
01:13:24 1584 1585	 1492478004	 128939874	 133361.
01:13:24 1585 1586	 1492478004	 294773772	 165834.
01:13:24 1586 1587	 1492478004	 456462990	 161689.
01:13:24 1587 1588	 1492478004	 618404071	 161941.
01:13:24 1588 1589	 1492478004	 784237024	 165833.
01:13:24 1589 1590	 1492478004	 945919192	 161682.
01:13:25 1590 1591	 1492478005	 111784508	 165866.
01:13:25 1591 1592	 1492478005	 244944025	 133159.
01:13:25 1592 1593	 1492478005	 410842874	 165899.
01:13:25 1593 1594	 1492478005	 572659643	 161816.
01:13:25 1594 1595	 1492478005	 738371376	 165712.
01:13:25 1595 1596	 1492478005	 900079950	 161709.
01:13:26 1596 1597	 1492478006	 66000191	 165920.
01:13:26 1597 1598	 1492478006	 198972307	 132972.
01:13:26 1598 1599	 1492478006	 364973972	 166002.
01:13:26 1599 1600	 1492478006	 526802837	 161829.
01:13:26 1600 1601	 1492478006	 688611064	 161808.
01:13:26 1601 1602	 1492478006	 851004299	 162393.
01:13:27 1602 1603	 1492478007	 12819277	 161815.
01:13:27 1603 1604	 1492478007	 178662430	 165843.
01:13:27 1604 1605	 1492478007	 340520544	 161858.
01:13:27 1605 1606	 1492478007	 502270905	 161751.
01:13:27 1606 1607	 1492478007	 639518046	 137247.
01:13:27 1607 1608	 1492478007	 801368422	 161850.
01:13:27 1608 1609	 1492478007	 967796294	 166428.
01:13:28 1609 1610	 1492478008	 125434174	 157638.
01:13:28 1610 1611	 1492478008	 291194177	 165760.
01:13:28 1611 1612	 1492478008	 453007503	 161813.
01:13:28 1612 1613	 1492478008	 611194205	 158187.
01:13:28 1613 1614	 1492478008	 773090874	 161897.
01:13:28 1614 1615	 1492478008	 935419123	 162328.
01:13:29 1615 1616	 1492478009	 101294753	 165876.
01:13:29 1616 1617	 1492478009	 230595814	 129301.
01:13:29 1617 1618	 1492478009	 396584263	 165988.
01:13:29 1618 1619	 1492478009	 558430054	 161846.
01:13:29 1619 1620	 1492478009	 720763912	 162334.
01:13:29 1620 1621	 1492478009	 882546952	 161783.
01:13:30 1621 1622	 1492478010	 48349825	 165803.
01:13:30 1622 1623	 1492478010	 210176414	 161826.
01:13:30 1623 1624	 1492478010	 376099142	 165923.
01:13:30 1624 1625	 1492478010	 509184243	 133085.
01:13:30 1625 1626	 1492478010	 674975160	 165791.
01:13:30 1626 1627	 1492478010	 836758726	 161784.
01:13:30 1627 1628	 1492478010	 998708726	 161950.
01:13:31 1628 1629	 1492478011	 164469306	 165760.
01:13:31 1629 1630	 1492478011	 326203625	 161734.
01:13:31 1630 1631	 1492478011	 492172298	 165969.
01:13:31 1631 1632	 1492478011	 625290176	 133118.
01:13:31 1632 1633	 1492478011	 791108639	 165818.
01:13:31 1633 1634	 1492478011	 952833474	 161725.
01:13:32 1634 1635	 1492478012	 118833799	 166001.
01:13:32 1635 1636	 1492478012	 280584508	 161750.
01:13:32 1636 1637	 1492478012	 442235591	 161651.
01:13:32 1637 1638	 1492478012	 608087533	 165852.
01:13:32 1638 1639	 1492478012	 741123429	 133036.
01:13:32 1639 1640	 1492478012	 907112755	 165990.
01:13:33 1640 1641	 1492478013	 69215841	 162103.
01:13:33 1641 1642	 1492478013	 235032592	 165816.
01:13:33 1642 1643	 1492478013	 396848156	 161816.
01:13:33 1643 1644	 1492478013	 562731961	 165884.
01:13:33 1644 1645	 1492478013	 724495913	 161764.
01:13:33 1645 1646	 1492478013	 861666710	 137171.
01:13:34 1646 1647	 1492478014	 23389730	 161723.
01:13:34 1647 1648	 1492478014	 185061851	 161672.
01:13:34 1648 1649	 1492478014	 350825890	 165764.
01:13:34 1649 1650	 1492478014	 512566896	 161741.
01:13:34 1650 1651	 1492478014	 678412318	 165845.
01:13:34 1651 1652	 1492478014	 840139098	 161727.
01:13:34 1652 1653	 1492478014	 977429964	 137291.
01:13:35 1653 1654	 1492478015	 139232774	 161803.
01:13:35 1654 1655	 1492478015	 305030060	 165797.
01:13:35 1655 1656	 1492478015	 466939561	 161909.
01:13:35 1656 1657	 1492478015	 632814124	 165875.
01:13:35 1657 1658	 1492478015	 794591258	 161777.
01:13:35 1658 1659	 1492478015	 960378835	 165788.
01:13:36 1659 1660	 1492478016	 93696654	 133317.
01:13:36 1660 1661	 1492478016	 255365885	 161670.
01:13:36 1661 1662	 1492478016	 421304849	 165939.
01:13:36 1662 1663	 1492478016	 583063115	 161758.
01:13:36 1663 1664	 1492478016	 749034695	 165971.
01:13:36 1664 1665	 1492478016	 910756426	 161722.
01:13:37 1665 1666	 1492478017	 76696783	 165941.
01:13:37 1666 1667	 1492478017	 209774716	 133077.
01:13:37 1667 1668	 1492478017	 375610927	 165837.
01:13:37 1668 1669	 1492478017	 537669869	 162059.
01:13:37 1669 1670	 1492478017	 699380348	 161710.
01:13:37 1670 1671	 1492478017	 865271112	 165891.
01:13:38 1671 1672	 1492478018	 31051130	 165780.
01:13:38 1672 1673	 1492478018	 192788823	 161738.
01:13:38 1673 1674	 1492478018	 354562066	 161773.
01:13:38 1674 1675	 1492478018	 491746710	 137185.
01:13:38 1675 1676	 1492478018	 653619420	 161872.
01:13:38 1676 1677	 1492478018	 819399886	 165781.
01:13:38 1677 1678	 1492478018	 981207454	 161807.
01:13:39 1678 1679	 1492478019	 147283893	 166077.
01:13:39 1679 1680	 1492478019	 309175443	 161891.
01:13:39 1680 1681	 1492478019	 474958900	 165784.
01:13:39 1681 1682	 1492478019	 608063718	 133104.
01:13:39 1682 1683	 1492478019	 769915311	 161852.
01:13:39 1683 1684	 1492478019	 935766192	 165851.
01:13:40 1684 1685	 1492478020	 97568251	 161802.
01:13:40 1685 1686	 1492478020	 263415971	 165848.
01:13:40 1686 1687	 1492478020	 425248099	 161832.
01:13:40 1687 1688	 1492478020	 562364871	 137117.
01:13:40 1688 1689	 1492478020	 724138555	 161773.
01:13:40 1689 1690	 1492478020	 889973094	 165835.
01:13:41 1690 1691	 1492478021	 51770817	 161798.
01:13:41 1691 1692	 1492478021	 213661767	 161891.
01:13:41 1692 1693	 1492478021	 379456450	 165794.
01:13:41 1693 1694	 1492478021	 541246881	 161791.
01:13:41 1694 1695	 1492478021	 678367676	 137120.
01:13:41 1695 1696	 1492478021	 840185468	 161818.
01:13:42 1696 1697	 1492478022	 6091873	 165907.
01:13:42 1697 1698	 1492478022	 167957355	 161865.
01:13:42 1698 1699	 1492478022	 333671813	 165715.
01:13:42 1699 1700	 1492478022	 495517099	 161845.
01:13:42 1700 1701	 1492478022	 657551972	 162036.
01:13:42 1701 1702	 1492478022	 794655927	 137103.
01:13:42 1702 1703	 1492478022	 956642570	 161986.
01:13:43 1703 1704	 1492478023	 122384965	 165743.
01:13:43 1704 1705	 1492478023	 284109669	 161724.
01:13:43 1705 1706	 1492478023	 450059103	 165950.
01:13:43 1706 1707	 1492478023	 611961893	 161903.
01:13:43 1707 1708	 1492478023	 777813674	 165851.
01:13:43 1708 1709	 1492478023	 939588431	 161775.
01:13:44 1709 1710	 1492478024	 76726278	 137138.
01:13:44 1710 1711	 1492478024	 238553477	 161827.
01:13:44 1711 1712	 1492478024	 397310142	 158757.
01:13:44 1712 1713	 1492478024	 559121489	 161811.
01:13:44 1713 1714	 1492478024	 724988376	 165867.
01:13:44 1714 1715	 1492478024	 886802568	 161814.
01:13:45 1715 1716	 1492478025	 52851322	 166049.
01:13:45 1716 1717	 1492478025	 214737529	 161886.
01:13:45 1717 1718	 1492478025	 351904597	 137167.
01:13:45 1718 1719	 1492478025	 513656654	 161752.
01:13:45 1719 1720	 1492478025	 679842649	 166186.
01:13:45 1720 1721	 1492478025	 841542383	 161700.
01:13:46 1721 1722	 1492478026	 7424168	 165882.
01:13:46 1722 1723	 1492478026	 169505741	 162082.
01:13:46 1723 1724	 1492478026	 335340327	 165834.
01:13:46 1724 1725	 1492478026	 497319798	 161980.
01:13:46 1725 1726	 1492478026	 630560735	 133241.
01:13:46 1726 1727	 1492478026	 796462845	 165902.
01:13:46 1727 1728	 1492478026	 958759153	 162296.
01:13:47 1728 1729	 1492478027	 120743255	 161984.
01:13:47 1729 1730	 1492478027	 286823026	 166080.
01:13:47 1730 1731	 1492478027	 448712245	 161889.
01:13:47 1731 1732	 1492478027	 614646721	 165935.
01:13:47 1732 1733	 1492478027	 776495786	 161849.
01:13:47 1733 1734	 1492478027	 913604734	 137108.
01:13:48 1734 1735	 1492478028	 75375535	 161771.
01:13:48 1735 1736	 1492478028	 237105823	 161731.
01:13:48 1736 1737	 1492478028	 403104440	 165998.
01:13:48 1737 1738	 1492478028	 564935197	 161831.
01:13:48 1738 1739	 1492478028	 731020859	 166086.
01:13:48 1739 1740	 1492478028	 864153582	 133132.
01:13:49 1740 1741	 1492478029	 30224577	 166071.
01:13:49 1741 1742	 1492478029	 191982363	 161758.
01:13:49 1742 1743	 1492478029	 357824544	 165842.
01:13:49 1743 1744	 1492478029	 520475233	 162651.
01:13:49 1744 1745	 1492478029	 678140340	 157665.
01:13:49 1745 1746	 1492478029	 840477275	 162337.
01:13:50 1746 1747	 1492478030	 6372095	 165895.
01:13:50 1747 1748	 1492478030	 168279746	 161908.
01:13:50 1748 1749	 1492478030	 301439406	 133159.
01:13:50 1749 1750	 1492478030	 467480439	 166041.
01:13:50 1750 1751	 1492478030	 629338620	 161858.
01:13:50 1751 1752	 1492478030	 795385403	 166047.
01:13:50 1752 1753	 1492478030	 957202616	 161817.
01:13:51 1753 1754	 1492478031	 123078190	 165876.
01:13:51 1754 1755	 1492478031	 284914707	 161837.
01:13:51 1755 1756	 1492478031	 422250712	 137335.
01:13:51 1756 1757	 1492478031	 584049913	 161800.
01:13:51 1757 1758	 1492478031	 745989000	 161939.
01:13:51 1758 1759	 1492478031	 911853409	 165864.
01:13:52 1759 1760	 1492478032	 73715270	 161862.
01:13:52 1760 1761	 1492478032	 239497664	 165782.
01:13:52 1761 1762	 1492478032	 400939356	 161442.
01:13:52 1762 1763	 1492478032	 534023833	 133085.
01:13:52 1763 1764	 1492478032	 700033111	 166009.
01:13:52 1764 1765	 1492478032	 858013031	 157980.
01:13:53 1765 1766	 1492478033	 24079612	 166066.
01:13:53 1766 1767	 1492478033	 186001029	 161922.
01:13:53 1767 1768	 1492478033	 351724643	 165723.
01:13:53 1768 1769	 1492478033	 513500383	 161776.
01:13:53 1769 1770	 1492478033	 650861992	 137362.
01:13:53 1770 1771	 1492478033	 812770917	 161909.
01:13:53 1771 1772	 1492478033	 974579815	 161809.
01:13:54 1772 1773	 1492478034	 140508209	 165928.
01:13:54 1773 1774	 1492478034	 302376668	 161868.
01:13:54 1774 1775	 1492478034	 468264871	 165889.
01:13:54 1775 1776	 1492478034	 630022807	 161758.
01:13:54 1776 1777	 1492478034	 767184041	 137161.
01:13:54 1777 1778	 1492478034	 928954111	 161770.
01:13:55 1778 1779	 1492478035	 90862142	 161908.
01:13:55 1779 1780	 1492478035	 256714898	 165853.
01:13:55 1780 1781	 1492478035	 418511947	 161797.
01:13:55 1781 1782	 1492478035	 584460291	 165948.
01:13:55 1782 1783	 1492478035	 746187084	 161727.
01:13:55 1783 1784	 1492478035	 883435333	 137248.
01:13:56 1784 1785	 1492478036	 45075676	 161640.
01:13:56 1785 1786	 1492478036	 206827860	 161753.
01:13:56 1786 1787	 1492478036	 372589520	 165761.
01:13:56 1787 1788	 1492478036	 534289221	 161700.
01:13:56 1788 1789	 1492478036	 700036846	 165748.
01:13:56 1789 1790	 1492478036	 833135594	 133098.
01:13:56 1790 1791	 1492478036	 995027523	 161892.
01:13:57 1791 1792	 1492478037	 161006253	 165979.
01:13:57 1792 1793	 1492478037	 322739103	 161733.
01:13:57 1793 1794	 1492478037	 484420331	 161681.
01:13:57 1794 1795	 1492478037	 646667646	 162248.
01:13:57 1795 1796	 1492478037	 812626498	 165958.
01:13:57 1796 1797	 1492478037	 974485062	 161859.
01:13:58 1797 1798	 1492478038	 107553940	 133069.
01:13:58 1798 1799	 1492478038	 273304398	 165750.
01:13:58 1799 1800	 1492478038	 434928921	 161625.
01:13:58 1800 1801	 1492478038	 600664940	 165736.
01:13:58 1801 1802	 1492478038	 762500206	 161835.
01:13:58 1802 1803	 1492478038	 928340732	 165841.
01:13:59 1803 1804	 1492478039	 61406472	 133065.
01:13:59 1804 1805	 1492478039	 227190660	 165784.
01:13:59 1805 1806	 1492478039	 389044892	 161855.
01:13:59 1806 1807	 1492478039	 550735956	 161691.
01:13:59 1807 1808	 1492478039	 716622408	 165886.
01:13:59 1808 1809	 1492478039	 878391440	 161769.
01:14:00 1809 1810	 1492478040	 44062814	 165672.
01:14:00 1810 1811	 1492478040	 177242466	 133179.
01:14:00 1811 1812	 1492478040	 343026131	 165784.
01:14:00 1812 1813	 1492478040	 504852074	 161826.
01:14:00 1813 1814	 1492478040	 670853650	 166001.
01:14:00 1814 1815	 1492478040	 833508695	 162655.
01:14:00 1815 1816	 1492478040	 991216834	 157709.
01:14:01 1816 1817	 1492478041	 153231273	 162014.
01:14:01 1817 1818	 1492478041	 319384331	 166153.
01:14:01 1818 1819	 1492478041	 478059480	 158675.
01:14:01 1819 1820	 1492478041	 640004589	 161945.
01:14:01 1820 1821	 1492478041	 802095664	 162091.
01:14:01 1821 1822	 1492478041	 964266852	 162172.
01:14:02 1822 1823	 1492478042	 101493137	 137226.
01:14:02 1823 1824	 1492478042	 263212290	 161719.
01:14:02 1824 1825	 1492478042	 425400696	 162189.
01:14:02 1825 1826	 1492478042	 587332614	 161931.
01:14:02 1826 1827	 1492478042	 749124879	 161793.
01:14:02 1827 1828	 1492478042	 915043257	 165918.
01:14:03 1828 1829	 1492478043	 76808797	 161766.
01:14:03 1829 1830	 1492478043	 214003659	 137194.
01:14:03 1830 1831	 1492478043	 375839350	 161836.
01:14:03 1831 1832	 1492478043	 541785287	 165946.
01:14:03 1832 1833	 1492478043	 700077306	 158292.
01:14:03 1833 1834	 1492478043	 866121989	 166045.
01:14:04 1834 1835	 1492478044	 28026818	 161905.
01:14:04 1835 1836	 1492478044	 193975607	 165948.
01:14:04 1836 1837	 1492478044	 355958428	 161983.
01:14:04 1837 1838	 1492478044	 489126098	 133168.
01:14:04 1838 1839	 1492478044	 654940299	 165814.
01:14:04 1839 1840	 1492478044	 817010323	 162070.
01:14:04 1840 1841	 1492478044	 982994648	 165984.
01:14:05 1841 1842	 1492478045	 145046960	 162053.
01:14:05 1842 1843	 1492478045	 311076667	 166029.
01:14:05 1843 1844	 1492478045	 472932821	 161857.
01:14:05 1844 1845	 1492478045	 606184405	 133251.
01:14:05 1845 1846	 1492478045	 772143352	 165959.
01:14:05 1846 1847	 1492478045	 934051928	 161909.
01:14:06 1847 1848	 1492478046	 100083827	 166032.
01:14:06 1848 1849	 1492478046	 266030751	 165947.
01:14:06 1849 1850	 1492478046	 427917135	 161886.
01:14:06 1850 1851	 1492478046	 589756991	 161840.
01:14:06 1851 1852	 1492478046	 755585433	 165828.
01:14:06 1852 1853	 1492478046	 888897884	 133313.
01:14:07 1853 1854	 1492478047	 54794999	 165897.
01:14:07 1854 1855	 1492478047	 216774731	 161980.
01:14:07 1855 1856	 1492478047	 382716166	 165941.
01:14:07 1856 1857	 1492478047	 544465744	 161750.
01:14:07 1857 1858	 1492478047	 706244659	 161778.
01:14:07 1858 1859	 1492478047	 872115905	 165872.
01:14:08 1859 1860	 1492478048	 5175721	 133060.
01:14:08 1860 1861	 1492478048	 171007166	 165831.
01:14:08 1861 1862	 1492478048	 370444140	 199437.
01:14:08 1862 1863	 1492478048	 532284715	 161841.
01:14:08 1863 1864	 1492478048	 694154012	 161869.
01:14:08 1864 1865	 1492478048	 891221398	 197067.
01:14:09 1865 1866	 1492478049	 24233042	 133012.
01:14:09 1866 1867	 1492478049	 189975419	 165742.
01:14:09 1867 1868	 1492478049	 351777053	 161802.
01:14:09 1868 1869	 1492478049	 517641931	 165865.
01:14:09 1869 1870	 1492478049	 679448062	 161806.
01:14:09 1870 1871	 1492478049	 845326062	 165878.
01:14:10 1871 1872	 1492478050	 7161838	 161836.
01:14:10 1872 1873	 1492478050	 144501794	 137340.
01:14:10 1873 1874	 1492478050	 306782238	 162280.
01:14:10 1874 1875	 1492478050	 468599380	 161817.
01:14:10 1875 1876	 1492478050	 634508800	 165910.
01:14:10 1876 1877	 1492478050	 796166616	 161657.
01:14:10 1877 1878	 1492478050	 962003702	 165837.
01:14:11 1878 1879	 1492478051	 123862973	 161860.
