03:37:47    0 Step	 time(s)	 time(ns)	 delta(ms)
03:37:47    0 1	 1492400267	 81992804	 917.
03:37:47    1 2	 1492400267	 244085629	 162093.
03:37:47    2 3	 1492400267	 410250845	 166166.
03:37:47    3 4	 1492400267	 576310258	 166059.
03:37:47    4 5	 1492400267	 738287201	 161977.
03:37:47    5 6	 1492400267	 904302239	 166015.
03:37:48    6 7	 1492400268	 66375329	 162073.
03:37:48    7 8	 1492400268	 232351920	 165977.
03:37:48    8 9	 1492400268	 394317730	 161965.
03:37:48    9 10	 1492400268	 556196157	 161879.
03:37:48   10 11	 1492400268	 693569962	 137374.
03:37:48   11 12	 1492400268	 855477684	 161907.
03:37:49   12 13	 1492400269	 21525785	 166049.
03:37:49   13 14	 1492400269	 183417366	 161891.
03:37:49   14 15	 1492400269	 349387327	 165970.
03:37:49   15 16	 1492400269	 511410177	 162023.
03:37:49   16 17	 1492400269	 677444323	 166034.
03:37:49   17 18	 1492400269	 839296178	 161852.
03:37:49   18 19	 1492400269	 972443489	 133147.
03:37:50   19 20	 1492400270	 138308423	 165865.
03:37:50   20 21	 1492400270	 300153550	 161845.
03:37:50   21 22	 1492400270	 466133095	 165980.
03:37:50   22 23	 1492400270	 628260843	 162128.
03:37:50   23 24	 1492400270	 790051713	 161790.
03:37:50   24 25	 1492400270	 955935111	 165884.
03:37:51   25 26	 1492400271	 88969718	 133034.
03:37:51   26 27	 1492400271	 254901636	 165932.
03:37:51   27 28	 1492400271	 420715414	 165814.
03:37:51   28 29	 1492400271	 582666100	 161951.
03:37:51   29 30	 1492400271	 748603672	 165937.
03:37:51   30 31	 1492400271	 910669311	 162066.
03:37:52   31 32	 1492400272	 72776306	 162107.
03:37:52   32 33	 1492400272	 238828122	 166052.
03:37:52   33 34	 1492400272	 371912569	 133084.
03:37:52   34 35	 1492400272	 534582152	 162670.
03:37:52   35 36	 1492400272	 692146228	 157564.
03:37:52   36 37	 1492400272	 858048442	 165902.
03:37:53   37 38	 1492400273	 19958758	 161910.
03:37:53   38 39	 1492400273	 185929949	 165972.
03:37:53   39 40	 1492400273	 347786123	 161856.
03:37:53   40 41	 1492400273	 513768948	 165983.
03:37:53   41 42	 1492400273	 647016105	 133247.
03:37:53   42 43	 1492400273	 812914474	 165898.
03:37:53   43 44	 1492400273	 978737758	 165823.
03:37:54   44 45	 1492400274	 140562005	 161825.
03:37:54   45 46	 1492400274	 306472752	 165910.
03:37:54   46 47	 1492400274	 468421489	 161949.
03:37:54   47 48	 1492400274	 630182120	 161761.
03:37:54   48 49	 1492400274	 767365401	 137183.
03:37:54   49 50	 1492400274	 929163498	 161798.
03:37:55   50 51	 1492400275	 95192071	 166029.
03:37:55   51 52	 1492400275	 257051906	 161860.
03:37:55   52 53	 1492400275	 422734998	 165683.
03:37:55   53 54	 1492400275	 584732875	 161998.
03:37:55   54 55	 1492400275	 750566203	 165833.
03:37:55   55 56	 1492400275	 883602022	 133036.
03:37:56   56 57	 1492400276	 45312050	 161710.
03:37:56   57 58	 1492400276	 211060507	 165748.
03:37:56   58 59	 1492400276	 373038947	 161979.
03:37:56   59 60	 1492400276	 538864784	 165826.
03:37:56   60 61	 1492400276	 700742886	 161878.
03:37:56   61 62	 1492400276	 866654324	 165911.
03:37:56   62 63	 1492400276	 999606586	 132952.
03:37:57   63 64	 1492400277	 165434414	 165828.
03:37:57   64 65	 1492400277	 327131953	 161698.
03:37:57   65 66	 1492400277	 493075711	 165943.
03:37:57   66 67	 1492400277	 654901543	 161826.
03:37:57   67 68	 1492400277	 820635829	 165735.
03:37:57   68 69	 1492400277	 953730858	 133095.
03:37:58   69 70	 1492400278	 119654262	 165923.
03:37:58   70 71	 1492400278	 281436163	 161782.
03:37:58   71 72	 1492400278	 447444686	 166008.
03:37:58   72 73	 1492400278	 609236425	 161792.
03:37:58   73 74	 1492400278	 774970634	 165734.
03:37:58   74 75	 1492400278	 936735242	 161765.
03:37:59   75 76	 1492400279	 73921161	 137186.
03:37:59   76 77	 1492400279	 235674143	 161753.
03:37:59   77 78	 1492400279	 397774003	 162100.
03:37:59   78 79	 1492400279	 563600595	 165826.
03:37:59   79 80	 1492400279	 725389081	 161789.
03:37:59   80 81	 1492400279	 887288059	 161899.
03:38:00   81 82	 1492400280	 53252926	 165965.
03:38:00   82 83	 1492400280	 215103962	 161851.
03:38:00   83 84	 1492400280	 352433590	 137329.
03:38:00   84 85	 1492400280	 514342684	 161909.
03:38:00   85 86	 1492400280	 680167431	 165825.
03:38:00   86 87	 1492400280	 846153699	 165986.
03:38:01   87 88	 1492400281	 8002114	 161849.
03:38:01   88 89	 1492400281	 173782475	 165780.
03:38:01   89 90	 1492400281	 306929838	 133148.
03:38:01   90 91	 1492400281	 472722240	 165792.
03:38:01   91 92	 1492400281	 634612938	 161891.
03:38:01   92 93	 1492400281	 800506540	 165893.
03:38:01   93 94	 1492400281	 962428040	 161922.
03:38:02   94 95	 1492400282	 128451206	 166023.
03:38:02   95 96	 1492400282	 294295514	 165844.
03:38:02   96 97	 1492400282	 427451244	 133156.
03:38:02   97 98	 1492400282	 593384918	 165934.
03:38:02   98 99	 1492400282	 755314104	 161929.
03:38:02   99 100	 1492400282	 921141133	 165827.
03:38:03  100 101	 1492400283	 82961627	 161820.
03:38:03  101 102	 1492400283	 248817802	 165857.
03:38:03  102 103	 1492400283	 410542728	 161725.
03:38:03  103 104	 1492400283	 547749057	 137206.
03:38:03  104 105	 1492400283	 709669392	 161920.
03:38:03  105 106	 1492400283	 876442495	 166773.
03:38:04  106 107	 1492400284	 34382335	 157940.
03:38:04  107 108	 1492400284	 196224497	 161842.
03:38:04  108 109	 1492400284	 362125659	 165901.
03:38:04  109 110	 1492400284	 524041069	 161916.
03:38:04  110 111	 1492400284	 690109550	 166068.
03:38:04  111 112	 1492400284	 823260387	 133151.
03:38:04  112 113	 1492400284	 985297831	 162038.
03:38:05  113 114	 1492400285	 151207842	 165910.
03:38:05  114 115	 1492400285	 317241340	 166033.
03:38:05  115 116	 1492400285	 479046039	 161805.
03:38:05  116 117	 1492400285	 645026880	 165981.
03:38:05  117 118	 1492400285	 806832271	 161805.
03:38:05  118 119	 1492400285	 972685468	 165853.
03:38:06  119 120	 1492400286	 105897978	 133213.
03:38:06  120 121	 1492400286	 271940432	 166042.
03:38:06  121 122	 1492400286	 433752835	 161812.
03:38:06  122 123	 1492400286	 599599816	 165848.
03:38:06  123 124	 1492400286	 761695631	 162095.
03:38:06  124 125	 1492400286	 927789202	 166094.
03:38:07  125 126	 1492400287	 89543343	 161754.
03:38:07  126 127	 1492400287	 226743384	 137200.
03:38:07  127 128	 1492400287	 388733458	 161990.
03:38:07  128 129	 1492400287	 554706671	 165973.
03:38:07  129 130	 1492400287	 716595751	 161889.
03:38:07  130 131	 1492400287	 882398598	 165803.
03:38:08  131 132	 1492400288	 44190420	 161792.
03:38:08  132 133	 1492400288	 210411189	 166221.
03:38:08  133 134	 1492400288	 372191920	 161781.
03:38:08  134 135	 1492400288	 509399850	 137208.
03:38:08  135 136	 1492400288	 671139587	 161739.
03:38:08  136 137	 1492400288	 836937955	 165799.
03:38:08  137 138	 1492400288	 998721771	 161784.
03:38:09  138 139	 1492400289	 164882167	 166160.
03:38:09  139 140	 1492400289	 326729503	 161847.
03:38:09  140 141	 1492400289	 463918764	 137189.
03:38:09  141 142	 1492400289	 625850593	 161932.
03:38:09  142 143	 1492400289	 791781078	 165931.
03:38:09  143 144	 1492400289	 953704193	 161923.
03:38:10  144 145	 1492400290	 119614640	 165910.
03:38:10  145 146	 1492400290	 281497311	 161883.
03:38:10  146 147	 1492400290	 447465004	 165968.
03:38:10  147 148	 1492400290	 580590488	 133125.
03:38:10  148 149	 1492400290	 746490730	 165900.
03:38:10  149 150	 1492400290	 908529838	 162040.
03:38:11  150 151	 1492400291	 70403573	 161873.
03:38:11  151 152	 1492400291	 236298118	 165895.
03:38:11  152 153	 1492400291	 402322758	 166024.
03:38:11  153 154	 1492400291	 564240590	 161918.
03:38:11  154 155	 1492400291	 730679103	 166439.
03:38:11  155 156	 1492400291	 888729475	 158050.
03:38:12  156 157	 1492400292	 26155996	 137427.
03:38:12  157 158	 1492400292	 187932198	 161776.
03:38:12  158 159	 1492400292	 353951750	 166019.
03:38:12  159 160	 1492400292	 515809570	 161859.
03:38:12  160 161	 1492400292	 677857812	 162048.
03:38:12  161 162	 1492400292	 843774681	 165916.
03:38:13  162 163	 1492400293	 5435531	 161661.
03:38:13  163 164	 1492400293	 142632595	 137197.
03:38:13  164 165	 1492400293	 304434031	 161802.
03:38:13  165 166	 1492400293	 470459192	 166025.
03:38:13  166 167	 1492400293	 632258707	 161800.
03:38:13  167 168	 1492400293	 798084532	 165825.
03:38:13  168 169	 1492400293	 964054065	 165970.
03:38:14  169 170	 1492400294	 122311188	 158257.
03:38:14  170 171	 1492400294	 288332961	 166022.
03:38:14  171 172	 1492400294	 421553394	 133220.
03:38:14  172 173	 1492400294	 583434312	 161881.
03:38:14  173 174	 1492400294	 749309882	 165876.
03:38:14  174 175	 1492400294	 911316846	 162007.
03:38:15  175 176	 1492400295	 73558293	 162241.
03:38:15  176 177	 1492400295	 239411081	 165853.
03:38:15  177 178	 1492400295	 401181976	 161771.
03:38:15  178 179	 1492400295	 563238557	 162056.
03:38:15  179 180	 1492400295	 729412702	 166175.
03:38:15  180 181	 1492400295	 862655760	 133242.
03:38:16  181 182	 1492400296	 28699581	 166044.
03:38:16  182 183	 1492400296	 190457498	 161758.
03:38:16  183 184	 1492400296	 358802088	 168345.
03:38:16  184 185	 1492400296	 520637257	 161835.
03:38:16  185 186	 1492400296	 686570574	 165933.
03:38:16  186 187	 1492400296	 848425510	 161855.
03:38:16  187 188	 1492400296	 985539407	 137114.
03:38:17  188 189	 1492400297	 147464942	 161926.
03:38:17  189 190	 1492400297	 309538215	 162073.
03:38:17  190 191	 1492400297	 475425424	 165887.
03:38:17  191 192	 1492400297	 637055369	 161630.
03:38:17  192 193	 1492400297	 799149206	 162094.
03:38:17  193 194	 1492400297	 964952609	 165803.
03:38:18  194 195	 1492400298	 98046286	 133094.
03:38:18  195 196	 1492400298	 263878815	 165833.
03:38:18  196 197	 1492400298	 425731393	 161852.
03:38:18  197 198	 1492400298	 591687144	 165956.
03:38:18  198 199	 1492400298	 753467196	 161780.
03:38:18  199 200	 1492400298	 915329567	 161862.
03:38:19  200 201	 1492400299	 81263576	 165934.
03:38:19  201 202	 1492400299	 247144896	 165882.
03:38:19  202 203	 1492400299	 380107746	 132962.
03:38:19  203 204	 1492400299	 541939475	 161832.
03:38:19  204 205	 1492400299	 707799290	 165860.
03:38:19  205 206	 1492400299	 869602195	 161803.
03:38:20  206 207	 1492400300	 35510538	 165908.
03:38:20  207 208	 1492400300	 197371680	 161861.
03:38:20  208 209	 1492400300	 363365055	 165994.
03:38:20  209 210	 1492400300	 496601679	 133236.
03:38:20  210 211	 1492400300	 662401280	 165800.
03:38:20  211 212	 1492400300	 824963852	 162563.
03:38:20  212 213	 1492400300	 982735469	 157771.
03:38:21  213 214	 1492400301	 148567498	 165832.
03:38:21  214 215	 1492400301	 310343867	 161777.
03:38:21  215 216	 1492400301	 472198413	 161854.
03:38:21  216 217	 1492400301	 638007511	 165809.
03:38:21  217 218	 1492400301	 771159331	 133152.
03:38:21  218 219	 1492400301	 937093725	 165934.
03:38:22  219 220	 1492400302	 98905821	 161813.
03:38:22  220 221	 1492400302	 264920580	 166014.
03:38:22  221 222	 1492400302	 426750493	 161830.
03:38:22  222 223	 1492400302	 588583655	 161833.
03:38:22  223 224	 1492400302	 754685120	 166102.
03:38:22  224 225	 1492400302	 916553384	 161868.
03:38:23  225 226	 1492400303	 49719329	 133166.
03:38:23  226 227	 1492400303	 215579266	 165860.
03:38:23  227 228	 1492400303	 377305664	 161726.
03:38:23  228 229	 1492400303	 543219254	 165914.
03:38:23  229 230	 1492400303	 705215292	 161996.
03:38:23  230 231	 1492400303	 867559144	 162344.
03:38:24  231 232	 1492400304	 29435819	 161877.
03:38:24  232 233	 1492400304	 195370764	 165934.
03:38:24  233 234	 1492400304	 328432517	 133062.
03:38:24  234 235	 1492400304	 494298196	 165866.
03:38:24  235 236	 1492400304	 656418619	 162120.
03:38:24  236 237	 1492400304	 818405303	 161987.
03:38:24  237 238	 1492400304	 984386534	 165981.
03:38:25  238 239	 1492400305	 146338577	 161952.
03:38:25  239 240	 1492400305	 312537281	 166199.
03:38:25  240 241	 1492400305	 474271379	 161734.
03:38:25  241 242	 1492400305	 607418816	 133147.
03:38:25  242 243	 1492400305	 773341430	 165923.
03:38:25  243 244	 1492400305	 939300579	 165959.
03:38:26  244 245	 1492400306	 101221203	 161921.
03:38:26  245 246	 1492400306	 267228906	 166008.
03:38:26  246 247	 1492400306	 429244801	 162016.
03:38:26  247 248	 1492400306	 595255086	 166010.
03:38:26  248 249	 1492400306	 728535427	 133280.
03:38:26  249 250	 1492400306	 894556116	 166021.
03:38:27  250 251	 1492400307	 56623901	 162068.
03:38:27  251 252	 1492400307	 222682158	 166058.
03:38:27  252 253	 1492400307	 384849454	 162167.
03:38:27  253 254	 1492400307	 550837322	 165988.
03:38:27  254 255	 1492400307	 712826680	 161989.
03:38:27  255 256	 1492400307	 850114164	 137288.
03:38:28  256 257	 1492400308	 11923775	 161809.
03:38:28  257 258	 1492400308	 173933559	 162010.
03:38:28  258 259	 1492400308	 339910842	 165978.
03:38:28  259 260	 1492400308	 502000040	 162089.
03:38:28  260 261	 1492400308	 667868826	 165869.
03:38:28  261 262	 1492400308	 829741780	 161872.
03:38:28  262 263	 1492400308	 995619669	 165879.
03:38:29  263 264	 1492400309	 128900829	 133281.
03:38:29  264 265	 1492400309	 316359081	 187458.
03:38:29  265 266	 1492400309	 449843807	 133485.
03:38:29  266 267	 1492400309	 615813238	 165969.
03:38:29  267 268	 1492400309	 777950102	 162137.
03:38:29  268 269	 1492400309	 943845983	 165896.
03:38:30  269 270	 1492400310	 105767441	 161921.
03:38:30  270 271	 1492400310	 271920173	 166153.
03:38:30  271 272	 1492400310	 433798056	 161878.
03:38:30  272 273	 1492400310	 599724967	 165927.
03:38:30  273 274	 1492400310	 733015960	 133291.
03:38:30  274 275	 1492400310	 898956945	 165941.
03:38:31  275 276	 1492400311	 60999055	 162042.
03:38:31  276 277	 1492400311	 222894133	 161895.
03:38:31  277 278	 1492400311	 388885345	 165991.
03:38:31  278 279	 1492400311	 550973919	 162089.
03:38:31  279 280	 1492400311	 716977550	 166003.
03:38:31  280 281	 1492400311	 879017769	 162040.
03:38:32  281 282	 1492400312	 12256473	 133239.
03:38:32  282 283	 1492400312	 174683337	 162427.
03:38:32  283 284	 1492400312	 340764223	 166081.
03:38:32  284 285	 1492400312	 506754962	 165991.
03:38:32  285 286	 1492400312	 668685397	 161930.
03:38:32  286 287	 1492400312	 830556990	 161872.
03:38:32  287 288	 1492400312	 996527934	 165971.
03:38:33  288 289	 1492400313	 162592087	 166064.
03:38:33  289 290	 1492400313	 295863832	 133272.
03:38:33  290 291	 1492400313	 457888033	 162024.
03:38:33  291 292	 1492400313	 620020606	 162132.
03:38:33  292 293	 1492400313	 785935978	 165916.
03:38:33  293 294	 1492400313	 947957153	 162021.
03:38:34  294 295	 1492400314	 113965165	 166008.
03:38:34  295 296	 1492400314	 275910148	 161945.
03:38:34  296 297	 1492400314	 442008159	 166098.
03:38:34  297 298	 1492400314	 603850756	 161842.
03:38:34  298 299	 1492400314	 737136234	 133286.
03:38:34  299 300	 1492400314	 903237426	 166101.
03:38:35  300 301	 1492400315	 69313553	 166076.
03:38:35  301 302	 1492400315	 231249103	 161936.
03:38:35  302 303	 1492400315	 397196092	 165947.
03:38:35  303 304	 1492400315	 559069066	 161873.
03:38:35  304 305	 1492400315	 725017228	 165948.
03:38:35  305 306	 1492400315	 858143751	 133126.
03:38:36  306 307	 1492400316	 23980708	 165837.
03:38:36  307 308	 1492400316	 186178280	 162198.
03:38:36  308 309	 1492400316	 348272202	 162094.
03:38:36  309 310	 1492400316	 514339629	 166068.
03:38:36  310 311	 1492400316	 676283402	 161943.
03:38:36  311 312	 1492400316	 842278809	 165996.
03:38:37  312 313	 1492400317	 4189446	 161910.
03:38:37  313 314	 1492400317	 166351632	 162163.
03:38:37  314 315	 1492400317	 303469509	 137117.
03:38:37  315 316	 1492400317	 465617117	 162148.
03:38:37  316 317	 1492400317	 631776491	 166159.
03:38:37  317 318	 1492400317	 793714419	 161938.
03:38:37  318 319	 1492400317	 959749211	 166035.
03:38:38  319 320	 1492400318	 121726936	 161978.
03:38:38  320 321	 1492400318	 287749116	 166022.
03:38:38  321 322	 1492400318	 449757718	 162009.
03:38:38  322 323	 1492400318	 587025148	 137267.
03:38:38  323 324	 1492400318	 748916109	 161891.
03:38:38  324 325	 1492400318	 914888751	 165972.
03:38:39  325 326	 1492400319	 80838065	 165950.
03:38:39  326 327	 1492400319	 242756845	 161919.
03:38:39  327 328	 1492400319	 408724793	 165968.
03:38:39  328 329	 1492400319	 570731895	 162007.
03:38:39  329 330	 1492400319	 708071543	 137339.
03:38:39  330 331	 1492400319	 870153632	 162082.
03:38:40  331 332	 1492400320	 36142672	 165989.
03:38:40  332 333	 1492400320	 198111470	 161969.
03:38:40  333 334	 1492400320	 364158310	 166047.
03:38:40  334 335	 1492400320	 526121046	 161963.
03:38:40  335 336	 1492400320	 692179799	 166059.
03:38:40  336 337	 1492400320	 825399273	 133219.
03:38:40  337 338	 1492400320	 991588651	 166189.
03:38:41  338 339	 1492400321	 153545017	 161957.
03:38:41  339 340	 1492400321	 319450490	 165905.
03:38:41  340 341	 1492400321	 481468860	 162019.
03:38:41  341 342	 1492400321	 647478379	 166009.
03:38:41  342 343	 1492400321	 809292748	 161814.
03:38:41  343 344	 1492400321	 971115172	 161823.
03:38:42  344 345	 1492400322	 108389497	 137274.
03:38:42  345 346	 1492400322	 270522777	 162133.
03:38:42  346 347	 1492400322	 432427063	 161905.
03:38:42  347 348	 1492400322	 598415992	 165989.
03:38:42  348 349	 1492400322	 760393049	 161977.
03:38:42  349 350	 1492400322	 926282376	 165889.
03:38:43  350 351	 1492400323	 92325446	 166043.
03:38:43  351 352	 1492400323	 254297393	 161972.
03:38:43  352 353	 1492400323	 387599484	 133302.
03:38:43  353 354	 1492400323	 553844524	 166245.
03:38:43  354 355	 1492400323	 719879901	 166036.
03:38:43  355 356	 1492400323	 881749388	 161869.
03:38:44  356 357	 1492400324	 43709572	 161960.
03:38:44  357 358	 1492400324	 209855076	 166146.
03:38:44  358 359	 1492400324	 371804317	 161949.
03:38:44  359 360	 1492400324	 537700973	 165897.
03:38:44  360 361	 1492400324	 670858969	 133158.
03:38:44  361 362	 1492400324	 836791094	 165932.
03:38:44  362 363	 1492400324	 998554720	 161763.
03:38:45  363 364	 1492400325	 164414459	 165860.
03:38:45  364 365	 1492400325	 326271527	 161857.
03:38:45  365 366	 1492400325	 492172994	 165902.
03:38:45  366 367	 1492400325	 653974695	 161801.
03:38:45  367 368	 1492400325	 820039407	 166065.
03:38:45  368 369	 1492400325	 953261950	 133223.
03:38:46  369 370	 1492400326	 115154012	 161892.
03:38:46  370 371	 1492400326	 280982996	 165829.
03:38:46  371 372	 1492400326	 446851718	 165868.
03:38:46  372 373	 1492400326	 608753962	 161903.
03:38:46  373 374	 1492400326	 770595792	 161842.
03:38:46  374 375	 1492400326	 936485204	 165889.
03:38:47  375 376	 1492400327	 69676688	 133191.
03:38:47  376 377	 1492400327	 235671230	 165995.
03:38:47  377 378	 1492400327	 397565118	 161894.
03:38:47  378 379	 1492400327	 563597952	 166033.
03:38:47  379 380	 1492400327	 725619465	 162021.
03:38:47  380 381	 1492400327	 891801490	 166182.
03:38:48  381 382	 1492400328	 53763355	 161962.
03:38:48  382 383	 1492400328	 219506514	 165743.
03:38:48  383 384	 1492400328	 352772126	 133266.
03:38:48  384 385	 1492400328	 514598256	 161826.
03:38:48  385 386	 1492400328	 680527735	 165929.
03:38:48  386 387	 1492400328	 846517886	 165991.
03:38:49  387 388	 1492400329	 8394876	 161877.
03:38:49  388 389	 1492400329	 174489485	 166094.
03:38:49  389 390	 1492400329	 336354914	 161866.
03:38:49  390 391	 1492400329	 502461964	 166107.
03:38:49  391 392	 1492400329	 635547560	 133085.
03:38:49  392 393	 1492400329	 797418744	 161871.
03:38:49  393 394	 1492400329	 963216089	 165798.
03:38:50  394 395	 1492400330	 129212803	 165996.
03:38:50  395 396	 1492400330	 291024267	 161812.
03:38:50  396 397	 1492400330	 453011328	 161987.
03:38:50  397 398	 1492400330	 618968244	 165957.
03:38:50  398 399	 1492400330	 780894025	 161926.
03:38:50  399 400	 1492400330	 918126352	 137232.
03:38:51  400 401	 1492400331	 80019296	 161893.
03:38:51  401 402	 1492400331	 245979979	 165961.
03:38:51  402 403	 1492400331	 407735158	 161755.
03:38:51  403 404	 1492400331	 573859716	 166124.
03:38:51  404 405	 1492400331	 735546182	 161687.
03:38:51  405 406	 1492400331	 901250472	 165704.
03:38:52  406 407	 1492400332	 63103966	 161854.
03:38:52  407 408	 1492400332	 196208981	 133105.
03:38:52  408 409	 1492400332	 362243104	 166034.
03:38:52  409 410	 1492400332	 524067819	 161825.
03:38:52  410 411	 1492400332	 689965904	 165898.
03:38:52  411 412	 1492400332	 851826696	 161860.
03:38:53  412 413	 1492400333	 17766172	 165940.
03:38:53  413 414	 1492400333	 179609344	 161843.
03:38:53  414 415	 1492400333	 316806770	 137197.
03:38:53  415 416	 1492400333	 478715801	 161910.
03:38:53  416 417	 1492400333	 644741952	 166026.
03:38:53  417 418	 1492400333	 806748864	 162007.
03:38:53  418 419	 1492400333	 973025021	 166276.
03:38:54  419 420	 1492400334	 134857672	 161832.
03:38:54  420 421	 1492400334	 300992814	 166136.
03:38:54  421 422	 1492400334	 463047260	 162054.
03:38:54  422 423	 1492400334	 596264819	 133218.
03:38:54  423 424	 1492400334	 783741523	 187476.
03:38:54  424 425	 1492400334	 921162303	 137421.
03:38:55  425 426	 1492400335	 83486885	 162325.
03:38:55  426 427	 1492400335	 245597100	 162110.
03:38:55  427 428	 1492400335	 411527640	 165930.
03:38:55  428 429	 1492400335	 573727230	 162200.
03:38:55  429 430	 1492400335	 735825014	 162098.
03:38:55  430 431	 1492400335	 901741988	 165917.
03:38:56  431 432	 1492400336	 67738886	 165997.
03:38:56  432 433	 1492400336	 226252293	 158513.
03:38:56  433 434	 1492400336	 359335193	 133083.
03:38:56  434 435	 1492400336	 525479494	 166144.
03:38:56  435 436	 1492400336	 687316635	 161837.
03:38:56  436 437	 1492400336	 853388041	 166072.
03:38:57  437 438	 1492400337	 15148927	 161761.
03:38:57  438 439	 1492400337	 177022028	 161873.
03:38:57  439 440	 1492400337	 343158168	 166136.
03:38:57  440 441	 1492400337	 505016703	 161859.
03:38:57  441 442	 1492400337	 642280641	 137263.
03:38:57  442 443	 1492400337	 804274343	 161994.
03:38:57  443 444	 1492400337	 970327813	 166054.
03:38:58  444 445	 1492400338	 132200527	 161872.
03:38:58  445 446	 1492400338	 298288910	 166089.
03:38:58  446 447	 1492400338	 460085538	 161796.
03:38:58  447 448	 1492400338	 625949278	 165864.
03:38:58  448 449	 1492400338	 759084666	 133135.
03:38:58  449 450	 1492400338	 924958645	 165874.
03:38:59  450 451	 1492400339	 86853734	 161895.
03:38:59  451 452	 1492400339	 252745921	 165893.
03:38:59  452 453	 1492400339	 414647066	 161901.
03:38:59  453 454	 1492400339	 580689038	 166042.
03:38:59  454 455	 1492400339	 742720756	 162031.
03:38:59  455 456	 1492400339	 875863629	 133143.
03:39:00  456 457	 1492400340	 67217512	 191354.
03:39:00  457 458	 1492400340	 204383383	 137166.
03:39:00  458 459	 1492400340	 366158676	 161775.
03:39:00  459 460	 1492400340	 528066113	 161908.
03:39:00  460 461	 1492400340	 693945695	 165879.
03:39:00  461 462	 1492400340	 856123621	 162178.
03:39:01  462 463	 1492400341	 17938609	 161815.
03:39:01  463 464	 1492400341	 179848044	 161910.
03:39:01  464 465	 1492400341	 345998271	 166150.
03:39:01  465 466	 1492400341	 479309694	 133311.
03:39:01  466 467	 1492400341	 645248437	 165939.
03:39:01  467 468	 1492400341	 807321025	 162073.
03:39:01  468 469	 1492400341	 973575154	 166254.
03:39:02  469 470	 1492400342	 135792304	 162217.
03:39:02  470 471	 1492400342	 301728326	 165936.
03:39:02  471 472	 1492400342	 467851629	 166123.
03:39:02  472 473	 1492400342	 629762005	 161911.
03:39:02  473 474	 1492400342	 762892283	 133130.
03:39:02  474 475	 1492400342	 928920297	 166028.
03:39:03  475 476	 1492400343	 90913107	 161993.
03:39:03  476 477	 1492400343	 256960071	 166047.
03:39:03  477 478	 1492400343	 418909638	 161949.
03:39:03  478 479	 1492400343	 584913753	 166004.
03:39:03  479 480	 1492400343	 746916647	 162003.
03:39:03  480 481	 1492400343	 913013262	 166097.
03:39:04  481 482	 1492400344	 46415151	 133402.
03:39:04  482 483	 1492400344	 212406044	 165991.
03:39:04  483 484	 1492400344	 374475153	 162069.
03:39:04  484 485	 1492400344	 540486893	 166012.
03:39:04  485 486	 1492400344	 702449770	 161962.
03:39:04  486 487	 1492400344	 868514364	 166065.
03:39:05  487 488	 1492400345	 30436828	 161923.
03:39:05  488 489	 1492400345	 167716308	 137279.
03:39:05  489 490	 1492400345	 329652260	 161936.
03:39:05  490 491	 1492400345	 495753820	 166102.
03:39:05  491 492	 1492400345	 657771041	 162017.
03:39:05  492 493	 1492400345	 823806057	 166035.
03:39:05  493 494	 1492400345	 985754613	 161948.
03:39:06  494 495	 1492400346	 144480379	 158726.
03:39:06  495 496	 1492400346	 310450187	 165970.
03:39:06  496 497	 1492400346	 476551743	 166101.
03:39:06  497 498	 1492400346	 609679493	 133128.
03:39:06  498 499	 1492400346	 775746914	 166068.
03:39:06  499 500	 1492400346	 937575146	 161828.
03:39:07  500 501	 1492400347	 99531582	 161956.
03:39:07  501 502	 1492400347	 265377038	 165846.
03:39:07  502 503	 1492400347	 431323755	 165946.
03:39:07  503 504	 1492400347	 593297917	 161975.
03:39:07  504 505	 1492400347	 726569934	 133272.
03:39:07  505 506	 1492400347	 892897611	 166327.
03:39:08  506 507	 1492400348	 54918728	 162021.
03:39:08  507 508	 1492400348	 220892812	 165975.
03:39:08  508 509	 1492400348	 382916311	 162023.
03:39:08  509 510	 1492400348	 548934237	 166018.
03:39:08  510 511	 1492400348	 710903679	 161969.
03:39:08  511 512	 1492400348	 876952343	 166049.
03:39:09  512 513	 1492400349	 38924248	 161972.
03:39:09  513 514	 1492400349	 172129713	 133205.
03:39:09  514 515	 1492400349	 338024962	 165896.
03:39:09  515 516	 1492400349	 499805491	 161780.
03:39:09  516 517	 1492400349	 665678661	 165873.
03:39:09  517 518	 1492400349	 831556032	 165878.
03:39:09  518 519	 1492400349	 993482062	 161926.
03:39:10  519 520	 1492400350	 159593929	 166112.
03:39:10  520 521	 1492400350	 292741647	 133147.
03:39:10  521 522	 1492400350	 455205835	 162465.
03:39:10  522 523	 1492400350	 617191578	 161985.
03:39:10  523 524	 1492400350	 783070626	 165879.
03:39:10  524 525	 1492400350	 945100776	 162030.
03:39:11  525 526	 1492400351	 107449530	 162349.
03:39:11  526 527	 1492400351	 273663934	 166215.
03:39:11  527 528	 1492400351	 435525777	 161861.
03:39:11  528 529	 1492400351	 601488675	 165963.
03:39:11  529 530	 1492400351	 734667462	 133179.
03:39:11  530 531	 1492400351	 900625461	 165958.
03:39:12  531 532	 1492400352	 62740293	 162115.
03:39:12  532 533	 1492400352	 228875958	 166136.
03:39:12  533 534	 1492400352	 390932432	 162056.
03:39:12  534 535	 1492400352	 557017391	 166085.
03:39:12  535 536	 1492400352	 719091475	 162074.
03:39:12  536 537	 1492400352	 881076793	 161986.
03:39:13  537 538	 1492400353	 18472557	 137395.
03:39:13  538 539	 1492400353	 180503222	 162031.
03:39:13  539 540	 1492400353	 412191915	 231689.
03:39:13  540 541	 1492400353	 574055630	 161863.
03:39:13  541 542	 1492400353	 740219746	 166164.
03:39:13  542 543	 1492400353	 901968632	 161749.
03:39:14  543 544	 1492400354	 67885357	 165917.
03:39:14  544 545	 1492400354	 233882948	 165998.
03:39:14  545 546	 1492400354	 395923710	 162040.
03:39:14  546 547	 1492400354	 529220471	 133297.
03:39:14  547 548	 1492400354	 695377300	 166157.
03:39:14  548 549	 1492400354	 857350346	 161973.
03:39:15  549 550	 1492400355	 23418681	 166068.
03:39:15  550 551	 1492400355	 185393315	 161975.
03:39:15  551 552	 1492400355	 347564305	 162171.
03:39:15  552 553	 1492400355	 513555464	 165991.
03:39:15  553 554	 1492400355	 679713772	 166159.
03:39:15  554 555	 1492400355	 812883699	 133169.
03:39:15  555 556	 1492400355	 971288144	 158405.
03:39:16  556 557	 1492400356	 137316174	 166028.
03:39:16  557 558	 1492400356	 299141692	 161825.
03:39:16  558 559	 1492400356	 465141648	 166000.
03:39:16  559 560	 1492400356	 626907471	 161766.
03:39:16  560 561	 1492400356	 792951980	 166045.
03:39:16  561 562	 1492400356	 954738686	 161786.
03:39:17  562 563	 1492400357	 120709906	 165972.
03:39:17  563 564	 1492400357	 254144557	 133434.
03:39:17  564 565	 1492400357	 416019408	 161875.
03:39:17  565 566	 1492400357	 578132621	 162113.
03:39:17  566 567	 1492400357	 743979149	 165847.
03:39:17  567 568	 1492400357	 905948767	 161969.
03:39:18  568 569	 1492400358	 71954399	 166006.
03:39:18  569 570	 1492400358	 233733366	 161779.
03:39:18  570 571	 1492400358	 400406020	 166673.
03:39:18  571 572	 1492400358	 558151244	 157745.
03:39:18  572 573	 1492400358	 691205739	 133054.
03:39:18  573 574	 1492400358	 857161472	 165956.
03:39:19  574 575	 1492400359	 19151197	 161990.
03:39:19  575 576	 1492400359	 185161310	 166010.
03:39:19  576 577	 1492400359	 347133072	 161972.
03:39:19  577 578	 1492400359	 513132829	 166000.
03:39:19  578 579	 1492400359	 674887969	 161755.
03:39:19  579 580	 1492400359	 840790538	 165902.
03:39:19  580 581	 1492400359	 973991694	 133201.
03:39:20  581 582	 1492400360	 140056698	 166066.
03:39:20  582 583	 1492400360	 301981303	 161924.
03:39:20  583 584	 1492400360	 467900825	 165920.
03:39:20  584 585	 1492400360	 629837189	 161936.
03:39:20  585 586	 1492400360	 796061866	 166225.
03:39:20  586 587	 1492400360	 958191087	 162129.
03:39:21  587 588	 1492400361	 95597527	 137406.
03:39:21  588 589	 1492400361	 257628141	 162031.
03:39:21  589 590	 1492400361	 423696412	 166068.
03:39:21  590 591	 1492400361	 585662095	 161966.
03:39:21  591 592	 1492400361	 751591747	 165929.
03:39:21  592 593	 1492400361	 917613725	 166022.
03:39:22  593 594	 1492400362	 50842113	 133229.
03:39:22  594 595	 1492400362	 212914606	 162072.
03:39:22  595 596	 1492400362	 378949100	 166035.
03:39:22  596 597	 1492400362	 545057233	 166108.
03:39:22  597 598	 1492400362	 707048328	 161991.
03:39:22  598 599	 1492400362	 873322686	 166274.
03:39:23  599 600	 1492400363	 35299240	 161977.
03:39:23  600 601	 1492400363	 201382377	 166083.
03:39:23  601 602	 1492400363	 334528002	 133146.
03:39:23  602 603	 1492400363	 500545318	 166017.
03:39:23  603 604	 1492400363	 662507712	 161962.
03:39:23  604 605	 1492400363	 828414807	 165908.
03:39:23  605 606	 1492400363	 990730441	 162315.
03:39:24  606 607	 1492400364	 152707986	 161978.
03:39:24  607 608	 1492400364	 314567922	 161860.
03:39:24  608 609	 1492400364	 480775420	 166207.
03:39:24  609 610	 1492400364	 642663223	 161888.
03:39:24  610 611	 1492400364	 801185628	 158522.
03:39:24  611 612	 1492400364	 967399431	 166214.
03:39:25  612 613	 1492400365	 100661839	 133263.
03:39:25  613 614	 1492400365	 266665701	 166003.
03:39:25  614 615	 1492400365	 428814357	 162149.
03:39:25  615 616	 1492400365	 595014960	 166201.
03:39:25  616 617	 1492400365	 760988837	 165974.
03:39:25  617 618	 1492400365	 923045103	 162056.
03:39:26  618 619	 1492400366	 89122196	 166077.
03:39:26  619 620	 1492400366	 251065769	 161944.
03:39:26  620 621	 1492400366	 384404381	 133338.
03:39:26  621 622	 1492400366	 550355673	 165951.
03:39:26  622 623	 1492400366	 712529186	 162174.
03:39:26  623 624	 1492400366	 878542856	 166014.
03:39:27  624 625	 1492400367	 40459665	 161916.
03:39:27  625 626	 1492400367	 206448617	 165989.
03:39:27  626 627	 1492400367	 368361377	 161913.
03:39:27  627 628	 1492400367	 534634380	 166273.
03:39:27  628 629	 1492400367	 667759237	 133125.
03:39:27  629 630	 1492400367	 833654001	 165895.
03:39:27  630 631	 1492400367	 995558898	 161905.
03:39:28  631 632	 1492400368	 161538869	 165980.
03:39:28  632 633	 1492400368	 327543434	 166004.
03:39:28  633 634	 1492400368	 489509607	 161966.
03:39:28  634 635	 1492400368	 655385702	 165876.
03:39:28  635 636	 1492400368	 788675353	 133290.
03:39:28  636 637	 1492400368	 954691213	 166016.
03:39:29  637 638	 1492400369	 116608817	 161918.
03:39:29  638 639	 1492400369	 278700468	 162091.
03:39:29  639 640	 1492400369	 444726045	 166026.
03:39:29  640 641	 1492400369	 606467998	 161742.
03:39:29  641 642	 1492400369	 773262114	 166794.
03:39:29  642 643	 1492400369	 931152177	 157890.
03:39:30  643 644	 1492400370	 93275779	 162124.
03:39:30  644 645	 1492400370	 255268609	 161992.
03:39:30  645 646	 1492400370	 388486943	 133219.
03:39:30  646 647	 1492400370	 554464142	 165977.
03:39:30  647 648	 1492400370	 716740036	 162276.
03:39:30  648 649	 1492400370	 883320584	 166580.
03:39:31  649 650	 1492400371	 41453235	 158133.
03:39:31  650 651	 1492400371	 207539555	 166086.
03:39:31  651 652	 1492400371	 369529595	 161990.
03:39:31  652 653	 1492400371	 531867253	 162338.
03:39:31  653 654	 1492400371	 697929779	 166062.
03:39:31  654 655	 1492400371	 831277204	 133348.
03:39:31  655 656	 1492400371	 993215967	 161939.
03:39:32  656 657	 1492400372	 159080875	 165865.
03:39:32  657 658	 1492400372	 321259069	 162178.
03:39:32  658 659	 1492400372	 483353420	 162094.
03:39:32  659 660	 1492400372	 649493056	 166140.
03:39:32  660 661	 1492400372	 811555960	 162063.
03:39:32  661 662	 1492400372	 977742375	 166186.
03:39:33  662 663	 1492400373	 139716896	 161975.
03:39:33  663 664	 1492400373	 277127674	 137410.
03:39:33  664 665	 1492400373	 438981574	 161854.
03:39:33  665 666	 1492400373	 605020949	 166040.
03:39:33  666 667	 1492400373	 766985475	 161964.
03:39:33  667 668	 1492400373	 933239919	 166255.
03:39:34  668 669	 1492400374	 99441998	 166202.
03:39:34  669 670	 1492400374	 261423995	 161982.
03:39:34  670 671	 1492400374	 394672142	 133248.
03:39:34  671 672	 1492400374	 560621823	 165950.
03:39:34  672 673	 1492400374	 722565620	 161943.
03:39:34  673 674	 1492400374	 888546326	 165981.
03:39:35  674 675	 1492400375	 54559491	 166013.
03:39:35  675 676	 1492400375	 216821639	 162262.
03:39:35  676 677	 1492400375	 378886962	 162066.
03:39:35  677 678	 1492400375	 544773539	 165886.
03:39:35  678 679	 1492400375	 677879214	 133106.
03:39:35  679 680	 1492400375	 843853545	 165974.
03:39:36  680 681	 1492400376	 5870133	 162017.
03:39:36  681 682	 1492400376	 171971117	 166101.
03:39:36  682 683	 1492400376	 338019715	 166048.
03:39:36  683 684	 1492400376	 499945051	 161926.
03:39:36  684 685	 1492400376	 665849940	 165905.
03:39:36  685 686	 1492400376	 799019009	 133169.
03:39:36  686 687	 1492400376	 965022016	 166003.
03:39:37  687 688	 1492400377	 126958667	 161936.
03:39:37  688 689	 1492400377	 292932099	 165974.
03:39:37  689 690	 1492400377	 455064048	 162132.
03:39:37  690 691	 1492400377	 617445916	 162382.
03:39:37  691 692	 1492400377	 779326828	 161881.
03:39:37  692 693	 1492400377	 945298384	 165971.
03:39:38  693 694	 1492400378	 78406562	 133108.
03:39:38  694 695	 1492400378	 244540933	 166135.
03:39:38  695 696	 1492400378	 410573138	 166032.
03:39:38  696 697	 1492400378	 572483786	 161910.
03:39:38  697 698	 1492400378	 738421880	 165939.
03:39:38  698 699	 1492400378	 900445511	 162023.
03:39:39  699 700	 1492400379	 66354351	 165909.
03:39:39  700 701	 1492400379	 199475921	 133122.
03:39:39  701 702	 1492400379	 365424677	 165948.
03:39:39  702 703	 1492400379	 527355729	 161931.
03:39:39  703 704	 1492400379	 693242238	 165887.
03:39:39  704 705	 1492400379	 854995881	 161754.
03:39:40  705 706	 1492400380	 21093975	 166098.
03:39:40  706 707	 1492400380	 182908784	 161815.
03:39:40  707 708	 1492400380	 320146373	 137237.
03:39:40  708 709	 1492400380	 481946682	 161800.
03:39:40  709 710	 1492400380	 647934117	 165988.
03:39:40  710 711	 1492400380	 809824072	 161890.
03:39:40  711 712	 1492400380	 975804370	 165980.
03:39:41  712 713	 1492400381	 137841539	 162037.
03:39:41  713 714	 1492400381	 304125222	 166284.
03:39:41  714 715	 1492400381	 470024107	 165899.
03:39:41  715 716	 1492400381	 603312937	 133289.
03:39:41  716 717	 1492400381	 765398633	 162085.
03:39:41  717 718	 1492400381	 927320994	 161923.
03:39:42  718 719	 1492400382	 122761782	 195440.
03:39:42  719 720	 1492400382	 289032967	 166272.
03:39:42  720 721	 1492400382	 452363672	 163330.
03:39:42  721 722	 1492400382	 648797713	 196434.
03:39:42  722 723	 1492400382	 810643450	 161846.
03:39:42  723 724	 1492400382	 948092124	 137449.
03:39:43  724 725	 1492400383	 172120343	 224028.
03:39:43  725 726	 1492400383	 335844929	 163725.
03:39:43  726 727	 1492400383	 501970547	 166125.
03:39:43  727 728	 1492400383	 665593356	 163623.
03:39:43  728 729	 1492400383	 828122993	 162530.
03:39:43  729 730	 1492400383	 990117215	 161994.
03:39:44  730 731	 1492400384	 158024902	 167908.
03:39:44  731 732	 1492400384	 350334208	 192309.
03:39:44  732 733	 1492400384	 514334493	 164000.
03:39:44  733 734	 1492400384	 680527023	 166193.
03:39:44  734 735	 1492400384	 842608485	 162081.
03:39:45  735 736	 1492400385	 8718923	 166111.
03:39:45  736 737	 1492400385	 170712459	 161993.
03:39:45  737 738	 1492400385	 308238437	 137526.
03:39:45  738 739	 1492400385	 470244582	 162006.
03:39:45  739 740	 1492400385	 666606691	 196362.
03:39:45  740 741	 1492400385	 828518576	 161912.
03:39:45  741 742	 1492400385	 966010643	 137492.
03:39:46  742 743	 1492400386	 127943945	 161934.
03:39:46  743 744	 1492400386	 289864692	 161920.
03:39:46  744 745	 1492400386	 455764529	 165900.
03:39:46  745 746	 1492400386	 617954973	 162191.
03:39:46  746 747	 1492400386	 784079221	 166124.
03:39:46  747 748	 1492400386	 946818458	 162739.
03:39:47  748 749	 1492400387	 104976058	 158158.
03:39:47  749 750	 1492400387	 271057115	 166081.
03:39:47  750 751	 1492400387	 404203162	 133146.
03:39:47  751 752	 1492400387	 566140163	 161937.
03:39:47  752 753	 1492400387	 732070524	 165930.
03:39:47  753 754	 1492400387	 893968680	 161898.
03:39:48  754 755	 1492400388	 60068937	 166101.
03:39:48  755 756	 1492400388	 222043871	 161975.
03:39:48  756 757	 1492400388	 388396157	 166352.
03:39:48  757 758	 1492400388	 546273769	 157877.
03:39:48  758 759	 1492400388	 683492939	 137220.
03:39:48  759 760	 1492400388	 845363865	 161871.
03:39:49  760 761	 1492400389	 11209960	 165846.
03:39:49  761 762	 1492400389	 173073477	 161863.
03:39:49  762 763	 1492400389	 339204483	 166131.
03:39:49  763 764	 1492400389	 501194112	 161990.
03:39:49  764 765	 1492400389	 667185568	 165991.
03:39:49  765 766	 1492400389	 829076939	 161892.
03:39:49  766 767	 1492400389	 966498068	 137421.
03:39:50  767 768	 1492400390	 128396122	 161898.
03:39:50  768 769	 1492400390	 294406057	 166010.
03:39:50  769 770	 1492400390	 456326798	 161921.
03:39:50  770 771	 1492400390	 622243606	 165916.
03:39:50  771 772	 1492400390	 788228355	 165985.
03:39:50  772 773	 1492400390	 921428602	 133200.
03:39:51  773 774	 1492400391	 83337490	 161909.
03:39:51  774 775	 1492400391	 249509990	 166173.
03:39:51  775 776	 1492400391	 411348720	 161838.
03:39:51  776 777	 1492400391	 577392781	 166045.
03:39:51  777 778	 1492400391	 743350329	 165957.
03:39:51  778 779	 1492400391	 905223242	 161873.
03:39:52  779 780	 1492400392	 71107777	 165884.
03:39:52  780 781	 1492400392	 204479733	 133372.
03:39:52  781 782	 1492400392	 366434520	 161955.
03:39:52  782 783	 1492400392	 532456423	 166022.
03:39:52  783 784	 1492400392	 694306168	 161850.
03:39:52  784 785	 1492400392	 860194098	 165888.
03:39:53  785 786	 1492400393	 22030337	 161836.
03:39:53  786 787	 1492400393	 187936486	 165906.
03:39:53  787 788	 1492400393	 321177620	 133241.
03:39:53  788 789	 1492400393	 487123647	 165946.
03:39:53  789 790	 1492400393	 648999432	 161876.
03:39:53  790 791	 1492400393	 814874262	 165875.
03:39:53  791 792	 1492400393	 976892991	 162019.
03:39:54  792 793	 1492400394	 142846719	 165953.
03:39:54  793 794	 1492400394	 304641242	 161795.
03:39:54  794 795	 1492400394	 441848337	 137207.
03:39:54  795 796	 1492400394	 607784479	 165936.
03:39:54  796 797	 1492400394	 769654048	 161870.
03:39:54  797 798	 1492400394	 931535174	 161881.
03:39:55  798 799	 1492400395	 97470832	 165936.
03:39:55  799 800	 1492400395	 259442235	 161971.
03:39:55  800 801	 1492400395	 421622349	 162180.
03:39:55  801 802	 1492400395	 583446909	 161825.
03:39:55  802 803	 1492400395	 720620357	 137173.
03:39:55  803 804	 1492400395	 882470051	 161850.
03:39:56  804 805	 1492400396	 48298164	 165828.
03:39:56  805 806	 1492400396	 210129658	 161831.
03:39:56  806 807	 1492400396	 372013259	 161884.
03:39:56  807 808	 1492400396	 537960630	 165947.
03:39:56  808 809	 1492400396	 699833256	 161873.
03:39:56  809 810	 1492400396	 865694501	 165861.
03:39:56  810 811	 1492400396	 998963706	 133269.
03:39:57  811 812	 1492400397	 165047951	 166085.
03:39:57  812 813	 1492400397	 326879763	 161831.
03:39:57  813 814	 1492400397	 488668264	 161789.
03:39:57  814 815	 1492400397	 654600305	 165932.
03:39:57  815 816	 1492400397	 816552047	 161952.
03:39:57  816 817	 1492400397	 982446108	 165894.
03:39:58  817 818	 1492400398	 115741756	 133295.
03:39:58  818 819	 1492400398	 281639229	 165898.
03:39:58  819 820	 1492400398	 443466946	 161828.
03:39:58  820 821	 1492400398	 609435367	 165968.
03:39:58  821 822	 1492400398	 771266506	 161831.
03:39:58  822 823	 1492400398	 932921981	 161656.
03:39:59  823 824	 1492400399	 98898517	 165976.
03:39:59  824 825	 1492400399	 231896382	 132998.
03:39:59  825 826	 1492400399	 397557460	 165661.
03:39:59  826 827	 1492400399	 559381413	 161824.
03:39:59  827 828	 1492400399	 721106577	 161725.
03:39:59  828 829	 1492400399	 887018165	 165912.
03:40:00  829 830	 1492400400	 48868415	 161850.
03:40:00  830 831	 1492400400	 214833356	 165965.
03:40:00  831 832	 1492400400	 348022503	 133189.
03:40:00  832 833	 1492400400	 509946626	 161924.
03:40:00  833 834	 1492400400	 675916349	 165970.
03:40:00  834 835	 1492400400	 837922569	 162006.
03:40:00  835 836	 1492400400	 999883807	 161962.
03:40:01  836 837	 1492400401	 165910526	 166026.
03:40:01  837 838	 1492400401	 327587370	 161677.
03:40:01  838 839	 1492400401	 489712391	 162125.
03:40:01  839 840	 1492400401	 623030744	 133318.
03:40:01  840 841	 1492400401	 789215274	 166185.
03:40:01  841 842	 1492400401	 951177965	 161963.
03:40:02  842 843	 1492400402	 117503171	 166325.
03:40:02  843 844	 1492400402	 279546535	 162043.
03:40:02  844 845	 1492400402	 441542155	 161996.
03:40:02  845 846	 1492400402	 603311222	 161769.
03:40:02  846 847	 1492400402	 769472181	 166161.
03:40:02  847 848	 1492400402	 931495473	 162023.
03:40:03  848 849	 1492400403	 97599020	 166104.
03:40:03  849 850	 1492400403	 230757970	 133159.
03:40:03  850 851	 1492400403	 396701767	 165943.
03:40:03  851 852	 1492400403	 558752916	 162052.
03:40:03  852 853	 1492400403	 724826039	 166073.
03:40:03  853 854	 1492400403	 895923252	 171097.
03:40:04  854 855	 1492400404	 41360221	 145437.
03:40:04  855 856	 1492400404	 203744183	 162384.
03:40:04  856 857	 1492400404	 365668958	 161925.
03:40:04  857 858	 1492400404	 531717790	 166049.
03:40:04  858 859	 1492400404	 664841927	 133124.
03:40:04  859 860	 1492400404	 830657914	 165816.
03:40:04  860 861	 1492400404	 992560829	 161903.
03:40:05  861 862	 1492400405	 154914372	 162353.
03:40:05  862 863	 1492400405	 316781340	 161867.
03:40:05  863 864	 1492400405	 482799461	 166018.
03:40:05  864 865	 1492400405	 644815418	 162016.
03:40:05  865 866	 1492400405	 810943685	 166129.
03:40:05  866 867	 1492400405	 944215288	 133271.
03:40:06  867 868	 1492400406	 110333049	 166118.
03:40:06  868 869	 1492400406	 272354889	 162022.
03:40:06  869 870	 1492400406	 434285133	 161930.
03:40:06  870 871	 1492400406	 600360378	 166075.
03:40:06  871 872	 1492400406	 762470353	 162110.
03:40:06  872 873	 1492400406	 928459852	 165990.
03:40:07  873 874	 1492400407	 90477663	 162017.
03:40:07  874 875	 1492400407	 227811658	 137334.
03:40:07  875 876	 1492400407	 389736607	 161925.
03:40:07  876 877	 1492400407	 551657124	 161921.
03:40:07  877 878	 1492400407	 717663446	 166006.
03:40:07  878 879	 1492400407	 879876052	 162213.
03:40:08  879 880	 1492400408	 41956388	 162080.
03:40:08  880 881	 1492400408	 208124538	 166168.
03:40:08  881 882	 1492400408	 345389662	 137265.
03:40:08  882 883	 1492400408	 507547394	 162158.
03:40:08  883 884	 1492400408	 665972387	 158425.
03:40:08  884 885	 1492400408	 832055537	 166083.
03:40:08  885 886	 1492400408	 998288778	 166234.
03:40:09  886 887	 1492400409	 160255067	 161966.
03:40:09  887 888	 1492400409	 326218969	 165964.
03:40:09  888 889	 1492400409	 488151261	 161932.
03:40:09  889 890	 1492400409	 625580985	 137430.
03:40:09  890 891	 1492400409	 787572163	 161991.
03:40:09  891 892	 1492400409	 949552548	 161980.
03:40:10  892 893	 1492400410	 115559273	 166007.
03:40:10  893 894	 1492400410	 281491184	 165932.
03:40:10  894 895	 1492400410	 443532925	 162042.
03:40:10  895 896	 1492400410	 609684543	 166151.
03:40:10  896 897	 1492400410	 743010612	 133326.
03:40:10  897 898	 1492400410	 908960708	 165950.
03:40:11  898 899	 1492400411	 71011926	 162052.
03:40:11  899 900	 1492400411	 237121706	 166109.
03:40:11  900 901	 1492400411	 399092111	 161971.
03:40:11  901 902	 1492400411	 565152734	 166060.
03:40:11  902 903	 1492400411	 727259854	 162108.
03:40:11  903 904	 1492400411	 890018222	 162758.
03:40:12  904 905	 1492400412	 52254442	 162236.
03:40:12  905 906	 1492400412	 214236236	 161982.
03:40:12  906 907	 1492400412	 351654614	 137418.
03:40:12  907 908	 1492400412	 514040839	 162387.
03:40:12  908 909	 1492400412	 680057047	 166016.
03:40:12  909 910	 1492400412	 842105521	 162048.
03:40:12  910 911	 1492400413	 4083757	 161978.
03:40:13  911 912	 1492400413	 170002703	 165919.
03:40:13  912 913	 1492400413	 332011027	 162009.
03:40:13  913 914	 1492400413	 497992925	 165982.
03:40:13  914 915	 1492400413	 659980547	 161987.
03:40:13  915 916	 1492400413	 797347091	 137367.
03:40:13  916 917	 1492400413	 959334984	 161988.
03:40:14  917 918	 1492400414	 121396138	 162061.
03:40:14  918 919	 1492400414	 283357190	 161961.
03:40:14  919 920	 1492400414	 449334124	 165977.
03:40:14  920 921	 1492400414	 611201216	 161867.
03:40:14  921 922	 1492400414	 777061539	 165860.
03:40:14  922 923	 1492400414	 938923959	 161863.
03:40:15  923 924	 1492400415	 72336165	 133412.
03:40:15  924 925	 1492400415	 238509603	 166173.
03:40:15  925 926	 1492400415	 396319582	 157810.
03:40:15  926 927	 1492400415	 562240613	 165921.
03:40:15  927 928	 1492400415	 724084060	 161844.
03:40:15  928 929	 1492400415	 886410754	 162326.
03:40:16  929 930	 1492400416	 48843261	 162433.
03:40:16  930 931	 1492400416	 210925455	 162082.
03:40:16  931 932	 1492400416	 372832389	 161907.
03:40:16  932 933	 1492400416	 538829482	 165997.
03:40:16  933 934	 1492400416	 700776732	 161947.
03:40:16  934 935	 1492400416	 833862620	 133086.
03:40:16  935 936	 1492400416	 995902812	 162041.
03:40:17  936 937	 1492400417	 157959286	 162056.
03:40:17  937 938	 1492400417	 323806142	 165847.
03:40:17  938 939	 1492400417	 485639643	 161833.
03:40:17  939 940	 1492400417	 647732006	 162093.
03:40:17  940 941	 1492400417	 809769220	 162037.
03:40:17  941 942	 1492400417	 975711856	 165943.
03:40:18  942 943	 1492400418	 137521568	 161809.
03:40:18  943 944	 1492400418	 274696743	 137175.
03:40:18  944 945	 1492400418	 436662983	 161967.
03:40:18  945 946	 1492400418	 598462632	 161799.
03:40:18  946 947	 1492400418	 764473769	 166011.
03:40:18  947 948	 1492400418	 926181236	 161708.
03:40:19  948 949	 1492400419	 85060455	 158879.
03:40:19  949 950	 1492400419	 246844901	 161785.
03:40:19  950 951	 1492400419	 408947871	 162103.
03:40:19  951 952	 1492400419	 574979228	 166031.
03:40:19  952 953	 1492400419	 736948431	 161969.
03:40:19  953 954	 1492400419	 874339859	 137392.
03:40:20  954 955	 1492400420	 36373948	 162034.
03:40:20  955 956	 1492400420	 202349774	 165975.
03:40:20  956 957	 1492400420	 364146103	 161797.
03:40:20  957 958	 1492400420	 530144982	 165999.
03:40:20  958 959	 1492400420	 692008666	 161863.
03:40:20  959 960	 1492400420	 857946525	 165938.
03:40:21  960 961	 1492400421	 16592507	 158646.
03:40:21  961 962	 1492400421	 182538600	 165946.
03:40:21  962 963	 1492400421	 315744581	 133206.
03:40:21  963 964	 1492400421	 481888609	 166144.
03:40:21  964 965	 1492400421	 643756110	 161868.
03:40:21  965 966	 1492400421	 805892533	 162136.
03:40:21  966 967	 1492400421	 967636452	 161744.
03:40:22  967 968	 1492400422	 129915654	 162279.
03:40:22  968 969	 1492400422	 295953080	 166038.
03:40:22  969 970	 1492400422	 457833278	 161880.
03:40:22  970 971	 1492400422	 623875281	 166042.
03:40:22  971 972	 1492400422	 757072336	 133197.
03:40:22  972 973	 1492400422	 918917053	 161845.
03:40:23  973 974	 1492400423	 85008504	 166091.
03:40:23  974 975	 1492400423	 247068642	 162060.
03:40:23  975 976	 1492400423	 408930384	 161862.
03:40:23  976 977	 1492400423	 574758265	 165828.
03:40:23  977 978	 1492400423	 736387992	 161630.
03:40:23  978 979	 1492400423	 869599721	 133211.
03:40:24  979 980	 1492400424	 35633100	 166034.
03:40:24  980 981	 1492400424	 197485302	 161852.
03:40:24  981 982	 1492400424	 363365736	 165880.
03:40:24  982 983	 1492400424	 525363315	 161998.
03:40:24  983 984	 1492400424	 691323988	 165961.
03:40:24  984 985	 1492400424	 853189638	 161865.
03:40:24  985 986	 1492400424	 990301554	 137112.
03:40:25  986 987	 1492400425	 152165590	 161864.
03:40:25  987 988	 1492400425	 318037694	 165872.
03:40:25  988 989	 1492400425	 479756053	 161719.
03:40:25  989 990	 1492400425	 645732590	 165976.
03:40:25  990 991	 1492400425	 807633222	 161901.
03:40:25  991 992	 1492400425	 973563597	 165930.
03:40:26  992 993	 1492400426	 135521486	 161958.
03:40:26  993 994	 1492400426	 268614526	 133093.
03:40:26  994 995	 1492400426	 434429155	 165815.
03:40:26  995 996	 1492400426	 596392190	 161963.
03:40:26  996 997	 1492400426	 762236453	 165844.
03:40:26  997 998	 1492400426	 928131548	 165895.
03:40:27  998 999	 1492400427	 86447141	 158316.
03:40:27  999 1000	 1492400427	 252411251	 165964.
03:40:27 1000 1001	 1492400427	 414286055	 161875.
03:40:27 1001 1002	 1492400427	 576472516	 162186.
03:40:27 1002 1003	 1492400427	 713723771	 137251.
03:40:27 1003 1004	 1492400427	 875577636	 161855.
03:40:28 1004 1005	 1492400428	 37346290	 161768.
03:40:28 1005 1006	 1492400428	 203485835	 166140.
03:40:28 1006 1007	 1492400428	 369504913	 166019.
03:40:28 1007 1008	 1492400428	 531406531	 161901.
03:40:28 1008 1009	 1492400428	 697289697	 165883.
03:40:28 1009 1010	 1492400428	 859120402	 161831.
03:40:28 1010 1011	 1492400428	 992434115	 133314.
03:40:29 1011 1012	 1492400429	 158390422	 165956.
03:40:29 1012 1013	 1492400429	 320338552	 161948.
03:40:29 1013 1014	 1492400429	 486365855	 166028.
03:40:29 1014 1015	 1492400429	 648212282	 161846.
03:40:29 1015 1016	 1492400429	 814032379	 165820.
03:40:29 1016 1017	 1492400429	 976193546	 162161.
03:40:30 1017 1018	 1492400430	 138149285	 161956.
03:40:30 1018 1019	 1492400430	 271355668	 133206.
03:40:30 1019 1020	 1492400430	 437217767	 165862.
03:40:30 1020 1021	 1492400430	 599073103	 161856.
03:40:30 1021 1022	 1492400430	 764933105	 165860.
03:40:30 1022 1023	 1492400430	 926741137	 161808.
03:40:31 1023 1024	 1492400431	 92608109	 165867.
03:40:31 1024 1025	 1492400431	 254668732	 162060.
03:40:31 1025 1026	 1492400431	 420588537	 165920.
03:40:31 1026 1027	 1492400431	 553692043	 133104.
03:40:31 1027 1028	 1492400431	 719665541	 165973.
03:40:31 1028 1029	 1492400431	 881674630	 162009.
03:40:32 1029 1030	 1492400432	 44153686	 162479.
03:40:32 1030 1031	 1492400432	 206520143	 162367.
03:40:32 1031 1032	 1492400432	 368337216	 161817.
03:40:32 1032 1033	 1492400432	 530150041	 161813.
03:40:32 1033 1034	 1492400432	 696130473	 165980.
03:40:32 1034 1035	 1492400432	 862084923	 165955.
03:40:33 1035 1036	 1492400433	 23919756	 161835.
03:40:33 1036 1037	 1492400433	 157275125	 133355.
03:40:33 1037 1038	 1492400433	 319540271	 162265.
03:40:33 1038 1039	 1492400433	 481388999	 161849.
03:40:33 1039 1040	 1492400433	 647341021	 165952.
03:40:33 1040 1041	 1492400433	 813103807	 165763.
03:40:33 1041 1042	 1492400433	 975024439	 161920.
03:40:34 1042 1043	 1492400434	 140987653	 165963.
03:40:34 1043 1044	 1492400434	 302699966	 161713.
03:40:34 1044 1045	 1492400434	 435819274	 133119.
03:40:34 1045 1046	 1492400434	 601846833	 166028.
03:40:34 1046 1047	 1492400434	 763661015	 161814.
03:40:34 1047 1048	 1492400434	 929477155	 165816.
03:40:35 1048 1049	 1492400435	 91178908	 161702.
03:40:35 1049 1050	 1492400435	 257222860	 166044.
03:40:35 1050 1051	 1492400435	 419058040	 161835.
03:40:35 1051 1052	 1492400435	 581202729	 162144.
03:40:35 1052 1053	 1492400435	 714335132	 133133.
03:40:35 1053 1054	 1492400435	 876641494	 162306.
03:40:36 1054 1055	 1492400436	 42383675	 165742.
03:40:36 1055 1056	 1492400436	 204107528	 161724.
03:40:36 1056 1057	 1492400436	 369849882	 165743.
03:40:36 1057 1058	 1492400436	 531623910	 161774.
03:40:36 1058 1059	 1492400436	 693451727	 161827.
03:40:36 1059 1060	 1492400436	 830607207	 137156.
03:40:36 1060 1061	 1492400436	 992479586	 161872.
03:40:37 1061 1062	 1492400437	 158300036	 165821.
03:40:37 1062 1063	 1492400437	 320168950	 161869.
03:40:37 1063 1064	 1492400437	 486431958	 166263.
03:40:37 1064 1065	 1492400437	 648269809	 161838.
03:40:37 1065 1066	 1492400437	 810603110	 162333.
03:40:37 1066 1067	 1492400437	 972550094	 161947.
03:40:38 1067 1068	 1492400438	 138402966	 165853.
03:40:38 1068 1069	 1492400438	 271503956	 133101.
03:40:38 1069 1070	 1492400438	 437374267	 165870.
03:40:38 1070 1071	 1492400438	 599262747	 161888.
03:40:38 1071 1072	 1492400438	 765281652	 166019.
03:40:38 1072 1073	 1492400438	 927173228	 161892.
03:40:39 1073 1074	 1492400439	 93128653	 165955.
03:40:39 1074 1075	 1492400439	 255354191	 162226.
03:40:39 1075 1076	 1492400439	 417114618	 161760.
03:40:39 1076 1077	 1492400439	 550336658	 133222.
03:40:39 1077 1078	 1492400439	 716412077	 166076.
03:40:39 1078 1079	 1492400439	 878234669	 161822.
03:40:40 1079 1080	 1492400440	 44193544	 165959.
03:40:40 1080 1081	 1492400440	 206029099	 161836.
03:40:40 1081 1082	 1492400440	 367895443	 161866.
03:40:40 1082 1083	 1492400440	 533886221	 165991.
03:40:40 1083 1084	 1492400440	 695727748	 161841.
03:40:40 1084 1085	 1492400440	 861612050	 165885.
03:40:40 1085 1086	 1492400440	 994829265	 133217.
03:40:41 1086 1087	 1492400441	 156807298	 161978.
03:40:41 1087 1088	 1492400441	 322699003	 165892.
03:40:41 1088 1089	 1492400441	 484616005	 161917.
03:40:41 1089 1090	 1492400441	 650519150	 165903.
03:40:41 1090 1091	 1492400441	 812298220	 161779.
03:40:41 1091 1092	 1492400441	 978032644	 165734.
03:40:42 1092 1093	 1492400442	 111209284	 133177.
03:40:42 1093 1094	 1492400442	 277211743	 166002.
03:40:42 1094 1095	 1492400442	 439069719	 161858.
03:40:42 1095 1096	 1492400442	 605031307	 165962.
03:40:42 1096 1097	 1492400442	 766843425	 161812.
03:40:42 1097 1098	 1492400442	 928702682	 161859.
03:40:43 1098 1099	 1492400443	 94572510	 165870.
03:40:43 1099 1100	 1492400443	 227765667	 133193.
03:40:43 1100 1101	 1492400443	 393698266	 165933.
03:40:43 1101 1102	 1492400443	 551619329	 157921.
03:40:43 1102 1103	 1492400443	 717427960	 165809.
03:40:43 1103 1104	 1492400443	 879191273	 161763.
03:40:44 1104 1105	 1492400444	 45060708	 165869.
03:40:44 1105 1106	 1492400444	 206810940	 161751.
03:40:44 1106 1107	 1492400444	 372599493	 165788.
03:40:44 1107 1108	 1492400444	 505787869	 133189.
03:40:44 1108 1109	 1492400444	 671753027	 165965.
03:40:44 1109 1110	 1492400444	 833703444	 161950.
03:40:44 1110 1111	 1492400444	 999601620	 165898.
03:40:45 1111 1112	 1492400445	 161620694	 162019.
03:40:45 1112 1113	 1492400445	 327606813	 165987.
03:40:45 1113 1114	 1492400445	 493569189	 165962.
03:40:45 1114 1115	 1492400445	 626838979	 133270.
03:40:45 1115 1116	 1492400445	 789319762	 162481.
03:40:45 1116 1117	 1492400445	 947653359	 158333.
03:40:46 1117 1118	 1492400446	 109525735	 161872.
03:40:46 1118 1119	 1492400446	 275442959	 165918.
03:40:46 1119 1120	 1492400446	 433895918	 158453.
03:40:46 1120 1121	 1492400446	 595855693	 161959.
03:40:46 1121 1122	 1492400446	 761766700	 165911.
03:40:46 1122 1123	 1492400446	 923526653	 161760.
03:40:47 1123 1124	 1492400447	 89586740	 166060.
03:40:47 1124 1125	 1492400447	 251428944	 161843.
03:40:47 1125 1126	 1492400447	 388690130	 137261.
03:40:47 1126 1127	 1492400447	 550643418	 161953.
03:40:47 1127 1128	 1492400447	 712778361	 162135.
03:40:47 1128 1129	 1492400447	 874800122	 162022.
03:40:48 1129 1130	 1492400448	 40821063	 166021.
03:40:48 1130 1131	 1492400448	 202789996	 161969.
03:40:48 1131 1132	 1492400448	 369169194	 166379.
03:40:48 1132 1133	 1492400448	 531135527	 161966.
03:40:48 1133 1134	 1492400448	 692983228	 161848.
03:40:48 1134 1135	 1492400448	 830310436	 137327.
03:40:48 1135 1136	 1492400448	 992227624	 161917.
03:40:49 1136 1137	 1492400449	 158208347	 165981.
03:40:49 1137 1138	 1492400449	 320145714	 161937.
03:40:49 1138 1139	 1492400449	 482263681	 162118.
03:40:49 1139 1140	 1492400449	 648320370	 166057.
03:40:49 1140 1141	 1492400449	 810275012	 161955.
03:40:49 1141 1142	 1492400449	 975979965	 165705.
03:40:50 1142 1143	 1492400450	 109029482	 133049.
03:40:50 1143 1144	 1492400450	 270972610	 161943.
03:40:50 1144 1145	 1492400450	 436953702	 165981.
03:40:50 1145 1146	 1492400450	 598868411	 161915.
03:40:50 1146 1147	 1492400450	 764800142	 165932.
03:40:50 1147 1148	 1492400450	 926868701	 162068.
03:40:51 1148 1149	 1492400451	 88681421	 161813.
03:40:51 1149 1150	 1492400451	 254948266	 166267.
03:40:51 1150 1151	 1492400451	 417111234	 162163.
03:40:51 1151 1152	 1492400451	 583007480	 165896.
03:40:51 1152 1153	 1492400451	 716389804	 133383.
03:40:51 1153 1154	 1492400451	 878268096	 161878.
03:40:52 1154 1155	 1492400452	 40179992	 161912.
03:40:52 1155 1156	 1492400452	 206003156	 165823.
03:40:52 1156 1157	 1492400452	 367806802	 161804.
03:40:52 1157 1158	 1492400452	 533724899	 165918.
03:40:52 1158 1159	 1492400452	 695776603	 162051.
03:40:52 1159 1160	 1492400452	 832947852	 137172.
03:40:52 1160 1161	 1492400452	 994888048	 161940.
03:40:53 1161 1162	 1492400453	 160987007	 166099.
03:40:53 1162 1163	 1492400453	 322738340	 161751.
03:40:53 1163 1164	 1492400453	 488700093	 165962.
03:40:53 1164 1165	 1492400453	 650606203	 161906.
03:40:53 1165 1166	 1492400453	 816518679	 165912.
03:40:53 1166 1167	 1492400453	 978311039	 161793.
03:40:54 1167 1168	 1492400454	 111448447	 133137.
03:40:54 1168 1169	 1492400454	 277327263	 165879.
03:40:54 1169 1170	 1492400454	 443188955	 165862.
03:40:54 1170 1171	 1492400454	 605218531	 162029.
03:40:54 1171 1172	 1492400454	 767028874	 161811.
03:40:54 1172 1173	 1492400454	 933836660	 166807.
03:40:55 1173 1174	 1492400455	 91733157	 157897.
03:40:55 1174 1175	 1492400455	 253674028	 161941.
03:40:55 1175 1176	 1492400455	 419681462	 166007.
03:40:55 1176 1177	 1492400455	 552874555	 133193.
03:40:55 1177 1178	 1492400455	 718919374	 166045.
03:40:55 1178 1179	 1492400455	 880930034	 162011.
03:40:56 1179 1180	 1492400456	 46922754	 165992.
03:40:56 1180 1181	 1492400456	 208679264	 161757.
03:40:56 1181 1182	 1492400456	 374698090	 166019.
03:40:56 1182 1183	 1492400456	 540666063	 165968.
03:40:56 1183 1184	 1492400456	 673778319	 133112.
03:40:56 1184 1185	 1492400456	 835663882	 161886.
03:40:56 1185 1186	 1492400457	 1682418	 166018.
03:40:57 1186 1187	 1492400457	 163596312	 161914.
03:40:57 1187 1188	 1492400457	 329424746	 165828.
03:40:57 1188 1189	 1492400457	 491332157	 161908.
03:40:57 1189 1190	 1492400457	 657431608	 166099.
03:40:57 1190 1191	 1492400457	 819474950	 162044.
03:40:57 1191 1192	 1492400457	 952507301	 133032.
03:40:58 1192 1193	 1492400458	 118365869	 165859.
03:40:58 1193 1194	 1492400458	 280312326	 161946.
03:40:58 1194 1195	 1492400458	 446397546	 166085.
03:40:58 1195 1196	 1492400458	 608367977	 161971.
03:40:58 1196 1197	 1492400458	 770274430	 161906.
03:40:58 1197 1198	 1492400458	 936175084	 165901.
03:40:59 1198 1199	 1492400459	 97986486	 161811.
03:40:59 1199 1200	 1492400459	 264196610	 166210.
03:40:59 1200 1201	 1492400459	 426150253	 161954.
03:40:59 1201 1202	 1492400459	 559148472	 132998.
03:40:59 1202 1203	 1492400459	 725025737	 165877.
03:40:59 1203 1204	 1492400459	 886959342	 161934.
03:41:00 1204 1205	 1492400460	 53060465	 166101.
03:41:00 1205 1206	 1492400460	 214972757	 161912.
03:41:00 1206 1207	 1492400460	 381014303	 166042.
03:41:00 1207 1208	 1492400460	 542927903	 161914.
03:41:00 1208 1209	 1492400460	 704825994	 161898.
03:41:00 1209 1210	 1492400460	 842077116	 137251.
03:41:00 1210 1211	 1492400461	 3997505	 161920.
03:41:01 1211 1212	 1492400461	 170102077	 166105.
03:41:01 1212 1213	 1492400461	 332078086	 161976.
03:41:01 1213 1214	 1492400461	 498030352	 165952.
03:41:01 1214 1215	 1492400461	 659858260	 161828.
03:41:01 1215 1216	 1492400461	 825803125	 165945.
03:41:01 1216 1217	 1492400461	 958949623	 133146.
03:41:02 1217 1218	 1492400462	 124998370	 166049.
03:41:02 1218 1219	 1492400462	 286941409	 161943.
03:41:02 1219 1220	 1492400462	 452832943	 165892.
03:41:02 1220 1221	 1492400462	 614724039	 161891.
03:41:02 1221 1222	 1492400462	 780749844	 166026.
03:41:02 1222 1223	 1492400462	 942594945	 161845.
03:41:03 1223 1224	 1492400463	 79902440	 137307.
03:41:03 1224 1225	 1492400463	 241843358	 161941.
03:41:03 1225 1226	 1492400463	 408050865	 166208.
03:41:03 1226 1227	 1492400463	 569844855	 161794.
03:41:03 1227 1228	 1492400463	 735585640	 165740.
03:41:03 1228 1229	 1492400463	 897429437	 161844.
03:41:04 1229 1230	 1492400464	 63501915	 166073.
03:41:04 1230 1231	 1492400464	 196681038	 133179.
03:41:04 1231 1232	 1492400464	 362682678	 166001.
03:41:04 1232 1233	 1492400464	 524526207	 161844.
03:41:04 1233 1234	 1492400464	 690530080	 166004.
03:41:04 1234 1235	 1492400464	 852494171	 161964.
03:41:05 1235 1236	 1492400465	 18501831	 166008.
03:41:05 1236 1237	 1492400465	 180421482	 161919.
03:41:05 1237 1238	 1492400465	 346347835	 165927.
03:41:05 1238 1239	 1492400465	 479693349	 133345.
03:41:05 1239 1240	 1492400465	 645803458	 166110.
03:41:05 1240 1241	 1492400465	 807748543	 161945.
03:41:05 1241 1242	 1492400465	 969752071	 162004.
03:41:06 1242 1243	 1492400466	 135712668	 165960.
03:41:06 1243 1244	 1492400466	 297615884	 161904.
03:41:06 1244 1245	 1492400466	 459876684	 162260.
03:41:06 1245 1246	 1492400466	 621963623	 162087.
03:41:06 1246 1247	 1492400466	 787715204	 165752.
03:41:06 1247 1248	 1492400466	 921061021	 133346.
03:41:07 1248 1249	 1492400467	 83045617	 161984.
03:41:07 1249 1250	 1492400467	 249211509	 166166.
03:41:07 1250 1251	 1492400467	 411044220	 161833.
03:41:07 1251 1252	 1492400467	 576761712	 165717.
03:41:07 1252 1253	 1492400467	 742588819	 165828.
03:41:07 1253 1254	 1492400467	 904660359	 162071.
03:41:08 1254 1255	 1492400468	 38020875	 133361.
03:41:08 1255 1256	 1492400468	 204108257	 166087.
03:41:08 1256 1257	 1492400468	 366146342	 162038.
03:41:08 1257 1258	 1492400468	 532080427	 165934.
03:41:08 1258 1259	 1492400468	 698205955	 166126.
03:41:08 1259 1260	 1492400468	 860126554	 161920.
03:41:09 1260 1261	 1492400469	 26240154	 166114.
03:41:09 1261 1262	 1492400469	 159445796	 133206.
03:41:09 1262 1263	 1492400469	 322007366	 162561.
03:41:09 1263 1264	 1492400469	 483980327	 161973.
03:41:09 1264 1265	 1492400469	 646018208	 162038.
03:41:09 1265 1266	 1492400469	 812214903	 166197.
03:41:09 1266 1267	 1492400469	 978511827	 166297.
03:41:10 1267 1268	 1492400470	 140626059	 162114.
03:41:10 1268 1269	 1492400470	 302682285	 162056.
03:41:10 1269 1270	 1492400470	 440011573	 137329.
03:41:10 1270 1271	 1492400470	 606168933	 166158.
03:41:10 1271 1272	 1492400470	 767887338	 161718.
03:41:10 1272 1273	 1492400470	 929845337	 161958.
03:41:11 1273 1274	 1492400471	 95931286	 166086.
03:41:11 1274 1275	 1492400471	 257885149	 161954.
03:41:11 1275 1276	 1492400471	 423930766	 166045.
03:41:11 1276 1277	 1492400471	 586052310	 162122.
03:41:11 1277 1278	 1492400471	 723726469	 137674.
03:41:11 1278 1279	 1492400471	 886567484	 162841.
03:41:12 1279 1280	 1492400472	 48646903	 162080.
03:41:12 1280 1281	 1492400472	 210631219	 161984.
03:41:12 1281 1282	 1492400472	 376852428	 166221.
03:41:12 1282 1283	 1492400472	 538837211	 161985.
03:41:12 1283 1284	 1492400472	 705088858	 166252.
03:41:12 1284 1285	 1492400472	 867176853	 162088.
03:41:13 1285 1286	 1492400473	 33382525	 166205.
03:41:13 1286 1287	 1492400473	 166666975	 133285.
03:41:13 1287 1288	 1492400473	 328894226	 162227.
03:41:13 1288 1289	 1492400473	 494890906	 165997.
03:41:13 1289 1290	 1492400473	 656808550	 161917.
03:41:13 1290 1291	 1492400473	 822760783	 165953.
03:41:13 1291 1292	 1492400473	 984693516	 161932.
03:41:14 1292 1293	 1492400474	 150661923	 165969.
03:41:14 1293 1294	 1492400474	 316601257	 165939.
03:41:14 1294 1295	 1492400474	 449757369	 133156.
03:41:14 1295 1296	 1492400474	 611636337	 161879.
03:41:14 1296 1297	 1492400474	 777746272	 166110.
03:41:14 1297 1298	 1492400474	 939648218	 161902.
03:41:15 1298 1299	 1492400475	 105758688	 166110.
03:41:15 1299 1300	 1492400475	 267688071	 161930.
03:41:15 1300 1301	 1492400475	 433681328	 165993.
03:41:15 1301 1302	 1492400475	 595480994	 161800.
03:41:15 1302 1303	 1492400475	 732548520	 137067.
03:41:15 1303 1304	 1492400475	 894429664	 161881.
03:41:16 1304 1305	 1492400476	 56282450	 161853.
03:41:16 1305 1306	 1492400476	 222216554	 165934.
03:41:16 1306 1307	 1492400476	 388205796	 165990.
03:41:16 1307 1308	 1492400476	 550306593	 162100.
03:41:16 1308 1309	 1492400476	 712165447	 161859.
03:41:16 1309 1310	 1492400476	 849584678	 137419.
03:41:17 1310 1311	 1492400477	 11554291	 161970.
03:41:17 1311 1312	 1492400477	 177867311	 166313.
03:41:17 1312 1313	 1492400477	 339806766	 161939.
03:41:17 1313 1314	 1492400477	 505894873	 166089.
03:41:17 1314 1315	 1492400477	 667985420	 162090.
03:41:17 1315 1316	 1492400477	 829837812	 161853.
03:41:17 1316 1317	 1492400477	 966864965	 137027.
03:41:18 1317 1318	 1492400478	 128530894	 161666.
03:41:18 1318 1319	 1492400478	 294361827	 165831.
03:41:18 1319 1320	 1492400478	 460447648	 166085.
03:41:18 1320 1321	 1492400478	 622305782	 161859.
03:41:18 1321 1322	 1492400478	 784259837	 161954.
03:41:18 1322 1323	 1492400478	 950222275	 165962.
03:41:19 1323 1324	 1492400479	 83255277	 133033.
03:41:19 1324 1325	 1492400479	 249082012	 165827.
03:41:19 1325 1326	 1492400479	 415052922	 165971.
03:41:19 1326 1327	 1492400479	 576800099	 161747.
03:41:19 1327 1328	 1492400479	 742591198	 165791.
03:41:19 1328 1329	 1492400479	 904414411	 161823.
03:41:20 1329 1330	 1492400480	 70471221	 166057.
03:41:20 1330 1331	 1492400480	 203721141	 133250.
03:41:20 1331 1332	 1492400480	 365664625	 161943.
03:41:20 1332 1333	 1492400480	 531738186	 166074.
03:41:20 1333 1334	 1492400480	 698223065	 166485.
03:41:20 1334 1335	 1492400480	 856084749	 157861.
03:41:21 1335 1336	 1492400481	 22061006	 165977.
03:41:21 1336 1337	 1492400481	 184121737	 162060.
03:41:21 1337 1338	 1492400481	 346051693	 161931.
03:41:21 1338 1339	 1492400481	 483328938	 137277.
03:41:21 1339 1340	 1492400481	 645285126	 161956.
03:41:21 1340 1341	 1492400481	 811202840	 165918.
03:41:21 1341 1342	 1492400481	 973258755	 162055.
03:41:22 1342 1343	 1492400482	 135247011	 161989.
03:41:22 1343 1344	 1492400482	 301076754	 165830.
03:41:22 1344 1345	 1492400482	 462939567	 161862.
03:41:22 1345 1346	 1492400482	 600128035	 137189.
03:41:22 1346 1347	 1492400482	 762040192	 161912.
03:41:22 1347 1348	 1492400482	 928014727	 165974.
03:41:23 1348 1349	 1492400483	 90158400	 162144.
03:41:23 1349 1350	 1492400483	 252145544	 161987.
03:41:23 1350 1351	 1492400483	 418336718	 166191.
03:41:23 1351 1352	 1492400483	 580261837	 161926.
03:41:23 1352 1353	 1492400483	 746139089	 165877.
03:41:23 1353 1354	 1492400483	 907949735	 161811.
03:41:24 1354 1355	 1492400484	 41247378	 133297.
03:41:24 1355 1356	 1492400484	 207267077	 166020.
03:41:24 1356 1357	 1492400484	 369099402	 161832.
03:41:24 1357 1358	 1492400484	 535032456	 165933.
03:41:24 1358 1359	 1492400484	 696967326	 161935.
03:41:24 1359 1360	 1492400484	 863002350	 166035.
03:41:25 1360 1361	 1492400485	 24974118	 161972.
03:41:25 1361 1362	 1492400485	 162097785	 137124.
03:41:25 1362 1363	 1492400485	 323981958	 161884.
03:41:25 1363 1364	 1492400485	 490029448	 166047.
03:41:25 1364 1365	 1492400485	 648640133	 158611.
03:41:25 1365 1366	 1492400485	 810700621	 162060.
03:41:25 1366 1367	 1492400485	 972703998	 162004.
03:41:26 1367 1368	 1492400486	 138669500	 165965.
03:41:26 1368 1369	 1492400486	 300394721	 161725.
03:41:26 1369 1370	 1492400486	 466262502	 165868.
03:41:26 1370 1371	 1492400486	 599443761	 133181.
03:41:26 1371 1372	 1492400486	 761227106	 161784.
03:41:26 1372 1373	 1492400486	 923701352	 162474.
03:41:27 1373 1374	 1492400487	 89663961	 165963.
03:41:27 1374 1375	 1492400487	 251691509	 162027.
03:41:27 1375 1376	 1492400487	 417679744	 165988.
03:41:27 1376 1377	 1492400487	 579659197	 161980.
03:41:27 1377 1378	 1492400487	 741601811	 161943.
03:41:27 1378 1379	 1492400487	 878848598	 137246.
03:41:28 1379 1380	 1492400488	 40932796	 162085.
03:41:28 1380 1381	 1492400488	 206892804	 165960.
03:41:28 1381 1382	 1492400488	 368724390	 161831.
03:41:28 1382 1383	 1492400488	 534708320	 165984.
03:41:28 1383 1384	 1492400488	 696503950	 161796.
03:41:28 1384 1385	 1492400488	 865429391	 168925.
03:41:29 1385 1386	 1492400489	 6649961	 141221.
03:41:29 1386 1387	 1492400489	 168484160	 161834.
03:41:29 1387 1388	 1492400489	 334517816	 166034.
03:41:29 1388 1389	 1492400489	 496568816	 162051.
03:41:29 1389 1390	 1492400489	 658265369	 161696.
03:41:29 1390 1391	 1492400489	 824151588	 165886.
03:41:29 1391 1392	 1492400489	 957230685	 133079.
03:41:30 1392 1393	 1492400490	 123194618	 165964.
03:41:30 1393 1394	 1492400490	 285124579	 161930.
03:41:30 1394 1395	 1492400490	 451041308	 165917.
03:41:30 1395 1396	 1492400490	 612856473	 161815.
03:41:30 1396 1397	 1492400490	 778683044	 165827.
03:41:30 1397 1398	 1492400490	 940502113	 161819.
03:41:31 1398 1399	 1492400491	 77790560	 137288.
03:41:31 1399 1400	 1492400491	 239647961	 161858.
03:41:31 1400 1401	 1492400491	 405585935	 165938.
03:41:31 1401 1402	 1492400491	 567295949	 161710.
03:41:31 1402 1403	 1492400491	 733241207	 165945.
03:41:31 1403 1404	 1492400491	 895250375	 162009.
03:41:32 1404 1405	 1492400492	 61300157	 166050.
03:41:32 1405 1406	 1492400492	 223157347	 161857.
03:41:32 1406 1407	 1492400492	 356289948	 133133.
03:41:32 1407 1408	 1492400492	 522255806	 165966.
03:41:32 1408 1409	 1492400492	 688207880	 165952.
03:41:32 1409 1410	 1492400492	 850091877	 161884.
03:41:33 1410 1411	 1492400493	 15952011	 165860.
03:41:33 1411 1412	 1492400493	 177751566	 161799.
03:41:33 1412 1413	 1492400493	 343544287	 165793.
03:41:33 1413 1414	 1492400493	 476698181	 133154.
03:41:33 1414 1415	 1492400493	 642855028	 166157.
03:41:33 1415 1416	 1492400493	 804686015	 161831.
03:41:33 1416 1417	 1492400493	 970611599	 165925.
03:41:34 1417 1418	 1492400494	 132534914	 161924.
03:41:34 1418 1419	 1492400494	 298456902	 165922.
03:41:34 1419 1420	 1492400494	 460464771	 162007.
03:41:34 1420 1421	 1492400494	 622419600	 161955.
03:41:34 1421 1422	 1492400494	 759536036	 137117.
03:41:34 1422 1423	 1492400494	 921319029	 161783.
03:41:35 1423 1424	 1492400495	 87096274	 165777.
03:41:35 1424 1425	 1492400495	 249003305	 161907.
03:41:35 1425 1426	 1492400495	 414946150	 165943.
03:41:35 1426 1427	 1492400495	 576955905	 162010.
03:41:35 1427 1428	 1492400495	 742970697	 166014.
03:41:35 1428 1429	 1492400495	 876111493	 133141.
03:41:36 1429 1430	 1492400496	 42011933	 165901.
03:41:36 1430 1431	 1492400496	 203839419	 161827.
03:41:36 1431 1432	 1492400496	 369737393	 165898.
03:41:36 1432 1433	 1492400496	 531584518	 161847.
03:41:36 1433 1434	 1492400496	 697412747	 165828.
03:41:36 1434 1435	 1492400496	 859180976	 161769.
03:41:36 1435 1436	 1492400496	 996317673	 137136.
03:41:37 1436 1437	 1492400497	 158257294	 161940.
03:41:37 1437 1438	 1492400497	 320130899	 161874.
03:41:37 1438 1439	 1492400497	 486219181	 166088.
03:41:37 1439 1440	 1492400497	 651983386	 165764.
03:41:37 1440 1441	 1492400497	 813827448	 161844.
03:41:37 1441 1442	 1492400497	 976038232	 162211.
03:41:38 1442 1443	 1492400498	 109131884	 133094.
03:41:38 1443 1444	 1492400498	 275162459	 166030.
03:41:38 1444 1445	 1492400498	 436921672	 161759.
03:41:38 1445 1446	 1492400498	 602759191	 165838.
03:41:38 1446 1447	 1492400498	 764672817	 161914.
03:41:38 1447 1448	 1492400498	 926433491	 161760.
03:41:39 1448 1449	 1492400499	 92263169	 165830.
03:41:39 1449 1450	 1492400499	 225442324	 133179.
03:41:39 1450 1451	 1492400499	 387246725	 161804.
03:41:39 1451 1452	 1492400499	 553207988	 165962.
03:41:39 1452 1453	 1492400499	 715071671	 161863.
03:41:39 1453 1454	 1492400499	 881067947	 165997.
03:41:40 1454 1455	 1492400500	 42938540	 161870.
03:41:40 1455 1456	 1492400500	 208854961	 165917.
03:41:40 1456 1457	 1492400500	 370535310	 161680.
03:41:40 1457 1458	 1492400500	 507702279	 137167.
03:41:40 1458 1459	 1492400500	 669497121	 161795.
03:41:40 1459 1460	 1492400500	 835361086	 165864.
03:41:40 1460 1461	 1492400500	 997190485	 161829.
03:41:41 1461 1462	 1492400501	 159109509	 161919.
03:41:41 1462 1463	 1492400501	 325012283	 165903.
03:41:41 1463 1464	 1492400501	 486975798	 161964.
03:41:41 1464 1465	 1492400501	 624101645	 137125.
03:41:41 1465 1466	 1492400501	 789997322	 165896.
03:41:41 1466 1467	 1492400501	 951834266	 161837.
03:41:42 1467 1468	 1492400502	 117764592	 165930.
03:41:42 1468 1469	 1492400502	 279494022	 161730.
03:41:42 1469 1470	 1492400502	 445373894	 165880.
03:41:42 1470 1471	 1492400502	 578622258	 133248.
03:41:42 1471 1472	 1492400502	 740746701	 162124.
03:41:42 1472 1473	 1492400502	 906728224	 165982.
03:41:43 1473 1474	 1492400503	 68596712	 161868.
03:41:43 1474 1475	 1492400503	 234496656	 165900.
03:41:43 1475 1476	 1492400503	 396277599	 161781.
03:41:43 1476 1477	 1492400503	 562288481	 166011.
03:41:43 1477 1478	 1492400503	 724169006	 161881.
03:41:43 1478 1479	 1492400503	 857424608	 133255.
03:41:44 1479 1480	 1492400504	 23253695	 165829.
03:41:44 1480 1481	 1492400504	 189248377	 165995.
03:41:44 1481 1482	 1492400504	 351313215	 162065.
03:41:44 1482 1483	 1492400504	 513138169	 161825.
03:41:44 1483 1484	 1492400504	 675031037	 161893.
03:41:44 1484 1485	 1492400504	 841001217	 165970.
03:41:45 1485 1486	 1492400505	 2813863	 161813.
03:41:45 1486 1487	 1492400505	 140090837	 137277.
03:41:45 1487 1488	 1492400505	 301885122	 161794.
03:41:45 1488 1489	 1492400505	 463790596	 161905.
03:41:45 1489 1490	 1492400505	 629698925	 165909.
03:41:45 1490 1491	 1492400505	 792246906	 162548.
03:41:45 1491 1492	 1492400505	 954197634	 161950.
03:41:46 1492 1493	 1492400506	 116297231	 162100.
03:41:46 1493 1494	 1492400506	 282187816	 165891.
03:41:46 1494 1495	 1492400506	 415247440	 133059.
03:41:46 1495 1496	 1492400506	 581288047	 166041.
03:41:46 1496 1497	 1492400506	 743115514	 161827.
03:41:46 1497 1498	 1492400506	 904911107	 161796.
03:41:47 1498 1499	 1492400507	 70756719	 165845.
03:41:47 1499 1500	 1492400507	 233018684	 162262.
03:41:47 1500 1501	 1492400507	 394816008	 161798.
03:41:47 1501 1502	 1492400507	 556756876	 161941.
03:41:47 1502 1503	 1492400507	 722669247	 165912.
03:41:47 1503 1504	 1492400507	 855974953	 133306.
03:41:48 1504 1505	 1492400508	 21860179	 165885.
03:41:48 1505 1506	 1492400508	 183835265	 161975.
03:41:48 1506 1507	 1492400508	 349716351	 165881.
03:41:48 1507 1508	 1492400508	 511409903	 161694.
03:41:48 1508 1509	 1492400508	 677497616	 166087.
03:41:48 1509 1510	 1492400508	 839331854	 161835.
03:41:48 1510 1511	 1492400508	 972405000	 133073.
03:41:49 1511 1512	 1492400509	 138288086	 165883.
03:41:49 1512 1513	 1492400509	 300130496	 161842.
03:41:49 1513 1514	 1492400509	 466068264	 165938.
03:41:49 1514 1515	 1492400509	 627859041	 161791.
03:41:49 1515 1516	 1492400509	 793660532	 165801.
03:41:49 1516 1517	 1492400509	 955517714	 161857.
03:41:50 1517 1518	 1492400510	 92790951	 137274.
03:41:50 1518 1519	 1492400510	 254532818	 161742.
03:41:50 1519 1520	 1492400510	 416333381	 161800.
03:41:50 1520 1521	 1492400510	 578678687	 162345.
03:41:50 1521 1522	 1492400510	 744509144	 165831.
03:41:50 1522 1523	 1492400510	 906299018	 161790.
03:41:51 1523 1524	 1492400511	 68317327	 162018.
03:41:51 1524 1525	 1492400511	 234150938	 165834.
03:41:51 1525 1526	 1492400511	 367185347	 133034.
03:41:51 1526 1527	 1492400511	 533148288	 165963.
03:41:51 1527 1528	 1492400511	 694999850	 161852.
03:41:51 1528 1529	 1492400511	 860846338	 165846.
03:41:52 1529 1530	 1492400512	 22637241	 161791.
03:41:52 1530 1531	 1492400512	 188612482	 165975.
03:41:52 1531 1532	 1492400512	 350573392	 161961.
03:41:52 1532 1533	 1492400512	 487925300	 137352.
03:41:52 1533 1534	 1492400512	 649845715	 161920.
03:41:52 1534 1535	 1492400512	 815739559	 165894.
03:41:52 1535 1536	 1492400512	 977607971	 161869.
03:41:53 1536 1537	 1492400513	 139467516	 161859.
03:41:53 1537 1538	 1492400513	 305740510	 166273.
03:41:53 1538 1539	 1492400513	 467627995	 161888.
03:41:53 1539 1540	 1492400513	 633501848	 165874.
03:41:53 1540 1541	 1492400513	 766596887	 133095.
03:41:53 1541 1542	 1492400513	 928459923	 161863.
03:41:54 1542 1543	 1492400514	 94259396	 165799.
03:41:54 1543 1544	 1492400514	 256070922	 161812.
03:41:54 1544 1545	 1492400514	 422034787	 165964.
03:41:54 1545 1546	 1492400514	 583841223	 161806.
03:41:54 1546 1547	 1492400514	 749862793	 166022.
03:41:54 1547 1548	 1492400514	 911681961	 161819.
03:41:55 1548 1549	 1492400515	 48825459	 137143.
03:41:55 1549 1550	 1492400515	 210805215	 161980.
03:41:55 1550 1551	 1492400515	 376676956	 165872.
03:41:55 1551 1552	 1492400515	 538457636	 161780.
03:41:55 1552 1553	 1492400515	 700542278	 162085.
03:41:55 1553 1554	 1492400515	 862320133	 161778.
03:41:56 1554 1555	 1492400516	 28115229	 165795.
03:41:56 1555 1556	 1492400516	 161365594	 133250.
03:41:56 1556 1557	 1492400516	 327251285	 165886.
03:41:56 1557 1558	 1492400516	 489158294	 161907.
03:41:56 1558 1559	 1492400516	 655061090	 165903.
03:41:56 1559 1560	 1492400516	 813484745	 158423.
03:41:56 1560 1561	 1492400516	 975381212	 161897.
03:41:57 1561 1562	 1492400517	 141346651	 165965.
03:41:57 1562 1563	 1492400517	 303290007	 161944.
03:41:57 1563 1564	 1492400517	 469215680	 165925.
03:41:57 1564 1565	 1492400517	 602398781	 133183.
03:41:57 1565 1566	 1492400517	 768213473	 165815.
03:41:57 1566 1567	 1492400517	 929968703	 161756.
03:41:58 1567 1568	 1492400518	 91859545	 161890.
03:41:58 1568 1569	 1492400518	 257794571	 165935.
03:41:58 1569 1570	 1492400518	 423631266	 165837.
03:41:58 1570 1571	 1492400518	 585576828	 161946.
03:41:58 1571 1572	 1492400518	 718784851	 133208.
03:41:58 1572 1573	 1492400518	 880825855	 162041.
03:41:59 1573 1574	 1492400519	 46616072	 165790.
03:41:59 1574 1575	 1492400519	 208382677	 161766.
03:41:59 1575 1576	 1492400519	 374568483	 166186.
03:41:59 1576 1577	 1492400519	 536350014	 161782.
03:41:59 1577 1578	 1492400519	 702161632	 165811.
03:41:59 1578 1579	 1492400519	 863971450	 161810.
03:42:00 1579 1580	 1492400520	 25828221	 161857.
03:42:00 1580 1581	 1492400520	 159346594	 133518.
03:42:00 1581 1582	 1492400520	 325283547	 165937.
03:42:00 1582 1583	 1492400520	 487197204	 161914.
03:42:00 1583 1584	 1492400520	 653076657	 165879.
03:42:00 1584 1585	 1492400520	 814991982	 161916.
03:42:00 1585 1586	 1492400520	 980888644	 165896.
03:42:01 1586 1587	 1492400521	 142870116	 161982.
03:42:01 1587 1588	 1492400521	 308856083	 165986.
03:42:01 1588 1589	 1492400521	 441989587	 133133.
03:42:01 1589 1590	 1492400521	 607846200	 165857.
03:42:01 1590 1591	 1492400521	 769815581	 161969.
03:42:01 1591 1592	 1492400521	 935814186	 165999.
03:42:02 1592 1593	 1492400522	 101720954	 165907.
03:42:02 1593 1594	 1492400522	 263607526	 161886.
03:42:02 1594 1595	 1492400522	 400762841	 137156.
03:42:02 1595 1596	 1492400522	 562673978	 161911.
03:42:02 1596 1597	 1492400522	 725243507	 162569.
03:42:02 1597 1598	 1492400522	 887128999	 161886.
03:42:03 1598 1599	 1492400523	 49064852	 161936.
03:42:03 1599 1600	 1492400523	 215020251	 165955.
03:42:03 1600 1601	 1492400523	 376807926	 161788.
03:42:03 1601 1602	 1492400523	 542440001	 165632.
03:42:03 1602 1603	 1492400523	 675516307	 133076.
03:42:03 1603 1604	 1492400523	 841532782	 166017.
03:42:03 1604 1605	 1492400524	 3544376	 162011.
03:42:04 1605 1606	 1492400524	 169485622	 165941.
03:42:04 1606 1607	 1492400524	 331486553	 162001.
03:42:04 1607 1608	 1492400524	 493332133	 161846.
03:42:04 1608 1609	 1492400524	 659285045	 165953.
03:42:04 1609 1610	 1492400524	 825173567	 165888.
03:42:04 1610 1611	 1492400524	 958411536	 133238.
03:42:05 1611 1612	 1492400525	 120280833	 161870.
03:42:05 1612 1613	 1492400525	 286399222	 166118.
03:42:05 1613 1614	 1492400525	 448204901	 161806.
03:42:05 1614 1615	 1492400525	 614117459	 165912.
03:42:05 1615 1616	 1492400525	 775961349	 161844.
03:42:05 1616 1617	 1492400525	 941980103	 166019.
03:42:06 1617 1618	 1492400526	 75291718	 133311.
03:42:06 1618 1619	 1492400526	 241273839	 165983.
03:42:06 1619 1620	 1492400526	 403144536	 161870.
03:42:06 1620 1621	 1492400526	 569168380	 166024.
03:42:06 1621 1622	 1492400526	 731118780	 161951.
03:42:06 1622 1623	 1492400526	 897260933	 166142.
03:42:07 1623 1624	 1492400527	 59165910	 161905.
03:42:07 1624 1625	 1492400527	 192318593	 133152.
03:42:07 1625 1626	 1492400527	 358211117	 165893.
03:42:07 1626 1627	 1492400527	 520230324	 162019.
03:42:07 1627 1628	 1492400527	 686217621	 165987.
03:42:07 1628 1629	 1492400527	 852173975	 165957.
03:42:08 1629 1630	 1492400528	 14102186	 161928.
03:42:08 1630 1631	 1492400528	 180394529	 166292.
03:42:08 1631 1632	 1492400528	 342357741	 161964.
03:42:08 1632 1633	 1492400528	 479586610	 137228.
03:42:08 1633 1634	 1492400528	 641624836	 162039.
03:42:08 1634 1635	 1492400528	 807587887	 165963.
03:42:08 1635 1636	 1492400528	 969668693	 162080.
03:42:09 1636 1637	 1492400529	 135777997	 166110.
03:42:09 1637 1638	 1492400529	 297620536	 161842.
03:42:09 1638 1639	 1492400529	 463546078	 165926.
03:42:09 1639 1640	 1492400529	 596712525	 133166.
03:42:09 1640 1641	 1492400529	 758606586	 161894.
03:42:09 1641 1642	 1492400529	 924651576	 166045.
03:42:10 1642 1643	 1492400530	 86644052	 161993.
03:42:10 1643 1644	 1492400530	 252646155	 166002.
03:42:10 1644 1645	 1492400530	 418590135	 165944.
03:42:10 1645 1646	 1492400530	 580508529	 161918.
03:42:10 1646 1647	 1492400530	 713750240	 133242.
03:42:10 1647 1648	 1492400530	 879659160	 165909.
03:42:11 1648 1649	 1492400531	 41610734	 161951.
03:42:11 1649 1650	 1492400531	 207705231	 166095.
03:42:11 1650 1651	 1492400531	 373855386	 166150.
03:42:11 1651 1652	 1492400531	 535921139	 162066.
03:42:11 1652 1653	 1492400531	 702003956	 166083.
03:42:11 1653 1654	 1492400531	 835245331	 133241.
03:42:11 1654 1655	 1492400531	 997283373	 162038.
03:42:12 1655 1656	 1492400532	 163401992	 166119.
03:42:12 1656 1657	 1492400532	 325261333	 161859.
03:42:12 1657 1658	 1492400532	 491418645	 166157.
03:42:12 1658 1659	 1492400532	 653495122	 162077.
03:42:12 1659 1660	 1492400532	 819468675	 165974.
03:42:12 1660 1661	 1492400532	 956883938	 137415.
03:42:13 1661 1662	 1492400533	 118957265	 162073.
03:42:13 1662 1663	 1492400533	 284878044	 165921.
03:42:13 1663 1664	 1492400533	 446894404	 162016.
03:42:13 1664 1665	 1492400533	 612862860	 165969.
03:42:13 1665 1666	 1492400533	 774661293	 161798.
03:42:13 1666 1667	 1492400533	 911709768	 137048.
03:42:14 1667 1668	 1492400534	 73663253	 161954.
03:42:14 1668 1669	 1492400534	 235753639	 162090.
03:42:14 1669 1670	 1492400534	 401471018	 165718.
03:42:14 1670 1671	 1492400534	 563229568	 161758.
03:42:14 1671 1672	 1492400534	 725033527	 161804.
03:42:14 1672 1673	 1492400534	 890856303	 165823.
03:42:15 1673 1674	 1492400535	 52660404	 161804.
03:42:15 1674 1675	 1492400535	 189704621	 137044.
03:42:15 1675 1676	 1492400535	 351466513	 161762.
03:42:15 1676 1677	 1492400535	 517372790	 165906.
03:42:15 1677 1678	 1492400535	 679452867	 162081.
03:42:15 1678 1679	 1492400535	 841382730	 161929.
03:42:16 1679 1680	 1492400536	 7223991	 165842.
03:42:16 1680 1681	 1492400536	 169071927	 161848.
03:42:16 1681 1682	 1492400536	 306215098	 137143.
03:42:16 1682 1683	 1492400536	 467925400	 161710.
03:42:16 1683 1684	 1492400536	 633863627	 165938.
03:42:16 1684 1685	 1492400536	 795774001	 161911.
03:42:16 1685 1686	 1492400536	 961693340	 165919.
03:42:17 1686 1687	 1492400537	 123390341	 161697.
03:42:17 1687 1688	 1492400537	 289368067	 165978.
03:42:17 1688 1689	 1492400537	 422609896	 133242.
03:42:17 1689 1690	 1492400537	 584605799	 161996.
03:42:17 1690 1691	 1492400537	 750488660	 165882.
03:42:17 1691 1692	 1492400537	 912223666	 161735.
03:42:18 1692 1693	 1492400538	 78192550	 165969.
03:42:18 1693 1694	 1492400538	 240021764	 161829.
03:42:18 1694 1695	 1492400538	 405942638	 165921.
03:42:18 1695 1696	 1492400538	 567786966	 161845.
03:42:18 1696 1697	 1492400538	 701006759	 133219.
03:42:18 1697 1698	 1492400538	 866893396	 165887.
03:42:19 1698 1699	 1492400539	 28713968	 161821.
03:42:19 1699 1700	 1492400539	 194647110	 165933.
03:42:19 1700 1701	 1492400539	 356546075	 161899.
03:42:19 1701 1702	 1492400539	 522285958	 165740.
03:42:19 1702 1703	 1492400539	 684702801	 162417.
03:42:19 1703 1704	 1492400539	 846443765	 161741.
03:42:19 1704 1705	 1492400539	 979572923	 133129.
03:42:20 1705 1706	 1492400540	 141343434	 161770.
03:42:20 1706 1707	 1492400540	 307212094	 165869.
03:42:20 1707 1708	 1492400540	 469133863	 161922.
03:42:20 1708 1709	 1492400540	 635132739	 165998.
03:42:20 1709 1710	 1492400540	 796953391	 161821.
03:42:20 1710 1711	 1492400540	 962889781	 165937.
03:42:21 1711 1712	 1492400541	 124724229	 161834.
03:42:21 1712 1713	 1492400541	 261944976	 137221.
03:42:21 1713 1714	 1492400541	 423729140	 161784.
03:42:21 1714 1715	 1492400541	 585524723	 161795.
03:42:21 1715 1716	 1492400541	 747769451	 162245.
03:42:21 1716 1717	 1492400541	 913686522	 165917.
03:42:22 1717 1718	 1492400542	 75551482	 161865.
03:42:22 1718 1719	 1492400542	 237461336	 161910.
03:42:22 1719 1720	 1492400542	 403187450	 165726.
03:42:22 1720 1721	 1492400542	 536299115	 133112.
03:42:22 1721 1722	 1492400542	 698564067	 162265.
03:42:22 1722 1723	 1492400542	 860443910	 161880.
03:42:23 1723 1724	 1492400543	 26512987	 166069.
03:42:23 1724 1725	 1492400543	 188343611	 161830.
03:42:23 1725 1726	 1492400543	 354531944	 166189.
03:42:23 1726 1727	 1492400543	 516400638	 161868.
03:42:23 1727 1728	 1492400543	 682380074	 165980.
03:42:23 1728 1729	 1492400543	 844266830	 161887.
03:42:23 1729 1730	 1492400543	 981564089	 137297.
03:42:24 1730 1731	 1492400544	 143454345	 161890.
03:42:24 1731 1732	 1492400544	 309523284	 166069.
03:42:24 1732 1733	 1492400544	 471347808	 161825.
03:42:24 1733 1734	 1492400544	 637321181	 165973.
03:42:24 1734 1735	 1492400544	 799087777	 161767.
03:42:24 1735 1736	 1492400544	 964977293	 165889.
03:42:25 1736 1737	 1492400545	 126896553	 161919.
03:42:25 1737 1738	 1492400545	 260081578	 133185.
03:42:25 1738 1739	 1492400545	 425983037	 165902.
03:42:25 1739 1740	 1492400545	 587758970	 161776.
03:42:25 1740 1741	 1492400545	 753706830	 165948.
03:42:25 1741 1742	 1492400545	 915661405	 161954.
03:42:26 1742 1743	 1492400546	 81603811	 165943.
03:42:26 1743 1744	 1492400546	 243531310	 161927.
03:42:26 1744 1745	 1492400546	 409498394	 165967.
03:42:26 1745 1746	 1492400546	 542920593	 133422.
03:42:26 1746 1747	 1492400546	 704762476	 161842.
03:42:26 1747 1748	 1492400546	 870609180	 165847.
03:42:27 1748 1749	 1492400547	 32289783	 161680.
03:42:27 1749 1750	 1492400547	 198131216	 165842.
03:42:27 1750 1751	 1492400547	 364192340	 166061.
03:42:27 1751 1752	 1492400547	 526156261	 161964.
03:42:27 1752 1753	 1492400547	 659618445	 133462.
03:42:27 1753 1754	 1492400547	 821458818	 161841.
03:42:27 1754 1755	 1492400547	 987599244	 166140.
03:42:28 1755 1756	 1492400548	 149605900	 162007.
03:42:28 1756 1757	 1492400548	 315440780	 165835.
03:42:28 1757 1758	 1492400548	 477525300	 162084.
03:42:28 1758 1759	 1492400548	 643428387	 165903.
03:42:28 1759 1760	 1492400548	 805698843	 162271.
03:42:28 1760 1761	 1492400548	 938745393	 133046.
03:42:29 1761 1762	 1492400549	 104666694	 165921.
03:42:29 1762 1763	 1492400549	 266342731	 161676.
03:42:29 1763 1764	 1492400549	 432280886	 165939.
03:42:29 1764 1765	 1492400549	 594216667	 161935.
03:42:29 1765 1766	 1492400549	 760147603	 165931.
03:42:29 1766 1767	 1492400549	 922229307	 162082.
03:42:30 1767 1768	 1492400550	 88169505	 165940.
03:42:30 1768 1769	 1492400550	 221338810	 133170.
03:42:30 1769 1770	 1492400550	 383294644	 161955.
03:42:30 1770 1771	 1492400550	 549326323	 166032.
03:42:30 1771 1772	 1492400550	 711254996	 161929.
03:42:30 1772 1773	 1492400550	 877210149	 165955.
03:42:31 1773 1774	 1492400551	 39151014	 161941.
03:42:31 1774 1775	 1492400551	 205226751	 166075.
03:42:31 1775 1776	 1492400551	 366979371	 161753.
03:42:31 1776 1777	 1492400551	 500173416	 133194.
03:42:31 1777 1778	 1492400551	 666209940	 166037.
03:42:31 1778 1779	 1492400551	 832195062	 165985.
03:42:31 1779 1780	 1492400551	 993937378	 161742.
03:42:32 1780 1781	 1492400552	 155890591	 161953.
03:42:32 1781 1782	 1492400552	 322120837	 166231.
03:42:32 1782 1783	 1492400552	 480636321	 158515.
03:42:32 1783 1784	 1492400552	 642737731	 162101.
03:42:32 1784 1785	 1492400552	 808717411	 165980.
03:42:32 1785 1786	 1492400552	 970549029	 161832.
03:42:33 1786 1787	 1492400553	 103647178	 133098.
03:42:33 1787 1788	 1492400553	 265856845	 162210.
03:42:33 1788 1789	 1492400553	 431793851	 165937.
03:42:33 1789 1790	 1492400553	 593609548	 161815.
03:42:33 1790 1791	 1492400553	 755475670	 161866.
03:42:33 1791 1792	 1492400553	 921489793	 166015.
03:42:34 1792 1793	 1492400554	 83298177	 161808.
03:42:34 1793 1794	 1492400554	 249376069	 166078.
03:42:34 1794 1795	 1492400554	 382459928	 133084.
03:42:34 1795 1796	 1492400554	 548663582	 166203.
03:42:34 1796 1797	 1492400554	 706798903	 158136.
03:42:34 1797 1798	 1492400554	 872678913	 165880.
03:42:35 1798 1799	 1492400555	 34574097	 161895.
03:42:35 1799 1800	 1492400555	 196408877	 161835.
03:42:35 1800 1801	 1492400555	 362324291	 165915.
03:42:35 1801 1802	 1492400555	 524479546	 162155.
03:42:35 1802 1803	 1492400555	 686220456	 161741.
03:42:35 1803 1804	 1492400555	 852283353	 166063.
03:42:35 1804 1805	 1492400555	 985535221	 133252.
03:42:36 1805 1806	 1492400556	 147313599	 161778.
03:42:36 1806 1807	 1492400556	 313105220	 165792.
03:42:36 1807 1808	 1492400556	 479069121	 165964.
03:42:36 1808 1809	 1492400556	 641117938	 162049.
03:42:36 1809 1810	 1492400556	 785169652	 144051.
03:42:36 1810 1811	 1492400556	 947163826	 161995.
03:42:37 1811 1812	 1492400557	 113273753	 166109.
03:42:37 1812 1813	 1492400557	 275067456	 161794.
03:42:37 1813 1814	 1492400557	 441265451	 166198.
03:42:37 1814 1815	 1492400557	 603461827	 162197.
03:42:37 1815 1816	 1492400557	 765363881	 161902.
03:42:37 1816 1817	 1492400557	 927756462	 162392.
03:42:38 1817 1818	 1492400558	 89541414	 161785.
03:42:38 1818 1819	 1492400558	 251392204	 161851.
03:42:38 1819 1820	 1492400558	 388533131	 137141.
03:42:38 1820 1821	 1492400558	 550489401	 161956.
03:42:38 1821 1822	 1492400558	 716425889	 165937.
03:42:38 1822 1823	 1492400558	 878431200	 162005.
03:42:39 1823 1824	 1492400559	 44526920	 166096.
03:42:39 1824 1825	 1492400559	 206520837	 161994.
03:42:39 1825 1826	 1492400559	 368553817	 162033.
03:42:39 1826 1827	 1492400559	 534450319	 165896.
03:42:39 1827 1828	 1492400559	 667550199	 133100.
03:42:39 1828 1829	 1492400559	 833436064	 165886.
03:42:39 1829 1830	 1492400559	 999491908	 166056.
03:42:40 1830 1831	 1492400560	 161531086	 162039.
03:42:40 1831 1832	 1492400560	 327375290	 165844.
03:42:40 1832 1833	 1492400560	 489215099	 161840.
03:42:40 1833 1834	 1492400560	 651024289	 161809.
03:42:40 1834 1835	 1492400560	 788079550	 137055.
03:42:40 1835 1836	 1492400560	 949990482	 161911.
03:42:41 1836 1837	 1492400561	 116007070	 166017.
03:42:41 1837 1838	 1492400561	 277974443	 161967.
03:42:41 1838 1839	 1492400561	 443861372	 165887.
03:42:41 1839 1840	 1492400561	 609888677	 166028.
03:42:41 1840 1841	 1492400561	 771725261	 161836.
03:42:41 1841 1842	 1492400561	 933531270	 161806.
03:42:42 1842 1843	 1492400562	 70740427	 137209.
03:42:42 1843 1844	 1492400562	 232445548	 161705.
03:42:42 1844 1845	 1492400562	 398399885	 165955.
03:42:42 1845 1846	 1492400562	 560154800	 161755.
03:42:42 1846 1847	 1492400562	 726055366	 165900.
03:42:42 1847 1848	 1492400562	 888204171	 162149.
03:42:43 1848 1849	 1492400563	 50363068	 162159.
03:42:43 1849 1850	 1492400563	 183577069	 133214.
03:42:43 1850 1851	 1492400563	 349622717	 166045.
03:42:43 1851 1852	 1492400563	 511457119	 161835.
03:42:43 1852 1853	 1492400563	 677444648	 165987.
03:42:43 1853 1854	 1492400563	 839365873	 161922.
03:42:44 1854 1855	 1492400564	 5362465	 165996.
03:42:44 1855 1856	 1492400564	 167341739	 161979.
03:42:44 1856 1857	 1492400564	 304523956	 137183.
03:42:44 1857 1858	 1492400564	 466436989	 161913.
03:42:44 1858 1859	 1492400564	 632418254	 165981.
03:42:44 1859 1860	 1492400564	 794492778	 162075.
03:42:44 1860 1861	 1492400564	 960668256	 166175.
03:42:45 1861 1862	 1492400565	 122631293	 161963.
03:42:45 1862 1863	 1492400565	 288704700	 166074.
03:42:45 1863 1864	 1492400565	 450576290	 161871.
03:42:45 1864 1865	 1492400565	 583836083	 133260.
03:42:45 1865 1866	 1492400565	 749760784	 165925.
03:42:45 1866 1867	 1492400565	 915805929	 166045.
03:42:46 1867 1868	 1492400566	 77942020	 162136.
03:42:46 1868 1869	 1492400566	 240084538	 162142.
03:42:46 1869 1870	 1492400566	 401926842	 161843.
03:42:46 1870 1871	 1492400566	 567909634	 165982.
03:42:46 1871 1872	 1492400566	 729832144	 161923.
03:42:46 1872 1873	 1492400566	 867154587	 137322.
03:42:47 1873 1874	 1492400567	 29140448	 161986.
03:42:47 1874 1875	 1492400567	 195018365	 165878.
