22:49:51    0 Step	 time(s)	 time(ns)	 delta(ms)
22:49:51    0 1	 1492642191	 107308149	 927.
22:49:51    1 2	 1492642191	 268758888	 161451.
22:49:51    2 3	 1492642191	 435017726	 166259.
22:49:51    3 4	 1492642191	 597103448	 162085.
22:49:51    4 5	 1492642191	 734306571	 137203.
22:49:51    5 6	 1492642191	 896128609	 161822.
22:49:52    6 7	 1492642192	 57997855	 161870.
22:49:52    7 8	 1492642192	 223879570	 165881.
22:49:52    8 9	 1492642192	 385764307	 161885.
22:49:52    9 10	 1492642192	 551578233	 165814.
22:49:52   10 11	 1492642192	 713371338	 161793.
22:49:52   11 12	 1492642192	 879498604	 166127.
22:49:53   12 13	 1492642193	 41213410	 161716.
22:49:53   13 14	 1492642193	 178240082	 137026.
22:49:53   14 15	 1492642193	 339969235	 161729.
22:49:53   15 16	 1492642193	 501720303	 161751.
22:49:53   16 17	 1492642193	 667598858	 165879.
22:49:53   17 18	 1492642193	 829254491	 161655.
22:49:53   18 19	 1492642193	 995081495	 165827.
22:49:54   19 20	 1492642194	 156770978	 161690.
22:49:54   20 21	 1492642194	 322629181	 165858.
22:49:54   21 22	 1492642194	 455696879	 133068.
22:49:54   22 23	 1492642194	 617474554	 161777.
22:49:54   23 24	 1492642194	 783201693	 165728.
22:49:54   24 25	 1492642194	 945099864	 161898.
22:49:55   25 26	 1492642195	 110806262	 165706.
22:49:55   26 27	 1492642195	 272629190	 161823.
22:49:55   27 28	 1492642195	 434435083	 161806.
22:49:55   28 29	 1492642195	 600402756	 165968.
22:49:55   29 30	 1492642195	 733560416	 133157.
22:49:55   30 31	 1492642195	 899251822	 165692.
22:49:56   31 32	 1492642196	 61261652	 162009.
22:49:56   32 33	 1492642196	 227020471	 165759.
22:49:56   33 34	 1492642196	 389061686	 162041.
22:49:56   34 35	 1492642196	 550918465	 161857.
22:49:56   35 36	 1492642196	 716855758	 165938.
22:49:56   36 37	 1492642196	 879063676	 162207.
22:49:57   37 38	 1492642197	 40889760	 161827.
22:49:57   38 39	 1492642197	 202683827	 161794.
22:49:57   39 40	 1492642197	 339909413	 137225.
22:49:57   40 41	 1492642197	 501633863	 161725.
22:49:57   41 42	 1492642197	 667436194	 165802.
22:49:57   42 43	 1492642197	 829216518	 161780.
22:49:57   43 44	 1492642197	 995016762	 165801.
22:49:58   44 45	 1492642198	 156929853	 161913.
22:49:58   45 46	 1492642198	 318813151	 161883.
22:49:58   46 47	 1492642198	 455854059	 137041.
22:49:58   47 48	 1492642198	 617757269	 161903.
22:49:58   48 49	 1492642198	 779563274	 161806.
22:49:58   49 50	 1492642198	 945392767	 165830.
22:49:59   50 51	 1492642199	 107201840	 161809.
22:49:59   51 52	 1492642199	 273113939	 165912.
22:49:59   52 53	 1492642199	 434941394	 161827.
22:49:59   53 54	 1492642199	 600808493	 165867.
22:49:59   54 55	 1492642199	 733877423	 133069.
22:49:59   55 56	 1492642199	 899624370	 165747.
22:50:00   56 57	 1492642200	 61380586	 161756.
22:50:00   57 58	 1492642200	 223124707	 161744.
22:50:00   58 59	 1492642200	 388885121	 165761.
22:50:00   59 60	 1492642200	 554675510	 165790.
22:50:00   60 61	 1492642200	 716451184	 161776.
22:50:00   61 62	 1492642200	 849567487	 133116.
22:50:01   62 63	 1492642201	 15475507	 165908.
22:50:01   63 64	 1492642201	 177605166	 162130.
22:50:01   64 65	 1492642201	 339468426	 161863.
22:50:01   65 66	 1492642201	 505364528	 165896.
22:50:01   66 67	 1492642201	 667108145	 161744.
22:50:01   67 68	 1492642201	 832953235	 165845.
22:50:01   68 69	 1492642201	 994673801	 161721.
22:50:02   69 70	 1492642202	 156493999	 161820.
22:50:02   70 71	 1492642202	 293654162	 137160.
22:50:02   71 72	 1492642202	 455341450	 161687.
22:50:02   72 73	 1492642202	 621142573	 165801.
22:50:02   73 74	 1492642202	 782866719	 161725.
22:50:02   74 75	 1492642202	 948669780	 165803.
22:50:03   75 76	 1492642203	 110508889	 161839.
22:50:03   76 77	 1492642203	 272413966	 161905.
22:50:03   77 78	 1492642203	 438158367	 165744.
22:50:03   78 79	 1492642203	 571193813	 133036.
22:50:03   79 80	 1492642203	 737002965	 165809.
22:50:03   80 81	 1492642203	 898760069	 161757.
22:50:04   81 82	 1492642204	 64736319	 165976.
22:50:04   82 83	 1492642204	 226496313	 161760.
22:50:04   83 84	 1492642204	 392413291	 165917.
22:50:04   84 85	 1492642204	 554366338	 161953.
22:50:04   85 86	 1492642204	 687468786	 133103.
22:50:04   86 87	 1492642204	 853509790	 166041.
22:50:05   87 88	 1492642205	 15252377	 161742.
22:50:05   88 89	 1492642205	 181311345	 166059.
22:50:05   89 90	 1492642205	 343107096	 161796.
22:50:05   90 91	 1492642205	 509115798	 166009.
22:50:05   91 92	 1492642205	 670892726	 161777.
22:50:05   92 93	 1492642205	 832744404	 161851.
22:50:05   93 94	 1492642205	 998675145	 165931.
22:50:06   94 95	 1492642206	 131913062	 133238.
22:50:06   95 96	 1492642206	 297811873	 165899.
22:50:06   96 97	 1492642206	 459781247	 161969.
22:50:06   97 98	 1492642206	 625665496	 165884.
22:50:06   98 99	 1492642206	 787361951	 161697.
22:50:06   99 100	 1492642206	 953259209	 165897.
22:50:07  100 101	 1492642207	 115245384	 161986.
22:50:07  101 102	 1492642207	 248487170	 133242.
22:50:07  102 103	 1492642207	 414405099	 165918.
22:50:07  103 104	 1492642207	 576479910	 162075.
22:50:07  104 105	 1492642207	 742489614	 166009.
22:50:07  105 106	 1492642207	 909086330	 166597.
22:50:08  106 107	 1492642208	 66946160	 157860.
22:50:08  107 108	 1492642208	 228838315	 161892.
22:50:08  108 109	 1492642208	 394822960	 165985.
22:50:08  109 110	 1492642208	 560809497	 165986.
22:50:08  110 111	 1492642208	 722572214	 161763.
22:50:08  111 112	 1492642208	 855689845	 133118.
22:50:09  112 113	 1492642209	 21602096	 165912.
22:50:09  113 114	 1492642209	 183473606	 161871.
22:50:09  114 115	 1492642209	 349558841	 166086.
22:50:09  115 116	 1492642209	 515448989	 165890.
22:50:09  116 117	 1492642209	 677271465	 161822.
22:50:09  117 118	 1492642209	 843184614	 165913.
22:50:09  118 119	 1492642209	 976355986	 133172.
22:50:10  119 120	 1492642210	 138313682	 161957.
22:50:10  120 121	 1492642210	 304255229	 165942.
22:50:10  121 122	 1492642210	 466076030	 161821.
22:50:10  122 123	 1492642210	 632028751	 165953.
22:50:10  123 124	 1492642210	 793991163	 161962.
22:50:10  124 125	 1492642210	 960071311	 166081.
22:50:11  125 126	 1492642211	 122049661	 161977.
22:50:11  126 127	 1492642211	 288042942	 165994.
22:50:11  127 128	 1492642211	 421222431	 133179.
22:50:11  128 129	 1492642211	 583280446	 162058.
22:50:11  129 130	 1492642211	 749293604	 166013.
22:50:11  130 131	 1492642211	 911234894	 161942.
22:50:12  131 132	 1492642212	 77206841	 165972.
22:50:12  132 133	 1492642212	 243104565	 165897.
22:50:12  133 134	 1492642212	 405130486	 162026.
22:50:12  134 135	 1492642212	 567078938	 161949.
22:50:12  135 136	 1492642212	 704323006	 137244.
22:50:12  136 137	 1492642212	 866417948	 162095.
22:50:13  137 138	 1492642213	 32345694	 165927.
22:50:13  138 139	 1492642213	 194399948	 162055.
22:50:13  139 140	 1492642213	 360439854	 166040.
22:50:13  140 141	 1492642213	 522568258	 162128.
22:50:13  141 142	 1492642213	 684442794	 161875.
22:50:13  142 143	 1492642213	 850244986	 165802.
22:50:14  143 144	 1492642214	 12060028	 161815.
22:50:14  144 145	 1492642214	 149207207	 137147.
22:50:14  145 146	 1492642214	 311161552	 161954.
22:50:14  146 147	 1492642214	 473130231	 161969.
22:50:14  147 148	 1492642214	 639230848	 166101.
22:50:14  148 149	 1492642214	 801178336	 161947.
22:50:14  149 150	 1492642214	 967083740	 165906.
22:50:15  150 151	 1492642215	 128928675	 161844.
22:50:15  151 152	 1492642215	 294781399	 165853.
22:50:15  152 153	 1492642215	 460825961	 166045.
22:50:15  153 154	 1492642215	 594242196	 133416.
22:50:15  154 155	 1492642215	 755996807	 161755.
22:50:15  155 156	 1492642215	 917731059	 161734.
22:50:16  156 157	 1492642216	 83645045	 165914.
22:50:16  157 158	 1492642216	 245705286	 162060.
22:50:16  158 159	 1492642216	 411583184	 165878.
22:50:16  159 160	 1492642216	 573298944	 161716.
22:50:16  160 161	 1492642216	 735176235	 161877.
22:50:16  161 162	 1492642216	 901064687	 165888.
22:50:17  162 163	 1492642217	 33992925	 132929.
22:50:17  163 164	 1492642217	 199796049	 165803.
22:50:17  164 165	 1492642217	 361538623	 161742.
22:50:17  165 166	 1492642217	 527307415	 165769.
22:50:17  166 167	 1492642217	 689157333	 161850.
22:50:17  167 168	 1492642217	 855070338	 165913.
22:50:18  168 169	 1492642218	 16726716	 161657.
22:50:18  169 170	 1492642218	 182619098	 165892.
22:50:18  170 171	 1492642218	 315752361	 133133.
22:50:18  171 172	 1492642218	 477581981	 161830.
22:50:18  172 173	 1492642218	 643467951	 165886.
22:50:18  173 174	 1492642218	 805122792	 161655.
22:50:18  174 175	 1492642218	 971018193	 165895.
22:50:19  175 176	 1492642219	 132986297	 161968.
22:50:19  176 177	 1492642219	 298879531	 165893.
22:50:19  177 178	 1492642219	 457060421	 158181.
22:50:19  178 179	 1492642219	 622828547	 165768.
22:50:19  179 180	 1492642219	 784525536	 161697.
22:50:19  180 181	 1492642219	 921668345	 137143.
22:50:20  181 182	 1492642220	 83450184	 161782.
22:50:20  182 183	 1492642220	 249324313	 165874.
22:50:20  183 184	 1492642220	 411138236	 161814.
22:50:20  184 185	 1492642220	 576659022	 165521.
22:50:20  185 186	 1492642220	 738434873	 161776.
22:50:20  186 187	 1492642220	 904248889	 165814.
22:50:21  187 188	 1492642221	 37423582	 133174.
22:50:21  188 189	 1492642221	 199639817	 162217.
22:50:21  189 190	 1492642221	 361445853	 161806.
22:50:21  190 191	 1492642221	 527170015	 165724.
22:50:21  191 192	 1492642221	 688951138	 161781.
22:50:21  192 193	 1492642221	 854817646	 165866.
22:50:22  193 194	 1492642222	 16566300	 161749.
22:50:22  194 195	 1492642222	 178646964	 162081.
22:50:22  195 196	 1492642222	 344584655	 165937.
22:50:22  196 197	 1492642222	 477748985	 133165.
22:50:22  197 198	 1492642222	 643606081	 165857.
22:50:22  198 199	 1492642222	 805354972	 161749.
22:50:22  199 200	 1492642222	 971232433	 165877.
22:50:23  200 201	 1492642223	 133026027	 161794.
22:50:23  201 202	 1492642223	 298747863	 165722.
22:50:23  202 203	 1492642223	 460524723	 161777.
22:50:23  203 204	 1492642223	 626377096	 165852.
22:50:23  204 205	 1492642223	 759510408	 133133.
22:50:23  205 206	 1492642223	 921270047	 161760.
22:50:24  206 207	 1492642224	 87414369	 166144.
22:50:24  207 208	 1492642224	 249201487	 161787.
22:50:24  208 209	 1492642224	 415099422	 165898.
22:50:24  209 210	 1492642224	 577092901	 161994.
22:50:24  210 211	 1492642224	 739246793	 162154.
22:50:24  211 212	 1492642224	 901941984	 162695.
22:50:25  212 213	 1492642225	 63690465	 161748.
22:50:25  213 214	 1492642225	 225422840	 161733.
22:50:25  214 215	 1492642225	 387298104	 161875.
22:50:25  215 216	 1492642225	 524537612	 137240.
22:50:25  216 217	 1492642225	 686325239	 161787.
22:50:25  217 218	 1492642225	 852123276	 165798.
22:50:26  218 219	 1492642226	 13887939	 161765.
22:50:26  219 220	 1492642226	 179960538	 166072.
22:50:26  220 221	 1492642226	 341662044	 161702.
22:50:26  221 222	 1492642226	 507570888	 165909.
22:50:26  222 223	 1492642226	 669393134	 161822.
22:50:26  223 224	 1492642226	 831178344	 161785.
22:50:26  224 225	 1492642226	 968370452	 137192.
22:50:27  225 226	 1492642227	 130040178	 161670.
22:50:27  226 227	 1492642227	 295820573	 165780.
22:50:27  227 228	 1492642227	 457656672	 161836.
22:50:27  228 229	 1492642227	 623429706	 165773.
22:50:27  229 230	 1492642227	 785327202	 161898.
22:50:27  230 231	 1492642227	 951223557	 165896.
22:50:28  231 232	 1492642228	 112984773	 161762.
22:50:28  232 233	 1492642228	 250186066	 137201.
22:50:28  233 234	 1492642228	 411913525	 161727.
22:50:28  234 235	 1492642228	 577786738	 165874.
22:50:28  235 236	 1492642228	 739629776	 161842.
22:50:28  236 237	 1492642228	 901410890	 161782.
22:50:29  237 238	 1492642229	 67252472	 165841.
22:50:29  238 239	 1492642229	 229211732	 161960.
22:50:29  239 240	 1492642229	 395129568	 165917.
22:50:29  240 241	 1492642229	 528155188	 133026.
22:50:29  241 242	 1492642229	 693983775	 165829.
22:50:29  242 243	 1492642229	 855758879	 161775.
22:50:30  243 244	 1492642230	 17567052	 161808.
22:50:30  244 245	 1492642230	 183379545	 165812.
22:50:30  245 246	 1492642230	 345101254	 161722.
22:50:30  246 247	 1492642230	 511003408	 165902.
22:50:30  247 248	 1492642230	 644086553	 133083.
22:50:30  248 249	 1492642230	 809995912	 165910.
22:50:30  249 250	 1492642230	 971697215	 161701.
22:50:31  250 251	 1492642231	 137576046	 165879.
22:50:31  251 252	 1492642231	 299460777	 161885.
22:50:31  252 253	 1492642231	 461170662	 161709.
22:50:31  253 254	 1492642231	 626991685	 165822.
22:50:31  254 255	 1492642231	 788728345	 161736.
22:50:31  255 256	 1492642231	 925724139	 136996.
22:50:32  256 257	 1492642232	 87501158	 161777.
22:50:32  257 258	 1492642232	 253383860	 165883.
22:50:32  258 259	 1492642232	 415085254	 161701.
22:50:32  259 260	 1492642232	 576907181	 161822.
22:50:32  260 261	 1492642232	 742693578	 165786.
22:50:32  261 262	 1492642232	 904618484	 161925.
22:50:33  262 263	 1492642233	 70482831	 165865.
22:50:33  263 264	 1492642233	 203615942	 133133.
22:50:33  264 265	 1492642233	 365486776	 161871.
22:50:33  265 266	 1492642233	 531228697	 165741.
22:50:33  266 267	 1492642233	 693137597	 161909.
22:50:33  267 268	 1492642233	 854918300	 161781.
22:50:34  268 269	 1492642234	 20767936	 165850.
22:50:34  269 270	 1492642234	 182610298	 161842.
22:50:34  270 271	 1492642234	 348547368	 165937.
22:50:34  271 272	 1492642234	 481528037	 132981.
22:50:34  272 273	 1492642234	 643196426	 161668.
22:50:34  273 274	 1492642234	 808932700	 165737.
22:50:34  274 275	 1492642234	 970498413	 161565.
22:50:35  275 276	 1492642235	 132253986	 161756.
22:50:35  276 277	 1492642235	 298001449	 165747.
22:50:35  277 278	 1492642235	 463754485	 165753.
22:50:35  278 279	 1492642235	 596830194	 133076.
22:50:35  279 280	 1492642235	 758760345	 161930.
22:50:35  280 281	 1492642235	 924649212	 165889.
22:50:36  281 282	 1492642236	 86612577	 161963.
22:50:36  282 283	 1492642236	 248342675	 161730.
22:50:36  283 284	 1492642236	 414224910	 165883.
22:50:36  284 285	 1492642236	 576037294	 161812.
22:50:36  285 286	 1492642236	 737609430	 161572.
22:50:36  286 287	 1492642236	 874832721	 137224.
22:50:37  287 288	 1492642237	 36660219	 161827.
22:50:37  288 289	 1492642237	 202412732	 165753.
22:50:37  289 290	 1492642237	 364066455	 161653.
22:50:37  290 291	 1492642237	 530143769	 166078.
22:50:37  291 292	 1492642237	 691854187	 161710.
22:50:37  292 293	 1492642237	 857741537	 165887.
22:50:38  293 294	 1492642238	 19533827	 161793.
22:50:38  294 295	 1492642238	 185255036	 165721.
22:50:38  295 296	 1492642238	 318524362	 133269.
22:50:38  296 297	 1492642238	 480152974	 161629.
22:50:38  297 298	 1492642238	 646056396	 165903.
22:50:38  298 299	 1492642238	 807547362	 161491.
22:50:38  299 300	 1492642238	 973281462	 165734.
22:50:39  300 301	 1492642239	 134945137	 161664.
22:50:39  301 302	 1492642239	 300933004	 165988.
22:50:39  302 303	 1492642239	 434000228	 133067.
22:50:39  303 304	 1492642239	 595858236	 161858.
22:50:39  304 305	 1492642239	 761598736	 165741.
22:50:39  305 306	 1492642239	 923329007	 161730.
22:50:40  306 307	 1492642240	 89242087	 165913.
22:50:40  307 308	 1492642240	 250896691	 161655.
22:50:40  308 309	 1492642240	 416715881	 165819.
22:50:40  309 310	 1492642240	 578374487	 161658.
22:50:40  310 311	 1492642240	 715402669	 137029.
22:50:40  311 312	 1492642240	 877189447	 161786.
22:50:41  312 313	 1492642241	 38939332	 161750.
22:50:41  313 314	 1492642241	 204803552	 165864.
22:50:41  314 315	 1492642241	 366448771	 161646.
22:50:41  315 316	 1492642241	 532214126	 165765.
22:50:41  316 317	 1492642241	 693899037	 161685.
22:50:41  317 318	 1492642241	 855983858	 162085.
22:50:41  318 319	 1492642241	 989106630	 133122.
22:50:42  319 320	 1492642242	 154903654	 165797.
22:50:42  320 321	 1492642242	 316708811	 161806.
22:50:42  321 322	 1492642242	 478443797	 161735.
22:50:42  322 323	 1492642242	 644292555	 165848.
22:50:42  323 324	 1492642242	 806334707	 162043.
22:50:42  324 325	 1492642242	 968146343	 161811.
22:50:43  325 326	 1492642243	 133793260	 165647.
22:50:43  326 327	 1492642243	 266722774	 132930.
22:50:43  327 328	 1492642243	 432456570	 165733.
22:50:43  328 329	 1492642243	 594204789	 161749.
22:50:43  329 330	 1492642243	 760106407	 165901.
22:50:43  330 331	 1492642243	 921819160	 161713.
22:50:44  331 332	 1492642244	 87610743	 165792.
22:50:44  332 333	 1492642244	 249355943	 161745.
22:50:44  333 334	 1492642244	 411433965	 162078.
22:50:44  334 335	 1492642244	 544532397	 133098.
22:50:44  335 336	 1492642244	 710135851	 165604.
22:50:44  336 337	 1492642244	 875809081	 165673.
22:50:45  337 338	 1492642245	 37747480	 161938.
22:50:45  338 339	 1492642245	 199415810	 161669.
22:50:45  339 340	 1492642245	 365258281	 165842.
22:50:45  340 341	 1492642245	 526988656	 161731.
22:50:45  341 342	 1492642245	 660065882	 133077.
22:50:45  342 343	 1492642245	 825799438	 165733.
22:50:45  343 344	 1492642245	 987548702	 161750.
22:50:46  344 345	 1492642246	 153262983	 165714.
22:50:46  345 346	 1492642246	 318929881	 165667.
22:50:46  346 347	 1492642246	 480660817	 161731.
22:50:46  347 348	 1492642246	 642336950	 161676.
22:50:46  348 349	 1492642246	 779561639	 137224.
22:50:46  349 350	 1492642246	 941225571	 161664.
22:50:47  350 351	 1492642247	 107134343	 165909.
22:50:47  351 352	 1492642247	 268857847	 161724.
22:50:47  352 353	 1492642247	 434557012	 165699.
22:50:47  353 354	 1492642247	 596145649	 161588.
22:50:47  354 355	 1492642247	 761878807	 165734.
22:50:47  355 356	 1492642247	 894952907	 133074.
22:50:48  356 357	 1492642248	 60503802	 165551.
22:50:48  357 358	 1492642248	 222221744	 161718.
22:50:48  358 359	 1492642248	 388017582	 165796.
22:50:48  359 360	 1492642248	 549689234	 161671.
22:50:48  360 361	 1492642248	 715224350	 165535.
22:50:48  361 362	 1492642248	 848247320	 133023.
22:50:49  362 363	 1492642249	 9962747	 161715.
22:50:49  363 364	 1492642249	 175673672	 165711.
22:50:49  364 365	 1492642249	 337402439	 161729.
22:50:49  365 366	 1492642249	 503122187	 165720.
22:50:49  366 367	 1492642249	 664775954	 161654.
22:50:49  367 368	 1492642249	 830488098	 165712.
22:50:49  368 369	 1492642249	 963456813	 132969.
22:50:50  369 370	 1492642250	 129210187	 165753.
22:50:50  370 371	 1492642250	 291030303	 161820.
22:50:50  371 372	 1492642250	 452812221	 161782.
22:50:50  372 373	 1492642250	 618656651	 165844.
22:50:50  373 374	 1492642250	 780278473	 161622.
22:50:50  374 375	 1492642250	 945872492	 165594.
22:50:51  375 376	 1492642251	 78954046	 133082.
22:50:51  376 377	 1492642251	 244680227	 165726.
22:50:51  377 378	 1492642251	 406425974	 161746.
22:50:51  378 379	 1492642251	 567911933	 161486.
22:50:51  379 380	 1492642251	 733518293	 165606.
22:50:51  380 381	 1492642251	 895108073	 161590.
22:50:52  381 382	 1492642252	 60965451	 165857.
22:50:52  382 383	 1492642252	 194218092	 133253.
22:50:52  383 384	 1492642252	 359923201	 165705.
22:50:52  384 385	 1492642252	 521615699	 161692.
22:50:52  385 386	 1492642252	 687343128	 165728.
22:50:52  386 387	 1492642252	 849030326	 161687.
22:50:53  387 388	 1492642253	 10703342	 161673.
22:50:53  388 389	 1492642253	 151291820	 140589.
22:50:53  389 390	 1492642253	 317256336	 165964.
22:50:53  390 391	 1492642253	 478956665	 161700.
22:50:53  391 392	 1492642253	 640657196	 161701.
22:50:53  392 393	 1492642253	 806482988	 165826.
22:50:53  393 394	 1492642253	 968114659	 161631.
22:50:54  394 395	 1492642254	 133846215	 165732.
22:50:54  395 396	 1492642254	 266926734	 133081.
22:50:54  396 397	 1492642254	 432913641	 165986.
22:50:54  397 398	 1492642254	 594776635	 161863.
22:50:54  398 399	 1492642254	 756496419	 161720.
22:50:54  399 400	 1492642254	 918129973	 161634.
22:50:55  400 401	 1492642255	 83982801	 165853.
22:50:55  401 402	 1492642255	 245698512	 161715.
22:50:55  402 403	 1492642255	 411466989	 165769.
22:50:55  403 404	 1492642255	 544377891	 132911.
22:50:55  404 405	 1492642255	 710282839	 165905.
22:50:55  405 406	 1492642255	 872043436	 161760.
22:50:56  406 407	 1492642256	 37705486	 165662.
22:50:56  407 408	 1492642256	 199317663	 161612.
22:50:56  408 409	 1492642256	 361120158	 161803.
22:50:56  409 410	 1492642256	 526741777	 165622.
22:50:56  410 411	 1492642256	 659737850	 132996.
22:50:56  411 412	 1492642256	 825448951	 165711.
22:50:56  412 413	 1492642256	 987148142	 161699.
22:50:57  413 414	 1492642257	 148887113	 161739.
22:50:57  414 415	 1492642257	 314725697	 165838.
22:50:57  415 416	 1492642257	 476550022	 161825.
22:50:57  416 417	 1492642257	 642388439	 165838.
22:50:57  417 418	 1492642257	 804074103	 161686.
22:50:57  418 419	 1492642257	 937246122	 133172.
22:50:58  419 420	 1492642258	 103027730	 165782.
22:50:58  420 421	 1492642258	 264718457	 161690.
22:50:58  421 422	 1492642258	 430298594	 165580.
22:50:58  422 423	 1492642258	 591921650	 161623.
22:50:58  423 424	 1492642258	 757735049	 165814.
22:50:58  424 425	 1492642258	 919447235	 161712.
22:50:59  425 426	 1492642259	 52421075	 132974.
22:50:59  426 427	 1492642259	 218123620	 165702.
22:50:59  427 428	 1492642259	 379742598	 161619.
22:50:59  428 429	 1492642259	 545402613	 165661.
22:50:59  429 430	 1492642259	 707058468	 161655.
22:50:59  430 431	 1492642259	 872681872	 165624.
22:51:00  431 432	 1492642260	 5738477	 133056.
22:51:00  432 433	 1492642260	 167419290	 161681.
22:51:00  433 434	 1492642260	 333123398	 165704.
22:51:00  434 435	 1492642260	 494760593	 161637.
22:51:00  435 436	 1492642260	 660706367	 165946.
22:51:00  436 437	 1492642260	 822403161	 161697.
22:51:00  437 438	 1492642260	 988329629	 165927.
22:51:01  438 439	 1492642261	 150097389	 161767.
22:51:01  439 440	 1492642261	 283354394	 133257.
22:51:01  440 441	 1492642261	 449043816	 165690.
22:51:01  441 442	 1492642261	 610843692	 161799.
22:51:01  442 443	 1492642261	 772552556	 161709.
22:51:01  443 444	 1492642261	 938419620	 165867.
22:51:02  444 445	 1492642262	 104332322	 165913.
22:51:02  445 446	 1492642262	 266176324	 161844.
22:51:02  446 447	 1492642262	 399179250	 133003.
22:51:02  447 448	 1492642262	 564965475	 165786.
22:51:02  448 449	 1492642262	 726690396	 161725.
22:51:02  449 450	 1492642262	 892552248	 165862.
22:51:03  450 451	 1492642263	 54416934	 161865.
22:51:03  451 452	 1492642263	 220142319	 165725.
22:51:03  452 453	 1492642263	 381947123	 161805.
22:51:03  453 454	 1492642263	 518889054	 136942.
22:51:03  454 455	 1492642263	 680892188	 162003.
22:51:03  455 456	 1492642263	 842664209	 161772.
22:51:04  456 457	 1492642264	 8494105	 165830.
22:51:04  457 458	 1492642264	 174352290	 165858.
22:51:04  458 459	 1492642264	 336395134	 162043.
22:51:04  459 460	 1492642264	 498294074	 161899.
22:51:04  460 461	 1492642264	 660119770	 161826.
22:51:04  461 462	 1492642264	 826230226	 166110.
22:51:04  462 463	 1492642264	 959427102	 133197.
22:51:05  463 464	 1492642265	 125182154	 165755.
22:51:05  464 465	 1492642265	 287260288	 162078.
22:51:05  465 466	 1492642265	 453225934	 165966.
22:51:05  466 467	 1492642265	 618967454	 165741.
22:51:05  467 468	 1492642265	 780794968	 161828.
22:51:05  468 469	 1492642265	 946735455	 165940.
22:51:06  469 470	 1492642266	 108611818	 161877.
22:51:06  470 471	 1492642266	 245797252	 137185.
22:51:06  471 472	 1492642266	 407850010	 162053.
22:51:06  472 473	 1492642266	 569779259	 161929.
22:51:06  473 474	 1492642266	 735565444	 165786.
22:51:06  474 475	 1492642266	 897364616	 161799.
22:51:07  475 476	 1492642267	 63136144	 165772.
22:51:07  476 477	 1492642267	 228948457	 165812.
22:51:07  477 478	 1492642267	 390725312	 161777.
22:51:07  478 479	 1492642267	 524045910	 133321.
22:51:07  479 480	 1492642267	 689999612	 165953.
22:51:07  480 481	 1492642267	 851905263	 161906.
22:51:08  481 482	 1492642268	 17860619	 165955.
22:51:08  482 483	 1492642268	 179609043	 161749.
22:51:08  483 484	 1492642268	 345311887	 165703.
22:51:08  484 485	 1492642268	 506943656	 161631.
22:51:08  485 486	 1492642268	 644326551	 137383.
22:51:08  486 487	 1492642268	 806240272	 161914.
22:51:08  487 488	 1492642268	 972045332	 165805.
22:51:09  488 489	 1492642269	 133913654	 161868.
22:51:09  489 490	 1492642269	 299789283	 165876.
22:51:09  490 491	 1492642269	 461590904	 161802.
22:51:09  491 492	 1492642269	 627492981	 165902.
22:51:09  492 493	 1492642269	 789614514	 162121.
22:51:09  493 494	 1492642269	 922822564	 133208.
22:51:10  494 495	 1492642270	 89063945	 166242.
22:51:10  495 496	 1492642270	 250883445	 161819.
22:51:10  496 497	 1492642270	 416773806	 165891.
22:51:10  497 498	 1492642270	 578534153	 161760.
22:51:10  498 499	 1492642270	 744397584	 165863.
22:51:10  499 500	 1492642270	 906157979	 161761.
22:51:11  500 501	 1492642271	 72118653	 165960.
22:51:11  501 502	 1492642271	 234016075	 161898.
22:51:11  502 503	 1492642271	 367230921	 133215.
22:51:11  503 504	 1492642271	 533227516	 165996.
22:51:11  504 505	 1492642271	 694978614	 161751.
22:51:11  505 506	 1492642271	 860710956	 165733.
22:51:12  506 507	 1492642272	 22514766	 161804.
22:51:12  507 508	 1492642272	 188291051	 165776.
22:51:12  508 509	 1492642272	 350076914	 161786.
22:51:12  509 510	 1492642272	 487172333	 137095.
22:51:12  510 511	 1492642272	 648966526	 161794.
22:51:12  511 512	 1492642272	 814933951	 165968.
22:51:12  512 513	 1492642272	 976597409	 161663.
22:51:13  513 514	 1492642273	 142372978	 165776.
22:51:13  514 515	 1492642273	 304014648	 161641.
22:51:13  515 516	 1492642273	 465610826	 161597.
22:51:13  516 517	 1492642273	 631327833	 165717.
22:51:13  517 518	 1492642273	 764502675	 133174.
22:51:13  518 519	 1492642273	 930357236	 165855.
22:51:14  519 520	 1492642274	 92221239	 161864.
22:51:14  520 521	 1492642274	 258037993	 165817.
22:51:14  521 522	 1492642274	 419809045	 161771.
22:51:14  522 523	 1492642274	 585632620	 165823.
22:51:14  523 524	 1492642274	 747329415	 161697.
22:51:14  524 525	 1492642274	 880401059	 133072.
22:51:15  525 526	 1492642275	 46356991	 165956.
22:51:15  526 527	 1492642275	 208183616	 161826.
22:51:15  527 528	 1492642275	 374010177	 165827.
22:51:15  528 529	 1492642275	 535822523	 161813.
22:51:15  529 530	 1492642275	 701564181	 165741.
22:51:15  530 531	 1492642275	 863027689	 161463.
22:51:16  531 532	 1492642276	 28810466	 165783.
22:51:16  532 533	 1492642276	 161910032	 133100.
22:51:16  533 534	 1492642276	 323693769	 161784.
22:51:16  534 535	 1492642276	 489635238	 165941.
22:51:16  535 536	 1492642276	 651304230	 161669.
22:51:16  536 537	 1492642276	 817391001	 166087.
22:51:16  537 538	 1492642276	 979186283	 161795.
22:51:17  538 539	 1492642277	 144880691	 165695.
22:51:17  539 540	 1492642277	 302976521	 158095.
22:51:17  540 541	 1492642277	 440031604	 137055.
22:51:17  541 542	 1492642277	 601818901	 161788.
22:51:17  542 543	 1492642277	 767723924	 165905.
22:51:17  543 544	 1492642277	 929496316	 161772.
22:51:18  544 545	 1492642278	 95316571	 165820.
22:51:18  545 546	 1492642278	 257239581	 161923.
22:51:18  546 547	 1492642278	 423088881	 165850.
22:51:18  547 548	 1492642278	 584931342	 161842.
22:51:18  548 549	 1492642278	 722008838	 137078.
22:51:18  549 550	 1492642278	 883645143	 161636.
22:51:19  550 551	 1492642279	 49377923	 165733.
22:51:19  551 552	 1492642279	 211112048	 161734.
22:51:19  552 553	 1492642279	 373068525	 161956.
22:51:19  553 554	 1492642279	 538833778	 165766.
22:51:19  554 555	 1492642279	 700625657	 161791.
22:51:19  555 556	 1492642279	 866199192	 165574.
22:51:19  556 557	 1492642279	 999365896	 133167.
22:51:20  557 558	 1492642280	 164999141	 165633.
22:51:20  558 559	 1492642280	 326774687	 161775.
22:51:20  559 560	 1492642280	 492757740	 165983.
22:51:20  560 561	 1492642280	 654514789	 161758.
22:51:20  561 562	 1492642280	 820200102	 165685.
22:51:20  562 563	 1492642280	 981998593	 161798.
22:51:21  563 564	 1492642281	 143854137	 161856.
22:51:21  564 565	 1492642281	 281135829	 137282.
22:51:21  565 566	 1492642281	 442889026	 161753.
22:51:21  566 567	 1492642281	 608769631	 165880.
22:51:21  567 568	 1492642281	 770456714	 161688.
22:51:21  568 569	 1492642281	 936213068	 165756.
22:51:22  569 570	 1492642282	 97884267	 161671.
22:51:22  570 571	 1492642282	 263806921	 165923.
22:51:22  571 572	 1492642282	 396881576	 133074.
22:51:22  572 573	 1492642282	 562574795	 165694.
22:51:22  573 574	 1492642282	 724258976	 161684.
22:51:22  574 575	 1492642282	 890039478	 165780.
22:51:23  575 576	 1492642283	 51819067	 161780.
22:51:23  576 577	 1492642283	 217758216	 165939.
22:51:23  577 578	 1492642283	 379488795	 161731.
22:51:23  578 579	 1492642283	 541305429	 161816.
22:51:23  579 580	 1492642283	 678434639	 137129.
22:51:23  580 581	 1492642283	 840191557	 161757.
22:51:24  581 582	 1492642284	 5974164	 165783.
22:51:24  582 583	 1492642284	 167745188	 161771.
22:51:24  583 584	 1492642284	 333531617	 165786.
22:51:24  584 585	 1492642284	 495385483	 161854.
22:51:24  585 586	 1492642284	 661290339	 165905.
22:51:24  586 587	 1492642284	 794313402	 133023.
22:51:24  587 588	 1492642284	 956552139	 162239.
22:51:25  588 589	 1492642285	 118348901	 161797.
22:51:25  589 590	 1492642285	 284197505	 165848.
22:51:25  590 591	 1492642285	 445918185	 161721.
22:51:25  591 592	 1492642285	 611737189	 165819.
22:51:25  592 593	 1492642285	 773503901	 161767.
22:51:25  593 594	 1492642285	 939356125	 165852.
22:51:26  594 595	 1492642286	 101084883	 161729.
22:51:26  595 596	 1492642286	 234303113	 133218.
22:51:26  596 597	 1492642286	 400158185	 165855.
22:51:26  597 598	 1492642286	 561910280	 161752.
22:51:26  598 599	 1492642286	 727559106	 165649.
22:51:26  599 600	 1492642286	 889244377	 161685.
22:51:27  600 601	 1492642287	 55102150	 165858.
22:51:27  601 602	 1492642287	 216816040	 161714.
22:51:27  602 603	 1492642287	 353824546	 137008.
22:51:27  603 604	 1492642287	 515571369	 161747.
22:51:27  604 605	 1492642287	 681504460	 165933.
22:51:27  605 606	 1492642287	 839552942	 158049.
22:51:28  606 607	 1492642288	 5462341	 165909.
22:51:28  607 608	 1492642288	 167252633	 161790.
22:51:28  608 609	 1492642288	 329489260	 162237.
22:51:28  609 610	 1492642288	 491166579	 161677.
22:51:28  610 611	 1492642288	 656942444	 165776.
22:51:28  611 612	 1492642288	 818486868	 161545.
22:51:28  612 613	 1492642288	 955631341	 137145.
22:51:29  613 614	 1492642289	 117491518	 161859.
22:51:29  614 615	 1492642289	 279180612	 161689.
22:51:29  615 616	 1492642289	 444919847	 165740.
22:51:29  616 617	 1492642289	 606860534	 161941.
22:51:29  617 618	 1492642289	 772691760	 165831.
22:51:29  618 619	 1492642289	 934280478	 161588.
22:51:30  619 620	 1492642290	 67268192	 132988.
22:51:30  620 621	 1492642290	 233101639	 165833.
22:51:30  621 622	 1492642290	 394898670	 161797.
22:51:30  622 623	 1492642290	 560856147	 165958.
22:51:30  623 624	 1492642290	 722608272	 161752.
22:51:30  624 625	 1492642290	 888239491	 165631.
22:51:31  625 626	 1492642291	 50178599	 161939.
22:51:31  626 627	 1492642291	 212045216	 161867.
22:51:31  627 628	 1492642291	 377827046	 165782.
22:51:31  628 629	 1492642291	 510929985	 133103.
22:51:31  629 630	 1492642291	 672675617	 161745.
22:51:31  630 631	 1492642291	 838505033	 165830.
22:51:31  631 632	 1492642292	 4209813	 165705.
22:51:32  632 633	 1492642292	 166004869	 161795.
22:51:32  633 634	 1492642292	 327920689	 161915.
22:51:32  634 635	 1492642292	 493817826	 165898.
22:51:32  635 636	 1492642292	 666093841	 172276.
22:51:32  636 637	 1492642292	 803234769	 137141.
22:51:32  637 638	 1492642292	 969123798	 165889.
22:51:33  638 639	 1492642293	 131019472	 161895.
22:51:33  639 640	 1492642293	 296858102	 165839.
22:51:33  640 641	 1492642293	 458667171	 161809.
22:51:33  641 642	 1492642293	 591825047	 133158.
22:51:33  642 643	 1492642293	 757592710	 165768.
22:51:33  643 644	 1492642293	 919295594	 161702.
22:51:34  644 645	 1492642294	 85240265	 165945.
22:51:34  645 646	 1492642294	 247071789	 161832.
22:51:34  646 647	 1492642294	 412878104	 165806.
22:51:34  647 648	 1492642294	 574635655	 161757.
22:51:34  648 649	 1492642294	 707706014	 133071.
22:51:34  649 650	 1492642294	 873626737	 165921.
22:51:35  650 651	 1492642295	 35126721	 161500.
22:51:35  651 652	 1492642295	 200903542	 165776.
22:51:35  652 653	 1492642295	 362776343	 161873.
22:51:35  653 654	 1492642295	 524554449	 161778.
22:51:35  654 655	 1492642295	 690220785	 165667.
22:51:35  655 656	 1492642295	 851977866	 161757.
22:51:35  656 657	 1492642295	 989143368	 137165.
22:51:36  657 658	 1492642296	 150829022	 161686.
22:51:36  658 659	 1492642296	 316592398	 165763.
22:51:36  659 660	 1492642296	 478339718	 161748.
22:51:36  660 661	 1492642296	 643970003	 165630.
22:51:36  661 662	 1492642296	 805677590	 161707.
22:51:36  662 663	 1492642296	 967601488	 161924.
22:51:37  663 664	 1492642297	 133591210	 165990.
22:51:37  664 665	 1492642297	 266696689	 133105.
22:51:37  665 666	 1492642297	 432772108	 166076.
22:51:37  666 667	 1492642297	 594773466	 162001.
22:51:37  667 668	 1492642297	 756522855	 161750.
22:51:37  668 669	 1492642297	 918030647	 161507.
22:51:38  669 670	 1492642298	 83899166	 165869.
22:51:38  670 671	 1492642298	 245711703	 161812.
22:51:38  671 672	 1492642298	 411424520	 165713.
22:51:38  672 673	 1492642298	 573176989	 161753.
22:51:38  673 674	 1492642298	 706300354	 133123.
22:51:38  674 675	 1492642298	 872149820	 165850.
22:51:39  675 676	 1492642299	 33854935	 161705.
22:51:39  676 677	 1492642299	 199672643	 165817.
22:51:39  677 678	 1492642299	 361483714	 161812.
22:51:39  678 679	 1492642299	 527211872	 165728.
22:51:39  679 680	 1492642299	 689147148	 161935.
22:51:39  680 681	 1492642299	 850881264	 161734.
22:51:39  681 682	 1492642299	 988109082	 137228.
22:51:40  682 683	 1492642300	 149845098	 161736.
22:51:40  683 684	 1492642300	 315554241	 165709.
22:51:40  684 685	 1492642300	 477485651	 161931.
22:51:40  685 686	 1492642300	 639171246	 161686.
22:51:40  686 687	 1492642300	 804935442	 165764.
22:51:40  687 688	 1492642300	 966804342	 161869.
22:51:41  688 689	 1492642301	 132734723	 165931.
22:51:41  689 690	 1492642301	 265836831	 133102.
22:51:41  690 691	 1492642301	 431592520	 165755.
22:51:41  691 692	 1492642301	 593237046	 161645.
22:51:41  692 693	 1492642301	 755004858	 161768.
22:51:41  693 694	 1492642301	 920731980	 165727.
22:51:42  694 695	 1492642302	 82411704	 161680.
22:51:42  695 696	 1492642302	 248292471	 165880.
22:51:42  696 697	 1492642302	 410057449	 161765.
22:51:42  697 698	 1492642302	 547178658	 137121.
22:51:42  698 699	 1492642302	 708999059	 161821.
22:51:42  699 700	 1492642302	 870778598	 161779.
22:51:43  700 701	 1492642303	 36688913	 165911.
22:51:43  701 702	 1492642303	 198379825	 161691.
22:51:43  702 703	 1492642303	 360033181	 161653.
22:51:43  703 704	 1492642303	 525777791	 165745.
22:51:43  704 705	 1492642303	 687495859	 161718.
22:51:43  705 706	 1492642303	 824501120	 137005.
22:51:43  706 707	 1492642303	 986847228	 162346.
22:51:44  707 708	 1492642304	 144482755	 157636.
22:51:44  708 709	 1492642304	 310163134	 165680.
22:51:44  709 710	 1492642304	 471953277	 161790.
22:51:44  710 711	 1492642304	 637711126	 165758.
22:51:44  711 712	 1492642304	 799353395	 161642.
22:51:44  712 713	 1492642304	 960964159	 161611.
22:51:45  713 714	 1492642305	 98117030	 137153.
22:51:45  714 715	 1492642305	 260063825	 161947.
22:51:45  715 716	 1492642305	 421730765	 161667.
22:51:45  716 717	 1492642305	 587417988	 165687.
22:51:45  717 718	 1492642305	 749186233	 161768.
22:51:45  718 719	 1492642305	 910955269	 161769.
22:51:46  719 720	 1492642306	 76840348	 165885.
22:51:46  720 721	 1492642306	 238640299	 161800.
22:51:46  721 722	 1492642306	 375680488	 137041.
22:51:46  722 723	 1492642306	 537509067	 161828.
22:51:46  723 724	 1492642306	 699287111	 161778.
22:51:46  724 725	 1492642306	 865146556	 165859.
22:51:47  725 726	 1492642307	 26830972	 161685.
22:51:47  726 727	 1492642307	 192672378	 165841.
22:51:47  727 728	 1492642307	 354211389	 161539.
22:51:47  728 729	 1492642307	 515866237	 161655.
22:51:47  729 730	 1492642307	 653014762	 137149.
22:51:47  730 731	 1492642307	 814627691	 161612.
22:51:47  731 732	 1492642307	 980327295	 165700.
22:51:48  732 733	 1492642308	 141995283	 161668.
22:51:48  733 734	 1492642308	 303685657	 161690.
22:51:48  734 735	 1492642308	 469334804	 165650.
22:51:48  735 736	 1492642308	 631123851	 161789.
22:51:48  736 737	 1492642308	 768262020	 137138.
22:51:48  737 738	 1492642308	 929985592	 161723.
22:51:49  738 739	 1492642309	 95747961	 165763.
22:51:49  739 740	 1492642309	 257366214	 161618.
22:51:49  740 741	 1492642309	 418949130	 161583.
22:51:49  741 742	 1492642309	 584709592	 165760.
22:51:49  742 743	 1492642309	 746108975	 161400.
22:51:49  743 744	 1492642309	 882960344	 136851.
22:51:50  744 745	 1492642310	 44691078	 161731.
22:51:50  745 746	 1492642310	 210661871	 165971.
22:51:50  746 747	 1492642310	 372262782	 161601.
22:51:50  747 748	 1492642310	 533987224	 161724.
22:51:50  748 749	 1492642310	 699865661	 165878.
22:51:50  749 750	 1492642310	 861598019	 161733.
22:51:50  750 751	 1492642310	 994672701	 133074.
22:51:51  751 752	 1492642311	 185711965	 191040.
22:51:51  752 753	 1492642311	 318691068	 132979.
22:51:51  753 754	 1492642311	 484397205	 165706.
22:51:51  754 755	 1492642311	 646093716	 161697.
22:51:51  755 756	 1492642311	 811849201	 165755.
22:51:51  756 757	 1492642311	 973496420	 161647.
22:51:52  757 758	 1492642312	 139158607	 165662.
22:51:52  758 759	 1492642312	 272240161	 133082.
22:51:52  759 760	 1492642312	 434050811	 161811.
22:51:52  760 761	 1492642312	 599714671	 165663.
22:51:52  761 762	 1492642312	 761332869	 161619.
22:51:52  762 763	 1492642312	 927251534	 165918.
22:51:53  763 764	 1492642313	 89060671	 161809.
22:51:53  764 765	 1492642313	 254884702	 165824.
22:51:53  765 766	 1492642313	 388080904	 133197.
22:51:53  766 767	 1492642313	 549760766	 161680.
22:51:53  767 768	 1492642313	 715524083	 165763.
22:51:53  768 769	 1492642313	 877335056	 161811.
22:51:54  769 770	 1492642314	 39592413	 162257.
22:51:54  770 771	 1492642314	 201522408	 161930.
22:51:54  771 772	 1492642314	 367447726	 165925.
22:51:54  772 773	 1492642314	 529212617	 161765.
22:51:54  773 774	 1492642314	 695164805	 165953.
22:51:54  774 775	 1492642314	 856772654	 161607.
22:51:54  775 776	 1492642314	 989889116	 133117.
22:51:55  776 777	 1492642315	 152052773	 162164.
22:51:55  777 778	 1492642315	 317903441	 165850.
22:51:55  778 779	 1492642315	 479689962	 161787.
22:51:55  779 780	 1492642315	 645613895	 165924.
22:51:55  780 781	 1492642315	 807466051	 161852.
22:51:55  781 782	 1492642315	 973432876	 165967.
22:51:56  782 783	 1492642316	 135317071	 161884.
22:51:56  783 784	 1492642316	 301182364	 165865.
22:51:56  784 785	 1492642316	 434217792	 133036.
22:51:56  785 786	 1492642316	 595981990	 161764.
22:51:56  786 787	 1492642316	 761821767	 165839.
22:51:56  787 788	 1492642316	 923450043	 161629.
22:51:57  788 789	 1492642317	 85402893	 161953.
22:51:57  789 790	 1492642317	 251368364	 165965.
22:51:57  790 791	 1492642317	 413334501	 161966.
22:51:57  791 792	 1492642317	 579295410	 165961.
22:51:57  792 793	 1492642317	 712403193	 133108.
22:51:57  793 794	 1492642317	 874102884	 161700.
22:51:58  794 795	 1492642318	 39982806	 165880.
22:51:58  795 796	 1492642318	 201634825	 161652.
22:51:58  796 797	 1492642318	 363806102	 162171.
22:51:58  797 798	 1492642318	 529635999	 165830.
22:51:58  798 799	 1492642318	 691368928	 161733.
22:51:58  799 800	 1492642318	 857400264	 166031.
22:51:58  800 801	 1492642318	 990432982	 133033.
22:51:59  801 802	 1492642319	 156321474	 165888.
22:51:59  802 803	 1492642319	 318174286	 161853.
22:51:59  803 804	 1492642319	 483998547	 165824.
22:51:59  804 805	 1492642319	 645912724	 161915.
22:51:59  805 806	 1492642319	 807636680	 161723.
22:51:59  806 807	 1492642319	 973618406	 165982.
22:52:00  807 808	 1492642320	 135550727	 161933.
22:52:00  808 809	 1492642320	 301418467	 165867.
22:52:00  809 810	 1492642320	 434688349	 133270.
22:52:00  810 811	 1492642320	 596530601	 161842.
22:52:00  811 812	 1492642320	 762501913	 165972.
22:52:00  812 813	 1492642320	 925221396	 162719.
22:52:01  813 814	 1492642321	 83006506	 157785.
22:52:01  814 815	 1492642321	 248966609	 165960.
22:52:01  815 816	 1492642321	 410673346	 161707.
22:52:01  816 817	 1492642321	 576338059	 165665.
22:52:01  817 818	 1492642321	 738156249	 161818.
22:52:01  818 819	 1492642321	 899901390	 161745.
22:52:02  819 820	 1492642322	 36938775	 137037.
22:52:02  820 821	 1492642322	 198886480	 161948.
22:52:02  821 822	 1492642322	 365042717	 166156.
22:52:02  822 823	 1492642322	 527073655	 162031.
22:52:02  823 824	 1492642322	 692921934	 165849.
22:52:02  824 825	 1492642322	 854604370	 161682.
22:52:03  825 826	 1492642323	 20423888	 165820.
22:52:03  826 827	 1492642323	 182230079	 161806.
22:52:03  827 828	 1492642323	 319583483	 137353.
22:52:03  828 829	 1492642323	 481432562	 161849.
22:52:03  829 830	 1492642323	 643231524	 161799.
22:52:03  830 831	 1492642323	 809200066	 165969.
22:52:03  831 832	 1492642323	 970944256	 161744.
22:52:04  832 833	 1492642324	 132786722	 161842.
22:52:04  833 834	 1492642324	 298668330	 165882.
22:52:04  834 835	 1492642324	 464566534	 165898.
22:52:04  835 836	 1492642324	 597722210	 133156.
22:52:04  836 837	 1492642324	 759554859	 161833.
22:52:04  837 838	 1492642324	 925545934	 165991.
22:52:05  838 839	 1492642325	 87348321	 161802.
22:52:05  839 840	 1492642325	 253198744	 165850.
22:52:05  840 841	 1492642325	 415228845	 162031.
22:52:05  841 842	 1492642325	 581202845	 165974.
22:52:05  842 843	 1492642325	 743091046	 161888.
22:52:05  843 844	 1492642325	 880304189	 137213.
22:52:06  844 845	 1492642326	 42125311	 161821.
22:52:06  845 846	 1492642326	 207978178	 165853.
22:52:06  846 847	 1492642326	 369706735	 161729.
22:52:06  847 848	 1492642326	 535710657	 166003.
22:52:06  848 849	 1492642326	 697605795	 161896.
22:52:06  849 850	 1492642326	 863426294	 165820.
22:52:07  850 851	 1492642327	 25268246	 161842.
22:52:07  851 852	 1492642327	 158458924	 133191.
22:52:07  852 853	 1492642327	 324525356	 166066.
22:52:07  853 854	 1492642327	 486366272	 161841.
22:52:07  854 855	 1492642327	 652337195	 165971.
22:52:07  855 856	 1492642327	 814126560	 161789.
22:52:07  856 857	 1492642327	 980055081	 165929.
22:52:08  857 858	 1492642328	 142115378	 162060.
22:52:08  858 859	 1492642328	 308147030	 166032.
22:52:08  859 860	 1492642328	 441300304	 133153.
22:52:08  860 861	 1492642328	 603154314	 161854.
22:52:08  861 862	 1492642328	 769131684	 165977.
22:52:08  862 863	 1492642328	 935043174	 165912.
22:52:09  863 864	 1492642329	 96888957	 161846.
22:52:09  864 865	 1492642329	 258697682	 161809.
22:52:09  865 866	 1492642329	 424424299	 165726.
22:52:09  866 867	 1492642329	 557730388	 133306.
22:52:09  867 868	 1492642329	 723508029	 165778.
22:52:09  868 869	 1492642329	 889397385	 165889.
22:52:10  869 870	 1492642330	 51156978	 161760.
22:52:10  870 871	 1492642330	 213168535	 162011.
22:52:10  871 872	 1492642330	 378958368	 165790.
22:52:10  872 873	 1492642330	 540752586	 161794.
22:52:10  873 874	 1492642330	 706668414	 165916.
22:52:10  874 875	 1492642330	 839716032	 133048.
22:52:11  875 876	 1492642331	 5604720	 165889.
22:52:11  876 877	 1492642331	 167488617	 161883.
22:52:11  877 878	 1492642331	 333564688	 166077.
22:52:11  878 879	 1492642331	 495476261	 161911.
22:52:11  879 880	 1492642331	 657425480	 161949.
22:52:11  880 881	 1492642331	 823279588	 165855.
22:52:11  881 882	 1492642331	 985038618	 161758.
22:52:12  882 883	 1492642332	 150893538	 165855.
22:52:12  883 884	 1492642332	 283948501	 133055.
22:52:12  884 885	 1492642332	 449886528	 165938.
22:52:12  885 886	 1492642332	 611688970	 161803.
22:52:12  886 887	 1492642332	 773613484	 161924.
22:52:12  887 888	 1492642332	 939547676	 165934.
22:52:13  888 889	 1492642333	 101302578	 161755.
22:52:13  889 890	 1492642333	 267171267	 165869.
22:52:13  890 891	 1492642333	 429173359	 162002.
22:52:13  891 892	 1492642333	 595089963	 165917.
22:52:13  892 893	 1492642333	 728330713	 133241.
22:52:13  893 894	 1492642333	 894149900	 165819.
22:52:14  894 895	 1492642334	 56036179	 161886.
22:52:14  895 896	 1492642334	 217883061	 161847.
22:52:14  896 897	 1492642334	 384016017	 166133.
22:52:14  897 898	 1492642334	 545837685	 161821.
22:52:14  898 899	 1492642334	 711664094	 165827.
22:52:14  899 900	 1492642334	 873434427	 161770.
22:52:15  900 901	 1492642335	 10659988	 137226.
22:52:15  901 902	 1492642335	 172466395	 161806.
22:52:15  902 903	 1492642335	 334202426	 161737.
22:52:15  903 904	 1492642335	 500166408	 165963.
22:52:15  904 905	 1492642335	 661994295	 161828.
22:52:15  905 906	 1492642335	 827786960	 165793.
22:52:15  906 907	 1492642335	 989515256	 161728.
22:52:16  907 908	 1492642336	 155358054	 165843.
22:52:16  908 909	 1492642336	 288465933	 133108.
22:52:16  909 910	 1492642336	 454403709	 165937.
22:52:16  910 911	 1492642336	 616287762	 161885.
22:52:16  911 912	 1492642336	 782130591	 165842.
22:52:16  912 913	 1492642336	 943895217	 161765.
22:52:17  913 914	 1492642337	 109635814	 165741.
22:52:17  914 915	 1492642337	 271290124	 161654.
22:52:17  915 916	 1492642337	 437073439	 165783.
22:52:17  916 917	 1492642337	 570175753	 133103.
22:52:17  917 918	 1492642337	 731908063	 161732.
22:52:17  918 919	 1492642337	 898506769	 166599.
22:52:18  919 920	 1492642338	 56329805	 157823.
22:52:18  920 921	 1492642338	 222231360	 165901.
22:52:18  921 922	 1492642338	 383937868	 161707.
22:52:18  922 923	 1492642338	 550009437	 166071.
22:52:18  923 924	 1492642338	 711772738	 161764.
22:52:18  924 925	 1492642338	 877728654	 165955.
22:52:19  925 926	 1492642339	 10794567	 133066.
22:52:19  926 927	 1492642339	 172535738	 161742.
22:52:19  927 928	 1492642339	 338500472	 165964.
22:52:19  928 929	 1492642339	 504417007	 165917.
22:52:19  929 930	 1492642339	 666176902	 161760.
22:52:19  930 931	 1492642339	 832050805	 165874.
22:52:19  931 932	 1492642339	 993934110	 161883.
22:52:20  932 933	 1492642340	 155720645	 161786.
22:52:20  933 934	 1492642340	 292831082	 137111.
22:52:20  934 935	 1492642340	 454641983	 161811.
22:52:20  935 936	 1492642340	 620673295	 166031.
22:52:20  936 937	 1492642340	 782403565	 161730.
22:52:20  937 938	 1492642340	 948766126	 166363.
22:52:21  938 939	 1492642341	 110613112	 161847.
22:52:21  939 940	 1492642341	 276489414	 165876.
22:52:21  940 941	 1492642341	 438309885	 161821.
22:52:21  941 942	 1492642341	 571336154	 165724.
22:52:21  942 943	 1492642341	 737198822	 133165.
22:52:21  943 944	 1492642341	 898991761	 161793.
22:52:22  944 945	 1492642342	 64784255	 165792.
22:52:22  945 946	 1492642342	 226725467	 161941.
22:52:22  946 947	 1492642342	 392708389	 165983.
22:52:22  947 948	 1492642342	 554495156	 161787.
22:52:22  948 949	 1492642342	 720490512	 165995.
22:52:22  949 950	 1492642342	 882215635	 161725.
22:52:23  950 951	 1492642343	 15426137	 133211.
22:52:23  951 952	 1492642343	 177488854	 162063.
22:52:23  952 953	 1492642343	 343482202	 165993.
22:52:23  953 954	 1492642343	 505411157	 161929.
22:52:23  954 955	 1492642343	 671390316	 165979.
22:52:23  955 956	 1492642343	 833293278	 161903.
22:52:23  956 957	 1492642343	 998877513	 165584.
22:52:24  957 958	 1492642344	 160619184	 161742.
22:52:24  958 959	 1492642344	 297739511	 137120.
22:52:24  959 960	 1492642344	 459494201	 161755.
22:52:24  960 961	 1492642344	 625356852	 165863.
22:52:24  961 962	 1492642344	 787719972	 162363.
22:52:24  962 963	 1492642344	 949750556	 162030.
22:52:25  963 964	 1492642345	 111432115	 161682.
22:52:25  964 965	 1492642345	 277273105	 165841.
22:52:25  965 966	 1492642345	 439053330	 161781.
22:52:25  966 967	 1492642345	 605024678	 165970.
22:52:25  967 968	 1492642345	 738102295	 133078.
22:52:25  968 969	 1492642345	 900124910	 162023.
22:52:26  969 970	 1492642346	 65929773	 165805.
22:52:26  970 971	 1492642346	 227764794	 161835.
22:52:26  971 972	 1492642346	 389792708	 162027.
22:52:26  972 973	 1492642346	 555562644	 165770.
22:52:26  973 974	 1492642346	 717467170	 161905.
22:52:26  974 975	 1492642346	 883464233	 165997.
22:52:27  975 976	 1492642347	 45299509	 161835.
22:52:27  976 977	 1492642347	 182429383	 137130.
22:52:27  977 978	 1492642347	 344323681	 161894.
22:52:27  978 979	 1492642347	 510509671	 166186.
22:52:27  979 980	 1492642347	 672260224	 161751.
22:52:27  980 981	 1492642347	 838091328	 165831.
22:52:27  981 982	 1492642348	 299794	 162209.
22:52:28  982 983	 1492642348	 162167099	 161867.
22:52:28  983 984	 1492642348	 323984443	 161817.
22:52:28  984 985	 1492642348	 489762142	 165778.
22:52:28  985 986	 1492642348	 622955304	 133193.
22:52:28  986 987	 1492642348	 788955517	 166000.
22:52:28  987 988	 1492642348	 947677873	 158723.
22:52:29  988 989	 1492642349	 109533649	 161855.
22:52:29  989 990	 1492642349	 275380670	 165847.
22:52:29  990 991	 1492642349	 437130172	 161750.
22:52:29  991 992	 1492642349	 603084064	 165954.
22:52:29  992 993	 1492642349	 764891150	 161807.
22:52:29  993 994	 1492642349	 930692273	 165801.
22:52:30  994 995	 1492642350	 63825693	 133133.
22:52:30  995 996	 1492642350	 225804898	 161980.
22:52:30  996 997	 1492642350	 391700508	 165895.
22:52:30  997 998	 1492642350	 553750836	 162051.
22:52:30  998 999	 1492642350	 715684334	 161933.
22:52:30  999 1000	 1492642350	 881570495	 165886.
22:52:31 1000 1001	 1492642351	 43596522	 162026.
22:52:31 1001 1002	 1492642351	 209656198	 166060.
22:52:31 1002 1003	 1492642351	 371542253	 161886.
22:52:31 1003 1004	 1492642351	 537346174	 165804.
22:52:31 1004 1005	 1492642351	 670534961	 133189.
22:52:31 1005 1006	 1492642351	 832535969	 162001.
22:52:31 1006 1007	 1492642351	 998400176	 165864.
22:52:32 1007 1008	 1492642352	 160156971	 161757.
22:52:32 1008 1009	 1492642352	 326163256	 166006.
22:52:32 1009 1010	 1492642352	 488010108	 161847.
22:52:32 1010 1011	 1492642352	 653838962	 165829.
22:52:32 1011 1012	 1492642352	 815617960	 161779.
22:52:32 1012 1013	 1492642352	 952747947	 137130.
22:52:33 1013 1014	 1492642353	 114420351	 161672.
22:52:33 1014 1015	 1492642353	 276142590	 161722.
22:52:33 1015 1016	 1492642353	 442010070	 165868.
22:52:33 1016 1017	 1492642353	 603702311	 161692.
22:52:33 1017 1018	 1492642353	 769541627	 165839.
22:52:33 1018 1019	 1492642353	 932513374	 162972.
22:52:34 1019 1020	 1492642354	 90448465	 157935.
22:52:34 1020 1021	 1492642354	 252383649	 161935.
22:52:34 1021 1022	 1492642354	 414207221	 161824.
22:52:34 1022 1023	 1492642354	 580009216	 165802.
22:52:34 1023 1024	 1492642354	 713105435	 133096.
22:52:34 1024 1025	 1492642354	 879027123	 165922.
22:52:35 1025 1026	 1492642355	 40886888	 161860.
22:52:35 1026 1027	 1492642355	 206689812	 165803.
22:52:35 1027 1028	 1492642355	 368596421	 161906.
22:52:35 1028 1029	 1492642355	 530521820	 161926.
22:52:35 1029 1030	 1492642355	 696136657	 165614.
22:52:35 1030 1031	 1492642355	 857797121	 161661.
22:52:35 1031 1032	 1492642355	 994925215	 137128.
22:52:36 1032 1033	 1492642356	 156683983	 161759.
22:52:36 1033 1034	 1492642356	 322503474	 165819.
22:52:36 1034 1035	 1492642356	 484379290	 161876.
22:52:36 1035 1036	 1492642356	 650474676	 166095.
22:52:36 1036 1037	 1492642356	 812341407	 161867.
22:52:36 1037 1038	 1492642356	 978193204	 165852.
22:52:37 1038 1039	 1492642357	 139923464	 161730.
22:52:37 1039 1040	 1492642357	 272967018	 133044.
22:52:37 1040 1041	 1492642357	 438847478	 165880.
22:52:37 1041 1042	 1492642357	 600480253	 161633.
22:52:37 1042 1043	 1492642357	 766255399	 165775.
22:52:37 1043 1044	 1492642357	 928003280	 161748.
22:52:38 1044 1045	 1492642358	 93827519	 165824.
22:52:38 1045 1046	 1492642358	 255650466	 161823.
22:52:38 1046 1047	 1492642358	 388765279	 133115.
22:52:38 1047 1048	 1492642358	 554607609	 165843.
22:52:38 1048 1049	 1492642358	 716401940	 161794.
22:52:38 1049 1050	 1492642358	 882163745	 165762.
22:52:39 1050 1051	 1492642359	 43902496	 161738.
22:52:39 1051 1052	 1492642359	 209677642	 165775.
22:52:39 1052 1053	 1492642359	 371368736	 161692.
22:52:39 1053 1054	 1492642359	 533206592	 161837.
22:52:39 1054 1055	 1492642359	 670366561	 137160.
22:52:39 1055 1056	 1492642359	 832116378	 161750.
22:52:39 1056 1057	 1492642359	 998079420	 165963.
22:52:40 1057 1058	 1492642360	 159971181	 161892.
22:52:40 1058 1059	 1492642360	 321668426	 161697.
22:52:40 1059 1060	 1492642360	 487321145	 165653.
22:52:40 1060 1061	 1492642360	 649101844	 161781.
22:52:40 1061 1062	 1492642360	 815006383	 165904.
22:52:40 1062 1063	 1492642360	 948144980	 133139.
22:52:41 1063 1064	 1492642361	 113971934	 165827.
22:52:41 1064 1065	 1492642361	 275706120	 161734.
22:52:41 1065 1066	 1492642361	 441468180	 165762.
22:52:41 1066 1067	 1492642361	 603235039	 161767.
22:52:41 1067 1068	 1492642361	 768897493	 165662.
22:52:41 1068 1069	 1492642361	 930738165	 161841.
22:52:42 1069 1070	 1492642362	 92279328	 161541.
22:52:42 1070 1071	 1492642362	 225198808	 132920.
22:52:42 1071 1072	 1492642362	 390835743	 165637.
22:52:42 1072 1073	 1492642362	 552503392	 161667.
22:52:42 1073 1074	 1492642362	 714111767	 161609.
22:52:42 1074 1075	 1492642362	 879845348	 165733.
22:52:43 1075 1076	 1492642363	 45547810	 165703.
22:52:43 1076 1077	 1492642363	 207251965	 161704.
22:52:43 1077 1078	 1492642363	 340345893	 133094.
22:52:43 1078 1079	 1492642363	 506365890	 166020.
22:52:43 1079 1080	 1492642363	 668090004	 161724.
22:52:43 1080 1081	 1492642363	 829842739	 161753.
22:52:43 1081 1082	 1492642363	 995646670	 165803.
22:52:44 1082 1083	 1492642364	 157428847	 161783.
22:52:44 1083 1084	 1492642364	 319163527	 161734.
22:52:44 1084 1085	 1492642364	 484920055	 165757.
22:52:44 1085 1086	 1492642364	 618008923	 133089.
22:52:44 1086 1087	 1492642364	 783691750	 165683.
22:52:44 1087 1088	 1492642364	 945472766	 161781.
22:52:45 1088 1089	 1492642365	 107257786	 161785.
22:52:45 1089 1090	 1492642365	 273029840	 165772.
22:52:45 1090 1091	 1492642365	 434816837	 161787.
22:52:45 1091 1092	 1492642365	 600551497	 165734.
22:52:45 1092 1093	 1492642365	 733669860	 133119.
22:52:45 1093 1094	 1492642365	 899344048	 165674.
22:52:46 1094 1095	 1492642366	 61223002	 161879.
22:52:46 1095 1096	 1492642366	 223088751	 161866.
22:52:46 1096 1097	 1492642366	 389181276	 166092.
22:52:46 1097 1098	 1492642366	 550966377	 161785.
22:52:46 1098 1099	 1492642366	 716832876	 165867.
22:52:46 1099 1100	 1492642366	 912174609	 195341.
22:52:47 1100 1101	 1492642367	 77987375	 165813.
22:52:47 1101 1102	 1492642367	 240771083	 162784.
22:52:47 1102 1103	 1492642367	 402513575	 161742.
22:52:47 1103 1104	 1492642367	 564482133	 161969.
22:52:47 1104 1105	 1492642367	 730567459	 166085.
22:52:47 1105 1106	 1492642367	 892296566	 161730.
22:52:48 1106 1107	 1492642368	 25399301	 133102.
22:52:48 1107 1108	 1492642368	 187335973	 161937.
22:52:48 1108 1109	 1492642368	 383564186	 196228.
22:52:48 1109 1110	 1492642368	 545332032	 161768.
22:52:48 1110 1111	 1492642368	 682427696	 137095.
22:52:48 1111 1112	 1492642368	 844066204	 161639.
22:52:49 1112 1113	 1492642369	 9835337	 165769.
22:52:49 1113 1114	 1492642369	 171395598	 161560.
22:52:49 1114 1115	 1492642369	 333065372	 161670.
22:52:49 1115 1116	 1492642369	 498839513	 165774.
22:52:49 1116 1117	 1492642369	 660467984	 161629.
22:52:49 1117 1118	 1492642369	 797516581	 137048.
22:52:49 1118 1119	 1492642369	 959283181	 161767.
22:52:50 1119 1120	 1492642370	 155089206	 195806.
22:52:50 1120 1121	 1492642370	 288080277	 132991.
22:52:50 1121 1122	 1492642370	 480243618	 192163.
22:52:50 1122 1123	 1492642370	 646074586	 165831.
22:52:50 1123 1124	 1492642370	 779152920	 133079.
22:52:50 1124 1125	 1492642370	 945193401	 166040.
22:52:51 1125 1126	 1492642371	 106979109	 161786.
22:52:51 1126 1127	 1492642371	 272829234	 165850.
22:52:51 1127 1128	 1492642371	 434616234	 161787.
22:52:51 1128 1129	 1492642371	 600409939	 165794.
22:52:51 1129 1130	 1492642371	 762112826	 161703.
22:52:51 1130 1131	 1492642371	 923878534	 161765.
22:52:52 1131 1132	 1492642372	 57016350	 133138.
22:52:52 1132 1133	 1492642372	 222860317	 165844.
22:52:52 1133 1134	 1492642372	 384625843	 161766.
22:52:52 1134 1135	 1492642372	 550476849	 165851.
22:52:52 1135 1136	 1492642372	 712359510	 161882.
22:52:52 1136 1137	 1492642372	 878315061	 165956.
22:52:53 1137 1138	 1492642373	 40127299	 161812.
22:52:53 1138 1139	 1492642373	 205888933	 165762.
22:52:53 1139 1140	 1492642373	 338917394	 133028.
22:52:53 1140 1141	 1492642373	 504693497	 165776.
22:52:53 1141 1142	 1492642373	 666476221	 161783.
22:52:53 1142 1143	 1492642373	 832329700	 165853.
22:52:53 1143 1144	 1492642373	 994175243	 161846.
22:52:54 1144 1145	 1492642374	 160128149	 165953.
22:52:54 1145 1146	 1492642374	 321838339	 161710.
22:52:54 1146 1147	 1492642374	 487742167	 165904.
22:52:54 1147 1148	 1492642374	 620760706	 133019.
22:52:54 1148 1149	 1492642374	 782569140	 161808.
22:52:54 1149 1150	 1492642374	 948339665	 165770.
22:52:55 1150 1151	 1492642375	 110187992	 161849.
22:52:55 1151 1152	 1492642375	 276058836	 165871.
22:52:55 1152 1153	 1492642375	 437865709	 161806.
22:52:55 1153 1154	 1492642375	 603686914	 165822.
22:52:55 1154 1155	 1492642375	 765419660	 161732.
22:52:55 1155 1156	 1492642375	 902410969	 136992.
22:52:56 1156 1157	 1492642376	 64237167	 161826.
22:52:56 1157 1158	 1492642376	 226074564	 161837.
22:52:56 1158 1159	 1492642376	 388107968	 162034.
22:52:56 1159 1160	 1492642376	 553903554	 165795.
22:52:56 1160 1161	 1492642376	 715801863	 161899.
22:52:56 1161 1162	 1492642376	 881860163	 166058.
22:52:57 1162 1163	 1492642377	 43655752	 161796.
22:52:57 1163 1164	 1492642377	 205504221	 161848.
22:52:57 1164 1165	 1492642377	 342616466	 137112.
22:52:57 1165 1166	 1492642377	 504268573	 161652.
22:52:57 1166 1167	 1492642377	 670322624	 166054.
22:52:57 1167 1168	 1492642377	 832080562	 161758.
22:52:57 1168 1169	 1492642377	 998038584	 165958.
22:52:58 1169 1170	 1492642378	 160076216	 162038.
22:52:58 1170 1171	 1492642378	 321824909	 161749.
22:52:58 1171 1172	 1492642378	 487510648	 165685.
22:52:58 1172 1173	 1492642378	 620636299	 133126.
22:52:58 1173 1174	 1492642378	 782399356	 161763.
22:52:58 1174 1175	 1492642378	 948127798	 165729.
22:52:59 1175 1176	 1492642379	 113950935	 165823.
22:52:59 1176 1177	 1492642379	 275690032	 161739.
22:52:59 1177 1178	 1492642379	 437494763	 161805.
22:52:59 1178 1179	 1492642379	 603428664	 165933.
22:52:59 1179 1180	 1492642379	 765352201	 161924.
22:52:59 1180 1181	 1492642379	 898320537	 132968.
22:53:00 1181 1182	 1492642380	 64203749	 165884.
22:53:00 1182 1183	 1492642380	 225956330	 161752.
22:53:00 1183 1184	 1492642380	 391646875	 165691.
22:53:00 1184 1185	 1492642380	 553392184	 161745.
22:53:00 1185 1186	 1492642380	 719360319	 165968.
22:53:00 1186 1187	 1492642380	 881168798	 161809.
22:53:01 1187 1188	 1492642381	 42946680	 161777.
22:53:01 1188 1189	 1492642381	 180296391	 137350.
22:53:01 1189 1190	 1492642381	 342241224	 161945.
22:53:01 1190 1191	 1492642381	 508021780	 165781.
22:53:01 1191 1192	 1492642381	 669859738	 161838.
22:53:01 1192 1193	 1492642381	 835762386	 165902.
22:53:01 1193 1194	 1492642381	 997463682	 161701.
22:53:02 1194 1195	 1492642382	 163511195	 166048.
22:53:02 1195 1196	 1492642382	 325464532	 161953.
22:53:02 1196 1197	 1492642382	 487239411	 161775.
22:53:02 1197 1198	 1492642382	 624488969	 137250.
22:53:02 1198 1199	 1492642382	 786371163	 161882.
22:53:02 1199 1200	 1492642382	 952190969	 165820.
22:53:03 1200 1201	 1492642383	 114013985	 161823.
22:53:03 1201 1202	 1492642383	 275970666	 161956.
22:53:03 1202 1203	 1492642383	 441855026	 165885.
22:53:03 1203 1204	 1492642383	 603773926	 161919.
22:53:03 1204 1205	 1492642383	 736785412	 133011.
22:53:03 1205 1206	 1492642383	 902764095	 165979.
22:53:04 1206 1207	 1492642384	 64484423	 161720.
22:53:04 1207 1208	 1492642384	 226566593	 162082.
22:53:04 1208 1209	 1492642384	 392397252	 165831.
22:53:04 1209 1210	 1492642384	 554311222	 161914.
22:53:04 1210 1211	 1492642384	 716167808	 161857.
22:53:04 1211 1212	 1492642384	 882135865	 165968.
22:53:05 1212 1213	 1492642385	 43925070	 161789.
22:53:05 1213 1214	 1492642385	 181113081	 137188.
22:53:05 1214 1215	 1492642385	 342766386	 161653.
22:53:05 1215 1216	 1492642385	 508628426	 165862.
22:53:05 1216 1217	 1492642385	 670507398	 161879.
22:53:05 1217 1218	 1492642385	 836359061	 165852.
22:53:05 1218 1219	 1492642385	 998245498	 161886.
22:53:06 1219 1220	 1492642386	 160261152	 162016.
22:53:06 1220 1221	 1492642386	 326153486	 165892.
22:53:06 1221 1222	 1492642386	 459278244	 133125.
22:53:06 1222 1223	 1492642386	 625251734	 165973.
22:53:06 1223 1224	 1492642386	 787186087	 161935.
22:53:06 1224 1225	 1492642386	 953508259	 166322.
22:53:07 1225 1226	 1492642387	 115429731	 161921.
22:53:07 1226 1227	 1492642387	 277469640	 162040.
22:53:07 1227 1228	 1492642387	 443247166	 165778.
22:53:07 1228 1229	 1492642387	 602110043	 158863.
22:53:07 1229 1230	 1492642387	 735149959	 133040.
22:53:07 1230 1231	 1492642387	 900865987	 165716.
22:53:08 1231 1232	 1492642388	 62638798	 161773.
22:53:08 1232 1233	 1492642388	 228482810	 165844.
22:53:08 1233 1234	 1492642388	 390307354	 161824.
22:53:08 1234 1235	 1492642388	 552127293	 161820.
22:53:08 1235 1236	 1492642388	 718046795	 165920.
22:53:08 1236 1237	 1492642388	 855266091	 137219.
22:53:09 1237 1238	 1492642389	 16932827	 161667.
22:53:09 1238 1239	 1492642389	 178780505	 161847.
22:53:09 1239 1240	 1492642389	 344750819	 165971.
22:53:09 1240 1241	 1492642389	 506715357	 161964.
22:53:09 1241 1242	 1492642389	 672634785	 165920.
22:53:09 1242 1243	 1492642389	 834418942	 161784.
22:53:09 1243 1244	 1492642390	 361931	 165943.
22:53:10 1244 1245	 1492642390	 133753589	 133391.
22:53:10 1245 1246	 1492642390	 299598655	 165845.
22:53:10 1246 1247	 1492642390	 461357832	 161760.
22:53:10 1247 1248	 1492642390	 627250121	 165892.
22:53:10 1248 1249	 1492642390	 789048613	 161798.
22:53:10 1249 1250	 1492642390	 954863464	 165815.
22:53:11 1250 1251	 1492642391	 116876366	 162013.
22:53:11 1251 1252	 1492642391	 254045876	 137170.
22:53:11 1252 1253	 1492642391	 415941791	 161896.
22:53:11 1253 1254	 1492642391	 581819102	 165877.
22:53:11 1254 1255	 1492642391	 743848594	 162029.
22:53:11 1255 1256	 1492642391	 909583239	 165735.
22:53:12 1256 1257	 1492642392	 71393955	 161811.
22:53:12 1257 1258	 1492642392	 237173940	 165780.
22:53:12 1258 1259	 1492642392	 398813296	 161639.
22:53:12 1259 1260	 1492642392	 535875188	 137062.
22:53:12 1260 1261	 1492642392	 698413308	 162538.
22:53:12 1261 1262	 1492642392	 855932044	 157519.
22:53:13 1262 1263	 1492642393	 17530041	 161598.
22:53:13 1263 1264	 1492642393	 183437850	 165908.
22:53:13 1264 1265	 1492642393	 345068484	 161630.
22:53:13 1265 1266	 1492642393	 510679683	 165611.
22:53:13 1266 1267	 1492642393	 672435345	 161756.
22:53:13 1267 1268	 1492642393	 838085335	 165650.
22:53:13 1268 1269	 1492642393	 971048804	 132964.
22:53:14 1269 1270	 1492642394	 136895985	 165847.
22:53:14 1270 1271	 1492642394	 298572100	 161676.
22:53:14 1271 1272	 1492642394	 464203843	 165632.
22:53:14 1272 1273	 1492642394	 625997853	 161794.
22:53:14 1273 1274	 1492642394	 791867309	 165869.
22:53:14 1274 1275	 1492642394	 953522971	 161656.
22:53:15 1275 1276	 1492642395	 90372758	 136850.
22:53:15 1276 1277	 1492642395	 252005655	 161632.
22:53:15 1277 1278	 1492642395	 417791665	 165786.
22:53:15 1278 1279	 1492642395	 579526297	 161735.
22:53:15 1279 1280	 1492642395	 741095677	 161569.
22:53:15 1280 1281	 1492642395	 906889040	 165794.
22:53:16 1281 1282	 1492642396	 68620356	 161731.
22:53:16 1282 1283	 1492642396	 205709065	 137089.
22:53:16 1283 1284	 1492642396	 367294006	 161585.
22:53:16 1284 1285	 1492642396	 533161212	 165867.
22:53:16 1285 1286	 1492642396	 694863163	 161702.
22:53:16 1286 1287	 1492642396	 860777235	 165914.
22:53:17 1287 1288	 1492642397	 22430905	 161654.
22:53:17 1288 1289	 1492642397	 188080581	 165650.
22:53:17 1289 1290	 1492642397	 321165116	 133084.
22:53:17 1290 1291	 1492642397	 483010429	 161845.
22:53:17 1291 1292	 1492642397	 648899442	 165889.
22:53:17 1292 1293	 1492642397	 810609403	 161710.
22:53:17 1293 1294	 1492642397	 976217351	 165608.
22:53:18 1294 1295	 1492642398	 138035676	 161818.
22:53:18 1295 1296	 1492642398	 299721871	 161687.
22:53:18 1296 1297	 1492642398	 436778183	 137056.
22:53:18 1297 1298	 1492642398	 598642111	 161864.
22:53:18 1298 1299	 1492642398	 764378147	 165736.
22:53:18 1299 1300	 1492642398	 926212015	 161834.
22:53:19 1300 1301	 1492642399	 87955438	 161743.
22:53:19 1301 1302	 1492642399	 253758596	 165803.
22:53:19 1302 1303	 1492642399	 415477523	 161719.
22:53:19 1303 1304	 1492642399	 552728013	 137251.
22:53:19 1304 1305	 1492642399	 714500605	 161772.
22:53:19 1305 1306	 1492642399	 880267683	 165767.
22:53:20 1306 1307	 1492642400	 42164250	 161897.
22:53:20 1307 1308	 1492642400	 208174160	 166010.
22:53:20 1308 1309	 1492642400	 369964879	 161791.
22:53:20 1309 1310	 1492642400	 535881828	 165917.
22:53:20 1310 1311	 1492642400	 697726367	 161844.
22:53:20 1311 1312	 1492642400	 830759626	 133033.
22:53:20 1312 1313	 1492642400	 996739878	 165981.
22:53:21 1313 1314	 1492642401	 158687337	 161947.
22:53:21 1314 1315	 1492642401	 320382453	 161695.
22:53:21 1315 1316	 1492642401	 486161233	 165779.
22:53:21 1316 1317	 1492642401	 647883381	 161722.
22:53:21 1317 1318	 1492642401	 809733007	 161850.
22:53:21 1318 1319	 1492642401	 975602118	 165869.
22:53:22 1319 1320	 1492642402	 108682592	 133080.
22:53:22 1320 1321	 1492642402	 274553554	 165871.
22:53:22 1321 1322	 1492642402	 436232404	 161679.
22:53:22 1322 1323	 1492642402	 602175815	 165944.
22:53:22 1323 1324	 1492642402	 764026621	 161850.
22:53:22 1324 1325	 1492642402	 929882853	 165857.
22:53:23 1325 1326	 1492642403	 91712031	 161829.
22:53:23 1326 1327	 1492642403	 253431041	 161719.
22:53:23 1327 1328	 1492642403	 419190433	 165759.
22:53:23 1328 1329	 1492642403	 552423087	 133233.
22:53:23 1329 1330	 1492642403	 718135859	 165713.
22:53:23 1330 1331	 1492642403	 879898988	 161763.
22:53:24 1331 1332	 1492642404	 45859789	 165961.
22:53:24 1332 1333	 1492642404	 207643080	 161783.
22:53:24 1333 1334	 1492642404	 373567811	 165925.
22:53:24 1334 1335	 1492642404	 535324329	 161756.
22:53:24 1335 1336	 1492642404	 668410782	 133087.
22:53:24 1336 1337	 1492642404	 834298047	 165887.
22:53:24 1337 1338	 1492642404	 996073992	 161776.
22:53:25 1338 1339	 1492642405	 161851676	 165777.
22:53:25 1339 1340	 1492642405	 323619123	 161768.
22:53:25 1340 1341	 1492642405	 489583680	 165964.
22:53:25 1341 1342	 1492642405	 651338020	 161755.
22:53:25 1342 1343	 1492642405	 817159118	 165821.
22:53:25 1343 1344	 1492642405	 950277057	 133118.
22:53:26 1344 1345	 1492642406	 112045927	 161769.
22:53:26 1345 1346	 1492642406	 278020634	 165974.
22:53:26 1346 1347	 1492642406	 439935382	 161915.
22:53:26 1347 1348	 1492642406	 605824235	 165889.
22:53:26 1348 1349	 1492642406	 767647267	 161823.
22:53:26 1349 1350	 1492642406	 933409586	 165762.
22:53:27 1350 1351	 1492642407	 95188007	 161779.
22:53:27 1351 1352	 1492642407	 232438653	 137250.
22:53:27 1352 1353	 1492642407	 394101605	 161664.
22:53:27 1353 1354	 1492642407	 560027138	 165925.
22:53:27 1354 1355	 1492642407	 721764385	 161737.
22:53:27 1355 1356	 1492642407	 887525178	 165761.
22:53:28 1356 1357	 1492642408	 49197763	 161673.
22:53:28 1357 1358	 1492642408	 210786340	 161588.
22:53:28 1358 1359	 1492642408	 347923665	 137137.
22:53:28 1359 1360	 1492642408	 509693860	 161771.
22:53:28 1360 1361	 1492642408	 675655192	 165961.
22:53:28 1361 1362	 1492642408	 837603888	 161949.
22:53:28 1362 1363	 1492642408	 999350983	 161747.
22:53:29 1363 1364	 1492642409	 165360739	 166009.
22:53:29 1364 1365	 1492642409	 331243872	 165884.
22:53:29 1365 1366	 1492642409	 464261235	 133017.
22:53:29 1366 1367	 1492642409	 651336594	 187075.
22:53:29 1367 1368	 1492642409	 788530591	 137194.
22:53:29 1368 1369	 1492642409	 950274399	 161744.
22:53:30 1369 1370	 1492642410	 116254523	 165980.
22:53:30 1370 1371	 1492642410	 278055985	 161802.
22:53:30 1371 1372	 1492642410	 439856612	 161800.
22:53:30 1372 1373	 1492642410	 605639567	 165783.
22:53:30 1373 1374	 1492642410	 767263865	 161625.
22:53:30 1374 1375	 1492642410	 904211776	 136948.
22:53:31 1375 1376	 1492642411	 65761861	 161550.
22:53:31 1376 1377	 1492642411	 231491282	 165729.
22:53:31 1377 1378	 1492642411	 393179871	 161689.
22:53:31 1378 1379	 1492642411	 559016383	 165836.
22:53:31 1379 1380	 1492642411	 720614490	 161598.
22:53:31 1380 1381	 1492642411	 886413899	 165800.
22:53:32 1381 1382	 1492642412	 19448316	 133034.
22:53:32 1382 1383	 1492642412	 185151223	 165703.
22:53:32 1383 1384	 1492642412	 346901913	 161751.
22:53:32 1384 1385	 1492642412	 512841272	 165939.
22:53:32 1385 1386	 1492642412	 674450510	 161609.
22:53:32 1386 1387	 1492642412	 840454002	 166004.
22:53:32 1387 1388	 1492642413	 2231711	 161777.
22:53:33 1388 1389	 1492642413	 139283790	 137053.
22:53:33 1389 1390	 1492642413	 301123596	 161839.
22:53:33 1390 1391	 1492642413	 462828874	 161706.
22:53:33 1391 1392	 1492642413	 628687109	 165858.
22:53:33 1392 1393	 1492642413	 790482620	 161795.
22:53:33 1393 1394	 1492642413	 956223590	 165741.
22:53:34 1394 1395	 1492642414	 117798197	 161575.
22:53:34 1395 1396	 1492642414	 280350558	 162552.
22:53:34 1396 1397	 1492642414	 413411772	 133062.
22:53:34 1397 1398	 1492642414	 579256984	 165845.
22:53:34 1398 1399	 1492642414	 745090525	 165833.
22:53:34 1399 1400	 1492642414	 906871399	 161781.
22:53:35 1400 1401	 1492642415	 68783657	 161912.
22:53:35 1401 1402	 1492642415	 234617185	 165834.
22:53:35 1402 1403	 1492642415	 396536532	 161920.
22:53:35 1403 1404	 1492642415	 562329930	 165796.
22:53:35 1404 1405	 1492642415	 724215538	 161882.
22:53:35 1405 1406	 1492642415	 857283142	 133068.
22:53:36 1406 1407	 1492642416	 18961992	 161679.
22:53:36 1407 1408	 1492642416	 184761074	 165799.
22:53:36 1408 1409	 1492642416	 346397077	 161636.
22:53:36 1409 1410	 1492642416	 512160957	 165764.
22:53:36 1410 1411	 1492642416	 673952301	 161791.
22:53:36 1411 1412	 1492642416	 835849134	 161897.
22:53:36 1412 1413	 1492642416	 973014885	 137166.
22:53:37 1413 1414	 1492642417	 134774335	 161759.
22:53:37 1414 1415	 1492642417	 296478009	 161704.
22:53:37 1415 1416	 1492642417	 458642384	 162164.
22:53:37 1416 1417	 1492642417	 624488846	 165847.
22:53:37 1417 1418	 1492642417	 786168310	 161679.
22:53:37 1418 1419	 1492642417	 951960336	 165792.
22:53:38 1419 1420	 1492642418	 113620185	 161660.
22:53:38 1420 1421	 1492642418	 275384171	 161764.
22:53:38 1421 1422	 1492642418	 412474140	 137090.
22:53:38 1422 1423	 1492642418	 574150472	 161676.
22:53:38 1423 1424	 1492642418	 739797024	 165647.
22:53:38 1424 1425	 1492642418	 901518515	 161721.
22:53:39 1425 1426	 1492642419	 67419938	 165902.
22:53:39 1426 1427	 1492642419	 229220015	 161800.
22:53:39 1427 1428	 1492642419	 395001788	 165782.
22:53:39 1428 1429	 1492642419	 528216852	 133215.
22:53:39 1429 1430	 1492642419	 689973463	 161756.
22:53:39 1430 1431	 1492642419	 855684246	 165711.
22:53:40 1431 1432	 1492642420	 17584024	 161900.
22:53:40 1432 1433	 1492642420	 183281873	 165698.
22:53:40 1433 1434	 1492642420	 345107144	 161825.
22:53:40 1434 1435	 1492642420	 510874758	 165768.
22:53:40 1435 1436	 1492642420	 643860014	 132985.
22:53:40 1436 1437	 1492642420	 805568488	 161708.
22:53:40 1437 1438	 1492642420	 972037995	 166470.
22:53:41 1438 1439	 1492642421	 130076252	 158038.
22:53:41 1439 1440	 1492642421	 291777300	 161701.
22:53:41 1440 1441	 1492642421	 453492127	 161715.
22:53:41 1441 1442	 1492642421	 619263076	 165771.
22:53:41 1442 1443	 1492642421	 780901800	 161639.
22:53:41 1443 1444	 1492642421	 946909096	 166007.
22:53:42 1444 1445	 1492642422	 108614466	 161705.
22:53:42 1445 1446	 1492642422	 245895955	 137282.
22:53:42 1446 1447	 1492642422	 407740786	 161844.
22:53:42 1447 1448	 1492642422	 573443524	 165703.
22:53:42 1448 1449	 1492642422	 735163452	 161720.
22:53:42 1449 1450	 1492642422	 900969086	 165806.
22:53:43 1450 1451	 1492642423	 62522992	 161554.
22:53:43 1451 1452	 1492642423	 228215140	 165692.
22:53:43 1452 1453	 1492642423	 361295958	 133081.
22:53:43 1453 1454	 1492642423	 527111631	 165815.
22:53:43 1454 1455	 1492642423	 688874433	 161763.
22:53:43 1455 1456	 1492642423	 850663324	 161789.
22:53:44 1456 1457	 1492642424	 16430379	 165767.
22:53:44 1457 1458	 1492642424	 178163495	 161733.
22:53:44 1458 1459	 1492642424	 339916196	 161753.
22:53:44 1459 1460	 1492642424	 477049406	 137133.
22:53:44 1460 1461	 1492642424	 638672748	 161624.
22:53:44 1461 1462	 1492642424	 804419526	 165746.
22:53:44 1462 1463	 1492642424	 966219081	 161800.
22:53:45 1463 1464	 1492642425	 132074107	 165855.
22:53:45 1464 1465	 1492642425	 293875177	 161801.
22:53:45 1465 1466	 1492642425	 459781481	 165906.
22:53:45 1466 1467	 1492642425	 592861392	 133080.
22:53:45 1467 1468	 1492642425	 758591224	 165730.
22:53:45 1468 1469	 1492642425	 920317603	 161726.
22:53:46 1469 1470	 1492642426	 82227572	 161910.
22:53:46 1470 1471	 1492642426	 248009323	 165782.
22:53:46 1471 1472	 1492642426	 409917539	 161909.
22:53:46 1472 1473	 1492642426	 575828833	 165911.
22:53:46 1473 1474	 1492642426	 708933026	 133104.
22:53:46 1474 1475	 1492642426	 870715696	 161782.
22:53:47 1475 1476	 1492642427	 36701285	 165986.
22:53:47 1476 1477	 1492642427	 198490554	 161789.
22:53:47 1477 1478	 1492642427	 364333839	 165844.
22:53:47 1478 1479	 1492642427	 526258677	 161925.
22:53:47 1479 1480	 1492642427	 692010925	 165752.
22:53:47 1480 1481	 1492642427	 853859647	 161848.
22:53:47 1481 1482	 1492642427	 990996436	 137137.
22:53:48 1482 1483	 1492642428	 152852517	 161856.
22:53:48 1483 1484	 1492642428	 314510443	 161658.
22:53:48 1484 1485	 1492642428	 480236729	 165727.
22:53:48 1485 1486	 1492642428	 642057361	 161820.
22:53:48 1486 1487	 1492642428	 807893225	 165836.
22:53:48 1487 1488	 1492642428	 969627414	 161734.
22:53:49 1488 1489	 1492642429	 102623948	 132997.
22:53:49 1489 1490	 1492642429	 268451257	 165827.
22:53:49 1490 1491	 1492642429	 430190443	 161739.
22:53:49 1491 1492	 1492642429	 596062103	 165872.
22:53:49 1492 1493	 1492642429	 757869658	 161807.
22:53:49 1493 1494	 1492642429	 919562411	 161693.
22:53:50 1494 1495	 1492642430	 85529638	 165967.
22:53:50 1495 1496	 1492642430	 247266050	 161737.
22:53:50 1496 1497	 1492642430	 380435849	 133170.
22:53:50 1497 1498	 1492642430	 546112886	 165677.
22:53:50 1498 1499	 1492642430	 707728090	 161615.
22:53:50 1499 1500	 1492642430	 873720433	 165992.
22:53:51 1500 1501	 1492642431	 35479257	 161759.
22:53:51 1501 1502	 1492642431	 201155641	 165676.
22:53:51 1502 1503	 1492642431	 369928018	 168773.
22:53:51 1503 1504	 1492642431	 506939457	 137011.
22:53:51 1504 1505	 1492642431	 672721653	 165782.
22:53:51 1505 1506	 1492642431	 834472518	 161751.
22:53:51 1506 1507	 1492642431	 996356298	 161884.
22:53:52 1507 1508	 1492642432	 162129319	 165773.
22:53:52 1508 1509	 1492642432	 323897039	 161768.
22:53:52 1509 1510	 1492642432	 461205855	 137309.
22:53:52 1510 1511	 1492642432	 622977677	 161771.
22:53:52 1511 1512	 1492642432	 788791542	 165814.
22:53:52 1512 1513	 1492642432	 946842269	 158051.
22:53:53 1513 1514	 1492642433	 112685774	 165844.
22:53:53 1514 1515	 1492642433	 274441919	 161756.
22:53:53 1515 1516	 1492642433	 440550452	 166108.
22:53:53 1516 1517	 1492642433	 602295295	 161745.
22:53:53 1517 1518	 1492642433	 764043692	 161748.
22:53:53 1518 1519	 1492642433	 901231187	 137188.
22:53:54 1519 1520	 1492642434	 63055449	 161824.
22:53:54 1520 1521	 1492642434	 229259122	 166204.
22:53:54 1521 1522	 1492642434	 387032902	 157774.
22:53:54 1522 1523	 1492642434	 552895632	 165862.
22:53:54 1523 1524	 1492642434	 714568562	 161673.
22:53:54 1524 1525	 1492642434	 880273241	 165705.
22:53:55 1525 1526	 1492642435	 42073064	 161800.
22:53:55 1526 1527	 1492642435	 203980490	 161908.
22:53:55 1527 1528	 1492642435	 341177852	 137197.
22:53:55 1528 1529	 1492642435	 503206351	 162028.
22:53:55 1529 1530	 1492642435	 665041574	 161835.
22:53:55 1530 1531	 1492642435	 830766000	 165725.
22:53:55 1531 1532	 1492642435	 992553055	 161787.
22:53:56 1532 1533	 1492642436	 158145383	 165592.
22:53:56 1533 1534	 1492642436	 319904830	 161760.
22:53:56 1534 1535	 1492642436	 485636812	 165732.
22:53:56 1535 1536	 1492642436	 618853458	 133216.
22:53:56 1536 1537	 1492642436	 784588309	 165735.
22:53:56 1537 1538	 1492642436	 968152576	 183564.
22:53:57 1538 1539	 1492642437	 101443161	 133291.
22:53:57 1539 1540	 1492642437	 267292848	 165850.
22:53:57 1540 1541	 1492642437	 429000793	 161708.
22:53:57 1541 1542	 1492642437	 590914182	 161913.
22:53:57 1542 1543	 1492642437	 756546941	 165633.
22:53:57 1543 1544	 1492642437	 918218058	 161671.
22:53:58 1544 1545	 1492642438	 83972053	 165754.
22:53:58 1545 1546	 1492642438	 217156100	 133184.
22:53:58 1546 1547	 1492642438	 379058487	 161902.
22:53:58 1547 1548	 1492642438	 545005965	 165948.
22:53:58 1548 1549	 1492642438	 706946366	 161940.
22:53:58 1549 1550	 1492642438	 868700180	 161754.
22:53:59 1550 1551	 1492642439	 34674664	 165974.
22:53:59 1551 1552	 1492642439	 196390193	 161716.
22:53:59 1552 1553	 1492642439	 358029997	 161640.
22:53:59 1553 1554	 1492642439	 523715232	 165685.
22:53:59 1554 1555	 1492642439	 656514459	 132799.
22:53:59 1555 1556	 1492642439	 822165878	 165652.
22:53:59 1556 1557	 1492642439	 984106271	 161940.
22:54:00 1557 1558	 1492642440	 149860418	 165754.
22:54:00 1558 1559	 1492642440	 311652148	 161792.
22:54:00 1559 1560	 1492642440	 477477030	 165825.
22:54:00 1560 1561	 1492642440	 639186672	 161709.
22:54:00 1561 1562	 1492642440	 776323075	 137137.
22:54:00 1562 1563	 1492642440	 938121876	 161799.
22:54:01 1563 1564	 1492642441	 99928675	 161806.
22:54:01 1564 1565	 1492642441	 266140112	 166212.
22:54:01 1565 1566	 1492642441	 427987412	 161847.
22:54:01 1566 1567	 1492642441	 589939457	 161952.
22:54:01 1567 1568	 1492642441	 755883601	 165944.
22:54:01 1568 1569	 1492642441	 917765118	 161882.
22:54:02 1569 1570	 1492642442	 83566837	 165802.
22:54:02 1570 1571	 1492642442	 241653478	 158086.
22:54:02 1571 1572	 1492642442	 378782334	 137129.
22:54:02 1572 1573	 1492642442	 540533105	 161751.
22:54:02 1573 1574	 1492642442	 706282736	 165750.
22:54:02 1574 1575	 1492642442	 868246513	 161963.
22:54:03 1575 1576	 1492642443	 34188788	 165943.
22:54:03 1576 1577	 1492642443	 196050650	 161862.
22:54:03 1577 1578	 1492642443	 361930278	 165879.
22:54:03 1578 1579	 1492642443	 520062533	 158132.
22:54:03 1579 1580	 1492642443	 657146291	 137084.
22:54:03 1580 1581	 1492642443	 818920516	 161774.
22:54:03 1581 1582	 1492642443	 984817922	 165898.
22:54:04 1582 1583	 1492642444	 146542245	 161724.
22:54:04 1583 1584	 1492642444	 312442281	 165900.
22:54:04 1584 1585	 1492642444	 474405192	 161963.
22:54:04 1585 1586	 1492642444	 636633056	 162228.
22:54:04 1586 1587	 1492642444	 802418485	 165785.
22:54:04 1587 1588	 1492642444	 935626009	 133208.
22:54:05 1588 1589	 1492642445	 97470569	 161845.
22:54:05 1589 1590	 1492642445	 263420265	 165949.
22:54:05 1590 1591	 1492642445	 425424238	 162004.
22:54:05 1591 1592	 1492642445	 591366758	 165943.
22:54:05 1592 1593	 1492642445	 753078355	 161711.
22:54:05 1593 1594	 1492642445	 919011248	 165933.
22:54:06 1594 1595	 1492642446	 80904079	 161893.
22:54:06 1595 1596	 1492642446	 218048304	 137144.
22:54:06 1596 1597	 1492642446	 380044836	 161997.
22:54:06 1597 1598	 1492642446	 545995620	 165950.
22:54:06 1598 1599	 1492642446	 708004578	 162009.
22:54:06 1599 1600	 1492642446	 869725397	 161721.
22:54:07 1600 1601	 1492642447	 35656504	 165932.
22:54:07 1601 1602	 1492642447	 197644280	 161987.
22:54:07 1602 1603	 1492642447	 359499233	 161855.
22:54:07 1603 1604	 1492642447	 525508942	 166010.
22:54:07 1604 1605	 1492642447	 658538386	 133029.
22:54:07 1605 1606	 1492642447	 824404656	 165866.
22:54:07 1606 1607	 1492642447	 986235453	 161831.
22:54:08 1607 1608	 1492642448	 148092989	 161858.
22:54:08 1608 1609	 1492642448	 314023765	 165931.
22:54:08 1609 1610	 1492642448	 475974707	 161950.
22:54:08 1610 1611	 1492642448	 642095139	 166121.
22:54:08 1611 1612	 1492642448	 803923742	 161829.
22:54:08 1612 1613	 1492642448	 941109657	 137185.
22:54:09 1613 1614	 1492642449	 102912181	 161803.
22:54:09 1614 1615	 1492642449	 264659404	 161747.
22:54:09 1615 1616	 1492642449	 430517282	 165858.
22:54:09 1616 1617	 1492642449	 592389950	 161873.
22:54:09 1617 1618	 1492642449	 758181094	 165791.
22:54:09 1618 1619	 1492642449	 919953802	 161773.
22:54:10 1619 1620	 1492642450	 86019497	 166065.
22:54:10 1620 1621	 1492642450	 247997217	 161978.
22:54:10 1621 1622	 1492642450	 410368889	 162372.
22:54:10 1622 1623	 1492642450	 543605857	 133237.
22:54:10 1623 1624	 1492642450	 705431613	 161825.
22:54:10 1624 1625	 1492642450	 871302429	 165871.
22:54:11 1625 1626	 1492642451	 37170374	 165868.
22:54:11 1626 1627	 1492642451	 198941873	 161772.
22:54:11 1627 1628	 1492642451	 360716174	 161774.
22:54:11 1628 1629	 1492642451	 526494990	 165779.
22:54:11 1629 1630	 1492642451	 688238861	 161744.
22:54:11 1630 1631	 1492642451	 825573137	 137334.
22:54:11 1631 1632	 1492642451	 987425020	 161852.
22:54:12 1632 1633	 1492642452	 149247138	 161822.
22:54:12 1633 1634	 1492642452	 314962957	 165716.
22:54:12 1634 1635	 1492642452	 476757355	 161794.
22:54:12 1635 1636	 1492642452	 642523660	 165766.
22:54:12 1636 1637	 1492642452	 804151060	 161628.
22:54:12 1637 1638	 1492642452	 965686545	 161535.
22:54:13 1638 1639	 1492642453	 98797138	 133111.
22:54:13 1639 1640	 1492642453	 264501639	 165704.
22:54:13 1640 1641	 1492642453	 426329779	 161829.
22:54:13 1641 1642	 1492642453	 592116690	 165786.
22:54:13 1642 1643	 1492642453	 753979546	 161863.
22:54:13 1643 1644	 1492642453	 930932657	 176953.
22:54:14 1644 1645	 1492642454	 59970794	 129039.
22:54:14 1645 1646	 1492642454	 225918966	 165948.
22:54:14 1646 1647	 1492642454	 387767251	 161848.
22:54:14 1647 1648	 1492642454	 549514982	 161748.
22:54:14 1648 1649	 1492642454	 715334837	 165820.
22:54:14 1649 1650	 1492642454	 877034474	 161699.
22:54:15 1650 1651	 1492642455	 42817223	 165783.
22:54:15 1651 1652	 1492642455	 204517223	 161700.
22:54:15 1652 1653	 1492642455	 341779271	 137262.
22:54:15 1653 1654	 1492642455	 503633575	 161854.
22:54:15 1654 1655	 1492642455	 669456973	 165824.
22:54:15 1655 1656	 1492642455	 827778857	 158322.
22:54:15 1656 1657	 1492642455	 993474686	 165695.
22:54:16 1657 1658	 1492642456	 155351903	 161878.
22:54:16 1658 1659	 1492642456	 321188198	 165836.
22:54:16 1659 1660	 1492642456	 482978354	 161790.
22:54:16 1660 1661	 1492642456	 648788280	 165810.
22:54:16 1661 1662	 1492642456	 781873101	 133085.
22:54:16 1662 1663	 1492642456	 947976748	 166103.
22:54:17 1663 1664	 1492642457	 109871105	 161895.
22:54:17 1664 1665	 1492642457	 275651717	 165781.
22:54:17 1665 1666	 1492642457	 437731969	 162080.
22:54:17 1666 1667	 1492642457	 599504213	 161772.
22:54:17 1667 1668	 1492642457	 765301065	 165797.
22:54:17 1668 1669	 1492642457	 927027714	 161726.
22:54:18 1669 1670	 1492642458	 88935695	 161908.
22:54:18 1670 1671	 1492642458	 247418909	 158484.
22:54:18 1671 1672	 1492642458	 384611677	 137192.
22:54:18 1672 1673	 1492642458	 546395835	 161785.
22:54:18 1673 1674	 1492642458	 712266359	 165870.
22:54:18 1674 1675	 1492642458	 873916549	 161650.
22:54:19 1675 1676	 1492642459	 39822447	 165906.
22:54:19 1676 1677	 1492642459	 201596041	 161774.
22:54:19 1677 1678	 1492642459	 363267607	 161671.
22:54:19 1678 1679	 1492642459	 529104581	 165837.
22:54:19 1679 1680	 1492642459	 662133988	 133030.
22:54:19 1680 1681	 1492642459	 827942277	 165808.
22:54:19 1681 1682	 1492642459	 989634610	 161692.
22:54:20 1682 1683	 1492642460	 155477507	 165843.
22:54:20 1683 1684	 1492642460	 317256718	 161780.
22:54:20 1684 1685	 1492642460	 483079802	 165823.
22:54:20 1685 1686	 1492642460	 644783213	 161703.
22:54:20 1686 1687	 1492642460	 781982505	 137199.
22:54:20 1687 1688	 1492642460	 943787046	 161805.
22:54:21 1688 1689	 1492642461	 105610565	 161823.
22:54:21 1689 1690	 1492642461	 271418969	 165809.
22:54:21 1690 1691	 1492642461	 433211778	 161793.
22:54:21 1691 1692	 1492642461	 599058641	 165846.
22:54:21 1692 1693	 1492642461	 760815412	 161757.
22:54:21 1693 1694	 1492642461	 926484511	 165669.
22:54:22 1694 1695	 1492642462	 59541862	 133058.
22:54:22 1695 1696	 1492642462	 221138011	 161596.
22:54:22 1696 1697	 1492642462	 386903178	 165765.
22:54:22 1697 1698	 1492642462	 548800254	 161897.
22:54:22 1698 1699	 1492642462	 710861097	 162061.
22:54:22 1699 1700	 1492642462	 876746971	 165886.
22:54:23 1700 1701	 1492642463	 38570436	 161823.
22:54:23 1701 1702	 1492642463	 204250316	 165680.
22:54:23 1702 1703	 1492642463	 337288823	 133039.
22:54:23 1703 1704	 1492642463	 503213957	 165925.
22:54:23 1704 1705	 1492642463	 664958023	 161744.
22:54:23 1705 1706	 1492642463	 826558949	 161601.
22:54:23 1706 1707	 1492642463	 992326824	 165768.
22:54:24 1707 1708	 1492642464	 154117542	 161790.
22:54:24 1708 1709	 1492642464	 319768901	 165652.
22:54:24 1709 1710	 1492642464	 452819661	 133050.
22:54:24 1710 1711	 1492642464	 618587127	 165768.
22:54:24 1711 1712	 1492642464	 777243601	 158657.
22:54:24 1712 1713	 1492642464	 938939110	 161695.
22:54:25 1713 1714	 1492642465	 100643902	 161705.
22:54:25 1714 1715	 1492642465	 266340568	 165696.
22:54:25 1715 1716	 1492642465	 427951786	 161612.
22:54:25 1716 1717	 1492642465	 593775841	 165824.
22:54:25 1717 1718	 1492642465	 755464577	 161688.
22:54:25 1718 1719	 1492642465	 892511098	 137047.
22:54:26 1719 1720	 1492642466	 54206630	 161695.
22:54:26 1720 1721	 1492642466	 215962515	 161756.
22:54:26 1721 1722	 1492642466	 381765309	 165803.
22:54:26 1722 1723	 1492642466	 543581099	 161816.
22:54:26 1723 1724	 1492642466	 709348214	 165767.
22:54:26 1724 1725	 1492642466	 871221037	 161873.
22:54:26 1725 1726	 1492642467	 4363264	 133142.
22:54:27 1726 1727	 1492642467	 170114694	 165751.
22:54:27 1727 1728	 1492642467	 331814306	 161700.
22:54:27 1728 1729	 1492642467	 493800703	 161986.
22:54:27 1729 1730	 1492642467	 659668762	 165869.
22:54:27 1730 1731	 1492642467	 821403429	 161734.
22:54:27 1731 1732	 1492642467	 987141821	 165739.
22:54:28 1732 1733	 1492642468	 148804064	 161662.
22:54:28 1733 1734	 1492642468	 281750836	 132947.
22:54:28 1734 1735	 1492642468	 447573777	 165823.
22:54:28 1735 1736	 1492642468	 609356118	 161782.
22:54:28 1736 1737	 1492642468	 771232407	 161876.
22:54:28 1737 1738	 1492642468	 937063580	 165831.
22:54:29 1738 1739	 1492642469	 98823524	 161760.
22:54:29 1739 1740	 1492642469	 264761218	 165938.
22:54:29 1740 1741	 1492642469	 426684003	 161923.
22:54:29 1741 1742	 1492642469	 588367671	 161683.
22:54:29 1742 1743	 1492642469	 721316676	 132949.
22:54:29 1743 1744	 1492642469	 888006970	 166691.
22:54:30 1744 1745	 1492642470	 45621959	 157615.
22:54:30 1745 1746	 1492642470	 207458672	 161836.
22:54:30 1746 1747	 1492642470	 373082721	 165625.
22:54:30 1747 1748	 1492642470	 534842514	 161759.
22:54:30 1748 1749	 1492642470	 696540509	 161698.
22:54:30 1749 1750	 1492642470	 862346653	 165806.
22:54:31 1750 1751	 1492642471	 24021857	 161676.
22:54:31 1751 1752	 1492642471	 161153535	 137131.
22:54:31 1752 1753	 1492642471	 322877886	 161725.
22:54:31 1753 1754	 1492642471	 488659697	 165781.
22:54:31 1754 1755	 1492642471	 650336396	 161677.
22:54:31 1755 1756	 1492642471	 812084824	 161749.
22:54:31 1756 1757	 1492642471	 977897218	 165812.
22:54:32 1757 1758	 1492642472	 139627473	 161731.
22:54:32 1758 1759	 1492642472	 272759070	 133131.
22:54:32 1759 1760	 1492642472	 438384399	 165625.
22:54:32 1760 1761	 1492642472	 600098238	 161714.
22:54:32 1761 1762	 1492642472	 765862004	 165764.
22:54:32 1762 1763	 1492642472	 927739327	 161877.
22:54:33 1763 1764	 1492642473	 93553609	 165814.
22:54:33 1764 1765	 1492642473	 255272448	 161719.
22:54:33 1765 1766	 1492642473	 388326841	 133055.
22:54:33 1766 1767	 1492642473	 554073907	 165747.
22:54:33 1767 1768	 1492642473	 715785389	 161711.
22:54:33 1768 1769	 1492642473	 881627714	 165842.
22:54:34 1769 1770	 1492642474	 43096784	 161470.
22:54:34 1770 1771	 1492642474	 208966240	 165869.
22:54:34 1771 1772	 1492642474	 370686967	 161721.
22:54:34 1772 1773	 1492642474	 507773313	 137086.
22:54:34 1773 1774	 1492642474	 669517958	 161745.
22:54:34 1774 1775	 1492642474	 835392881	 165875.
22:54:34 1775 1776	 1492642474	 997040741	 161648.
22:54:35 1776 1777	 1492642475	 158838497	 161797.
22:54:35 1777 1778	 1492642475	 324688786	 165851.
22:54:35 1778 1779	 1492642475	 486403329	 161714.
22:54:35 1779 1780	 1492642475	 652231596	 165828.
22:54:35 1780 1781	 1492642475	 785306789	 133076.
22:54:35 1781 1782	 1492642475	 951145418	 165838.
22:54:36 1782 1783	 1492642476	 112923126	 161778.
22:54:36 1783 1784	 1492642476	 278492332	 165569.
22:54:36 1784 1785	 1492642476	 440227934	 161736.
22:54:36 1785 1786	 1492642476	 602011337	 161783.
22:54:36 1786 1787	 1492642476	 767724179	 165713.
22:54:36 1787 1788	 1492642476	 900732113	 133008.
22:54:37 1788 1789	 1492642477	 66656855	 165925.
22:54:37 1789 1790	 1492642477	 228433591	 161777.
22:54:37 1790 1791	 1492642477	 390592097	 162158.
22:54:37 1791 1792	 1492642477	 552473405	 161881.
22:54:37 1792 1793	 1492642477	 718243752	 165771.
22:54:37 1793 1794	 1492642477	 880218725	 161975.
22:54:38 1794 1795	 1492642478	 42184582	 161965.
22:54:38 1795 1796	 1492642478	 204019567	 161835.
22:54:38 1796 1797	 1492642478	 366102726	 162084.
22:54:38 1797 1798	 1492642478	 503228584	 137125.
22:54:38 1798 1799	 1492642478	 664883005	 161655.
22:54:38 1799 1800	 1492642478	 826484295	 161601.
22:54:38 1800 1801	 1492642478	 992237805	 165754.
22:54:39 1801 1802	 1492642479	 154099638	 161861.
22:54:39 1802 1803	 1492642479	 319949293	 165850.
22:54:39 1803 1804	 1492642479	 481542445	 161593.
22:54:39 1804 1805	 1492642479	 618644254	 137102.
22:54:39 1805 1806	 1492642479	 780317963	 161674.
22:54:39 1806 1807	 1492642479	 941953362	 161635.
22:54:40 1807 1808	 1492642480	 107680228	 165727.
22:54:40 1808 1809	 1492642480	 269467917	 161788.
22:54:40 1809 1810	 1492642480	 435146928	 165679.
22:54:40 1810 1811	 1492642480	 596861568	 161714.
22:54:40 1811 1812	 1492642480	 734050461	 137189.
22:54:40 1812 1813	 1492642480	 895773358	 161723.
22:54:41 1813 1814	 1492642481	 61633555	 165860.
22:54:41 1814 1815	 1492642481	 223409036	 161776.
22:54:41 1815 1816	 1492642481	 389124446	 165715.
22:54:41 1816 1817	 1492642481	 550900536	 161776.
22:54:41 1817 1818	 1492642481	 716672515	 165772.
22:54:41 1818 1819	 1492642481	 878300517	 161628.
22:54:42 1819 1820	 1492642482	 11330549	 133030.
22:54:42 1820 1821	 1492642482	 177249277	 165919.
22:54:42 1821 1822	 1492642482	 338843581	 161594.
22:54:42 1822 1823	 1492642482	 504446812	 165604.
22:54:42 1823 1824	 1492642482	 666025423	 161578.
22:54:42 1824 1825	 1492642482	 831815168	 165790.
22:54:42 1825 1826	 1492642482	 993598412	 161784.
22:54:43 1826 1827	 1492642483	 130670577	 137071.
22:54:43 1827 1828	 1492642483	 292429620	 161759.
22:54:43 1828 1829	 1492642483	 458360072	 165931.
22:54:43 1829 1830	 1492642483	 620123514	 161763.
22:54:43 1830 1831	 1492642483	 781822137	 161699.
22:54:43 1831 1832	 1492642483	 947527765	 165706.
22:54:44 1832 1833	 1492642484	 109219772	 161692.
22:54:44 1833 1834	 1492642484	 275030291	 165810.
22:54:44 1834 1835	 1492642484	 408167316	 133137.
22:54:44 1835 1836	 1492642484	 569891700	 161725.
22:54:44 1836 1837	 1492642484	 735648654	 165756.
22:54:44 1837 1838	 1492642484	 897464655	 161816.
22:54:45 1838 1839	 1492642485	 63193153	 165729.
22:54:45 1839 1840	 1492642485	 224868685	 161675.
22:54:45 1840 1841	 1492642485	 390646344	 165778.
22:54:45 1841 1842	 1492642485	 552141952	 161496.
22:54:45 1842 1843	 1492642485	 685219294	 133077.
22:54:45 1843 1844	 1492642485	 850982170	 165763.
22:54:46 1844 1845	 1492642486	 12425795	 161444.
22:54:46 1845 1846	 1492642486	 174081644	 161655.
22:54:46 1846 1847	 1492642486	 339713583	 165632.
22:54:46 1847 1848	 1492642486	 501434339	 161721.
22:54:46 1848 1849	 1492642486	 663281284	 161847.
22:54:46 1849 1850	 1492642486	 825283771	 162003.
22:54:46 1850 1851	 1492642486	 962423135	 137139.
22:54:47 1851 1852	 1492642487	 124162082	 161739.
22:54:47 1852 1853	 1492642487	 285796062	 161634.
22:54:47 1853 1854	 1492642487	 451633276	 165837.
22:54:47 1854 1855	 1492642487	 613410344	 161777.
22:54:47 1855 1856	 1492642487	 779111288	 165701.
22:54:47 1856 1857	 1492642487	 940867877	 161757.
22:54:48 1857 1858	 1492642488	 77880524	 137012.
22:54:48 1858 1859	 1492642488	 239582415	 161703.
22:54:48 1859 1860	 1492642488	 405322529	 165739.
22:54:48 1860 1861	 1492642488	 563363455	 158041.
22:54:48 1861 1862	 1492642488	 729302552	 165939.
22:54:48 1862 1863	 1492642488	 891170592	 161869.
22:54:49 1863 1864	 1492642489	 52929155	 161758.
22:54:49 1864 1865	 1492642489	 218650068	 165721.
22:54:49 1865 1866	 1492642489	 351692529	 133042.
22:54:49 1866 1867	 1492642489	 517537741	 165846.
22:54:49 1867 1868	 1492642489	 679162600	 161624.
22:54:49 1868 1869	 1492642489	 845099016	 165937.
22:54:50 1869 1870	 1492642490	 6877763	 161779.
22:54:50 1870 1871	 1492642490	 172708615	 165830.
22:54:50 1871 1872	 1492642490	 334547361	 161839.
22:54:50 1872 1873	 1492642490	 496325275	 161778.
22:54:50 1873 1874	 1492642490	 629446019	 133121.
22:54:50 1874 1875	 1492642490	 795182405	 165736.
22:54:50 1875 1876	 1492642490	 960925837	 165744.
22:54:51 1876 1877	 1492642491	 118831745	 157906.
