05:19:54    0 Step	 time(s)	 time(ns)	 delta(ms)
05:19:54    0 1	 1492406394	 240618107	 970.
05:19:54    1 2	 1492406394	 406661716	 166043.
05:19:54    2 3	 1492406394	 568946330	 162285.
05:19:54    3 4	 1492406394	 735126546	 166180.
05:19:54    4 5	 1492406394	 897138802	 162013.
05:19:55    5 6	 1492406395	 63190273	 166051.
05:19:55    6 7	 1492406395	 196480221	 133290.
05:19:55    7 8	 1492406395	 362661907	 166182.
05:19:55    8 9	 1492406395	 524639620	 161977.
05:19:55    9 10	 1492406395	 690728038	 166089.
05:19:55   10 11	 1492406395	 852984836	 162257.
05:19:56   11 12	 1492406396	 19011677	 166026.
05:19:56   12 13	 1492406396	 181025764	 162014.
05:19:56   13 14	 1492406396	 318288393	 137263.
05:19:56   14 15	 1492406396	 480309274	 162021.
05:19:56   15 16	 1492406396	 646435585	 166126.
05:19:56   16 17	 1492406396	 808499782	 162064.
05:19:56   17 18	 1492406396	 974641270	 166142.
05:19:57   18 19	 1492406397	 136889903	 162249.
05:19:57   19 20	 1492406397	 298971390	 162081.
05:19:57   20 21	 1492406397	 436127137	 137156.
05:19:57   21 22	 1492406397	 598175256	 162048.
05:19:57   22 23	 1492406397	 764136903	 165962.
05:19:57   23 24	 1492406397	 925942865	 161806.
05:19:58   24 25	 1492406398	 87807440	 161864.
05:19:58   25 26	 1492406398	 253699436	 165892.
05:19:58   26 27	 1492406398	 419777552	 166078.
05:19:58   27 28	 1492406398	 553064890	 133288.
05:19:58   28 29	 1492406398	 719181752	 166116.
05:19:58   29 30	 1492406398	 881170585	 161989.
05:19:59   30 31	 1492406399	 47285456	 166115.
05:19:59   31 32	 1492406399	 209296265	 162011.
05:19:59   32 33	 1492406399	 375995735	 166699.
05:19:59   33 34	 1492406399	 533934974	 157940.
05:19:59   34 35	 1492406399	 697732345	 163797.
05:19:59   35 36	 1492406399	 848459157	 150727.
05:20:00   36 37	 1492406400	 10408899	 161950.
05:20:00   37 38	 1492406400	 176506502	 166097.
05:20:00   38 39	 1492406400	 338487621	 161981.
05:20:00   39 40	 1492406400	 500861883	 162375.
05:20:00   40 41	 1492406400	 667014693	 166152.
05:20:00   41 42	 1492406400	 800161668	 133147.
05:20:00   42 43	 1492406400	 966363017	 166202.
05:20:01   43 44	 1492406401	 132412694	 166049.
05:20:01   44 45	 1492406401	 294495302	 162083.
05:20:01   45 46	 1492406401	 460697813	 166203.
05:20:01   46 47	 1492406401	 622981173	 162283.
05:20:01   47 48	 1492406401	 781707912	 158727.
05:20:01   48 49	 1492406401	 947936370	 166228.
05:20:02   49 50	 1492406402	 81292900	 133357.
05:20:02   50 51	 1492406402	 247447603	 166154.
05:20:02   51 52	 1492406402	 406077712	 158630.
05:20:02   52 53	 1492406402	 568213436	 162136.
05:20:02   53 54	 1492406402	 734445425	 166232.
05:20:02   54 55	 1492406402	 896437382	 161992.
05:20:03   55 56	 1492406403	 62473370	 166036.
05:20:03   56 57	 1492406403	 224603635	 162130.
05:20:03   57 58	 1492406403	 362034536	 137431.
05:20:03   58 59	 1492406403	 524096989	 162063.
05:20:03   59 60	 1492406403	 690038864	 165942.
05:20:03   60 61	 1492406403	 852172006	 162133.
05:20:04   61 62	 1492406404	 18437434	 166265.
05:20:04   62 63	 1492406404	 180442448	 162005.
05:20:04   63 64	 1492406404	 317840267	 137398.
05:20:04   64 65	 1492406404	 484069437	 166229.
05:20:04   65 66	 1492406404	 646162130	 162093.
05:20:04   66 67	 1492406404	 808386168	 162224.
05:20:04   67 68	 1492406404	 974489317	 166103.
05:20:05   68 69	 1492406405	 136657489	 162168.
05:20:05   69 70	 1492406405	 298596184	 161939.
05:20:05   70 71	 1492406405	 435986090	 137390.
05:20:05   71 72	 1492406405	 598040843	 162055.
05:20:05   72 73	 1492406405	 764407773	 166366.
05:20:05   73 74	 1492406405	 926619353	 162212.
05:20:06   74 75	 1492406406	 93053922	 166435.
05:20:06   75 76	 1492406406	 254977267	 161923.
05:20:06   76 77	 1492406406	 421142708	 166165.
05:20:06   77 78	 1492406406	 583092963	 161951.
05:20:06   78 79	 1492406406	 720402047	 137309.
05:20:06   79 80	 1492406406	 882890016	 162488.
05:20:07   80 81	 1492406407	 45055140	 162165.
05:20:07   81 82	 1492406407	 211292759	 166237.
05:20:07   82 83	 1492406407	 373423193	 162131.
05:20:07   83 84	 1492406407	 539449074	 166026.
05:20:07   84 85	 1492406407	 701543920	 162095.
05:20:07   85 86	 1492406407	 838723473	 137179.
05:20:07   86 87	 1492406408	 721382	 161998.
05:20:08   87 88	 1492406408	 162886800	 162166.
05:20:08   88 89	 1492406408	 329042503	 166155.
05:20:08   89 90	 1492406408	 490989104	 161947.
05:20:08   90 91	 1492406408	 657117024	 166128.
05:20:08   91 92	 1492406408	 818974308	 161857.
05:20:08   92 93	 1492406408	 956196485	 137222.
05:20:09   93 94	 1492406409	 122305121	 166109.
05:20:09   94 95	 1492406409	 284437512	 162132.
05:20:09   95 96	 1492406409	 450508536	 166071.
05:20:09   96 97	 1492406409	 612503712	 161995.
05:20:09   97 98	 1492406409	 778532682	 166029.
05:20:09   98 99	 1492406409	 911737684	 133205.
05:20:10   99 100	 1492406410	 77802801	 166065.
05:20:10  100 101	 1492406410	 239849725	 162047.
05:20:10  101 102	 1492406410	 405935496	 166086.
05:20:10  102 103	 1492406410	 571998230	 166063.
05:20:10  103 104	 1492406410	 734072582	 162074.
05:20:10  104 105	 1492406410	 896413197	 162341.
05:20:11  105 106	 1492406411	 62995446	 166582.
05:20:11  106 107	 1492406411	 220830178	 157835.
05:20:11  107 108	 1492406411	 383394859	 162565.
05:20:11  108 109	 1492406411	 516745139	 133350.
05:20:11  109 110	 1492406411	 682765162	 166020.
05:20:11  110 111	 1492406411	 848958018	 166193.
05:20:12  111 112	 1492406412	 11235253	 162277.
05:20:12  112 113	 1492406412	 177400679	 166165.
05:20:12  113 114	 1492406412	 339391834	 161992.
05:20:12  114 115	 1492406412	 476613692	 137221.
05:20:12  115 116	 1492406412	 638614779	 162001.
05:20:12  116 117	 1492406412	 804690335	 166076.
05:20:12  117 118	 1492406412	 966944294	 162254.
05:20:13  118 119	 1492406413	 128856387	 161912.
05:20:13  119 120	 1492406413	 295274871	 166419.
05:20:13  120 121	 1492406413	 457248954	 161974.
05:20:13  121 122	 1492406413	 623381969	 166133.
05:20:13  122 123	 1492406413	 756741619	 133359.
05:20:13  123 124	 1492406413	 918731465	 161990.
05:20:14  124 125	 1492406414	 84748507	 166017.
05:20:14  125 126	 1492406414	 250678652	 165930.
05:20:14  126 127	 1492406414	 412657316	 161979.
05:20:14  127 128	 1492406414	 574652124	 161995.
05:20:14  128 129	 1492406414	 740507339	 165855.
05:20:14  129 130	 1492406414	 877925818	 137419.
05:20:15  130 131	 1492406415	 39697730	 161771.
05:20:15  131 132	 1492406415	 205680122	 165983.
05:20:15  132 133	 1492406415	 367505690	 161826.
05:20:15  133 134	 1492406415	 529596835	 162091.
05:20:15  134 135	 1492406415	 695664834	 166068.
05:20:15  135 136	 1492406415	 857726119	 162061.
05:20:15  136 137	 1492406415	 990920632	 133194.
05:20:16  137 138	 1492406416	 157044965	 166125.
05:20:16  138 139	 1492406416	 319401557	 162356.
05:20:16  139 140	 1492406416	 481435617	 162034.
05:20:16  140 141	 1492406416	 640755619	 159320.
05:20:16  141 142	 1492406416	 798758902	 158004.
05:20:16  142 143	 1492406416	 964785613	 166026.
05:20:17  143 144	 1492406417	 130811239	 166026.
05:20:17  144 145	 1492406417	 292899891	 162089.
05:20:17  145 146	 1492406417	 458960717	 166060.
05:20:17  146 147	 1492406417	 592333433	 133373.
05:20:17  147 148	 1492406417	 758469306	 166136.
05:20:17  148 149	 1492406417	 920657633	 162188.
05:20:18  149 150	 1492406418	 86743267	 166086.
05:20:18  150 151	 1492406418	 248836144	 162093.
05:20:18  151 152	 1492406418	 410892030	 162056.
05:20:18  152 153	 1492406418	 577081308	 166189.
05:20:18  153 154	 1492406418	 743102297	 166021.
05:20:18  154 155	 1492406418	 876314843	 133213.
05:20:19  155 156	 1492406419	 42371654	 166056.
05:20:19  156 157	 1492406419	 204473480	 162102.
05:20:19  157 158	 1492406419	 370535973	 166063.
05:20:19  158 159	 1492406419	 532822726	 162286.
05:20:19  159 160	 1492406419	 694751063	 161929.
05:20:19  160 161	 1492406419	 832104610	 137353.
05:20:19  161 162	 1492406419	 993970646	 161866.
05:20:20  162 163	 1492406420	 152735157	 158765.
05:20:20  163 164	 1492406420	 318864725	 166129.
05:20:20  164 165	 1492406420	 484861872	 165998.
05:20:20  165 166	 1492406420	 646789325	 161927.
05:20:20  166 167	 1492406420	 812755700	 165966.
05:20:20  167 168	 1492406420	 975015814	 162261.
05:20:21  168 169	 1492406421	 133524757	 158508.
05:20:21  169 170	 1492406421	 271061854	 137538.
05:20:21  170 171	 1492406421	 433147667	 162085.
05:20:21  171 172	 1492406421	 595253725	 162106.
05:20:21  172 173	 1492406421	 761473250	 166220.
05:20:21  173 174	 1492406421	 927976677	 166503.
05:20:22  174 175	 1492406422	 90072216	 162096.
05:20:22  175 176	 1492406422	 256054641	 165982.
05:20:22  176 177	 1492406422	 418093931	 162040.
05:20:22  177 178	 1492406422	 555470034	 137376.
05:20:22  178 179	 1492406422	 717451466	 161981.
05:20:22  179 180	 1492406422	 883556869	 166106.
05:20:23  180 181	 1492406423	 45732019	 162175.
05:20:23  181 182	 1492406423	 211829176	 166097.
05:20:23  182 183	 1492406423	 373874565	 162045.
05:20:23  183 184	 1492406423	 539918463	 166044.
05:20:23  184 185	 1492406423	 673271857	 133354.
05:20:23  185 186	 1492406423	 839494143	 166222.
05:20:23  186 187	 1492406424	 1360660	 161866.
05:20:24  187 188	 1492406424	 167352941	 165993.
05:20:24  188 189	 1492406424	 329401723	 162048.
05:20:24  189 190	 1492406424	 495568809	 166168.
05:20:24  190 191	 1492406424	 657584152	 162015.
05:20:24  191 192	 1492406424	 820343789	 162759.
05:20:24  192 193	 1492406424	 982283434	 161940.
05:20:25  193 194	 1492406425	 115498959	 133216.
05:20:25  194 195	 1492406425	 281639683	 166140.
05:20:25  195 196	 1492406425	 439981284	 158342.
05:20:25  196 197	 1492406425	 606093848	 166113.
05:20:25  197 198	 1492406425	 768053239	 161959.
05:20:25  198 199	 1492406425	 933984946	 165932.
05:20:26  199 200	 1492406426	 95866375	 161881.
05:20:26  200 201	 1492406426	 257868264	 162002.
05:20:26  201 202	 1492406426	 395185259	 137317.
05:20:26  202 203	 1492406426	 557279858	 162095.
05:20:26  203 204	 1492406426	 723113653	 165833.
05:20:26  204 205	 1492406426	 885024799	 161911.
05:20:27  205 206	 1492406427	 50955005	 165931.
05:20:27  206 207	 1492406427	 212835818	 161881.
05:20:27  207 208	 1492406427	 350153436	 137317.
05:20:27  208 209	 1492406427	 512096645	 161943.
05:20:27  209 210	 1492406427	 678166136	 166070.
05:20:27  210 211	 1492406427	 840081115	 161915.
05:20:28  211 212	 1492406428	 6958380	 166877.
05:20:28  212 213	 1492406428	 164996773	 158038.
05:20:28  213 214	 1492406428	 326984641	 161988.
05:20:28  214 215	 1492406428	 493205001	 166221.
05:20:28  215 216	 1492406428	 655273673	 162068.
05:20:28  216 217	 1492406428	 788765670	 133492.
05:20:28  217 218	 1492406428	 954968529	 166203.
05:20:29  218 219	 1492406429	 117824154	 162856.
05:20:29  219 220	 1492406429	 275725987	 157902.
05:20:29  220 221	 1492406429	 441756437	 166030.
05:20:29  221 222	 1492406429	 603547581	 161791.
05:20:29  222 223	 1492406429	 769648397	 166101.
05:20:29  223 224	 1492406429	 935721745	 166073.
05:20:30  224 225	 1492406430	 97939973	 162219.
05:20:30  225 226	 1492406430	 231175232	 133235.
05:20:30  226 227	 1492406430	 393424695	 162249.
05:20:30  227 228	 1492406430	 559539598	 166115.
05:20:30  228 229	 1492406430	 721488022	 161949.
05:20:30  229 230	 1492406430	 887658671	 166170.
05:20:31  230 231	 1492406431	 49665455	 162007.
05:20:31  231 232	 1492406431	 215818928	 166154.
05:20:31  232 233	 1492406431	 348938359	 133119.
05:20:31  233 234	 1492406431	 514869281	 165931.
05:20:31  234 235	 1492406431	 676923373	 162054.
05:20:31  235 236	 1492406431	 839147410	 162224.
05:20:32  236 237	 1492406432	 5276981	 166130.
05:20:32  237 238	 1492406432	 167375018	 162098.
05:20:32  238 239	 1492406432	 329738634	 162363.
05:20:32  239 240	 1492406432	 491571195	 161833.
05:20:32  240 241	 1492406432	 657723361	 166152.
05:20:32  241 242	 1492406432	 790935131	 133212.
05:20:32  242 243	 1492406432	 956999773	 166064.
05:20:33  243 244	 1492406433	 119308805	 162310.
05:20:33  244 245	 1492406433	 281406156	 162097.
05:20:33  245 246	 1492406433	 443460564	 162054.
05:20:33  246 247	 1492406433	 609495203	 166035.
05:20:33  247 248	 1492406433	 771532851	 162038.
05:20:33  248 249	 1492406433	 937661581	 166128.
05:20:34  249 250	 1492406434	 70865149	 133204.
05:20:34  250 251	 1492406434	 233606320	 162741.
05:20:34  251 252	 1492406434	 395662660	 162056.
05:20:34  252 253	 1492406434	 561821561	 166159.
05:20:34  253 254	 1492406434	 723687920	 161867.
05:20:34  254 255	 1492406434	 885979133	 162291.
05:20:35  255 256	 1492406435	 52223275	 166244.
05:20:35  256 257	 1492406435	 214068270	 161845.
05:20:35  257 258	 1492406435	 351382395	 137314.
05:20:35  258 259	 1492406435	 513452890	 162071.
05:20:35  259 260	 1492406435	 679488477	 166035.
05:20:35  260 261	 1492406435	 841647359	 162159.
05:20:36  261 262	 1492406436	 7721370	 166074.
05:20:36  262 263	 1492406436	 169728087	 162007.
05:20:36  263 264	 1492406436	 335741593	 166013.
05:20:36  264 265	 1492406436	 469130451	 133389.
05:20:36  265 266	 1492406436	 635250979	 166121.
05:20:36  266 267	 1492406436	 797293403	 162042.
05:20:36  267 268	 1492406436	 963309813	 166017.
05:20:37  268 269	 1492406437	 125525824	 162216.
05:20:37  269 270	 1492406437	 287571168	 162045.
05:20:37  270 271	 1492406437	 453793664	 166222.
05:20:37  271 272	 1492406437	 620031787	 166239.
05:20:37  272 273	 1492406437	 753431496	 133399.
05:20:37  273 274	 1492406437	 915625041	 162194.
05:20:38  274 275	 1492406438	 81744311	 166119.
05:20:38  275 276	 1492406438	 240058207	 158314.
05:20:38  276 277	 1492406438	 406218499	 166160.
05:20:38  277 278	 1492406438	 568148095	 161930.
05:20:38  278 279	 1492406438	 734257664	 166109.
05:20:38  279 280	 1492406438	 896236901	 161980.
05:20:39  280 281	 1492406439	 33677808	 137441.
05:20:39  281 282	 1492406439	 195725661	 162047.
05:20:39  282 283	 1492406439	 358097570	 162372.
05:20:39  283 284	 1492406439	 524434588	 166337.
05:20:39  284 285	 1492406439	 686630048	 162196.
05:20:39  285 286	 1492406439	 852924380	 166294.
05:20:40  286 287	 1492406440	 14782705	 161858.
05:20:40  287 288	 1492406440	 180888893	 166107.
05:20:40  288 289	 1492406440	 314295497	 133406.
05:20:40  289 290	 1492406440	 476280690	 161985.
05:20:40  290 291	 1492406440	 642526914	 166247.
05:20:40  291 292	 1492406440	 808608149	 166081.
05:20:40  292 293	 1492406440	 970802448	 162194.
05:20:41  293 294	 1492406441	 132872266	 162070.
05:20:41  294 295	 1492406441	 295357789	 162485.
05:20:41  295 296	 1492406441	 462116244	 166759.
05:20:41  296 297	 1492406441	 620178962	 158063.
05:20:41  297 298	 1492406441	 786288817	 166110.
05:20:41  298 299	 1492406441	 919577836	 133289.
05:20:42  299 300	 1492406442	 85790060	 166212.
05:20:42  300 301	 1492406442	 247992131	 162202.
05:20:42  301 302	 1492406442	 414074801	 166083.
05:20:42  302 303	 1492406442	 576108453	 162033.
05:20:42  303 304	 1492406442	 738170101	 162062.
05:20:42  304 305	 1492406442	 904310197	 166140.
05:20:43  305 306	 1492406443	 37412587	 133102.
05:20:43  306 307	 1492406443	 199975346	 162563.
05:20:43  307 308	 1492406443	 361880745	 161905.
05:20:43  308 309	 1492406443	 527824588	 165944.
05:20:43  309 310	 1492406443	 689907325	 162083.
05:20:43  310 311	 1492406443	 852470795	 162564.
05:20:44  311 312	 1492406444	 14582376	 162111.
05:20:44  312 313	 1492406444	 180822775	 166240.
05:20:44  313 314	 1492406444	 342811512	 161989.
05:20:44  314 315	 1492406444	 504876783	 162066.
05:20:44  315 316	 1492406444	 642234775	 137357.
05:20:44  316 317	 1492406444	 808195571	 165961.
05:20:44  317 318	 1492406444	 971002838	 162807.
05:20:45  318 319	 1492406445	 128971496	 157969.
05:20:45  319 320	 1492406445	 294989201	 166018.
05:20:45  320 321	 1492406445	 457132681	 162143.
05:20:45  321 322	 1492406445	 623205441	 166073.
05:20:45  322 323	 1492406445	 785329299	 162124.
05:20:45  323 324	 1492406445	 951396251	 166067.
05:20:46  324 325	 1492406446	 84604096	 133208.
05:20:46  325 326	 1492406446	 250529980	 165926.
05:20:46  326 327	 1492406446	 412490042	 161960.
05:20:46  327 328	 1492406446	 578440044	 165950.
05:20:46  328 329	 1492406446	 740455708	 162015.
05:20:46  329 330	 1492406446	 906634034	 166179.
05:20:47  330 331	 1492406447	 68858457	 162224.
05:20:47  331 332	 1492406447	 206003870	 137146.
05:20:47  332 333	 1492406447	 368075875	 162072.
05:20:47  333 334	 1492406447	 534221739	 166145.
05:20:47  334 335	 1492406447	 696266048	 162045.
05:20:47  335 336	 1492406447	 858602589	 162336.
05:20:48  336 337	 1492406448	 20526174	 161924.
05:20:48  337 338	 1492406448	 186564920	 166039.
05:20:48  338 339	 1492406448	 348863039	 162298.
05:20:48  339 340	 1492406448	 510789925	 161927.
05:20:48  340 341	 1492406448	 644029437	 133239.
05:20:48  341 342	 1492406448	 810133252	 166104.
05:20:48  342 343	 1492406448	 972142088	 162009.
05:20:49  343 344	 1492406449	 138234386	 166092.
05:20:49  344 345	 1492406449	 300005944	 161772.
05:20:49  345 346	 1492406449	 465902003	 165896.
05:20:49  346 347	 1492406449	 624041977	 158140.
05:20:49  347 348	 1492406449	 761174946	 137133.
05:20:49  348 349	 1492406449	 927039612	 165864.
05:20:50  349 350	 1492406450	 89385138	 162346.
05:20:50  350 351	 1492406450	 251387777	 162002.
05:20:50  351 352	 1492406450	 417713542	 166326.
05:20:50  352 353	 1492406450	 572491951	 154779.
05:20:50  353 354	 1492406450	 738643642	 166151.
05:20:50  354 355	 1492406450	 901176995	 162534.
05:20:51  355 356	 1492406451	 63366895	 162190.
05:20:51  356 357	 1492406451	 230141549	 166774.
05:20:51  357 358	 1492406451	 388057010	 157916.
05:20:51  358 359	 1492406451	 550027577	 161970.
05:20:51  359 360	 1492406451	 687208522	 137181.
05:20:51  360 361	 1492406451	 849275158	 162067.
05:20:52  361 362	 1492406452	 15352708	 166077.
05:20:52  362 363	 1492406452	 177359324	 162007.
05:20:52  363 364	 1492406452	 343300734	 165941.
05:20:52  364 365	 1492406452	 505319778	 162020.
05:20:52  365 366	 1492406452	 671424563	 166104.
05:20:52  366 367	 1492406452	 804752411	 133328.
05:20:52  367 368	 1492406452	 970773733	 166022.
05:20:53  368 369	 1492406453	 132779962	 162006.
05:20:53  369 370	 1492406453	 298680959	 165901.
05:20:53  370 371	 1492406453	 460589953	 161909.
05:20:53  371 372	 1492406453	 626542906	 165953.
05:20:53  372 373	 1492406453	 788482713	 161939.
05:20:53  373 374	 1492406453	 925869531	 137387.
05:20:54  374 375	 1492406454	 88010435	 162141.
05:20:54  375 376	 1492406454	 246541087	 158531.
05:20:54  376 377	 1492406454	 412651910	 166111.
05:20:54  377 378	 1492406454	 574731437	 162079.
05:20:54  378 379	 1492406454	 740887936	 166157.
05:20:54  379 380	 1492406454	 906846842	 165959.
05:20:55  380 381	 1492406455	 69001467	 162154.
05:20:55  381 382	 1492406455	 234912460	 165911.
05:20:55  382 383	 1492406455	 368187641	 133275.
05:20:55  383 384	 1492406455	 530125783	 161938.
05:20:55  384 385	 1492406455	 695886942	 165762.
05:20:55  385 386	 1492406455	 858045508	 162158.
05:20:56  386 387	 1492406456	 24025896	 165981.
05:20:56  387 388	 1492406456	 190070065	 166044.
05:20:56  388 389	 1492406456	 352300764	 162230.
05:20:56  389 390	 1492406456	 510481651	 158181.
05:20:56  390 391	 1492406456	 676439728	 165958.
05:20:56  391 392	 1492406456	 809565272	 133126.
05:20:56  392 393	 1492406456	 975490203	 165925.
05:20:57  393 394	 1492406457	 137533711	 162043.
05:20:57  394 395	 1492406457	 303520833	 165988.
05:20:57  395 396	 1492406457	 465486082	 161965.
05:20:57  396 397	 1492406457	 631495932	 166010.
05:20:57  397 398	 1492406457	 793332577	 161836.
05:20:57  398 399	 1492406457	 930522360	 137190.
05:20:58  399 400	 1492406458	 92462125	 161940.
05:20:58  400 401	 1492406458	 258510222	 166048.
05:20:58  401 402	 1492406458	 420296789	 161787.
05:20:58  402 403	 1492406458	 586523191	 166226.
05:20:58  403 404	 1492406458	 748557211	 162034.
05:20:58  404 405	 1492406458	 885804410	 137247.
05:20:59  405 406	 1492406459	 44280764	 158476.
05:20:59  406 407	 1492406459	 210368946	 166089.
05:20:59  407 408	 1492406459	 372429276	 162060.
05:20:59  408 409	 1492406459	 538637407	 166208.
05:20:59  409 410	 1492406459	 700508073	 161871.
05:20:59  410 411	 1492406459	 866511572	 166003.
05:21:00  411 412	 1492406460	 32609359	 166098.
05:21:00  412 413	 1492406460	 165928196	 133319.
05:21:00  413 414	 1492406460	 331978854	 166051.
05:21:00  414 415	 1492406460	 493919647	 161940.
05:21:00  415 416	 1492406460	 655985708	 162066.
05:21:00  416 417	 1492406460	 822141337	 166156.
05:21:00  417 418	 1492406460	 988194429	 166053.
05:21:01  418 419	 1492406461	 150235821	 162042.
05:21:01  419 420	 1492406461	 312098427	 161862.
05:21:01  420 421	 1492406461	 445628171	 133530.
05:21:01  421 422	 1492406461	 611724656	 166096.
05:21:01  422 423	 1492406461	 773745630	 162021.
05:21:01  423 424	 1492406461	 940680696	 166935.
05:21:02  424 425	 1492406462	 98643835	 157964.
05:21:02  425 426	 1492406462	 260588958	 161945.
05:21:02  426 427	 1492406462	 426520846	 165932.
05:21:02  427 428	 1492406462	 588565496	 162044.
05:21:02  428 429	 1492406462	 754700697	 166135.
05:21:02  429 430	 1492406462	 888083150	 133383.
05:21:03  430 431	 1492406463	 46738877	 158656.
05:21:03  431 432	 1492406463	 208877241	 162138.
05:21:03  432 433	 1492406463	 374982609	 166105.
05:21:03  433 434	 1492406463	 537174155	 162192.
05:21:03  434 435	 1492406463	 703282272	 166108.
05:21:03  435 436	 1492406463	 865338586	 162056.
05:21:04  436 437	 1492406464	 31432464	 166094.
05:21:04  437 438	 1492406464	 193388513	 161956.
05:21:04  438 439	 1492406464	 326754892	 133367.
05:21:04  439 440	 1492406464	 493048710	 166293.
05:21:04  440 441	 1492406464	 655010419	 161962.
05:21:04  441 442	 1492406464	 817129727	 162119.
05:21:04  442 443	 1492406464	 983181967	 166053.
05:21:05  443 444	 1492406465	 149208632	 166026.
05:21:05  444 445	 1492406465	 311088447	 161880.
05:21:05  445 446	 1492406465	 448446811	 137359.
05:21:05  446 447	 1492406465	 610452595	 162005.
05:21:05  447 448	 1492406465	 776536987	 166085.
05:21:05  448 449	 1492406465	 942571254	 166034.
05:21:06  449 450	 1492406466	 104601593	 162030.
05:21:06  450 451	 1492406466	 270595010	 165994.
05:21:06  451 452	 1492406466	 432990642	 162395.
05:21:06  452 453	 1492406466	 570287165	 137297.
05:21:06  453 454	 1492406466	 732298253	 162011.
05:21:06  454 455	 1492406466	 894425769	 162127.
05:21:07  455 456	 1492406467	 60864084	 166439.
05:21:07  456 457	 1492406467	 222960279	 162096.
05:21:07  457 458	 1492406467	 388963370	 166003.
05:21:07  458 459	 1492406467	 555002296	 166039.
05:21:07  459 460	 1492406467	 717179480	 162177.
05:21:07  460 461	 1492406467	 850392460	 133213.
05:21:08  461 462	 1492406468	 16436334	 166044.
05:21:08  462 463	 1492406468	 182723283	 166287.
05:21:08  463 464	 1492406468	 344653606	 161930.
05:21:08  464 465	 1492406468	 506531758	 161878.
05:21:08  465 466	 1492406468	 672531596	 166000.
05:21:08  466 467	 1492406468	 805886924	 133356.
05:21:08  467 468	 1492406468	 968111607	 162224.
05:21:09  468 469	 1492406469	 134284116	 166173.
05:21:09  469 470	 1492406469	 296249160	 161965.
05:21:09  470 471	 1492406469	 462326892	 166078.
05:21:09  471 472	 1492406469	 624487896	 162161.
05:21:09  472 473	 1492406469	 786905940	 162418.
05:21:09  473 474	 1492406469	 952873193	 165967.
05:21:10  474 475	 1492406470	 114799347	 161926.
05:21:10  475 476	 1492406470	 248071037	 133272.
05:21:10  476 477	 1492406470	 414176319	 166105.
05:21:10  477 478	 1492406470	 576032890	 161857.
05:21:10  478 479	 1492406470	 742071246	 166038.
05:21:10  479 480	 1492406470	 903971246	 161900.
05:21:11  480 481	 1492406471	 69959193	 165988.
05:21:11  481 482	 1492406471	 231927164	 161968.
05:21:11  482 483	 1492406471	 369283979	 137357.
05:21:11  483 484	 1492406471	 531302285	 162018.
05:21:11  484 485	 1492406471	 693829171	 162527.
05:21:11  485 486	 1492406471	 852128373	 158299.
05:21:12  486 487	 1492406472	 18114422	 165986.
05:21:12  487 488	 1492406472	 180069954	 161956.
05:21:12  488 489	 1492406472	 342159477	 162089.
05:21:12  489 490	 1492406472	 508262400	 166103.
05:21:12  490 491	 1492406472	 670269327	 162007.
05:21:12  491 492	 1492406472	 807572222	 137303.
05:21:12  492 493	 1492406472	 969653729	 162081.
05:21:13  493 494	 1492406473	 135811625	 166158.
05:21:13  494 495	 1492406473	 297956480	 162145.
05:21:13  495 496	 1492406473	 463900916	 165945.
05:21:13  496 497	 1492406473	 626097558	 162196.
05:21:13  497 498	 1492406473	 792457965	 166361.
05:21:13  498 499	 1492406473	 954412789	 161955.
05:21:14  499 500	 1492406474	 91822441	 137409.
05:21:14  500 501	 1492406474	 253908515	 162086.
05:21:14  501 502	 1492406474	 415955148	 162047.
05:21:14  502 503	 1492406474	 582332319	 166377.
05:21:14  503 504	 1492406474	 744326167	 161994.
05:21:14  504 505	 1492406474	 910285678	 165959.
05:21:15  505 506	 1492406475	 72386821	 162102.
05:21:15  506 507	 1492406475	 205562318	 133175.
05:21:15  507 508	 1492406475	 367905560	 162343.
05:21:15  508 509	 1492406475	 529752257	 161847.
05:21:15  509 510	 1492406475	 695734507	 165982.
05:21:15  510 511	 1492406475	 857732325	 161998.
05:21:16  511 512	 1492406476	 23739306	 166007.
05:21:16  512 513	 1492406476	 185642983	 161904.
05:21:16  513 514	 1492406476	 347685881	 162043.
05:21:16  514 515	 1492406476	 484840370	 137154.
05:21:16  515 516	 1492406476	 646826897	 161987.
05:21:16  516 517	 1492406476	 812710686	 165883.
05:21:16  517 518	 1492406476	 974655447	 161945.
05:21:17  518 519	 1492406477	 136474474	 161819.
05:21:17  519 520	 1492406477	 298646546	 162172.
05:21:17  520 521	 1492406477	 460810532	 162164.
05:21:17  521 522	 1492406477	 598001778	 137191.
05:21:17  522 523	 1492406477	 759902477	 161901.
05:21:17  523 524	 1492406477	 926000299	 166098.
05:21:18  524 525	 1492406478	 88036783	 162036.
05:21:18  525 526	 1492406478	 246558900	 158523.
05:21:18  526 527	 1492406478	 408906073	 162347.
05:21:18  527 528	 1492406478	 574971056	 166065.
05:21:18  528 529	 1492406478	 736802008	 161831.
05:21:18  529 530	 1492406478	 903694717	 166892.
05:21:19  530 531	 1492406479	 61447659	 157754.
05:21:19  531 532	 1492406479	 223538143	 162090.
05:21:19  532 533	 1492406479	 356880213	 133342.
05:21:19  533 534	 1492406479	 522900385	 166020.
05:21:19  534 535	 1492406479	 685004230	 162104.
05:21:19  535 536	 1492406479	 850892529	 165888.
05:21:20  536 537	 1492406480	 12805781	 161913.
05:21:20  537 538	 1492406480	 178826368	 166021.
05:21:20  538 539	 1492406480	 337510659	 158684.
05:21:20  539 540	 1492406480	 499680206	 162170.
05:21:20  540 541	 1492406480	 661635947	 161956.
05:21:20  541 542	 1492406480	 798961162	 137325.
05:21:20  542 543	 1492406480	 960983994	 162023.
05:21:21  543 544	 1492406481	 123290320	 162306.
05:21:21  544 545	 1492406481	 285178836	 161889.
05:21:21  545 546	 1492406481	 451115393	 165936.
05:21:21  546 547	 1492406481	 617170174	 166055.
05:21:21  547 548	 1492406481	 779106181	 161936.
05:21:21  548 549	 1492406481	 944984663	 165879.
05:21:22  549 550	 1492406482	 78294830	 133310.
05:21:22  550 551	 1492406482	 240503840	 162209.
05:21:22  551 552	 1492406482	 402570080	 162066.
05:21:22  552 553	 1492406482	 564937729	 162367.
05:21:22  553 554	 1492406482	 730923753	 165986.
05:21:22  554 555	 1492406482	 892866527	 161943.
05:21:23  555 556	 1492406483	 58816029	 165950.
05:21:23  556 557	 1492406483	 220602655	 161786.
05:21:23  557 558	 1492406483	 357799685	 137197.
05:21:23  558 559	 1492406483	 519711738	 161912.
05:21:23  559 560	 1492406483	 685646965	 165936.
05:21:23  560 561	 1492406483	 847533412	 161886.
05:21:24  561 562	 1492406484	 13438336	 165905.
05:21:24  562 563	 1492406484	 172022671	 158584.
05:21:24  563 564	 1492406484	 334089625	 162067.
05:21:24  564 565	 1492406484	 499949141	 165860.
05:21:24  565 566	 1492406484	 633176502	 133227.
05:21:24  566 567	 1492406484	 795273465	 162097.
05:21:24  567 568	 1492406484	 961112732	 165839.
05:21:25  568 569	 1492406485	 122998350	 161886.
05:21:25  569 570	 1492406485	 284717253	 161719.
05:21:25  570 571	 1492406485	 450505106	 165788.
05:21:25  571 572	 1492406485	 612379632	 161874.
05:21:25  572 573	 1492406485	 749583382	 137204.
05:21:25  573 574	 1492406485	 911382048	 161799.
05:21:26  574 575	 1492406486	 73949981	 162568.
05:21:26  575 576	 1492406486	 235762976	 161813.
05:21:26  576 577	 1492406486	 397784141	 162021.
05:21:26  577 578	 1492406486	 563827806	 166044.
05:21:26  578 579	 1492406486	 725671400	 161843.
05:21:26  579 580	 1492406486	 891518171	 165847.
05:21:27  580 581	 1492406487	 24790362	 133272.
05:21:27  581 582	 1492406487	 190816145	 166026.
05:21:27  582 583	 1492406487	 352814610	 161998.
05:21:27  583 584	 1492406487	 518732186	 165918.
05:21:27  584 585	 1492406487	 684647020	 165915.
05:21:27  585 586	 1492406487	 846563791	 161916.
05:21:27  586 587	 1492406487	 979792065	 133229.
05:21:28  587 588	 1492406488	 145644348	 165852.
05:21:28  588 589	 1492406488	 307632659	 161988.
05:21:28  589 590	 1492406488	 473698330	 166066.
05:21:28  590 591	 1492406488	 635482437	 161784.
05:21:28  591 592	 1492406488	 801358287	 165876.
05:21:28  592 593	 1492406488	 963169825	 161812.
05:21:29  593 594	 1492406489	 100372468	 137202.
05:21:29  594 595	 1492406489	 262215483	 161843.
05:21:29  595 596	 1492406489	 428058157	 165843.
05:21:29  596 597	 1492406489	 589859033	 161801.
05:21:29  597 598	 1492406489	 755838024	 165979.
05:21:29  598 599	 1492406489	 917591180	 161753.
05:21:30  599 600	 1492406490	 54891021	 137300.
05:21:30  600 601	 1492406490	 216811648	 161920.
05:21:30  601 602	 1492406490	 382825246	 166014.
05:21:30  602 603	 1492406490	 544856634	 162031.
05:21:30  603 604	 1492406490	 710853352	 165997.
05:21:30  604 605	 1492406490	 872799021	 161946.
05:21:31  605 606	 1492406491	 9889328	 137090.
05:21:31  606 607	 1492406491	 168072261	 158183.
05:21:31  607 608	 1492406491	 333906286	 165834.
05:21:31  608 609	 1492406491	 495734045	 161828.
05:21:31  609 610	 1492406491	 661649580	 165915.
05:21:31  610 611	 1492406491	 823452206	 161803.
05:21:31  611 612	 1492406491	 989370550	 165918.
05:21:32  612 613	 1492406492	 122560436	 133190.
05:21:32  613 614	 1492406492	 288453036	 165893.
05:21:32  614 615	 1492406492	 450486818	 162034.
05:21:32  615 616	 1492406492	 616488343	 166001.
05:21:32  616 617	 1492406492	 778417638	 161930.
05:21:32  617 618	 1492406492	 944351585	 165933.
05:21:33  618 619	 1492406493	 106422837	 162072.
05:21:33  619 620	 1492406493	 239628208	 133205.
05:21:33  620 621	 1492406493	 405616607	 165988.
05:21:33  621 622	 1492406493	 567594962	 161979.
05:21:33  622 623	 1492406493	 733592862	 165998.
05:21:33  623 624	 1492406493	 899955269	 166362.
05:21:34  624 625	 1492406494	 61868579	 161913.
05:21:34  625 626	 1492406494	 223671345	 161803.
05:21:34  626 627	 1492406494	 385576123	 161905.
05:21:34  627 628	 1492406494	 522898209	 137322.
05:21:34  628 629	 1492406494	 684916089	 162018.
05:21:34  629 630	 1492406494	 847115319	 162199.
05:21:35  630 631	 1492406495	 9749886	 162635.
05:21:35  631 632	 1492406495	 175637871	 165888.
05:21:35  632 633	 1492406495	 337785422	 162147.
05:21:35  633 634	 1492406495	 499968715	 162183.
05:21:35  634 635	 1492406495	 661800748	 161832.
05:21:35  635 636	 1492406495	 828572458	 166772.
05:21:35  636 637	 1492406495	 986536678	 157964.
05:21:36  637 638	 1492406496	 119851611	 133315.
05:21:36  638 639	 1492406496	 285971475	 166120.
05:21:36  639 640	 1492406496	 444752332	 158781.
05:21:36  640 641	 1492406496	 606586120	 161834.
05:21:36  641 642	 1492406496	 772661341	 166075.
05:21:36  642 643	 1492406496	 934654018	 161993.
05:21:37  643 644	 1492406497	 100510664	 165856.
05:21:37  644 645	 1492406497	 262428463	 161918.
05:21:37  645 646	 1492406497	 428725137	 166297.
05:21:37  646 647	 1492406497	 587038466	 158313.
05:21:37  647 648	 1492406497	 724457562	 137419.
05:21:37  648 649	 1492406497	 886588546	 162131.
05:21:38  649 650	 1492406498	 48927820	 162340.
05:21:38  650 651	 1492406498	 214956160	 166028.
05:21:38  651 652	 1492406498	 377084287	 162128.
05:21:38  652 653	 1492406498	 543184640	 166100.
05:21:38  653 654	 1492406498	 705160660	 161976.
05:21:38  654 655	 1492406498	 871173654	 166014.
05:21:39  655 656	 1492406499	 4179652	 133005.
05:21:39  656 657	 1492406499	 170106249	 165927.
05:21:39  657 658	 1492406499	 332134654	 162028.
05:21:39  658 659	 1492406499	 498295923	 166162.
05:21:39  659 660	 1492406499	 660293214	 161997.
05:21:39  660 661	 1492406499	 826234565	 165941.
05:21:39  661 662	 1492406499	 959414647	 133180.
05:21:40  662 663	 1492406500	 125502568	 166088.
05:21:40  663 664	 1492406500	 287524981	 162023.
05:21:40  664 665	 1492406500	 453447542	 165922.
05:21:40  665 666	 1492406500	 615414256	 161967.
05:21:40  666 667	 1492406500	 781598450	 166184.
05:21:40  667 668	 1492406500	 943510947	 161913.
05:21:41  668 669	 1492406501	 80844571	 137333.
05:21:41  669 670	 1492406501	 242803908	 161960.
05:21:41  670 671	 1492406501	 408914882	 166111.
05:21:41  671 672	 1492406501	 570859480	 161944.
05:21:41  672 673	 1492406501	 729528518	 158669.
05:21:41  673 674	 1492406501	 891875245	 162347.
05:21:42  674 675	 1492406502	 53927495	 162052.
05:21:42  675 676	 1492406502	 219909985	 165983.
05:21:42  676 677	 1492406502	 381749235	 161839.
05:21:42  677 678	 1492406502	 540137809	 158389.
05:21:42  678 679	 1492406502	 677183644	 137045.
05:21:42  679 680	 1492406502	 838931556	 161748.
05:21:43  680 681	 1492406503	 4972717	 166041.
05:21:43  681 682	 1492406503	 166936455	 161964.
05:21:43  682 683	 1492406503	 333059579	 166123.
05:21:43  683 684	 1492406503	 494918743	 161859.
05:21:43  684 685	 1492406503	 628128361	 133210.
05:21:43  685 686	 1492406503	 790430456	 162302.
05:21:43  686 687	 1492406503	 956345920	 165916.
05:21:44  687 688	 1492406504	 118192575	 161846.
05:21:44  688 689	 1492406504	 284106784	 165914.
05:21:44  689 690	 1492406504	 450246157	 166140.
05:21:44  690 691	 1492406504	 612185723	 161939.
05:21:44  691 692	 1492406504	 749430642	 137245.
05:21:44  692 693	 1492406504	 911346354	 161916.
05:21:45  693 694	 1492406505	 77348874	 166003.
05:21:45  694 695	 1492406505	 239214802	 161866.
05:21:45  695 696	 1492406505	 405007238	 165792.
05:21:45  696 697	 1492406505	 566808961	 161802.
05:21:45  697 698	 1492406505	 699907516	 133098.
05:21:45  698 699	 1492406505	 865854360	 165947.
05:21:46  699 700	 1492406506	 27579503	 161725.
05:21:46  700 701	 1492406506	 193579476	 166000.
05:21:46  701 702	 1492406506	 351879329	 158300.
05:21:46  702 703	 1492406506	 514115028	 162236.
05:21:46  703 704	 1492406506	 676525974	 162411.
05:21:46  704 705	 1492406506	 838410500	 161884.
05:21:47  705 706	 1492406507	 4388288	 165978.
05:21:47  706 707	 1492406507	 137658844	 133270.
05:21:47  707 708	 1492406507	 303583228	 165925.
05:21:47  708 709	 1492406507	 465482182	 161899.
05:21:47  709 710	 1492406507	 631452515	 165970.
05:21:47  710 711	 1492406507	 793139611	 161687.
05:21:47  711 712	 1492406507	 959087023	 165948.
05:21:48  712 713	 1492406508	 125099151	 166012.
05:21:48  713 714	 1492406508	 258197387	 133098.
05:21:48  714 715	 1492406508	 423966789	 165769.
05:21:48  715 716	 1492406508	 585876809	 161911.
05:21:48  716 717	 1492406508	 751813179	 165936.
05:21:48  717 718	 1492406508	 913811922	 161999.
05:21:49  718 719	 1492406509	 79634892	 165823.
05:21:49  719 720	 1492406509	 212855456	 133220.
05:21:49  720 721	 1492406509	 378799678	 165944.
05:21:49  721 722	 1492406509	 540858885	 162060.
05:21:49  722 723	 1492406509	 706731343	 165872.
05:21:49  723 724	 1492406509	 868528229	 161797.
05:21:50  724 725	 1492406510	 30440003	 161912.
05:21:50  725 726	 1492406510	 196394884	 165955.
05:21:50  726 727	 1492406510	 333864572	 137469.
05:21:50  727 728	 1492406510	 491741128	 157877.
05:21:50  728 729	 1492406510	 653803143	 162062.
05:21:50  729 730	 1492406510	 819728815	 165926.
05:21:50  730 731	 1492406510	 981728428	 161999.
05:21:51  731 732	 1492406511	 147595715	 165867.
05:21:51  732 733	 1492406511	 309439706	 161844.
05:21:51  733 734	 1492406511	 475318904	 165880.
05:21:51  734 735	 1492406511	 608403719	 133084.
05:21:51  735 736	 1492406511	 774533015	 166130.
05:21:51  736 737	 1492406511	 936301772	 161768.
05:21:52  737 738	 1492406512	 98046304	 161745.
05:21:52  738 739	 1492406512	 264009694	 165963.
05:21:52  739 740	 1492406512	 425799307	 161790.
05:21:52  740 741	 1492406512	 587977228	 162178.
05:21:52  741 742	 1492406512	 746613417	 158636.
05:21:52  742 743	 1492406512	 908745009	 162132.
05:21:53  743 744	 1492406513	 46109491	 137364.
05:21:53  744 745	 1492406513	 208057373	 161948.
05:21:53  745 746	 1492406513	 373985474	 165928.
05:21:53  746 747	 1492406513	 535739606	 161754.
05:21:53  747 748	 1492406513	 701599160	 165860.
05:21:53  748 749	 1492406513	 863550626	 161951.
05:21:54  749 750	 1492406514	 29454185	 165904.
05:21:54  750 751	 1492406514	 162661604	 133207.
05:21:54  751 752	 1492406514	 328458199	 165797.
05:21:54  752 753	 1492406514	 490478483	 162020.
05:21:54  753 754	 1492406514	 656432634	 165954.
05:21:54  754 755	 1492406514	 818331030	 161899.
05:21:54  755 756	 1492406514	 984348408	 166017.
05:21:55  756 757	 1492406515	 117648850	 133301.
05:21:55  757 758	 1492406515	 283471515	 165822.
05:21:55  758 759	 1492406515	 445287017	 161816.
05:21:55  759 760	 1492406515	 611240673	 165953.
05:21:55  760 761	 1492406515	 773165438	 161925.
05:21:55  761 762	 1492406515	 939092003	 165927.
05:21:56  762 763	 1492406516	 101081820	 161990.
05:21:56  763 764	 1492406516	 234127840	 133045.
05:21:56  764 765	 1492406516	 399961868	 165835.
05:21:56  765 766	 1492406516	 565967599	 166005.
05:21:56  766 767	 1492406516	 727711006	 161744.
05:21:56  767 768	 1492406516	 893766510	 166055.
05:21:57  768 769	 1492406517	 55738053	 161972.
05:21:57  769 770	 1492406517	 192938630	 137200.
05:21:57  770 771	 1492406517	 354764528	 161826.
05:21:57  771 772	 1492406517	 520624747	 165860.
05:21:57  772 773	 1492406517	 678769208	 158145.
05:21:57  773 774	 1492406517	 844569605	 165800.
05:21:58  774 775	 1492406518	 6537289	 161968.
05:21:58  775 776	 1492406518	 172654824	 166118.
05:21:58  776 777	 1492406518	 305834325	 133179.
05:21:58  777 778	 1492406518	 471875412	 166041.
05:21:58  778 779	 1492406518	 633719627	 161844.
05:21:58  779 780	 1492406518	 795490593	 161771.
05:21:58  780 781	 1492406518	 961379812	 165890.
05:21:59  781 782	 1492406519	 123164512	 161784.
05:21:59  782 783	 1492406519	 288918858	 165755.
05:21:59  783 784	 1492406519	 422111822	 133193.
05:21:59  784 785	 1492406519	 587972180	 165860.
05:21:59  785 786	 1492406519	 750034084	 162062.
05:21:59  786 787	 1492406519	 911948293	 161914.
05:22:00  787 788	 1492406520	 78063245	 166115.
05:22:00  788 789	 1492406520	 239912311	 161849.
05:22:00  789 790	 1492406520	 405842777	 165930.
05:22:00  790 791	 1492406520	 539136355	 133294.
05:22:00  791 792	 1492406520	 705066367	 165930.
05:22:00  792 793	 1492406520	 867222809	 162157.
05:22:01  793 794	 1492406521	 29306509	 162083.
05:22:01  794 795	 1492406521	 195382108	 166076.
05:22:01  795 796	 1492406521	 357365348	 161983.
05:22:01  796 797	 1492406521	 494612633	 137247.
05:22:01  797 798	 1492406521	 656459585	 161847.
05:22:01  798 799	 1492406521	 822507753	 166048.
05:22:01  799 800	 1492406521	 984537159	 162030.
05:22:02  800 801	 1492406522	 150603813	 166067.
05:22:02  801 802	 1492406522	 312606578	 162002.
05:22:02  802 803	 1492406522	 474693362	 162087.
05:22:02  803 804	 1492406522	 611945211	 137252.
05:22:02  804 805	 1492406522	 773808411	 161863.
05:22:02  805 806	 1492406522	 939723164	 165915.
05:22:03  806 807	 1492406523	 101734067	 162011.
05:22:03  807 808	 1492406523	 267777510	 166043.
05:22:03  808 809	 1492406523	 429861701	 162084.
05:22:03  809 810	 1492406523	 592000530	 162139.
05:22:03  810 811	 1492406523	 729400213	 137400.
05:22:03  811 812	 1492406523	 891542893	 162143.
05:22:04  812 813	 1492406524	 57581531	 166038.
05:22:04  813 814	 1492406524	 219573097	 161992.
05:22:04  814 815	 1492406524	 385741578	 166168.
05:22:04  815 816	 1492406524	 547910616	 162169.
05:22:04  816 817	 1492406524	 713994817	 166085.
05:22:04  817 818	 1492406524	 847221090	 133226.
05:22:05  818 819	 1492406525	 9090392	 161869.
05:22:05  819 820	 1492406525	 171239736	 162150.
05:22:05  820 821	 1492406525	 337365585	 166125.
05:22:05  821 822	 1492406525	 503622479	 166257.
05:22:05  822 823	 1492406525	 665668568	 162046.
05:22:05  823 824	 1492406525	 827675783	 162007.
05:22:05  824 825	 1492406525	 989896906	 162222.
05:22:06  825 826	 1492406526	 127095192	 137198.
05:22:06  826 827	 1492406526	 289290424	 162195.
05:22:06  827 828	 1492406526	 451316043	 162026.
05:22:06  828 829	 1492406526	 617332842	 166017.
05:22:06  829 830	 1492406526	 779398384	 162065.
05:22:06  830 831	 1492406526	 945277408	 165879.
05:22:07  831 832	 1492406527	 107230473	 161953.
05:22:07  832 833	 1492406527	 240873685	 133643.
05:22:07  833 834	 1492406527	 403214964	 162342.
05:22:07  834 835	 1492406527	 565160530	 161945.
05:22:07  835 836	 1492406527	 731012584	 165852.
05:22:07  836 837	 1492406527	 896942998	 165931.
05:22:08  837 838	 1492406528	 58892132	 161949.
05:22:08  838 839	 1492406528	 224862252	 165970.
05:22:08  839 840	 1492406528	 357987580	 133125.
05:22:08  840 841	 1492406528	 524129316	 166142.
05:22:08  841 842	 1492406528	 686196957	 162068.
05:22:08  842 843	 1492406528	 852252253	 166055.
05:22:09  843 844	 1492406529	 14304111	 162052.
05:22:09  844 845	 1492406529	 180718813	 166415.
05:22:09  845 846	 1492406529	 342612820	 161894.
05:22:09  846 847	 1492406529	 475838103	 133225.
05:22:09  847 848	 1492406529	 642751916	 166914.
05:22:09  848 849	 1492406529	 800612741	 157860.
05:22:09  849 850	 1492406529	 962608726	 161996.
05:22:10  850 851	 1492406530	 128706180	 166098.
05:22:10  851 852	 1492406530	 290606765	 161900.
05:22:10  852 853	 1492406530	 456711100	 166105.
05:22:10  853 854	 1492406530	 622779563	 166068.
05:22:10  854 855	 1492406530	 781218618	 158439.
05:22:10  855 856	 1492406530	 918621832	 137404.
05:22:11  856 857	 1492406531	 80616790	 161994.
05:22:11  857 858	 1492406531	 246778813	 166163.
05:22:11  858 859	 1492406531	 408847002	 162068.
05:22:11  859 860	 1492406531	 575160909	 166314.
05:22:11  860 861	 1492406531	 741536247	 166375.
05:22:11  861 862	 1492406531	 874909765	 133373.
05:22:12  862 863	 1492406532	 37049183	 162140.
05:22:12  863 864	 1492406532	 203115358	 166066.
05:22:12  864 865	 1492406532	 365085539	 161970.
05:22:12  865 866	 1492406532	 531037953	 165953.
05:22:12  866 867	 1492406532	 692989769	 161952.
05:22:12  867 868	 1492406532	 858921905	 165932.
05:22:13  868 869	 1492406533	 17471479	 158549.
05:22:13  869 870	 1492406533	 150726209	 133255.
05:22:13  870 871	 1492406533	 313337520	 162611.
05:22:13  871 872	 1492406533	 475219455	 161882.
05:22:13  872 873	 1492406533	 637204342	 161985.
05:22:13  873 874	 1492406533	 803135508	 165931.
05:22:13  874 875	 1492406533	 964968795	 161834.
05:22:14  875 876	 1492406534	 130809342	 165840.
05:22:14  876 877	 1492406534	 289081546	 158272.
05:22:14  877 878	 1492406534	 451150378	 162069.
05:22:14  878 879	 1492406534	 588523159	 137373.
05:22:14  879 880	 1492406534	 750509493	 161986.
05:22:14  880 881	 1492406534	 916494641	 165985.
05:22:15  881 882	 1492406535	 78494930	 162001.
05:22:15  882 883	 1492406535	 240572265	 162077.
05:22:15  883 884	 1492406535	 406746375	 166174.
05:22:15  884 885	 1492406535	 568747693	 162001.
05:22:15  885 886	 1492406535	 734666638	 165919.
05:22:15  886 887	 1492406535	 867720123	 133054.
05:22:16  887 888	 1492406536	 29637536	 161917.
05:22:16  888 889	 1492406536	 195458427	 165821.
05:22:16  889 890	 1492406536	 361437643	 165979.
05:22:16  890 891	 1492406536	 523181445	 161744.
05:22:16  891 892	 1492406536	 688947037	 165766.
05:22:16  892 893	 1492406536	 822096569	 133149.
05:22:16  893 894	 1492406536	 988085672	 165989.
05:22:17  894 895	 1492406537	 149860863	 161776.
05:22:17  895 896	 1492406537	 311751004	 161890.
05:22:17  896 897	 1492406537	 477560469	 165809.
05:22:17  897 898	 1492406537	 639424802	 161865.
05:22:17  898 899	 1492406537	 805428156	 166003.
05:22:17  899 900	 1492406537	 938540182	 133112.
05:22:18  900 901	 1492406538	 104212317	 165672.
05:22:18  901 902	 1492406538	 265988941	 161777.
05:22:18  902 903	 1492406538	 432063434	 166074.
05:22:18  903 904	 1492406538	 598004382	 165941.
05:22:18  904 905	 1492406538	 731074096	 133070.
05:22:18  905 906	 1492406538	 892877572	 161803.
05:22:19  906 907	 1492406539	 58575244	 165698.
05:22:19  907 908	 1492406539	 220521707	 161946.
05:22:19  908 909	 1492406539	 386413317	 165892.
05:22:19  909 910	 1492406539	 552371641	 165958.
05:22:19  910 911	 1492406539	 710596564	 158225.
05:22:19  911 912	 1492406539	 847925484	 137329.
05:22:20  912 913	 1492406540	 9784178	 161859.
05:22:20  913 914	 1492406540	 175953558	 166169.
05:22:20  914 915	 1492406540	 337726315	 161773.
05:22:20  915 916	 1492406540	 503514838	 165789.
05:22:20  916 917	 1492406540	 665367938	 161853.
05:22:20  917 918	 1492406540	 798464196	 133096.
05:22:20  918 919	 1492406540	 989826669	 191362.
05:22:21  919 920	 1492406541	 123102314	 133276.
05:22:21  920 921	 1492406541	 288961088	 165859.
05:22:21  921 922	 1492406541	 450764933	 161804.
05:22:21  922 923	 1492406541	 612917441	 162152.
05:22:21  923 924	 1492406541	 778841760	 165924.
05:22:21  924 925	 1492406541	 940703240	 161862.
05:22:22  925 926	 1492406542	 77862437	 137159.
05:22:22  926 927	 1492406542	 239802504	 161940.
05:22:22  927 928	 1492406542	 401985295	 162183.
05:22:22  928 929	 1492406542	 568082060	 166097.
05:22:22  929 930	 1492406542	 730074297	 161992.
05:22:22  930 931	 1492406542	 895878852	 165805.
05:22:23  931 932	 1492406543	 57702500	 161823.
05:22:23  932 933	 1492406543	 194854885	 137153.
05:22:23  933 934	 1492406543	 356842825	 161987.
05:22:23  934 935	 1492406543	 522729808	 165887.
05:22:23  935 936	 1492406543	 684758973	 162030.
05:22:23  936 937	 1492406543	 850731271	 165972.
05:22:24  937 938	 1492406544	 12629641	 161898.
05:22:24  938 939	 1492406544	 149832693	 137203.
05:22:24  939 940	 1492406544	 311690759	 161858.
05:22:24  940 941	 1492406544	 473646516	 161956.
05:22:24  941 942	 1492406544	 639502325	 165856.
05:22:24  942 943	 1492406544	 805433429	 165931.
05:22:24  943 944	 1492406544	 967437157	 162004.
05:22:25  944 945	 1492406545	 125748859	 158312.
05:22:25  945 946	 1492406545	 291780472	 166031.
05:22:25  946 947	 1492406545	 425058396	 133278.
05:22:25  947 948	 1492406545	 591038771	 165980.
05:22:25  948 949	 1492406545	 752914230	 161876.
05:22:25  949 950	 1492406545	 914781902	 161868.
05:22:26  950 951	 1492406546	 80902216	 166120.
05:22:26  951 952	 1492406546	 242729314	 161827.
05:22:26  952 953	 1492406546	 404800111	 162071.
05:22:26  953 954	 1492406546	 542099933	 137300.
05:22:26  954 955	 1492406546	 704096430	 161996.
05:22:26  955 956	 1492406546	 870153334	 166057.
05:22:27  956 957	 1492406547	 32254870	 162102.
05:22:27  957 958	 1492406547	 198034371	 165779.
05:22:27  958 959	 1492406547	 359942400	 161908.
05:22:27  959 960	 1492406547	 525855434	 165913.
05:22:27  960 961	 1492406547	 659038681	 133183.
05:22:27  961 962	 1492406547	 825028522	 165990.
05:22:27  962 963	 1492406547	 986989073	 161961.
05:22:28  963 964	 1492406548	 153053841	 166065.
05:22:28  964 965	 1492406548	 315063790	 162009.
05:22:28  965 966	 1492406548	 480891059	 165828.
05:22:28  966 967	 1492406548	 613986804	 133096.
05:22:28  967 968	 1492406548	 779853324	 165866.
05:22:28  968 969	 1492406548	 938537472	 158684.
05:22:29  969 970	 1492406549	 100630921	 162094.
05:22:29  970 971	 1492406549	 262428482	 161797.
05:22:29  971 972	 1492406549	 424412780	 161984.
05:22:29  972 973	 1492406549	 590155898	 165744.
05:22:29  973 974	 1492406549	 751991649	 161835.
05:22:29  974 975	 1492406549	 889330747	 137339.
05:22:30  975 976	 1492406550	 51235759	 161906.
05:22:30  976 977	 1492406550	 213079780	 161843.
05:22:30  977 978	 1492406550	 379021448	 165942.
05:22:30  978 979	 1492406550	 541072052	 162051.
05:22:30  979 980	 1492406550	 703188925	 162117.
05:22:30  980 981	 1492406550	 869023509	 165834.
05:22:31  981 982	 1492406551	 2144273	 133121.
05:22:31  982 983	 1492406551	 160841976	 158698.
05:22:31  983 984	 1492406551	 322962306	 162120.
05:22:31  984 985	 1492406551	 488742550	 165780.
05:22:31  985 986	 1492406551	 650772113	 162030.
05:22:31  986 987	 1492406551	 816836737	 166064.
05:22:31  987 988	 1492406551	 975473623	 158637.
05:22:32  988 989	 1492406552	 137368004	 161895.
05:22:32  989 990	 1492406552	 303373067	 166005.
05:22:32  990 991	 1492406552	 436451734	 133078.
05:22:32  991 992	 1492406552	 602415470	 165964.
05:22:32  992 993	 1492406552	 764373988	 161959.
05:22:32  993 994	 1492406552	 926273802	 161900.
05:22:33  994 995	 1492406553	 92256189	 165982.
05:22:33  995 996	 1492406553	 254341178	 162085.
05:22:33  996 997	 1492406553	 420301678	 165960.
05:22:33  997 998	 1492406553	 553448021	 133147.
05:22:33  998 999	 1492406553	 719589814	 166142.
05:22:33  999 1000	 1492406553	 881551627	 161961.
05:22:34 1000 1001	 1492406554	 47479978	 165929.
05:22:34 1001 1002	 1492406554	 209463655	 161983.
05:22:34 1002 1003	 1492406554	 371246883	 161784.
05:22:34 1003 1004	 1492406554	 508540374	 137293.
05:22:34 1004 1005	 1492406554	 670270187	 161730.
05:22:34 1005 1006	 1492406554	 836292693	 166023.
05:22:34 1006 1007	 1492406554	 998259213	 161966.
05:22:35 1007 1008	 1492406555	 164215232	 165956.
05:22:35 1008 1009	 1492406555	 326048474	 161833.
05:22:35 1009 1010	 1492406555	 463267801	 137220.
05:22:35 1010 1011	 1492406555	 625187368	 161919.
05:22:35 1011 1012	 1492406555	 791202773	 166015.
05:22:35 1012 1013	 1492406555	 953453371	 162251.
05:22:36 1013 1014	 1492406556	 115284294	 161831.
05:22:36 1014 1015	 1492406556	 281193170	 165909.
05:22:36 1015 1016	 1492406556	 443027852	 161835.
05:22:36 1016 1017	 1492406556	 605266923	 162239.
05:22:36 1017 1018	 1492406556	 767538392	 162271.
05:22:36 1018 1019	 1492406556	 929824070	 162286.
05:22:37 1019 1020	 1492406557	 63113936	 133290.
05:22:37 1020 1021	 1492406557	 225204527	 162090.
05:22:37 1021 1022	 1492406557	 390896267	 165692.
05:22:37 1022 1023	 1492406557	 553024480	 162128.
05:22:37 1023 1024	 1492406557	 715099437	 162075.
05:22:37 1024 1025	 1492406557	 877053443	 161954.
05:22:38 1025 1026	 1492406558	 43049507	 165996.
05:22:38 1026 1027	 1492406558	 180326995	 137278.
05:22:38 1027 1028	 1492406558	 342136479	 161809.
05:22:38 1028 1029	 1492406558	 503940751	 161804.
05:22:38 1029 1030	 1492406558	 669984925	 166045.
05:22:38 1030 1031	 1492406558	 832078961	 162094.
05:22:38 1031 1032	 1492406558	 997979581	 165900.
05:22:39 1032 1033	 1492406559	 159871250	 161892.
05:22:39 1033 1034	 1492406559	 297308505	 137437.
05:22:39 1034 1035	 1492406559	 459191937	 161884.
05:22:39 1035 1036	 1492406559	 625212427	 166020.
05:22:39 1036 1037	 1492406559	 787069003	 161857.
05:22:39 1037 1038	 1492406559	 949153654	 162084.
05:22:40 1038 1039	 1492406560	 115054426	 165901.
05:22:40 1039 1040	 1492406560	 276903128	 161849.
05:22:40 1040 1041	 1492406560	 414174815	 137272.
05:22:40 1041 1042	 1492406560	 576312306	 162137.
05:22:40 1042 1043	 1492406560	 738071187	 161759.
05:22:40 1043 1044	 1492406560	 903923543	 165852.
05:22:41 1044 1045	 1492406561	 65767092	 161844.
05:22:41 1045 1046	 1492406561	 231809806	 166043.
05:22:41 1046 1047	 1492406561	 365054869	 133245.
05:22:41 1047 1048	 1492406561	 530982663	 165928.
05:22:41 1048 1049	 1492406561	 692862392	 161879.
05:22:41 1049 1050	 1492406561	 858704626	 165842.
05:22:42 1050 1051	 1492406562	 20714303	 162010.
05:22:42 1051 1052	 1492406562	 186665782	 165951.
05:22:42 1052 1053	 1492406562	 319704306	 133039.
05:22:42 1053 1054	 1492406562	 485564688	 165860.
05:22:42 1054 1055	 1492406562	 647457624	 161893.
05:22:42 1055 1056	 1492406562	 813339557	 165882.
05:22:42 1056 1057	 1492406562	 975070818	 161732.
05:22:43 1057 1058	 1492406563	 140985261	 165914.
05:22:43 1058 1059	 1492406563	 274181561	 133196.
05:22:43 1059 1060	 1492406563	 457913465	 183732.
05:22:43 1060 1061	 1492406563	 591177979	 133265.
05:22:43 1061 1062	 1492406563	 756988084	 165810.
05:22:43 1062 1063	 1492406563	 918704329	 161716.
05:22:44 1063 1064	 1492406564	 80747452	 162043.
05:22:44 1064 1065	 1492406564	 242994666	 162247.
05:22:44 1065 1066	 1492406564	 408892819	 165899.
05:22:44 1066 1067	 1492406564	 570747180	 161854.
05:22:44 1067 1068	 1492406564	 704146491	 133399.
05:22:44 1068 1069	 1492406564	 866151461	 162005.
05:22:45 1069 1070	 1492406565	 32190697	 166039.
05:22:45 1070 1071	 1492406565	 193982108	 161792.
05:22:45 1071 1072	 1492406565	 359934294	 165952.
05:22:45 1072 1073	 1492406565	 521986582	 162052.
05:22:45 1073 1074	 1492406565	 684197796	 162212.
05:22:45 1074 1075	 1492406565	 850184546	 165986.
05:22:45 1075 1076	 1492406565	 983426519	 133242.
05:22:46 1076 1077	 1492406566	 149600565	 166174.
05:22:46 1077 1078	 1492406566	 311644570	 162044.
05:22:46 1078 1079	 1492406566	 474070405	 162426.
05:22:46 1079 1080	 1492406566	 636002499	 161932.
05:22:46 1080 1081	 1492406566	 801938604	 165936.
05:22:46 1081 1082	 1492406566	 963687703	 161749.
05:22:47 1082 1083	 1492406567	 100776164	 137089.
05:22:47 1083 1084	 1492406567	 262646459	 161870.
05:22:47 1084 1085	 1492406567	 428500930	 165855.
05:22:47 1085 1086	 1492406567	 590269518	 161768.
05:22:47 1086 1087	 1492406567	 756094700	 165825.
05:22:47 1087 1088	 1492406567	 918147659	 162053.
05:22:48 1088 1089	 1492406568	 84200414	 166053.
05:22:48 1089 1090	 1492406568	 217417363	 133217.
05:22:48 1090 1091	 1492406568	 379297828	 161881.
05:22:48 1091 1092	 1492406568	 545364414	 166066.
05:22:48 1092 1093	 1492406568	 707173036	 161809.
05:22:48 1093 1094	 1492406568	 873013780	 165840.
05:22:49 1094 1095	 1492406569	 35565283	 162552.
05:22:49 1095 1096	 1492406569	 193430679	 157865.
05:22:49 1096 1097	 1492406569	 355542890	 162113.
05:22:49 1097 1098	 1492406569	 521415227	 165872.
05:22:49 1098 1099	 1492406569	 654559168	 133144.
05:22:49 1099 1100	 1492406569	 816477183	 161918.
05:22:49 1100 1101	 1492406569	 982563015	 166086.
05:22:50 1101 1102	 1492406570	 144523279	 161960.
05:22:50 1102 1103	 1492406570	 310540186	 166017.
05:22:50 1103 1104	 1492406570	 472511732	 161971.
05:22:50 1104 1105	 1492406570	 638551069	 166040.
05:22:50 1105 1106	 1492406570	 771770067	 133219.
05:22:50 1106 1107	 1492406570	 933699527	 161929.
05:22:51 1107 1108	 1492406571	 99568621	 165869.
05:22:51 1108 1109	 1492406571	 265504905	 165937.
05:22:51 1109 1110	 1492406571	 427322609	 161817.
05:22:51 1110 1111	 1492406571	 593185894	 165864.
05:22:51 1111 1112	 1492406571	 726338630	 133152.
05:22:51 1112 1113	 1492406571	 892242429	 165904.
05:22:52 1113 1114	 1492406572	 54391623	 162149.
05:22:52 1114 1115	 1492406572	 216283811	 161893.
05:22:52 1115 1116	 1492406572	 382326451	 166042.
05:22:52 1116 1117	 1492406572	 544259827	 161934.
05:22:52 1117 1118	 1492406572	 710133568	 165873.
05:22:52 1118 1119	 1492406572	 843352306	 133219.
05:22:53 1119 1120	 1492406573	 9388388	 166036.
05:22:53 1120 1121	 1492406573	 171340006	 161952.
05:22:53 1121 1122	 1492406573	 337282928	 165943.
05:22:53 1122 1123	 1492406573	 499180960	 161898.
05:22:53 1123 1124	 1492406573	 665225785	 166044.
05:22:53 1124 1125	 1492406573	 827089443	 161864.
05:22:53 1125 1126	 1492406573	 982465454	 155376.
05:22:54 1126 1127	 1492406574	 148403641	 165938.
05:22:54 1127 1128	 1492406574	 281632786	 133229.
05:22:54 1128 1129	 1492406574	 447470609	 165838.
05:22:54 1129 1130	 1492406574	 609335634	 161865.
05:22:54 1130 1131	 1492406574	 775188052	 165853.
05:22:54 1131 1132	 1492406574	 937257139	 162069.
05:22:55 1132 1133	 1492406575	 103245368	 165988.
05:22:55 1133 1134	 1492406575	 265112407	 161867.
05:22:55 1134 1135	 1492406575	 402499127	 137387.
05:22:55 1135 1136	 1492406575	 564432894	 161934.
05:22:55 1136 1137	 1492406575	 730524461	 166091.
05:22:55 1137 1138	 1492406575	 892439221	 161915.
05:22:56 1138 1139	 1492406576	 58455043	 166016.
05:22:56 1139 1140	 1492406576	 220405279	 161950.
05:22:56 1140 1141	 1492406576	 386274160	 165869.
05:22:56 1141 1142	 1492406576	 519303405	 133029.
05:22:56 1142 1143	 1492406576	 681302057	 161999.
05:22:56 1143 1144	 1492406576	 847282687	 165980.
05:22:57 1144 1145	 1492406577	 9290597	 162008.
05:22:57 1145 1146	 1492406577	 175238104	 165948.
05:22:57 1146 1147	 1492406577	 337055027	 161817.
05:22:57 1147 1148	 1492406577	 474408995	 137354.
05:22:57 1148 1149	 1492406577	 636336437	 161927.
05:22:57 1149 1150	 1492406577	 798247538	 161911.
05:22:57 1150 1151	 1492406577	 964214741	 165967.
05:22:58 1151 1152	 1492406578	 126060322	 161846.
05:22:58 1152 1153	 1492406578	 291917453	 165857.
05:22:58 1153 1154	 1492406578	 453827879	 161911.
05:22:58 1154 1155	 1492406578	 591050507	 137222.
05:22:58 1155 1156	 1492406578	 752876145	 161826.
05:22:58 1156 1157	 1492406578	 918921069	 166045.
05:22:59 1157 1158	 1492406579	 80762768	 161841.
05:22:59 1158 1159	 1492406579	 246667300	 165905.
05:22:59 1159 1160	 1492406579	 408691347	 162024.
05:22:59 1160 1161	 1492406579	 574649201	 165958.
05:22:59 1161 1162	 1492406579	 707936078	 133287.
05:22:59 1162 1163	 1492406579	 873911710	 165975.
05:23:00 1163 1164	 1492406580	 39925423	 166014.
05:23:00 1164 1165	 1492406580	 202581671	 162656.
05:23:00 1165 1166	 1492406580	 360348970	 157768.
05:23:00 1166 1167	 1492406580	 522767432	 162418.
05:23:00 1167 1168	 1492406580	 684934353	 162167.
05:23:00 1168 1169	 1492406580	 850870099	 165936.
05:23:01 1169 1170	 1492406581	 12872662	 162002.
05:23:01 1170 1171	 1492406581	 179097156	 166225.
05:23:01 1171 1172	 1492406581	 312375134	 133278.
05:23:01 1172 1173	 1492406581	 478611151	 166236.
05:23:01 1173 1174	 1492406581	 640608434	 161997.
05:23:01 1174 1175	 1492406581	 799119369	 158511.
05:23:01 1175 1176	 1492406581	 965136942	 166018.
05:23:02 1176 1177	 1492406582	 127061786	 161925.
05:23:02 1177 1178	 1492406582	 292859465	 165797.
05:23:02 1178 1179	 1492406582	 425911730	 133052.
05:23:02 1179 1180	 1492406582	 591866896	 165956.
05:23:02 1180 1181	 1492406582	 753787602	 161920.
05:23:02 1181 1182	 1492406582	 919715799	 165929.
05:23:03 1182 1183	 1492406583	 81859677	 162143.
05:23:03 1183 1184	 1492406583	 247906378	 166047.
05:23:03 1184 1185	 1492406583	 409951519	 162045.
05:23:03 1185 1186	 1492406583	 547374888	 137424.
05:23:03 1186 1187	 1492406583	 709622865	 162248.
05:23:03 1187 1188	 1492406583	 871780747	 162157.
05:23:04 1188 1189	 1492406584	 37872525	 166092.
05:23:04 1189 1190	 1492406584	 199890223	 162018.
05:23:04 1190 1191	 1492406584	 362350268	 162460.
05:23:04 1191 1192	 1492406584	 524470816	 162120.
05:23:04 1192 1193	 1492406584	 690422766	 165952.
05:23:04 1193 1194	 1492406584	 823658384	 133236.
05:23:04 1194 1195	 1492406584	 989635305	 165977.
05:23:05 1195 1196	 1492406585	 151598104	 161963.
05:23:05 1196 1197	 1492406585	 317702390	 166104.
05:23:05 1197 1198	 1492406585	 483680410	 165978.
05:23:05 1198 1199	 1492406585	 645455978	 161776.
05:23:05 1199 1200	 1492406585	 782591999	 137136.
05:23:05 1200 1201	 1492406585	 944714217	 162122.
05:23:06 1201 1202	 1492406586	 110902278	 166188.
05:23:06 1202 1203	 1492406586	 272947240	 162045.
05:23:06 1203 1204	 1492406586	 438958844	 166012.
05:23:06 1204 1205	 1492406586	 600906534	 161947.
05:23:06 1205 1206	 1492406586	 766910782	 166004.
05:23:06 1206 1207	 1492406586	 900235770	 133325.
05:23:07 1207 1208	 1492406587	 66382376	 166147.
05:23:07 1208 1209	 1492406587	 228358693	 161976.
05:23:07 1209 1210	 1492406587	 394294050	 165936.
05:23:07 1210 1211	 1492406587	 556328155	 162034.
05:23:07 1211 1212	 1492406587	 722475733	 166147.
05:23:07 1212 1213	 1492406587	 884963801	 162489.
05:23:08 1213 1214	 1492406588	 47069834	 162106.
05:23:08 1214 1215	 1492406588	 180292904	 133223.
05:23:08 1215 1216	 1492406588	 346369624	 166076.
05:23:08 1216 1217	 1492406588	 508209988	 161841.
05:23:08 1217 1218	 1492406588	 674267837	 166058.
05:23:08 1218 1219	 1492406588	 840280624	 166012.
05:23:08 1219 1220	 1492406588	 998722939	 158443.
05:23:09 1220 1221	 1492406589	 164716421	 165993.
05:23:09 1221 1222	 1492406589	 297849744	 133133.
05:23:09 1222 1223	 1492406589	 463755693	 165906.
05:23:09 1223 1224	 1492406589	 625760945	 162006.
05:23:09 1224 1225	 1492406589	 791612527	 165851.
05:23:09 1225 1226	 1492406589	 953618880	 162007.
05:23:10 1226 1227	 1492406590	 119663905	 166045.
05:23:10 1227 1228	 1492406590	 281585967	 161922.
05:23:10 1228 1229	 1492406590	 418900332	 137314.
05:23:10 1229 1230	 1492406590	 577533396	 158633.
05:23:10 1230 1231	 1492406590	 743693906	 166161.
05:23:10 1231 1232	 1492406590	 905615486	 161921.
05:23:11 1232 1233	 1492406591	 67530265	 161915.
05:23:11 1233 1234	 1492406591	 233539105	 166009.
05:23:11 1234 1235	 1492406591	 395432308	 161893.
05:23:11 1235 1236	 1492406591	 561474225	 166042.
05:23:11 1236 1237	 1492406591	 694702779	 133228.
05:23:11 1237 1238	 1492406591	 853185974	 158484.
05:23:12 1238 1239	 1492406592	 19199560	 166013.
05:23:12 1239 1240	 1492406592	 181046453	 161847.
05:23:12 1240 1241	 1492406592	 347060803	 166014.
05:23:12 1241 1242	 1492406592	 509007664	 161947.
05:23:12 1242 1243	 1492406592	 675160727	 166153.
05:23:12 1243 1244	 1492406592	 808511605	 133351.
05:23:12 1244 1245	 1492406592	 974391201	 165880.
05:23:13 1245 1246	 1492406593	 136375612	 161984.
05:23:13 1246 1247	 1492406593	 295072890	 158698.
05:23:13 1247 1248	 1492406593	 460865176	 165792.
05:23:13 1248 1249	 1492406593	 622768840	 161904.
05:23:13 1249 1250	 1492406593	 788820020	 166051.
05:23:13 1250 1251	 1492406593	 954684341	 165864.
05:23:14 1251 1252	 1492406594	 87870051	 133186.
05:23:14 1252 1253	 1492406594	 249827839	 161958.
05:23:14 1253 1254	 1492406594	 415787951	 165960.
05:23:14 1254 1255	 1492406594	 577745614	 161957.
05:23:14 1255 1256	 1492406594	 743636903	 165892.
05:23:14 1256 1257	 1492406594	 909569794	 165933.
05:23:15 1257 1258	 1492406595	 71394213	 161824.
05:23:15 1258 1259	 1492406595	 208674271	 137280.
05:23:15 1259 1260	 1492406595	 370567892	 161894.
05:23:15 1260 1261	 1492406595	 537506942	 166939.
05:23:15 1261 1262	 1492406595	 691753414	 154246.
05:23:15 1262 1263	 1492406595	 850172038	 158419.
05:23:16 1263 1264	 1492406596	 12012252	 161840.
05:23:16 1264 1265	 1492406596	 174098175	 162086.
05:23:16 1265 1266	 1492406596	 340013869	 165916.
05:23:16 1266 1267	 1492406596	 501957259	 161943.
05:23:16 1267 1268	 1492406596	 668346622	 166389.
05:23:16 1268 1269	 1492406596	 826484855	 158139.
05:23:16 1269 1270	 1492406596	 992401535	 165916.
05:23:17 1270 1271	 1492406597	 125561857	 133161.
05:23:17 1271 1272	 1492406597	 287424358	 161862.
05:23:17 1272 1273	 1492406597	 453322924	 165899.
05:23:17 1273 1274	 1492406597	 615354720	 162031.
05:23:17 1274 1275	 1492406597	 773844254	 158490.
05:23:17 1275 1276	 1492406597	 936034668	 162190.
05:23:18 1276 1277	 1492406598	 97969471	 161935.
05:23:18 1277 1278	 1492406598	 259994254	 162025.
05:23:18 1278 1279	 1492406598	 425780566	 165786.
05:23:18 1279 1280	 1492406598	 584059681	 158279.
05:23:18 1280 1281	 1492406598	 717183611	 133124.
05:23:18 1281 1282	 1492406598	 883023885	 165841.
05:23:19 1282 1283	 1492406599	 44888044	 161864.
05:23:19 1283 1284	 1492406599	 210907531	 166019.
05:23:19 1284 1285	 1492406599	 372727605	 161820.
05:23:19 1285 1286	 1492406599	 538643773	 165916.
05:23:19 1286 1287	 1492406599	 700634124	 161991.
05:23:19 1287 1288	 1492406599	 866586909	 165953.
05:23:19 1288 1289	 1492406599	 999742632	 133155.
05:23:20 1289 1290	 1492406600	 161946504	 162204.
05:23:20 1290 1291	 1492406600	 320722563	 158776.
05:23:20 1291 1292	 1492406600	 482436411	 161714.
05:23:20 1292 1293	 1492406600	 648237945	 165802.
05:23:20 1293 1294	 1492406600	 810108468	 161870.
05:23:20 1294 1295	 1492406600	 976089411	 165981.
05:23:21 1295 1296	 1492406601	 138402699	 162313.
05:23:21 1296 1297	 1492406601	 300355917	 161954.
05:23:21 1297 1298	 1492406601	 437541185	 137185.
05:23:21 1298 1299	 1492406601	 599269753	 161728.
05:23:21 1299 1300	 1492406601	 761435645	 162166.
05:23:21 1300 1301	 1492406601	 927421497	 165986.
05:23:22 1301 1302	 1492406602	 89341316	 161920.
05:23:22 1302 1303	 1492406602	 255143649	 165802.
05:23:22 1303 1304	 1492406602	 416942270	 161799.
05:23:22 1304 1305	 1492406602	 550196521	 133254.
05:23:22 1305 1306	 1492406602	 716114692	 165918.
05:23:22 1306 1307	 1492406602	 878004488	 161890.
05:23:23 1307 1308	 1492406603	 40438784	 162434.
05:23:23 1308 1309	 1492406603	 202300955	 161863.
05:23:23 1309 1310	 1492406603	 364409624	 162108.
05:23:23 1310 1311	 1492406603	 530382953	 165974.
05:23:23 1311 1312	 1492406603	 692268451	 161885.
05:23:23 1312 1313	 1492406603	 854413733	 162145.
05:23:23 1313 1314	 1492406603	 987775573	 133362.
05:23:24 1314 1315	 1492406604	 149680362	 161905.
05:23:24 1315 1316	 1492406604	 311787978	 162108.
05:23:24 1316 1317	 1492406604	 477853114	 166065.
05:23:24 1317 1318	 1492406604	 639624697	 161772.
05:23:24 1318 1319	 1492406604	 805592636	 165967.
05:23:24 1319 1320	 1492406604	 967624324	 162032.
05:23:25 1320 1321	 1492406605	 133706335	 166082.
05:23:25 1321 1322	 1492406605	 266963930	 133258.
05:23:25 1322 1323	 1492406605	 428874745	 161910.
05:23:25 1323 1324	 1492406605	 594857597	 165983.
05:23:25 1324 1325	 1492406605	 756715677	 161858.
05:23:25 1325 1326	 1492406605	 918498055	 161783.
05:23:26 1326 1327	 1492406606	 84577913	 166080.
05:23:26 1327 1328	 1492406606	 246705435	 162127.
05:23:26 1328 1329	 1492406606	 380006983	 133302.
05:23:26 1329 1330	 1492406606	 541882119	 161875.
05:23:26 1330 1331	 1492406606	 707999647	 166117.
05:23:26 1331 1332	 1492406606	 870675154	 162676.
05:23:27 1332 1333	 1492406607	 28434229	 157759.
05:23:27 1333 1334	 1492406607	 194477664	 166043.
05:23:27 1334 1335	 1492406607	 356393207	 161916.
05:23:27 1335 1336	 1492406607	 522212937	 165820.
05:23:27 1336 1337	 1492406607	 655258895	 133046.
05:23:27 1337 1338	 1492406607	 821174924	 165916.
05:23:27 1338 1339	 1492406607	 983015495	 161840.
05:23:28 1339 1340	 1492406608	 148865413	 165850.
05:23:28 1340 1341	 1492406608	 310811989	 161947.
05:23:28 1341 1342	 1492406608	 476784054	 165972.
05:23:28 1342 1343	 1492406608	 609900537	 133116.
05:23:28 1343 1344	 1492406608	 771718541	 161818.
05:23:28 1344 1345	 1492406608	 937603750	 165885.
05:23:29 1345 1346	 1492406609	 103629561	 166026.
05:23:29 1346 1347	 1492406609	 265454209	 161825.
05:23:29 1347 1348	 1492406609	 431358756	 165904.
05:23:29 1348 1349	 1492406609	 593579511	 162221.
05:23:29 1349 1350	 1492406609	 726725727	 133146.
05:23:29 1350 1351	 1492406609	 888515898	 161791.
05:23:30 1351 1352	 1492406610	 54445362	 165929.
05:23:30 1352 1353	 1492406610	 216600617	 162155.
05:23:30 1353 1354	 1492406610	 382758955	 166159.
05:23:30 1354 1355	 1492406610	 544601373	 161842.
05:23:30 1355 1356	 1492406610	 710497275	 165896.
05:23:30 1356 1357	 1492406610	 843605186	 133108.
05:23:31 1357 1358	 1492406611	 9537607	 165932.
05:23:31 1358 1359	 1492406611	 171404063	 161867.
05:23:31 1359 1360	 1492406611	 337302399	 165898.
05:23:31 1360 1361	 1492406611	 499252084	 161950.
05:23:31 1361 1362	 1492406611	 665282486	 166030.
05:23:31 1362 1363	 1492406611	 823544064	 158262.
05:23:31 1363 1364	 1492406611	 960773201	 137229.
05:23:32 1364 1365	 1492406612	 122671585	 161898.
05:23:32 1365 1366	 1492406612	 284547580	 161876.
05:23:32 1366 1367	 1492406612	 450675070	 166128.
05:23:32 1367 1368	 1492406612	 612653750	 161978.
05:23:32 1368 1369	 1492406612	 778724026	 166071.
05:23:32 1369 1370	 1492406612	 940742584	 162018.
05:23:33 1370 1371	 1492406613	 106908512	 166166.
05:23:33 1371 1372	 1492406613	 240057816	 133150.
05:23:33 1372 1373	 1492406613	 406043699	 165985.
05:23:33 1373 1374	 1492406613	 567996474	 161953.
05:23:33 1374 1375	 1492406613	 729800062	 161804.
05:23:33 1375 1376	 1492406613	 895897731	 166097.
05:23:34 1376 1377	 1492406614	 61705615	 165808.
05:23:34 1377 1378	 1492406614	 223387737	 161682.
05:23:34 1378 1379	 1492406614	 356456386	 133069.
05:23:34 1379 1380	 1492406614	 522474408	 166018.
05:23:34 1380 1381	 1492406614	 688459193	 165985.
05:23:34 1381 1382	 1492406614	 850389707	 161930.
05:23:35 1382 1383	 1492406615	 12276416	 161887.
05:23:35 1383 1384	 1492406615	 178273498	 165997.
05:23:35 1384 1385	 1492406615	 340211657	 161938.
05:23:35 1385 1386	 1492406615	 473385307	 133174.
05:23:35 1386 1387	 1492406615	 639278610	 165893.
05:23:35 1387 1388	 1492406615	 801044829	 161767.
05:23:35 1388 1389	 1492406615	 966910711	 165866.
05:23:36 1389 1390	 1492406616	 128797360	 161886.
05:23:36 1390 1391	 1492406616	 294706035	 165909.
05:23:36 1391 1392	 1492406616	 456483950	 161778.
05:23:36 1392 1393	 1492406616	 589660692	 133176.
05:23:36 1393 1394	 1492406616	 755584445	 165924.
05:23:36 1394 1395	 1492406616	 917326356	 161742.
05:23:37 1395 1396	 1492406617	 83236967	 165911.
05:23:37 1396 1397	 1492406617	 244895724	 161658.
05:23:37 1397 1398	 1492406617	 377932991	 133038.
05:23:37 1398 1399	 1492406617	 544131116	 166198.
05:23:37 1399 1400	 1492406617	 705882065	 161751.
05:23:37 1400 1401	 1492406617	 871660122	 165778.
05:23:38 1401 1402	 1492406618	 33652467	 161992.
05:23:38 1402 1403	 1492406618	 199831469	 166179.
05:23:38 1403 1404	 1492406618	 361737126	 161906.
05:23:38 1404 1405	 1492406618	 527489759	 165753.
05:23:38 1405 1406	 1492406618	 660868932	 133379.
05:23:38 1406 1407	 1492406618	 826831089	 165962.
05:23:38 1407 1408	 1492406618	 988640458	 161809.
05:23:39 1408 1409	 1492406619	 154667202	 166027.
05:23:39 1409 1410	 1492406619	 317014347	 162347.
05:23:39 1410 1411	 1492406619	 483019987	 166006.
05:23:39 1411 1412	 1492406619	 645128948	 162109.
05:23:39 1412 1413	 1492406619	 807301655	 162172.
05:23:39 1413 1414	 1492406619	 944489744	 137188.
05:23:40 1414 1415	 1492406620	 106391272	 161902.
05:23:40 1415 1416	 1492406620	 272320806	 165930.
05:23:40 1416 1417	 1492406620	 434063536	 161742.
05:23:40 1417 1418	 1492406620	 599947982	 165885.
05:23:40 1418 1419	 1492406620	 761703712	 161755.
05:23:40 1419 1420	 1492406620	 898855333	 137152.
05:23:41 1420 1421	 1492406621	 60556430	 161701.
05:23:41 1421 1422	 1492406621	 226534964	 165979.
05:23:41 1422 1423	 1492406621	 388736669	 162201.
05:23:41 1423 1424	 1492406621	 550602056	 161866.
05:23:41 1424 1425	 1492406621	 712419620	 161817.
05:23:41 1425 1426	 1492406621	 849601284	 137182.
05:23:42 1426 1427	 1492406622	 11488226	 161887.
05:23:42 1427 1428	 1492406622	 173315646	 161827.
05:23:42 1428 1429	 1492406622	 335467871	 162153.
05:23:42 1429 1430	 1492406622	 501334666	 165866.
05:23:42 1430 1431	 1492406622	 663329425	 161995.
05:23:42 1431 1432	 1492406622	 829388102	 166059.
05:23:42 1432 1433	 1492406622	 995320728	 165932.
05:23:43 1433 1434	 1492406623	 128385144	 133065.
05:23:43 1434 1435	 1492406623	 290079705	 161694.
05:23:43 1435 1436	 1492406623	 455874177	 165795.
05:23:43 1436 1437	 1492406623	 617847440	 161973.
05:23:43 1437 1438	 1492406623	 784606302	 166759.
05:23:43 1438 1439	 1492406623	 942351401	 157745.
05:23:44 1439 1440	 1492406624	 108257472	 165906.
05:23:44 1440 1441	 1492406624	 241348180	 133091.
05:23:44 1441 1442	 1492406624	 403333562	 161985.
05:23:44 1442 1443	 1492406624	 569388189	 166055.
05:23:44 1443 1444	 1492406624	 735332954	 165945.
05:23:44 1444 1445	 1492406624	 897496690	 162163.
05:23:45 1445 1446	 1492406625	 59467627	 161971.
05:23:45 1446 1447	 1492406625	 225326981	 165860.
05:23:45 1447 1448	 1492406625	 387044815	 161718.
05:23:45 1448 1449	 1492406625	 520231706	 133186.
05:23:45 1449 1450	 1492406625	 682325087	 162094.
05:23:45 1450 1451	 1492406625	 844177366	 161852.
05:23:46 1451 1452	 1492406626	 10079992	 165903.
05:23:46 1452 1453	 1492406626	 171968006	 161888.
05:23:46 1453 1454	 1492406626	 337913971	 165946.
05:23:46 1454 1455	 1492406626	 499656315	 161742.
05:23:46 1455 1456	 1492406626	 632780523	 133124.
05:23:46 1456 1457	 1492406626	 798756596	 165976.
05:23:46 1457 1458	 1492406626	 961203013	 162447.
05:23:47 1458 1459	 1492406627	 123262926	 162060.
05:23:47 1459 1460	 1492406627	 289181899	 165919.
05:23:47 1460 1461	 1492406627	 451089746	 161907.
05:23:47 1461 1462	 1492406627	 617133700	 166044.
05:23:47 1462 1463	 1492406627	 778936687	 161803.
05:23:47 1463 1464	 1492406627	 916062323	 137126.
05:23:48 1464 1465	 1492406628	 77895152	 161833.
05:23:48 1465 1466	 1492406628	 243791560	 165896.
05:23:48 1466 1467	 1492406628	 405700966	 161910.
05:23:48 1467 1468	 1492406628	 571716402	 166015.
05:23:48 1468 1469	 1492406628	 737596850	 165881.
05:23:48 1469 1470	 1492406628	 870806688	 133209.
05:23:49 1470 1471	 1492406629	 32916449	 162110.
05:23:49 1471 1472	 1492406629	 198820402	 165904.
05:23:49 1472 1473	 1492406629	 360694034	 161874.
05:23:49 1473 1474	 1492406629	 526593033	 165899.
05:23:49 1474 1475	 1492406629	 688511629	 161918.
05:23:49 1475 1476	 1492406629	 854460916	 165950.
05:23:49 1476 1477	 1492406629	 987518640	 133057.
05:23:50 1477 1478	 1492406630	 149448257	 161930.
05:23:50 1478 1479	 1492406630	 315577336	 166129.
05:23:50 1479 1480	 1492406630	 473895672	 158318.
05:23:50 1480 1481	 1492406630	 635625028	 161730.
05:23:50 1481 1482	 1492406630	 801618197	 165993.
05:23:50 1482 1483	 1492406630	 963475541	 161857.
05:23:51 1483 1484	 1492406631	 129255609	 165780.
05:23:51 1484 1485	 1492406631	 262375220	 133120.
05:23:51 1485 1486	 1492406631	 428814422	 166439.
05:23:51 1486 1487	 1492406631	 586627360	 157813.
05:23:51 1487 1488	 1492406631	 748640045	 162013.
05:23:51 1488 1489	 1492406631	 910622586	 161982.
05:23:52 1489 1490	 1492406632	 76660242	 166038.
05:23:52 1490 1491	 1492406632	 238475307	 161815.
05:23:52 1491 1492	 1492406632	 400536934	 162062.
05:23:52 1492 1493	 1492406632	 566410963	 165874.
05:23:52 1493 1494	 1492406632	 699606714	 133195.
05:23:52 1494 1495	 1492406632	 865607465	 166001.
05:23:53 1495 1496	 1492406633	 27426454	 161819.
05:23:53 1496 1497	 1492406633	 193394035	 165968.
05:23:53 1497 1498	 1492406633	 355272391	 161878.
05:23:53 1498 1499	 1492406633	 517147748	 161875.
05:23:53 1499 1500	 1492406633	 654360556	 137213.
05:23:53 1500 1501	 1492406633	 816436537	 162076.
05:23:53 1501 1502	 1492406633	 978334048	 161898.
05:23:54 1502 1503	 1492406634	 144467937	 166134.
05:23:54 1503 1504	 1492406634	 306309569	 161841.
05:23:54 1504 1505	 1492406634	 472304509	 165995.
05:23:54 1505 1506	 1492406634	 634157124	 161853.
05:23:54 1506 1507	 1492406634	 799963635	 165806.
05:23:54 1507 1508	 1492406634	 933122551	 133159.
05:23:55 1508 1509	 1492406635	 94898389	 161776.
05:23:55 1509 1510	 1492406635	 260956780	 166058.
05:23:55 1510 1511	 1492406635	 422798091	 161842.
05:23:55 1511 1512	 1492406635	 588754080	 165956.
05:23:55 1512 1513	 1492406635	 750589759	 161835.
05:23:55 1513 1514	 1492406635	 883711346	 133122.
05:23:56 1514 1515	 1492406636	 49772870	 166062.
05:23:56 1515 1516	 1492406636	 211525887	 161753.
05:23:56 1516 1517	 1492406636	 377388111	 165862.
05:23:56 1517 1518	 1492406636	 539297493	 161909.
05:23:56 1518 1519	 1492406636	 705096761	 165799.
05:23:56 1519 1520	 1492406636	 838246096	 133150.
05:23:56 1520 1521	 1492406637	 193706	 161947.
05:23:57 1521 1522	 1492406637	 166023611	 165830.
05:23:57 1522 1523	 1492406637	 331989847	 165967.
05:23:57 1523 1524	 1492406637	 493847870	 161858.
05:23:57 1524 1525	 1492406637	 656120673	 162272.
05:23:57 1525 1526	 1492406637	 818107100	 161987.
05:23:57 1526 1527	 1492406637	 979907331	 161800.
05:23:58 1527 1528	 1492406638	 117197963	 137291.
05:23:58 1528 1529	 1492406638	 279025754	 161827.
05:23:58 1529 1530	 1492406638	 445100660	 166075.
05:23:58 1530 1531	 1492406638	 606975827	 161876.
05:23:58 1531 1532	 1492406638	 772976343	 166000.
05:23:58 1532 1533	 1492406638	 927863280	 154887.
05:23:59 1533 1534	 1492406639	 89943807	 162081.
05:23:59 1534 1535	 1492406639	 255810942	 165867.
05:23:59 1535 1536	 1492406639	 417683227	 161872.
05:23:59 1536 1537	 1492406639	 554834698	 137151.
05:23:59 1537 1538	 1492406639	 742158207	 187324.
05:23:59 1538 1539	 1492406639	 875424999	 133267.
05:24:00 1539 1540	 1492406640	 37126311	 161701.
05:24:00 1540 1541	 1492406640	 203097572	 165971.
05:24:00 1541 1542	 1492406640	 365188810	 162092.
05:24:00 1542 1543	 1492406640	 531144601	 165955.
05:24:00 1543 1544	 1492406640	 692923353	 161779.
05:24:00 1544 1545	 1492406640	 830160179	 137237.
05:24:00 1545 1546	 1492406640	 992102367	 161942.
05:24:01 1546 1547	 1492406641	 158164608	 166062.
05:24:01 1547 1548	 1492406641	 320208700	 162044.
05:24:01 1548 1549	 1492406641	 486183770	 165976.
05:24:01 1549 1550	 1492406641	 648080741	 161897.
05:24:01 1550 1551	 1492406641	 814014021	 165933.
05:24:01 1551 1552	 1492406641	 947352536	 133338.
05:24:02 1552 1553	 1492406642	 113405407	 166053.
05:24:02 1553 1554	 1492406642	 275534094	 162129.
05:24:02 1554 1555	 1492406642	 437565027	 162031.
05:24:02 1555 1556	 1492406642	 603651722	 166086.
05:24:02 1556 1557	 1492406642	 765542196	 161891.
05:24:02 1557 1558	 1492406642	 931659098	 166117.
05:24:03 1558 1559	 1492406643	 64848673	 133189.
05:24:03 1559 1560	 1492406643	 230833688	 165985.
05:24:03 1560 1561	 1492406643	 392768597	 161935.
05:24:03 1561 1562	 1492406643	 558745546	 165977.
05:24:03 1562 1563	 1492406643	 720651231	 161906.
05:24:03 1563 1564	 1492406643	 853737510	 133086.
05:24:04 1564 1565	 1492406644	 19806769	 166069.
05:24:04 1565 1566	 1492406644	 181825951	 162020.
05:24:04 1566 1567	 1492406644	 347981592	 166155.
05:24:04 1567 1568	 1492406644	 510028736	 162047.
05:24:04 1568 1569	 1492406644	 675953015	 165925.
05:24:04 1569 1570	 1492406644	 837860080	 161907.
05:24:04 1570 1571	 1492406645	 215450	 162355.
05:24:05 1571 1572	 1492406645	 137590883	 137376.
05:24:05 1572 1573	 1492406645	 299563263	 161972.
05:24:05 1573 1574	 1492406645	 465815979	 166253.
05:24:05 1574 1575	 1492406645	 627769591	 161953.
05:24:05 1575 1576	 1492406645	 790085119	 162316.
05:24:05 1576 1577	 1492406645	 956059802	 165974.
05:24:06 1577 1578	 1492406646	 117957985	 161899.
05:24:06 1578 1579	 1492406646	 255319329	 137361.
05:24:06 1579 1580	 1492406646	 417522322	 162203.
05:24:06 1580 1581	 1492406646	 583695662	 166173.
05:24:06 1581 1582	 1492406646	 745648609	 161953.
05:24:06 1582 1583	 1492406646	 911558753	 165910.
05:24:07 1583 1584	 1492406647	 73472834	 161915.
05:24:07 1584 1585	 1492406647	 239494318	 166021.
05:24:07 1585 1586	 1492406647	 372732569	 133238.
05:24:07 1586 1587	 1492406647	 538760444	 166028.
05:24:07 1587 1588	 1492406647	 700930109	 162170.
05:24:07 1588 1589	 1492406647	 866940878	 166011.
05:24:08 1589 1590	 1492406648	 28916187	 161975.
05:24:08 1590 1591	 1492406648	 195025853	 166110.
05:24:08 1591 1592	 1492406648	 328212272	 133186.
05:24:08 1592 1593	 1492406648	 494262598	 166050.
05:24:08 1593 1594	 1492406648	 660371669	 166109.
05:24:08 1594 1595	 1492406648	 822374685	 162003.
05:24:08 1595 1596	 1492406648	 988341782	 165967.
05:24:09 1596 1597	 1492406649	 150422313	 162081.
05:24:09 1597 1598	 1492406649	 312530332	 162108.
05:24:09 1598 1599	 1492406649	 449779247	 137249.
05:24:09 1599 1600	 1492406649	 615684146	 165905.
05:24:09 1600 1601	 1492406649	 777592736	 161908.
05:24:09 1601 1602	 1492406649	 943582661	 165990.
05:24:10 1602 1603	 1492406650	 105692737	 162110.
05:24:10 1603 1604	 1492406650	 271851502	 166159.
05:24:10 1604 1605	 1492406650	 405155188	 133304.
05:24:10 1605 1606	 1492406650	 571198137	 166043.
05:24:10 1606 1607	 1492406650	 733195660	 161997.
05:24:10 1607 1608	 1492406650	 899652772	 166457.
05:24:11 1608 1609	 1492406651	 61966444	 162314.
05:24:11 1609 1610	 1492406651	 223931126	 161965.
05:24:11 1610 1611	 1492406651	 390021939	 166091.
05:24:11 1611 1612	 1492406651	 552024045	 162002.
05:24:11 1612 1613	 1492406651	 689295002	 137271.
05:24:11 1613 1614	 1492406651	 851299615	 162004.
05:24:12 1614 1615	 1492406652	 17621641	 166322.
05:24:12 1615 1616	 1492406652	 179491801	 161871.
05:24:12 1616 1617	 1492406652	 341338200	 161846.
05:24:12 1617 1618	 1492406652	 507560858	 166223.
05:24:12 1618 1619	 1492406652	 669403780	 161842.
05:24:12 1619 1620	 1492406652	 831549458	 162146.
05:24:12 1620 1621	 1492406652	 964748239	 133199.
05:24:13 1621 1622	 1492406653	 130846070	 166098.
05:24:13 1622 1623	 1492406653	 292749609	 161903.
05:24:13 1623 1624	 1492406653	 458572465	 165823.
05:24:13 1624 1625	 1492406653	 620597169	 162025.
05:24:13 1625 1626	 1492406653	 786545443	 165948.
05:24:13 1626 1627	 1492406653	 919752942	 133208.
05:24:14 1627 1628	 1492406654	 81694126	 161941.
05:24:14 1628 1629	 1492406654	 247623857	 165930.
05:24:14 1629 1630	 1492406654	 413608679	 165984.
05:24:14 1630 1631	 1492406654	 575531991	 161924.
05:24:14 1631 1632	 1492406654	 737674435	 162142.
05:24:14 1632 1633	 1492406654	 903769579	 166095.
05:24:15 1633 1634	 1492406655	 69726670	 165957.
05:24:15 1634 1635	 1492406655	 202924929	 133199.
05:24:15 1635 1636	 1492406655	 364816653	 161891.
05:24:15 1636 1637	 1492406655	 530777203	 165961.
05:24:15 1637 1638	 1492406655	 692855604	 162078.
05:24:15 1638 1639	 1492406655	 859042592	 166187.
05:24:16 1639 1640	 1492406656	 20939236	 161898.
05:24:16 1640 1641	 1492406656	 158263071	 137323.
05:24:16 1641 1642	 1492406656	 320320896	 162058.
05:24:16 1642 1643	 1492406656	 486435569	 166114.
05:24:16 1643 1644	 1492406656	 666980390	 180545.
05:24:16 1644 1645	 1492406656	 800352647	 133372.
05:24:16 1645 1646	 1492406656	 966572755	 166221.
05:24:17 1646 1647	 1492406657	 128847382	 162274.
05:24:17 1647 1648	 1492406657	 291354544	 162507.
05:24:17 1648 1649	 1492406657	 453314433	 161960.
05:24:17 1649 1650	 1492406657	 619435880	 166122.
05:24:17 1650 1651	 1492406657	 781355319	 161919.
05:24:17 1651 1652	 1492406657	 947317284	 165962.
05:24:18 1652 1653	 1492406658	 109510619	 162193.
05:24:18 1653 1654	 1492406658	 242782147	 133272.
05:24:18 1654 1655	 1492406658	 408801702	 166019.
05:24:18 1655 1656	 1492406658	 570743983	 161943.
05:24:18 1656 1657	 1492406658	 736660689	 165916.
05:24:18 1657 1658	 1492406658	 898595071	 161935.
05:24:19 1658 1659	 1492406659	 60420842	 161826.
05:24:19 1659 1660	 1492406659	 226309109	 165888.
05:24:19 1660 1661	 1492406659	 359573292	 133264.
05:24:19 1661 1662	 1492406659	 525325867	 165753.
05:24:19 1662 1663	 1492406659	 687422877	 162097.
05:24:19 1663 1664	 1492406659	 853474663	 166051.
05:24:20 1664 1665	 1492406660	 15471453	 161997.
05:24:20 1665 1666	 1492406660	 181539392	 166068.
05:24:20 1666 1667	 1492406660	 343411083	 161872.
05:24:20 1667 1668	 1492406660	 476700715	 133289.
05:24:20 1668 1669	 1492406660	 642773293	 166073.
05:24:20 1669 1670	 1492406660	 808682522	 165909.
05:24:20 1670 1671	 1492406660	 970596560	 161914.
05:24:21 1671 1672	 1492406661	 132526623	 161930.
05:24:21 1672 1673	 1492406661	 298625233	 166099.
05:24:21 1673 1674	 1492406661	 460639995	 162015.
05:24:21 1674 1675	 1492406661	 598016379	 137376.
05:24:21 1675 1676	 1492406661	 759912717	 161896.
05:24:21 1676 1677	 1492406661	 925970781	 166058.
05:24:22 1677 1678	 1492406662	 87915758	 161946.
05:24:22 1678 1679	 1492406662	 253890721	 165974.
05:24:22 1679 1680	 1492406662	 415978140	 162088.
05:24:22 1680 1681	 1492406662	 553358520	 137380.
05:24:22 1681 1682	 1492406662	 715348815	 161991.
05:24:22 1682 1683	 1492406662	 881326323	 165977.
05:24:23 1683 1684	 1492406663	 43342640	 162016.
05:24:23 1684 1685	 1492406663	 209370656	 166028.
05:24:23 1685 1686	 1492406663	 368133856	 158764.
05:24:23 1686 1687	 1492406663	 530157039	 162023.
05:24:23 1687 1688	 1492406663	 696054094	 165897.
05:24:23 1688 1689	 1492406663	 857916639	 161862.
05:24:23 1689 1690	 1492406663	 991491333	 133575.
05:24:24 1690 1691	 1492406664	 153220300	 161729.
05:24:24 1691 1692	 1492406664	 319226806	 166007.
05:24:24 1692 1693	 1492406664	 481056902	 161830.
05:24:24 1693 1694	 1492406664	 646873376	 165816.
05:24:24 1694 1695	 1492406664	 808475274	 161602.
05:24:24 1695 1696	 1492406664	 945612071	 137137.
05:24:25 1696 1697	 1492406665	 107454826	 161843.
05:24:25 1697 1698	 1492406665	 273369934	 165915.
05:24:25 1698 1699	 1492406665	 435298461	 161928.
05:24:25 1699 1700	 1492406665	 597193416	 161895.
05:24:25 1700 1701	 1492406665	 759138493	 161945.
05:24:25 1701 1702	 1492406665	 925246119	 166108.
05:24:26 1702 1703	 1492406666	 58520710	 133274.
05:24:26 1703 1704	 1492406666	 224427583	 165907.
05:24:26 1704 1705	 1492406666	 386321983	 161895.
05:24:26 1705 1706	 1492406666	 552184290	 165862.
05:24:26 1706 1707	 1492406666	 713975015	 161791.
05:24:26 1707 1708	 1492406666	 879911591	 165936.
05:24:27 1708 1709	 1492406667	 12982691	 133071.
05:24:27 1709 1710	 1492406667	 175250279	 162268.
05:24:27 1710 1711	 1492406667	 337157022	 161907.
05:24:27 1711 1712	 1492406667	 503232592	 166075.
05:24:27 1712 1713	 1492406667	 658126872	 154895.
05:24:27 1713 1714	 1492406667	 823966893	 165840.
05:24:27 1714 1715	 1492406667	 985804103	 161837.
05:24:28 1715 1716	 1492406668	 151820922	 166017.
05:24:28 1716 1717	 1492406668	 313704858	 161884.
05:24:28 1717 1718	 1492406668	 472019126	 158314.
05:24:28 1718 1719	 1492406668	 637917367	 165898.
05:24:28 1719 1720	 1492406668	 775129316	 137212.
05:24:28 1720 1721	 1492406668	 937075455	 161946.
05:24:29 1721 1722	 1492406669	 103208234	 166133.
05:24:29 1722 1723	 1492406669	 265070275	 161862.
05:24:29 1723 1724	 1492406669	 431062455	 165992.
05:24:29 1724 1725	 1492406669	 593053729	 161991.
05:24:29 1725 1726	 1492406669	 759261700	 166208.
05:24:29 1726 1727	 1492406669	 892611894	 133351.
05:24:30 1727 1728	 1492406670	 58555763	 165943.
05:24:30 1728 1729	 1492406670	 220365086	 161810.
05:24:30 1729 1730	 1492406670	 386370229	 166005.
05:24:30 1730 1731	 1492406670	 548391607	 162021.
05:24:30 1731 1732	 1492406670	 714532551	 166141.
05:24:30 1732 1733	 1492406670	 876463626	 161932.
05:24:31 1733 1734	 1492406671	 9646746	 133182.
05:24:31 1734 1735	 1492406671	 175635663	 165989.
05:24:31 1735 1736	 1492406671	 337552282	 161917.
05:24:31 1736 1737	 1492406671	 503734861	 166183.
05:24:31 1737 1738	 1492406671	 665970036	 162235.
05:24:31 1738 1739	 1492406671	 827996675	 162026.
05:24:31 1739 1740	 1492406671	 994882869	 166887.
05:24:32 1740 1741	 1492406672	 148853278	 153970.
05:24:32 1741 1742	 1492406672	 314979709	 166126.
05:24:32 1742 1743	 1492406672	 476985009	 162006.
05:24:32 1743 1744	 1492406672	 614310050	 137325.
05:24:32 1744 1745	 1492406672	 798024264	 183714.
05:24:32 1745 1746	 1492406672	 935418488	 137394.
05:24:33 1746 1747	 1492406673	 97657707	 162239.
05:24:33 1747 1748	 1492406673	 259655508	 161998.
05:24:33 1748 1749	 1492406673	 425699552	 166044.
05:24:33 1749 1750	 1492406673	 587620386	 161921.
05:24:33 1750 1751	 1492406673	 753556522	 165936.
05:24:33 1751 1752	 1492406673	 919466927	 165911.
05:24:34 1752 1753	 1492406674	 52553228	 133086.
05:24:34 1753 1754	 1492406674	 214309125	 161756.
05:24:34 1754 1755	 1492406674	 380275523	 165966.
05:24:34 1755 1756	 1492406674	 542203706	 161928.
05:24:34 1756 1757	 1492406674	 708146486	 165943.
05:24:34 1757 1758	 1492406674	 870058350	 161912.
05:24:35 1758 1759	 1492406675	 7274305	 137216.
05:24:35 1759 1760	 1492406675	 169349472	 162075.
05:24:35 1760 1761	 1492406675	 335423023	 166074.
05:24:35 1761 1762	 1492406675	 497360264	 161937.
05:24:35 1762 1763	 1492406675	 663321718	 165961.
05:24:35 1763 1764	 1492406675	 825160862	 161840.
05:24:35 1764 1765	 1492406675	 991054848	 165894.
05:24:36 1765 1766	 1492406676	 124171682	 133116.
05:24:36 1766 1767	 1492406676	 289960987	 165790.
05:24:36 1767 1768	 1492406676	 448406240	 158445.
05:24:36 1768 1769	 1492406676	 610233960	 161828.
05:24:36 1769 1770	 1492406676	 776089820	 165856.
05:24:36 1770 1771	 1492406676	 938075342	 161985.
05:24:37 1771 1772	 1492406677	 104094461	 166019.
05:24:37 1772 1773	 1492406677	 262407205	 158313.
05:24:37 1773 1774	 1492406677	 428539440	 166132.
05:24:37 1774 1775	 1492406677	 586889566	 158350.
05:24:37 1775 1776	 1492406677	 752888207	 165999.
05:24:37 1776 1777	 1492406677	 886046669	 133158.
05:24:38 1777 1778	 1492406678	 52085256	 166039.
05:24:38 1778 1779	 1492406678	 214196297	 162111.
05:24:38 1779 1780	 1492406678	 380225270	 166029.
05:24:38 1780 1781	 1492406678	 542379398	 162154.
05:24:38 1781 1782	 1492406678	 704421549	 162042.
05:24:38 1782 1783	 1492406678	 870412369	 165991.
05:24:38 1783 1784	 1492406679	 3629250	 133217.
05:24:39 1784 1785	 1492406679	 169665425	 166036.
05:24:39 1785 1786	 1492406679	 331557930	 161893.
05:24:39 1786 1787	 1492406679	 497489305	 165931.
05:24:39 1787 1788	 1492406679	 660128336	 162639.
05:24:39 1788 1789	 1492406679	 822154791	 162026.
05:24:39 1789 1790	 1492406679	 984039025	 161885.
05:24:40 1790 1791	 1492406680	 146249575	 162210.
05:24:40 1791 1792	 1492406680	 283772117	 137523.
05:24:40 1792 1793	 1492406680	 445883658	 162111.
05:24:40 1793 1794	 1492406680	 612056675	 166173.
05:24:40 1794 1795	 1492406680	 774124102	 162068.
05:24:40 1795 1796	 1492406680	 940432712	 166308.
05:24:41 1796 1797	 1492406681	 102570876	 162139.
05:24:41 1797 1798	 1492406681	 261128112	 158557.
05:24:41 1798 1799	 1492406681	 427175373	 166047.
05:24:41 1799 1800	 1492406681	 593185565	 166010.
05:24:41 1800 1801	 1492406681	 726569631	 133385.
05:24:41 1801 1802	 1492406681	 892488376	 165918.
05:24:42 1802 1803	 1492406682	 54547351	 162059.
05:24:42 1803 1804	 1492406682	 216756934	 162210.
05:24:42 1804 1805	 1492406682	 378868524	 162111.
05:24:42 1805 1806	 1492406682	 545135092	 166267.
05:24:42 1806 1807	 1492406682	 707021469	 161886.
05:24:42 1807 1808	 1492406682	 869043052	 162022.
05:24:43 1808 1809	 1492406683	 6184159	 137141.
05:24:43 1809 1810	 1492406683	 168028914	 161845.
05:24:43 1810 1811	 1492406683	 333987762	 165958.
05:24:43 1811 1812	 1492406683	 495920802	 161934.
05:24:43 1812 1813	 1492406683	 662096442	 166175.
05:24:43 1813 1814	 1492406683	 824127670	 162031.
05:24:43 1814 1815	 1492406683	 990093220	 165966.
05:24:44 1815 1816	 1492406684	 123465381	 133372.
05:24:44 1816 1817	 1492406684	 289478973	 166014.
05:24:44 1817 1818	 1492406684	 451309417	 161830.
05:24:44 1818 1819	 1492406684	 614303303	 162994.
05:24:44 1819 1820	 1492406684	 772148271	 157845.
05:24:44 1820 1821	 1492406684	 934097840	 161950.
05:24:45 1821 1822	 1492406685	 100160310	 166062.
05:24:45 1822 1823	 1492406685	 266356008	 166196.
05:24:45 1823 1824	 1492406685	 428759264	 162403.
05:24:45 1824 1825	 1492406685	 590732944	 161974.
05:24:45 1825 1826	 1492406685	 728065241	 137332.
05:24:45 1826 1827	 1492406685	 890014249	 161949.
05:24:46 1827 1828	 1492406686	 56023008	 166009.
05:24:46 1828 1829	 1492406686	 218029975	 162007.
05:24:46 1829 1830	 1492406686	 384055653	 166025.
05:24:46 1830 1831	 1492406686	 546043816	 161989.
05:24:46 1831 1832	 1492406686	 679158367	 133114.
05:24:46 1832 1833	 1492406686	 845202109	 166044.
05:24:47 1833 1834	 1492406687	 7134046	 161932.
05:24:47 1834 1835	 1492406687	 173646290	 166512.
05:24:47 1835 1836	 1492406687	 331643755	 157997.
05:24:47 1836 1837	 1492406687	 497688802	 166046.
05:24:47 1837 1838	 1492406687	 659656386	 161967.
05:24:47 1838 1839	 1492406687	 825882060	 166226.
05:24:47 1839 1840	 1492406687	 963023624	 137141.
05:24:48 1840 1841	 1492406688	 125010355	 161987.
05:24:48 1841 1842	 1492406688	 291043873	 166034.
05:24:48 1842 1843	 1492406688	 452990967	 161947.
05:24:48 1843 1844	 1492406688	 615061559	 162070.
05:24:48 1844 1845	 1492406688	 781205791	 166144.
05:24:48 1845 1846	 1492406688	 943245692	 162040.
05:24:49 1846 1847	 1492406689	 80766901	 137522.
05:24:49 1847 1848	 1492406689	 239108129	 158341.
05:24:49 1848 1849	 1492406689	 405166421	 166058.
05:24:49 1849 1850	 1492406689	 571277006	 166111.
05:24:49 1850 1851	 1492406689	 733180034	 161903.
05:24:49 1851 1852	 1492406689	 895679689	 162499.
05:24:50 1852 1853	 1492406690	 57990654	 162311.
05:24:50 1853 1854	 1492406690	 220201233	 162211.
05:24:50 1854 1855	 1492406690	 386317689	 166116.
05:24:50 1855 1856	 1492406690	 519485033	 133168.
05:24:50 1856 1857	 1492406690	 685542125	 166057.
05:24:50 1857 1858	 1492406690	 847570700	 162028.
05:24:51 1858 1859	 1492406691	 13735161	 166165.
05:24:51 1859 1860	 1492406691	 175809274	 162074.
05:24:51 1860 1861	 1492406691	 337817336	 162008.
05:24:51 1861 1862	 1492406691	 503895678	 166078.
05:24:51 1862 1863	 1492406691	 637358306	 133463.
05:24:51 1863 1864	 1492406691	 799709491	 162351.
05:24:51 1864 1865	 1492406691	 965965515	 166256.
05:24:52 1865 1866	 1492406692	 128061419	 162096.
05:24:52 1866 1867	 1492406692	 294803803	 166743.
05:24:52 1867 1868	 1492406692	 453001131	 158197.
05:24:52 1868 1869	 1492406692	 619130512	 166129.
05:24:52 1869 1870	 1492406692	 781306380	 162176.
05:24:52 1870 1871	 1492406692	 947514994	 166209.
05:24:53 1871 1872	 1492406693	 106143291	 158628.
05:24:53 1872 1873	 1492406693	 239443739	 133301.
05:24:53 1873 1874	 1492406693	 405797841	 166354.
05:24:53 1874 1875	 1492406693	 568073625	 162275.
05:24:53 1875 1876	 1492406693	 730062305	 161989.
05:24:53 1876 1877	 1492406693	 888721372	 158659.
05:24:54 1877 1878	 1492406694	 55057950	 166337.
05:24:54 1878 1879	 1492406694	 217096028	 162038.
05:24:54 1879 1880	 1492406694	 383497639	 166401.
