17:46:17    0 Step	 time(s)	 time(ns)	 delta(ms)
17:46:17    0 1	 1492364777	 291883643	 925.
17:46:17    1 2	 1492364777	 457921088	 166038.
17:46:17    2 3	 1492364777	 620080436	 162159.
17:46:17    3 4	 1492364777	 781938062	 161858.
17:46:17    4 5	 1492364777	 947930091	 165992.
17:46:18    5 6	 1492364778	 114102493	 166172.
17:46:18    6 7	 1492364778	 247331668	 133229.
17:46:18    7 8	 1492364778	 409109063	 161778.
17:46:18    8 9	 1492364778	 575204214	 166095.
17:46:18    9 10	 1492364778	 737108323	 161904.
17:46:18   10 11	 1492364778	 902930390	 165822.
17:46:19   11 12	 1492364779	 64848130	 161918.
17:46:19   12 13	 1492364779	 230733746	 165885.
17:46:19   13 14	 1492364779	 396559455	 165826.
17:46:19   14 15	 1492364779	 529537109	 132978.
17:46:19   15 16	 1492364779	 691263812	 161727.
17:46:19   16 17	 1492364779	 857006974	 165743.
17:46:20   17 18	 1492364780	 22764920	 165758.
17:46:20   18 19	 1492364780	 184618707	 161854.
17:46:20   19 20	 1492364780	 350441740	 165823.
17:46:20   20 21	 1492364780	 483625397	 133183.
17:46:20   21 22	 1492364780	 649527245	 165902.
17:46:20   22 23	 1492364780	 811384030	 161857.
17:46:20   23 24	 1492364780	 977231768	 165847.
17:46:21   24 25	 1492364781	 139035753	 161804.
17:46:21   25 26	 1492364781	 305048726	 166014.
17:46:21   26 27	 1492364781	 438164508	 133115.
17:46:21   27 28	 1492364781	 603933820	 165770.
17:46:21   28 29	 1492364781	 765791276	 161857.
17:46:21   29 30	 1492364781	 931663711	 165872.
17:46:22   30 31	 1492364782	 93566314	 161903.
17:46:22   31 32	 1492364782	 259275432	 165709.
17:46:22   32 33	 1492364782	 392310014	 133035.
17:46:22   33 34	 1492364782	 558044716	 165734.
17:46:22   34 35	 1492364782	 720978061	 162934.
17:46:22   35 36	 1492364782	 878321720	 157343.
17:46:23   36 37	 1492364783	 39971109	 161650.
17:46:23   37 38	 1492364783	 205734333	 165763.
17:46:23   38 39	 1492364783	 367309217	 161575.
17:46:23   39 40	 1492364783	 504403522	 137094.
17:46:23   40 41	 1492364783	 666097955	 161695.
17:46:23   41 42	 1492364783	 831783855	 165686.
17:46:23   42 43	 1492364783	 993623960	 161840.
17:46:24   43 44	 1492364784	 155386355	 161762.
17:46:24   44 45	 1492364784	 321226086	 165840.
17:46:24   45 46	 1492364784	 483074182	 161848.
17:46:24   46 47	 1492364784	 620210346	 137136.
17:46:24   47 48	 1492364784	 781873856	 161664.
17:46:24   48 49	 1492364784	 947395641	 165521.
17:46:25   49 50	 1492364785	 109041182	 161646.
17:46:25   50 51	 1492364785	 274803200	 165762.
17:46:25   51 52	 1492364785	 407735102	 132932.
17:46:25   52 53	 1492364785	 573378566	 165643.
17:46:25   53 54	 1492364785	 734995385	 161617.
17:46:25   54 55	 1492364785	 896747647	 161752.
17:46:26   55 56	 1492364786	 62437380	 165690.
17:46:26   56 57	 1492364786	 224072768	 161635.
17:46:26   57 58	 1492364786	 356966727	 132894.
17:46:26   58 59	 1492364786	 522812322	 165846.
17:46:26   59 60	 1492364786	 684461267	 161649.
17:46:26   60 61	 1492364786	 850058238	 165597.
17:46:27   61 62	 1492364787	 11719669	 161661.
17:46:27   62 63	 1492364787	 148898665	 137179.
17:46:27   63 64	 1492364787	 310702262	 161804.
17:46:27   64 65	 1492364787	 476389801	 165688.
17:46:27   65 66	 1492364787	 638123120	 161733.
17:46:27   66 67	 1492364787	 804055212	 165932.
17:46:27   67 68	 1492364787	 965934906	 161880.
17:46:28   68 69	 1492364788	 99048764	 133114.
17:46:28   69 70	 1492364788	 264871568	 165822.
17:46:28   70 71	 1492364788	 426594598	 161723.
17:46:28   71 72	 1492364788	 592310967	 165717.
17:46:28   72 73	 1492364788	 758149268	 165838.
17:46:28   73 74	 1492364788	 891190058	 133041.
17:46:29   74 75	 1492364789	 56779038	 165589.
17:46:29   75 76	 1492364789	 218533206	 161754.
17:46:29   76 77	 1492364789	 384213804	 165681.
17:46:29   77 78	 1492364789	 545771607	 161557.
17:46:29   78 79	 1492364789	 682832655	 137061.
17:46:29   79 80	 1492364789	 844405819	 161574.
17:46:30   80 81	 1492364790	 10226791	 165820.
17:46:30   81 82	 1492364790	 171813421	 161587.
17:46:30   82 83	 1492364790	 337437755	 165624.
17:46:30   83 84	 1492364790	 499241991	 161805.
17:46:30   84 85	 1492364790	 636365981	 137124.
17:46:30   85 86	 1492364790	 798001161	 161635.
17:46:30   86 87	 1492364790	 963740861	 165740.
17:46:31   87 88	 1492364791	 125691078	 161950.
17:46:31   88 89	 1492364791	 291518092	 165827.
17:46:31   89 90	 1492364791	 453312842	 161795.
17:46:31   90 91	 1492364791	 590640246	 137327.
17:46:31   91 92	 1492364791	 749160460	 158520.
17:46:31   92 93	 1492364791	 910974157	 161814.
17:46:32   93 94	 1492364792	 76766364	 165792.
17:46:32   94 95	 1492364792	 238391891	 161626.
17:46:32   95 96	 1492364792	 404085157	 165693.
17:46:32   96 97	 1492364792	 569857990	 165773.
17:46:32   97 98	 1492364792	 702830793	 132972.
17:46:32   98 99	 1492364792	 864628007	 161798.
17:46:33   99 100	 1492364793	 30410650	 165782.
17:46:33  100 101	 1492364793	 192034152	 161624.
17:46:33  101 102	 1492364793	 354050062	 162016.
17:46:33  102 103	 1492364793	 519771456	 165721.
17:46:33  103 104	 1492364793	 652903214	 133132.
17:46:33  104 105	 1492364793	 815080577	 162177.
17:46:33  105 106	 1492364793	 981945421	 166865.
17:46:34  106 107	 1492364794	 139601484	 157656.
17:46:34  107 108	 1492364794	 301696694	 162095.
17:46:34  108 109	 1492364794	 463447301	 161751.
17:46:34  109 110	 1492364794	 625205082	 161758.
17:46:34  110 111	 1492364794	 790992490	 165787.
17:46:34  111 112	 1492364794	 924077789	 133085.
17:46:35  112 113	 1492364795	 90031121	 165954.
17:46:35  113 114	 1492364795	 251916602	 161885.
17:46:35  114 115	 1492364795	 417866787	 165950.
17:46:35  115 116	 1492364795	 579624638	 161758.
17:46:35  116 117	 1492364795	 745549996	 165926.
17:46:35  117 118	 1492364795	 907452172	 161902.
17:46:36  118 119	 1492364796	 73378502	 165926.
17:46:36  119 120	 1492364796	 206515958	 133138.
17:46:36  120 121	 1492364796	 368318333	 161802.
17:46:36  121 122	 1492364796	 534225567	 165907.
17:46:36  122 123	 1492364796	 696042573	 161817.
17:46:36  123 124	 1492364796	 861977233	 165935.
17:46:37  124 125	 1492364797	 23838349	 161861.
17:46:37  125 126	 1492364797	 161091522	 137253.
17:46:37  126 127	 1492364797	 323039534	 161948.
17:46:37  127 128	 1492364797	 489210528	 166171.
17:46:37  128 129	 1492364797	 651011419	 161801.
17:46:37  129 130	 1492364797	 816839733	 165828.
17:46:37  130 131	 1492364797	 978720303	 161881.
17:46:38  131 132	 1492364798	 144680604	 165960.
17:46:38  132 133	 1492364798	 306400348	 161720.
17:46:38  133 134	 1492364798	 439562471	 133162.
17:46:38  134 135	 1492364798	 605652727	 166090.
17:46:38  135 136	 1492364798	 767571720	 161919.
17:46:38  136 137	 1492364798	 929320602	 161749.
17:46:39  137 138	 1492364799	 95076073	 165756.
17:46:39  138 139	 1492364799	 256869175	 161793.
17:46:39  139 140	 1492364799	 422730715	 165861.
17:46:39  140 141	 1492364799	 555798885	 133069.
17:46:39  141 142	 1492364799	 717638389	 161839.
17:46:39  142 143	 1492364799	 883437574	 165799.
17:46:40  143 144	 1492364800	 45568984	 162132.
17:46:40  144 145	 1492364800	 211402221	 165833.
17:46:40  145 146	 1492364800	 373369069	 161967.
17:46:40  146 147	 1492364800	 535521557	 162152.
17:46:40  147 148	 1492364800	 672740206	 137219.
17:46:40  148 149	 1492364800	 834421520	 161681.
17:46:40  149 150	 1492364801	 273682	 165852.
17:46:41  150 151	 1492364801	 162225000	 161952.
17:46:41  151 152	 1492364801	 324453815	 162229.
17:46:41  152 153	 1492364801	 490374164	 165920.
17:46:41  153 154	 1492364801	 623454002	 133080.
17:46:41  154 155	 1492364801	 789126904	 165673.
17:46:41  155 156	 1492364801	 950813843	 161687.
17:46:42  156 157	 1492364802	 116625825	 165812.
17:46:42  157 158	 1492364802	 278541034	 161915.
17:46:42  158 159	 1492364802	 440211503	 161670.
17:46:42  159 160	 1492364802	 577272847	 165852.
17:46:42  160 161	 1492364802	 739474286	 133411.
17:46:42  161 162	 1492364802	 901237802	 161764.
17:46:43  162 163	 1492364803	 63100767	 161863.
17:46:43  163 164	 1492364803	 229016476	 165915.
17:46:43  164 165	 1492364803	 394865562	 165849.
17:46:43  165 166	 1492364803	 552918911	 158054.
17:46:43  166 167	 1492364803	 718817581	 165898.
17:46:43  167 168	 1492364803	 880543362	 161726.
17:46:44  168 169	 1492364804	 13731030	 133188.
17:46:44  169 170	 1492364804	 179533329	 165802.
17:46:44  170 171	 1492364804	 341571412	 162038.
17:46:44  171 172	 1492364804	 507455261	 165884.
17:46:44  172 173	 1492364804	 669347039	 161892.
17:46:44  173 174	 1492364804	 835101092	 165754.
17:46:44  174 175	 1492364804	 968261114	 133160.
17:46:45  175 176	 1492364805	 130103459	 161842.
17:46:45  176 177	 1492364805	 295778691	 165675.
17:46:45  177 178	 1492364805	 457427551	 161649.
17:46:45  178 179	 1492364805	 623177213	 165750.
17:46:45  179 180	 1492364805	 784915201	 161738.
17:46:45  180 181	 1492364805	 921941399	 137026.
17:46:46  181 182	 1492364806	 83758480	 161817.
17:46:46  182 183	 1492364806	 249662533	 165904.
17:46:46  183 184	 1492364806	 411404599	 161742.
17:46:46  184 185	 1492364806	 577370065	 165966.
17:46:46  185 186	 1492364806	 739197100	 161827.
17:46:46  186 187	 1492364806	 876393534	 137196.
17:46:47  187 188	 1492364807	 38192973	 161800.
17:46:47  188 189	 1492364807	 203984956	 165792.
17:46:47  189 190	 1492364807	 365829763	 161844.
17:46:47  190 191	 1492364807	 531759965	 165931.
17:46:47  191 192	 1492364807	 693601554	 161841.
17:46:47  192 193	 1492364807	 859614584	 166013.
17:46:47  193 194	 1492364807	 992567673	 132953.
17:46:48  194 195	 1492364808	 158254700	 165687.
17:46:48  195 196	 1492364808	 320016787	 161762.
17:46:48  196 197	 1492364808	 486062759	 166046.
17:46:48  197 198	 1492364808	 644380622	 158318.
17:46:48  198 199	 1492364808	 806308236	 161928.
17:46:48  199 200	 1492364808	 972244762	 165937.
17:46:49  200 201	 1492364809	 105362820	 133118.
17:46:49  201 202	 1492364809	 271249625	 165886.
17:46:49  202 203	 1492364809	 433141074	 161892.
17:46:49  203 204	 1492364809	 599130925	 165990.
17:46:49  204 205	 1492364809	 761099730	 161968.
17:46:49  205 206	 1492364809	 922955689	 161856.
17:46:50  206 207	 1492364810	 84960403	 162005.
17:46:50  207 208	 1492364810	 250847500	 165887.
17:46:50  208 209	 1492364810	 383960432	 133113.
17:46:50  209 210	 1492364810	 549871205	 165911.
17:46:50  210 211	 1492364810	 711628214	 161757.
17:46:50  211 212	 1492364810	 878482128	 166854.
17:46:51  212 213	 1492364811	 36194911	 157713.
17:46:51  213 214	 1492364811	 198040411	 161845.
17:46:51  214 215	 1492364811	 363896665	 165856.
17:46:51  215 216	 1492364811	 525774818	 161879.
17:46:51  216 217	 1492364811	 663057356	 137282.
17:46:51  217 218	 1492364811	 824909178	 161852.
17:46:51  218 219	 1492364811	 990792729	 165884.
17:46:52  219 220	 1492364812	 149057853	 158265.
17:46:52  220 221	 1492364812	 314997819	 165940.
17:46:52  221 222	 1492364812	 477013186	 162015.
17:46:52  222 223	 1492364812	 638846441	 161833.
17:46:52  223 224	 1492364812	 804723867	 165878.
17:46:52  224 225	 1492364812	 937759594	 133035.
17:46:53  225 226	 1492364813	 103544340	 165785.
17:46:53  226 227	 1492364813	 265478234	 161934.
17:46:53  227 228	 1492364813	 431484340	 166006.
17:46:53  228 229	 1492364813	 593327409	 161843.
17:46:53  229 230	 1492364813	 759326412	 165999.
17:46:53  230 231	 1492364813	 892374819	 133049.
17:46:54  231 232	 1492364814	 58356383	 165981.
17:46:54  232 233	 1492364814	 220253962	 161898.
17:46:54  233 234	 1492364814	 386162498	 165908.
17:46:54  234 235	 1492364814	 548119833	 161958.
17:46:54  235 236	 1492364814	 709983315	 161863.
17:46:54  236 237	 1492364814	 875811433	 165828.
17:46:55  237 238	 1492364815	 8993543	 133182.
17:46:55  238 239	 1492364815	 174955922	 165963.
17:46:55  239 240	 1492364815	 336779173	 161823.
17:46:55  240 241	 1492364815	 502625491	 165846.
17:46:55  241 242	 1492364815	 664636728	 162011.
17:46:55  242 243	 1492364815	 830694780	 166058.
17:46:55  243 244	 1492364815	 992683166	 161989.
17:46:56  244 245	 1492364816	 125948999	 133266.
17:46:56  245 246	 1492364816	 291823588	 165874.
17:46:56  246 247	 1492364816	 454204624	 162381.
17:46:56  247 248	 1492364816	 616069096	 161865.
17:46:56  248 249	 1492364816	 781952662	 165883.
17:46:56  249 250	 1492364816	 943875411	 161923.
17:46:57  250 251	 1492364817	 109707791	 165833.
17:46:57  251 252	 1492364817	 242710448	 133002.
17:46:57  252 253	 1492364817	 408702968	 165993.
17:46:57  253 254	 1492364817	 570632054	 161929.
17:46:57  254 255	 1492364817	 736680685	 166048.
17:46:57  255 256	 1492364817	 898616686	 161936.
17:46:58  256 257	 1492364818	 64627530	 166011.
17:46:58  257 258	 1492364818	 230392279	 165765.
17:46:58  258 259	 1492364818	 363583534	 133191.
17:46:58  259 260	 1492364818	 529461651	 165878.
17:46:58  260 261	 1492364818	 691438872	 161978.
17:46:58  261 262	 1492364818	 857543388	 166104.
17:46:59  262 263	 1492364819	 19236128	 161693.
17:46:59  263 264	 1492364819	 185127740	 165891.
17:46:59  264 265	 1492364819	 347129715	 162003.
17:46:59  265 266	 1492364819	 513413071	 166283.
17:46:59  266 267	 1492364819	 646649955	 133237.
17:46:59  267 268	 1492364819	 808626721	 161976.
17:46:59  268 269	 1492364819	 974832464	 166206.
17:47:00  269 270	 1492364820	 136705773	 161873.
17:47:00  270 271	 1492364820	 302556026	 165851.
17:47:00  271 272	 1492364820	 464434479	 161878.
17:47:00  272 273	 1492364820	 630520427	 166086.
17:47:00  273 274	 1492364820	 763872046	 133352.
17:47:00  274 275	 1492364820	 925890906	 162019.
17:47:01  275 276	 1492364821	 91951719	 166060.
17:47:01  276 277	 1492364821	 258054909	 166104.
17:47:01  277 278	 1492364821	 420100523	 162046.
17:47:01  278 279	 1492364821	 586187612	 166086.
17:47:01  279 280	 1492364821	 748190649	 162003.
17:47:01  280 281	 1492364821	 914289980	 166100.
17:47:02  281 282	 1492364822	 47616654	 133326.
17:47:02  282 283	 1492364822	 213509342	 165893.
17:47:02  283 284	 1492364822	 375382691	 161873.
17:47:02  284 285	 1492364822	 541649345	 166267.
17:47:02  285 286	 1492364822	 703463897	 161815.
17:47:02  286 287	 1492364822	 869249580	 165785.
17:47:03  287 288	 1492364823	 31218308	 161969.
17:47:03  288 289	 1492364823	 168484714	 137266.
17:47:03  289 290	 1492364823	 330469927	 161986.
17:47:03  290 291	 1492364823	 496477556	 166007.
17:47:03  291 292	 1492364823	 658434754	 161957.
17:47:03  292 293	 1492364823	 820247753	 161813.
17:47:03  293 294	 1492364823	 986529499	 166282.
17:47:04  294 295	 1492364824	 148502683	 161973.
17:47:04  295 296	 1492364824	 314751834	 166250.
17:47:04  296 297	 1492364824	 448119858	 133368.
17:47:04  297 298	 1492364824	 614109600	 165989.
17:47:04  298 299	 1492364824	 776152269	 162043.
17:47:04  299 300	 1492364824	 942573302	 166421.
17:47:05  300 301	 1492364825	 104544234	 161971.
17:47:05  301 302	 1492364825	 266571081	 162027.
17:47:05  302 303	 1492364825	 432636844	 166066.
17:47:05  303 304	 1492364825	 594630582	 161993.
17:47:05  304 305	 1492364825	 760804388	 166174.
17:47:05  305 306	 1492364825	 893957345	 133153.
17:47:06  306 307	 1492364826	 59845884	 165889.
17:47:06  307 308	 1492364826	 221820164	 161974.
17:47:06  308 309	 1492364826	 387816778	 165997.
17:47:06  309 310	 1492364826	 549778454	 161961.
17:47:06  310 311	 1492364826	 715699620	 165921.
17:47:06  311 312	 1492364826	 848858216	 133159.
17:47:07  312 313	 1492364827	 10819432	 161961.
17:47:07  313 314	 1492364827	 176799931	 165981.
17:47:07  314 315	 1492364827	 338788847	 161989.
17:47:07  315 316	 1492364827	 500894036	 162105.
17:47:07  316 317	 1492364827	 666940712	 166046.
17:47:07  317 318	 1492364827	 833801904	 166862.
17:47:07  318 319	 1492364827	 991654546	 157852.
17:47:08  319 320	 1492364828	 153538881	 161885.
17:47:08  320 321	 1492364828	 286812727	 133273.
17:47:08  321 322	 1492364828	 452819010	 166007.
17:47:08  322 323	 1492364828	 614806796	 161988.
17:47:08  323 324	 1492364828	 780792148	 165985.
17:47:08  324 325	 1492364828	 942708588	 161916.
17:47:09  325 326	 1492364829	 108792173	 166084.
17:47:09  326 327	 1492364829	 270784583	 161992.
17:47:09  327 328	 1492364829	 436813924	 166030.
17:47:09  328 329	 1492364829	 570055815	 133242.
17:47:09  329 330	 1492364829	 735931606	 165875.
17:47:09  330 331	 1492364829	 897906765	 161975.
17:47:10  331 332	 1492364830	 63940366	 166034.
17:47:10  332 333	 1492364830	 225890200	 161950.
17:47:10  333 334	 1492364830	 391774200	 165884.
17:47:10  334 335	 1492364830	 525052973	 133279.
17:47:10  335 336	 1492364830	 691051091	 165998.
17:47:10  336 337	 1492364830	 852919248	 161868.
17:47:11  337 338	 1492364831	 18770739	 165851.
17:47:11  338 339	 1492364831	 180685445	 161915.
17:47:11  339 340	 1492364831	 346514777	 165829.
17:47:11  340 341	 1492364831	 508486133	 161972.
17:47:11  341 342	 1492364831	 645826184	 137340.
17:47:11  342 343	 1492364831	 807667632	 161841.
17:47:11  343 344	 1492364831	 973817942	 166151.
17:47:12  344 345	 1492364832	 135757240	 161939.
17:47:12  345 346	 1492364832	 301747649	 165990.
17:47:12  346 347	 1492364832	 463652156	 161905.
17:47:12  347 348	 1492364832	 625953984	 162302.
17:47:12  348 349	 1492364832	 791898501	 165944.
17:47:12  349 350	 1492364832	 925044753	 133146.
17:47:13  350 351	 1492364833	 91187749	 166143.
17:47:13  351 352	 1492364833	 253167704	 161980.
17:47:13  352 353	 1492364833	 419160340	 165993.
17:47:13  353 354	 1492364833	 581106455	 161946.
17:47:13  354 355	 1492364833	 747103155	 165997.
17:47:13  355 356	 1492364833	 909271285	 162168.
17:47:14  356 357	 1492364834	 75365924	 166095.
17:47:14  357 358	 1492364834	 208536615	 133170.
17:47:14  358 359	 1492364834	 374747477	 166211.
17:47:14  359 360	 1492364834	 536754050	 162007.
17:47:14  360 361	 1492364834	 702924191	 166170.
17:47:14  361 362	 1492364834	 864884876	 161961.
17:47:15  362 363	 1492364835	 30971211	 166086.
17:47:15  363 364	 1492364835	 192877583	 161906.
17:47:15  364 365	 1492364835	 330080404	 137203.
17:47:15  365 366	 1492364835	 492212555	 162132.
17:47:15  366 367	 1492364835	 654166169	 161954.
17:47:15  367 368	 1492364835	 820074209	 165908.
17:47:15  368 369	 1492364835	 986239100	 166165.
17:47:16  369 370	 1492364836	 148313576	 162074.
17:47:16  370 371	 1492364836	 310308688	 161995.
17:47:16  371 372	 1492364836	 476292669	 165984.
17:47:16  372 373	 1492364836	 638178727	 161887.
17:47:16  373 374	 1492364836	 775410720	 137232.
17:47:16  374 375	 1492364836	 937432446	 162021.
17:47:17  375 376	 1492364837	 103349520	 165917.
17:47:17  376 377	 1492364837	 265341096	 161992.
17:47:17  377 378	 1492364837	 431294126	 165953.
17:47:17  378 379	 1492364837	 593225862	 161932.
17:47:17  379 380	 1492364837	 759138160	 165912.
17:47:17  380 381	 1492364837	 892297066	 133159.
17:47:18  381 382	 1492364838	 58418262	 166121.
17:47:18  382 383	 1492364838	 220334275	 161916.
17:47:18  383 384	 1492364838	 386313423	 165979.
17:47:18  384 385	 1492364838	 548401476	 162088.
17:47:18  385 386	 1492364838	 714508450	 166107.
17:47:18  386 387	 1492364838	 876891717	 162383.
17:47:19  387 388	 1492364839	 38851468	 161960.
17:47:19  388 389	 1492364839	 176225883	 137375.
17:47:19  389 390	 1492364839	 338009458	 161783.
17:47:19  390 391	 1492364839	 503746029	 165737.
17:47:19  391 392	 1492364839	 665677229	 161931.
17:47:19  392 393	 1492364839	 831636149	 165959.
17:47:19  393 394	 1492364839	 993640724	 162004.
17:47:20  394 395	 1492364840	 159570986	 165931.
17:47:20  395 396	 1492364840	 292787410	 133216.
17:47:20  396 397	 1492364840	 458887486	 166100.
17:47:20  397 398	 1492364840	 620731125	 161844.
17:47:20  398 399	 1492364840	 783024662	 162293.
17:47:20  399 400	 1492364840	 944660270	 161636.
17:47:21  400 401	 1492364841	 111131664	 166471.
17:47:21  401 402	 1492364841	 272727841	 161597.
17:47:21  402 403	 1492364841	 405936957	 133209.
17:47:21  403 404	 1492364841	 567712578	 161775.
17:47:21  404 405	 1492364841	 733824680	 166112.
17:47:21  405 406	 1492364841	 895637439	 161813.
17:47:22  406 407	 1492364842	 61654143	 166017.
17:47:22  407 408	 1492364842	 223361035	 161707.
17:47:22  408 409	 1492364842	 389124023	 165763.
17:47:22  409 410	 1492364842	 551231384	 162107.
17:47:22  410 411	 1492364842	 684379455	 133148.
17:47:22  411 412	 1492364842	 850447695	 166068.
17:47:23  412 413	 1492364843	 12433322	 161986.
17:47:23  413 414	 1492364843	 178284130	 165851.
17:47:23  414 415	 1492364843	 340220307	 161936.
17:47:23  415 416	 1492364843	 506252951	 166033.
17:47:23  416 417	 1492364843	 668270108	 162017.
17:47:23  417 418	 1492364843	 834252310	 165982.
17:47:23  418 419	 1492364843	 967687197	 133435.
17:47:24  419 420	 1492364844	 129487694	 161800.
17:47:24  420 421	 1492364844	 295464411	 165977.
17:47:24  421 422	 1492364844	 457424321	 161960.
17:47:24  422 423	 1492364844	 623515153	 166091.
17:47:24  423 424	 1492364844	 786180353	 162665.
17:47:24  424 425	 1492364844	 944027897	 157848.
17:47:25  425 426	 1492364845	 110082499	 166054.
17:47:25  426 427	 1492364845	 271948672	 161867.
17:47:25  427 428	 1492364845	 409145534	 137196.
17:47:25  428 429	 1492364845	 570993757	 161848.
17:47:25  429 430	 1492364845	 736873328	 165880.
17:47:25  430 431	 1492364845	 898603379	 161730.
17:47:26  431 432	 1492364846	 64507234	 165904.
17:47:26  432 433	 1492364846	 226343134	 161836.
17:47:26  433 434	 1492364846	 363483251	 137140.
17:47:26  434 435	 1492364846	 525245732	 161762.
17:47:26  435 436	 1492364846	 691563676	 166318.
17:47:26  436 437	 1492364846	 853420029	 161857.
17:47:27  437 438	 1492364847	 15279986	 161860.
17:47:27  438 439	 1492364847	 181138505	 165858.
17:47:27  439 440	 1492364847	 343313015	 162175.
17:47:27  440 441	 1492364847	 505581999	 162269.
17:47:27  441 442	 1492364847	 638810672	 133228.
17:47:27  442 443	 1492364847	 800932629	 162122.
17:47:27  443 444	 1492364847	 967009390	 166077.
17:47:28  444 445	 1492364848	 128787875	 161779.
17:47:28  445 446	 1492364848	 294634773	 165846.
17:47:28  446 447	 1492364848	 452921189	 158287.
17:47:28  447 448	 1492364848	 614732370	 161811.
17:47:28  448 449	 1492364848	 780625427	 165893.
17:47:28  449 450	 1492364848	 913701628	 133076.
17:47:29  450 451	 1492364849	 79592478	 165891.
17:47:29  451 452	 1492364849	 241501226	 161909.
17:47:29  452 453	 1492364849	 407372392	 165871.
17:47:29  453 454	 1492364849	 569143985	 161772.
17:47:29  454 455	 1492364849	 734980522	 165836.
17:47:29  455 456	 1492364849	 897020202	 162040.
17:47:30  456 457	 1492364850	 34342182	 137322.
17:47:30  457 458	 1492364850	 192539134	 158197.
17:47:30  458 459	 1492364850	 354405012	 161866.
17:47:30  459 460	 1492364850	 520288390	 165883.
17:47:30  460 461	 1492364850	 686252225	 165964.
17:47:30  461 462	 1492364850	 847957161	 161705.
17:47:31  462 463	 1492364851	 13999566	 166042.
17:47:31  463 464	 1492364851	 147087513	 133088.
17:47:31  464 465	 1492364851	 312927518	 165840.
17:47:31  465 466	 1492364851	 474887369	 161960.
17:47:31  466 467	 1492364851	 640974716	 166087.
17:47:31  467 468	 1492364851	 802762171	 161788.
17:47:31  468 469	 1492364851	 964634508	 161872.
17:47:32  469 470	 1492364852	 130545339	 165911.
17:47:32  470 471	 1492364852	 263619632	 133074.
17:47:32  471 472	 1492364852	 429559657	 165940.
17:47:32  472 473	 1492364852	 591479441	 161920.
17:47:32  473 474	 1492364852	 757592400	 166113.
17:47:32  474 475	 1492364852	 919375122	 161783.
17:47:33  475 476	 1492364853	 85253759	 165878.
17:47:33  476 477	 1492364853	 251031661	 165779.
17:47:33  477 478	 1492364853	 384240193	 133208.
17:47:33  478 479	 1492364853	 546062384	 161822.
17:47:33  479 480	 1492364853	 708481554	 162419.
17:47:33  480 481	 1492364853	 874341054	 165860.
17:47:34  481 482	 1492364854	 36211660	 161870.
17:47:34  482 483	 1492364854	 202148233	 165937.
17:47:34  483 484	 1492364854	 363973853	 161826.
17:47:34  484 485	 1492364854	 501200719	 137226.
17:47:34  485 486	 1492364854	 663115641	 161915.
17:47:34  486 487	 1492364854	 829086310	 165971.
17:47:34  487 488	 1492364854	 991063848	 161978.
17:47:35  488 489	 1492364855	 157169971	 166106.
17:47:35  489 490	 1492364855	 319018722	 161848.
17:47:35  490 491	 1492364855	 484861826	 165844.
17:47:35  491 492	 1492364855	 617930822	 133069.
17:47:35  492 493	 1492364855	 779791545	 161860.
17:47:35  493 494	 1492364855	 945773476	 165982.
17:47:36  494 495	 1492364856	 104391193	 158618.
17:47:36  495 496	 1492364856	 266233662	 161842.
17:47:36  496 497	 1492364856	 432192094	 165959.
17:47:36  497 498	 1492364856	 594176922	 161985.
17:47:36  498 499	 1492364856	 760058970	 165882.
17:47:36  499 500	 1492364856	 921883491	 161824.
17:47:37  500 501	 1492364857	 59139144	 137256.
17:47:37  501 502	 1492364857	 220888211	 161749.
17:47:37  502 503	 1492364857	 386742173	 165854.
17:47:37  503 504	 1492364857	 548395636	 161653.
17:47:37  504 505	 1492364857	 714064628	 165669.
17:47:37  505 506	 1492364857	 875582330	 161518.
17:47:38  506 507	 1492364858	 12741276	 137159.
17:47:38  507 508	 1492364858	 174472763	 161731.
17:47:38  508 509	 1492364858	 336146561	 161674.
17:47:38  509 510	 1492364858	 501893862	 165748.
17:47:38  510 511	 1492364858	 667779652	 165885.
17:47:38  511 512	 1492364858	 829635257	 161856.
17:47:38  512 513	 1492364858	 962671828	 133037.
17:47:39  513 514	 1492364859	 128536758	 165864.
17:47:39  514 515	 1492364859	 290264595	 161728.
17:47:39  515 516	 1492364859	 456038726	 165774.
17:47:39  516 517	 1492364859	 617770566	 161732.
17:47:39  517 518	 1492364859	 783792107	 166022.
17:47:39  518 519	 1492364859	 916959270	 133167.
17:47:40  519 520	 1492364860	 82836215	 165877.
17:47:40  520 521	 1492364860	 244606361	 161770.
17:47:40  521 522	 1492364860	 410378664	 165772.
17:47:40  522 523	 1492364860	 572096209	 161718.
17:47:40  523 524	 1492364860	 737879400	 165783.
17:47:40  524 525	 1492364860	 870800349	 132921.
17:47:41  525 526	 1492364861	 36711329	 165911.
17:47:41  526 527	 1492364861	 198488752	 161777.
17:47:41  527 528	 1492364861	 360303916	 161816.
17:47:41  528 529	 1492364861	 526234204	 165930.
17:47:41  529 530	 1492364861	 688052283	 161818.
17:47:41  530 531	 1492364861	 853963566	 165911.
17:47:41  531 532	 1492364861	 987325389	 133362.
17:47:42  532 533	 1492364862	 153197696	 165872.
17:47:42  533 534	 1492364862	 315025316	 161828.
17:47:42  534 535	 1492364862	 476930197	 161905.
17:47:42  535 536	 1492364862	 643016822	 166087.
17:47:42  536 537	 1492364862	 808924063	 165907.
17:47:42  537 538	 1492364862	 942033509	 133109.
17:47:43  538 539	 1492364863	 107785280	 165752.
17:47:43  539 540	 1492364863	 269701977	 161917.
17:47:43  540 541	 1492364863	 435573314	 165871.
17:47:43  541 542	 1492364863	 597541028	 161968.
17:47:43  542 543	 1492364863	 763622147	 166081.
17:47:43  543 544	 1492364863	 925555174	 161933.
17:47:44  544 545	 1492364864	 87736774	 162182.
17:47:44  545 546	 1492364864	 220974829	 133238.
17:47:44  546 547	 1492364864	 386843606	 165868.
17:47:44  547 548	 1492364864	 548740445	 161897.
17:47:44  548 549	 1492364864	 714670152	 165930.
17:47:44  549 550	 1492364864	 876521770	 161851.
17:47:45  550 551	 1492364865	 42358273	 165837.
17:47:45  551 552	 1492364865	 175410331	 133052.
17:47:45  552 553	 1492364865	 341013031	 165603.
17:47:45  553 554	 1492364865	 502805880	 161793.
17:47:45  554 555	 1492364865	 668771857	 165966.
17:47:45  555 556	 1492364865	 830649801	 161877.
17:47:45  556 557	 1492364865	 996458785	 165809.
17:47:46  557 558	 1492364866	 129708685	 133250.
17:47:46  558 559	 1492364866	 291625654	 161917.
17:47:46  559 560	 1492364866	 457486215	 165861.
17:47:46  560 561	 1492364866	 619512026	 162026.
17:47:46  561 562	 1492364866	 785342412	 165830.
17:47:46  562 563	 1492364866	 947265487	 161923.
17:47:47  563 564	 1492364867	 113273023	 166008.
17:47:47  564 565	 1492364867	 246401668	 133128.
17:47:47  565 566	 1492364867	 408193150	 161792.
17:47:47  566 567	 1492364867	 573978355	 165785.
17:47:47  567 568	 1492364867	 735789180	 161811.
17:47:47  568 569	 1492364867	 901636711	 165847.
17:47:48  569 570	 1492364868	 63421028	 161785.
17:47:48  570 571	 1492364868	 229348238	 165927.
17:47:48  571 572	 1492364868	 362592229	 133244.
17:47:48  572 573	 1492364868	 524416787	 161824.
17:47:48  573 574	 1492364868	 690169686	 165753.
17:47:48  574 575	 1492364868	 851708306	 161539.
17:47:49  575 576	 1492364869	 17704964	 165997.
17:47:49  576 577	 1492364869	 179636076	 161931.
17:47:49  577 578	 1492364869	 316657616	 137021.
17:47:49  578 579	 1492364869	 478312295	 161655.
17:47:49  579 580	 1492364869	 640123777	 161811.
17:47:49  580 581	 1492364869	 805993992	 165871.
17:47:49  581 582	 1492364869	 967873895	 161880.
17:47:50  582 583	 1492364870	 133786996	 165913.
17:47:50  583 584	 1492364870	 291951571	 158164.
17:47:50  584 585	 1492364870	 457845548	 165894.
17:47:50  585 586	 1492364870	 591041055	 133196.
17:47:50  586 587	 1492364870	 752771075	 161730.
17:47:50  587 588	 1492364870	 918598179	 165827.
17:47:51  588 589	 1492364871	 80366330	 161768.
17:47:51  589 590	 1492364871	 246314085	 165948.
17:47:51  590 591	 1492364871	 408106432	 161792.
17:47:51  591 592	 1492364871	 545352797	 137247.
17:47:51  592 593	 1492364871	 707175456	 161822.
17:47:51  593 594	 1492364871	 873047266	 165872.
17:47:52  594 595	 1492364872	 34631102	 161584.
17:47:52  595 596	 1492364872	 196306775	 161675.
17:47:52  596 597	 1492364872	 362389661	 166083.
17:47:52  597 598	 1492364872	 520593496	 158204.
17:47:52  598 599	 1492364872	 657669491	 137076.
17:47:52  599 600	 1492364872	 819443925	 161775.
17:47:52  600 601	 1492364872	 986054326	 166610.
17:47:53  601 602	 1492364873	 143828628	 157774.
17:47:53  602 603	 1492364873	 305616743	 161788.
17:47:53  603 604	 1492364873	 471373766	 165757.
17:47:53  604 605	 1492364873	 633263388	 161890.
17:47:53  605 606	 1492364873	 766357648	 133094.
17:47:53  606 607	 1492364873	 932353104	 165996.
17:47:54  607 608	 1492364874	 94301235	 161948.
17:47:54  608 609	 1492364874	 260387755	 166086.
17:47:54  609 610	 1492364874	 422293616	 161906.
17:47:54  610 611	 1492364874	 588121322	 165828.
17:47:54  611 612	 1492364874	 749917629	 161796.
17:47:54  612 613	 1492364874	 883110305	 133193.
17:47:55  613 614	 1492364875	 49120741	 166010.
17:47:55  614 615	 1492364875	 214943736	 165823.
17:47:55  615 616	 1492364875	 376559100	 161616.
17:47:55  616 617	 1492364875	 542511651	 165952.
17:47:55  617 618	 1492364875	 704331871	 161821.
17:47:55  618 619	 1492364875	 841462880	 137131.
17:47:56  619 620	 1492364876	 3599558	 162136.
17:47:56  620 621	 1492364876	 165194358	 161595.
17:47:56  621 622	 1492364876	 330921342	 165727.
17:47:56  622 623	 1492364876	 492864965	 161944.
17:47:56  623 624	 1492364876	 654717628	 161852.
17:47:56  624 625	 1492364876	 820526967	 165810.
17:47:56  625 626	 1492364876	 953740048	 133213.
17:47:57  626 627	 1492364877	 115320761	 161580.
17:47:57  627 628	 1492364877	 280970873	 165651.
17:47:57  628 629	 1492364877	 442741638	 161770.
17:47:57  629 630	 1492364877	 608446248	 165705.
17:47:57  630 631	 1492364877	 741559068	 133113.
17:47:57  631 632	 1492364877	 907424206	 165865.
17:47:58  632 633	 1492364878	 69324884	 161901.
17:47:58  633 634	 1492364878	 235072561	 165747.
17:47:58  634 635	 1492364878	 400978441	 165906.
17:47:58  635 636	 1492364878	 562809225	 161831.
17:47:58  636 637	 1492364878	 728795237	 165986.
17:47:58  637 638	 1492364878	 861997168	 133202.
17:47:59  638 639	 1492364879	 23664986	 161668.
17:47:59  639 640	 1492364879	 189581416	 165916.
17:47:59  640 641	 1492364879	 351474662	 161893.
17:47:59  641 642	 1492364879	 517304395	 165830.
17:47:59  642 643	 1492364879	 679093170	 161789.
17:47:59  643 644	 1492364879	 812147502	 133054.
17:47:59  644 645	 1492364879	 978287469	 166140.
17:48:00  645 646	 1492364880	 140083750	 161796.
17:48:00  646 647	 1492364880	 305779237	 165696.
17:48:00  647 648	 1492364880	 467552266	 161773.
17:48:00  648 649	 1492364880	 633405270	 165853.
17:48:00  649 650	 1492364880	 795192970	 161788.
17:48:00  650 651	 1492364880	 928259084	 133066.
17:48:01  651 652	 1492364881	 93948494	 165689.
17:48:01  652 653	 1492364881	 255624364	 161676.
17:48:01  653 654	 1492364881	 421778499	 166154.
17:48:01  654 655	 1492364881	 583914517	 162136.
17:48:01  655 656	 1492364881	 745852339	 161938.
17:48:01  656 657	 1492364881	 911882233	 166030.
17:48:02  657 658	 1492364882	 44988666	 133106.
17:48:02  658 659	 1492364882	 210720156	 165732.
17:48:02  659 660	 1492364882	 372586699	 161866.
17:48:02  660 661	 1492364882	 534677977	 162092.
17:48:02  661 662	 1492364882	 700609074	 165931.
17:48:02  662 663	 1492364882	 862417693	 161808.
17:48:03  663 664	 1492364883	 28304316	 165887.
17:48:03  664 665	 1492364883	 161454496	 133150.
17:48:03  665 666	 1492364883	 327270587	 165816.
17:48:03  666 667	 1492364883	 489035287	 161765.
17:48:03  667 668	 1492364883	 654773407	 165738.
17:48:03  668 669	 1492364883	 816604558	 161831.
17:48:03  669 670	 1492364883	 982621192	 166017.
17:48:04  670 671	 1492364884	 115947402	 133326.
17:48:04  671 672	 1492364884	 281991434	 166044.
17:48:04  672 673	 1492364884	 443924494	 161933.
17:48:04  673 674	 1492364884	 609851391	 165927.
17:48:04  674 675	 1492364884	 771773920	 161923.
17:48:04  675 676	 1492364884	 937639264	 165865.
17:48:05  676 677	 1492364885	 99579735	 161940.
17:48:05  677 678	 1492364885	 236840616	 137261.
17:48:05  678 679	 1492364885	 398723450	 161883.
17:48:05  679 680	 1492364885	 564591136	 165868.
17:48:05  680 681	 1492364885	 726379222	 161788.
17:48:05  681 682	 1492364885	 892242207	 165863.
17:48:06  682 683	 1492364886	 54080371	 161838.
17:48:06  683 684	 1492364886	 220041949	 165962.
17:48:06  684 685	 1492364886	 353288227	 133246.
17:48:06  685 686	 1492364886	 519698809	 166411.
17:48:06  686 687	 1492364886	 677914573	 158215.
17:48:06  687 688	 1492364886	 839923832	 162010.
17:48:07  688 689	 1492364887	 6058435	 166134.
17:48:07  689 690	 1492364887	 167845679	 161787.
17:48:07  690 691	 1492364887	 333711883	 165867.
17:48:07  691 692	 1492364887	 495352777	 161641.
17:48:07  692 693	 1492364887	 632517477	 137164.
17:48:07  693 694	 1492364887	 794475186	 161958.
17:48:07  694 695	 1492364887	 960305407	 165830.
17:48:08  695 696	 1492364888	 122298584	 161993.
17:48:08  696 697	 1492364888	 288082778	 165784.
17:48:08  697 698	 1492364888	 450002893	 161921.
17:48:08  698 699	 1492364888	 587255185	 137252.
17:48:08  699 700	 1492364888	 749100665	 161845.
17:48:08  700 701	 1492364888	 915104247	 166004.
17:48:09  701 702	 1492364889	 76932288	 161828.
17:48:09  702 703	 1492364889	 242788131	 165856.
17:48:09  703 704	 1492364889	 404533343	 161745.
17:48:09  704 705	 1492364889	 541630715	 137097.
17:48:09  705 706	 1492364889	 703456882	 161827.
17:48:09  706 707	 1492364889	 870158672	 166702.
17:48:10  707 708	 1492364890	 27853071	 157694.
17:48:10  708 709	 1492364890	 190054442	 162201.
17:48:10  709 710	 1492364890	 355908816	 165855.
17:48:10  710 711	 1492364890	 517780894	 161872.
17:48:10  711 712	 1492364890	 679614763	 161833.
17:48:10  712 713	 1492364890	 816852416	 137238.
17:48:10  713 714	 1492364890	 978450762	 161598.
17:48:11  714 715	 1492364891	 144349525	 165899.
17:48:11  715 716	 1492364891	 310321056	 165972.
17:48:11  716 717	 1492364891	 472170470	 161849.
17:48:11  717 718	 1492364891	 638078871	 165909.
17:48:11  718 719	 1492364891	 796124215	 158045.
17:48:11  719 720	 1492364891	 933403543	 137279.
17:48:12  720 721	 1492364892	 99383275	 165980.
17:48:12  721 722	 1492364892	 261113731	 161730.
17:48:12  722 723	 1492364892	 426975494	 165862.
17:48:12  723 724	 1492364892	 588756961	 161782.
17:48:12  724 725	 1492364892	 754753530	 165996.
17:48:12  725 726	 1492364892	 887860355	 133107.
17:48:13  726 727	 1492364893	 53833000	 165973.
17:48:13  727 728	 1492364893	 215622752	 161789.
17:48:13  728 729	 1492364893	 381538356	 165916.
17:48:13  729 730	 1492364893	 543600619	 162062.
17:48:13  730 731	 1492364893	 705473260	 161873.
17:48:13  731 732	 1492364893	 871293733	 165820.
17:48:14  732 733	 1492364894	 4343858	 133051.
17:48:14  733 734	 1492364894	 170175243	 165831.
17:48:14  734 735	 1492364894	 331918943	 161744.
17:48:14  735 736	 1492364894	 497916140	 165997.
17:48:14  736 737	 1492364894	 659806307	 161890.
17:48:14  737 738	 1492364894	 825922488	 166116.
17:48:14  738 739	 1492364894	 987639276	 161717.
17:48:15  739 740	 1492364895	 120883011	 133244.
17:48:15  740 741	 1492364895	 282635308	 161752.
17:48:15  741 742	 1492364895	 448600322	 165965.
17:48:15  742 743	 1492364895	 614561979	 165962.
17:48:15  743 744	 1492364895	 776258049	 161696.
17:48:15  744 745	 1492364895	 941967679	 165709.
17:48:16  745 746	 1492364896	 75001303	 133034.
17:48:16  746 747	 1492364896	 236828473	 161827.
17:48:16  747 748	 1492364896	 402681639	 165853.
17:48:16  748 749	 1492364896	 564452500	 161771.
17:48:16  749 750	 1492364896	 730169534	 165717.
17:48:16  750 751	 1492364896	 891879169	 161710.
17:48:17  751 752	 1492364897	 29038596	 137159.
17:48:17  752 753	 1492364897	 190810212	 161772.
17:48:17  753 754	 1492364897	 356684711	 165874.
17:48:17  754 755	 1492364897	 518407540	 161723.
17:48:17  755 756	 1492364897	 684209879	 165803.
17:48:17  756 757	 1492364897	 845973402	 161763.
17:48:18  757 758	 1492364898	 7907783	 161935.
17:48:18  758 759	 1492364898	 145208806	 137301.
17:48:18  759 760	 1492364898	 307095977	 161887.
17:48:18  760 761	 1492364898	 469095327	 161999.
17:48:18  761 762	 1492364898	 635134070	 166039.
17:48:18  762 763	 1492364898	 796926074	 161792.
17:48:18  763 764	 1492364898	 962945797	 166019.
17:48:19  764 765	 1492364899	 124779692	 161834.
17:48:19  765 766	 1492364899	 261925736	 137146.
17:48:19  766 767	 1492364899	 423817355	 161892.
17:48:19  767 768	 1492364899	 589764950	 165948.
17:48:19  768 769	 1492364899	 751508713	 161743.
17:48:19  769 770	 1492364899	 917416967	 165909.
17:48:20  770 771	 1492364900	 79298343	 161881.
17:48:20  771 772	 1492364900	 245209726	 165911.
17:48:20  772 773	 1492364900	 378478182	 133269.
17:48:20  773 774	 1492364900	 544444808	 165967.
17:48:20  774 775	 1492364900	 706289492	 161844.
17:48:20  775 776	 1492364900	 872194866	 165906.
17:48:21  776 777	 1492364901	 34207853	 162013.
17:48:21  777 778	 1492364901	 200342717	 166134.
17:48:21  778 779	 1492364901	 362289652	 161947.
17:48:21  779 780	 1492364901	 499436187	 137147.
17:48:21  780 781	 1492364901	 661377976	 161942.
17:48:21  781 782	 1492364901	 827351839	 165974.
17:48:21  782 783	 1492364901	 989210531	 161858.
17:48:22  783 784	 1492364902	 151078928	 161869.
17:48:22  784 785	 1492364902	 317181968	 166103.
17:48:22  785 786	 1492364902	 478918997	 161737.
17:48:22  786 787	 1492364902	 616156689	 137237.
17:48:22  787 788	 1492364902	 777882409	 161726.
17:48:22  788 789	 1492364902	 943818527	 165936.
17:48:23  789 790	 1492364903	 105675798	 161858.
17:48:23  790 791	 1492364903	 271629350	 165953.
17:48:23  791 792	 1492364903	 433369383	 161740.
17:48:23  792 793	 1492364903	 599357448	 165988.
17:48:23  793 794	 1492364903	 732478132	 133121.
17:48:23  794 795	 1492364903	 894477224	 161999.
17:48:24  795 796	 1492364904	 56547888	 162071.
17:48:24  796 797	 1492364904	 222484724	 165936.
17:48:24  797 798	 1492364904	 384396023	 161912.
17:48:24  798 799	 1492364904	 550494387	 166098.
17:48:24  799 800	 1492364904	 712407852	 161914.
17:48:24  800 801	 1492364904	 849582359	 137174.
17:48:25  801 802	 1492364905	 11530205	 161948.
17:48:25  802 803	 1492364905	 177524736	 165994.
17:48:25  803 804	 1492364905	 339454488	 161930.
17:48:25  804 805	 1492364905	 505320423	 165866.
17:48:25  805 806	 1492364905	 667186617	 161866.
17:48:25  806 807	 1492364905	 833083519	 165897.
17:48:25  807 808	 1492364905	 966197774	 133114.
17:48:26  808 809	 1492364906	 132163478	 165966.
17:48:26  809 810	 1492364906	 294060963	 161898.
17:48:26  810 811	 1492364906	 459870999	 165810.
17:48:26  811 812	 1492364906	 621659935	 161789.
17:48:26  812 813	 1492364906	 788652229	 166992.
17:48:26  813 814	 1492364906	 946384527	 157732.
17:48:27  814 815	 1492364907	 112344504	 165960.
17:48:27  815 816	 1492364907	 274181317	 161837.
17:48:27  816 817	 1492364907	 407304187	 133123.
17:48:27  817 818	 1492364907	 573255117	 165951.
17:48:27  818 819	 1492364907	 739253638	 165998.
17:48:27  819 820	 1492364907	 901107473	 161854.
17:48:28  820 821	 1492364908	 66921056	 165814.
17:48:28  821 822	 1492364908	 228663385	 161742.
17:48:28  822 823	 1492364908	 365786947	 137124.
17:48:28  823 824	 1492364908	 527778291	 161991.
17:48:28  824 825	 1492364908	 693853874	 166076.
17:48:28  825 826	 1492364908	 855767743	 161913.
17:48:29  826 827	 1492364909	 21763392	 165996.
17:48:29  827 828	 1492364909	 183678442	 161915.
17:48:29  828 829	 1492364909	 346358297	 162680.
17:48:29  829 830	 1492364909	 508261789	 161903.
17:48:29  830 831	 1492364909	 641426121	 133165.
17:48:29  831 832	 1492364909	 807328571	 165902.
17:48:29  832 833	 1492364909	 973181792	 165853.
17:48:30  833 834	 1492364910	 135010819	 161830.
17:48:30  834 835	 1492364910	 300832190	 165821.
17:48:30  835 836	 1492364910	 462815877	 161984.
17:48:30  836 837	 1492364910	 599978092	 137162.
17:48:30  837 838	 1492364910	 761708829	 161731.
17:48:30  838 839	 1492364910	 927579790	 165870.
17:48:31  839 840	 1492364911	 93386819	 165808.
17:48:31  840 841	 1492364911	 255234018	 161847.
17:48:31  841 842	 1492364911	 421078548	 165844.
17:48:31  842 843	 1492364911	 554181277	 133103.
17:48:31  843 844	 1492364911	 719997023	 165816.
17:48:31  844 845	 1492364911	 881801812	 161805.
17:48:32  845 846	 1492364912	 43700744	 161898.
17:48:32  846 847	 1492364912	 209614904	 165915.
17:48:32  847 848	 1492364912	 375459906	 165845.
17:48:32  848 849	 1492364912	 508537291	 133077.
17:48:32  849 850	 1492364912	 674380439	 165843.
17:48:32  850 851	 1492364912	 836242833	 161863.
17:48:33  851 852	 1492364913	 2267673	 166024.
17:48:33  852 853	 1492364913	 164213145	 161946.
17:48:33  853 854	 1492364913	 326028834	 161816.
17:48:33  854 855	 1492364913	 492158942	 166130.
17:48:33  855 856	 1492364913	 625120020	 132961.
17:48:33  856 857	 1492364913	 786749202	 161629.
17:48:33  857 858	 1492364913	 948365566	 161616.
17:48:34  858 859	 1492364914	 114169992	 165805.
17:48:34  859 860	 1492364914	 275810739	 161640.
17:48:34  860 861	 1492364914	 441594072	 165784.
17:48:34  861 862	 1492364914	 603349457	 161755.
17:48:34  862 863	 1492364914	 740624075	 137275.
17:48:34  863 864	 1492364914	 902500962	 161877.
17:48:35  864 865	 1492364915	 68329975	 165829.
17:48:35  865 866	 1492364915	 230241589	 161911.
17:48:35  866 867	 1492364915	 396058049	 165817.
17:48:35  867 868	 1492364915	 557914385	 161856.
17:48:35  868 869	 1492364915	 695079502	 137165.
17:48:35  869 870	 1492364915	 856873715	 161794.
17:48:36  870 871	 1492364916	 18685643	 161812.
17:48:36  871 872	 1492364916	 184775008	 166090.
17:48:36  872 873	 1492364916	 346528408	 161753.
17:48:36  873 874	 1492364916	 512312509	 165784.
17:48:36  874 875	 1492364916	 674032043	 161720.
17:48:36  875 876	 1492364916	 811155832	 137124.
17:48:36  876 877	 1492364916	 972900380	 161744.
17:48:37  877 878	 1492364917	 138716813	 165817.
17:48:37  878 879	 1492364917	 300461655	 161744.
17:48:37  879 880	 1492364917	 462327446	 161866.
17:48:37  880 881	 1492364917	 628342191	 166015.
17:48:37  881 882	 1492364917	 794249910	 165908.
17:48:37  882 883	 1492364917	 927315309	 133065.
17:48:38  883 884	 1492364918	 89179870	 161865.
17:48:38  884 885	 1492364918	 255056724	 165876.
17:48:38  885 886	 1492364918	 416802675	 161746.
17:48:38  886 887	 1492364918	 582672253	 165870.
17:48:38  887 888	 1492364918	 744725436	 162053.
17:48:38  888 889	 1492364918	 906314505	 161589.
17:48:39  889 890	 1492364919	 72156351	 165842.
17:48:39  890 891	 1492364919	 209454251	 137298.
17:48:39  891 892	 1492364919	 371268822	 161814.
17:48:39  892 893	 1492364919	 533084567	 161816.
17:48:39  893 894	 1492364919	 698997239	 165913.
17:48:39  894 895	 1492364919	 860767183	 161770.
17:48:40  895 896	 1492364920	 26530344	 165763.
17:48:40  896 897	 1492364920	 159651661	 133121.
17:48:40  897 898	 1492364920	 325432067	 165781.
17:48:40  898 899	 1492364920	 487481934	 162050.
17:48:40  899 900	 1492364920	 649368558	 161886.
17:48:40  900 901	 1492364920	 815319843	 165952.
17:48:40  901 902	 1492364920	 977247248	 161927.
17:48:41  902 903	 1492364921	 143108427	 165861.
17:48:41  903 904	 1492364921	 276256930	 133149.
17:48:41  904 905	 1492364921	 442092261	 165835.
17:48:41  905 906	 1492364921	 603970771	 161878.
17:48:41  906 907	 1492364921	 769986900	 166017.
17:48:41  907 908	 1492364921	 931828747	 161841.
17:48:42  908 909	 1492364922	 93870668	 162042.
17:48:42  909 910	 1492364922	 259943883	 166074.
17:48:42  910 911	 1492364922	 421901544	 161957.
17:48:42  911 912	 1492364922	 584111762	 162211.
17:48:42  912 913	 1492364922	 717287491	 133175.
17:48:42  913 914	 1492364922	 883040266	 165753.
17:48:43  914 915	 1492364923	 48943397	 165903.
17:48:43  915 916	 1492364923	 210767135	 161824.
17:48:43  916 917	 1492364923	 372709422	 161942.
17:48:43  917 918	 1492364923	 538580283	 165871.
17:48:43  918 919	 1492364923	 700646581	 162066.
17:48:43  919 920	 1492364923	 833994866	 133349.
17:48:43  920 921	 1492364923	 999867998	 165873.
17:48:44  921 922	 1492364924	 161608307	 161740.
17:48:44  922 923	 1492364924	 327759724	 166151.
17:48:44  923 924	 1492364924	 493713273	 165954.
17:48:44  924 925	 1492364924	 655418821	 161706.
17:48:44  925 926	 1492364924	 788612180	 133193.
17:48:44  926 927	 1492364924	 954600104	 165988.
17:48:45  927 928	 1492364925	 116325978	 161726.
17:48:45  928 929	 1492364925	 282277410	 165951.
17:48:45  929 930	 1492364925	 444081186	 161804.
17:48:45  930 931	 1492364925	 605862373	 161781.
17:48:45  931 932	 1492364925	 767890851	 162029.
17:48:45  932 933	 1492364925	 900944587	 133053.
17:48:46  933 934	 1492364926	 66834832	 165891.
17:48:46  934 935	 1492364926	 228966955	 162132.
17:48:46  935 936	 1492364926	 395002423	 166035.
17:48:46  936 937	 1492364926	 556947581	 161945.
17:48:46  937 938	 1492364926	 719146157	 162199.
17:48:46  938 939	 1492364926	 885046272	 165900.
17:48:47  939 940	 1492364927	 18204834	 133158.
17:48:47  940 941	 1492364927	 179887976	 161684.
17:48:47  941 942	 1492364927	 345811371	 165923.
17:48:47  942 943	 1492364927	 507510560	 161699.
17:48:47  943 944	 1492364927	 673334826	 165825.
17:48:47  944 945	 1492364927	 835258033	 161923.
17:48:48  945 946	 1492364928	 1128192	 165870.
17:48:48  946 947	 1492364928	 134544431	 133416.
17:48:48  947 948	 1492364928	 296487835	 161944.
17:48:48  948 949	 1492364928	 462405746	 165917.
17:48:48  949 950	 1492364928	 624133078	 161728.
17:48:48  950 951	 1492364928	 790051592	 165918.
17:48:48  951 952	 1492364928	 951849465	 161798.
17:48:49  952 953	 1492364929	 117640266	 165791.
17:48:49  953 954	 1492364929	 250677657	 133037.
17:48:49  954 955	 1492364929	 416496501	 165819.
17:48:49  955 956	 1492364929	 578235224	 161739.
17:48:49  956 957	 1492364929	 744081270	 165846.
17:48:49  957 958	 1492364929	 905902699	 161821.
17:48:50  958 959	 1492364930	 42986435	 137084.
17:48:50  959 960	 1492364930	 204872494	 161886.
17:48:50  960 961	 1492364930	 370730832	 165859.
17:48:50  961 962	 1492364930	 532413657	 161682.
17:48:50  962 963	 1492364930	 694553353	 162140.
17:48:50  963 964	 1492364930	 860293398	 165740.
17:48:51  964 965	 1492364931	 22136162	 161843.
17:48:51  965 966	 1492364931	 159260680	 137124.
17:48:51  966 967	 1492364931	 320955861	 161696.
17:48:51  967 968	 1492364931	 486689743	 165733.
17:48:51  968 969	 1492364931	 648469047	 161780.
17:48:51  969 970	 1492364931	 814212631	 165743.
17:48:51  970 971	 1492364931	 976027363	 161815.
17:48:52  971 972	 1492364932	 141952678	 165925.
17:48:52  972 973	 1492364932	 275082648	 133130.
17:48:52  973 974	 1492364932	 440824098	 165742.
17:48:52  974 975	 1492364932	 602644251	 161820.
17:48:52  975 976	 1492364932	 768522198	 165878.
17:48:52  976 977	 1492364932	 930211177	 161689.
17:48:53  977 978	 1492364933	 95994403	 165783.
17:48:53  978 979	 1492364933	 229136118	 133142.
17:48:53  979 980	 1492364933	 394823490	 165687.
17:48:53  980 981	 1492364933	 556444201	 161621.
17:48:53  981 982	 1492364933	 722173695	 165729.
17:48:53  982 983	 1492364933	 884073435	 161900.
17:48:54  983 984	 1492364934	 49839398	 165766.
17:48:54  984 985	 1492364934	 182826580	 132987.
17:48:54  985 986	 1492364934	 344659053	 161833.
17:48:54  986 987	 1492364934	 510534428	 165875.
17:48:54  987 988	 1492364934	 669086145	 158552.
17:48:54  988 989	 1492364934	 831188518	 162102.
17:48:54  989 990	 1492364934	 992955808	 161768.
17:48:55  990 991	 1492364935	 158763069	 165807.
17:48:55  991 992	 1492364935	 320669484	 161906.
17:48:55  992 993	 1492364935	 482413221	 161744.
17:48:55  993 994	 1492364935	 619782357	 137369.
17:48:55  994 995	 1492364935	 781657006	 161875.
17:48:55  995 996	 1492364935	 943670026	 162013.
17:48:56  996 997	 1492364936	 109593453	 165923.
17:48:56  997 998	 1492364936	 271377348	 161784.
17:48:56  998 999	 1492364936	 437256321	 165879.
17:48:56  999 1000	 1492364936	 598986819	 161731.
17:48:56 1000 1001	 1492364936	 736082401	 137095.
17:48:56 1001 1002	 1492364936	 897881685	 161799.
17:48:57 1002 1003	 1492364937	 63655409	 165774.
17:48:57 1003 1004	 1492364937	 225368947	 161714.
17:48:57 1004 1005	 1492364937	 391256279	 165887.
17:48:57 1005 1006	 1492364937	 553038946	 161783.
17:48:57 1006 1007	 1492364937	 690108179	 137069.
17:48:57 1007 1008	 1492364937	 851704470	 161596.
17:48:58 1008 1009	 1492364938	 13365687	 161661.
17:48:58 1009 1010	 1492364938	 179144210	 165779.
17:48:58 1010 1011	 1492364938	 341119392	 161975.
17:48:58 1011 1012	 1492364938	 499392244	 158273.
17:48:58 1012 1013	 1492364938	 665251708	 165859.
17:48:58 1013 1014	 1492364938	 827052369	 161801.
17:48:58 1014 1015	 1492364938	 992856754	 165804.
17:48:59 1015 1016	 1492364939	 125890276	 133034.
17:48:59 1016 1017	 1492364939	 287592066	 161702.
17:48:59 1017 1018	 1492364939	 453379997	 165788.
17:48:59 1018 1019	 1492364939	 629920346	 176540.
17:48:59 1019 1020	 1492364939	 763130306	 133210.
17:48:59 1020 1021	 1492364939	 925489670	 162359.
17:49:00 1021 1022	 1492364940	 87267316	 161778.
17:49:00 1022 1023	 1492364940	 253164910	 165898.
17:49:00 1023 1024	 1492364940	 414900664	 161735.
17:49:00 1024 1025	 1492364940	 580936958	 166037.
17:49:00 1025 1026	 1492364940	 742932194	 161995.
17:49:00 1026 1027	 1492364940	 880255379	 137323.
17:49:01 1027 1028	 1492364941	 42267246	 162012.
17:49:01 1028 1029	 1492364941	 208161656	 165894.
17:49:01 1029 1030	 1492364941	 369995393	 161834.
17:49:01 1030 1031	 1492364941	 532030252	 162035.
17:49:01 1031 1032	 1492364941	 697939363	 165909.
17:49:01 1032 1033	 1492364941	 859857104	 161918.
17:49:01 1033 1034	 1492364941	 997248907	 137392.
17:49:02 1034 1035	 1492364942	 155341811	 158093.
17:49:02 1035 1036	 1492364942	 321343210	 166001.
17:49:02 1036 1037	 1492364942	 483354747	 162012.
17:49:02 1037 1038	 1492364942	 649354486	 165999.
17:49:02 1038 1039	 1492364942	 811140788	 161786.
17:49:02 1039 1040	 1492364942	 977068584	 165928.
17:49:03 1040 1041	 1492364943	 138993631	 161925.
17:49:03 1041 1042	 1492364943	 276408269	 137415.
17:49:03 1042 1043	 1492364943	 438308329	 161900.
17:49:03 1043 1044	 1492364943	 604197312	 165889.
17:49:03 1044 1045	 1492364943	 766013259	 161816.
17:49:03 1045 1046	 1492364943	 931915107	 165902.
17:49:04 1046 1047	 1492364944	 93774043	 161859.
17:49:04 1047 1048	 1492364944	 259609478	 165835.
17:49:04 1048 1049	 1492364944	 392873362	 133264.
17:49:04 1049 1050	 1492364944	 554910900	 162038.
17:49:04 1050 1051	 1492364944	 721005045	 166094.
17:49:04 1051 1052	 1492364944	 882915612	 161910.
17:49:05 1052 1053	 1492364945	 49035920	 166121.
17:49:05 1053 1054	 1492364945	 211154102	 162118.
17:49:05 1054 1055	 1492364945	 377177135	 166023.
17:49:05 1055 1056	 1492364945	 510327642	 133150.
17:49:05 1056 1057	 1492364945	 676377799	 166051.
17:49:05 1057 1058	 1492364945	 838285688	 161907.
17:49:05 1058 1059	 1492364946	 4180452	 165895.
17:49:06 1059 1060	 1492364946	 166024404	 161844.
17:49:06 1060 1061	 1492364946	 331864639	 165840.
17:49:06 1061 1062	 1492364946	 493908243	 162044.
17:49:06 1062 1063	 1492364946	 627075085	 133167.
17:49:06 1063 1064	 1492364946	 792967468	 165892.
17:49:06 1064 1065	 1492364946	 954840146	 161873.
17:49:07 1065 1066	 1492364947	 120857238	 166017.
17:49:07 1066 1067	 1492364947	 282737990	 161881.
17:49:07 1067 1068	 1492364947	 448659166	 165921.
17:49:07 1068 1069	 1492364947	 610737978	 162079.
17:49:07 1069 1070	 1492364947	 748148130	 137410.
17:49:07 1070 1071	 1492364947	 910503664	 162355.
17:49:08 1071 1072	 1492364948	 72605029	 162102.
17:49:08 1072 1073	 1492364948	 238759394	 166154.
17:49:08 1073 1074	 1492364948	 400687154	 161928.
17:49:08 1074 1075	 1492364948	 566890277	 166203.
17:49:08 1075 1076	 1492364948	 728720464	 161830.
17:49:08 1076 1077	 1492364948	 865869648	 137149.
17:49:09 1077 1078	 1492364949	 27800817	 161932.
17:49:09 1078 1079	 1492364949	 189727912	 161927.
17:49:09 1079 1080	 1492364949	 355730587	 166002.
17:49:09 1080 1081	 1492364949	 517731218	 162001.
17:49:09 1081 1082	 1492364949	 683759426	 166028.
17:49:09 1082 1083	 1492364949	 845661135	 161902.
17:49:09 1083 1084	 1492364949	 982889040	 137228.
17:49:10 1084 1085	 1492364950	 144727445	 161838.
17:49:10 1085 1086	 1492364950	 310540616	 165813.
17:49:10 1086 1087	 1492364950	 472385805	 161846.
17:49:10 1087 1088	 1492364950	 638266382	 165880.
17:49:10 1088 1089	 1492364950	 799848722	 161582.
17:49:10 1089 1090	 1492364950	 962046060	 162198.
17:49:11 1090 1091	 1492364951	 95098349	 133052.
17:49:11 1091 1092	 1492364951	 260953917	 165856.
17:49:11 1092 1093	 1492364951	 422693682	 161739.
17:49:11 1093 1094	 1492364951	 588705131	 166012.
17:49:11 1094 1095	 1492364951	 754480996	 165776.
17:49:11 1095 1096	 1492364951	 916308289	 161827.
17:49:12 1096 1097	 1492364952	 49474554	 133166.
17:49:12 1097 1098	 1492364952	 215233320	 165759.
17:49:12 1098 1099	 1492364952	 377016702	 161783.
17:49:12 1099 1100	 1492364952	 543039888	 166024.
17:49:12 1100 1101	 1492364952	 704820245	 161780.
17:49:12 1101 1102	 1492364952	 870685325	 165865.
17:49:12 1102 1103	 1492364953	 3688746	 133003.
17:49:13 1103 1104	 1492364953	 169482840	 165795.
17:49:13 1104 1105	 1492364953	 331265083	 161782.
17:49:13 1105 1106	 1492364953	 497136683	 165871.
17:49:13 1106 1107	 1492364953	 658889178	 161753.
17:49:13 1107 1108	 1492364953	 824714086	 165825.
17:49:13 1108 1109	 1492364953	 957824371	 133110.
17:49:14 1109 1110	 1492364954	 123602332	 165778.
17:49:14 1110 1111	 1492364954	 281667294	 158065.
17:49:14 1111 1112	 1492364954	 447561045	 165894.
17:49:14 1112 1113	 1492364954	 609455543	 161894.
17:49:14 1113 1114	 1492364954	 771690244	 162235.
17:49:14 1114 1115	 1492364954	 937522855	 165833.
17:49:15 1115 1116	 1492364955	 99143620	 161620.
17:49:15 1116 1117	 1492364955	 232332685	 133189.
17:49:15 1117 1118	 1492364955	 398063561	 165731.
17:49:15 1118 1119	 1492364955	 559808289	 161745.
17:49:15 1119 1120	 1492364955	 725605423	 165797.
17:49:15 1120 1121	 1492364955	 887339573	 161734.
17:49:16 1121 1122	 1492364956	 53032574	 165693.
17:49:16 1122 1123	 1492364956	 186132078	 133100.
17:49:16 1123 1124	 1492364956	 351683656	 165551.
17:49:16 1124 1125	 1492364956	 513236907	 161554.
17:49:16 1125 1126	 1492364956	 674920773	 161683.
17:49:16 1126 1127	 1492364956	 840435684	 165515.
17:49:16 1127 1128	 1492364956	 973629601	 133194.
17:49:17 1128 1129	 1492364957	 135215156	 161586.
17:49:17 1129 1130	 1492364957	 301126805	 165912.
17:49:17 1130 1131	 1492364957	 462553157	 161426.
17:49:17 1131 1132	 1492364957	 628505675	 165952.
17:49:17 1132 1133	 1492364957	 790060386	 161555.
17:49:17 1133 1134	 1492364957	 922851505	 132791.
17:49:18 1134 1135	 1492364958	 84659003	 161808.
17:49:18 1135 1136	 1492364958	 247004993	 162346.
17:49:18 1136 1137	 1492364958	 408718081	 161713.
17:49:18 1137 1138	 1492364958	 574520269	 165802.
17:49:18 1138 1139	 1492364958	 736127848	 161608.
17:49:18 1139 1140	 1492364958	 897684470	 161556.
17:49:19 1140 1141	 1492364959	 34809024	 137125.
17:49:19 1141 1142	 1492364959	 196366814	 161558.
17:49:19 1142 1143	 1492364959	 362219111	 165852.
17:49:19 1143 1144	 1492364959	 523814869	 161596.
17:49:19 1144 1145	 1492364959	 689612628	 165797.
17:49:19 1145 1146	 1492364959	 822440355	 132828.
17:49:19 1146 1147	 1492364959	 988035584	 165595.
17:49:20 1147 1148	 1492364960	 149722566	 161687.
17:49:20 1148 1149	 1492364960	 315319891	 165598.
17:49:20 1149 1150	 1492364960	 477033792	 161713.
17:49:20 1150 1151	 1492364960	 609942709	 132909.
17:49:20 1151 1152	 1492364960	 775507723	 165565.
17:49:20 1152 1153	 1492364960	 937111335	 161604.
17:49:21 1153 1154	 1492364961	 102661506	 165550.
17:49:21 1154 1155	 1492364961	 264253400	 161592.
17:49:21 1155 1156	 1492364961	 401434906	 137182.
17:49:21 1156 1157	 1492364961	 562948537	 161513.
17:49:21 1157 1158	 1492364961	 728717141	 165769.
17:49:21 1158 1159	 1492364961	 890141127	 161424.
17:49:22 1159 1160	 1492364962	 55988299	 165847.
17:49:22 1160 1161	 1492364962	 217564126	 161576.
17:49:22 1161 1162	 1492364962	 350532689	 132968.
17:49:22 1162 1163	 1492364962	 516278357	 165746.
17:49:22 1163 1164	 1492364962	 678137263	 161859.
17:49:22 1164 1165	 1492364962	 843797801	 165661.
17:49:23 1165 1166	 1492364963	 5600406	 161802.
17:49:23 1166 1167	 1492364963	 142681856	 137082.
17:49:23 1167 1168	 1492364963	 304183390	 161501.
17:49:23 1168 1169	 1492364963	 469678185	 165495.
17:49:23 1169 1170	 1492364963	 631410267	 161732.
17:49:23 1170 1171	 1492364963	 797160456	 165750.
17:49:23 1171 1172	 1492364963	 958926442	 161766.
17:49:24 1172 1173	 1492364964	 91959053	 133033.
17:49:24 1173 1174	 1492364964	 257619286	 165660.
17:49:24 1174 1175	 1492364964	 419240798	 161622.
17:49:24 1175 1176	 1492364964	 584931469	 165690.
17:49:24 1176 1177	 1492364964	 746611913	 161681.
17:49:24 1177 1178	 1492364964	 883809522	 137197.
17:49:25 1178 1179	 1492364965	 45395182	 161586.
17:49:25 1179 1180	 1492364965	 211006686	 165611.
17:49:25 1180 1181	 1492364965	 372701789	 161695.
17:49:25 1181 1182	 1492364965	 538465415	 165764.
17:49:25 1182 1183	 1492364965	 671257748	 132792.
17:49:25 1183 1184	 1492364965	 833011705	 161754.
17:49:25 1184 1185	 1492364965	 998941531	 165930.
17:49:26 1185 1186	 1492364966	 160562750	 161621.
17:49:26 1186 1187	 1492364966	 326116764	 165554.
17:49:26 1187 1188	 1492364966	 487577092	 161461.
17:49:26 1188 1189	 1492364966	 624793710	 137216.
17:49:26 1189 1190	 1492364966	 782743050	 157950.
17:49:26 1190 1191	 1492364966	 948545042	 165802.
17:49:27 1191 1192	 1492364967	 110023616	 161478.
17:49:27 1192 1193	 1492364967	 271679141	 161656.
17:49:27 1193 1194	 1492364967	 408459345	 136780.
17:49:27 1194 1195	 1492364967	 570267183	 161808.
17:49:27 1195 1196	 1492364967	 732718259	 162451.
17:49:27 1196 1197	 1492364967	 890146328	 157428.
17:49:28 1197 1198	 1492364968	 55802114	 165656.
17:49:28 1198 1199	 1492364968	 217387305	 161585.
17:49:28 1199 1200	 1492364968	 383090217	 165703.
17:49:28 1200 1201	 1492364968	 516232703	 133142.
17:49:28 1201 1202	 1492364968	 682131482	 165899.
17:49:28 1202 1203	 1492364968	 843784979	 161654.
17:49:29 1203 1204	 1492364969	 9727532	 165942.
17:49:29 1204 1205	 1492364969	 171160331	 161433.
17:49:29 1205 1206	 1492364969	 332898674	 161738.
17:49:29 1206 1207	 1492364969	 469818464	 136920.
17:49:29 1207 1208	 1492364969	 631457454	 161639.
17:49:29 1208 1209	 1492364969	 797139791	 165682.
17:49:29 1209 1210	 1492364969	 958894125	 161755.
17:49:30 1210 1211	 1492364970	 124637828	 165744.
17:49:30 1211 1212	 1492364970	 257516554	 132878.
17:49:30 1212 1213	 1492364970	 423137142	 165621.
17:49:30 1213 1214	 1492364970	 585054980	 161918.
17:49:30 1214 1215	 1492364970	 746594724	 161539.
17:49:30 1215 1216	 1492364970	 912423159	 165829.
17:49:31 1216 1217	 1492364971	 74080422	 161657.
17:49:31 1217 1218	 1492364971	 206994056	 132914.
17:49:31 1218 1219	 1492364971	 373110579	 166116.
17:49:31 1219 1220	 1492364971	 538996638	 165886.
17:49:31 1220 1221	 1492364971	 700560137	 161564.
17:49:31 1221 1222	 1492364971	 866234562	 165674.
17:49:32 1222 1223	 1492364972	 28094332	 161860.
17:49:32 1223 1224	 1492364972	 161061014	 132967.
17:49:32 1224 1225	 1492364972	 326652558	 165591.
17:49:32 1225 1226	 1492364972	 488275850	 161624.
17:49:32 1226 1227	 1492364972	 653953081	 165677.
17:49:32 1227 1228	 1492364972	 819738010	 165785.
17:49:32 1228 1229	 1492364972	 952703301	 132965.
17:49:33 1229 1230	 1492364973	 111043199	 158340.
17:49:33 1230 1231	 1492364973	 272702889	 161660.
17:49:33 1231 1232	 1492364973	 438457691	 165754.
17:49:33 1232 1233	 1492364973	 600124467	 161667.
17:49:33 1233 1234	 1492364973	 765937004	 165813.
17:49:33 1234 1235	 1492364973	 899144733	 133207.
17:49:34 1235 1236	 1492364974	 61130594	 161986.
17:49:34 1236 1237	 1492364974	 226754015	 165624.
17:49:34 1237 1238	 1492364974	 384732549	 157978.
17:49:34 1238 1239	 1492364974	 550331766	 165599.
17:49:34 1239 1240	 1492364974	 711932492	 161601.
17:49:34 1240 1241	 1492364974	 848960563	 137028.
17:49:35 1241 1242	 1492364975	 10523591	 161563.
17:49:35 1242 1243	 1492364975	 172426935	 161904.
17:49:35 1243 1244	 1492364975	 338207814	 165781.
17:49:35 1244 1245	 1492364975	 499695772	 161487.
17:49:35 1245 1246	 1492364975	 636800340	 137105.
17:49:35 1246 1247	 1492364975	 798377837	 161578.
17:49:35 1247 1248	 1492364975	 964384698	 166006.
17:49:36 1248 1249	 1492364976	 125945837	 161562.
17:49:36 1249 1250	 1492364976	 291797328	 165851.
17:49:36 1250 1251	 1492364976	 424983010	 133186.
17:49:36 1251 1252	 1492364976	 586712205	 161729.
17:49:36 1252 1253	 1492364976	 748780789	 162069.
17:49:36 1253 1254	 1492364976	 914500297	 165719.
17:49:37 1254 1255	 1492364977	 80316317	 165816.
17:49:37 1255 1256	 1492364977	 242001317	 161685.
17:49:37 1256 1257	 1492364977	 374995023	 132994.
17:49:37 1257 1258	 1492364977	 540999875	 166005.
17:49:37 1258 1259	 1492364977	 702688321	 161688.
17:49:37 1259 1260	 1492364977	 868355170	 165667.
17:49:38 1260 1261	 1492364978	 30112915	 161758.
17:49:38 1261 1262	 1492364978	 195856565	 165743.
17:49:38 1262 1263	 1492364978	 328856404	 133000.
17:49:38 1263 1264	 1492364978	 490912848	 162057.
17:49:38 1264 1265	 1492364978	 656603986	 165691.
17:49:38 1265 1266	 1492364978	 822484199	 165880.
17:49:38 1266 1267	 1492364978	 984235549	 161751.
17:49:39 1267 1268	 1492364979	 149843732	 165608.
17:49:39 1268 1269	 1492364979	 282707531	 132864.
17:49:39 1269 1270	 1492364979	 448389080	 165682.
17:49:39 1270 1271	 1492364979	 610270693	 161881.
17:49:39 1271 1272	 1492364979	 775759489	 165489.
17:49:39 1272 1273	 1492364979	 937536851	 161778.
17:49:40 1273 1274	 1492364980	 74786081	 137249.
17:49:40 1274 1275	 1492364980	 236262611	 161476.
17:49:40 1275 1276	 1492364980	 401916535	 165654.
17:49:40 1276 1277	 1492364980	 563710589	 161794.
17:49:40 1277 1278	 1492364980	 725409589	 161699.
17:49:40 1278 1279	 1492364980	 862435976	 137027.
17:49:41 1279 1280	 1492364981	 23961151	 161525.
17:49:41 1280 1281	 1492364981	 189595001	 165634.
17:49:41 1281 1282	 1492364981	 350981947	 161387.
17:49:41 1282 1283	 1492364981	 516513108	 165531.
17:49:41 1283 1284	 1492364981	 649268294	 132755.
17:49:41 1284 1285	 1492364981	 815005152	 165737.
17:49:41 1285 1286	 1492364981	 976457711	 161452.
17:49:42 1286 1287	 1492364982	 142115313	 165658.
17:49:42 1287 1288	 1492364982	 303716395	 161601.
17:49:42 1288 1289	 1492364982	 440692547	 136976.
17:49:42 1289 1290	 1492364982	 602352231	 161660.
17:49:42 1290 1291	 1492364982	 768134888	 165783.
17:49:42 1291 1292	 1492364982	 929748314	 161613.
17:49:43 1292 1293	 1492364983	 91210138	 161462.
17:49:43 1293 1294	 1492364983	 228245389	 137035.
17:49:43 1294 1295	 1492364983	 394033103	 165788.
17:49:43 1295 1296	 1492364983	 555532563	 161499.
17:49:43 1296 1297	 1492364983	 717371864	 161840.
17:49:43 1297 1298	 1492364983	 883052108	 165680.
17:49:44 1298 1299	 1492364984	 16062241	 133010.
17:49:44 1299 1300	 1492364984	 178326566	 162264.
17:49:44 1300 1301	 1492364984	 339766415	 161440.
17:49:44 1301 1302	 1492364984	 505505285	 165739.
17:49:44 1302 1303	 1492364984	 667183095	 161678.
17:49:44 1303 1304	 1492364984	 832857652	 165674.
17:49:44 1304 1305	 1492364984	 965882511	 133025.
17:49:45 1305 1306	 1492364985	 131670831	 165789.
17:49:45 1306 1307	 1492364985	 293548168	 161877.
17:49:45 1307 1308	 1492364985	 459463538	 165915.
17:49:45 1308 1309	 1492364985	 621206464	 161743.
17:49:45 1309 1310	 1492364985	 783252878	 162047.
17:49:45 1310 1311	 1492364985	 916247771	 132994.
17:49:46 1311 1312	 1492364986	 82095550	 165848.
17:49:46 1312 1313	 1492364986	 243725495	 161630.
17:49:46 1313 1314	 1492364986	 409486975	 165762.
17:49:46 1314 1315	 1492364986	 571449401	 161962.
17:49:46 1315 1316	 1492364986	 737404160	 165955.
17:49:46 1316 1317	 1492364986	 870393180	 132989.
17:49:47 1317 1318	 1492364987	 32270163	 161877.
17:49:47 1318 1319	 1492364987	 198351404	 166081.
17:49:47 1319 1320	 1492364987	 364661696	 166310.
17:49:47 1320 1321	 1492364987	 526487062	 161826.
17:49:47 1321 1322	 1492364987	 692982503	 166495.
17:49:47 1322 1323	 1492364987	 854832736	 161851.
17:49:47 1323 1324	 1492364987	 988000324	 133167.
17:49:48 1324 1325	 1492364988	 153965669	 165965.
17:49:48 1325 1326	 1492364988	 315585934	 161621.
17:49:48 1326 1327	 1492364988	 481624185	 166038.
17:49:48 1327 1328	 1492364988	 643363374	 161739.
17:49:48 1328 1329	 1492364988	 780320740	 136957.
17:49:48 1329 1330	 1492364988	 942094525	 161774.
17:49:49 1330 1331	 1492364989	 107876711	 165782.
17:49:49 1331 1332	 1492364989	 269661928	 161786.
17:49:49 1332 1333	 1492364989	 435403632	 165741.
17:49:49 1333 1334	 1492364989	 597153631	 161750.
17:49:49 1334 1335	 1492364989	 734359766	 137206.
17:49:49 1335 1336	 1492364989	 892783424	 158424.
17:49:50 1336 1337	 1492364990	 58728762	 165945.
17:49:50 1337 1338	 1492364990	 220939448	 162211.
17:49:50 1338 1339	 1492364990	 382763100	 161824.
17:49:50 1339 1340	 1492364990	 544569478	 161806.
17:49:50 1340 1341	 1492364990	 710591649	 166022.
17:49:50 1341 1342	 1492364990	 872375412	 161784.
17:49:51 1342 1343	 1492364991	 38216975	 165842.
17:49:51 1343 1344	 1492364991	 171277331	 133060.
17:49:51 1344 1345	 1492364991	 337252335	 165975.
17:49:51 1345 1346	 1492364991	 499108938	 161857.
17:49:51 1346 1347	 1492364991	 660955206	 161846.
17:49:51 1347 1348	 1492364991	 826873215	 165918.
17:49:51 1348 1349	 1492364991	 988681587	 161808.
17:49:52 1349 1350	 1492364992	 154564616	 165883.
17:49:52 1350 1351	 1492364992	 287673123	 133109.
17:49:52 1351 1352	 1492364992	 453562677	 165889.
17:49:52 1352 1353	 1492364992	 615301003	 161739.
17:49:52 1353 1354	 1492364992	 781014147	 165713.
17:49:52 1354 1355	 1492364992	 942855373	 161841.
17:49:53 1355 1356	 1492364993	 108837895	 165983.
17:49:53 1356 1357	 1492364993	 242056746	 133218.
17:49:53 1357 1358	 1492364993	 404061178	 162005.
17:49:53 1358 1359	 1492364993	 570018376	 165957.
17:49:53 1359 1360	 1492364993	 731847734	 161829.
17:49:53 1360 1361	 1492364993	 897833276	 165986.
17:49:54 1361 1362	 1492364994	 59826388	 161993.
17:49:54 1362 1363	 1492364994	 225654748	 165828.
17:49:54 1363 1364	 1492364994	 387584648	 161930.
17:49:54 1364 1365	 1492364994	 524738186	 137154.
17:49:54 1365 1366	 1492364994	 686669159	 161931.
17:49:54 1366 1367	 1492364994	 849069935	 162401.
17:49:55 1367 1368	 1492364995	 10758111	 161688.
17:49:55 1368 1369	 1492364995	 172584607	 161826.
17:49:55 1369 1370	 1492364995	 338383969	 165800.
17:49:55 1370 1371	 1492364995	 500089433	 161705.
17:49:55 1371 1372	 1492364995	 633281722	 133192.
17:49:55 1372 1373	 1492364995	 799027876	 165747.
17:49:55 1373 1374	 1492364995	 964905134	 165877.
17:49:56 1374 1375	 1492364996	 126775625	 161871.
17:49:56 1375 1376	 1492364996	 292768533	 165992.
17:49:56 1376 1377	 1492364996	 450980725	 158212.
17:49:56 1377 1378	 1492364996	 616981447	 166001.
17:49:56 1378 1379	 1492364996	 750162033	 133181.
17:49:56 1379 1380	 1492364996	 916105547	 165943.
17:49:57 1380 1381	 1492364997	 78107313	 162002.
17:49:57 1381 1382	 1492364997	 244262429	 166155.
17:49:57 1382 1383	 1492364997	 406136548	 161874.
17:49:57 1383 1384	 1492364997	 572187944	 166052.
17:49:57 1384 1385	 1492364997	 705310492	 133122.
17:49:57 1385 1386	 1492364997	 871172214	 165862.
17:49:58 1386 1387	 1492364998	 33208812	 162037.
17:49:58 1387 1388	 1492364998	 199047698	 165838.
17:49:58 1388 1389	 1492364998	 360856774	 161809.
17:49:58 1389 1390	 1492364998	 526869677	 166013.
17:49:58 1390 1391	 1492364998	 660154693	 133285.
17:49:58 1391 1392	 1492364998	 826012143	 165858.
17:49:58 1392 1393	 1492364998	 987833084	 161821.
17:49:59 1393 1394	 1492364999	 153542023	 165709.
17:49:59 1394 1395	 1492364999	 315444515	 161902.
17:49:59 1395 1396	 1492364999	 477150206	 161706.
17:49:59 1396 1397	 1492364999	 642843447	 165693.
17:49:59 1397 1398	 1492364999	 776203696	 133360.
17:49:59 1398 1399	 1492364999	 942148086	 165945.
17:50:00 1399 1400	 1492365000	 104229441	 162081.
17:50:00 1400 1401	 1492365000	 266021736	 161792.
17:50:00 1401 1402	 1492365000	 431988515	 165967.
17:50:00 1402 1403	 1492365000	 593822896	 161835.
17:50:00 1403 1404	 1492365000	 759757622	 165934.
17:50:00 1404 1405	 1492365000	 892846398	 133089.
17:50:01 1405 1406	 1492365001	 54736110	 161890.
17:50:01 1406 1407	 1492365001	 220706025	 165970.
17:50:01 1407 1408	 1492365001	 382730497	 162024.
17:50:01 1408 1409	 1492365001	 548798327	 166068.
17:50:01 1409 1410	 1492365001	 710854655	 162056.
17:50:01 1410 1411	 1492365001	 876939200	 166085.
17:50:02 1411 1412	 1492365002	 10081887	 133143.
17:50:02 1412 1413	 1492365002	 176094815	 166013.
17:50:02 1413 1414	 1492365002	 338081984	 161987.
17:50:02 1414 1415	 1492365002	 504285216	 166203.
17:50:02 1415 1416	 1492365002	 666234566	 161950.
17:50:02 1416 1417	 1492365002	 831991183	 165756.
17:50:02 1417 1418	 1492365002	 993998830	 162008.
17:50:03 1418 1419	 1492365003	 127238884	 133240.
17:50:03 1419 1420	 1492365003	 293433274	 166194.
17:50:03 1420 1421	 1492365003	 459437299	 166004.
17:50:03 1421 1422	 1492365003	 621417855	 161981.
17:50:03 1422 1423	 1492365003	 787425286	 166007.
17:50:03 1423 1424	 1492365003	 949337138	 161912.
17:50:04 1424 1425	 1492365004	 115172581	 165835.
17:50:04 1425 1426	 1492365004	 248509706	 133337.
17:50:04 1426 1427	 1492365004	 414481219	 165972.
17:50:04 1427 1428	 1492365004	 576331473	 161850.
17:50:04 1428 1429	 1492365004	 742355239	 166024.
17:50:04 1429 1430	 1492365004	 908334319	 165979.
17:50:05 1430 1431	 1492365005	 70284404	 161950.
17:50:05 1431 1432	 1492365005	 203618034	 133334.
17:50:05 1432 1433	 1492365005	 369571829	 165954.
17:50:05 1433 1434	 1492365005	 535481482	 165909.
17:50:05 1434 1435	 1492365005	 697325663	 161844.
17:50:05 1435 1436	 1492365005	 859215512	 161890.
17:50:06 1436 1437	 1492365006	 25106178	 165891.
17:50:06 1437 1438	 1492365006	 186969528	 161863.
17:50:06 1438 1439	 1492365006	 324064775	 137095.
17:50:06 1439 1440	 1492365006	 485849392	 161785.
17:50:06 1440 1441	 1492365006	 651879209	 166030.
17:50:06 1441 1442	 1492365006	 813813929	 161935.
17:50:06 1442 1443	 1492365006	 980001048	 166187.
17:50:07 1443 1444	 1492365007	 138511669	 158510.
17:50:07 1444 1445	 1492365007	 300740983	 162230.
17:50:07 1445 1446	 1492365007	 466793611	 166052.
17:50:07 1446 1447	 1492365007	 628697513	 161904.
17:50:07 1447 1448	 1492365007	 761873858	 133177.
17:50:07 1448 1449	 1492365007	 927974170	 166100.
17:50:08 1449 1450	 1492365008	 94055480	 166081.
17:50:08 1450 1451	 1492365008	 255972618	 161917.
17:50:08 1451 1452	 1492365008	 421910173	 165938.
17:50:08 1452 1453	 1492365008	 583875947	 161966.
17:50:08 1453 1454	 1492365008	 749920456	 166044.
17:50:08 1454 1455	 1492365008	 907986548	 158066.
17:50:09 1455 1456	 1492365009	 45288513	 137302.
17:50:09 1456 1457	 1492365009	 207156189	 161868.
17:50:09 1457 1458	 1492365009	 373032166	 165876.
17:50:09 1458 1459	 1492365009	 535332926	 162301.
17:50:09 1459 1460	 1492365009	 697251909	 161919.
17:50:09 1460 1461	 1492365009	 863337476	 166085.
17:50:09 1461 1462	 1492365009	 996426666	 133089.
17:50:10 1462 1463	 1492365010	 162516978	 166091.
17:50:10 1463 1464	 1492365010	 324395343	 161878.
17:50:10 1464 1465	 1492365010	 486329336	 161934.
17:50:10 1465 1466	 1492365010	 652317907	 165989.
17:50:10 1466 1467	 1492365010	 814139112	 161821.
17:50:10 1467 1468	 1492365010	 980307383	 166168.
17:50:11 1468 1469	 1492365011	 146438883	 166132.
17:50:11 1469 1470	 1492365011	 279781823	 133343.
17:50:11 1470 1471	 1492365011	 441884365	 162102.
17:50:11 1471 1472	 1492365011	 607772441	 165888.
17:50:11 1472 1473	 1492365011	 769668197	 161896.
17:50:11 1473 1474	 1492365011	 931754389	 162086.
17:50:12 1474 1475	 1492365012	 97893105	 166139.
17:50:12 1475 1476	 1492365012	 259892820	 162000.
17:50:12 1476 1477	 1492365012	 425899522	 166006.
17:50:12 1477 1478	 1492365012	 559189734	 133290.
17:50:12 1478 1479	 1492365012	 725185320	 165996.
17:50:12 1479 1480	 1492365012	 887144889	 161960.
17:50:13 1480 1481	 1492365013	 53270992	 166126.
17:50:13 1481 1482	 1492365013	 215435986	 162165.
17:50:13 1482 1483	 1492365013	 381507698	 166071.
17:50:13 1483 1484	 1492365013	 543450252	 161943.
17:50:13 1484 1485	 1492365013	 680941601	 137491.
17:50:13 1485 1486	 1492365013	 842916260	 161975.
17:50:14 1486 1487	 1492365014	 8817351	 165901.
17:50:14 1487 1488	 1492365014	 174746643	 165929.
17:50:14 1488 1489	 1492365014	 336877126	 162131.
17:50:14 1489 1490	 1492365014	 499006905	 162130.
17:50:14 1490 1491	 1492365014	 665061406	 166054.
17:50:14 1491 1492	 1492365014	 798295141	 133234.
17:50:14 1492 1493	 1492365014	 960197320	 161902.
17:50:15 1493 1494	 1492365015	 125905406	 165708.
17:50:15 1494 1495	 1492365015	 287682298	 161777.
17:50:15 1495 1496	 1492365015	 453604221	 165922.
17:50:15 1496 1497	 1492365015	 615595050	 161991.
17:50:15 1497 1498	 1492365015	 777480719	 161885.
17:50:15 1498 1499	 1492365015	 914831288	 137351.
17:50:16 1499 1500	 1492365016	 76809257	 161978.
17:50:16 1500 1501	 1492365016	 242986790	 166177.
17:50:16 1501 1502	 1492365016	 404904462	 161918.
17:50:16 1502 1503	 1492365016	 571619784	 166715.
17:50:16 1503 1504	 1492365016	 729606554	 157987.
17:50:16 1504 1505	 1492365016	 895423973	 165818.
17:50:17 1505 1506	 1492365017	 57766620	 162342.
17:50:17 1506 1507	 1492365017	 219532361	 161766.
17:50:17 1507 1508	 1492365017	 352796260	 133264.
17:50:17 1508 1509	 1492365017	 518746324	 165950.
17:50:17 1509 1510	 1492365017	 680620538	 161874.
17:50:17 1510 1511	 1492365017	 842465845	 161846.
17:50:18 1511 1512	 1492365018	 8145340	 165679.
17:50:18 1512 1513	 1492365018	 174086812	 165942.
17:50:18 1513 1514	 1492365018	 335873826	 161787.
17:50:18 1514 1515	 1492365018	 501987810	 166114.
17:50:18 1515 1516	 1492365018	 635216064	 133228.
17:50:18 1516 1517	 1492365018	 801326895	 166111.
17:50:18 1517 1518	 1492365018	 963218417	 161891.
17:50:19 1518 1519	 1492365019	 125088803	 161871.
17:50:19 1519 1520	 1492365019	 291027759	 165938.
17:50:19 1520 1521	 1492365019	 452805447	 161778.
17:50:19 1521 1522	 1492365019	 590005165	 137200.
17:50:19 1522 1523	 1492365019	 751822892	 161818.
17:50:19 1523 1524	 1492365019	 917817386	 165994.
17:50:20 1524 1525	 1492365020	 79530804	 161714.
17:50:20 1525 1526	 1492365020	 241829250	 162298.
17:50:20 1526 1527	 1492365020	 407896208	 166067.
17:50:20 1527 1528	 1492365020	 569787893	 161892.
17:50:20 1528 1529	 1492365020	 735541858	 165754.
17:50:20 1529 1530	 1492365020	 868592199	 133050.
17:50:21 1530 1531	 1492365021	 34464640	 165872.
17:50:21 1531 1532	 1492365021	 196276594	 161812.
17:50:21 1532 1533	 1492365021	 362290559	 166014.
17:50:21 1533 1534	 1492365021	 528250103	 165960.
17:50:21 1534 1535	 1492365021	 690378115	 162128.
17:50:21 1535 1536	 1492365021	 852293392	 161915.
17:50:21 1536 1537	 1492365021	 985372235	 133079.
17:50:22 1537 1538	 1492365022	 151448627	 166076.
17:50:22 1538 1539	 1492365022	 313348187	 161900.
17:50:22 1539 1540	 1492365022	 479167483	 165819.
17:50:22 1540 1541	 1492365022	 645054950	 165888.
17:50:22 1541 1542	 1492365022	 806636903	 161582.
17:50:22 1542 1543	 1492365022	 943613568	 136976.
17:50:23 1543 1544	 1492365023	 105468601	 161855.
17:50:23 1544 1545	 1492365023	 271542587	 166074.
17:50:23 1545 1546	 1492365023	 433451430	 161909.
17:50:23 1546 1547	 1492365023	 599468979	 166018.
17:50:23 1547 1548	 1492365023	 761374076	 161905.
17:50:23 1548 1549	 1492365023	 923275579	 161901.
17:50:24 1549 1550	 1492365024	 89202835	 165928.
17:50:24 1550 1551	 1492365024	 222373092	 133170.
17:50:24 1551 1552	 1492365024	 388343558	 165970.
17:50:24 1552 1553	 1492365024	 550091691	 161748.
17:50:24 1553 1554	 1492365024	 716088589	 165997.
17:50:24 1554 1555	 1492365024	 877903124	 161815.
17:50:25 1555 1556	 1492365025	 43932818	 166030.
17:50:25 1556 1557	 1492365025	 205712169	 161779.
17:50:25 1557 1558	 1492365025	 371619976	 165908.
17:50:25 1558 1559	 1492365025	 504726774	 133107.
17:50:25 1559 1560	 1492365025	 670562167	 165835.
17:50:25 1560 1561	 1492365025	 832376933	 161815.
17:50:25 1561 1562	 1492365025	 994296957	 161920.
17:50:26 1562 1563	 1492365026	 160058176	 165761.
17:50:26 1563 1564	 1492365026	 321752246	 161694.
17:50:26 1564 1565	 1492365026	 458892301	 137140.
17:50:26 1565 1566	 1492365026	 620702051	 161810.
17:50:26 1566 1567	 1492365026	 786550659	 165848.
17:50:26 1567 1568	 1492365026	 948393452	 161843.
17:50:27 1568 1569	 1492365027	 114184859	 165792.
17:50:27 1569 1570	 1492365027	 276010797	 161826.
17:50:27 1570 1571	 1492365027	 442090514	 166079.
17:50:27 1571 1572	 1492365027	 575160324	 133070.
17:50:27 1572 1573	 1492365027	 741067070	 165907.
17:50:27 1573 1574	 1492365027	 903639422	 162572.
17:50:28 1574 1575	 1492365028	 61530965	 157892.
17:50:28 1575 1576	 1492365028	 227487877	 165957.
17:50:28 1576 1577	 1492365028	 389124041	 161636.
17:50:28 1577 1578	 1492365028	 555026679	 165902.
17:50:28 1578 1579	 1492365028	 717490932	 162465.
17:50:28 1579 1580	 1492365028	 875484024	 157993.
17:50:29 1580 1581	 1492365029	 12653542	 137169.
17:50:29 1581 1582	 1492365029	 174463322	 161810.
17:50:29 1582 1583	 1492365029	 336625240	 162162.
17:50:29 1583 1584	 1492365029	 502698389	 166073.
17:50:29 1584 1585	 1492365029	 664606493	 161908.
17:50:29 1585 1586	 1492365029	 830540721	 165934.
17:50:29 1586 1587	 1492365029	 992415533	 161875.
17:50:30 1587 1588	 1492365030	 158357005	 165942.
17:50:30 1588 1589	 1492365030	 291552575	 133195.
17:50:30 1589 1590	 1492365030	 457336613	 165784.
17:50:30 1590 1591	 1492365030	 619098247	 161762.
17:50:30 1591 1592	 1492365030	 784904866	 165807.
17:50:30 1592 1593	 1492365030	 950772857	 165868.
17:50:31 1593 1594	 1492365031	 112631643	 161858.
17:50:31 1594 1595	 1492365031	 250018994	 137388.
17:50:31 1595 1596	 1492365031	 411834268	 161815.
17:50:31 1596 1597	 1492365031	 573882354	 162048.
17:50:31 1597 1598	 1492365031	 739635670	 165753.
17:50:31 1598 1599	 1492365031	 901338831	 161704.
17:50:32 1599 1600	 1492365032	 67344797	 166006.
17:50:32 1600 1601	 1492365032	 229194756	 161850.
17:50:32 1601 1602	 1492365032	 366379882	 137185.
17:50:32 1602 1603	 1492365032	 528248519	 161868.
17:50:32 1603 1604	 1492365032	 693989519	 165741.
17:50:32 1604 1605	 1492365032	 855760286	 161771.
17:50:33 1605 1606	 1492365033	 21727833	 165968.
17:50:33 1606 1607	 1492365033	 183687684	 161959.
17:50:33 1607 1608	 1492365033	 349599253	 165912.
17:50:33 1608 1609	 1492365033	 482736056	 133137.
17:50:33 1609 1610	 1492365033	 644722678	 161986.
17:50:33 1610 1611	 1492365033	 810586179	 165864.
17:50:33 1611 1612	 1492365033	 976490418	 165904.
17:50:34 1612 1613	 1492365034	 138307648	 161817.
17:50:34 1613 1614	 1492365034	 304076409	 165769.
17:50:34 1614 1615	 1492365034	 437204390	 133128.
17:50:34 1615 1616	 1492365034	 603130827	 165927.
17:50:34 1616 1617	 1492365034	 765011403	 161880.
17:50:34 1617 1618	 1492365034	 930989235	 165978.
17:50:35 1618 1619	 1492365035	 92944880	 161956.
17:50:35 1619 1620	 1492365035	 254791808	 161847.
17:50:35 1620 1621	 1492365035	 420780894	 165989.
17:50:35 1621 1622	 1492365035	 558127278	 137346.
17:50:35 1622 1623	 1492365035	 719911187	 161784.
17:50:35 1623 1624	 1492365035	 881864711	 161953.
17:50:36 1624 1625	 1492365036	 43966576	 162102.
17:50:36 1625 1626	 1492365036	 210006412	 166040.
17:50:36 1626 1627	 1492365036	 371644871	 161639.
17:50:36 1627 1628	 1492365036	 537544908	 165900.
17:50:36 1628 1629	 1492365036	 699351506	 161806.
17:50:36 1629 1630	 1492365036	 899266048	 199915.
17:50:37 1630 1631	 1492365037	 61279021	 162013.
17:50:37 1631 1632	 1492365037	 228613291	 167334.
17:50:37 1632 1633	 1492365037	 392255368	 163642.
17:50:37 1633 1634	 1492365037	 554434160	 162179.
17:50:37 1634 1635	 1492365037	 720371952	 165938.
17:50:37 1635 1636	 1492365037	 886286485	 165914.
17:50:38 1636 1637	 1492365038	 49603719	 163317.
17:50:38 1637 1638	 1492365038	 215629106	 166026.
17:50:38 1638 1639	 1492365038	 377673032	 162044.
17:50:38 1639 1640	 1492365038	 543704925	 166032.
17:50:38 1640 1641	 1492365038	 705723259	 162018.
17:50:38 1641 1642	 1492365038	 873541294	 167818.
17:50:39 1642 1643	 1492365039	 35500647	 161959.
17:50:39 1643 1644	 1492365039	 201476857	 165977.
17:50:39 1644 1645	 1492365039	 363416679	 161939.
17:50:39 1645 1646	 1492365039	 525278389	 161862.
17:50:39 1646 1647	 1492365039	 687142542	 161864.
17:50:39 1647 1648	 1492365039	 824403807	 137261.
17:50:39 1648 1649	 1492365039	 986376722	 161973.
17:50:40 1649 1650	 1492365040	 148190859	 161815.
17:50:40 1650 1651	 1492365040	 313931271	 165740.
17:50:40 1651 1652	 1492365040	 475834529	 161903.
17:50:40 1652 1653	 1492365040	 641818847	 165985.
17:50:40 1653 1654	 1492365040	 803702784	 161884.
17:50:40 1654 1655	 1492365040	 941024485	 137321.
17:50:41 1655 1656	 1492365041	 102940345	 161916.
17:50:41 1656 1657	 1492365041	 268972873	 166033.
17:50:41 1657 1658	 1492365041	 430776326	 161803.
17:50:41 1658 1659	 1492365041	 596850717	 166074.
17:50:41 1659 1660	 1492365041	 758707190	 161857.
17:50:41 1660 1661	 1492365041	 896092816	 137386.
17:50:42 1661 1662	 1492365042	 57970894	 161878.
17:50:42 1662 1663	 1492365042	 220061450	 162090.
17:50:42 1663 1664	 1492365042	 386015186	 165954.
17:50:42 1664 1665	 1492365042	 547877300	 161862.
17:50:42 1665 1666	 1492365042	 713929305	 166052.
17:50:42 1666 1667	 1492365042	 875870188	 161941.
17:50:43 1667 1668	 1492365043	 41754170	 165884.
17:50:43 1668 1669	 1492365043	 175080355	 133326.
17:50:43 1669 1670	 1492365043	 337592754	 162512.
17:50:43 1670 1671	 1492365043	 503672147	 166080.
17:50:43 1671 1672	 1492365043	 665445172	 161773.
17:50:43 1672 1673	 1492365043	 831306393	 165861.
17:50:43 1673 1674	 1492365043	 993311131	 162005.
17:50:44 1674 1675	 1492365044	 159237290	 165926.
17:50:44 1675 1676	 1492365044	 320971973	 161735.
17:50:44 1676 1677	 1492365044	 454011250	 133039.
17:50:44 1677 1678	 1492365044	 620102697	 166091.
17:50:44 1678 1679	 1492365044	 782104749	 162002.
17:50:44 1679 1680	 1492365044	 948715090	 166611.
17:50:45 1680 1681	 1492365045	 106810803	 158096.
17:50:45 1681 1682	 1492365045	 272844865	 166034.
17:50:45 1682 1683	 1492365045	 434520521	 161675.
17:50:45 1683 1684	 1492365045	 593154727	 158634.
17:50:45 1684 1685	 1492365045	 759186230	 166032.
17:50:45 1685 1686	 1492365045	 921252867	 162067.
17:50:46 1686 1687	 1492365046	 58583364	 137330.
17:50:46 1687 1688	 1492365046	 220441592	 161858.
17:50:46 1688 1689	 1492365046	 386403245	 165962.
17:50:46 1689 1690	 1492365046	 548402676	 161999.
17:50:46 1690 1691	 1492365046	 714533767	 166131.
17:50:46 1691 1692	 1492365046	 876612804	 162080.
17:50:47 1692 1693	 1492365047	 42586919	 165974.
17:50:47 1693 1694	 1492365047	 204535363	 161948.
17:50:47 1694 1695	 1492365047	 337762288	 133227.
17:50:47 1695 1696	 1492365047	 503808267	 166046.
17:50:47 1696 1697	 1492365047	 665825888	 162018.
17:50:47 1697 1698	 1492365047	 831733102	 165907.
17:50:47 1698 1699	 1492365047	 993798202	 162065.
17:50:48 1699 1700	 1492365048	 159684510	 165886.
17:50:48 1700 1701	 1492365048	 321675910	 161992.
17:50:48 1701 1702	 1492365048	 487625067	 165949.
17:50:48 1702 1703	 1492365048	 620972913	 133348.
17:50:48 1703 1704	 1492365048	 786987020	 166014.
17:50:48 1704 1705	 1492365048	 948836573	 161849.
17:50:49 1705 1706	 1492365049	 114686659	 165850.
17:50:49 1706 1707	 1492365049	 276429260	 161743.
17:50:49 1707 1708	 1492365049	 442256692	 165827.
17:50:49 1708 1709	 1492365049	 604076679	 161820.
17:50:49 1709 1710	 1492365049	 741417392	 137341.
17:50:49 1710 1711	 1492365049	 903232373	 161815.
17:50:50 1711 1712	 1492365050	 69304976	 166073.
17:50:50 1712 1713	 1492365050	 235317185	 166012.
17:50:50 1713 1714	 1492365050	 397174567	 161857.
17:50:50 1714 1715	 1492365050	 563015332	 165841.
17:50:50 1715 1716	 1492365050	 724736199	 161721.
17:50:50 1716 1717	 1492365050	 857775792	 133039.
17:50:51 1717 1718	 1492365051	 23592032	 165817.
17:50:51 1718 1719	 1492365051	 185474044	 161882.
17:50:51 1719 1720	 1492365051	 351426473	 165952.
17:50:51 1720 1721	 1492365051	 517355131	 165929.
17:50:51 1721 1722	 1492365051	 679181595	 161826.
17:50:51 1722 1723	 1492365051	 812343735	 133162.
17:50:51 1723 1724	 1492365051	 978418718	 166075.
17:50:52 1724 1725	 1492365052	 140373709	 161955.
17:50:52 1725 1726	 1492365052	 306123097	 165750.
17:50:52 1726 1727	 1492365052	 467926631	 161803.
17:50:52 1727 1728	 1492365052	 633782126	 165856.
17:50:52 1728 1729	 1492365052	 766772515	 132990.
17:50:52 1729 1730	 1492365052	 932686833	 165915.
17:50:53 1730 1731	 1492365053	 94847642	 162160.
17:50:53 1731 1732	 1492365053	 261046204	 166199.
17:50:53 1732 1733	 1492365053	 422908197	 161862.
17:50:53 1733 1734	 1492365053	 588786372	 165878.
17:50:53 1734 1735	 1492365053	 750627805	 161842.
17:50:53 1735 1736	 1492365053	 916479005	 165851.
17:50:54 1736 1737	 1492365054	 49725981	 133247.
17:50:54 1737 1738	 1492365054	 215595726	 165869.
17:50:54 1738 1739	 1492365054	 377361348	 161766.
17:50:54 1739 1740	 1492365054	 543118173	 165757.
17:50:54 1740 1741	 1492365054	 704979692	 161862.
17:50:54 1741 1742	 1492365054	 867105437	 162125.
17:50:54 1742 1743	 1492365055	 4292487	 137187.
17:50:55 1743 1744	 1492365055	 166185273	 161893.
17:50:55 1744 1745	 1492365055	 333032885	 166848.
17:50:55 1745 1746	 1492365055	 490862444	 157829.
17:50:55 1746 1747	 1492365055	 652785696	 161923.
17:50:55 1747 1748	 1492365055	 818634073	 165849.
17:50:55 1748 1749	 1492365055	 980435301	 161801.
17:50:56 1749 1750	 1492365056	 146397623	 165962.
17:50:56 1750 1751	 1492365056	 308342018	 161945.
17:50:56 1751 1752	 1492365056	 441569416	 133227.
17:50:56 1752 1753	 1492365056	 607419082	 165850.
17:50:56 1753 1754	 1492365056	 769263903	 161845.
17:50:56 1754 1755	 1492365056	 931354620	 162090.
17:50:57 1755 1756	 1492365057	 97177482	 165823.
17:50:57 1756 1757	 1492365057	 259074843	 161898.
17:50:57 1757 1758	 1492365057	 424949729	 165874.
17:50:57 1758 1759	 1492365057	 586772387	 161823.
17:50:57 1759 1760	 1492365057	 723936456	 137164.
17:50:57 1760 1761	 1492365057	 882203312	 158267.
17:50:58 1761 1762	 1492365058	 47957703	 165754.
17:50:58 1762 1763	 1492365058	 209819057	 161862.
17:50:58 1763 1764	 1492365058	 371749154	 161930.
17:50:58 1764 1765	 1492365058	 537650568	 165901.
17:50:58 1765 1766	 1492365058	 703603981	 165954.
17:50:58 1766 1767	 1492365058	 836960444	 133356.
17:50:58 1767 1768	 1492365058	 998768787	 161808.
17:50:59 1768 1769	 1492365059	 164554108	 165786.
17:50:59 1769 1770	 1492365059	 326388876	 161835.
17:50:59 1770 1771	 1492365059	 492310367	 165921.
17:50:59 1771 1772	 1492365059	 654234643	 161924.
17:50:59 1772 1773	 1492365059	 820194146	 165960.
17:50:59 1773 1774	 1492365059	 953391208	 133197.
17:51:00 1774 1775	 1492365060	 115207774	 161816.
17:51:00 1775 1776	 1492365060	 281147030	 165940.
17:51:00 1776 1777	 1492365060	 446979116	 165832.
17:51:00 1777 1778	 1492365060	 609095761	 162116.
17:51:00 1778 1779	 1492365060	 770971852	 161877.
17:51:00 1779 1780	 1492365060	 933770944	 162799.
17:51:01 1780 1781	 1492365061	 91749747	 157978.
17:51:01 1781 1782	 1492365061	 257761038	 166012.
17:51:01 1782 1783	 1492365061	 419585222	 161824.
17:51:01 1783 1784	 1492365061	 556450247	 136865.
17:51:01 1784 1785	 1492365061	 718498709	 162048.
17:51:01 1785 1786	 1492365061	 880610055	 162112.
17:51:02 1786 1787	 1492365062	 46516583	 165906.
17:51:02 1787 1788	 1492365062	 212352104	 165836.
17:51:02 1788 1789	 1492365062	 374288353	 161936.
17:51:02 1789 1790	 1492365062	 511579499	 137291.
17:51:02 1790 1791	 1492365062	 673935427	 162356.
17:51:02 1791 1792	 1492365062	 835832025	 161897.
17:51:02 1792 1793	 1492365063	 1722999	 165891.
17:51:03 1793 1794	 1492365063	 163634873	 161912.
17:51:03 1794 1795	 1492365063	 329520219	 165885.
17:51:03 1795 1796	 1492365063	 491221675	 161701.
17:51:03 1796 1797	 1492365063	 628382805	 137162.
17:51:03 1797 1798	 1492365063	 790258805	 161876.
17:51:03 1798 1799	 1492365063	 956015255	 165756.
17:51:04 1799 1800	 1492365064	 117860238	 161845.
17:51:04 1800 1801	 1492365064	 283811840	 165952.
17:51:04 1801 1802	 1492365064	 449686236	 165874.
17:51:04 1802 1803	 1492365064	 582788419	 133102.
17:51:04 1803 1804	 1492365064	 748960583	 166172.
17:51:04 1804 1805	 1492365064	 911168716	 162208.
17:51:05 1805 1806	 1492365065	 73171803	 162004.
17:51:05 1806 1807	 1492365065	 239213862	 166042.
17:51:05 1807 1808	 1492365065	 401251815	 162038.
17:51:05 1808 1809	 1492365065	 567262896	 166011.
17:51:05 1809 1810	 1492365065	 729255409	 161992.
17:51:05 1810 1811	 1492365065	 862634980	 133380.
17:51:06 1811 1812	 1492365066	 28472809	 165838.
17:51:06 1812 1813	 1492365066	 190396224	 161923.
17:51:06 1813 1814	 1492365066	 356368004	 165972.
17:51:06 1814 1815	 1492365066	 518546627	 162178.
17:51:06 1815 1816	 1492365066	 684689092	 166143.
17:51:06 1816 1817	 1492365066	 847110024	 162421.
17:51:07 1817 1818	 1492365067	 9021066	 161911.
17:51:07 1818 1819	 1492365067	 146438444	 137417.
17:51:07 1819 1820	 1492365067	 308390440	 161952.
17:51:07 1820 1821	 1492365067	 474236411	 165846.
17:51:07 1821 1822	 1492365067	 636219281	 161983.
17:51:07 1822 1823	 1492365067	 802199154	 165980.
17:51:07 1823 1824	 1492365067	 964537903	 162339.
17:51:08 1824 1825	 1492365068	 126506139	 161968.
17:51:08 1825 1826	 1492365068	 259799734	 133293.
17:51:08 1826 1827	 1492365068	 425938590	 166139.
17:51:08 1827 1828	 1492365068	 591958265	 166020.
17:51:08 1828 1829	 1492365068	 753890448	 161932.
17:51:08 1829 1830	 1492365068	 915733302	 161843.
17:51:09 1830 1831	 1492365069	 81907619	 166174.
17:51:09 1831 1832	 1492365069	 248026336	 166119.
17:51:09 1832 1833	 1492365069	 381199075	 133173.
17:51:09 1833 1834	 1492365069	 547148268	 165949.
17:51:09 1834 1835	 1492365069	 708957221	 161809.
17:51:09 1835 1836	 1492365069	 874897453	 165940.
17:51:10 1836 1837	 1492365070	 36877056	 161980.
17:51:10 1837 1838	 1492365070	 202941399	 166064.
17:51:10 1838 1839	 1492365070	 364857891	 161917.
17:51:10 1839 1840	 1492365070	 502156975	 137299.
17:51:10 1840 1841	 1492365070	 664199676	 162043.
17:51:10 1841 1842	 1492365070	 830265686	 166065.
17:51:10 1842 1843	 1492365070	 988710891	 158446.
17:51:11 1843 1844	 1492365071	 150666804	 161956.
17:51:11 1844 1845	 1492365071	 316716761	 166049.
17:51:11 1845 1846	 1492365071	 482814269	 166098.
17:51:11 1846 1847	 1492365071	 615996261	 133182.
17:51:11 1847 1848	 1492365071	 778038876	 162043.
17:51:11 1848 1849	 1492365071	 943967543	 165928.
17:51:12 1849 1850	 1492365072	 106142370	 162175.
17:51:12 1850 1851	 1492365072	 272276267	 166134.
17:51:12 1851 1852	 1492365072	 438162848	 165887.
17:51:12 1852 1853	 1492365072	 600124691	 161961.
17:51:12 1853 1854	 1492365072	 766065522	 165941.
17:51:12 1854 1855	 1492365072	 899220931	 133156.
17:51:13 1855 1856	 1492365073	 65224672	 166003.
17:51:13 1856 1857	 1492365073	 227125101	 161901.
17:51:13 1857 1858	 1492365073	 389017114	 161892.
17:51:13 1858 1859	 1492365073	 555128989	 166112.
17:51:13 1859 1860	 1492365073	 717005927	 161877.
17:51:13 1860 1861	 1492365073	 882995906	 165990.
17:51:14 1861 1862	 1492365074	 16173216	 133177.
17:51:14 1862 1863	 1492365074	 178070989	 161898.
17:51:14 1863 1864	 1492365074	 344109358	 166038.
17:51:14 1864 1865	 1492365074	 505912657	 161803.
17:51:14 1865 1866	 1492365074	 671817842	 165906.
17:51:14 1866 1867	 1492365074	 833615486	 161797.
17:51:14 1867 1868	 1492365074	 999806266	 166191.
17:51:15 1868 1869	 1492365075	 162164329	 162358.
17:51:15 1869 1870	 1492365075	 299394993	 137231.
17:51:15 1870 1871	 1492365075	 461491108	 162096.
17:51:15 1871 1872	 1492365075	 627182047	 165691.
17:51:15 1872 1873	 1492365075	 789060337	 161878.
17:51:15 1873 1874	 1492365075	 955033839	 165974.
17:51:16 1874 1875	 1492365076	 116934327	 161900.
17:51:16 1875 1876	 1492365076	 282817307	 165883.
17:51:16 1876 1877	 1492365076	 415936642	 133119.
17:51:16 1877 1878	 1492365076	 581867953	 165932.
17:51:16 1878 1879	 1492365076	 743727132	 161859.
17:51:16 1879 1880	 1492365076	 909687252	 165960.
17:51:17 1880 1881	 1492365077	 71562179	 161875.
17:51:17 1881 1882	 1492365077	 237549152	 165987.
17:51:17 1882 1883	 1492365077	 399421783	 161872.
