00:49:58    0 Step	 time(s)	 time(ns)	 delta(ms)
00:49:58    0 1	 1492649398	 762270529	 933.
00:49:58    1 2	 1492649398	 924038780	 161769.
00:49:59    2 3	 1492649399	 90230708	 166191.
00:49:59    3 4	 1492649399	 252121313	 161891.
00:49:59    4 5	 1492649399	 417894759	 165773.
00:49:59    5 6	 1492649399	 579606206	 161712.
00:49:59    6 7	 1492649399	 745390280	 165784.
00:49:59    7 8	 1492649399	 907165852	 161776.
00:50:00    8 9	 1492649400	 44246029	 137080.
00:50:00    9 10	 1492649400	 205976825	 161731.
00:50:00   10 11	 1492649400	 371851384	 165874.
00:50:00   11 12	 1492649400	 533587320	 161736.
00:50:00   12 13	 1492649400	 699451381	 165864.
00:50:00   13 14	 1492649400	 861246242	 161795.
00:50:01   14 15	 1492649401	 27089180	 165843.
00:50:01   15 16	 1492649401	 160185306	 133096.
00:50:01   16 17	 1492649401	 322048033	 161863.
00:50:01   17 18	 1492649401	 488007089	 165959.
00:50:01   18 19	 1492649401	 649824544	 161817.
00:50:01   19 20	 1492649401	 815842569	 166018.
00:50:01   20 21	 1492649401	 977628863	 161787.
00:50:02   21 22	 1492649402	 143494345	 165865.
00:50:02   22 23	 1492649402	 305329502	 161835.
00:50:02   23 24	 1492649402	 442530030	 137201.
00:50:02   24 25	 1492649402	 604561129	 162031.
00:50:02   25 26	 1492649402	 766490817	 161930.
00:50:02   26 27	 1492649402	 932342201	 165851.
00:50:03   27 28	 1492649403	 94205761	 161863.
00:50:03   28 29	 1492649403	 260242829	 166038.
00:50:03   29 30	 1492649403	 422149713	 161906.
00:50:03   30 31	 1492649403	 588094965	 165946.
00:50:03   31 32	 1492649403	 721201421	 133106.
00:50:03   32 33	 1492649403	 883240118	 162039.
00:50:04   33 34	 1492649404	 49251584	 166011.
00:50:04   34 35	 1492649404	 211148100	 161897.
00:50:04   35 36	 1492649404	 377246131	 166098.
00:50:04   36 37	 1492649404	 539315185	 162069.
00:50:04   37 38	 1492649404	 701365846	 162051.
00:50:04   38 39	 1492649404	 867227845	 165862.
00:50:05   39 40	 1492649405	 33069084	 165841.
00:50:05   40 41	 1492649405	 166149114	 133080.
00:50:05   41 42	 1492649405	 328035740	 161886.
00:50:05   42 43	 1492649405	 494105050	 166070.
00:50:05   43 44	 1492649405	 655978135	 161873.
00:50:05   44 45	 1492649405	 821817115	 165839.
00:50:05   45 46	 1492649405	 987923641	 166107.
00:50:06   46 47	 1492649406	 149867011	 161943.
00:50:06   47 48	 1492649406	 283087030	 133220.
00:50:06   48 49	 1492649406	 445348651	 162261.
00:50:06   49 50	 1492649406	 611372814	 166025.
00:50:06   50 51	 1492649406	 773295388	 161922.
00:50:06   51 52	 1492649406	 935041769	 161746.
00:50:07   52 53	 1492649407	 100924401	 165883.
00:50:07   53 54	 1492649407	 262757834	 161834.
00:50:07   54 55	 1492649407	 428459203	 165701.
00:50:07   55 56	 1492649407	 561617376	 133158.
00:50:07   56 57	 1492649407	 727662997	 166046.
00:50:07   57 58	 1492649407	 893647916	 165985.
00:50:08   58 59	 1492649408	 55626843	 161979.
00:50:08   59 60	 1492649408	 217693159	 162066.
00:50:08   60 61	 1492649408	 384314060	 166621.
00:50:08   61 62	 1492649408	 542282135	 157968.
00:50:08   62 63	 1492649408	 707937956	 165656.
00:50:08   63 64	 1492649408	 869830515	 161892.
00:50:09   64 65	 1492649409	 35737762	 165907.
00:50:09   65 66	 1492649409	 168815126	 133078.
00:50:09   66 67	 1492649409	 334619557	 165804.
00:50:09   67 68	 1492649409	 496446049	 161827.
00:50:09   68 69	 1492649409	 662455735	 166010.
00:50:09   69 70	 1492649409	 825063077	 162607.
00:50:09   70 71	 1492649409	 986964939	 161902.
00:50:10   71 72	 1492649410	 148822352	 161857.
00:50:10   72 73	 1492649410	 310646091	 161824.
00:50:10   73 74	 1492649410	 476507945	 165862.
00:50:10   74 75	 1492649410	 609644248	 133136.
00:50:10   75 76	 1492649410	 775508530	 165864.
00:50:10   76 77	 1492649410	 937255939	 161748.
00:50:11   77 78	 1492649411	 99200746	 161944.
00:50:11   78 79	 1492649411	 265206450	 166006.
00:50:11   79 80	 1492649411	 427119223	 161913.
00:50:11   80 81	 1492649411	 593022771	 165903.
00:50:11   81 82	 1492649411	 754845237	 161823.
00:50:11   82 83	 1492649411	 892117598	 137272.
00:50:12   83 84	 1492649412	 53895077	 161778.
00:50:12   84 85	 1492649412	 216002135	 162107.
00:50:12   85 86	 1492649412	 381953237	 165951.
00:50:12   86 87	 1492649412	 543701331	 161748.
00:50:12   87 88	 1492649412	 705497360	 161796.
00:50:12   88 89	 1492649412	 871225547	 165728.
00:50:13   89 90	 1492649413	 37196344	 165971.
00:50:13   90 91	 1492649413	 198924307	 161728.
00:50:13   91 92	 1492649413	 332017061	 133093.
00:50:13   92 93	 1492649413	 497944572	 165927.
00:50:13   93 94	 1492649413	 659871232	 161927.
00:50:13   94 95	 1492649413	 826084704	 166213.
00:50:13   95 96	 1492649413	 987839946	 161756.
00:50:14   96 97	 1492649414	 153765703	 165925.
00:50:14   97 98	 1492649414	 315496055	 161731.
00:50:14   98 99	 1492649414	 452814391	 137318.
00:50:14   99 100	 1492649414	 614682669	 161868.
00:50:14  100 101	 1492649414	 780647450	 165965.
00:50:14  101 102	 1492649414	 946687429	 166040.
00:50:15  102 103	 1492649415	 108686471	 161999.
00:50:15  103 104	 1492649415	 274583734	 165897.
00:50:15  104 105	 1492649415	 436329449	 161746.
00:50:15  105 106	 1492649415	 569414923	 133086.
00:50:15  106 107	 1492649415	 735173667	 165758.
00:50:15  107 108	 1492649415	 896902258	 161729.
00:50:16  108 109	 1492649416	 62804140	 165902.
00:50:16  109 110	 1492649416	 224630882	 161827.
00:50:16  110 111	 1492649416	 386909705	 162278.
00:50:16  111 112	 1492649416	 548762706	 161853.
00:50:16  112 113	 1492649416	 710553186	 161791.
00:50:16  113 114	 1492649416	 876414216	 165861.
00:50:17  114 115	 1492649417	 9468342	 133054.
00:50:17  115 116	 1492649417	 175328765	 165861.
00:50:17  116 117	 1492649417	 337094845	 161766.
00:50:17  117 118	 1492649417	 502997658	 165902.
00:50:17  118 119	 1492649417	 661186786	 158190.
00:50:17  119 120	 1492649417	 827221962	 166035.
00:50:17  120 121	 1492649417	 988997577	 161775.
00:50:18  121 122	 1492649418	 154736115	 165739.
00:50:18  122 123	 1492649418	 287889408	 133153.
00:50:18  123 124	 1492649418	 453671555	 165782.
00:50:18  124 125	 1492649418	 615317395	 161646.
00:50:18  125 126	 1492649418	 781400822	 166084.
00:50:18  126 127	 1492649418	 943233891	 161833.
00:50:19  127 128	 1492649419	 105132680	 161898.
00:50:19  128 129	 1492649419	 270859080	 165727.
00:50:19  129 130	 1492649419	 404024786	 133165.
00:50:19  130 131	 1492649419	 569764699	 165741.
00:50:19  131 132	 1492649419	 731579432	 161814.
00:50:19  132 133	 1492649419	 897230328	 165651.
00:50:20  133 134	 1492649420	 58941068	 161711.
00:50:20  134 135	 1492649420	 224813915	 165873.
00:50:20  135 136	 1492649420	 386479438	 161665.
00:50:20  136 137	 1492649420	 523609564	 137130.
00:50:20  137 138	 1492649420	 685250054	 161641.
00:50:20  138 139	 1492649420	 847013773	 161763.
00:50:21  139 140	 1492649421	 12779266	 165766.
00:50:21  140 141	 1492649421	 174558146	 161779.
00:50:21  141 142	 1492649421	 340280672	 165722.
00:50:21  142 143	 1492649421	 501848973	 161569.
00:50:21  143 144	 1492649421	 635151106	 133302.
00:50:21  144 145	 1492649421	 800985610	 165834.
00:50:21  145 146	 1492649421	 962724390	 161739.
00:50:22  146 147	 1492649422	 124408742	 161684.
00:50:22  147 148	 1492649422	 290166427	 165758.
00:50:22  148 149	 1492649422	 455944816	 165779.
00:50:22  149 150	 1492649422	 617699021	 161754.
00:50:22  150 151	 1492649422	 779708659	 162009.
00:50:22  151 152	 1492649422	 912820134	 133112.
00:50:23  152 153	 1492649423	 74561104	 161741.
00:50:23  153 154	 1492649423	 240316601	 165755.
00:50:23  154 155	 1492649423	 402071041	 161755.
00:50:23  155 156	 1492649423	 567784075	 165713.
00:50:23  156 157	 1492649423	 729388408	 161604.
00:50:23  157 158	 1492649423	 895179217	 165791.
00:50:24  158 159	 1492649424	 28330665	 133151.
00:50:24  159 160	 1492649424	 194008270	 165678.
00:50:24  160 161	 1492649424	 355826381	 161818.
00:50:24  161 162	 1492649424	 521775830	 165950.
00:50:24  162 163	 1492649424	 683472879	 161697.
00:50:24  163 164	 1492649424	 849167267	 165694.
00:50:25  164 165	 1492649425	 10744480	 161577.
00:50:25  165 166	 1492649425	 143813160	 133069.
00:50:25  166 167	 1492649425	 309609126	 165796.
00:50:25  167 168	 1492649425	 475378990	 165770.
00:50:25  168 169	 1492649425	 637271725	 161892.
00:50:25  169 170	 1492649425	 799291512	 162020.
00:50:25  170 171	 1492649425	 965096136	 165805.
00:50:26  171 172	 1492649426	 126735408	 161639.
00:50:26  172 173	 1492649426	 288502638	 161767.
00:50:26  173 174	 1492649426	 425652648	 137150.
00:50:26  174 175	 1492649426	 587329858	 161678.
00:50:26  175 176	 1492649426	 753914281	 166584.
00:50:26  176 177	 1492649426	 911594396	 157680.
00:50:27  177 178	 1492649427	 77547799	 165954.
00:50:27  178 179	 1492649427	 239210785	 161662.
00:50:27  179 180	 1492649427	 404959081	 165749.
00:50:27  180 181	 1492649427	 566724476	 161765.
00:50:27  181 182	 1492649427	 699739331	 133015.
00:50:27  182 183	 1492649427	 865322017	 165583.
00:50:28  183 184	 1492649428	 26945090	 161623.
00:50:28  184 185	 1492649428	 192639121	 165694.
00:50:28  185 186	 1492649428	 354411245	 161772.
00:50:28  186 187	 1492649428	 516097445	 161686.
00:50:28  187 188	 1492649428	 681714668	 165617.
00:50:28  188 189	 1492649428	 814850450	 133136.
00:50:28  189 190	 1492649428	 980558186	 165708.
00:50:29  190 191	 1492649429	 142124007	 161566.
00:50:29  191 192	 1492649429	 303705643	 161581.
00:50:29  192 193	 1492649429	 469403890	 165699.
00:50:29  193 194	 1492649429	 630972322	 161568.
00:50:29  194 195	 1492649429	 796647734	 165675.
00:50:29  195 196	 1492649429	 929661938	 133015.
00:50:30  196 197	 1492649430	 91295744	 161633.
00:50:30  197 198	 1492649430	 257050088	 165755.
00:50:30  198 199	 1492649430	 418731111	 161681.
00:50:30  199 200	 1492649430	 584390918	 165660.
00:50:30  200 201	 1492649430	 746044207	 161653.
00:50:30  201 202	 1492649430	 908180154	 162136.
00:50:31  202 203	 1492649431	 69990147	 161810.
00:50:31  203 204	 1492649431	 207176089	 137186.
00:50:31  204 205	 1492649431	 368907027	 161731.
00:50:31  205 206	 1492649431	 530502173	 161595.
00:50:31  206 207	 1492649431	 696286165	 165784.
00:50:31  207 208	 1492649431	 857906579	 161620.
00:50:32  208 209	 1492649432	 23513046	 165607.
00:50:32  209 210	 1492649432	 185224337	 161711.
00:50:32  210 211	 1492649432	 322279992	 137056.
00:50:32  211 212	 1492649432	 484122189	 161842.
00:50:32  212 213	 1492649432	 645962475	 161840.
00:50:32  213 214	 1492649432	 811867799	 165906.
00:50:32  214 215	 1492649432	 973480145	 161612.
00:50:33  215 216	 1492649433	 139174514	 165694.
00:50:33  216 217	 1492649433	 300901064	 161727.
00:50:33  217 218	 1492649433	 433844476	 132943.
00:50:33  218 219	 1492649433	 599573364	 165729.
00:50:33  219 220	 1492649433	 761343584	 161770.
00:50:33  220 221	 1492649433	 927135910	 165793.
00:50:34  221 222	 1492649434	 88748588	 161612.
00:50:34  222 223	 1492649434	 254784403	 166036.
00:50:34  223 224	 1492649434	 412502616	 157718.
00:50:34  224 225	 1492649434	 578104857	 165603.
00:50:34  225 226	 1492649434	 711207913	 133103.
00:50:34  226 227	 1492649434	 877104041	 165896.
00:50:35  227 228	 1492649435	 38747508	 161643.
00:50:35  228 229	 1492649435	 200508025	 161761.
00:50:35  229 230	 1492649435	 366257192	 165749.
00:50:35  230 231	 1492649435	 527955558	 161698.
00:50:35  231 232	 1492649435	 693615518	 165660.
00:50:35  232 233	 1492649435	 826638850	 133024.
00:50:35  233 234	 1492649435	 992362158	 165723.
00:50:36  234 235	 1492649436	 153903543	 161541.
00:50:36  235 236	 1492649436	 319568685	 165665.
00:50:36  236 237	 1492649436	 481367241	 161799.
00:50:36  237 238	 1492649436	 647097334	 165730.
00:50:36  238 239	 1492649436	 808754461	 161657.
00:50:36  239 240	 1492649436	 941810289	 133056.
00:50:37  240 241	 1492649437	 107472176	 165662.
00:50:37  241 242	 1492649437	 269126135	 161654.
00:50:37  242 243	 1492649437	 434893663	 165767.
00:50:37  243 244	 1492649437	 596395191	 161502.
00:50:37  244 245	 1492649437	 762075187	 165680.
00:50:37  245 246	 1492649437	 895094451	 133019.
00:50:38  246 247	 1492649438	 56696778	 161602.
00:50:38  247 248	 1492649438	 222132108	 165436.
00:50:38  248 249	 1492649438	 383643250	 161511.
00:50:38  249 250	 1492649438	 549203123	 165560.
00:50:38  250 251	 1492649438	 710808785	 161606.
00:50:38  251 252	 1492649438	 847794182	 136985.
00:50:39  252 253	 1492649439	 9472105	 161678.
00:50:39  253 254	 1492649439	 171063815	 161592.
00:50:39  254 255	 1492649439	 336736936	 165673.
00:50:39  255 256	 1492649439	 502539655	 165802.
00:50:39  256 257	 1492649439	 664312280	 161773.
00:50:39  257 258	 1492649439	 797441633	 133129.
00:50:39  258 259	 1492649439	 963078754	 165637.
00:50:40  259 260	 1492649440	 124614775	 161536.
00:50:40  260 261	 1492649440	 290461041	 165847.
00:50:40  261 262	 1492649440	 452162818	 161702.
00:50:40  262 263	 1492649440	 617776443	 165613.
00:50:40  263 264	 1492649440	 779544999	 161769.
00:50:40  264 265	 1492649440	 916721489	 137176.
00:50:41  265 266	 1492649441	 78270938	 161550.
00:50:41  266 267	 1492649441	 239854927	 161584.
00:50:41  267 268	 1492649441	 405412153	 165557.
00:50:41  268 269	 1492649441	 566829896	 161418.
00:50:41  269 270	 1492649441	 732710698	 165880.
00:50:41  270 271	 1492649441	 894233813	 161524.
00:50:42  271 272	 1492649442	 27101732	 132867.
00:50:42  272 273	 1492649442	 193057698	 165956.
00:50:42  273 274	 1492649442	 354759220	 161702.
00:50:42  274 275	 1492649442	 520416794	 165657.
00:50:42  275 276	 1492649442	 682141107	 161725.
00:50:42  276 277	 1492649442	 847753825	 165613.
00:50:43  277 278	 1492649443	 9392970	 161639.
00:50:43  278 279	 1492649443	 142298884	 132906.
00:50:43  279 280	 1492649443	 308040225	 165741.
00:50:43  280 281	 1492649443	 469764291	 161724.
00:50:43  281 282	 1492649443	 635567990	 165804.
00:50:43  282 283	 1492649443	 793984873	 158417.
00:50:43  283 284	 1492649443	 955811387	 161826.
00:50:44  284 285	 1492649444	 121504242	 165693.
00:50:44  285 286	 1492649444	 283226207	 161722.
00:50:44  286 287	 1492649444	 420379016	 137153.
00:50:44  287 288	 1492649444	 582192463	 161813.
00:50:44  288 289	 1492649444	 743913228	 161721.
00:50:44  289 290	 1492649444	 909659041	 165746.
00:50:45  290 291	 1492649445	 71252552	 161593.
00:50:45  291 292	 1492649445	 237004580	 165752.
00:50:45  292 293	 1492649445	 398841505	 161837.
00:50:45  293 294	 1492649445	 564656719	 165815.
00:50:45  294 295	 1492649445	 697637334	 132981.
00:50:45  295 296	 1492649445	 859284741	 161647.
00:50:46  296 297	 1492649446	 25018400	 165734.
00:50:46  297 298	 1492649446	 186608379	 161590.
00:50:46  298 299	 1492649446	 352375209	 165767.
00:50:46  299 300	 1492649446	 514057657	 161682.
00:50:46  300 301	 1492649446	 675954687	 161897.
00:50:46  301 302	 1492649446	 813104807	 137150.
00:50:46  302 303	 1492649446	 974905825	 161802.
00:50:47  303 304	 1492649447	 140540450	 165634.
00:50:47  304 305	 1492649447	 302444740	 161904.
00:50:47  305 306	 1492649447	 464048407	 161604.
00:50:47  306 307	 1492649447	 629718857	 165671.
00:50:47  307 308	 1492649447	 791433073	 161714.
00:50:47  308 309	 1492649447	 957180437	 165747.
00:50:48  309 310	 1492649448	 90201949	 133022.
00:50:48  310 311	 1492649448	 251753505	 161551.
00:50:48  311 312	 1492649448	 417495852	 165743.
00:50:48  312 313	 1492649448	 579010154	 161514.
00:50:48  313 314	 1492649448	 744686745	 165676.
00:50:48  314 315	 1492649448	 906372226	 161686.
00:50:49  315 316	 1492649449	 43520369	 137148.
00:50:49  316 317	 1492649449	 205203896	 161684.
00:50:49  317 318	 1492649449	 370991385	 165787.
00:50:49  318 319	 1492649449	 532703496	 161712.
00:50:49  319 320	 1492649449	 698503145	 165800.
00:50:49  320 321	 1492649449	 860217357	 161714.
00:50:50  321 322	 1492649450	 25683978	 165467.
00:50:50  322 323	 1492649450	 187490088	 161806.
00:50:50  323 324	 1492649450	 320458980	 132969.
00:50:50  324 325	 1492649450	 486390717	 165931.
00:50:50  325 326	 1492649450	 648039671	 161649.
00:50:50  326 327	 1492649450	 813888841	 165850.
00:50:50  327 328	 1492649450	 975526598	 161637.
00:50:51  328 329	 1492649451	 141195360	 165669.
00:50:51  329 330	 1492649451	 299227143	 158032.
00:50:51  330 331	 1492649451	 464994374	 165767.
00:50:51  331 332	 1492649451	 598129859	 133136.
00:50:51  332 333	 1492649451	 764087551	 165957.
00:50:51  333 334	 1492649451	 925644723	 161557.
00:50:52  334 335	 1492649452	 91425202	 165781.
00:50:52  335 336	 1492649452	 253193258	 161768.
00:50:52  336 337	 1492649452	 419021660	 165828.
00:50:52  337 338	 1492649452	 580902132	 161881.
00:50:52  338 339	 1492649452	 713993957	 133092.
00:50:52  339 340	 1492649452	 879942424	 165948.
00:50:53  340 341	 1492649453	 41825054	 161883.
00:50:53  341 342	 1492649453	 207608072	 165783.
00:50:53  342 343	 1492649453	 369447280	 161839.
00:50:53  343 344	 1492649453	 535278774	 165832.
00:50:53  344 345	 1492649453	 697294616	 162015.
00:50:53  345 346	 1492649453	 858969522	 161675.
00:50:54  346 347	 1492649454	 24981715	 166012.
00:50:54  347 348	 1492649454	 158074415	 133093.
00:50:54  348 349	 1492649454	 319878176	 161804.
00:50:54  349 350	 1492649454	 485858243	 165980.
00:50:54  350 351	 1492649454	 647572581	 161714.
00:50:54  351 352	 1492649454	 809924411	 162352.
00:50:54  352 353	 1492649454	 972631353	 162707.
00:50:55  353 354	 1492649455	 130218187	 157587.
00:50:55  354 355	 1492649455	 296041352	 165823.
00:50:55  355 356	 1492649455	 454206923	 158166.
00:50:55  356 357	 1492649455	 619998496	 165791.
00:50:55  357 358	 1492649455	 781775621	 161777.
00:50:55  358 359	 1492649455	 943672873	 161898.
00:50:56  359 360	 1492649456	 80841757	 137168.
00:50:56  360 361	 1492649456	 242602309	 161761.
00:50:56  361 362	 1492649456	 408571264	 165969.
00:50:56  362 363	 1492649456	 570482776	 161911.
00:50:56  363 364	 1492649456	 736245076	 165763.
00:50:56  364 365	 1492649456	 898082412	 161837.
00:50:57  365 366	 1492649457	 59914689	 161832.
00:50:57  366 367	 1492649457	 225464858	 165551.
00:50:57  367 368	 1492649457	 358393791	 132929.
00:50:57  368 369	 1492649457	 524241000	 165847.
00:50:57  369 370	 1492649457	 686164158	 161923.
00:50:57  370 371	 1492649457	 847897829	 161734.
00:50:58  371 372	 1492649458	 13758149	 165860.
00:50:58  372 373	 1492649458	 179731609	 165973.
00:50:58  373 374	 1492649458	 341582409	 161851.
00:50:58  374 375	 1492649458	 507679949	 166098.
00:50:58  375 376	 1492649458	 669591779	 161912.
00:50:58  376 377	 1492649458	 802868098	 133276.
00:50:58  377 378	 1492649458	 968732715	 165864.
00:50:59  378 379	 1492649459	 130635048	 161903.
00:50:59  379 380	 1492649459	 292659042	 162024.
00:50:59  380 381	 1492649459	 458653234	 165994.
00:50:59  381 382	 1492649459	 620708134	 162055.
00:50:59  382 383	 1492649459	 782638548	 161930.
00:50:59  383 384	 1492649459	 948497765	 165859.
00:51:00  384 385	 1492649460	 110341520	 161844.
00:51:00  385 386	 1492649460	 276276461	 165935.
00:51:00  386 387	 1492649460	 409403851	 133128.
00:51:00  387 388	 1492649460	 575495499	 166091.
00:51:00  388 389	 1492649460	 737576387	 162081.
00:51:00  389 390	 1492649460	 899574016	 161998.
00:51:01  390 391	 1492649461	 65605477	 166031.
00:51:01  391 392	 1492649461	 231536407	 165931.
00:51:01  392 393	 1492649461	 393381497	 161845.
00:51:01  393 394	 1492649461	 555348147	 161967.
00:51:01  394 395	 1492649461	 721279809	 165932.
00:51:01  395 396	 1492649461	 883537777	 162258.
00:51:02  396 397	 1492649462	 49726995	 166189.
00:51:02  397 398	 1492649462	 182807068	 133080.
00:51:02  398 399	 1492649462	 348755453	 165948.
00:51:02  399 400	 1492649462	 510481678	 161726.
00:51:02  400 401	 1492649462	 676563498	 166082.
00:51:02  401 402	 1492649462	 838332835	 161770.
00:51:02  402 403	 1492649463	 288602	 161955.
00:51:03  403 404	 1492649463	 166227315	 165939.
00:51:03  404 405	 1492649463	 328217647	 161990.
00:51:03  405 406	 1492649463	 494455653	 166238.
00:51:03  406 407	 1492649463	 627676664	 133221.
00:51:03  407 408	 1492649463	 793786423	 166110.
00:51:03  408 409	 1492649463	 956299519	 162513.
00:51:04  409 410	 1492649464	 114088924	 157790.
00:51:04  410 411	 1492649464	 280069417	 165980.
00:51:04  411 412	 1492649464	 442157641	 162088.
00:51:04  412 413	 1492649464	 608032550	 165875.
00:51:04  413 414	 1492649464	 770095576	 162063.
00:51:04  414 415	 1492649464	 936289711	 166194.
00:51:05  415 416	 1492649465	 98289470	 162000.
00:51:05  416 417	 1492649465	 264093822	 165805.
00:51:05  417 418	 1492649465	 397496815	 133403.
00:51:05  418 419	 1492649465	 563654214	 166157.
00:51:05  419 420	 1492649465	 725553490	 161899.
00:51:05  420 421	 1492649465	 891517272	 165964.
00:51:06  421 422	 1492649466	 53769674	 162252.
00:51:06  422 423	 1492649466	 215613254	 161844.
00:51:06  423 424	 1492649466	 381442930	 165830.
00:51:06  424 425	 1492649466	 539915161	 158472.
00:51:06  425 426	 1492649466	 701753828	 161839.
00:51:06  426 427	 1492649466	 867562984	 165809.
00:51:06  427 428	 1492649467	 766919	 133204.
00:51:07  428 429	 1492649467	 166801796	 166034.
00:51:07  429 430	 1492649467	 328570640	 161769.
00:51:07  430 431	 1492649467	 490382882	 161813.
00:51:07  431 432	 1492649467	 656200814	 165818.
00:51:07  432 433	 1492649467	 818334473	 162133.
00:51:07  433 434	 1492649467	 980221853	 161888.
00:51:08  434 435	 1492649468	 146432014	 166210.
00:51:08  435 436	 1492649468	 312481812	 166050.
00:51:08  436 437	 1492649468	 474357354	 161875.
00:51:08  437 438	 1492649468	 607563142	 133206.
00:51:08  438 439	 1492649468	 773440866	 165878.
00:51:08  439 440	 1492649468	 935342497	 161901.
00:51:09  440 441	 1492649469	 101378825	 166037.
00:51:09  441 442	 1492649469	 263274285	 161895.
00:51:09  442 443	 1492649469	 425400225	 162126.
00:51:09  443 444	 1492649469	 591711144	 166311.
00:51:09  444 445	 1492649469	 753651236	 161940.
00:51:09  445 446	 1492649469	 915602939	 161952.
00:51:10  446 447	 1492649470	 52702047	 137099.
00:51:10  447 448	 1492649470	 218565414	 165863.
00:51:10  448 449	 1492649470	 380361062	 161796.
00:51:10  449 450	 1492649470	 542197698	 161836.
00:51:10  450 451	 1492649470	 708136578	 165939.
00:51:10  451 452	 1492649470	 869960519	 161824.
00:51:11  452 453	 1492649471	 31752881	 161793.
00:51:11  453 454	 1492649471	 168960036	 137207.
00:51:11  454 455	 1492649471	 330778809	 161819.
00:51:11  455 456	 1492649471	 496673695	 165894.
00:51:11  456 457	 1492649471	 658390961	 161718.
00:51:11  457 458	 1492649471	 824162739	 165771.
00:51:11  458 459	 1492649471	 986579628	 162417.
00:51:12  459 460	 1492649472	 144364219	 157785.
00:51:12  460 461	 1492649472	 310253959	 165890.
00:51:12  461 462	 1492649472	 471963444	 161709.
00:51:12  462 463	 1492649472	 609132073	 137169.
00:51:12  463 464	 1492649472	 771028255	 161896.
00:51:12  464 465	 1492649472	 932657596	 161629.
00:51:13  465 466	 1492649473	 98430178	 165773.
00:51:13  466 467	 1492649473	 260293210	 161863.
00:51:13  467 468	 1492649473	 426058152	 165765.
00:51:13  468 469	 1492649473	 587716773	 161658.
00:51:13  469 470	 1492649473	 753640547	 165924.
00:51:13  470 471	 1492649473	 886814632	 133174.
00:51:14  471 472	 1492649474	 48855264	 162041.
00:51:14  472 473	 1492649474	 214613945	 165759.
00:51:14  473 474	 1492649474	 376362369	 161748.
00:51:14  474 475	 1492649474	 542213763	 165851.
00:51:14  475 476	 1492649474	 704039094	 161826.
00:51:14  476 477	 1492649474	 869913735	 165874.
00:51:15  477 478	 1492649475	 31815792	 161903.
00:51:15  478 479	 1492649475	 168954963	 137139.
00:51:15  479 480	 1492649475	 330799461	 161844.
00:51:15  480 481	 1492649475	 492437023	 161638.
00:51:15  481 482	 1492649475	 658336756	 165899.
00:51:15  482 483	 1492649475	 824059125	 165723.
00:51:15  483 484	 1492649475	 986036952	 161978.
00:51:16  484 485	 1492649476	 147795892	 161759.
00:51:16  485 486	 1492649476	 313691736	 165896.
00:51:16  486 487	 1492649476	 446866643	 133174.
00:51:16  487 488	 1492649476	 612486478	 165620.
00:51:16  488 489	 1492649476	 774222292	 161736.
00:51:16  489 490	 1492649476	 940085711	 165863.
00:51:17  490 491	 1492649477	 101776217	 161691.
00:51:17  491 492	 1492649477	 263474657	 161698.
00:51:17  492 493	 1492649477	 429258285	 165784.
00:51:17  493 494	 1492649477	 562327015	 133069.
00:51:17  494 495	 1492649477	 728182321	 165855.
00:51:17  495 496	 1492649477	 889968463	 161786.
00:51:18  496 497	 1492649478	 55772057	 165804.
00:51:18  497 498	 1492649478	 217580083	 161808.
00:51:18  498 499	 1492649478	 379405490	 161825.
00:51:18  499 500	 1492649478	 545037246	 165632.
00:51:18  500 501	 1492649478	 678093891	 133057.
00:51:18  501 502	 1492649478	 843819055	 165725.
00:51:19  502 503	 1492649479	 5577789	 161759.
00:51:19  503 504	 1492649479	 167138932	 161561.
00:51:19  504 505	 1492649479	 332980433	 165841.
00:51:19  505 506	 1492649479	 494686605	 161706.
00:51:19  506 507	 1492649479	 660467716	 165781.
00:51:19  507 508	 1492649479	 793524646	 133057.
00:51:19  508 509	 1492649479	 955269403	 161745.
00:51:20  509 510	 1492649480	 117280296	 162011.
00:51:20  510 511	 1492649480	 283134845	 165855.
00:51:20  511 512	 1492649480	 445074697	 161939.
00:51:20  512 513	 1492649480	 606747859	 161674.
00:51:20  513 514	 1492649480	 772517318	 165769.
00:51:20  514 515	 1492649480	 934251574	 161734.
00:51:21  515 516	 1492649481	 71363434	 137112.
00:51:21  516 517	 1492649481	 233144271	 161781.
00:51:21  517 518	 1492649481	 399021546	 165877.
00:51:21  518 519	 1492649481	 560809730	 161788.
00:51:21  519 520	 1492649481	 726662358	 165853.
00:51:21  520 521	 1492649481	 888274393	 161612.
00:51:22  521 522	 1492649482	 54073403	 165799.
00:51:22  522 523	 1492649482	 215781895	 161709.
00:51:22  523 524	 1492649482	 348962329	 133180.
00:51:22  524 525	 1492649482	 514903333	 165941.
00:51:22  525 526	 1492649482	 676603981	 161701.
00:51:22  526 527	 1492649482	 842282475	 165678.
00:51:22  527 528	 1492649483	 3961361	 161679.
00:51:23  528 529	 1492649483	 165868766	 161907.
00:51:23  529 530	 1492649483	 331847472	 165979.
00:51:23  530 531	 1492649483	 493480026	 161633.
00:51:23  531 532	 1492649483	 626719056	 133239.
00:51:23  532 533	 1492649483	 792488778	 165769.
00:51:23  533 534	 1492649483	 954158980	 161671.
00:51:24  534 535	 1492649484	 119963423	 165804.
00:51:24  535 536	 1492649484	 281679496	 161716.
00:51:24  536 537	 1492649484	 443430579	 161751.
00:51:24  537 538	 1492649484	 609534370	 166104.
00:51:24  538 539	 1492649484	 771264303	 161730.
00:51:24  539 540	 1492649484	 904304940	 133041.
00:51:25  540 541	 1492649485	 70283202	 165978.
00:51:25  541 542	 1492649485	 232083072	 161800.
00:51:25  542 543	 1492649485	 397868947	 165786.
00:51:25  543 544	 1492649485	 559743093	 161874.
00:51:25  544 545	 1492649485	 721413503	 161670.
00:51:25  545 546	 1492649485	 887051873	 165639.
00:51:26  546 547	 1492649486	 45208136	 158156.
00:51:26  547 548	 1492649486	 206795825	 161588.
00:51:26  548 549	 1492649486	 343913550	 137117.
00:51:26  549 550	 1492649486	 505537607	 161624.
00:51:26  550 551	 1492649486	 667200799	 161663.
00:51:26  551 552	 1492649486	 832873314	 165673.
00:51:26  552 553	 1492649486	 994529212	 161656.
00:51:27  553 554	 1492649487	 156270172	 161741.
00:51:27  554 555	 1492649487	 321984639	 165714.
00:51:27  555 556	 1492649487	 454923999	 132940.
00:51:27  556 557	 1492649487	 620500777	 165576.
00:51:27  557 558	 1492649487	 782035633	 161535.
00:51:27  558 559	 1492649487	 947882760	 165847.
00:51:28  559 560	 1492649488	 109691352	 161809.
00:51:28  560 561	 1492649488	 271384878	 161694.
00:51:28  561 562	 1492649488	 437072375	 165687.
00:51:28  562 563	 1492649488	 570062922	 132991.
00:51:28  563 564	 1492649488	 735644661	 165581.
00:51:28  564 565	 1492649488	 897390932	 161747.
00:51:29  565 566	 1492649489	 55792085	 158401.
00:51:29  566 567	 1492649489	 217398293	 161606.
00:51:29  567 568	 1492649489	 383189076	 165791.
00:51:29  568 569	 1492649489	 544845202	 161656.
00:51:29  569 570	 1492649489	 677817104	 132972.
00:51:29  570 571	 1492649489	 843646671	 165829.
00:51:30  571 572	 1492649490	 5238099	 161592.
00:51:30  572 573	 1492649490	 170827276	 165589.
00:51:30  573 574	 1492649490	 332280035	 161453.
00:51:30  574 575	 1492649490	 497965966	 165686.
00:51:30  575 576	 1492649490	 630855384	 132889.
00:51:30  576 577	 1492649490	 792478940	 161624.
00:51:30  577 578	 1492649490	 958262087	 165783.
00:51:31  578 579	 1492649491	 123978248	 165716.
00:51:31  579 580	 1492649491	 285606050	 161628.
00:51:31  580 581	 1492649491	 447166002	 161560.
00:51:31  581 582	 1492649491	 613026389	 165860.
00:51:31  582 583	 1492649491	 746152674	 133126.
00:51:31  583 584	 1492649491	 911946436	 165794.
00:51:32  584 585	 1492649492	 73777433	 161831.
00:51:32  585 586	 1492649492	 239482956	 165706.
00:51:32  586 587	 1492649492	 401598885	 162116.
00:51:32  587 588	 1492649492	 559907210	 158308.
00:51:32  588 589	 1492649492	 721673648	 161766.
00:51:32  589 590	 1492649492	 887401593	 165728.
00:51:33  590 591	 1492649493	 49110669	 161709.
00:51:33  591 592	 1492649493	 186262363	 137152.
00:51:33  592 593	 1492649493	 347956217	 161694.
00:51:33  593 594	 1492649493	 513764490	 165808.
00:51:33  594 595	 1492649493	 675801092	 162037.
00:51:33  595 596	 1492649493	 837601588	 161800.
00:51:33  596 597	 1492649494	 3472126	 165871.
00:51:34  597 598	 1492649494	 165363669	 161891.
00:51:34  598 599	 1492649494	 330975186	 165612.
00:51:34  599 600	 1492649494	 488933673	 157958.
00:51:34  600 601	 1492649494	 626138422	 137205.
00:51:34  601 602	 1492649494	 787920621	 161782.
00:51:34  602 603	 1492649494	 949706526	 161786.
00:51:35  603 604	 1492649495	 115596872	 165891.
00:51:35  604 605	 1492649495	 277395597	 161798.
00:51:35  605 606	 1492649495	 443196526	 165801.
00:51:35  606 607	 1492649495	 605151788	 161956.
00:51:35  607 608	 1492649495	 771236662	 166084.
00:51:35  608 609	 1492649495	 904260780	 133024.
00:51:36  609 610	 1492649496	 66036945	 161777.
00:51:36  610 611	 1492649496	 231779598	 165742.
00:51:36  611 612	 1492649496	 393691339	 161912.
00:51:36  612 613	 1492649496	 559654277	 165963.
00:51:36  613 614	 1492649496	 721341558	 161687.
00:51:36  614 615	 1492649496	 887025672	 165684.
00:51:37  615 616	 1492649497	 48817435	 161792.
00:51:37  616 617	 1492649497	 181887573	 133070.
00:51:37  617 618	 1492649497	 347639566	 165752.
00:51:37  618 619	 1492649497	 509699050	 162060.
00:51:37  619 620	 1492649497	 675558179	 165859.
00:51:37  620 621	 1492649497	 837415338	 161857.
00:51:37  621 622	 1492649498	 3162590	 165747.
00:51:38  622 623	 1492649498	 164979190	 161817.
00:51:38  623 624	 1492649498	 330806774	 165828.
00:51:38  624 625	 1492649498	 463940661	 133133.
00:51:38  625 626	 1492649498	 630010894	 166071.
00:51:38  626 627	 1492649498	 791766080	 161755.
00:51:38  627 628	 1492649498	 957604770	 165838.
00:51:39  628 629	 1492649499	 119607819	 162004.
00:51:39  629 630	 1492649499	 281481211	 161873.
00:51:39  630 631	 1492649499	 447161005	 165680.
00:51:39  631 632	 1492649499	 612936421	 165775.
00:51:39  632 633	 1492649499	 746104749	 133169.
00:51:39  633 634	 1492649499	 911877669	 165772.
00:51:40  634 635	 1492649500	 73649357	 161772.
00:51:40  635 636	 1492649500	 239644163	 165995.
00:51:40  636 637	 1492649500	 401399600	 161755.
00:51:40  637 638	 1492649500	 563563219	 162164.
00:51:40  638 639	 1492649500	 729424452	 165861.
00:51:40  639 640	 1492649500	 891310347	 161886.
00:51:41  640 641	 1492649501	 24386473	 133076.
00:51:41  641 642	 1492649501	 190176924	 165791.
00:51:41  642 643	 1492649501	 352176104	 161999.
00:51:41  643 644	 1492649501	 518081572	 165905.
00:51:41  644 645	 1492649501	 679865062	 161784.
00:51:41  645 646	 1492649501	 845621674	 165756.
00:51:42  646 647	 1492649502	 7427824	 161807.
00:51:42  647 648	 1492649502	 173378552	 165950.
00:51:42  648 649	 1492649502	 306581192	 133203.
00:51:42  649 650	 1492649502	 468435966	 161855.
00:51:42  650 651	 1492649502	 634223834	 165788.
00:51:42  651 652	 1492649502	 800167288	 165943.
00:51:42  652 653	 1492649502	 962034033	 161867.
00:51:43  653 654	 1492649503	 123808717	 161774.
00:51:43  654 655	 1492649503	 289623756	 165815.
00:51:43  655 656	 1492649503	 451254146	 161631.
00:51:43  656 657	 1492649503	 588486374	 137232.
00:51:43  657 658	 1492649503	 750228413	 161742.
00:51:43  658 659	 1492649503	 911908211	 161680.
00:51:44  659 660	 1492649504	 77697227	 165789.
00:51:44  660 661	 1492649504	 239385311	 161688.
00:51:44  661 662	 1492649504	 405125354	 165740.
00:51:44  662 663	 1492649504	 566921752	 161797.
00:51:44  663 664	 1492649504	 732972258	 166050.
00:51:44  664 665	 1492649504	 866067751	 133095.
00:51:45  665 666	 1492649505	 31798407	 165731.
00:51:45  666 667	 1492649505	 193529686	 161731.
00:51:45  667 668	 1492649505	 355351563	 161822.
00:51:45  668 669	 1492649505	 521091274	 165740.
00:51:45  669 670	 1492649505	 682815268	 161724.
00:51:45  670 671	 1492649505	 848741273	 165926.
00:51:46  671 672	 1492649506	 10102947	 161362.
00:51:46  672 673	 1492649506	 151323840	 141221.
00:51:46  673 674	 1492649506	 313066881	 161743.
00:51:46  674 675	 1492649506	 474785677	 161718.
00:51:46  675 676	 1492649506	 640412101	 165627.
00:51:46  676 677	 1492649506	 802111432	 161699.
00:51:46  677 678	 1492649506	 967905820	 165795.
00:51:47  678 679	 1492649507	 101061497	 133155.
00:51:47  679 680	 1492649507	 262797949	 161737.
00:51:47  680 681	 1492649507	 428523904	 165726.
00:51:47  681 682	 1492649507	 590128348	 161604.
00:51:47  682 683	 1492649507	 755818093	 165690.
00:51:47  683 684	 1492649507	 917432818	 161615.
00:51:48  684 685	 1492649508	 50290576	 132857.
00:51:48  685 686	 1492649508	 215954427	 165664.
00:51:48  686 687	 1492649508	 378160645	 162206.
00:51:48  687 688	 1492649508	 539840896	 161681.
00:51:48  688 689	 1492649508	 701616253	 161775.
00:51:48  689 690	 1492649508	 867560596	 165944.
00:51:49  690 691	 1492649509	 29618269	 162058.
00:51:49  691 692	 1492649509	 191310737	 161692.
00:51:49  692 693	 1492649509	 357162233	 165852.
00:51:49  693 694	 1492649509	 490205216	 133043.
00:51:49  694 695	 1492649509	 651942544	 161737.
00:51:49  695 696	 1492649509	 813677663	 161735.
00:51:49  696 697	 1492649509	 979489106	 165812.
00:51:50  697 698	 1492649510	 145307807	 165819.
00:51:50  698 699	 1492649510	 307169763	 161861.
00:51:50  699 700	 1492649510	 473094384	 165925.
00:51:50  700 701	 1492649510	 634699303	 161605.
00:51:50  701 702	 1492649510	 767757915	 133059.
00:51:50  702 703	 1492649510	 929707898	 161950.
00:51:51  703 704	 1492649511	 91436193	 161728.
00:51:51  704 705	 1492649511	 257173194	 165737.
00:51:51  705 706	 1492649511	 418947016	 161774.
00:51:51  706 707	 1492649511	 584786161	 165839.
00:51:51  707 708	 1492649511	 746502273	 161716.
00:51:51  708 709	 1492649511	 912368274	 165866.
00:51:52  709 710	 1492649512	 45463294	 133095.
00:51:52  710 711	 1492649512	 211274794	 165811.
00:51:52  711 712	 1492649512	 373099591	 161825.
00:51:52  712 713	 1492649512	 534706234	 161607.
00:51:52  713 714	 1492649512	 700549331	 165843.
00:51:52  714 715	 1492649512	 862278285	 161729.
00:51:53  715 716	 1492649513	 28144581	 165866.
00:51:53  716 717	 1492649513	 189830726	 161687.
00:51:53  717 718	 1492649513	 326963912	 137133.
00:51:53  718 719	 1492649513	 488802599	 161838.
00:51:53  719 720	 1492649513	 654320158	 165518.
00:51:53  720 721	 1492649513	 815987450	 161667.
00:51:53  721 722	 1492649513	 981716570	 165729.
00:51:54  722 723	 1492649514	 143402254	 161686.
00:51:54  723 724	 1492649514	 301666298	 158264.
00:51:54  724 725	 1492649514	 438793047	 137127.
00:51:54  725 726	 1492649514	 600412768	 161619.
00:51:54  726 727	 1492649514	 762272644	 161860.
00:51:54  727 728	 1492649514	 924304905	 162033.
00:51:55  728 729	 1492649515	 90109224	 165804.
00:51:55  729 730	 1492649515	 252029882	 161921.
00:51:55  730 731	 1492649515	 413756802	 161727.
00:51:55  731 732	 1492649515	 579513447	 165756.
00:51:55  732 733	 1492649515	 741160162	 161647.
00:51:55  733 734	 1492649515	 874215460	 133055.
00:51:56  734 735	 1492649516	 39935781	 165720.
00:51:56  735 736	 1492649516	 201693964	 161759.
00:51:56  736 737	 1492649516	 367647157	 165953.
00:51:56  737 738	 1492649516	 529492783	 161846.
00:51:56  738 739	 1492649516	 695095670	 165602.
00:51:56  739 740	 1492649516	 856964790	 161869.
00:51:56  740 741	 1492649516	 990091294	 133127.
00:51:57  741 742	 1492649517	 156211893	 166121.
00:51:57  742 743	 1492649517	 317950743	 161738.
00:51:57  743 744	 1492649517	 483744906	 165795.
00:51:57  744 745	 1492649517	 645545263	 161800.
00:51:57  745 746	 1492649517	 811366857	 165822.
00:51:57  746 747	 1492649517	 973233458	 161866.
00:51:58  747 748	 1492649518	 139081775	 165849.
00:51:58  748 749	 1492649518	 272254194	 133172.
00:51:58  749 750	 1492649518	 438004345	 165750.
00:51:58  750 751	 1492649518	 599724737	 161721.
00:51:58  751 752	 1492649518	 765540445	 165815.
00:51:58  752 753	 1492649518	 927245561	 161705.
00:51:59  753 754	 1492649519	 89309750	 162064.
00:51:59  754 755	 1492649519	 250871155	 161562.
00:51:59  755 756	 1492649519	 416540020	 165669.
00:51:59  756 757	 1492649519	 549579717	 133039.
00:51:59  757 758	 1492649519	 715222893	 165644.
00:51:59  758 759	 1492649519	 876959095	 161736.
00:52:00  759 760	 1492649520	 38780109	 161821.
00:52:00  760 761	 1492649520	 204487129	 165707.
00:52:00  761 762	 1492649520	 366218277	 161731.
00:52:00  762 763	 1492649520	 528079862	 161862.
00:52:00  763 764	 1492649520	 693944690	 165864.
00:52:00  764 765	 1492649520	 827066261	 133122.
00:52:00  765 766	 1492649520	 992855183	 165789.
00:52:01  766 767	 1492649521	 154268082	 161413.
00:52:01  767 768	 1492649521	 319971381	 165703.
00:52:01  768 769	 1492649521	 482162099	 162191.
00:52:01  769 770	 1492649521	 644239869	 162078.
00:52:01  770 771	 1492649521	 806101315	 161861.
00:52:01  771 772	 1492649521	 971992342	 165891.
00:52:02  772 773	 1492649522	 105247184	 133255.
00:52:02  773 774	 1492649522	 270956576	 165709.
00:52:02  774 775	 1492649522	 432698641	 161742.
00:52:02  775 776	 1492649522	 594651299	 161953.
00:52:02  776 777	 1492649522	 756388148	 161737.
00:52:02  777 778	 1492649522	 922147670	 165760.
00:52:03  778 779	 1492649523	 83812735	 161664.
00:52:03  779 780	 1492649523	 220920788	 137109.
00:52:03  780 781	 1492649523	 382792973	 161872.
00:52:03  781 782	 1492649523	 544589690	 161796.
00:52:03  782 783	 1492649523	 710460430	 165871.
00:52:03  783 784	 1492649523	 872228835	 161769.
00:52:04  784 785	 1492649524	 38153455	 165924.
00:52:04  785 786	 1492649524	 200163549	 162010.
00:52:04  786 787	 1492649524	 365821214	 165658.
00:52:04  787 788	 1492649524	 498965516	 133144.
00:52:04  788 789	 1492649524	 664800160	 165835.
00:52:04  789 790	 1492649524	 826482997	 161683.
00:52:04  790 791	 1492649524	 992360373	 165877.
00:52:05  791 792	 1492649525	 154064226	 161704.
00:52:05  792 793	 1492649525	 319741438	 165677.
00:52:05  793 794	 1492649525	 452903420	 133162.
00:52:05  794 795	 1492649525	 618963811	 166060.
00:52:05  795 796	 1492649525	 780967167	 162004.
00:52:05  796 797	 1492649525	 942783199	 161816.
00:52:06  797 798	 1492649526	 108669650	 165886.
00:52:06  798 799	 1492649526	 270579034	 161910.
00:52:06  799 800	 1492649526	 436521984	 165943.
00:52:06  800 801	 1492649526	 598555263	 162033.
00:52:06  801 802	 1492649526	 764290284	 165735.
00:52:06  802 803	 1492649526	 897452682	 133162.
00:52:07  803 804	 1492649527	 59318501	 161866.
00:52:07  804 805	 1492649527	 225330235	 166012.
00:52:07  805 806	 1492649527	 387335537	 162005.
00:52:07  806 807	 1492649527	 549209571	 161874.
00:52:07  807 808	 1492649527	 715317635	 166108.
00:52:07  808 809	 1492649527	 877248676	 161931.
00:52:08  809 810	 1492649528	 38893792	 161646.
00:52:08  810 811	 1492649528	 204704534	 165810.
00:52:08  811 812	 1492649528	 337848445	 133144.
00:52:08  812 813	 1492649528	 503665568	 165817.
00:52:08  813 814	 1492649528	 665264221	 161599.
00:52:08  814 815	 1492649528	 830940646	 165676.
00:52:08  815 816	 1492649528	 992732071	 161792.
00:52:09  816 817	 1492649529	 158686388	 165954.
00:52:09  817 818	 1492649529	 320548198	 161862.
00:52:09  818 819	 1492649529	 457762538	 137214.
00:52:09  819 820	 1492649529	 619764199	 162002.
00:52:09  820 821	 1492649529	 781558868	 161795.
00:52:09  821 822	 1492649529	 943808838	 162250.
00:52:10  822 823	 1492649530	 105458821	 161650.
00:52:10  823 824	 1492649530	 271212015	 165753.
00:52:10  824 825	 1492649530	 433137276	 161925.
00:52:10  825 826	 1492649530	 594841307	 161704.
00:52:10  826 827	 1492649530	 732065177	 137224.
00:52:10  827 828	 1492649530	 893596476	 161531.
00:52:11  828 829	 1492649531	 59478142	 165882.
00:52:11  829 830	 1492649531	 221299728	 161821.
00:52:11  830 831	 1492649531	 387198665	 165899.
00:52:11  831 832	 1492649531	 548902625	 161704.
00:52:11  832 833	 1492649531	 685991936	 137090.
00:52:11  833 834	 1492649531	 847718856	 161727.
00:52:12  834 835	 1492649532	 13464533	 165745.
00:52:12  835 836	 1492649532	 175306279	 161842.
00:52:12  836 837	 1492649532	 341212819	 165907.
00:52:12  837 838	 1492649532	 502875098	 161662.
00:52:12  838 839	 1492649532	 664863835	 161989.
00:52:12  839 840	 1492649532	 826640353	 161776.
00:52:12  840 841	 1492649532	 959512707	 132872.
00:52:13  841 842	 1492649533	 121140076	 161628.
00:52:13  842 843	 1492649533	 286958343	 165818.
00:52:13  843 844	 1492649533	 448832972	 161875.
00:52:13  844 845	 1492649533	 610602935	 161770.
00:52:13  845 846	 1492649533	 772431743	 161828.
00:52:13  846 847	 1492649533	 938274453	 165843.
00:52:14  847 848	 1492649534	 104155934	 165882.
00:52:14  848 849	 1492649534	 237345020	 133189.
00:52:14  849 850	 1492649534	 399071687	 161726.
00:52:14  850 851	 1492649534	 564955704	 165884.
00:52:14  851 852	 1492649534	 726748220	 161793.
00:52:14  852 853	 1492649534	 888502174	 161754.
00:52:15  853 854	 1492649535	 54316669	 165814.
00:52:15  854 855	 1492649535	 216102414	 161786.
00:52:15  855 856	 1492649535	 381927862	 165826.
00:52:15  856 857	 1492649535	 514921753	 132993.
00:52:15  857 858	 1492649535	 680650117	 165729.
00:52:15  858 859	 1492649535	 842305960	 161656.
00:52:15  859 860	 1492649536	 3928469	 161622.
00:52:16  860 861	 1492649536	 169455766	 165528.
00:52:16  861 862	 1492649536	 331217230	 161761.
00:52:16  862 863	 1492649536	 464355902	 133139.
00:52:16  863 864	 1492649536	 630188261	 165832.
00:52:16  864 865	 1492649536	 791910214	 161722.
00:52:16  865 866	 1492649536	 957674821	 165765.
00:52:17  866 867	 1492649537	 119406468	 161731.
00:52:17  867 868	 1492649537	 285314254	 165908.
00:52:17  868 869	 1492649537	 446969893	 161656.
00:52:17  869 870	 1492649537	 609029574	 162059.
00:52:17  870 871	 1492649537	 742109861	 133081.
00:52:17  871 872	 1492649537	 908035783	 165926.
00:52:18  872 873	 1492649538	 69842363	 161806.
00:52:18  873 874	 1492649538	 231705843	 161864.
00:52:18  874 875	 1492649538	 393679886	 161974.
00:52:18  875 876	 1492649538	 559388637	 165708.
00:52:18  876 877	 1492649538	 721259869	 161872.
00:52:18  877 878	 1492649538	 887104383	 165844.
00:52:19  878 879	 1492649539	 20056566	 132952.
00:52:19  879 880	 1492649539	 181666736	 161611.
00:52:19  880 881	 1492649539	 347607696	 165940.
00:52:19  881 882	 1492649539	 509256120	 161649.
00:52:19  882 883	 1492649539	 670886519	 161630.
00:52:19  883 884	 1492649539	 843377845	 172492.
00:52:19  884 885	 1492649539	 980455136	 137077.
00:52:20  885 886	 1492649540	 146126337	 165671.
00:52:20  886 887	 1492649540	 307834422	 161708.
00:52:20  887 888	 1492649540	 473658156	 165824.
00:52:20  888 889	 1492649540	 635345101	 161687.
00:52:20  889 890	 1492649540	 772400416	 137055.
00:52:20  890 891	 1492649540	 934230934	 161831.
00:52:21  891 892	 1492649541	 100385759	 166154.
00:52:21  892 893	 1492649541	 258114247	 157729.
00:52:21  893 894	 1492649541	 423814188	 165700.
00:52:21  894 895	 1492649541	 585606565	 161792.
00:52:21  895 896	 1492649541	 747469608	 161863.
00:52:21  896 897	 1492649541	 913332910	 165864.
00:52:22  897 898	 1492649542	 46545235	 133212.
00:52:22  898 899	 1492649542	 212437762	 165892.
00:52:22  899 900	 1492649542	 374346017	 161909.
00:52:22  900 901	 1492649542	 540192029	 165846.
00:52:22  901 902	 1492649542	 701980370	 161788.
00:52:22  902 903	 1492649542	 867673277	 165693.
00:52:23  903 904	 1492649543	 29522175	 161849.
00:52:23  904 905	 1492649543	 162491648	 132969.
00:52:23  905 906	 1492649543	 328436291	 165945.
00:52:23  906 907	 1492649543	 490331024	 161895.
00:52:23  907 908	 1492649543	 656159797	 165828.
00:52:23  908 909	 1492649543	 817910979	 161752.
00:52:23  909 910	 1492649543	 983641630	 165730.
00:52:24  910 911	 1492649544	 145302163	 161661.
00:52:24  911 912	 1492649544	 307176518	 161874.
00:52:24  912 913	 1492649544	 444213088	 137037.
00:52:24  913 914	 1492649544	 606439734	 162226.
00:52:24  914 915	 1492649544	 789504791	 183065.
00:52:24  915 916	 1492649544	 926670889	 137167.
00:52:25  916 917	 1492649545	 88410504	 161739.
00:52:25  917 918	 1492649545	 254209606	 165799.
00:52:25  918 919	 1492649545	 416009614	 161800.
00:52:25  919 920	 1492649545	 577767784	 161758.
00:52:25  920 921	 1492649545	 743649214	 165882.
00:52:25  921 922	 1492649545	 905612076	 161963.
00:52:26  922 923	 1492649546	 71441281	 165829.
00:52:26  923 924	 1492649546	 204750777	 133309.
00:52:26  924 925	 1492649546	 366540750	 161790.
00:52:26  925 926	 1492649546	 532395246	 165855.
00:52:26  926 927	 1492649546	 694191220	 161796.
00:52:26  927 928	 1492649546	 859759964	 165569.
00:52:27  928 929	 1492649547	 21662736	 161902.
00:52:27  929 930	 1492649547	 183407491	 161745.
00:52:27  930 931	 1492649547	 320738153	 137331.
00:52:27  931 932	 1492649547	 482539457	 161801.
00:52:27  932 933	 1492649547	 713619245	 231080.
00:52:27  933 934	 1492649547	 875240229	 161621.
00:52:28  934 935	 1492649548	 41169712	 165930.
00:52:28  935 936	 1492649548	 202725246	 161555.
00:52:28  936 937	 1492649548	 368684902	 165960.
00:52:28  937 938	 1492649548	 530555047	 161870.
00:52:28  938 939	 1492649548	 663653935	 133099.
00:52:28  939 940	 1492649548	 825599125	 161945.
00:52:28  940 941	 1492649548	 991384099	 165785.
00:52:29  941 942	 1492649549	 153314278	 161930.
00:52:29  942 943	 1492649549	 315108684	 161794.
00:52:29  943 944	 1492649549	 480994151	 165886.
00:52:29  944 945	 1492649549	 642788913	 161795.
00:52:29  945 946	 1492649549	 808719671	 165930.
00:52:29  946 947	 1492649549	 941728135	 133009.
00:52:30  947 948	 1492649550	 103449145	 161721.
00:52:30  948 949	 1492649550	 269205867	 165757.
00:52:30  949 950	 1492649550	 430863147	 161657.
00:52:30  950 951	 1492649550	 596682096	 165819.
00:52:30  951 952	 1492649550	 758535610	 161853.
00:52:30  952 953	 1492649550	 924296858	 165762.
00:52:31  953 954	 1492649551	 57556770	 133259.
00:52:31  954 955	 1492649551	 219475808	 161920.
00:52:31  955 956	 1492649551	 385287361	 165811.
00:52:31  956 957	 1492649551	 547027837	 161741.
00:52:31  957 958	 1492649551	 712855047	 165827.
00:52:31  958 959	 1492649551	 874582063	 161727.
00:52:32  959 960	 1492649552	 36372218	 161790.
00:52:32  960 961	 1492649552	 202204056	 165832.
00:52:32  961 962	 1492649552	 335352160	 133148.
00:52:32  962 963	 1492649552	 497175157	 161823.
00:52:32  963 964	 1492649552	 662950693	 165775.
00:52:32  964 965	 1492649552	 824505412	 161555.
00:52:32  965 966	 1492649552	 991007258	 166502.
00:52:33  966 967	 1492649553	 148593304	 157586.
00:52:33  967 968	 1492649553	 310220075	 161627.
00:52:33  968 969	 1492649553	 476051702	 165831.
00:52:33  969 970	 1492649553	 609166306	 133115.
00:52:33  970 971	 1492649553	 775048375	 165882.
00:52:33  971 972	 1492649553	 936881667	 161833.
00:52:34  972 973	 1492649554	 98911364	 162030.
00:52:34  973 974	 1492649554	 260728471	 161817.
00:52:34  974 975	 1492649554	 426559349	 165831.
00:52:34  975 976	 1492649554	 592278693	 165719.
00:52:34  976 977	 1492649554	 753900335	 161622.
00:52:34  977 978	 1492649554	 912228754	 158328.
00:52:35  978 979	 1492649555	 45357714	 133129.
00:52:35  979 980	 1492649555	 210888230	 165531.
00:52:35  980 981	 1492649555	 372422818	 161535.
00:52:35  981 982	 1492649555	 538267541	 165844.
00:52:35  982 983	 1492649555	 700011662	 161744.
00:52:35  983 984	 1492649555	 865777177	 165766.
00:52:36  984 985	 1492649556	 27546244	 161769.
00:52:36  985 986	 1492649556	 160454552	 132908.
00:52:36  986 987	 1492649556	 326254238	 165800.
00:52:36  987 988	 1492649556	 487882374	 161628.
00:52:36  988 989	 1492649556	 649751423	 161869.
00:52:36  989 990	 1492649556	 815516981	 165766.
00:52:36  990 991	 1492649556	 977236179	 161719.
00:52:37  991 992	 1492649557	 142860076	 165624.
00:52:37  992 993	 1492649557	 304597678	 161737.
00:52:37  993 994	 1492649557	 441843554	 137246.
00:52:37  994 995	 1492649557	 603557024	 161714.
00:52:37  995 996	 1492649557	 769302110	 165745.
00:52:37  996 997	 1492649557	 930956857	 161655.
00:52:38  997 998	 1492649558	 92842372	 161885.
00:52:38  998 999	 1492649558	 258528829	 165687.
00:52:38  999 1000	 1492649558	 420215955	 161687.
00:52:38 1000 1001	 1492649558	 557378749	 137162.
00:52:38 1001 1002	 1492649558	 718965485	 161587.
00:52:38 1002 1003	 1492649558	 884552721	 165587.
00:52:39 1003 1004	 1492649559	 46135526	 161583.
00:52:39 1004 1005	 1492649559	 211741972	 165607.
00:52:39 1005 1006	 1492649559	 373468326	 161726.
00:52:39 1006 1007	 1492649559	 510708762	 137240.
00:52:39 1007 1008	 1492649559	 672444465	 161736.
00:52:39 1008 1009	 1492649559	 838240470	 165796.
00:52:39 1009 1010	 1492649559	 999953453	 161713.
00:52:40 1010 1011	 1492649560	 165803335	 165850.
00:52:40 1011 1012	 1492649560	 324126604	 158323.
00:52:40 1012 1013	 1492649560	 485893221	 161767.
00:52:40 1013 1014	 1492649560	 651715019	 165822.
00:52:40 1014 1015	 1492649560	 784808117	 133093.
00:52:40 1015 1016	 1492649560	 946668568	 161860.
00:52:41 1016 1017	 1492649561	 112742029	 166074.
00:52:41 1017 1018	 1492649561	 274391866	 161650.
00:52:41 1018 1019	 1492649561	 440157343	 165765.
00:52:41 1019 1020	 1492649561	 598836612	 158679.
00:52:41 1020 1021	 1492649561	 760646919	 161811.
00:52:41 1021 1022	 1492649561	 926142471	 165495.
00:52:42 1022 1023	 1492649562	 87587326	 161445.
00:52:42 1023 1024	 1492649562	 253431473	 165844.
00:52:42 1024 1025	 1492649562	 386628221	 133197.
00:52:42 1025 1026	 1492649562	 552532994	 165905.
00:52:42 1026 1027	 1492649562	 714189542	 161656.
00:52:42 1027 1028	 1492649562	 879914842	 165726.
00:52:43 1028 1029	 1492649563	 41869100	 161954.
00:52:43 1029 1030	 1492649563	 203523749	 161654.
00:52:43 1030 1031	 1492649563	 369439150	 165916.
00:52:43 1031 1032	 1492649563	 502343188	 132904.
00:52:43 1032 1033	 1492649563	 663903895	 161561.
00:52:43 1033 1034	 1492649563	 829649195	 165745.
00:52:43 1034 1035	 1492649563	 991619212	 161970.
00:52:44 1035 1036	 1492649564	 157386190	 165767.
00:52:44 1036 1037	 1492649564	 319296308	 161910.
00:52:44 1037 1038	 1492649564	 485155422	 165859.
00:52:44 1038 1039	 1492649564	 646931013	 161776.
00:52:44 1039 1040	 1492649564	 779978502	 133047.
00:52:44 1040 1041	 1492649564	 945559217	 165581.
00:52:45 1041 1042	 1492649565	 107267218	 161708.
00:52:45 1042 1043	 1492649565	 273188480	 165921.
00:52:45 1043 1044	 1492649565	 434911377	 161723.
00:52:45 1044 1045	 1492649565	 600833507	 165922.
00:52:45 1045 1046	 1492649565	 762591862	 161759.
00:52:45 1046 1047	 1492649565	 895746168	 133154.
00:52:46 1047 1048	 1492649566	 61606834	 165861.
00:52:46 1048 1049	 1492649566	 223508555	 161901.
00:52:46 1049 1050	 1492649566	 389495024	 165987.
00:52:46 1050 1051	 1492649566	 551207612	 161712.
00:52:46 1051 1052	 1492649566	 717001605	 165795.
00:52:46 1052 1053	 1492649566	 878710734	 161708.
00:52:47 1053 1054	 1492649567	 40527601	 161818.
00:52:47 1054 1055	 1492649567	 177657152	 137129.
00:52:47 1055 1056	 1492649567	 339480353	 161823.
00:52:47 1056 1057	 1492649567	 505199359	 165719.
00:52:47 1057 1058	 1492649567	 666902930	 161704.
00:52:47 1058 1059	 1492649567	 832589252	 165686.
00:52:47 1059 1060	 1492649567	 994120984	 161532.
00:52:48 1060 1061	 1492649568	 127014448	 132893.
00:52:48 1061 1062	 1492649568	 292853781	 165840.
00:52:48 1062 1063	 1492649568	 454582749	 161728.
00:52:48 1063 1064	 1492649568	 620383572	 165801.
00:52:48 1064 1065	 1492649568	 782241907	 161859.
00:52:48 1065 1066	 1492649568	 947939732	 165697.
00:52:49 1066 1067	 1492649569	 109709885	 161771.
00:52:49 1067 1068	 1492649569	 271400495	 161690.
00:52:49 1068 1069	 1492649569	 437326817	 165927.
00:52:49 1069 1070	 1492649569	 570303720	 132976.
00:52:49 1070 1071	 1492649569	 736269170	 165966.
00:52:49 1071 1072	 1492649569	 898019956	 161751.
00:52:50 1072 1073	 1492649570	 63926857	 165907.
00:52:50 1073 1074	 1492649570	 225713828	 161787.
00:52:50 1074 1075	 1492649570	 387487151	 161773.
00:52:50 1075 1076	 1492649570	 553378616	 165891.
00:52:50 1076 1077	 1492649570	 715095784	 161717.
00:52:50 1077 1078	 1492649570	 852149869	 137055.
00:52:51 1078 1079	 1492649571	 13842577	 161692.
00:52:51 1079 1080	 1492649571	 179727288	 165885.
00:52:51 1080 1081	 1492649571	 341554772	 161827.
00:52:51 1081 1082	 1492649571	 503166522	 161612.
00:52:51 1082 1083	 1492649571	 669031641	 165866.
00:52:51 1083 1084	 1492649571	 830636484	 161604.
00:52:51 1084 1085	 1492649571	 967696383	 137060.
00:52:52 1085 1086	 1492649572	 129287563	 161591.
00:52:52 1086 1087	 1492649572	 295161043	 165874.
00:52:52 1087 1088	 1492649572	 456893910	 161733.
00:52:52 1088 1089	 1492649572	 622587016	 165693.
00:52:52 1089 1090	 1492649572	 784803602	 162216.
00:52:52 1090 1091	 1492649572	 946505966	 161703.
00:52:53 1091 1092	 1492649573	 108134869	 161629.
00:52:53 1092 1093	 1492649573	 245281549	 137146.
00:52:53 1093 1094	 1492649573	 406873895	 161593.
00:52:53 1094 1095	 1492649573	 572697802	 165823.
00:52:53 1095 1096	 1492649573	 734552031	 161855.
00:52:53 1096 1097	 1492649573	 896678747	 162126.
00:52:54 1097 1098	 1492649574	 62371654	 165693.
00:52:54 1098 1099	 1492649574	 224033059	 161662.
00:52:54 1099 1100	 1492649574	 389886428	 165853.
00:52:54 1100 1101	 1492649574	 522897641	 133011.
00:52:54 1101 1102	 1492649574	 688670295	 165773.
00:52:54 1102 1103	 1492649574	 850338523	 161668.
00:52:55 1103 1104	 1492649575	 16040218	 165702.
00:52:55 1104 1105	 1492649575	 177867281	 161827.
00:52:55 1105 1106	 1492649575	 343770124	 165903.
00:52:55 1106 1107	 1492649575	 505548674	 161778.
00:52:55 1107 1108	 1492649575	 638705832	 133158.
00:52:55 1108 1109	 1492649575	 804522870	 165817.
00:52:55 1109 1110	 1492649575	 966195286	 161672.
00:52:56 1110 1111	 1492649576	 132132981	 165938.
00:52:56 1111 1112	 1492649576	 293682314	 161549.
00:52:56 1112 1113	 1492649576	 455237933	 161556.
00:52:56 1113 1114	 1492649576	 620954200	 165716.
00:52:56 1114 1115	 1492649576	 753963548	 133009.
00:52:56 1115 1116	 1492649576	 919775172	 165812.
00:52:57 1116 1117	 1492649577	 81453193	 161678.
00:52:57 1117 1118	 1492649577	 247228145	 165775.
00:52:57 1118 1119	 1492649577	 408997589	 161769.
00:52:57 1119 1120	 1492649577	 574824849	 165828.
00:52:57 1120 1121	 1492649577	 736450894	 161626.
00:52:57 1121 1122	 1492649577	 897852829	 161402.
00:52:58 1122 1123	 1492649578	 34929001	 137076.
00:52:58 1123 1124	 1492649578	 196689644	 161761.
00:52:58 1124 1125	 1492649578	 362487306	 165797.
00:52:58 1125 1126	 1492649578	 524120436	 161633.
00:52:58 1126 1127	 1492649578	 689901893	 165782.
00:52:58 1127 1128	 1492649578	 851700619	 161798.
00:52:59 1128 1129	 1492649579	 13409985	 161710.
00:52:59 1129 1130	 1492649579	 150320660	 136910.
00:52:59 1130 1131	 1492649579	 308407330	 158087.
00:52:59 1131 1132	 1492649579	 474296070	 165889.
00:52:59 1132 1133	 1492649579	 636111045	 161815.
00:52:59 1133 1134	 1492649579	 801971667	 165860.
00:52:59 1134 1135	 1492649579	 963730456	 161759.
00:53:00 1135 1136	 1492649580	 129398548	 165668.
00:53:00 1136 1137	 1492649580	 291115335	 161717.
00:53:00 1137 1138	 1492649580	 456760727	 165646.
00:53:00 1138 1139	 1492649580	 589900418	 133139.
00:53:00 1139 1140	 1492649580	 755737665	 165837.
00:53:00 1140 1141	 1492649580	 917406543	 161669.
00:53:01 1141 1142	 1492649581	 83318690	 165912.
00:53:01 1142 1143	 1492649581	 245053011	 161735.
00:53:01 1143 1144	 1492649581	 406838860	 161786.
00:53:01 1144 1145	 1492649581	 572748647	 165909.
00:53:01 1145 1146	 1492649581	 705513725	 132765.
00:53:01 1146 1147	 1492649581	 871462513	 165949.
00:53:02 1147 1148	 1492649582	 33334158	 161872.
00:53:02 1148 1149	 1492649582	 199144062	 165810.
00:53:02 1149 1150	 1492649582	 360992766	 161848.
00:53:02 1150 1151	 1492649582	 526868286	 165876.
00:53:02 1151 1152	 1492649582	 688706972	 161839.
00:53:02 1152 1153	 1492649582	 821761671	 133054.
00:53:02 1153 1154	 1492649582	 987789478	 166028.
00:53:03 1154 1155	 1492649583	 149643878	 161855.
00:53:03 1155 1156	 1492649583	 315515757	 165871.
00:53:03 1156 1157	 1492649583	 477225353	 161710.
00:53:03 1157 1158	 1492649583	 643034687	 165809.
00:53:03 1158 1159	 1492649583	 804880152	 161846.
00:53:03 1159 1160	 1492649583	 966566796	 161687.
00:53:04 1160 1161	 1492649584	 103727736	 137160.
00:53:04 1161 1162	 1492649584	 265390514	 161663.
00:53:04 1162 1163	 1492649584	 431352231	 165962.
00:53:04 1163 1164	 1492649584	 593276848	 161925.
00:53:04 1164 1165	 1492649584	 759081396	 165804.
00:53:04 1165 1166	 1492649584	 920798635	 161717.
00:53:05 1166 1167	 1492649585	 86529105	 165731.
00:53:05 1167 1168	 1492649585	 219858601	 133329.
00:53:05 1168 1169	 1492649585	 385784320	 165926.
00:53:05 1169 1170	 1492649585	 547597443	 161813.
00:53:05 1170 1171	 1492649585	 713542072	 165945.
00:53:05 1171 1172	 1492649585	 875297760	 161755.
00:53:06 1172 1173	 1492649586	 37067509	 161770.
00:53:06 1173 1174	 1492649586	 203009922	 165943.
00:53:06 1174 1175	 1492649586	 336075208	 133065.
00:53:06 1175 1176	 1492649586	 501795491	 165720.
00:53:06 1176 1177	 1492649586	 663626678	 161831.
00:53:06 1177 1178	 1492649586	 829592526	 165966.
00:53:06 1178 1179	 1492649586	 992287939	 162696.
00:53:07 1179 1180	 1492649587	 150101178	 157813.
00:53:07 1180 1181	 1492649587	 316077235	 165976.
00:53:07 1181 1182	 1492649587	 477853747	 161776.
00:53:07 1182 1183	 1492649587	 643669122	 165816.
00:53:07 1183 1184	 1492649587	 776796529	 133127.
00:53:07 1184 1185	 1492649587	 942595545	 165799.
00:53:08 1185 1186	 1492649588	 104330235	 161735.
00:53:08 1186 1187	 1492649588	 270094415	 165764.
00:53:08 1187 1188	 1492649588	 431664351	 161570.
00:53:08 1188 1189	 1492649588	 597539311	 165875.
00:53:08 1189 1190	 1492649588	 759242420	 161703.
00:53:08 1190 1191	 1492649588	 896503268	 137261.
00:53:09 1191 1192	 1492649589	 58239819	 161736.
00:53:09 1192 1193	 1492649589	 224020863	 165782.
00:53:09 1193 1194	 1492649589	 385764808	 161744.
00:53:09 1194 1195	 1492649589	 547504151	 161739.
00:53:09 1195 1196	 1492649589	 713339212	 165835.
00:53:09 1196 1197	 1492649589	 846273664	 132934.
00:53:10 1197 1198	 1492649590	 12175164	 165902.
00:53:10 1198 1199	 1492649590	 173850984	 161676.
00:53:10 1199 1200	 1492649590	 335832747	 161981.
00:53:10 1200 1201	 1492649590	 501755157	 165923.
00:53:10 1201 1202	 1492649590	 663501532	 161746.
00:53:10 1202 1203	 1492649590	 829274110	 165773.
00:53:10 1203 1204	 1492649590	 995171017	 165897.
00:53:11 1204 1205	 1492649591	 128338150	 133167.
00:53:11 1205 1206	 1492649591	 290072031	 161734.
00:53:11 1206 1207	 1492649591	 455857418	 165785.
00:53:11 1207 1208	 1492649591	 617652935	 161796.
00:53:11 1208 1209	 1492649591	 783608422	 165955.
00:53:11 1209 1210	 1492649591	 945375304	 161767.
00:53:12 1210 1211	 1492649592	 107256021	 161881.
00:53:12 1211 1212	 1492649592	 273074425	 165818.
00:53:12 1212 1213	 1492649592	 434712273	 161638.
00:53:12 1213 1214	 1492649592	 571808727	 137097.
00:53:12 1214 1215	 1492649592	 733419347	 161610.
00:53:12 1215 1216	 1492649592	 899270483	 165851.
00:53:13 1216 1217	 1492649593	 61010261	 161740.
00:53:13 1217 1218	 1492649593	 226730094	 165720.
00:53:13 1218 1219	 1492649593	 388373984	 161644.
00:53:13 1219 1220	 1492649593	 525584094	 137210.
00:53:13 1220 1221	 1492649593	 687357023	 161773.
00:53:13 1221 1222	 1492649593	 853082612	 165725.
00:53:14 1222 1223	 1492649594	 14674418	 161592.
00:53:14 1223 1224	 1492649594	 176220163	 161546.
00:53:14 1224 1225	 1492649594	 341914585	 165694.
00:53:14 1225 1226	 1492649594	 503620037	 161706.
00:53:14 1226 1227	 1492649594	 640708424	 137088.
00:53:14 1227 1228	 1492649594	 802392295	 161684.
00:53:14 1228 1229	 1492649594	 968132154	 165740.
00:53:15 1229 1230	 1492649595	 129790963	 161659.
00:53:15 1230 1231	 1492649595	 291523826	 161733.
00:53:15 1231 1232	 1492649595	 457102098	 165578.
00:53:15 1232 1233	 1492649595	 618875159	 161773.
00:53:15 1233 1234	 1492649595	 756029396	 137154.
00:53:15 1234 1235	 1492649595	 917668613	 161639.
00:53:16 1235 1236	 1492649596	 83552013	 165884.
00:53:16 1236 1237	 1492649596	 245284261	 161732.
00:53:16 1237 1238	 1492649596	 407141368	 161857.
00:53:16 1238 1239	 1492649596	 573006413	 165865.
00:53:16 1239 1240	 1492649596	 734651916	 161646.
00:53:16 1240 1241	 1492649596	 900434099	 165782.
00:53:17 1241 1242	 1492649597	 33519245	 133085.
00:53:17 1242 1243	 1492649597	 199378815	 165860.
00:53:17 1243 1244	 1492649597	 361150285	 161771.
00:53:17 1244 1245	 1492649597	 523006558	 161856.
00:53:17 1245 1246	 1492649597	 688845493	 165839.
00:53:17 1246 1247	 1492649597	 850533505	 161688.
00:53:18 1247 1248	 1492649598	 16247118	 165714.
00:53:18 1248 1249	 1492649598	 149275497	 133028.
00:53:18 1249 1250	 1492649598	 311005089	 161730.
00:53:18 1250 1251	 1492649598	 476848449	 165843.
00:53:18 1251 1252	 1492649598	 638583934	 161736.
00:53:18 1252 1253	 1492649598	 804392474	 165808.
00:53:18 1253 1254	 1492649598	 965926780	 161535.
00:53:19 1254 1255	 1492649599	 131703602	 165776.
00:53:19 1255 1256	 1492649599	 293684502	 161981.
00:53:19 1256 1257	 1492649599	 426736373	 133052.
00:53:19 1257 1258	 1492649599	 592459551	 165723.
00:53:19 1258 1259	 1492649599	 754133215	 161674.
00:53:19 1259 1260	 1492649599	 920011591	 165878.
00:53:20 1260 1261	 1492649600	 81732505	 161721.
00:53:20 1261 1262	 1492649600	 247450078	 165718.
00:53:20 1262 1263	 1492649600	 409127314	 161677.
00:53:20 1263 1264	 1492649600	 542199400	 133072.
00:53:20 1264 1265	 1492649600	 707987546	 165788.
00:53:20 1265 1266	 1492649600	 869588860	 161602.
00:53:21 1266 1267	 1492649601	 35284034	 165695.
00:53:21 1267 1268	 1492649601	 196812052	 161528.
00:53:21 1268 1269	 1492649601	 362587457	 165775.
00:53:21 1269 1270	 1492649601	 524189937	 161603.
00:53:21 1270 1271	 1492649601	 661291927	 137102.
00:53:21 1271 1272	 1492649601	 822921440	 161629.
00:53:21 1272 1273	 1492649601	 984523183	 161602.
00:53:22 1273 1274	 1492649602	 150107690	 165584.
00:53:22 1274 1275	 1492649602	 311724674	 161617.
00:53:22 1275 1276	 1492649602	 477168009	 165444.
00:53:22 1276 1277	 1492649602	 610215342	 133047.
00:53:22 1277 1278	 1492649602	 776202881	 165988.
00:53:22 1278 1279	 1492649602	 937969149	 161766.
00:53:23 1279 1280	 1492649603	 103732195	 165763.
00:53:23 1280 1281	 1492649603	 265419423	 161687.
00:53:23 1281 1282	 1492649603	 426923325	 161504.
00:53:23 1282 1283	 1492649603	 592900224	 165977.
00:53:23 1283 1284	 1492649603	 725681526	 132781.
00:53:23 1284 1285	 1492649603	 912683064	 187002.
00:53:24 1285 1286	 1492649604	 49786667	 137103.
00:53:24 1286 1287	 1492649604	 211439963	 161654.
00:53:24 1287 1288	 1492649604	 377245591	 165805.
00:53:24 1288 1289	 1492649604	 539055743	 161810.
00:53:24 1289 1290	 1492649604	 700732501	 161677.
00:53:24 1290 1291	 1492649604	 866438760	 165706.
00:53:24 1291 1292	 1492649604	 999345425	 132907.
00:53:25 1292 1293	 1492649605	 164965739	 165620.
00:53:25 1293 1294	 1492649605	 326742358	 161777.
00:53:25 1294 1295	 1492649605	 492343455	 165601.
00:53:25 1295 1296	 1492649605	 654121129	 161778.
00:53:25 1296 1297	 1492649605	 819814739	 165693.
00:53:25 1297 1298	 1492649605	 981483077	 161669.
00:53:26 1298 1299	 1492649606	 114481359	 132998.
00:53:26 1299 1300	 1492649606	 280173026	 165692.
00:53:26 1300 1301	 1492649606	 445856744	 165683.
00:53:26 1301 1302	 1492649606	 607558323	 161702.
00:53:26 1302 1303	 1492649606	 769401179	 161843.
00:53:26 1303 1304	 1492649606	 935137649	 165736.
00:53:27 1304 1305	 1492649607	 68163305	 133026.
00:53:27 1305 1306	 1492649607	 234096428	 165933.
00:53:27 1306 1307	 1492649607	 395784591	 161688.
00:53:27 1307 1308	 1492649607	 561505370	 165721.
00:53:27 1308 1309	 1492649607	 722988815	 161484.
00:53:27 1309 1310	 1492649607	 888899375	 165910.
00:53:28 1310 1311	 1492649608	 50673084	 161774.
00:53:28 1311 1312	 1492649608	 216260930	 165588.
00:53:28 1312 1313	 1492649608	 349460748	 133199.
00:53:28 1313 1314	 1492649608	 511335839	 161876.
00:53:28 1314 1315	 1492649608	 677134401	 165798.
00:53:28 1315 1316	 1492649608	 838890766	 161756.
00:53:29 1316 1317	 1492649609	 4611000	 165721.
00:53:29 1317 1318	 1492649609	 166301313	 161690.
00:53:29 1318 1319	 1492649609	 327991188	 161690.
00:53:29 1319 1320	 1492649609	 493834376	 165843.
00:53:29 1320 1321	 1492649609	 627002503	 133168.
00:53:29 1321 1322	 1492649609	 792796846	 165795.
00:53:29 1322 1323	 1492649609	 954585836	 161789.
00:53:30 1323 1324	 1492649610	 120354602	 165768.
00:53:30 1324 1325	 1492649610	 286191516	 165837.
00:53:30 1325 1326	 1492649610	 447841545	 161650.
00:53:30 1326 1327	 1492649610	 580485748	 132644.
00:53:30 1327 1328	 1492649610	 746122326	 165637.
00:53:30 1328 1329	 1492649610	 907791857	 161670.
00:53:31 1329 1330	 1492649611	 73389432	 165597.
00:53:31 1330 1331	 1492649611	 234974329	 161585.
00:53:31 1331 1332	 1492649611	 400858207	 165884.
00:53:31 1332 1333	 1492649611	 562554557	 161696.
00:53:31 1333 1334	 1492649611	 699589424	 137035.
00:53:31 1334 1335	 1492649611	 857218325	 157629.
00:53:32 1335 1336	 1492649612	 22901426	 165683.
00:53:32 1336 1337	 1492649612	 188563130	 165662.
00:53:32 1337 1338	 1492649612	 350409163	 161846.
00:53:32 1338 1339	 1492649612	 512053139	 161644.
00:53:32 1339 1340	 1492649612	 649193664	 137140.
00:53:32 1340 1341	 1492649612	 810892247	 161699.
00:53:32 1341 1342	 1492649612	 976869348	 165977.
00:53:33 1342 1343	 1492649613	 138526836	 161658.
00:53:33 1343 1344	 1492649613	 304259886	 165733.
00:53:33 1344 1345	 1492649613	 466029445	 161769.
00:53:33 1345 1346	 1492649613	 631726649	 165697.
00:53:33 1346 1347	 1492649613	 793565279	 161839.
00:53:33 1347 1348	 1492649613	 926615580	 133050.
00:53:34 1348 1349	 1492649614	 92413695	 165798.
00:53:34 1349 1350	 1492649614	 254206169	 161793.
00:53:34 1350 1351	 1492649614	 420299604	 166093.
00:53:34 1351 1352	 1492649614	 582012733	 161713.
00:53:34 1352 1353	 1492649614	 747814140	 165802.
00:53:34 1353 1354	 1492649614	 909650073	 161836.
00:53:35 1354 1355	 1492649615	 71728189	 162078.
00:53:35 1355 1356	 1492649615	 237548298	 165820.
00:53:35 1356 1357	 1492649615	 370704421	 133156.
00:53:35 1357 1358	 1492649615	 536666270	 165962.
00:53:35 1358 1359	 1492649615	 698496073	 161830.
00:53:35 1359 1360	 1492649615	 860319045	 161823.
00:53:36 1360 1361	 1492649616	 26241551	 165922.
00:53:36 1361 1362	 1492649616	 187974449	 161733.
00:53:36 1362 1363	 1492649616	 353835269	 165861.
00:53:36 1363 1364	 1492649616	 515641224	 161806.
00:53:36 1364 1365	 1492649616	 677710285	 162069.
00:53:36 1365 1366	 1492649616	 810831517	 133121.
00:53:36 1366 1367	 1492649616	 976733716	 165902.
00:53:37 1367 1368	 1492649617	 138507688	 161774.
00:53:37 1368 1369	 1492649617	 304222539	 165715.
00:53:37 1369 1370	 1492649617	 466206730	 161985.
00:53:37 1370 1371	 1492649617	 632083719	 165876.
00:53:37 1371 1372	 1492649617	 794263500	 162180.
00:53:37 1372 1373	 1492649617	 956075467	 161812.
00:53:38 1373 1374	 1492649618	 117917746	 161842.
00:53:38 1374 1375	 1492649618	 255113740	 137196.
00:53:38 1375 1376	 1492649618	 416988734	 161875.
00:53:38 1376 1377	 1492649618	 582659276	 165671.
00:53:38 1377 1378	 1492649618	 744314123	 161655.
00:53:38 1378 1379	 1492649618	 910321499	 166007.
00:53:39 1379 1380	 1492649619	 71973651	 161652.
00:53:39 1380 1381	 1492649619	 237856734	 165884.
00:53:39 1381 1382	 1492649619	 399613288	 161756.
00:53:39 1382 1383	 1492649619	 536652380	 137039.
00:53:39 1383 1384	 1492649619	 698535914	 161884.
00:53:39 1384 1385	 1492649619	 864328021	 165792.
00:53:40 1385 1386	 1492649620	 26229822	 161902.
00:53:40 1386 1387	 1492649620	 188153997	 161924.
00:53:40 1387 1388	 1492649620	 354089485	 165935.
00:53:40 1388 1389	 1492649620	 519957024	 165868.
00:53:40 1389 1390	 1492649620	 681716651	 161759.
00:53:40 1390 1391	 1492649620	 840424787	 158709.
00:53:41 1391 1392	 1492649621	 2158315	 161733.
00:53:41 1392 1393	 1492649621	 139342308	 137184.
00:53:41 1393 1394	 1492649621	 301179374	 161837.
00:53:41 1394 1395	 1492649621	 467087595	 165908.
00:53:41 1395 1396	 1492649621	 629018165	 161931.
00:53:41 1396 1397	 1492649621	 795038915	 166021.
00:53:41 1397 1398	 1492649621	 956905816	 161867.
00:53:42 1398 1399	 1492649622	 118709058	 161803.
00:53:42 1399 1400	 1492649622	 284729811	 166021.
00:53:42 1400 1401	 1492649622	 417747790	 133017.
00:53:42 1401 1402	 1492649622	 583558717	 165811.
00:53:42 1402 1403	 1492649622	 749499604	 165941.
00:53:42 1403 1404	 1492649622	 911271502	 161772.
00:53:43 1404 1405	 1492649623	 77051163	 165780.
00:53:43 1405 1406	 1492649623	 238853754	 161802.
00:53:43 1406 1407	 1492649623	 400860445	 162007.
00:53:43 1407 1408	 1492649623	 538037523	 137177.
00:53:43 1408 1409	 1492649623	 699942813	 161906.
00:53:43 1409 1410	 1492649623	 865954267	 166011.
00:53:44 1410 1411	 1492649624	 27676973	 161723.
00:53:44 1411 1412	 1492649624	 193537138	 165860.
00:53:44 1412 1413	 1492649624	 355347054	 161810.
00:53:44 1413 1414	 1492649624	 521277466	 165930.
00:53:44 1414 1415	 1492649624	 654430205	 133153.
00:53:44 1415 1416	 1492649624	 820152207	 165722.
00:53:44 1416 1417	 1492649624	 982158011	 162006.
00:53:45 1417 1418	 1492649625	 148141206	 165983.
00:53:45 1418 1419	 1492649625	 310090771	 161950.
00:53:45 1419 1420	 1492649625	 476032300	 165941.
00:53:45 1420 1421	 1492649625	 637793440	 161761.
00:53:45 1421 1422	 1492649625	 803797566	 166004.
00:53:45 1422 1423	 1492649625	 936986857	 133190.
00:53:46 1423 1424	 1492649626	 98996448	 162009.
00:53:46 1424 1425	 1492649626	 261035814	 162040.
00:53:46 1425 1426	 1492649626	 426871633	 165835.
00:53:46 1426 1427	 1492649626	 588801792	 161931.
00:53:46 1427 1428	 1492649626	 754561387	 165759.
00:53:46 1428 1429	 1492649626	 916459521	 161898.
00:53:47 1429 1430	 1492649627	 78234251	 161775.
00:53:47 1430 1431	 1492649627	 244430837	 166197.
00:53:47 1431 1432	 1492649627	 402694245	 158263.
00:53:47 1432 1433	 1492649627	 535879172	 133185.
00:53:47 1433 1434	 1492649627	 701781963	 165903.
00:53:47 1434 1435	 1492649627	 863603760	 161821.
00:53:48 1435 1436	 1492649628	 29642557	 166040.
00:53:48 1436 1437	 1492649628	 191445129	 161802.
00:53:48 1437 1438	 1492649628	 357399570	 165954.
00:53:48 1438 1439	 1492649628	 519229896	 161831.
00:53:48 1439 1440	 1492649628	 681104366	 161874.
00:53:48 1440 1441	 1492649628	 818178416	 137074.
00:53:48 1441 1442	 1492649628	 979967390	 161789.
00:53:49 1442 1443	 1492649629	 145784273	 165817.
00:53:49 1443 1444	 1492649629	 307724695	 161940.
00:53:49 1444 1445	 1492649629	 473669328	 165945.
00:53:49 1445 1446	 1492649629	 635611006	 161942.
00:53:49 1446 1447	 1492649629	 801577191	 165966.
00:53:49 1447 1448	 1492649629	 963417581	 161840.
00:53:50 1448 1449	 1492649630	 100539133	 137122.
00:53:50 1449 1450	 1492649630	 262439930	 161901.
00:53:50 1450 1451	 1492649630	 428398363	 165958.
00:53:50 1451 1452	 1492649630	 590277965	 161880.
00:53:50 1452 1453	 1492649630	 752119781	 161842.
00:53:50 1453 1454	 1492649630	 918112614	 165992.
00:53:51 1454 1455	 1492649631	 80095726	 161983.
00:53:51 1455 1456	 1492649631	 245971541	 165876.
00:53:51 1456 1457	 1492649631	 379204455	 133233.
00:53:51 1457 1458	 1492649631	 545120661	 165916.
00:53:51 1458 1459	 1492649631	 706976428	 161856.
00:53:51 1459 1460	 1492649631	 872657504	 165681.
00:53:52 1460 1461	 1492649632	 34536640	 161879.
00:53:52 1461 1462	 1492649632	 200475819	 165940.
00:53:52 1462 1463	 1492649632	 362329176	 161853.
00:53:52 1463 1464	 1492649632	 499546644	 137217.
00:53:52 1464 1465	 1492649632	 661382261	 161836.
00:53:52 1465 1466	 1492649632	 827233988	 165852.
00:53:52 1466 1467	 1492649632	 989097882	 161864.
00:53:53 1467 1468	 1492649633	 154824209	 165726.
00:53:53 1468 1469	 1492649633	 316641751	 161817.
00:53:53 1469 1470	 1492649633	 478475667	 161834.
00:53:53 1470 1471	 1492649633	 644497564	 166023.
00:53:53 1471 1472	 1492649633	 777716126	 133218.
00:53:53 1472 1473	 1492649633	 943624737	 165908.
00:53:54 1473 1474	 1492649634	 105491606	 161867.
00:53:54 1474 1475	 1492649634	 271242615	 165751.
00:53:54 1475 1476	 1492649634	 433144221	 161902.
00:53:54 1476 1477	 1492649634	 599031191	 165887.
00:53:54 1477 1478	 1492649634	 760920031	 161889.
00:53:54 1478 1479	 1492649634	 926805995	 165886.
00:53:55 1479 1480	 1492649635	 59854032	 133048.
00:53:55 1480 1481	 1492649635	 225748208	 165894.
00:53:55 1481 1482	 1492649635	 387710475	 161962.
00:53:55 1482 1483	 1492649635	 553648864	 165939.
00:53:55 1483 1484	 1492649635	 715421986	 161773.
00:53:55 1484 1485	 1492649635	 877228665	 161807.
00:53:56 1485 1486	 1492649636	 43024887	 165796.
00:53:56 1486 1487	 1492649636	 176170831	 133146.
00:53:56 1487 1488	 1492649636	 342112885	 165942.
00:53:56 1488 1489	 1492649636	 503946078	 161833.
00:53:56 1489 1490	 1492649636	 669783037	 165837.
00:53:56 1490 1491	 1492649636	 831605548	 161822.
00:53:56 1491 1492	 1492649636	 997398423	 165793.
00:53:57 1492 1493	 1492649637	 159237869	 161840.
00:53:57 1493 1494	 1492649637	 325119031	 165881.
00:53:57 1494 1495	 1492649637	 458347880	 133229.
00:53:57 1495 1496	 1492649637	 624150217	 165802.
00:53:57 1496 1497	 1492649637	 787008296	 162858.
00:53:57 1497 1498	 1492649637	 944918106	 157910.
00:53:58 1498 1499	 1492649638	 110783061	 165865.
00:53:58 1499 1500	 1492649638	 272585704	 161802.
00:53:58 1500 1501	 1492649638	 438560009	 165975.
00:53:58 1501 1502	 1492649638	 600524060	 161964.
00:53:58 1502 1503	 1492649638	 762657635	 162133.
00:53:58 1503 1504	 1492649638	 924641620	 161984.
00:53:59 1504 1505	 1492649639	 90514329	 165873.
00:53:59 1505 1506	 1492649639	 223689490	 133175.
00:53:59 1506 1507	 1492649639	 389671572	 165982.
00:53:59 1507 1508	 1492649639	 551443275	 161772.
00:53:59 1508 1509	 1492649639	 717589484	 166146.
00:53:59 1509 1510	 1492649639	 879595909	 162007.
00:54:00 1510 1511	 1492649640	 45740206	 166144.
00:54:00 1511 1512	 1492649640	 207572610	 161832.
00:54:00 1512 1513	 1492649640	 373509060	 165937.
00:54:00 1513 1514	 1492649640	 506725662	 133216.
00:54:00 1514 1515	 1492649640	 668553444	 161828.
00:54:00 1515 1516	 1492649640	 834329203	 165776.
00:54:00 1516 1517	 1492649640	 996042518	 161713.
00:54:01 1517 1518	 1492649641	 161944867	 165903.
00:54:01 1518 1519	 1492649641	 327811184	 165866.
00:54:01 1519 1520	 1492649641	 489689076	 161878.
00:54:01 1520 1521	 1492649641	 651789799	 162101.
00:54:01 1521 1522	 1492649641	 788958078	 137168.
00:54:01 1522 1523	 1492649641	 950855348	 161897.
00:54:02 1523 1524	 1492649642	 116795607	 165940.
00:54:02 1524 1525	 1492649642	 278703136	 161908.
00:54:02 1525 1526	 1492649642	 444498681	 165795.
00:54:02 1526 1527	 1492649642	 606467195	 161969.
00:54:02 1527 1528	 1492649642	 772290832	 165824.
00:54:02 1528 1529	 1492649642	 934122202	 161831.
00:54:03 1529 1530	 1492649643	 67512256	 133390.
00:54:03 1530 1531	 1492649643	 233533904	 166022.
00:54:03 1531 1532	 1492649643	 395473367	 161939.
00:54:03 1532 1533	 1492649643	 562117685	 166644.
00:54:03 1533 1534	 1492649643	 719959377	 157842.
00:54:03 1534 1535	 1492649643	 885965507	 166006.
00:54:04 1535 1536	 1492649644	 52171363	 166206.
00:54:04 1536 1537	 1492649644	 214063124	 161892.
00:54:04 1537 1538	 1492649644	 375921420	 161858.
00:54:04 1538 1539	 1492649644	 513102480	 137181.
00:54:04 1539 1540	 1492649644	 674883988	 161782.
00:54:04 1540 1541	 1492649644	 840864847	 165981.
00:54:04 1541 1542	 1492649645	 2546932	 161682.
00:54:05 1542 1543	 1492649645	 168626496	 166080.
00:54:05 1543 1544	 1492649645	 330499138	 161872.
00:54:05 1544 1545	 1492649645	 496442509	 165943.
00:54:05 1545 1546	 1492649645	 633806801	 137365.
00:54:05 1546 1547	 1492649645	 795733276	 161926.
00:54:05 1547 1548	 1492649645	 957582736	 161849.
00:54:06 1548 1549	 1492649646	 123488453	 165906.
00:54:06 1549 1550	 1492649646	 285506854	 162019.
00:54:06 1550 1551	 1492649646	 451448179	 165941.
00:54:06 1551 1552	 1492649646	 613338735	 161890.
00:54:06 1552 1553	 1492649646	 779182684	 165844.
00:54:06 1553 1554	 1492649646	 912385175	 133203.
00:54:07 1554 1555	 1492649647	 78608542	 166223.
00:54:07 1555 1556	 1492649647	 240487755	 161879.
00:54:07 1556 1557	 1492649647	 406387708	 165900.
00:54:07 1557 1558	 1492649647	 568220848	 161834.
00:54:07 1558 1559	 1492649647	 734269709	 166048.
00:54:07 1559 1560	 1492649647	 896033778	 161764.
00:54:08 1560 1561	 1492649648	 57824260	 161791.
00:54:08 1561 1562	 1492649648	 194946965	 137123.
00:54:08 1562 1563	 1492649648	 356752984	 161806.
00:54:08 1563 1564	 1492649648	 522857704	 166104.
00:54:08 1564 1565	 1492649648	 684628269	 161771.
00:54:08 1565 1566	 1492649648	 846852599	 162224.
00:54:09 1566 1567	 1492649649	 12834189	 165982.
00:54:09 1567 1568	 1492649649	 174650209	 161816.
00:54:09 1568 1569	 1492649649	 340620354	 165970.
00:54:09 1569 1570	 1492649649	 473714377	 133094.
00:54:09 1570 1571	 1492649649	 639882074	 166168.
00:54:09 1571 1572	 1492649649	 797555645	 157673.
00:54:09 1572 1573	 1492649649	 963393685	 165838.
00:54:10 1573 1574	 1492649650	 129270685	 165878.
00:54:10 1574 1575	 1492649650	 291103133	 161832.
00:54:10 1575 1576	 1492649650	 452964243	 161861.
00:54:10 1576 1577	 1492649650	 618705759	 165741.
00:54:10 1577 1578	 1492649650	 751657022	 132952.
00:54:10 1578 1579	 1492649650	 917483663	 165826.
00:54:11 1579 1580	 1492649651	 79397587	 161914.
00:54:11 1580 1581	 1492649651	 245299481	 165902.
00:54:11 1581 1582	 1492649651	 407046017	 161747.
00:54:11 1582 1583	 1492649651	 572969043	 165923.
00:54:11 1583 1584	 1492649651	 734702964	 161734.
00:54:11 1584 1585	 1492649651	 896707506	 162004.
00:54:12 1585 1586	 1492649652	 62659415	 165952.
00:54:12 1586 1587	 1492649652	 195761649	 133103.
00:54:12 1587 1588	 1492649652	 361878973	 166117.
00:54:12 1588 1589	 1492649652	 523803372	 161924.
00:54:12 1589 1590	 1492649652	 689540339	 165737.
00:54:12 1590 1591	 1492649652	 851242243	 161702.
00:54:13 1591 1592	 1492649653	 12922017	 161680.
00:54:13 1592 1593	 1492649653	 178739689	 165817.
00:54:13 1593 1594	 1492649653	 344512815	 165774.
00:54:13 1594 1595	 1492649653	 473734961	 129222.
00:54:13 1595 1596	 1492649653	 639538576	 165803.
00:54:13 1596 1597	 1492649653	 801319534	 161781.
00:54:13 1597 1598	 1492649653	 967131593	 165812.
00:54:14 1598 1599	 1492649654	 128982344	 161851.
00:54:14 1599 1600	 1492649654	 294844831	 165863.
00:54:14 1600 1601	 1492649654	 456418065	 161573.
00:54:14 1601 1602	 1492649654	 593528103	 137110.
00:54:14 1602 1603	 1492649654	 780704704	 187176.
00:54:14 1603 1604	 1492649654	 913811722	 133107.
00:54:15 1604 1605	 1492649655	 79795832	 165985.
00:54:15 1605 1606	 1492649655	 241708260	 161912.
00:54:15 1606 1607	 1492649655	 407651150	 165943.
00:54:15 1607 1608	 1492649655	 569527261	 161876.
00:54:15 1608 1609	 1492649655	 735392396	 165865.
00:54:15 1609 1610	 1492649655	 897331030	 161939.
00:54:16 1610 1611	 1492649656	 63047589	 165716.
00:54:16 1611 1612	 1492649656	 196123843	 133077.
00:54:16 1612 1613	 1492649656	 357885156	 161761.
00:54:16 1613 1614	 1492649656	 523609928	 165725.
00:54:16 1614 1615	 1492649656	 685404818	 161795.
00:54:16 1615 1616	 1492649656	 851298976	 165894.
00:54:17 1616 1617	 1492649657	 12949028	 161650.
00:54:17 1617 1618	 1492649657	 174701904	 161753.
00:54:17 1618 1619	 1492649657	 340932449	 166230.
00:54:17 1619 1620	 1492649657	 498571895	 157640.
00:54:17 1620 1621	 1492649657	 635581542	 137009.
00:54:17 1621 1622	 1492649657	 797173045	 161592.
00:54:17 1622 1623	 1492649657	 962711081	 165538.
00:54:18 1623 1624	 1492649658	 124324973	 161614.
00:54:18 1624 1625	 1492649658	 285961627	 161636.
00:54:18 1625 1626	 1492649658	 451936726	 165975.
00:54:18 1626 1627	 1492649658	 613608994	 161673.
00:54:18 1627 1628	 1492649658	 746612250	 133003.
00:54:18 1628 1629	 1492649658	 912351697	 165739.
00:54:19 1629 1630	 1492649659	 70636991	 158286.
00:54:19 1630 1631	 1492649659	 236422718	 165785.
00:54:19 1631 1632	 1492649659	 398056820	 161635.
00:54:19 1632 1633	 1492649659	 563719653	 165662.
00:54:19 1633 1634	 1492649659	 725490002	 161771.
00:54:19 1634 1635	 1492649659	 891287564	 165797.
00:54:20 1635 1636	 1492649660	 24290028	 133003.
00:54:20 1636 1637	 1492649660	 186006165	 161716.
00:54:20 1637 1638	 1492649660	 351779501	 165773.
00:54:20 1638 1639	 1492649660	 513368875	 161590.
00:54:20 1639 1640	 1492649660	 674855006	 161486.
00:54:20 1640 1641	 1492649660	 840565798	 165711.
00:54:21 1641 1642	 1492649661	 2212502	 161646.
00:54:21 1642 1643	 1492649661	 139300070	 137088.
00:54:21 1643 1644	 1492649661	 301016218	 161716.
00:54:21 1644 1645	 1492649661	 466599478	 165583.
00:54:21 1645 1646	 1492649661	 628171828	 161573.
00:54:21 1646 1647	 1492649661	 793869141	 165697.
00:54:21 1647 1648	 1492649661	 955517390	 161648.
00:54:22 1648 1649	 1492649662	 117442805	 161926.
00:54:22 1649 1650	 1492649662	 250440090	 132997.
00:54:22 1650 1651	 1492649662	 416204597	 165764.
00:54:22 1651 1652	 1492649662	 577845650	 161642.
00:54:22 1652 1653	 1492649662	 743611960	 165766.
00:54:22 1653 1654	 1492649662	 905345087	 161733.
00:54:23 1654 1655	 1492649663	 71030345	 165685.
00:54:23 1655 1656	 1492649663	 203954855	 132925.
00:54:23 1656 1657	 1492649663	 365591708	 161636.
00:54:23 1657 1658	 1492649663	 531303828	 165713.
00:54:23 1658 1659	 1492649663	 692944129	 161640.
00:54:23 1659 1660	 1492649663	 858614286	 165670.
00:54:24 1660 1661	 1492649664	 20348324	 161734.
00:54:24 1661 1662	 1492649664	 186089182	 165741.
00:54:24 1662 1663	 1492649664	 319442409	 133353.
00:54:24 1663 1664	 1492649664	 481143194	 161701.
00:54:24 1664 1665	 1492649664	 646905711	 165762.
00:54:24 1665 1666	 1492649664	 808812983	 161908.
00:54:24 1666 1667	 1492649664	 970569184	 161756.
00:54:25 1667 1668	 1492649665	 136313371	 165744.
00:54:25 1668 1669	 1492649665	 298051204	 161738.
00:54:25 1669 1670	 1492649665	 431138484	 133087.
00:54:25 1670 1671	 1492649665	 596955705	 165817.
00:54:25 1671 1672	 1492649665	 758744154	 161789.
00:54:25 1672 1673	 1492649665	 924504067	 165760.
00:54:26 1673 1674	 1492649666	 86207655	 161704.
00:54:26 1674 1675	 1492649666	 247854568	 161646.
00:54:26 1675 1676	 1492649666	 413756794	 165903.
00:54:26 1676 1677	 1492649666	 575536585	 161779.
00:54:26 1677 1678	 1492649666	 712714267	 137178.
00:54:26 1678 1679	 1492649666	 874453498	 161739.
00:54:27 1679 1680	 1492649667	 40173679	 165720.
00:54:27 1680 1681	 1492649667	 201908136	 161735.
00:54:27 1681 1682	 1492649667	 367732309	 165824.
00:54:27 1682 1683	 1492649667	 529440866	 161709.
00:54:27 1683 1684	 1492649667	 695374483	 165933.
00:54:27 1684 1685	 1492649667	 828378261	 133004.
00:54:27 1685 1686	 1492649667	 990218365	 161840.
00:54:28 1686 1687	 1492649668	 156096977	 165879.
00:54:28 1687 1688	 1492649668	 318134334	 162037.
00:54:28 1688 1689	 1492649668	 483896275	 165762.
00:54:28 1689 1690	 1492649668	 645646540	 161750.
00:54:28 1690 1691	 1492649668	 807828445	 162182.
00:54:28 1691 1692	 1492649668	 969577346	 161749.
00:54:29 1692 1693	 1492649669	 135513825	 165937.
00:54:29 1693 1694	 1492649669	 268532730	 133018.
00:54:29 1694 1695	 1492649669	 430149531	 161617.
00:54:29 1695 1696	 1492649669	 595780998	 165632.
00:54:29 1696 1697	 1492649669	 757596275	 161815.
00:54:29 1697 1698	 1492649669	 923362172	 165766.
00:54:30 1698 1699	 1492649670	 81527754	 158166.
00:54:30 1699 1700	 1492649670	 247516564	 165988.
00:54:30 1700 1701	 1492649670	 405658335	 158142.
00:54:30 1701 1702	 1492649670	 542790036	 137132.
00:54:30 1702 1703	 1492649670	 704645294	 161855.
00:54:30 1703 1704	 1492649670	 866448059	 161803.
00:54:31 1704 1705	 1492649671	 32192723	 165744.
00:54:31 1705 1706	 1492649671	 193801499	 161609.
00:54:31 1706 1707	 1492649671	 359715470	 165914.
00:54:31 1707 1708	 1492649671	 521405726	 161690.
00:54:31 1708 1709	 1492649671	 687464058	 166059.
00:54:31 1709 1710	 1492649671	 820676086	 133212.
00:54:31 1710 1711	 1492649671	 982334691	 161658.
00:54:32 1711 1712	 1492649672	 148003984	 165670.
00:54:32 1712 1713	 1492649672	 309844446	 161840.
00:54:32 1713 1714	 1492649672	 471683675	 161839.
00:54:32 1714 1715	 1492649672	 637411651	 165728.
00:54:32 1715 1716	 1492649672	 770264313	 132853.
00:54:32 1716 1717	 1492649672	 936014964	 165751.
00:54:33 1717 1718	 1492649673	 97811985	 161797.
00:54:33 1718 1719	 1492649673	 259692925	 161881.
00:54:33 1719 1720	 1492649673	 425542686	 165849.
00:54:33 1720 1721	 1492649673	 587310196	 161768.
00:54:33 1721 1722	 1492649673	 753021883	 165712.
00:54:33 1722 1723	 1492649673	 886009376	 132987.
00:54:34 1723 1724	 1492649674	 48029922	 162021.
00:54:34 1724 1725	 1492649674	 209855350	 161825.
00:54:34 1725 1726	 1492649674	 375562651	 165707.
00:54:34 1726 1727	 1492649674	 537349341	 161787.
00:54:34 1727 1728	 1492649674	 703152170	 165803.
00:54:34 1728 1729	 1492649674	 864967285	 161815.
00:54:35 1729 1730	 1492649675	 30900823	 165934.
00:54:35 1730 1731	 1492649675	 164029009	 133128.
00:54:35 1731 1732	 1492649675	 325924686	 161895.
00:54:35 1732 1733	 1492649675	 491706715	 165782.
00:54:35 1733 1734	 1492649675	 653466295	 161760.
00:54:35 1734 1735	 1492649675	 815144984	 161679.
00:54:35 1735 1736	 1492649675	 980861091	 165716.
00:54:36 1736 1737	 1492649676	 142712982	 161852.
00:54:36 1737 1738	 1492649676	 308721921	 166009.
00:54:36 1738 1739	 1492649676	 441638136	 132916.
00:54:36 1739 1740	 1492649676	 603420475	 161782.
00:54:36 1740 1741	 1492649676	 769096634	 165676.
00:54:36 1741 1742	 1492649676	 930808357	 161712.
00:54:37 1742 1743	 1492649677	 96757724	 165949.
00:54:37 1743 1744	 1492649677	 258382151	 161625.
00:54:37 1744 1745	 1492649677	 424294710	 165912.
00:54:37 1745 1746	 1492649677	 557396510	 133102.
00:54:37 1746 1747	 1492649677	 723201808	 165806.
00:54:37 1747 1748	 1492649677	 884997900	 161796.
00:54:38 1748 1749	 1492649678	 46732341	 161734.
00:54:38 1749 1750	 1492649678	 208533616	 161801.
00:54:38 1750 1751	 1492649678	 374272172	 165739.
00:54:38 1751 1752	 1492649678	 539970025	 165698.
00:54:38 1752 1753	 1492649678	 672972015	 133002.
00:54:38 1753 1754	 1492649678	 834636096	 161664.
00:54:38 1754 1755	 1492649679	 434575	 165798.
00:54:39 1755 1756	 1492649679	 162126863	 161693.
00:54:39 1756 1757	 1492649679	 327949993	 165823.
00:54:39 1757 1758	 1492649679	 489686053	 161736.
00:54:39 1758 1759	 1492649679	 655450577	 165764.
00:54:39 1759 1760	 1492649679	 817377201	 161927.
00:54:39 1760 1761	 1492649679	 950541305	 133164.
00:54:40 1761 1762	 1492649680	 116238212	 165697.
00:54:40 1762 1763	 1492649680	 277924912	 161687.
00:54:40 1763 1764	 1492649680	 443563952	 165639.
00:54:40 1764 1765	 1492649680	 605448099	 161884.
00:54:40 1765 1766	 1492649680	 771241660	 165793.
00:54:40 1766 1767	 1492649680	 933023676	 161782.
00:54:41 1767 1768	 1492649681	 70220090	 137197.
00:54:41 1768 1769	 1492649681	 231967765	 161748.
00:54:41 1769 1770	 1492649681	 397775027	 165807.
00:54:41 1770 1771	 1492649681	 559410266	 161635.
00:54:41 1771 1772	 1492649681	 721069872	 161660.
00:54:41 1772 1773	 1492649681	 886884745	 165814.
00:54:42 1773 1774	 1492649682	 48628847	 161745.
00:54:42 1774 1775	 1492649682	 185757155	 137128.
00:54:42 1775 1776	 1492649682	 347591896	 161835.
00:54:42 1776 1777	 1492649682	 509446218	 161854.
00:54:42 1777 1778	 1492649682	 675313662	 165867.
00:54:42 1778 1779	 1492649682	 837006396	 161693.
00:54:43 1779 1780	 1492649683	 3609936	 166604.
00:54:43 1780 1781	 1492649683	 161282497	 157672.
00:54:43 1781 1782	 1492649683	 322896256	 161614.
00:54:43 1782 1783	 1492649683	 488669349	 165773.
00:54:43 1783 1784	 1492649683	 621802710	 133133.
00:54:43 1784 1785	 1492649683	 787777633	 165975.
00:54:43 1785 1786	 1492649683	 949601119	 161824.
00:54:44 1786 1787	 1492649684	 115671302	 166070.
00:54:44 1787 1788	 1492649684	 277349211	 161678.
00:54:44 1788 1789	 1492649684	 443107688	 165758.
00:54:44 1789 1790	 1492649684	 604873417	 161766.
00:54:44 1790 1791	 1492649684	 766595981	 161723.
00:54:44 1791 1792	 1492649684	 903688150	 137092.
00:54:45 1792 1793	 1492649685	 65395597	 161707.
00:54:45 1793 1794	 1492649685	 231230886	 165836.
00:54:45 1794 1795	 1492649685	 393052062	 161821.
00:54:45 1795 1796	 1492649685	 558789332	 165737.
00:54:45 1796 1797	 1492649685	 721005869	 162217.
00:54:45 1797 1798	 1492649685	 882703201	 161697.
00:54:46 1798 1799	 1492649686	 44273353	 161570.
00:54:46 1799 1800	 1492649686	 177379963	 133107.
00:54:46 1800 1801	 1492649686	 343066852	 165687.
00:54:46 1801 1802	 1492649686	 504816357	 161749.
00:54:46 1802 1803	 1492649686	 670665059	 165849.
00:54:46 1803 1804	 1492649686	 832547130	 161882.
00:54:46 1804 1805	 1492649686	 998400356	 165853.
00:54:47 1805 1806	 1492649687	 160199776	 161800.
00:54:47 1806 1807	 1492649687	 297526856	 137327.
00:54:47 1807 1808	 1492649687	 459152791	 161626.
00:54:47 1808 1809	 1492649687	 625135253	 165982.
00:54:47 1809 1810	 1492649687	 786853962	 161719.
00:54:47 1810 1811	 1492649687	 952651963	 165798.
00:54:48 1811 1812	 1492649688	 114475199	 161823.
00:54:48 1812 1813	 1492649688	 276474925	 162000.
00:54:48 1813 1814	 1492649688	 438348500	 161873.
00:54:48 1814 1815	 1492649688	 575507697	 137159.
00:54:48 1815 1816	 1492649688	 737221810	 161715.
00:54:48 1816 1817	 1492649688	 903064027	 165842.
00:54:49 1817 1818	 1492649689	 65000202	 161936.
00:54:49 1818 1819	 1492649689	 226871990	 161872.
00:54:49 1819 1820	 1492649689	 388737490	 161865.
00:54:49 1820 1821	 1492649689	 554489082	 165752.
00:54:49 1821 1822	 1492649689	 716293542	 161804.
00:54:49 1822 1823	 1492649689	 853590314	 137297.
00:54:50 1823 1824	 1492649690	 15339204	 161749.
00:54:50 1824 1825	 1492649690	 181219473	 165880.
00:54:50 1825 1826	 1492649690	 342951590	 161732.
00:54:50 1826 1827	 1492649690	 504872853	 161922.
00:54:50 1827 1828	 1492649690	 670780192	 165907.
00:54:50 1828 1829	 1492649690	 832397175	 161617.
00:54:50 1829 1830	 1492649690	 994239115	 161842.
00:54:51 1830 1831	 1492649691	 131366997	 137128.
00:54:51 1831 1832	 1492649691	 293172069	 161805.
00:54:51 1832 1833	 1492649691	 458901818	 165730.
00:54:51 1833 1834	 1492649691	 620718248	 161816.
00:54:51 1834 1835	 1492649691	 782419516	 161701.
00:54:51 1835 1836	 1492649691	 948137832	 165719.
00:54:52 1836 1837	 1492649692	 109932489	 161794.
00:54:52 1837 1838	 1492649692	 275907259	 165975.
00:54:52 1838 1839	 1492649692	 405367672	 129461.
00:54:52 1839 1840	 1492649692	 571081305	 165713.
00:54:52 1840 1841	 1492649692	 732801998	 161721.
00:54:52 1841 1842	 1492649692	 898664477	 165862.
00:54:53 1842 1843	 1492649693	 60466585	 161802.
00:54:53 1843 1844	 1492649693	 226387447	 165921.
00:54:53 1844 1845	 1492649693	 388182966	 161796.
00:54:53 1845 1846	 1492649693	 550147479	 161964.
00:54:53 1846 1847	 1492649693	 683411528	 133264.
00:54:53 1847 1848	 1492649693	 849183487	 165772.
00:54:54 1848 1849	 1492649694	 14869715	 165686.
00:54:54 1849 1850	 1492649694	 176593585	 161724.
00:54:54 1850 1851	 1492649694	 338799291	 162206.
00:54:54 1851 1852	 1492649694	 500566934	 161768.
00:54:54 1852 1853	 1492649694	 662409014	 161842.
00:54:54 1853 1854	 1492649694	 828321808	 165913.
00:54:54 1854 1855	 1492649694	 961390913	 133069.
00:54:55 1855 1856	 1492649695	 123127716	 161736.
00:54:55 1856 1857	 1492649695	 289058186	 165931.
00:54:55 1857 1858	 1492649695	 450930918	 161873.
00:54:55 1858 1859	 1492649695	 616702437	 165771.
00:54:55 1859 1860	 1492649695	 778440209	 161738.
00:54:55 1860 1861	 1492649695	 944296267	 165856.
00:54:56 1861 1862	 1492649696	 106151810	 161856.
00:54:56 1862 1863	 1492649696	 272244863	 166093.
00:54:56 1863 1864	 1492649696	 405281668	 133036.
00:54:56 1864 1865	 1492649696	 567114800	 161834.
00:54:56 1865 1866	 1492649696	 732901943	 165787.
00:54:56 1866 1867	 1492649696	 894650129	 161748.
00:54:57 1867 1868	 1492649697	 60484580	 165834.
00:54:57 1868 1869	 1492649697	 222086925	 161603.
00:54:57 1869 1870	 1492649697	 388138401	 166051.
00:54:57 1870 1871	 1492649697	 521172361	 133034.
00:54:57 1871 1872	 1492649697	 682932130	 161760.
00:54:57 1872 1873	 1492649697	 844711414	 161779.
00:54:58 1873 1874	 1492649698	 10549363	 165838.
00:54:58 1874 1875	 1492649698	 172286766	 161737.
00:54:58 1875 1876	 1492649698	 338130205	 165844.
00:54:58 1876 1877	 1492649698	 499927504	 161797.
00:54:58 1877 1878	 1492649698	 665735808	 165809.
00:54:58 1878 1879	 1492649698	 798715225	 132979.
