22:15:22    0 Step	 time(s)	 time(ns)	 delta(ms)
22:15:22    0 1	 1492726522	 214130131	 927.
22:15:22    1 2	 1492726522	 375427970	 161298.
22:15:22    2 3	 1492726522	 541517954	 166090.
22:15:22    3 4	 1492726522	 674674643	 133156.
22:15:22    4 5	 1492726522	 836545489	 161871.
22:15:23    5 6	 1492726523	 2393155	 165848.
22:15:23    6 7	 1492726523	 164101771	 161709.
22:15:23    7 8	 1492726523	 329833464	 165731.
22:15:23    8 9	 1492726523	 491566678	 161733.
22:15:23    9 10	 1492726523	 653326009	 161760.
22:15:23   10 11	 1492726523	 819247830	 165922.
22:15:23   11 12	 1492726523	 952334303	 133086.
22:15:24   12 13	 1492726524	 118250499	 165916.
22:15:24   13 14	 1492726524	 280094137	 161844.
22:15:24   14 15	 1492726524	 445887960	 165794.
22:15:24   15 16	 1492726524	 607562093	 161674.
22:15:24   16 17	 1492726524	 769353590	 161791.
22:15:24   17 18	 1492726524	 935179298	 165826.
22:15:25   18 19	 1492726525	 97017269	 161838.
22:15:25   19 20	 1492726525	 262952109	 165935.
22:15:25   20 21	 1492726525	 395998064	 133046.
22:15:25   21 22	 1492726525	 561882060	 165884.
22:15:25   22 23	 1492726525	 723566854	 161685.
22:15:25   23 24	 1492726525	 885291297	 161724.
22:15:26   24 25	 1492726526	 51196991	 165906.
22:15:26   25 26	 1492726526	 213023261	 161826.
22:15:26   26 27	 1492726526	 378813541	 165790.
22:15:26   27 28	 1492726526	 540680097	 161867.
22:15:26   28 29	 1492726526	 702623520	 161943.
22:15:26   29 30	 1492726526	 839929986	 137307.
22:15:26   30 31	 1492726527	 1664504	 161734.
22:15:27   31 32	 1492726527	 167361558	 165697.
22:15:27   32 33	 1492726527	 329343246	 161982.
22:15:27   33 34	 1492726527	 491176961	 161834.
22:15:27   34 35	 1492726527	 667590767	 176414.
22:15:27   35 36	 1492726527	 800795117	 133204.
22:15:27   36 37	 1492726527	 966776467	 165981.
22:15:28   37 38	 1492726528	 128472177	 161696.
22:15:28   38 39	 1492726528	 294447724	 165976.
22:15:28   39 40	 1492726528	 456294395	 161846.
22:15:28   40 41	 1492726528	 622117003	 165823.
22:15:28   41 42	 1492726528	 783940702	 161823.
22:15:28   42 43	 1492726528	 921166297	 137226.
22:15:29   43 44	 1492726529	 82996191	 161830.
22:15:29   44 45	 1492726529	 248856218	 165860.
22:15:29   45 46	 1492726529	 410509629	 161653.
22:15:29   46 47	 1492726529	 572358718	 161850.
22:15:29   47 48	 1492726529	 738218241	 165859.
22:15:29   48 49	 1492726529	 900097226	 161879.
22:15:30   49 50	 1492726530	 65895219	 165798.
22:15:30   50 51	 1492726530	 198988372	 133093.
22:15:30   51 52	 1492726530	 360800376	 161812.
22:15:30   52 53	 1492726530	 526750341	 165950.
22:15:30   53 54	 1492726530	 688528431	 161778.
22:15:30   54 55	 1492726530	 854342970	 165815.
22:15:31   55 56	 1492726531	 16072096	 161729.
22:15:31   56 57	 1492726531	 181915970	 165844.
22:15:31   57 58	 1492726531	 343640580	 161724.
22:15:31   58 59	 1492726531	 476710267	 133070.
22:15:31   59 60	 1492726531	 642586915	 165877.
22:15:31   60 61	 1492726531	 804294987	 161708.
22:15:31   61 62	 1492726531	 966068232	 161773.
22:15:32   62 63	 1492726532	 132073283	 166005.
22:15:32   63 64	 1492726532	 293989621	 161916.
22:15:32   64 65	 1492726532	 459802795	 165814.
22:15:32   65 66	 1492726532	 621845724	 162043.
22:15:32   66 67	 1492726532	 787800289	 165954.
22:15:32   67 68	 1492726532	 920980416	 133180.
22:15:33   68 69	 1492726533	 86857279	 165877.
22:15:33   69 70	 1492726533	 248764740	 161908.
22:15:33   70 71	 1492726533	 414530915	 165766.
22:15:33   71 72	 1492726533	 576266822	 161736.
22:15:33   72 73	 1492726533	 742344024	 166077.
22:15:33   73 74	 1492726533	 904154942	 161811.
22:15:34   74 75	 1492726534	 102504965	 198350.
22:15:34   75 76	 1492726534	 298102066	 195597.
22:15:34   76 77	 1492726534	 463945975	 165844.
22:15:34   77 78	 1492726534	 625715080	 161769.
22:15:34   78 79	 1492726534	 758643565	 132928.
22:15:34   79 80	 1492726534	 924446591	 165803.
22:15:35   80 81	 1492726535	 86223514	 161777.
22:15:35   81 82	 1492726535	 251991972	 165769.
22:15:35   82 83	 1492726535	 413792222	 161800.
22:15:35   83 84	 1492726535	 579601120	 165809.
22:15:35   84 85	 1492726535	 741386476	 161785.
22:15:35   85 86	 1492726535	 903143037	 161757.
22:15:36   86 87	 1492726536	 40342062	 137199.
22:15:36   87 88	 1492726536	 202228185	 161886.
22:15:36   88 89	 1492726536	 364127621	 161899.
22:15:36   89 90	 1492726536	 529929303	 165802.
22:15:36   90 91	 1492726536	 691596031	 161667.
22:15:36   91 92	 1492726536	 857358369	 165762.
22:15:37   92 93	 1492726537	 19202187	 161844.
22:15:37   93 94	 1492726537	 185074410	 165872.
22:15:37   94 95	 1492726537	 346574353	 161500.
22:15:37   95 96	 1492726537	 508187478	 161613.
22:15:37   96 97	 1492726537	 641187112	 133000.
22:15:37   97 98	 1492726537	 806964366	 165777.
22:15:37   98 99	 1492726537	 968751567	 161787.
22:15:38   99 100	 1492726538	 134457499	 165706.
22:15:38  100 101	 1492726538	 296124264	 161667.
22:15:38  101 102	 1492726538	 457960970	 161837.
22:15:38  102 103	 1492726538	 623956370	 165995.
22:15:38  103 104	 1492726538	 785481798	 161526.
22:15:38  104 105	 1492726538	 946890437	 161408.
22:15:39  105 106	 1492726539	 84038548	 137148.
22:15:39  106 107	 1492726539	 245723413	 161685.
22:15:39  107 108	 1492726539	 411421241	 165698.
22:15:39  108 109	 1492726539	 573011310	 161590.
22:15:39  109 110	 1492726539	 734555514	 161544.
22:15:39  110 111	 1492726539	 900289423	 165734.
22:15:40  111 112	 1492726540	 58743495	 158454.
22:15:40  112 113	 1492726540	 220352019	 161609.
22:15:40  113 114	 1492726540	 357424212	 137072.
22:15:40  114 115	 1492726540	 519014593	 161590.
22:15:40  115 116	 1492726540	 684853451	 165839.
22:15:40  116 117	 1492726540	 850417306	 165564.
22:15:41  117 118	 1492726541	 11966566	 161549.
22:15:41  118 119	 1492726541	 173681856	 161716.
22:15:41  119 120	 1492726541	 310696700	 137014.
22:15:41  120 121	 1492726541	 472229752	 161534.
22:15:41  121 122	 1492726541	 638039982	 165810.
22:15:41  122 123	 1492726541	 799411306	 161371.
22:15:41  123 124	 1492726541	 964923517	 165512.
22:15:42  124 125	 1492726542	 126432162	 161509.
22:15:42  125 126	 1492726542	 259442363	 133010.
22:15:42  126 127	 1492726542	 425103842	 165662.
22:15:42  127 128	 1492726542	 586585327	 161481.
22:15:42  128 129	 1492726542	 752432715	 165848.
22:15:42  129 130	 1492726542	 914205162	 161772.
22:15:43  130 131	 1492726543	 79878304	 165673.
22:15:43  131 132	 1492726543	 212842685	 132964.
22:15:43  132 133	 1492726543	 378669810	 165828.
22:15:43  133 134	 1492726543	 540335869	 161666.
22:15:43  134 135	 1492726543	 706104213	 165768.
22:15:43  135 136	 1492726543	 867936589	 161833.
22:15:44  136 137	 1492726544	 29678718	 161742.
22:15:44  137 138	 1492726544	 195513213	 165834.
22:15:44  138 139	 1492726544	 357172618	 161659.
22:15:44  139 140	 1492726544	 494290998	 137119.
22:15:44  140 141	 1492726544	 656283359	 161992.
22:15:44  141 142	 1492726544	 818051045	 161768.
22:15:44  142 143	 1492726544	 983823333	 165772.
22:15:45  143 144	 1492726545	 145599103	 161776.
22:15:45  144 145	 1492726545	 311350274	 165751.
22:15:45  145 146	 1492726545	 473106357	 161756.
22:15:45  146 147	 1492726545	 634868376	 161762.
22:15:45  147 148	 1492726545	 771969940	 137102.
22:15:45  148 149	 1492726545	 933640892	 161671.
22:15:46  149 150	 1492726546	 99407791	 165767.
22:15:46  150 151	 1492726546	 261092204	 161684.
22:15:46  151 152	 1492726546	 426796106	 165704.
22:15:46  152 153	 1492726546	 588810921	 162015.
22:15:46  153 154	 1492726546	 750608124	 161797.
22:15:46  154 155	 1492726546	 916361821	 165754.
22:15:47  155 156	 1492726547	 49361779	 133000.
22:15:47  156 157	 1492726547	 210979573	 161617.
22:15:47  157 158	 1492726547	 376721270	 165742.
22:15:47  158 159	 1492726547	 538744348	 162023.
22:15:47  159 160	 1492726547	 704685696	 165941.
22:15:47  160 161	 1492726547	 866397930	 161713.
22:15:48  161 162	 1492726548	 28062486	 161664.
22:15:48  162 163	 1492726548	 193787267	 165725.
22:15:48  163 164	 1492726548	 326916072	 133129.
22:15:48  164 165	 1492726548	 492592581	 165676.
22:15:48  165 166	 1492726548	 654302056	 161710.
22:15:48  166 167	 1492726548	 815933117	 161631.
22:15:48  167 168	 1492726548	 981618519	 165685.
22:15:49  168 169	 1492726549	 143112775	 161495.
22:15:49  169 170	 1492726549	 304922365	 161809.
22:15:49  170 171	 1492726549	 470501561	 165579.
22:15:49  171 172	 1492726549	 603679891	 133179.
22:15:49  172 173	 1492726549	 769380772	 165701.
22:15:49  173 174	 1492726549	 930992545	 161611.
22:15:50  174 175	 1492726550	 96767819	 165776.
22:15:50  175 176	 1492726550	 258239377	 161471.
22:15:50  176 177	 1492726550	 419567396	 161328.
22:15:50  177 178	 1492726550	 556558425	 136991.
22:15:50  178 179	 1492726550	 718282219	 161724.
22:15:50  179 180	 1492726550	 879877213	 161595.
22:15:51  180 181	 1492726551	 45873323	 165996.
22:15:51  181 182	 1492726551	 207542932	 161670.
22:15:51  182 183	 1492726551	 369112407	 161569.
22:15:51  183 184	 1492726551	 534722087	 165610.
22:15:51  184 185	 1492726551	 667600684	 132879.
22:15:51  185 186	 1492726551	 833199058	 165598.
22:15:51  186 187	 1492726551	 994894585	 161695.
22:15:52  187 188	 1492726552	 160688194	 165794.
22:15:52  188 189	 1492726552	 322725707	 162037.
22:15:52  189 190	 1492726552	 484070717	 161345.
22:15:52  190 191	 1492726552	 621106374	 137036.
22:15:52  191 192	 1492726552	 782674504	 161568.
22:15:52  192 193	 1492726552	 944315530	 161641.
22:15:53  193 194	 1492726553	 109979327	 165664.
22:15:53  194 195	 1492726553	 271495678	 161516.
22:15:53  195 196	 1492726553	 437047218	 165552.
22:15:53  196 197	 1492726553	 569718473	 132671.
22:15:53  197 198	 1492726553	 731298553	 161580.
22:15:53  198 199	 1492726553	 897032375	 165734.
22:15:54  199 200	 1492726554	 58796513	 161764.
22:15:54  200 201	 1492726554	 220314051	 161518.
22:15:54  201 202	 1492726554	 385792201	 165478.
22:15:54  202 203	 1492726554	 518791518	 132999.
22:15:54  203 204	 1492726554	 684428432	 165638.
22:15:54  204 205	 1492726554	 846200686	 161771.
22:15:55  205 206	 1492726555	 8035781	 161836.
22:15:55  206 207	 1492726555	 173785133	 165749.
22:15:55  207 208	 1492726555	 335324113	 161539.
22:15:55  208 209	 1492726555	 472179386	 136855.
22:15:55  209 210	 1492726555	 633792036	 161613.
22:15:55  210 211	 1492726555	 799331695	 165539.
22:15:55  211 212	 1492726555	 960783693	 161452.
22:15:56  212 213	 1492726556	 122483648	 161700.
22:15:56  213 214	 1492726556	 287945500	 165462.
22:15:56  214 215	 1492726556	 420752043	 132807.
22:15:56  215 216	 1492726556	 586077300	 165325.
22:15:56  216 217	 1492726556	 747700741	 161624.
22:15:56  217 218	 1492726556	 914136451	 166435.
22:15:57  218 219	 1492726557	 67534197	 153398.
22:15:57  219 220	 1492726557	 232964327	 165430.
22:15:57  220 221	 1492726557	 365845479	 132881.
22:15:57  221 222	 1492726557	 531283620	 165438.
22:15:57  222 223	 1492726557	 692880189	 161597.
22:15:57  223 224	 1492726557	 858810724	 165931.
22:15:58  224 225	 1492726558	 20568320	 161757.
22:15:58  225 226	 1492726558	 181997783	 161430.
22:15:58  226 227	 1492726558	 318767242	 136769.
22:15:58  227 228	 1492726558	 480259898	 161493.
22:15:58  228 229	 1492726558	 645921473	 165661.
22:15:58  229 230	 1492726558	 807596263	 161675.
22:15:58  230 231	 1492726558	 973185677	 165589.
22:15:59  231 232	 1492726559	 134560048	 161375.
22:15:59  232 233	 1492726559	 267538571	 132978.
22:15:59  233 234	 1492726559	 433047980	 165510.
22:15:59  234 235	 1492726559	 594583213	 161535.
22:15:59  235 236	 1492726559	 756047353	 161464.
22:15:59  236 237	 1492726559	 921656213	 165609.
22:16:00  237 238	 1492726560	 83187633	 161531.
22:16:00  238 239	 1492726560	 220126723	 136940.
22:16:00  239 240	 1492726560	 381569124	 161442.
22:16:00  240 241	 1492726560	 543160832	 161592.
22:16:00  241 242	 1492726560	 708734211	 165573.
22:16:00  242 243	 1492726560	 870170381	 161436.
22:16:00  243 244	 1492726561	 3137991	 132968.
22:16:01  244 245	 1492726561	 168892688	 165754.
22:16:01  245 246	 1492726561	 330502662	 161610.
22:16:01  246 247	 1492726561	 492273296	 161771.
22:16:01  247 248	 1492726561	 658192614	 165919.
22:16:01  248 249	 1492726561	 819864615	 161672.
22:16:01  249 250	 1492726561	 985435193	 165571.
22:16:02  250 251	 1492726562	 118449649	 133014.
22:16:02  251 252	 1492726562	 280308077	 161859.
22:16:02  252 253	 1492726562	 446006828	 165699.
22:16:02  253 254	 1492726562	 607532721	 161526.
22:16:02  254 255	 1492726562	 773507512	 165974.
22:16:02  255 256	 1492726562	 935459917	 161953.
22:16:03  256 257	 1492726563	 101263185	 165803.
22:16:03  257 258	 1492726563	 234395686	 133132.
22:16:03  258 259	 1492726563	 396219261	 161824.
22:16:03  259 260	 1492726563	 562197058	 165978.
22:16:03  260 261	 1492726563	 724039144	 161842.
22:16:03  261 262	 1492726563	 889927028	 165888.
22:16:04  262 263	 1492726564	 51760394	 161833.
22:16:04  263 264	 1492726564	 217515686	 165755.
22:16:04  264 265	 1492726564	 379220197	 161705.
22:16:04  265 266	 1492726564	 545158186	 165938.
22:16:04  266 267	 1492726564	 678231805	 133074.
22:16:04  267 268	 1492726564	 844163345	 165931.
22:16:05  268 269	 1492726565	 5924762	 161762.
22:16:05  269 270	 1492726565	 167621739	 161697.
22:16:05  270 271	 1492726565	 333501229	 165879.
22:16:05  271 272	 1492726565	 495301132	 161800.
22:16:05  272 273	 1492726565	 661099466	 165798.
22:16:05  273 274	 1492726565	 794257810	 133159.
22:16:05  274 275	 1492726565	 960246052	 165988.
22:16:06  275 276	 1492726566	 121921641	 161675.
22:16:06  276 277	 1492726566	 287773142	 165852.
22:16:06  277 278	 1492726566	 449641464	 161868.
22:16:06  278 279	 1492726566	 611351372	 161710.
22:16:06  279 280	 1492726566	 777140273	 165789.
22:16:06  280 281	 1492726566	 910210895	 133071.
22:16:07  281 282	 1492726567	 75874050	 165663.
22:16:07  282 283	 1492726567	 237650202	 161776.
22:16:07  283 284	 1492726567	 403642469	 165992.
22:16:07  284 285	 1492726567	 565371714	 161729.
22:16:07  285 286	 1492726567	 731286441	 165915.
22:16:07  286 287	 1492726567	 893090999	 161805.
22:16:08  287 288	 1492726568	 54989524	 161898.
22:16:08  288 289	 1492726568	 192267163	 137278.
22:16:08  289 290	 1492726568	 353862856	 161596.
22:16:08  290 291	 1492726568	 519715926	 165853.
22:16:08  291 292	 1492726568	 681414773	 161699.
22:16:08  292 293	 1492726568	 847059827	 165645.
22:16:09  293 294	 1492726569	 8988736	 161929.
22:16:09  294 295	 1492726569	 174580761	 165592.
22:16:09  295 296	 1492726569	 307562598	 132981.
22:16:09  296 297	 1492726569	 469220782	 161659.
22:16:09  297 298	 1492726569	 634953735	 165733.
22:16:09  298 299	 1492726569	 796417896	 161464.
22:16:09  299 300	 1492726569	 962330353	 165912.
22:16:10  300 301	 1492726570	 123975455	 161645.
22:16:10  301 302	 1492726570	 257249957	 133275.
22:16:10  302 303	 1492726570	 423226497	 165976.
22:16:10  303 304	 1492726570	 585043929	 161818.
22:16:10  304 305	 1492726570	 750921545	 165877.
22:16:10  305 306	 1492726570	 912934374	 162013.
22:16:11  306 307	 1492726571	 78775144	 165841.
22:16:11  307 308	 1492726571	 240606414	 161831.
22:16:11  308 309	 1492726571	 406368361	 165762.
22:16:11  309 310	 1492726571	 568316423	 161948.
22:16:11  310 311	 1492726571	 701358710	 133043.
22:16:11  311 312	 1492726571	 867275681	 165916.
22:16:12  312 313	 1492726572	 29024409	 161749.
22:16:12  313 314	 1492726572	 194918245	 165894.
22:16:12  314 315	 1492726572	 356789089	 161871.
22:16:12  315 316	 1492726572	 518597505	 161808.
22:16:12  316 317	 1492726572	 684234362	 165637.
22:16:12  317 318	 1492726572	 846142617	 161908.
22:16:13  318 319	 1492726573	 11977757	 165836.
22:16:13  319 320	 1492726573	 145126884	 133149.
22:16:13  320 321	 1492726573	 306609108	 161482.
22:16:13  321 322	 1492726573	 472117267	 165508.
22:16:13  322 323	 1492726573	 633644074	 161527.
22:16:13  323 324	 1492726573	 809863333	 176219.
22:16:13  324 325	 1492726573	 942892364	 133029.
22:16:14  325 326	 1492726574	 108639500	 165747.
22:16:14  326 327	 1492726574	 270505776	 161867.
22:16:14  327 328	 1492726574	 432252233	 161746.
22:16:14  328 329	 1492726574	 598046956	 165795.
22:16:14  329 330	 1492726574	 759657095	 161610.
22:16:14  330 331	 1492726574	 925611541	 165954.
22:16:15  331 332	 1492726575	 87459183	 161848.
22:16:15  332 333	 1492726575	 224547555	 137088.
22:16:15  333 334	 1492726575	 382494743	 157948.
22:16:15  334 335	 1492726575	 548210828	 165716.
22:16:15  335 336	 1492726575	 709875022	 161664.
22:16:15  336 337	 1492726575	 875585982	 165711.
22:16:16  337 338	 1492726576	 37120297	 161534.
22:16:16  338 339	 1492726576	 202786605	 165666.
22:16:16  339 340	 1492726576	 335995403	 133209.
22:16:16  340 341	 1492726576	 497813475	 161818.
22:16:16  341 342	 1492726576	 663569520	 165756.
22:16:16  342 343	 1492726576	 825328298	 161759.
22:16:16  343 344	 1492726576	 987029929	 161702.
22:16:17  344 345	 1492726577	 152652797	 165623.
22:16:17  345 346	 1492726577	 314041310	 161388.
22:16:17  346 347	 1492726577	 451205024	 137164.
22:16:17  347 348	 1492726577	 612938824	 161734.
22:16:17  348 349	 1492726577	 774450969	 161512.
22:16:17  349 350	 1492726577	 940244103	 165793.
22:16:18  350 351	 1492726578	 101934396	 161690.
22:16:18  351 352	 1492726578	 267782619	 165849.
22:16:18  352 353	 1492726578	 429366010	 161583.
22:16:18  353 354	 1492726578	 562047269	 132681.
22:16:18  354 355	 1492726578	 727772305	 165725.
22:16:18  355 356	 1492726578	 889573486	 161801.
22:16:19  356 357	 1492726579	 55280619	 165707.
22:16:19  357 358	 1492726579	 217028698	 161748.
22:16:19  358 359	 1492726579	 378728800	 161701.
22:16:19  359 360	 1492726579	 544332154	 165603.
22:16:19  360 361	 1492726579	 677229172	 132897.
22:16:19  361 362	 1492726579	 842849838	 165621.
22:16:20  362 363	 1492726580	 4630270	 161780.
22:16:20  363 364	 1492726580	 170282411	 165652.
22:16:20  364 365	 1492726580	 331861912	 161580.
22:16:20  365 366	 1492726580	 497421179	 165559.
22:16:20  366 367	 1492726580	 630602710	 133182.
22:16:20  367 368	 1492726580	 792374876	 161772.
22:16:20  368 369	 1492726580	 954083736	 161709.
22:16:21  369 370	 1492726581	 119797142	 165713.
22:16:21  370 371	 1492726581	 281515122	 161718.
22:16:21  371 372	 1492726581	 447227118	 165712.
22:16:21  372 373	 1492726581	 608911918	 161685.
22:16:21  373 374	 1492726581	 741896454	 132984.
22:16:21  374 375	 1492726581	 907562587	 165666.
22:16:22  375 376	 1492726582	 69151821	 161590.
22:16:22  376 377	 1492726582	 234697887	 165546.
22:16:22  377 378	 1492726582	 396450600	 161752.
22:16:22  378 379	 1492726582	 562188607	 165738.
22:16:22  379 380	 1492726582	 695037474	 132849.
22:16:22  380 381	 1492726582	 860695381	 165658.
22:16:23  381 382	 1492726583	 22381922	 161687.
22:16:23  382 383	 1492726583	 184071040	 161689.
22:16:23  383 384	 1492726583	 350013383	 165942.
22:16:23  384 385	 1492726583	 511613663	 161600.
22:16:23  385 386	 1492726583	 677196310	 165583.
22:16:23  386 387	 1492726583	 810155973	 132960.
22:16:23  387 388	 1492726583	 975721254	 165565.
22:16:24  388 389	 1492726584	 137379953	 161659.
22:16:24  389 390	 1492726584	 303416729	 166037.
22:16:24  390 391	 1492726584	 465381434	 161964.
22:16:24  391 392	 1492726584	 631366825	 165986.
22:16:24  392 393	 1492726584	 793161731	 161795.
22:16:24  393 394	 1492726584	 959613533	 166451.
22:16:25  394 395	 1492726585	 117354363	 157741.
22:16:25  395 396	 1492726585	 279200729	 161847.
22:16:25  396 397	 1492726585	 416275614	 137074.
22:16:25  397 398	 1492726585	 578048821	 161774.
22:16:25  398 399	 1492726585	 739895126	 161846.
22:16:25  399 400	 1492726585	 905736148	 165841.
22:16:26  400 401	 1492726586	 67554929	 161819.
22:16:26  401 402	 1492726586	 233438536	 165883.
22:16:26  402 403	 1492726586	 395090051	 161652.
22:16:26  403 404	 1492726586	 560924105	 165834.
22:16:26  404 405	 1492726586	 693933557	 133009.
22:16:26  405 406	 1492726586	 859828471	 165895.
22:16:27  406 407	 1492726587	 21479253	 161651.
22:16:27  407 408	 1492726587	 187212501	 165733.
22:16:27  408 409	 1492726587	 348922043	 161710.
22:16:27  409 410	 1492726587	 510583327	 161661.
22:16:27  410 411	 1492726587	 676350371	 165767.
22:16:27  411 412	 1492726587	 842092481	 165742.
22:16:27  412 413	 1492726587	 975188152	 133096.
22:16:28  413 414	 1492726588	 136982702	 161794.
22:16:28  414 415	 1492726588	 302690375	 165708.
22:16:28  415 416	 1492726588	 464722976	 162033.
22:16:28  416 417	 1492726588	 630587443	 165864.
22:16:28  417 418	 1492726588	 788744964	 158158.
22:16:28  418 419	 1492726588	 954404059	 165659.
22:16:29  419 420	 1492726589	 116115765	 161712.
22:16:29  420 421	 1492726589	 277776341	 161660.
22:16:29  421 422	 1492726589	 414999687	 137223.
22:16:29  422 423	 1492726589	 576778865	 161780.
22:16:29  423 424	 1492726589	 742699668	 165920.
22:16:29  424 425	 1492726589	 904418357	 161719.
22:16:30  425 426	 1492726590	 70658475	 166240.
22:16:30  426 427	 1492726590	 232627403	 161969.
22:16:30  427 428	 1492726590	 394304069	 161677.
22:16:30  428 429	 1492726590	 560228261	 165924.
22:16:30  429 430	 1492726590	 693224373	 132996.
22:16:30  430 431	 1492726590	 859013709	 165789.
22:16:31  431 432	 1492726591	 20928614	 161915.
22:16:31  432 433	 1492726591	 182673696	 161745.
22:16:31  433 434	 1492726591	 348483024	 165810.
22:16:31  434 435	 1492726591	 510444015	 161961.
22:16:31  435 436	 1492726591	 672518710	 162075.
22:16:31  436 437	 1492726591	 834066423	 161547.
22:16:31  437 438	 1492726591	 999698192	 165632.
22:16:32  438 439	 1492726592	 132717524	 133019.
22:16:32  439 440	 1492726592	 294559130	 161842.
22:16:32  440 441	 1492726592	 460097331	 165538.
22:16:32  441 442	 1492726592	 621805875	 161709.
22:16:32  442 443	 1492726592	 787653660	 165847.
22:16:32  443 444	 1492726592	 949327587	 161674.
22:16:33  444 445	 1492726593	 111025090	 161698.
22:16:33  445 446	 1492726593	 248045139	 137020.
22:16:33  446 447	 1492726593	 409657908	 161613.
22:16:33  447 448	 1492726593	 575398289	 165740.
22:16:33  448 449	 1492726593	 737105553	 161707.
22:16:33  449 450	 1492726593	 902979329	 165874.
22:16:34  450 451	 1492726594	 64597135	 161618.
22:16:34  451 452	 1492726594	 197549834	 132953.
22:16:34  452 453	 1492726594	 363264572	 165714.
22:16:34  453 454	 1492726594	 524946668	 161682.
22:16:34  454 455	 1492726594	 690656903	 165711.
22:16:34  455 456	 1492726594	 852104391	 161447.
22:16:35  456 457	 1492726595	 17942989	 165839.
22:16:35  457 458	 1492726595	 150788068	 132845.
22:16:35  458 459	 1492726595	 312465404	 161677.
22:16:35  459 460	 1492726595	 478145414	 165680.
22:16:35  460 461	 1492726595	 639637474	 161492.
22:16:35  461 462	 1492726595	 805300788	 165664.
22:16:35  462 463	 1492726595	 966758705	 161457.
22:16:36  463 464	 1492726596	 99853002	 133095.
22:16:36  464 465	 1492726596	 265550859	 165698.
22:16:36  465 466	 1492726596	 427079087	 161528.
22:16:36  466 467	 1492726596	 592791661	 165712.
22:16:36  467 468	 1492726596	 754609111	 161818.
22:16:36  468 469	 1492726596	 916229312	 161620.
22:16:37  469 470	 1492726597	 81887667	 165658.
22:16:37  470 471	 1492726597	 214963906	 133077.
22:16:37  471 472	 1492726597	 380770531	 165806.
22:16:37  472 473	 1492726597	 542909531	 162139.
22:16:37  473 474	 1492726597	 708482060	 165573.
22:16:37  474 475	 1492726597	 870200954	 161719.
22:16:38  475 476	 1492726598	 31892908	 161692.
22:16:38  476 477	 1492726598	 197551779	 165659.
22:16:38  477 478	 1492726598	 359295205	 161743.
22:16:38  478 479	 1492726598	 496407361	 137112.
22:16:38  479 480	 1492726598	 654666255	 158259.
22:16:38  480 481	 1492726598	 816265117	 161599.
22:16:38  481 482	 1492726598	 982131546	 165866.
22:16:39  482 483	 1492726599	 143984200	 161853.
22:16:39  483 484	 1492726599	 309695341	 165711.
22:16:39  484 485	 1492726599	 471373401	 161678.
22:16:39  485 486	 1492726599	 633023334	 161650.
22:16:39  486 487	 1492726599	 798739748	 165717.
22:16:39  487 488	 1492726599	 931706839	 132967.
22:16:40  488 489	 1492726600	 97405570	 165698.
22:16:40  489 490	 1492726600	 259077677	 161672.
22:16:40  490 491	 1492726600	 424822236	 165745.
22:16:40  491 492	 1492726600	 586487073	 161665.
22:16:40  492 493	 1492726600	 752122608	 165635.
22:16:40  493 494	 1492726600	 885176016	 133054.
22:16:41  494 495	 1492726601	 46767880	 161592.
22:16:41  495 496	 1492726601	 212455275	 165687.
22:16:41  496 497	 1492726601	 373984958	 161530.
22:16:41  497 498	 1492726601	 539694576	 165709.
22:16:41  498 499	 1492726601	 701368170	 161674.
22:16:41  499 500	 1492726601	 863099073	 161731.
22:16:42  500 501	 1492726602	 21511851	 158413.
22:16:42  501 502	 1492726602	 158495701	 136983.
22:16:42  502 503	 1492726602	 320208885	 161714.
22:16:42  503 504	 1492726602	 486044699	 165835.
22:16:42  504 505	 1492726602	 647806986	 161763.
22:16:42  505 506	 1492726602	 813593379	 165786.
22:16:42  506 507	 1492726602	 975349401	 161756.
22:16:43  507 508	 1492726603	 136922557	 161573.
22:16:43  508 509	 1492726603	 302375688	 165453.
22:16:43  509 510	 1492726603	 435344735	 132970.
22:16:43  510 511	 1492726603	 601363936	 166019.
22:16:43  511 512	 1492726603	 758659795	 157296.
22:16:43  512 513	 1492726603	 924466057	 165806.
22:16:44  513 514	 1492726604	 86040772	 161575.
22:16:44  514 515	 1492726604	 251640353	 165599.
22:16:44  515 516	 1492726604	 384713877	 133074.
22:16:44  516 517	 1492726604	 546424489	 161710.
22:16:44  517 518	 1492726604	 711975064	 165551.
22:16:44  518 519	 1492726604	 873590432	 161615.
22:16:45  519 520	 1492726605	 35325380	 161735.
22:16:45  520 521	 1492726605	 201010422	 165685.
22:16:45  521 522	 1492726605	 366686541	 165676.
22:16:45  522 523	 1492726605	 499736371	 133050.
22:16:45  523 524	 1492726605	 661242289	 161506.
22:16:45  524 525	 1492726605	 826898286	 165656.
22:16:45  525 526	 1492726605	 988544371	 161646.
22:16:46  526 527	 1492726606	 150159929	 161616.
22:16:46  527 528	 1492726606	 315885001	 165725.
22:16:46  528 529	 1492726606	 448856181	 132971.
22:16:46  529 530	 1492726606	 610512680	 161656.
22:16:46  530 531	 1492726606	 776211662	 165700.
22:16:46  531 532	 1492726606	 937792266	 161580.
22:16:47  532 533	 1492726607	 103563595	 165771.
22:16:47  533 534	 1492726607	 265337570	 161774.
22:16:47  534 535	 1492726607	 431147834	 165811.
22:16:47  535 536	 1492726607	 564256475	 133108.
22:16:47  536 537	 1492726607	 730001193	 165745.
22:16:47  537 538	 1492726607	 891721420	 161720.
22:16:48  538 539	 1492726608	 57329079	 165608.
22:16:48  539 540	 1492726608	 218814337	 161485.
22:16:48  540 541	 1492726608	 384415232	 165601.
22:16:48  541 542	 1492726608	 546068776	 161654.
22:16:48  542 543	 1492726608	 678957152	 132888.
22:16:48  543 544	 1492726608	 844769827	 165813.
22:16:49  544 545	 1492726609	 6460049	 161690.
22:16:49  545 546	 1492726609	 172114035	 165654.
22:16:49  546 547	 1492726609	 334301063	 162187.
22:16:49  547 548	 1492726609	 492069732	 157769.
22:16:49  548 549	 1492726609	 653869672	 161800.
22:16:49  549 550	 1492726609	 819575644	 165705.
22:16:49  550 551	 1492726609	 952585576	 133010.
22:16:50  551 552	 1492726610	 118324566	 165739.
22:16:50  552 553	 1492726610	 279981845	 161658.
22:16:50  553 554	 1492726610	 441771179	 161789.
22:16:50  554 555	 1492726610	 607482195	 165711.
22:16:50  555 556	 1492726610	 769176605	 161694.
22:16:50  556 557	 1492726610	 935009333	 165833.
22:16:51  557 558	 1492726611	 96672626	 161664.
22:16:51  558 559	 1492726611	 233742914	 137070.
22:16:51  559 560	 1492726611	 395465192	 161722.
22:16:51  560 561	 1492726611	 561188504	 165723.
22:16:51  561 562	 1492726611	 722914943	 161727.
22:16:51  562 563	 1492726611	 888467907	 165553.
22:16:52  563 564	 1492726612	 50086989	 161619.
22:16:52  564 565	 1492726612	 211852205	 161765.
22:16:52  565 566	 1492726612	 348980480	 137128.
22:16:52  566 567	 1492726612	 510757843	 161778.
22:16:52  567 568	 1492726612	 676463173	 165705.
22:16:52  568 569	 1492726612	 838272052	 161809.
22:16:52  569 570	 1492726613	 4110788	 165839.
22:16:53  570 571	 1492726613	 165945164	 161834.
22:16:53  571 572	 1492726613	 327758991	 161814.
22:16:53  572 573	 1492726613	 493440125	 165681.
22:16:53  573 574	 1492726613	 626646880	 133207.
22:16:53  574 575	 1492726613	 792443862	 165797.
22:16:53  575 576	 1492726613	 950532240	 158088.
22:16:54  576 577	 1492726614	 116170117	 165638.
22:16:54  577 578	 1492726614	 277855410	 161685.
22:16:54  578 579	 1492726614	 443647768	 165793.
22:16:54  579 580	 1492726614	 605248455	 161600.
22:16:54  580 581	 1492726614	 770982366	 165734.
22:16:54  581 582	 1492726614	 904205484	 133223.
22:16:55  582 583	 1492726615	 65841915	 161637.
22:16:55  583 584	 1492726615	 231464394	 165622.
22:16:55  584 585	 1492726615	 393172800	 161709.
22:16:55  585 586	 1492726615	 558960514	 165787.
22:16:55  586 587	 1492726615	 720673380	 161713.
22:16:55  587 588	 1492726615	 882439532	 161766.
22:16:56  588 589	 1492726616	 19503682	 137065.
22:16:56  589 590	 1492726616	 181498570	 161994.
22:16:56  590 591	 1492726616	 343108440	 161610.
22:16:56  591 592	 1492726616	 508824839	 165717.
22:16:56  592 593	 1492726616	 670337323	 161512.
22:16:56  593 594	 1492726616	 832045504	 161708.
22:16:56  594 595	 1492726616	 997989952	 165945.
22:16:57  595 596	 1492726617	 159868023	 161878.
22:16:57  596 597	 1492726617	 296985947	 137118.
22:16:57  597 598	 1492726617	 458934355	 161948.
22:16:57  598 599	 1492726617	 620757763	 161824.
22:16:57  599 600	 1492726617	 786565795	 165808.
22:16:57  600 601	 1492726617	 948306548	 161740.
22:16:58  601 602	 1492726618	 114127143	 165821.
22:16:58  602 603	 1492726618	 275993192	 161866.
22:16:58  603 604	 1492726618	 437699112	 161706.
22:16:58  604 605	 1492726618	 574812050	 137113.
22:16:58  605 606	 1492726618	 740636087	 165824.
22:16:58  606 607	 1492726618	 924420796	 183785.
22:16:59  607 608	 1492726619	 57543054	 133122.
22:16:59  608 609	 1492726619	 219204068	 161661.
22:16:59  609 610	 1492726619	 385054522	 165850.
22:16:59  610 611	 1492726619	 550832749	 165779.
22:16:59  611 612	 1492726619	 712676213	 161843.
22:16:59  612 613	 1492726619	 878427045	 165751.
22:17:00  613 614	 1492726620	 40263118	 161836.
22:17:00  614 615	 1492726620	 173435492	 133172.
22:17:00  615 616	 1492726620	 339235340	 165800.
22:17:00  616 617	 1492726620	 501147380	 161912.
22:17:00  617 618	 1492726620	 666815862	 165669.
22:17:00  618 619	 1492726620	 828660040	 161844.
22:17:00  619 620	 1492726620	 994400408	 165740.
22:17:01  620 621	 1492726621	 155977231	 161577.
22:17:01  621 622	 1492726621	 288978954	 133002.
22:17:01  622 623	 1492726621	 454760729	 165782.
22:17:01  623 624	 1492726621	 616854734	 162094.
22:17:01  624 625	 1492726621	 811674656	 194819.
22:17:01  625 626	 1492726621	 973375870	 161702.
22:17:02  626 627	 1492726622	 139040033	 165664.
22:17:02  627 628	 1492726622	 300874470	 161834.
22:17:02  628 629	 1492726622	 467136537	 166262.
22:17:02  629 630	 1492726622	 629023425	 161887.
22:17:02  630 631	 1492726622	 762108071	 133085.
22:17:02  631 632	 1492726622	 928094562	 165986.
22:17:03  632 633	 1492726623	 93881902	 165788.
22:17:03  633 634	 1492726623	 255692127	 161810.
22:17:03  634 635	 1492726623	 421627441	 165935.
22:17:03  635 636	 1492726623	 583452705	 161826.
22:17:03  636 637	 1492726623	 745265310	 161812.
22:17:03  637 638	 1492726623	 882365951	 137101.
22:17:04  638 639	 1492726624	 44368066	 162002.
22:17:04  639 640	 1492726624	 206834447	 162466.
22:17:04  640 641	 1492726624	 368712273	 161878.
22:17:04  641 642	 1492726624	 534649031	 165937.
22:17:04  642 643	 1492726624	 696330487	 161681.
22:17:04  643 644	 1492726624	 862156344	 165826.
22:17:05  644 645	 1492726625	 28032599	 165876.
22:17:05  645 646	 1492726625	 189832176	 161800.
22:17:05  646 647	 1492726625	 355763708	 165931.
22:17:05  647 648	 1492726625	 489017134	 133254.
22:17:05  648 649	 1492726625	 650904688	 161888.
22:17:05  649 650	 1492726625	 817212925	 166308.
22:17:05  650 651	 1492726625	 974973891	 157761.
22:17:06  651 652	 1492726626	 140908713	 165934.
22:17:06  652 653	 1492726626	 302748862	 161841.
22:17:06  653 654	 1492726626	 464706125	 161957.
22:17:06  654 655	 1492726626	 630525170	 165819.
22:17:06  655 656	 1492726626	 788640740	 158116.
22:17:06  656 657	 1492726626	 954643785	 166003.
22:17:07  657 658	 1492726627	 87694774	 133051.
22:17:07  658 659	 1492726627	 249544599	 161849.
22:17:07  659 660	 1492726627	 415447504	 165903.
22:17:07  660 661	 1492726627	 577244548	 161797.
22:17:07  661 662	 1492726627	 743174645	 165930.
22:17:07  662 663	 1492726627	 905026727	 161853.
22:17:08  663 664	 1492726628	 66852570	 161825.
22:17:08  664 665	 1492726628	 232654251	 165802.
22:17:08  665 666	 1492726628	 369968109	 137314.
22:17:08  666 667	 1492726628	 531757740	 161790.
22:17:08  667 668	 1492726628	 693478548	 161720.
22:17:08  668 669	 1492726628	 859282421	 165804.
22:17:09  669 670	 1492726629	 21096365	 161814.
22:17:09  670 671	 1492726629	 187055256	 165959.
22:17:09  671 672	 1492726629	 348934542	 161879.
22:17:09  672 673	 1492726629	 486031363	 137097.
22:17:09  673 674	 1492726629	 647962631	 161931.
22:17:09  674 675	 1492726629	 809829448	 161867.
22:17:09  675 676	 1492726629	 975611995	 165783.
22:17:10  676 677	 1492726630	 137711533	 162099.
22:17:10  677 678	 1492726630	 303713885	 166003.
22:17:10  678 679	 1492726630	 465501009	 161787.
22:17:10  679 680	 1492726630	 631437509	 165936.
22:17:10  680 681	 1492726630	 764713732	 133277.
22:17:10  681 682	 1492726630	 926551103	 161837.
22:17:11  682 683	 1492726631	 92541150	 165990.
22:17:11  683 684	 1492726631	 254422531	 161881.
22:17:11  684 685	 1492726631	 420384649	 165963.
22:17:11  685 686	 1492726631	 582186852	 161802.
22:17:11  686 687	 1492726631	 748189872	 166003.
22:17:11  687 688	 1492726631	 906447669	 158258.
22:17:12  688 689	 1492726632	 72417937	 165970.
22:17:12  689 690	 1492726632	 234502248	 162084.
22:17:12  690 691	 1492726632	 367768995	 133267.
22:17:12  691 692	 1492726632	 533687906	 165919.
22:17:12  692 693	 1492726632	 695580873	 161893.
22:17:12  693 694	 1492726632	 857398674	 161818.
22:17:13  694 695	 1492726633	 19648886	 162250.
22:17:13  695 696	 1492726633	 185566686	 165917.
22:17:13  696 697	 1492726633	 347362585	 161796.
22:17:13  697 698	 1492726633	 513316938	 165955.
22:17:13  698 699	 1492726633	 675402248	 162085.
22:17:13  699 700	 1492726633	 808493335	 133091.
22:17:13  700 701	 1492726633	 974486450	 165993.
22:17:14  701 702	 1492726634	 136316415	 161830.
22:17:14  702 703	 1492726634	 298360941	 162045.
22:17:14  703 704	 1492726634	 464342872	 165982.
22:17:14  704 705	 1492726634	 626196432	 161853.
22:17:14  705 706	 1492726634	 792271150	 166075.
22:17:14  706 707	 1492726634	 954152428	 161881.
22:17:15  707 708	 1492726635	 115975333	 161823.
22:17:15  708 709	 1492726635	 281876028	 165901.
22:17:15  709 710	 1492726635	 414950788	 133074.
22:17:15  710 711	 1492726635	 581201760	 166252.
22:17:15  711 712	 1492726635	 743015408	 161813.
22:17:15  712 713	 1492726635	 905536684	 162521.
22:17:16  713 714	 1492726636	 63272757	 157737.
22:17:16  714 715	 1492726636	 229041959	 165769.
22:17:16  715 716	 1492726636	 390841309	 161799.
22:17:16  716 717	 1492726636	 552910258	 162069.
22:17:16  717 718	 1492726636	 719024883	 166115.
22:17:16  718 719	 1492726636	 880822355	 161797.
22:17:17  719 720	 1492726637	 46554109	 165732.
22:17:17  720 721	 1492726637	 179570041	 133016.
22:17:17  721 722	 1492726637	 345603942	 166034.
22:17:17  722 723	 1492726637	 507537819	 161934.
22:17:17  723 724	 1492726637	 669476479	 161938.
22:17:17  724 725	 1492726637	 835381816	 165906.
22:17:17  725 726	 1492726637	 997230802	 161849.
22:17:18  726 727	 1492726638	 163138103	 165907.
22:17:18  727 728	 1492726638	 324912273	 161774.
22:17:18  728 729	 1492726638	 490780527	 165868.
22:17:18  729 730	 1492726638	 624024606	 133244.
22:17:18  730 731	 1492726638	 785794923	 161771.
22:17:18  731 732	 1492726638	 951670317	 165875.
22:17:19  732 733	 1492726639	 113586422	 161916.
22:17:19  733 734	 1492726639	 279452952	 165867.
22:17:19  734 735	 1492726639	 441295050	 161842.
22:17:19  735 736	 1492726639	 607115339	 165820.
22:17:19  736 737	 1492726639	 768913911	 161799.
22:17:19  737 738	 1492726639	 906167314	 137253.
22:17:20  738 739	 1492726640	 68060596	 161893.
22:17:20  739 740	 1492726640	 230115778	 162056.
22:17:20  740 741	 1492726640	 395993342	 165877.
22:17:20  741 742	 1492726640	 557901396	 161908.
22:17:20  742 743	 1492726640	 723919054	 166018.
22:17:20  743 744	 1492726640	 885752659	 161833.
22:17:21  744 745	 1492726641	 51763614	 166011.
22:17:21  745 746	 1492726641	 213845530	 162082.
22:17:21  746 747	 1492726641	 379787053	 165942.
22:17:21  747 748	 1492726641	 513076996	 133290.
22:17:21  748 749	 1492726641	 674820092	 161743.
22:17:21  749 750	 1492726641	 840823176	 166003.
22:17:21  750 751	 1492726642	 2719548	 161896.
22:17:22  751 752	 1492726642	 168783855	 166065.
22:17:22  752 753	 1492726642	 330639431	 161855.
22:17:22  753 754	 1492726642	 496535417	 165896.
22:17:22  754 755	 1492726642	 658420212	 161885.
22:17:22  755 756	 1492726642	 791666020	 133246.
22:17:22  756 757	 1492726642	 957788017	 166122.
22:17:23  757 758	 1492726643	 119468977	 161681.
22:17:23  758 759	 1492726643	 285185782	 165717.
22:17:23  759 760	 1492726643	 447024174	 161838.
22:17:23  760 761	 1492726643	 613049032	 166025.
22:17:23  761 762	 1492726643	 774869533	 161820.
22:17:23  762 763	 1492726643	 936766642	 161897.
22:17:24  763 764	 1492726644	 98726664	 161960.
22:17:24  764 765	 1492726644	 261025006	 162299.
22:17:24  765 766	 1492726644	 398300516	 137275.
22:17:24  766 767	 1492726644	 564244449	 165944.
22:17:24  767 768	 1492726644	 725928242	 161684.
22:17:24  768 769	 1492726644	 887834247	 161906.
22:17:25  769 770	 1492726645	 49719227	 161885.
22:17:25  770 771	 1492726645	 215749658	 166030.
22:17:25  771 772	 1492726645	 377440243	 161691.
22:17:25  772 773	 1492726645	 543509234	 166069.
22:17:25  773 774	 1492726645	 705227702	 161719.
22:17:25  774 775	 1492726645	 871214246	 165986.
22:17:25  775 776	 1492726646	 4328230	 133114.
22:17:26  776 777	 1492726646	 170274027	 165946.
22:17:26  777 778	 1492726646	 332059422	 161785.
22:17:26  778 779	 1492726646	 494256968	 162198.
22:17:26  779 780	 1492726646	 660050718	 165793.
22:17:26  780 781	 1492726646	 822016867	 161967.
22:17:26  781 782	 1492726646	 987791121	 165774.
22:17:27  782 783	 1492726647	 149781455	 161990.
22:17:27  783 784	 1492726647	 311950379	 162169.
22:17:27  784 785	 1492726647	 449222204	 137272.
22:17:27  785 786	 1492726647	 611436218	 162214.
22:17:27  786 787	 1492726647	 773456468	 162020.
22:17:27  787 788	 1492726647	 935561986	 162106.
22:17:28  788 789	 1492726648	 101837973	 166276.
22:17:28  789 790	 1492726648	 263642134	 161804.
22:17:28  790 791	 1492726648	 429549489	 165907.
22:17:28  791 792	 1492726648	 591227138	 161678.
22:17:28  792 793	 1492726648	 757051978	 165825.
22:17:28  793 794	 1492726648	 918889194	 161837.
22:17:29  794 795	 1492726649	 56124279	 137235.
22:17:29  795 796	 1492726649	 218008450	 161884.
22:17:29  796 797	 1492726649	 383827479	 165819.
22:17:29  797 798	 1492726649	 545771505	 161944.
22:17:29  798 799	 1492726649	 711672290	 165901.
22:17:29  799 800	 1492726649	 873473860	 161802.
22:17:30  800 801	 1492726650	 35374226	 161900.
22:17:30  801 802	 1492726650	 201337373	 165963.
22:17:30  802 803	 1492726650	 363416202	 162079.
22:17:30  803 804	 1492726650	 496445085	 133029.
22:17:30  804 805	 1492726650	 662298312	 165853.
22:17:30  805 806	 1492726650	 828146196	 165848.
22:17:30  806 807	 1492726650	 989997199	 161851.
22:17:31  807 808	 1492726651	 151808901	 161812.
22:17:31  808 809	 1492726651	 317674511	 165865.
22:17:31  809 810	 1492726651	 479438514	 161764.
22:17:31  810 811	 1492726651	 645401609	 165963.
22:17:31  811 812	 1492726651	 778526447	 133125.
22:17:31  812 813	 1492726651	 940649176	 162123.
22:17:32  813 814	 1492726652	 102526611	 161877.
22:17:32  814 815	 1492726652	 268400052	 165874.
22:17:32  815 816	 1492726652	 430318972	 161919.
22:17:32  816 817	 1492726652	 596405197	 166086.
22:17:32  817 818	 1492726652	 758660577	 162255.
22:17:32  818 819	 1492726652	 916434551	 157774.
22:17:33  819 820	 1492726653	 82329737	 165896.
22:17:33  820 821	 1492726653	 244290415	 161960.
22:17:33  821 822	 1492726653	 381573358	 137283.
22:17:33  822 823	 1492726653	 543387181	 161814.
22:17:33  823 824	 1492726653	 705329727	 161943.
22:17:33  824 825	 1492726653	 871411894	 166082.
22:17:34  825 826	 1492726654	 33213731	 161802.
22:17:34  826 827	 1492726654	 199041310	 165827.
22:17:34  827 828	 1492726654	 360841884	 161801.
22:17:34  828 829	 1492726654	 526660516	 165818.
22:17:34  829 830	 1492726654	 688492951	 161833.
22:17:34  830 831	 1492726654	 821632389	 133139.
22:17:34  831 832	 1492726654	 987498604	 165866.
22:17:35  832 833	 1492726655	 149257107	 161759.
22:17:35  833 834	 1492726655	 315341518	 166084.
22:17:35  834 835	 1492726655	 477197338	 161856.
22:17:35  835 836	 1492726655	 639060883	 161864.
22:17:35  836 837	 1492726655	 805146400	 166085.
22:17:35  837 838	 1492726655	 966939324	 161793.
22:17:36  838 839	 1492726656	 132604499	 165665.
22:17:36  839 840	 1492726656	 265699926	 133096.
22:17:36  840 841	 1492726656	 431689272	 165989.
22:17:36  841 842	 1492726656	 593652480	 161963.
22:17:36  842 843	 1492726656	 759453895	 165802.
22:17:36  843 844	 1492726656	 921311772	 161858.
22:17:37  844 845	 1492726657	 87156548	 165844.
22:17:37  845 846	 1492726657	 248820272	 161664.
22:17:37  846 847	 1492726657	 410386773	 161567.
22:17:37  847 848	 1492726657	 547539206	 137152.
22:17:37  848 849	 1492726657	 709688910	 162150.
22:17:37  849 850	 1492726657	 871470327	 161781.
22:17:38  850 851	 1492726658	 37419975	 165950.
22:17:38  851 852	 1492726658	 199356177	 161936.
22:17:38  852 853	 1492726658	 365361084	 166005.
22:17:38  853 854	 1492726658	 527133891	 161773.
22:17:38  854 855	 1492726658	 692863950	 165730.
22:17:38  855 856	 1492726658	 826091072	 133227.
22:17:38  856 857	 1492726658	 987879836	 161789.
22:17:39  857 858	 1492726659	 153792923	 165913.
22:17:39  858 859	 1492726659	 315664667	 161871.
22:17:39  859 860	 1492726659	 481694871	 166031.
22:17:39  860 861	 1492726659	 643418611	 161723.
22:17:39  861 862	 1492726659	 805242662	 161824.
22:17:39  862 863	 1492726659	 971019945	 165778.
22:17:40  863 864	 1492726660	 132826360	 161806.
22:17:40  864 865	 1492726660	 270062493	 137236.
22:17:40  865 866	 1492726660	 431900471	 161838.
22:17:40  866 867	 1492726660	 593684862	 161785.
22:17:40  867 868	 1492726660	 759673242	 165988.
22:17:40  868 869	 1492726660	 921513009	 161840.
22:17:41  869 870	 1492726661	 87362553	 165849.
22:17:41  870 871	 1492726661	 249060665	 161698.
22:17:41  871 872	 1492726661	 414970067	 165910.
22:17:41  872 873	 1492726661	 548203093	 133233.
22:17:41  873 874	 1492726661	 710083860	 161881.
22:17:41  874 875	 1492726661	 872283026	 162199.
22:17:42  875 876	 1492726662	 38248061	 165965.
22:17:42  876 877	 1492726662	 200318913	 162071.
22:17:42  877 878	 1492726662	 362171913	 161853.
22:17:42  878 879	 1492726662	 528052492	 165880.
22:17:42  879 880	 1492726662	 689874037	 161822.
22:17:42  880 881	 1492726662	 851745156	 161871.
22:17:43  881 882	 1492726663	 14362286	 162617.
22:17:43  882 883	 1492726663	 176197606	 161835.
22:17:43  883 884	 1492726663	 338350006	 162153.
22:17:43  884 885	 1492726663	 471579402	 133229.
22:17:43  885 886	 1492726663	 637964218	 166385.
22:17:43  886 887	 1492726663	 799861490	 161897.
22:17:43  887 888	 1492726663	 965716411	 165855.
22:17:44  888 889	 1492726664	 127542838	 161827.
22:17:44  889 890	 1492726664	 293527183	 165984.
22:17:44  890 891	 1492726664	 455402289	 161875.
22:17:44  891 892	 1492726664	 617087280	 161685.
22:17:44  892 893	 1492726664	 783078389	 165991.
22:17:44  893 894	 1492726664	 916272620	 133194.
22:17:45  894 895	 1492726665	 82250562	 165978.
22:17:45  895 896	 1492726665	 244182592	 161932.
22:17:45  896 897	 1492726665	 410312580	 166130.
22:17:45  897 898	 1492726665	 572248937	 161937.
22:17:45  898 899	 1492726665	 734038592	 161789.
22:17:45  899 900	 1492726665	 899778037	 165740.
22:17:46  900 901	 1492726666	 61605153	 161827.
22:17:46  901 902	 1492726666	 227427806	 165823.
22:17:46  902 903	 1492726666	 360532472	 133104.
22:17:46  903 904	 1492726666	 522364668	 161833.
22:17:46  904 905	 1492726666	 688229648	 165864.
22:17:46  905 906	 1492726666	 850087759	 161859.
22:17:47  906 907	 1492726667	 15945256	 165857.
22:17:47  907 908	 1492726667	 170391293	 154446.
22:17:47  908 909	 1492726667	 336394923	 166004.
22:17:47  909 910	 1492726667	 498091146	 161696.
22:17:47  910 911	 1492726667	 663862552	 165771.
22:17:47  911 912	 1492726667	 825654308	 161792.
22:17:47  912 913	 1492726667	 958830195	 133176.
22:17:48  913 914	 1492726668	 124619191	 165789.
22:17:48  914 915	 1492726668	 286580794	 161962.
22:17:48  915 916	 1492726668	 448654597	 162073.
22:17:48  916 917	 1492726668	 614583899	 165930.
22:17:48  917 918	 1492726668	 776404575	 161821.
22:17:48  918 919	 1492726668	 938285073	 161880.
22:17:49  919 920	 1492726669	 104206419	 165921.
22:17:49  920 921	 1492726669	 266031013	 161825.
22:17:49  921 922	 1492726669	 403264001	 137233.
22:17:49  922 923	 1492726669	 565239791	 161976.
22:17:49  923 924	 1492726669	 727241289	 162001.
22:17:49  924 925	 1492726669	 911127155	 183886.
22:17:50  925 926	 1492726670	 44404679	 133277.
22:17:50  926 927	 1492726670	 206523856	 162120.
22:17:50  927 928	 1492726670	 372480699	 165956.
22:17:50  928 929	 1492726670	 534327702	 161848.
22:17:50  929 930	 1492726670	 700087599	 165759.
22:17:50  930 931	 1492726670	 861894919	 161808.
22:17:51  931 932	 1492726671	 27728839	 165834.
22:17:51  932 933	 1492726671	 189674540	 161945.
22:17:51  933 934	 1492726671	 351440720	 161767.
22:17:51  934 935	 1492726671	 488555929	 137115.
22:17:51  935 936	 1492726671	 650354426	 161798.
22:17:51  936 937	 1492726671	 816186983	 165833.
22:17:51  937 938	 1492726671	 977957269	 161770.
22:17:52  938 939	 1492726672	 140012815	 162056.
22:17:52  939 940	 1492726672	 301936827	 161924.
22:17:52  940 941	 1492726672	 467854186	 165917.
22:17:52  941 942	 1492726672	 629726727	 161873.
22:17:52  942 943	 1492726672	 795531881	 165805.
22:17:52  943 944	 1492726672	 928717451	 133185.
22:17:53  944 945	 1492726673	 90546780	 161830.
22:17:53  945 946	 1492726673	 256239115	 165692.
22:17:53  946 947	 1492726673	 417989625	 161750.
22:17:53  947 948	 1492726673	 583883945	 165895.
22:17:53  948 949	 1492726673	 745724138	 161840.
22:17:53  949 950	 1492726673	 907615179	 161891.
22:17:54  950 951	 1492726674	 44843487	 137228.
22:17:54  951 952	 1492726674	 206791677	 161948.
22:17:54  952 953	 1492726674	 368542377	 161751.
22:17:54  953 954	 1492726674	 534346120	 165804.
22:17:54  954 955	 1492726674	 696027074	 161681.
22:17:54  955 956	 1492726674	 862007751	 165981.
22:17:55  956 957	 1492726675	 23797507	 161789.
22:17:55  957 958	 1492726675	 189710037	 165913.
22:17:55  958 959	 1492726675	 351600221	 161890.
22:17:55  959 960	 1492726675	 484661145	 133061.
22:17:55  960 961	 1492726675	 646461919	 161801.
22:17:55  961 962	 1492726675	 812274824	 165813.
22:17:55  962 963	 1492726675	 974066507	 161791.
22:17:56  963 964	 1492726676	 135850187	 161784.
22:17:56  964 965	 1492726676	 301340190	 165490.
22:17:56  965 966	 1492726676	 466854791	 165515.
22:17:56  966 967	 1492726676	 599966201	 133111.
22:17:56  967 968	 1492726676	 761613391	 161647.
22:17:56  968 969	 1492726676	 927440738	 165828.
22:17:57  969 970	 1492726677	 89340518	 161899.
22:17:57  970 971	 1492726677	 251007693	 161667.
22:17:57  971 972	 1492726677	 416753157	 165746.
22:17:57  972 973	 1492726677	 578396793	 161644.
22:17:57  973 974	 1492726677	 715702440	 137305.
22:17:57  974 975	 1492726677	 877560217	 161858.
22:17:58  975 976	 1492726678	 39252882	 161693.
22:17:58  976 977	 1492726678	 205145589	 165892.
22:17:58  977 978	 1492726678	 366906002	 161761.
22:17:58  978 979	 1492726678	 532739229	 165833.
22:17:58  979 980	 1492726678	 694503526	 161764.
22:17:58  980 981	 1492726678	 860357316	 165854.
22:17:59  981 982	 1492726679	 18302888	 157946.
22:17:59  982 983	 1492726679	 155380062	 137077.
22:17:59  983 984	 1492726679	 317139980	 161760.
22:17:59  984 985	 1492726679	 482883984	 165744.
22:17:59  985 986	 1492726679	 644566235	 161682.
22:17:59  986 987	 1492726679	 810307605	 165741.
22:17:59  987 988	 1492726679	 972071673	 161764.
22:18:00  988 989	 1492726680	 138086827	 166016.
22:18:00  989 990	 1492726680	 299812372	 161725.
22:18:00  990 991	 1492726680	 437165346	 137353.
22:18:00  991 992	 1492726680	 599027182	 161862.
22:18:00  992 993	 1492726680	 760896739	 161870.
22:18:00  993 994	 1492726680	 926795700	 165898.
22:18:01  994 995	 1492726681	 88720398	 161925.
22:18:01  995 996	 1492726681	 254496677	 165776.
22:18:01  996 997	 1492726681	 416277545	 161781.
22:18:01  997 998	 1492726681	 582358742	 166082.
22:18:01  998 999	 1492726681	 744127775	 161769.
22:18:01  999 1000	 1492726681	 905891465	 161763.
22:18:02 1000 1001	 1492726682	 43059087	 137168.
22:18:02 1001 1002	 1492726682	 204776668	 161718.
22:18:02 1002 1003	 1492726682	 370704472	 165927.
22:18:02 1003 1004	 1492726682	 532626037	 161922.
22:18:02 1004 1005	 1492726682	 698547141	 165921.
22:18:02 1005 1006	 1492726682	 860414330	 161867.
22:18:03 1006 1007	 1492726683	 26352741	 165939.
22:18:03 1007 1008	 1492726683	 184395977	 158043.
22:18:03 1008 1009	 1492726683	 350210150	 165814.
22:18:03 1009 1010	 1492726683	 483319443	 133109.
22:18:03 1010 1011	 1492726683	 645542840	 162224.
22:18:03 1011 1012	 1492726683	 807387995	 161845.
22:18:03 1012 1013	 1492726683	 969080191	 161692.
22:18:04 1013 1014	 1492726684	 134903586	 165823.
22:18:04 1014 1015	 1492726684	 296817078	 161914.
22:18:04 1015 1016	 1492726684	 462800550	 165983.
22:18:04 1016 1017	 1492726684	 624766651	 161966.
22:18:04 1017 1018	 1492726684	 790604880	 165839.
22:18:04 1018 1019	 1492726684	 923765158	 133160.
22:18:05 1019 1020	 1492726685	 89552654	 165787.
22:18:05 1020 1021	 1492726685	 251419699	 161867.
22:18:05 1021 1022	 1492726685	 413348827	 161930.
22:18:05 1022 1023	 1492726685	 579355330	 166006.
22:18:05 1023 1024	 1492726685	 741161219	 161806.
22:18:05 1024 1025	 1492726685	 907009452	 165848.
22:18:06 1025 1026	 1492726686	 68855239	 161846.
22:18:06 1026 1027	 1492726686	 206111438	 137256.
22:18:06 1027 1028	 1492726686	 367878139	 161767.
22:18:06 1028 1029	 1492726686	 534029459	 166151.
22:18:06 1029 1030	 1492726686	 695877907	 161849.
22:18:06 1030 1031	 1492726686	 862268850	 166391.
22:18:07 1031 1032	 1492726687	 20087354	 157818.
22:18:07 1032 1033	 1492726687	 185956663	 165869.
22:18:07 1033 1034	 1492726687	 347907711	 161951.
22:18:07 1034 1035	 1492726687	 513764330	 165857.
22:18:07 1035 1036	 1492726687	 646886622	 133122.
22:18:07 1036 1037	 1492726687	 808923628	 162037.
22:18:07 1037 1038	 1492726687	 974889380	 165966.
22:18:08 1038 1039	 1492726688	 140843254	 165954.
22:18:08 1039 1040	 1492726688	 302689994	 161847.
22:18:08 1040 1041	 1492726688	 464523965	 161834.
22:18:08 1041 1042	 1492726688	 626241651	 161717.
22:18:08 1042 1043	 1492726688	 792282824	 166042.
22:18:08 1043 1044	 1492726688	 958037209	 165754.
22:18:09 1044 1045	 1492726689	 91183136	 133146.
22:18:09 1045 1046	 1492726689	 252953946	 161771.
22:18:09 1046 1047	 1492726689	 419034143	 166080.
22:18:09 1047 1048	 1492726689	 577117354	 158083.
22:18:09 1048 1049	 1492726689	 742907609	 165790.
22:18:09 1049 1050	 1492726689	 904747945	 161841.
22:18:10 1050 1051	 1492726690	 70535318	 165787.
22:18:10 1051 1052	 1492726690	 232343521	 161808.
22:18:10 1052 1053	 1492726690	 369537124	 137194.
22:18:10 1053 1054	 1492726690	 531309853	 161773.
22:18:10 1054 1055	 1492726690	 697390114	 166080.
22:18:10 1055 1056	 1492726690	 859151572	 161761.
22:18:11 1056 1057	 1492726691	 25029684	 165878.
22:18:11 1057 1058	 1492726691	 186742370	 161713.
22:18:11 1058 1059	 1492726691	 352664741	 165923.
22:18:11 1059 1060	 1492726691	 514386618	 161721.
22:18:11 1060 1061	 1492726691	 651524046	 137138.
22:18:11 1061 1062	 1492726691	 813315497	 161791.
22:18:11 1062 1063	 1492726691	 979121634	 165806.
22:18:12 1063 1064	 1492726692	 141008707	 161887.
22:18:12 1064 1065	 1492726692	 302610048	 161602.
22:18:12 1065 1066	 1492726692	 468680701	 166070.
22:18:12 1066 1067	 1492726692	 630460129	 161780.
22:18:12 1067 1068	 1492726692	 767658671	 137198.
22:18:12 1068 1069	 1492726692	 929377500	 161719.
22:18:13 1069 1070	 1492726693	 95257982	 165881.
22:18:13 1070 1071	 1492726693	 256853266	 161595.
22:18:13 1071 1072	 1492726693	 418605208	 161752.
22:18:13 1072 1073	 1492726693	 584219976	 165615.
22:18:13 1073 1074	 1492726693	 746014287	 161794.
22:18:13 1074 1075	 1492726693	 883227105	 137213.
22:18:14 1075 1076	 1492726694	 44845406	 161618.
22:18:14 1076 1077	 1492726694	 206307196	 161462.
22:18:14 1077 1078	 1492726694	 371921648	 165614.
22:18:14 1078 1079	 1492726694	 533683507	 161762.
22:18:14 1079 1080	 1492726694	 699294097	 165611.
22:18:14 1080 1081	 1492726694	 832217668	 132923.
22:18:14 1081 1082	 1492726694	 993839297	 161622.
22:18:15 1082 1083	 1492726695	 159482194	 165643.
22:18:15 1083 1084	 1492726695	 321046492	 161564.
22:18:15 1084 1085	 1492726695	 486912984	 165867.
22:18:15 1085 1086	 1492726695	 648591168	 161678.
22:18:15 1086 1087	 1492726695	 785617688	 137027.
22:18:15 1087 1088	 1492726695	 947271883	 161654.
22:18:16 1088 1089	 1492726696	 113001022	 165729.
22:18:16 1089 1090	 1492726696	 274587071	 161586.
22:18:16 1090 1091	 1492726696	 436384333	 161797.
22:18:16 1091 1092	 1492726696	 602197737	 165814.
22:18:16 1092 1093	 1492726696	 734989092	 132791.
22:18:16 1093 1094	 1492726696	 896689664	 161700.
22:18:17 1094 1095	 1492726697	 58398125	 161709.
22:18:17 1095 1096	 1492726697	 223861978	 165464.
22:18:17 1096 1097	 1492726697	 385461521	 161599.
22:18:17 1097 1098	 1492726697	 551420486	 165959.
22:18:17 1098 1099	 1492726697	 713079283	 161659.
22:18:17 1099 1100	 1492726697	 850199233	 137120.
22:18:18 1100 1101	 1492726698	 11996064	 161797.
22:18:18 1101 1102	 1492726698	 177975292	 165979.
22:18:18 1102 1103	 1492726698	 339621030	 161646.
22:18:18 1103 1104	 1492726698	 505272895	 165652.
22:18:18 1104 1105	 1492726698	 666967708	 161694.
22:18:18 1105 1106	 1492726698	 828674554	 161707.
22:18:18 1106 1107	 1492726698	 965768170	 137094.
22:18:19 1107 1108	 1492726699	 127511036	 161743.
22:18:19 1108 1109	 1492726699	 293476542	 165965.
22:18:19 1109 1110	 1492726699	 455291526	 161815.
22:18:19 1110 1111	 1492726699	 616760895	 161470.
22:18:19 1111 1112	 1492726699	 782594660	 165833.
22:18:19 1112 1113	 1492726699	 944321439	 161727.
22:18:20 1113 1114	 1492726700	 81308520	 136987.
22:18:20 1114 1115	 1492726700	 242990558	 161682.
22:18:20 1115 1116	 1492726700	 408862850	 165873.
22:18:20 1116 1117	 1492726700	 570674456	 161811.
22:18:20 1117 1118	 1492726700	 732300284	 161626.
22:18:20 1118 1119	 1492726700	 897968358	 165668.
22:18:21 1119 1120	 1492726701	 59801370	 161833.
22:18:21 1120 1121	 1492726701	 196981789	 137181.
22:18:21 1121 1122	 1492726701	 358741935	 161760.
22:18:21 1122 1123	 1492726701	 520364409	 161622.
22:18:21 1123 1124	 1492726701	 686162189	 165798.
22:18:21 1124 1125	 1492726701	 847710957	 161549.
22:18:22 1125 1126	 1492726702	 9530072	 161819.
22:18:22 1126 1127	 1492726702	 171145777	 161616.
22:18:22 1127 1128	 1492726702	 337018100	 165872.
22:18:22 1128 1129	 1492726702	 470193856	 133176.
22:18:22 1129 1130	 1492726702	 631922415	 161728.
22:18:22 1130 1131	 1492726702	 797619792	 165698.
22:18:22 1131 1132	 1492726702	 959442526	 161822.
22:18:23 1132 1133	 1492726703	 125306890	 165865.
22:18:23 1133 1134	 1492726703	 287067256	 161760.
22:18:23 1134 1135	 1492726703	 452807904	 165741.
22:18:23 1135 1136	 1492726703	 585780458	 132972.
22:18:23 1136 1137	 1492726703	 752364356	 166584.
22:18:23 1137 1138	 1492726703	 909891937	 157528.
22:18:24 1138 1139	 1492726704	 71551925	 161660.
22:18:24 1139 1140	 1492726704	 237335116	 165783.
22:18:24 1140 1141	 1492726704	 399201084	 161866.
22:18:24 1141 1142	 1492726704	 565043122	 165842.
22:18:24 1142 1143	 1492726704	 726836467	 161793.
22:18:24 1143 1144	 1492726704	 892543468	 165707.
22:18:25 1144 1145	 1492726705	 25726389	 133183.
22:18:25 1145 1146	 1492726705	 191543698	 165818.
22:18:25 1146 1147	 1492726705	 353248491	 161704.
22:18:25 1147 1148	 1492726705	 518988384	 165740.
22:18:25 1148 1149	 1492726705	 680957020	 161969.
22:18:25 1149 1150	 1492726705	 842909534	 161952.
22:18:26 1150 1151	 1492726706	 8737789	 165829.
22:18:26 1151 1152	 1492726706	 170439327	 161701.
22:18:26 1152 1153	 1492726706	 336415539	 165976.
22:18:26 1153 1154	 1492726706	 469794281	 133379.
22:18:26 1154 1155	 1492726706	 635657352	 165863.
22:18:26 1155 1156	 1492726706	 797548500	 161891.
22:18:26 1156 1157	 1492726706	 959483506	 161935.
22:18:27 1157 1158	 1492726707	 125493661	 166010.
22:18:27 1158 1159	 1492726707	 287352644	 161860.
22:18:27 1159 1160	 1492726707	 449148983	 161796.
22:18:27 1160 1161	 1492726707	 614915697	 165766.
22:18:27 1161 1162	 1492726707	 776596959	 161682.
22:18:27 1162 1163	 1492726707	 913631035	 137034.
22:18:28 1163 1164	 1492726708	 75511089	 161880.
22:18:28 1164 1165	 1492726708	 241602143	 166091.
22:18:28 1165 1166	 1492726708	 403448928	 161847.
22:18:28 1166 1167	 1492726708	 569259146	 165810.
22:18:28 1167 1168	 1492726708	 731130347	 161871.
22:18:28 1168 1169	 1492726708	 892915620	 161785.
22:18:29 1169 1170	 1492726709	 58893143	 165978.
22:18:29 1170 1171	 1492726709	 192018840	 133126.
22:18:29 1171 1172	 1492726709	 353795028	 161776.
22:18:29 1172 1173	 1492726709	 519577486	 165782.
22:18:29 1173 1174	 1492726709	 681416905	 161840.
22:18:29 1174 1175	 1492726709	 847272053	 165855.
22:18:30 1175 1176	 1492726710	 9156243	 161884.
22:18:30 1176 1177	 1492726710	 174914932	 165759.
22:18:30 1177 1178	 1492726710	 336704435	 161789.
22:18:30 1178 1179	 1492726710	 473892837	 137189.
22:18:30 1179 1180	 1492726710	 635675375	 161782.
22:18:30 1180 1181	 1492726710	 797393853	 161719.
22:18:30 1181 1182	 1492726710	 963176755	 165783.
22:18:31 1182 1183	 1492726711	 125106992	 161930.
22:18:31 1183 1184	 1492726711	 290956342	 165849.
22:18:31 1184 1185	 1492726711	 452733125	 161777.
22:18:31 1185 1186	 1492726711	 618463334	 165730.
22:18:31 1186 1187	 1492726711	 776646260	 158183.
22:18:31 1187 1188	 1492726711	 913695051	 137049.
22:18:32 1188 1189	 1492726712	 75513338	 161818.
22:18:32 1189 1190	 1492726712	 241186641	 165673.
22:18:32 1190 1191	 1492726712	 402930424	 161744.
22:18:32 1191 1192	 1492726712	 568886715	 165957.
22:18:32 1192 1193	 1492726712	 730638362	 161751.
22:18:32 1193 1194	 1492726712	 896382626	 165744.
22:18:33 1194 1195	 1492726713	 29436107	 133054.
22:18:33 1195 1196	 1492726713	 191500962	 162065.
22:18:33 1196 1197	 1492726713	 353394532	 161893.
22:18:33 1197 1198	 1492726713	 519225158	 165831.
22:18:33 1198 1199	 1492726713	 680904606	 161679.
22:18:33 1199 1200	 1492726713	 846690341	 165786.
22:18:34 1200 1201	 1492726714	 8508400	 161818.
22:18:34 1201 1202	 1492726714	 174300579	 165792.
22:18:34 1202 1203	 1492726714	 336180436	 161880.
22:18:34 1203 1204	 1492726714	 469300629	 133120.
22:18:34 1204 1205	 1492726714	 635141641	 165841.
22:18:34 1205 1206	 1492726714	 796883450	 161742.
22:18:34 1206 1207	 1492726714	 962299987	 165417.
22:18:35 1207 1208	 1492726715	 124074980	 161775.
22:18:35 1208 1209	 1492726715	 286052900	 161978.
22:18:35 1209 1210	 1492726715	 447796936	 161744.
22:18:35 1210 1211	 1492726715	 613734796	 165938.
22:18:35 1211 1212	 1492726715	 746849932	 133115.
22:18:35 1212 1213	 1492726715	 908538871	 161689.
22:18:36 1213 1214	 1492726716	 74340263	 165801.
22:18:36 1214 1215	 1492726716	 236047955	 161708.
22:18:36 1215 1216	 1492726716	 401720329	 165672.
22:18:36 1216 1217	 1492726716	 563290135	 161570.
22:18:36 1217 1218	 1492726716	 725021832	 161732.
22:18:36 1218 1219	 1492726716	 862041995	 137020.
22:18:37 1219 1220	 1492726717	 23958916	 161917.
22:18:37 1220 1221	 1492726717	 189817357	 165858.
22:18:37 1221 1222	 1492726717	 347812710	 157995.
22:18:37 1222 1223	 1492726717	 513914189	 166102.
22:18:37 1223 1224	 1492726717	 675544787	 161631.
22:18:37 1224 1225	 1492726717	 841310603	 165765.
22:18:38 1225 1226	 1492726718	 2915483	 161605.
22:18:38 1226 1227	 1492726718	 140034617	 137119.
22:18:38 1227 1228	 1492726718	 301880852	 161847.
22:18:38 1228 1229	 1492726718	 463551884	 161671.
22:18:38 1229 1230	 1492726718	 629488049	 165936.
22:18:38 1230 1231	 1492726718	 791202593	 161714.
22:18:38 1231 1232	 1492726718	 956896081	 165694.
22:18:39 1232 1233	 1492726719	 115283097	 158387.
22:18:39 1233 1234	 1492726719	 277108413	 161825.
22:18:39 1234 1235	 1492726719	 442873679	 165765.
22:18:39 1235 1236	 1492726719	 575973498	 133100.
22:18:39 1236 1237	 1492726719	 742207902	 166235.
22:18:39 1237 1238	 1492726719	 899862520	 157654.
22:18:40 1238 1239	 1492726720	 65689035	 165827.
22:18:40 1239 1240	 1492726720	 227468318	 161779.
22:18:40 1240 1241	 1492726720	 389245710	 161778.
22:18:40 1241 1242	 1492726720	 554998122	 165752.
22:18:40 1242 1243	 1492726720	 717672275	 162674.
22:18:40 1243 1244	 1492726720	 875463078	 157791.
22:18:41 1244 1245	 1492726721	 41199493	 165736.
22:18:41 1245 1246	 1492726721	 174288393	 133089.
22:18:41 1246 1247	 1492726721	 336329229	 162041.
22:18:41 1247 1248	 1492726721	 498480691	 162152.
22:18:41 1248 1249	 1492726721	 660242081	 161761.
22:18:41 1249 1250	 1492726721	 826003359	 165761.
22:18:41 1250 1251	 1492726721	 987700346	 161697.
22:18:42 1251 1252	 1492726722	 153297409	 165597.
22:18:42 1252 1253	 1492726722	 315012514	 161715.
22:18:42 1253 1254	 1492726722	 448046706	 133034.
22:18:42 1254 1255	 1492726722	 613998298	 165952.
22:18:42 1255 1256	 1492726722	 776146180	 162148.
22:18:42 1256 1257	 1492726722	 938196792	 162051.
22:18:43 1257 1258	 1492726723	 100001196	 161804.
22:18:43 1258 1259	 1492726723	 265811341	 165810.
22:18:43 1259 1260	 1492726723	 427512788	 161702.
22:18:43 1260 1261	 1492726723	 593242445	 165729.
22:18:43 1261 1262	 1492726723	 754976305	 161734.
22:18:43 1262 1263	 1492726723	 892266205	 137290.
22:18:44 1263 1264	 1492726724	 54072961	 161807.
22:18:44 1264 1265	 1492726724	 219939272	 165866.
22:18:44 1265 1266	 1492726724	 381922595	 161983.
22:18:44 1266 1267	 1492726724	 543652267	 161730.
22:18:44 1267 1268	 1492726724	 709593095	 165941.
22:18:44 1268 1269	 1492726724	 871364274	 161771.
22:18:45 1269 1270	 1492726725	 37029212	 165665.
22:18:45 1270 1271	 1492726725	 170063684	 133034.
22:18:45 1271 1272	 1492726725	 331751216	 161688.
22:18:45 1272 1273	 1492726725	 497525001	 165774.
22:18:45 1273 1274	 1492726725	 659337127	 161812.
22:18:45 1274 1275	 1492726725	 825189204	 165852.
22:18:45 1275 1276	 1492726725	 986954848	 161766.
22:18:46 1276 1277	 1492726726	 152884625	 165929.
22:18:46 1277 1278	 1492726726	 314620532	 161736.
22:18:46 1278 1279	 1492726726	 451901498	 137281.
22:18:46 1279 1280	 1492726726	 613677807	 161777.
22:18:46 1280 1281	 1492726726	 779402498	 165724.
22:18:46 1281 1282	 1492726726	 941347481	 161945.
22:18:47 1282 1283	 1492726727	 103054013	 161707.
22:18:47 1283 1284	 1492726727	 268884748	 165831.
22:18:47 1284 1285	 1492726727	 430550405	 161665.
22:18:47 1285 1286	 1492726727	 596501629	 165951.
22:18:47 1286 1287	 1492726727	 729491915	 132991.
22:18:47 1287 1288	 1492726727	 891284978	 161793.
22:18:48 1288 1289	 1492726728	 53233228	 161948.
22:18:48 1289 1290	 1492726728	 219005179	 165772.
22:18:48 1290 1291	 1492726728	 380864611	 161859.
22:18:48 1291 1292	 1492726728	 546737144	 165873.
22:18:48 1292 1293	 1492726728	 708562769	 161826.
22:18:48 1293 1294	 1492726728	 870240103	 161677.
22:18:49 1294 1295	 1492726729	 35902303	 165662.
22:18:49 1295 1296	 1492726729	 168979763	 133078.
22:18:49 1296 1297	 1492726729	 334793431	 165813.
22:18:49 1297 1298	 1492726729	 496621265	 161828.
22:18:49 1298 1299	 1492726729	 658412625	 161791.
22:18:49 1299 1300	 1492726729	 824208561	 165796.
22:18:49 1300 1301	 1492726729	 985960455	 161752.
22:18:50 1301 1302	 1492726730	 151730117	 165770.
22:18:50 1302 1303	 1492726730	 313441384	 161711.
22:18:50 1303 1304	 1492726730	 446423960	 132983.
22:18:50 1304 1305	 1492726730	 612084699	 165660.
22:18:50 1305 1306	 1492726730	 773943837	 161860.
22:18:50 1306 1307	 1492726730	 939980391	 166036.
22:18:51 1307 1308	 1492726731	 101512267	 161532.
22:18:51 1308 1309	 1492726731	 263198091	 161686.
22:18:51 1309 1310	 1492726731	 425181771	 161984.
22:18:51 1310 1311	 1492726731	 591053635	 165872.
22:18:51 1311 1312	 1492726731	 724233269	 133179.
22:18:51 1312 1313	 1492726731	 886273263	 162040.
22:18:52 1313 1314	 1492726732	 52093065	 165820.
22:18:52 1314 1315	 1492726732	 214087375	 161994.
22:18:52 1315 1316	 1492726732	 376009778	 161923.
22:18:52 1316 1317	 1492726732	 541920462	 165910.
22:18:52 1317 1318	 1492726732	 703835887	 161916.
22:18:52 1318 1319	 1492726732	 865601692	 161765.
22:18:53 1319 1320	 1492726733	 27362297	 161761.
22:18:53 1320 1321	 1492726733	 193275168	 165913.
22:18:53 1321 1322	 1492726733	 326543827	 133269.
22:18:53 1322 1323	 1492726733	 492531984	 165988.
22:18:53 1323 1324	 1492726733	 654298880	 161767.
22:18:53 1324 1325	 1492726733	 820014462	 165715.
22:18:53 1325 1326	 1492726733	 981728727	 161715.
22:18:54 1326 1327	 1492726734	 143364456	 161635.
22:18:54 1327 1328	 1492726734	 309179726	 165816.
22:18:54 1328 1329	 1492726734	 471103462	 161923.
22:18:54 1329 1330	 1492726734	 604178462	 133075.
22:18:54 1330 1331	 1492726734	 769915651	 165737.
22:18:54 1331 1332	 1492726734	 931942396	 162027.
22:18:55 1332 1333	 1492726735	 97817100	 165875.
22:18:55 1333 1334	 1492726735	 259605700	 161788.
22:18:55 1334 1335	 1492726735	 425337509	 165732.
22:18:55 1335 1336	 1492726735	 587079716	 161742.
22:18:55 1336 1337	 1492726735	 748871383	 161792.
22:18:55 1337 1338	 1492726735	 886172696	 137301.
22:18:56 1338 1339	 1492726736	 48417014	 162245.
22:18:56 1339 1340	 1492726736	 210092431	 161675.
22:18:56 1340 1341	 1492726736	 371642896	 161551.
22:18:56 1341 1342	 1492726736	 537459983	 165817.
22:18:56 1342 1343	 1492726736	 699217242	 161757.
22:18:56 1343 1344	 1492726736	 860949469	 161732.
22:18:57 1344 1345	 1492726737	 26682702	 165733.
22:18:57 1345 1346	 1492726737	 159764701	 133082.
22:18:57 1346 1347	 1492726737	 321507599	 161743.
22:18:57 1347 1348	 1492726737	 487183707	 165676.
22:18:57 1348 1349	 1492726737	 649609645	 162426.
22:18:57 1349 1350	 1492726737	 811481460	 161872.
22:18:57 1350 1351	 1492726737	 973238010	 161757.
22:18:58 1351 1352	 1492726738	 135037270	 161799.
22:18:58 1352 1353	 1492726738	 300837920	 165801.
22:18:58 1353 1354	 1492726738	 462653440	 161815.
22:18:58 1354 1355	 1492726738	 599683039	 137030.
22:18:58 1355 1356	 1492726738	 761390583	 161707.
22:18:58 1356 1357	 1492726738	 927342161	 165952.
22:18:59 1357 1358	 1492726739	 89051646	 161709.
22:18:59 1358 1359	 1492726739	 254835214	 165784.
22:18:59 1359 1360	 1492726739	 416613815	 161779.
22:18:59 1360 1361	 1492726739	 578275386	 161661.
22:18:59 1361 1362	 1492726739	 744095152	 165820.
22:18:59 1362 1363	 1492726739	 877324567	 133229.
22:19:00 1363 1364	 1492726740	 43142758	 165819.
22:19:00 1364 1365	 1492726740	 205058820	 161916.
22:19:00 1365 1366	 1492726740	 370820820	 165762.
22:19:00 1366 1367	 1492726740	 532627234	 161806.
22:19:00 1367 1368	 1492726740	 694412410	 161785.
22:19:00 1368 1369	 1492726740	 860313427	 165901.
22:19:01 1369 1370	 1492726741	 22090193	 161777.
22:19:01 1370 1371	 1492726741	 187857521	 165767.
22:19:01 1371 1372	 1492726741	 317199139	 129342.
22:19:01 1372 1373	 1492726741	 483069185	 165870.
22:19:01 1373 1374	 1492726741	 645048064	 161979.
22:19:01 1374 1375	 1492726741	 806846023	 161798.
22:19:01 1375 1376	 1492726741	 972588111	 165742.
22:19:02 1376 1377	 1492726742	 134195936	 161608.
22:19:02 1377 1378	 1492726742	 300014342	 165818.
22:19:02 1378 1379	 1492726742	 461648171	 161634.
22:19:02 1379 1380	 1492726742	 594536005	 132888.
22:19:02 1380 1381	 1492726742	 756287876	 161752.
22:19:02 1381 1382	 1492726742	 922272199	 165984.
22:19:03 1382 1383	 1492726743	 84407807	 162136.
22:19:03 1383 1384	 1492726743	 246487894	 162080.
22:19:03 1384 1385	 1492726743	 412394120	 165906.
22:19:03 1385 1386	 1492726743	 574383032	 161989.
22:19:03 1386 1387	 1492726743	 740390613	 166007.
22:19:03 1387 1388	 1492726743	 877662350	 137272.
22:19:04 1388 1389	 1492726744	 39731953	 162070.
22:19:04 1389 1390	 1492726744	 205972701	 166240.
22:19:04 1390 1391	 1492726744	 368001168	 162029.
22:19:04 1391 1392	 1492726744	 529867225	 161866.
22:19:04 1392 1393	 1492726744	 695753230	 165886.
22:19:04 1393 1394	 1492726744	 857780083	 162027.
22:19:05 1394 1395	 1492726745	 23515893	 165736.
22:19:05 1395 1396	 1492726745	 156772215	 133256.
22:19:05 1396 1397	 1492726745	 318772915	 162001.
22:19:05 1397 1398	 1492726745	 484662294	 165889.
22:19:05 1398 1399	 1492726745	 646558974	 161897.
22:19:05 1399 1400	 1492726745	 808508206	 161949.
22:19:05 1400 1401	 1492726745	 974282295	 165774.
22:19:06 1401 1402	 1492726746	 135998919	 161717.
22:19:06 1402 1403	 1492726746	 301702646	 165703.
22:19:06 1403 1404	 1492726746	 434820894	 133119.
22:19:06 1404 1405	 1492726746	 600768393	 165947.
22:19:06 1405 1406	 1492726746	 762684613	 161916.
22:19:06 1406 1407	 1492726746	 924688508	 162004.
22:19:07 1407 1408	 1492726747	 90509923	 165822.
22:19:07 1408 1409	 1492726747	 252473445	 161963.
22:19:07 1409 1410	 1492726747	 418361486	 165888.
22:19:07 1410 1411	 1492726747	 580096387	 161735.
22:19:07 1411 1412	 1492726747	 741731136	 161635.
22:19:07 1412 1413	 1492726747	 878840419	 137109.
22:19:08 1413 1414	 1492726748	 40592690	 161753.
22:19:08 1414 1415	 1492726748	 206517561	 165924.
22:19:08 1415 1416	 1492726748	 368394178	 161877.
22:19:08 1416 1417	 1492726748	 530187242	 161793.
22:19:08 1417 1418	 1492726748	 696056224	 165869.
22:19:08 1418 1419	 1492726748	 857861192	 161805.
22:19:09 1419 1420	 1492726749	 24334491	 166473.
22:19:09 1420 1421	 1492726749	 181957165	 157623.
22:19:09 1421 1422	 1492726749	 319041064	 137084.
22:19:09 1422 1423	 1492726749	 481091032	 162050.
22:19:09 1423 1424	 1492726749	 646891037	 165800.
22:19:09 1424 1425	 1492726749	 808820637	 161930.
22:19:09 1425 1426	 1492726749	 974714537	 165893.
22:19:10 1426 1427	 1492726750	 136569574	 161855.
22:19:10 1427 1428	 1492726750	 302360124	 165791.
22:19:10 1428 1429	 1492726750	 464083546	 161723.
22:19:10 1429 1430	 1492726750	 601407231	 137324.
22:19:10 1430 1431	 1492726750	 763069114	 161662.
22:19:10 1431 1432	 1492726750	 924845585	 161776.
22:19:11 1432 1433	 1492726751	 90887942	 166043.
22:19:11 1433 1434	 1492726751	 252909464	 162021.
22:19:11 1434 1435	 1492726751	 418604594	 165695.
22:19:11 1435 1436	 1492726751	 580393807	 161790.
22:19:11 1436 1437	 1492726751	 746291861	 165898.
22:19:11 1437 1438	 1492726751	 879496671	 133204.
22:19:12 1438 1439	 1492726752	 41256134	 161760.
22:19:12 1439 1440	 1492726752	 207030934	 165775.
22:19:12 1440 1441	 1492726752	 368714930	 161684.
22:19:12 1441 1442	 1492726752	 530279102	 161564.
22:19:12 1442 1443	 1492726752	 696005095	 165726.
22:19:12 1443 1444	 1492726752	 857775567	 161770.
22:19:13 1444 1445	 1492726753	 19516958	 161742.
22:19:13 1445 1446	 1492726753	 156705535	 137188.
22:19:13 1446 1447	 1492726753	 318452278	 161747.
22:19:13 1447 1448	 1492726753	 484193942	 165742.
22:19:13 1448 1449	 1492726753	 646141170	 161947.
22:19:13 1449 1450	 1492726753	 812091075	 165950.
22:19:13 1450 1451	 1492726753	 973726153	 161635.
22:19:14 1451 1452	 1492726754	 139553783	 165828.
22:19:14 1452 1453	 1492726754	 272679805	 133126.
22:19:14 1453 1454	 1492726754	 434499821	 161820.
22:19:14 1454 1455	 1492726754	 621803879	 187304.
22:19:14 1455 1456	 1492726754	 759280208	 137476.
22:19:14 1456 1457	 1492726754	 921070283	 161790.
22:19:15 1457 1458	 1492726755	 86896264	 165826.
22:19:15 1458 1459	 1492726755	 248535358	 161639.
22:19:15 1459 1460	 1492726755	 414410447	 165875.
22:19:15 1460 1461	 1492726755	 576148582	 161738.
22:19:15 1461 1462	 1492726755	 741928725	 165781.
22:19:15 1462 1463	 1492726755	 874967383	 133038.
22:19:16 1463 1464	 1492726756	 36599968	 161633.
22:19:16 1464 1465	 1492726756	 202337103	 165737.
22:19:16 1465 1466	 1492726756	 364040824	 161704.
22:19:16 1466 1467	 1492726756	 529965877	 165925.
22:19:16 1467 1468	 1492726756	 691813805	 161848.
22:19:16 1468 1469	 1492726756	 857559238	 165745.
22:19:17 1469 1470	 1492726757	 19205118	 161646.
22:19:17 1470 1471	 1492726757	 156478682	 137273.
22:19:17 1471 1472	 1492726757	 318338144	 161860.
22:19:17 1472 1473	 1492726757	 484162714	 165825.
22:19:17 1473 1474	 1492726757	 645955583	 161792.
22:19:17 1474 1475	 1492726757	 811799769	 165845.
22:19:17 1475 1476	 1492726757	 973549218	 161749.
22:19:18 1476 1477	 1492726758	 135322764	 161774.
22:19:18 1477 1478	 1492726758	 301118363	 165795.
22:19:18 1478 1479	 1492726758	 434210389	 133092.
22:19:18 1479 1480	 1492726758	 600027024	 165817.
22:19:18 1480 1481	 1492726758	 761721527	 161694.
22:19:18 1481 1482	 1492726758	 927547838	 165827.
22:19:19 1482 1483	 1492726759	 89248475	 161700.
22:19:19 1483 1484	 1492726759	 251059263	 161811.
22:19:19 1484 1485	 1492726759	 416747430	 165688.
22:19:19 1485 1486	 1492726759	 549725872	 132979.
22:19:19 1486 1487	 1492726759	 715380279	 165654.
22:19:19 1487 1488	 1492726759	 877191157	 161811.
22:19:20 1488 1489	 1492726760	 43098389	 165907.
22:19:20 1489 1490	 1492726760	 204982984	 161885.
22:19:20 1490 1491	 1492726760	 366973406	 161990.
22:19:20 1491 1492	 1492726760	 528762561	 161789.
22:19:20 1492 1493	 1492726760	 694564648	 165803.
22:19:20 1493 1494	 1492726760	 856319046	 161754.
22:19:20 1494 1495	 1492726760	 993455885	 137137.
22:19:21 1495 1496	 1492726761	 151303722	 157848.
22:19:21 1496 1497	 1492726761	 317114350	 165810.
22:19:21 1497 1498	 1492726761	 478920975	 161807.
22:19:21 1498 1499	 1492726761	 644757400	 165836.
22:19:21 1499 1500	 1492726761	 806640422	 161883.
22:19:21 1500 1501	 1492726761	 972516497	 165876.
22:19:22 1501 1502	 1492726762	 134349582	 161834.
22:19:22 1502 1503	 1492726762	 271426601	 137076.
22:19:22 1503 1504	 1492726762	 432922673	 161496.
22:19:22 1504 1505	 1492726762	 598711388	 165789.
22:19:22 1505 1506	 1492726762	 760545858	 161835.
22:19:22 1506 1507	 1492726762	 922654546	 162108.
22:19:23 1507 1508	 1492726763	 84297436	 161643.
22:19:23 1508 1509	 1492726763	 250030959	 165734.
22:19:23 1509 1510	 1492726763	 411744893	 161714.
22:19:23 1510 1511	 1492726763	 577454016	 165709.
22:19:23 1511 1512	 1492726763	 710512488	 133058.
22:19:23 1512 1513	 1492726763	 876195362	 165683.
22:19:24 1513 1514	 1492726764	 37954429	 161759.
22:19:24 1514 1515	 1492726764	 199530830	 161577.
22:19:24 1515 1516	 1492726764	 365489896	 165959.
22:19:24 1516 1517	 1492726764	 527236023	 161746.
22:19:24 1517 1518	 1492726764	 693067944	 165832.
22:19:24 1518 1519	 1492726764	 826206174	 133138.
22:19:24 1519 1520	 1492726764	 991878942	 165673.
22:19:25 1520 1521	 1492726765	 153534718	 161656.
22:19:25 1521 1522	 1492726765	 319166820	 165632.
22:19:25 1522 1523	 1492726765	 480925533	 161758.
22:19:25 1523 1524	 1492726765	 646667560	 165742.
22:19:25 1524 1525	 1492726765	 808351492	 161684.
22:19:25 1525 1526	 1492726765	 970068344	 161717.
22:19:26 1526 1527	 1492726766	 103072492	 133004.
22:19:26 1527 1528	 1492726766	 268403346	 165331.
22:19:26 1528 1529	 1492726766	 430039365	 161636.
22:19:26 1529 1530	 1492726766	 595768388	 165729.
22:19:26 1530 1531	 1492726766	 757580128	 161812.
22:19:26 1531 1532	 1492726766	 923227239	 165647.
22:19:27 1532 1533	 1492726767	 56178730	 132952.
22:19:27 1533 1534	 1492726767	 217822545	 161643.
22:19:27 1534 1535	 1492726767	 383476769	 165655.
22:19:27 1535 1536	 1492726767	 549192333	 165715.
22:19:27 1536 1537	 1492726767	 710804663	 161612.
22:19:27 1537 1538	 1492726767	 872401345	 161597.
22:19:28 1538 1539	 1492726768	 38262734	 165861.
22:19:28 1539 1540	 1492726768	 171383620	 133121.
22:19:28 1540 1541	 1492726768	 333142775	 161760.
22:19:28 1541 1542	 1492726768	 498663278	 165520.
22:19:28 1542 1543	 1492726768	 660017719	 161354.
22:19:28 1543 1544	 1492726768	 825483279	 165466.
22:19:28 1544 1545	 1492726768	 958487066	 133004.
22:19:29 1545 1546	 1492726769	 120387900	 161901.
22:19:29 1546 1547	 1492726769	 286033832	 165646.
22:19:29 1547 1548	 1492726769	 447676411	 161642.
22:19:29 1548 1549	 1492726769	 613530020	 165854.
22:19:29 1549 1550	 1492726769	 775025001	 161495.
22:19:29 1550 1551	 1492726769	 936556770	 161532.
22:19:30 1551 1552	 1492726770	 73588718	 137032.
22:19:30 1552 1553	 1492726770	 235063510	 161474.
22:19:30 1553 1554	 1492726770	 400686635	 165623.
22:19:30 1554 1555	 1492726770	 562384266	 161698.
22:19:30 1555 1556	 1492726770	 728073120	 165689.
22:19:30 1556 1557	 1492726770	 889961516	 161888.
22:19:31 1557 1558	 1492726771	 55931415	 165970.
22:19:31 1558 1559	 1492726771	 189032802	 133102.
22:19:31 1559 1560	 1492726771	 350747387	 161714.
22:19:31 1560 1561	 1492726771	 512469708	 161722.
22:19:31 1561 1562	 1492726771	 677976820	 165508.
22:19:31 1562 1563	 1492726771	 839599301	 161622.
22:19:32 1563 1564	 1492726772	 5232001	 165633.
22:19:32 1564 1565	 1492726772	 166937231	 161705.
22:19:32 1565 1566	 1492726772	 299986140	 133049.
22:19:32 1566 1567	 1492726772	 465646938	 165661.
22:19:32 1567 1568	 1492726772	 627300094	 161653.
22:19:32 1568 1569	 1492726772	 793066897	 165767.
22:19:32 1569 1570	 1492726772	 954580206	 161513.
22:19:33 1570 1571	 1492726773	 116236371	 161656.
22:19:33 1571 1572	 1492726773	 253076520	 136840.
22:19:33 1572 1573	 1492726773	 414644109	 161568.
22:19:33 1573 1574	 1492726773	 580433456	 165789.
22:19:33 1574 1575	 1492726773	 742082891	 161650.
22:19:33 1575 1576	 1492726773	 907827669	 165744.
22:19:34 1576 1577	 1492726774	 69503381	 161676.
22:19:34 1577 1578	 1492726774	 231267425	 161764.
22:19:34 1578 1579	 1492726774	 368384366	 137117.
22:19:34 1579 1580	 1492726774	 529823158	 161439.
22:19:34 1580 1581	 1492726774	 695508921	 165686.
22:19:34 1581 1582	 1492726774	 857148974	 161640.
22:19:35 1582 1583	 1492726775	 18864444	 161715.
22:19:35 1583 1584	 1492726775	 181123031	 162259.
22:19:35 1584 1585	 1492726775	 342889712	 161767.
22:19:35 1585 1586	 1492726775	 504627831	 161738.
22:19:35 1586 1587	 1492726775	 637842172	 133214.
22:19:35 1587 1588	 1492726775	 799821759	 161980.
22:19:35 1588 1589	 1492726775	 965465456	 165643.
22:19:36 1589 1590	 1492726776	 127113619	 161648.
22:19:36 1590 1591	 1492726776	 292910318	 165797.
22:19:36 1591 1592	 1492726776	 455003647	 162093.
22:19:36 1592 1593	 1492726776	 616541841	 161539.
22:19:36 1593 1594	 1492726776	 778413157	 161871.
22:19:36 1594 1595	 1492726776	 911600292	 133187.
22:19:37 1595 1596	 1492726777	 77550638	 165950.
22:19:37 1596 1597	 1492726777	 239320470	 161770.
22:19:37 1597 1598	 1492726777	 405033491	 165713.
22:19:37 1598 1599	 1492726777	 567133692	 162100.
22:19:37 1599 1600	 1492726777	 728873234	 161740.
22:19:37 1600 1601	 1492726777	 894642685	 165769.
22:19:38 1601 1602	 1492726778	 56302273	 161660.
22:19:38 1602 1603	 1492726778	 222116057	 165814.
22:19:38 1603 1604	 1492726778	 355284138	 133168.
22:19:38 1604 1605	 1492726778	 517353037	 162069.
22:19:38 1605 1606	 1492726778	 679032872	 161680.
22:19:38 1606 1607	 1492726778	 844807910	 165775.
22:19:39 1607 1608	 1492726779	 6519795	 161712.
22:19:39 1608 1609	 1492726779	 168268274	 161748.
22:19:39 1609 1610	 1492726779	 334100592	 165832.
22:19:39 1610 1611	 1492726779	 495828303	 161728.
22:19:39 1611 1612	 1492726779	 628970702	 133142.
22:19:39 1612 1613	 1492726779	 790619374	 161649.
22:19:39 1613 1614	 1492726779	 956453066	 165834.
22:19:40 1614 1615	 1492726780	 118214405	 161761.
22:19:40 1615 1616	 1492726780	 283935700	 165721.
22:19:40 1616 1617	 1492726780	 445879268	 161944.
22:19:40 1617 1618	 1492726780	 611749497	 165870.
22:19:40 1618 1619	 1492726780	 773645350	 161896.
22:19:40 1619 1620	 1492726780	 906739137	 133094.
22:19:41 1620 1621	 1492726781	 72685726	 165947.
22:19:41 1621 1622	 1492726781	 234245230	 161559.
22:19:41 1622 1623	 1492726781	 396096518	 161853.
22:19:41 1623 1624	 1492726781	 562135346	 166037.
22:19:41 1624 1625	 1492726781	 723759355	 161624.
22:19:41 1625 1626	 1492726781	 889717509	 165958.
22:19:42 1626 1627	 1492726782	 51457279	 161740.
22:19:42 1627 1628	 1492726782	 184557546	 133100.
22:19:42 1628 1629	 1492726782	 346582801	 162026.
22:19:42 1629 1630	 1492726782	 512315804	 165733.
22:19:42 1630 1631	 1492726782	 673920383	 161604.
22:19:42 1631 1632	 1492726782	 832009184	 158089.
22:19:42 1632 1633	 1492726782	 997845061	 165836.
22:19:43 1633 1634	 1492726783	 159528671	 161683.
22:19:43 1634 1635	 1492726783	 321302694	 161775.
22:19:43 1635 1636	 1492726783	 487099644	 165797.
22:19:43 1636 1637	 1492726783	 620145179	 133045.
22:19:43 1637 1638	 1492726783	 785851675	 165706.
22:19:43 1638 1639	 1492726783	 947536556	 161685.
22:19:44 1639 1640	 1492726784	 113214374	 165678.
22:19:44 1640 1641	 1492726784	 274831174	 161617.
22:19:44 1641 1642	 1492726784	 436545760	 161715.
22:19:44 1642 1643	 1492726784	 602243525	 165697.
22:19:44 1643 1644	 1492726784	 735466566	 133223.
22:19:44 1644 1645	 1492726784	 901298573	 165832.
22:19:45 1645 1646	 1492726785	 63244989	 161947.
22:19:45 1646 1647	 1492726785	 224758012	 161513.
22:19:45 1647 1648	 1492726785	 390498424	 165740.
22:19:45 1648 1649	 1492726785	 552430462	 161932.
22:19:45 1649 1650	 1492726785	 718181817	 165752.
22:19:45 1650 1651	 1492726785	 851274490	 133092.
22:19:46 1651 1652	 1492726786	 12992660	 161718.
22:19:46 1652 1653	 1492726786	 178760309	 165768.
22:19:46 1653 1654	 1492726786	 340414405	 161654.
22:19:46 1654 1655	 1492726786	 506050193	 165636.
22:19:46 1655 1656	 1492726786	 667828014	 161778.
22:19:46 1656 1657	 1492726786	 829433446	 161605.
22:19:46 1657 1658	 1492726786	 966353234	 136920.
22:19:47 1658 1659	 1492726787	 127931199	 161578.
22:19:47 1659 1660	 1492726787	 293634462	 165703.
22:19:47 1660 1661	 1492726787	 455338588	 161704.
22:19:47 1661 1662	 1492726787	 621045731	 165708.
22:19:47 1662 1663	 1492726787	 782785603	 161739.
22:19:47 1663 1664	 1492726787	 948536224	 165751.
22:19:48 1664 1665	 1492726788	 110270353	 161734.
22:19:48 1665 1666	 1492726788	 243186000	 132916.
22:19:48 1666 1667	 1492726788	 404774976	 161589.
22:19:48 1667 1668	 1492726788	 570556818	 165782.
22:19:48 1668 1669	 1492726788	 732604840	 162048.
22:19:48 1669 1670	 1492726788	 894307944	 161703.
22:19:49 1670 1671	 1492726789	 60038464	 165730.
22:19:49 1671 1672	 1492726789	 221753613	 161715.
22:19:49 1672 1673	 1492726789	 354825099	 133072.
22:19:49 1673 1674	 1492726789	 520926338	 166101.
22:19:49 1674 1675	 1492726789	 678632793	 157707.
22:19:49 1675 1676	 1492726789	 840312992	 161680.
22:19:50 1676 1677	 1492726790	 5964964	 165652.
22:19:50 1677 1678	 1492726790	 167717490	 161752.
22:19:50 1678 1679	 1492726790	 329427841	 161711.
22:19:50 1679 1680	 1492726790	 495219756	 165792.
22:19:50 1680 1681	 1492726790	 628201852	 132982.
22:19:50 1681 1682	 1492726790	 789977609	 161775.
22:19:50 1682 1683	 1492726790	 951765231	 161788.
22:19:51 1683 1684	 1492726791	 117450193	 165685.
22:19:51 1684 1685	 1492726791	 279082466	 161632.
22:19:51 1685 1686	 1492726791	 440731363	 161649.
22:19:51 1686 1687	 1492726791	 606478090	 165747.
22:19:51 1687 1688	 1492726791	 768032962	 161555.
22:19:51 1688 1689	 1492726791	 905093206	 137060.
22:19:52 1689 1690	 1492726792	 66846436	 161753.
22:19:52 1690 1691	 1492726792	 228649360	 161803.
22:19:52 1691 1692	 1492726792	 394455417	 165806.
22:19:52 1692 1693	 1492726792	 556103118	 161648.
22:19:52 1693 1694	 1492726792	 721619603	 165516.
22:19:52 1694 1695	 1492726792	 854577910	 132959.
22:19:53 1695 1696	 1492726793	 20414405	 165836.
22:19:53 1696 1697	 1492726793	 182247110	 161833.
22:19:53 1697 1698	 1492726793	 344592687	 162346.
22:19:53 1698 1699	 1492726793	 506321203	 161728.
22:19:53 1699 1700	 1492726793	 668085034	 161764.
22:19:53 1700 1701	 1492726793	 833929958	 165845.
22:19:53 1701 1702	 1492726793	 995531764	 161602.
22:19:54 1702 1703	 1492726794	 161338509	 165806.
22:19:54 1703 1704	 1492726794	 294306508	 132968.
22:19:54 1704 1705	 1492726794	 456027093	 161721.
22:19:54 1705 1706	 1492726794	 621743113	 165716.
22:19:54 1706 1707	 1492726794	 783449877	 161707.
22:19:54 1707 1708	 1492726794	 949317721	 165868.
22:19:55 1708 1709	 1492726795	 111119633	 161801.
22:19:55 1709 1710	 1492726795	 276836285	 165717.
22:19:55 1710 1711	 1492726795	 438570869	 161735.
22:19:55 1711 1712	 1492726795	 571562603	 132991.
22:19:55 1712 1713	 1492726795	 737434593	 165873.
22:19:55 1713 1714	 1492726795	 899103626	 161668.
22:19:56 1714 1715	 1492726796	 64886503	 165784.
22:19:56 1715 1716	 1492726796	 226606061	 161719.
22:19:56 1716 1717	 1492726796	 388307445	 161701.
22:19:56 1717 1718	 1492726796	 554245122	 165938.
22:19:56 1718 1719	 1492726796	 687180536	 132935.
22:19:56 1719 1720	 1492726796	 848905294	 161725.
22:19:57 1720 1721	 1492726797	 14857091	 165952.
22:19:57 1721 1722	 1492726797	 176503480	 161646.
22:19:57 1722 1723	 1492726797	 342371091	 165868.
22:19:57 1723 1724	 1492726797	 504095691	 161724.
22:19:57 1724 1725	 1492726797	 669813985	 165719.
22:19:57 1725 1726	 1492726797	 827821815	 158008.
22:19:57 1726 1727	 1492726797	 964867903	 137046.
22:19:58 1727 1728	 1492726798	 126929013	 162061.
22:19:58 1728 1729	 1492726798	 292677487	 165748.
22:19:58 1729 1730	 1492726798	 454227517	 161551.
22:19:58 1730 1731	 1492726798	 615856976	 161629.
22:19:58 1731 1732	 1492726798	 781531428	 165674.
22:19:58 1732 1733	 1492726798	 943183656	 161652.
22:19:59 1733 1734	 1492726799	 80272249	 137089.
22:19:59 1734 1735	 1492726799	 241936550	 161664.
22:19:59 1735 1736	 1492726799	 403531505	 161595.
22:19:59 1736 1737	 1492726799	 569178964	 165648.
22:19:59 1737 1738	 1492726799	 731663983	 162485.
22:19:59 1738 1739	 1492726799	 889376154	 157712.
22:20:00 1739 1740	 1492726800	 54945653	 165569.
22:20:00 1740 1741	 1492726800	 216389695	 161444.
22:20:00 1741 1742	 1492726800	 349228009	 132839.
22:20:00 1742 1743	 1492726800	 515035385	 165807.
22:20:00 1743 1744	 1492726800	 676763238	 161728.
22:20:00 1744 1745	 1492726800	 842507516	 165744.
22:20:01 1745 1746	 1492726801	 4280908	 161774.
22:20:01 1746 1747	 1492726801	 170116480	 165835.
22:20:01 1747 1748	 1492726801	 331785266	 161669.
22:20:01 1748 1749	 1492726801	 497535062	 165750.
22:20:01 1749 1750	 1492726801	 630762765	 133228.
22:20:01 1750 1751	 1492726801	 792679455	 161916.
22:20:01 1751 1752	 1492726801	 958409848	 165731.
22:20:02 1752 1753	 1492726802	 120256983	 161847.
22:20:02 1753 1754	 1492726802	 286150717	 165893.
22:20:02 1754 1755	 1492726802	 447923744	 161774.
22:20:02 1755 1756	 1492726802	 613842010	 165918.
22:20:02 1756 1757	 1492726802	 775657199	 161815.
22:20:02 1757 1758	 1492726802	 912806873	 137150.
22:20:03 1758 1759	 1492726803	 74485076	 161678.
22:20:03 1759 1760	 1492726803	 240368535	 165883.
22:20:03 1760 1761	 1492726803	 402119811	 161752.
22:20:03 1761 1762	 1492726803	 564319950	 162200.
22:20:03 1762 1763	 1492726803	 726199674	 161879.
22:20:03 1763 1764	 1492726803	 892037753	 165839.
22:20:04 1764 1765	 1492726804	 53874513	 161836.
22:20:04 1765 1766	 1492726804	 219734784	 165861.
22:20:04 1766 1767	 1492726804	 353068967	 133334.
22:20:04 1767 1768	 1492726804	 514971440	 161902.
22:20:04 1768 1769	 1492726804	 680858957	 165888.
22:20:04 1769 1770	 1492726804	 842832974	 161974.
22:20:05 1770 1771	 1492726805	 4792207	 161959.
22:20:05 1771 1772	 1492726805	 167115304	 162323.
22:20:05 1772 1773	 1492726805	 332953351	 165838.
22:20:05 1773 1774	 1492726805	 494973838	 162021.
22:20:05 1774 1775	 1492726805	 657006051	 162032.
22:20:05 1775 1776	 1492726805	 822893943	 165888.
22:20:05 1776 1777	 1492726805	 956055356	 133161.
22:20:06 1777 1778	 1492726806	 121956563	 165901.
22:20:06 1778 1779	 1492726806	 283819479	 161863.
22:20:06 1779 1780	 1492726806	 449805142	 165986.
22:20:06 1780 1781	 1492726806	 611946817	 162142.
22:20:06 1781 1782	 1492726806	 773670465	 161723.
22:20:06 1782 1783	 1492726806	 939862630	 166192.
22:20:07 1783 1784	 1492726807	 101902671	 162040.
22:20:07 1784 1785	 1492726807	 263974927	 162073.
22:20:07 1785 1786	 1492726807	 401259289	 137284.
22:20:07 1786 1787	 1492726807	 563106685	 161848.
22:20:07 1787 1788	 1492726807	 729190459	 166083.
22:20:07 1788 1789	 1492726807	 895198778	 166009.
22:20:08 1789 1790	 1492726808	 57245435	 162046.
22:20:08 1790 1791	 1492726808	 223067970	 165823.
22:20:08 1791 1792	 1492726808	 381299218	 158231.
22:20:08 1792 1793	 1492726808	 543057794	 161759.
22:20:08 1793 1794	 1492726808	 708848010	 165790.
22:20:08 1794 1795	 1492726808	 842290089	 133442.
22:20:08 1795 1796	 1492726809	 4199604	 161909.
22:20:09 1796 1797	 1492726809	 170030984	 165832.
22:20:09 1797 1798	 1492726809	 331907356	 161876.
22:20:09 1798 1799	 1492726809	 497796875	 165890.
22:20:09 1799 1800	 1492726809	 659570283	 161773.
22:20:09 1800 1801	 1492726809	 825458267	 165888.
22:20:09 1801 1802	 1492726809	 987450830	 161993.
22:20:10 1802 1803	 1492726810	 149241885	 161791.
22:20:10 1803 1804	 1492726810	 286392755	 137151.
22:20:10 1804 1805	 1492726810	 448109723	 161716.
22:20:10 1805 1806	 1492726810	 613969491	 165860.
22:20:10 1806 1807	 1492726810	 775854878	 161886.
22:20:10 1807 1808	 1492726810	 937515954	 161661.
22:20:11 1808 1809	 1492726811	 103530034	 166014.
22:20:11 1809 1810	 1492726811	 265378710	 161849.
22:20:11 1810 1811	 1492726811	 431207742	 165829.
22:20:11 1811 1812	 1492726811	 564350895	 133143.
22:20:11 1812 1813	 1492726811	 726402810	 162052.
22:20:11 1813 1814	 1492726811	 892336887	 165934.
22:20:12 1814 1815	 1492726812	 54105172	 161768.
22:20:12 1815 1816	 1492726812	 216248967	 162144.
22:20:12 1816 1817	 1492726812	 378105057	 161856.
22:20:12 1817 1818	 1492726812	 543968210	 165863.
22:20:12 1818 1819	 1492726812	 705794594	 161826.
22:20:12 1819 1820	 1492726812	 871780323	 165986.
22:20:13 1820 1821	 1492726813	 4966148	 133186.
22:20:13 1821 1822	 1492726813	 167093694	 162127.
22:20:13 1822 1823	 1492726813	 332910080	 165817.
22:20:13 1823 1824	 1492726813	 494811021	 161901.
22:20:13 1824 1825	 1492726813	 660519001	 165708.
22:20:13 1825 1826	 1492726813	 822253115	 161734.
22:20:13 1826 1827	 1492726813	 988173148	 165920.
22:20:14 1827 1828	 1492726814	 150070528	 161897.
22:20:14 1828 1829	 1492726814	 283215850	 133146.
22:20:14 1829 1830	 1492726814	 449058728	 165843.
22:20:14 1830 1831	 1492726814	 610911071	 161852.
22:20:14 1831 1832	 1492726814	 776800684	 165889.
22:20:14 1832 1833	 1492726814	 938522942	 161723.
22:20:15 1833 1834	 1492726815	 104334181	 165811.
22:20:15 1834 1835	 1492726815	 266176519	 161842.
22:20:15 1835 1836	 1492726815	 432056234	 165880.
22:20:15 1836 1837	 1492726815	 565210370	 133154.
22:20:15 1837 1838	 1492726815	 727143225	 161933.
22:20:15 1838 1839	 1492726815	 889315643	 162172.
22:20:16 1839 1840	 1492726816	 51059533	 161744.
22:20:16 1840 1841	 1492726816	 216934965	 165876.
22:20:16 1841 1842	 1492726816	 378519050	 161584.
22:20:16 1842 1843	 1492726816	 544338149	 165819.
22:20:16 1843 1844	 1492726816	 706168334	 161830.
22:20:16 1844 1845	 1492726816	 850605869	 144438.
22:20:17 1845 1846	 1492726817	 16455320	 165849.
22:20:17 1846 1847	 1492726817	 178351847	 161897.
22:20:17 1847 1848	 1492726817	 344140652	 165788.
22:20:17 1848 1849	 1492726817	 506083910	 161944.
22:20:17 1849 1850	 1492726817	 667848140	 161764.
22:20:17 1850 1851	 1492726817	 805105941	 137258.
22:20:17 1851 1852	 1492726817	 966944071	 161838.
22:20:18 1852 1853	 1492726818	 132683866	 165740.
22:20:18 1853 1854	 1492726818	 294525272	 161841.
22:20:18 1854 1855	 1492726818	 456518978	 161994.
22:20:18 1855 1856	 1492726818	 622556913	 166038.
22:20:18 1856 1857	 1492726818	 784445573	 161888.
22:20:18 1857 1858	 1492726818	 949898678	 165453.
22:20:19 1858 1859	 1492726819	 82864483	 132966.
22:20:19 1859 1860	 1492726819	 248510457	 165646.
22:20:19 1860 1861	 1492726819	 410221537	 161711.
22:20:19 1861 1862	 1492726819	 576081334	 165860.
22:20:19 1862 1863	 1492726819	 737804596	 161723.
22:20:19 1863 1864	 1492726819	 899342022	 161538.
22:20:20 1864 1865	 1492726820	 65037449	 165695.
22:20:20 1865 1866	 1492726820	 226540851	 161504.
22:20:20 1866 1867	 1492726820	 363735018	 137194.
22:20:20 1867 1868	 1492726820	 525503114	 161768.
22:20:20 1868 1869	 1492726820	 691388060	 165885.
22:20:20 1869 1870	 1492726820	 853179652	 161791.
22:20:21 1870 1871	 1492726821	 15057222	 161878.
22:20:21 1871 1872	 1492726821	 181079982	 166023.
22:20:21 1872 1873	 1492726821	 342877805	 161798.
22:20:21 1873 1874	 1492726821	 508771292	 165893.
22:20:21 1874 1875	 1492726821	 641990612	 133219.
22:20:21 1875 1876	 1492726821	 803636662	 161646.
22:20:21 1876 1877	 1492726821	 969516348	 165880.
22:20:22 1877 1878	 1492726822	 131398900	 161883.
22:20:22 1878 1879	 1492726822	 297088630	 165690.
