19:52:25    0 Step	 time(s)	 time(ns)	 delta(ms)
19:52:25    0 1	 1492372345	 371239401	 965.
19:52:25    1 2	 1492372345	 536893915	 165655.
19:52:25    2 3	 1492372345	 699589106	 162695.
19:52:25    3 4	 1492372345	 861583972	 161995.
19:52:26    4 5	 1492372346	 23765768	 162182.
19:52:26    5 6	 1492372346	 160963961	 137198.
19:52:26    6 7	 1492372346	 323070602	 162106.
19:52:26    7 8	 1492372346	 489123494	 166053.
19:52:26    8 9	 1492372346	 650980563	 161857.
19:52:26    9 10	 1492372346	 816898299	 165918.
19:52:26   10 11	 1492372346	 978728421	 161830.
19:52:27   11 12	 1492372347	 144603362	 165875.
19:52:27   12 13	 1492372347	 277786217	 133183.
19:52:27   13 14	 1492372347	 443876669	 166090.
19:52:27   14 15	 1492372347	 605870710	 161994.
19:52:27   15 16	 1492372347	 771790534	 165920.
19:52:27   16 17	 1492372347	 933727159	 161937.
19:52:28   17 18	 1492372348	 95737751	 162011.
19:52:28   18 19	 1492372348	 261831303	 166093.
19:52:28   19 20	 1492372348	 427625523	 165794.
19:52:28   20 21	 1492372348	 560867105	 133242.
19:52:28   21 22	 1492372348	 723057688	 162190.
19:52:28   22 23	 1492372348	 884998550	 161941.
19:52:29   23 24	 1492372349	 50971334	 165973.
19:52:29   24 25	 1492372349	 212761272	 161790.
19:52:29   25 26	 1492372349	 378635719	 165874.
19:52:29   26 27	 1492372349	 540475015	 161840.
19:52:29   27 28	 1492372349	 706483475	 166008.
19:52:29   28 29	 1492372349	 839922005	 133439.
19:52:30   29 30	 1492372350	 2004753	 162083.
19:52:30   30 31	 1492372350	 168063096	 166058.
19:52:30   31 32	 1492372350	 330011017	 161948.
19:52:30   32 33	 1492372350	 488491039	 158480.
19:52:30   33 34	 1492372350	 654485089	 165994.
19:52:30   34 35	 1492372350	 817405438	 162920.
19:52:30   35 36	 1492372350	 975127321	 157722.
19:52:31   36 37	 1492372351	 141152930	 166026.
19:52:31   37 38	 1492372351	 303161776	 162009.
19:52:31   38 39	 1492372351	 436200238	 133038.
19:52:31   39 40	 1492372351	 601939520	 165739.
19:52:31   40 41	 1492372351	 763845868	 161907.
19:52:31   41 42	 1492372351	 929749719	 165904.
19:52:32   42 43	 1492372352	 91547284	 161797.
19:52:32   43 44	 1492372352	 257453827	 165907.
19:52:32   44 45	 1492372352	 419329855	 161876.
19:52:32   45 46	 1492372352	 556650655	 137320.
19:52:32   46 47	 1492372352	 718915584	 162265.
19:52:32   47 48	 1492372352	 880826092	 161911.
19:52:33   48 49	 1492372353	 46673805	 165848.
19:52:33   49 50	 1492372353	 208510321	 161836.
19:52:33   50 51	 1492372353	 374389515	 165879.
19:52:33   51 52	 1492372353	 536236172	 161847.
19:52:33   52 53	 1492372353	 698516615	 162280.
19:52:33   53 54	 1492372353	 831550435	 133034.
19:52:33   54 55	 1492372353	 997723333	 166173.
19:52:34   55 56	 1492372354	 159565310	 161842.
19:52:34   56 57	 1492372354	 325480264	 165915.
19:52:34   57 58	 1492372354	 487252465	 161772.
19:52:34   58 59	 1492372354	 653264748	 166013.
19:52:34   59 60	 1492372354	 815207723	 161943.
19:52:34   60 61	 1492372354	 952402547	 137194.
19:52:35   61 62	 1492372355	 114320112	 161918.
19:52:35   62 63	 1492372355	 280412831	 166093.
19:52:35   63 64	 1492372355	 442291668	 161878.
19:52:35   64 65	 1492372355	 608185062	 165894.
19:52:35   65 66	 1492372355	 769980032	 161795.
19:52:35   66 67	 1492372355	 907167651	 137187.
19:52:36   67 68	 1492372356	 68879905	 161713.
19:52:36   68 69	 1492372356	 234811756	 165932.
19:52:36   69 70	 1492372356	 396695092	 161883.
19:52:36   70 71	 1492372356	 558889711	 162194.
19:52:36   71 72	 1492372356	 724966204	 166077.
19:52:36   72 73	 1492372356	 887243907	 162278.
19:52:37   73 74	 1492372357	 49238941	 161995.
19:52:37   74 75	 1492372357	 211000649	 161761.
19:52:37   75 76	 1492372357	 348292041	 137292.
19:52:37   76 77	 1492372357	 510595037	 162303.
19:52:37   77 78	 1492372357	 676456791	 165862.
19:52:37   78 79	 1492372357	 838342843	 161886.
19:52:38   79 80	 1492372358	 4071765	 165729.
19:52:38   80 81	 1492372358	 165845172	 161773.
19:52:38   81 82	 1492372358	 331808387	 165963.
19:52:38   82 83	 1492372358	 464968858	 133161.
19:52:38   83 84	 1492372358	 630896443	 165927.
19:52:38   84 85	 1492372358	 792807213	 161911.
19:52:38   85 86	 1492372358	 958676216	 165869.
19:52:39   86 87	 1492372359	 120605392	 161929.
19:52:39   87 88	 1492372359	 282491770	 161887.
19:52:39   88 89	 1492372359	 448289870	 165798.
19:52:39   89 90	 1492372359	 581529842	 133240.
19:52:39   90 91	 1492372359	 747489393	 165959.
19:52:39   91 92	 1492372359	 909264544	 161775.
19:52:40   92 93	 1492372360	 75407289	 166143.
19:52:40   93 94	 1492372360	 237485225	 162078.
19:52:40   94 95	 1492372360	 403485381	 166000.
19:52:40   95 96	 1492372360	 565447470	 161962.
19:52:40   96 97	 1492372360	 731508443	 166061.
19:52:40   97 98	 1492372360	 864741720	 133234.
19:52:41   98 99	 1492372361	 30746570	 166004.
19:52:41   99 100	 1492372361	 192529849	 161784.
19:52:41  100 101	 1492372361	 358583492	 166053.
19:52:41  101 102	 1492372361	 520342367	 161759.
19:52:41  102 103	 1492372361	 686328323	 165986.
19:52:41  103 104	 1492372361	 848294176	 161966.
19:52:41  104 105	 1492372361	 981434949	 133141.
19:52:42  105 106	 1492372362	 147459003	 166024.
19:52:42  106 107	 1492372362	 309466843	 162008.
19:52:42  107 108	 1492372362	 471305111	 161838.
19:52:42  108 109	 1492372362	 637181116	 165876.
19:52:42  109 110	 1492372362	 799078904	 161898.
19:52:42  110 111	 1492372362	 965149298	 166070.
19:52:43  111 112	 1492372363	 98316622	 133167.
19:52:43  112 113	 1492372363	 264141006	 165825.
19:52:43  113 114	 1492372363	 426112265	 161971.
19:52:43  114 115	 1492372363	 592049587	 165937.
19:52:43  115 116	 1492372363	 753612272	 161563.
19:52:43  116 117	 1492372363	 919404735	 165793.
19:52:44  117 118	 1492372364	 52459949	 133055.
19:52:44  118 119	 1492372364	 214438952	 161979.
19:52:44  119 120	 1492372364	 380391761	 165953.
19:52:44  120 121	 1492372364	 542383794	 161992.
19:52:44  121 122	 1492372364	 704471272	 162087.
19:52:44  122 123	 1492372364	 870499591	 166028.
19:52:45  123 124	 1492372365	 32351700	 161852.
19:52:45  124 125	 1492372365	 198222119	 165871.
19:52:45  125 126	 1492372365	 331418441	 133196.
19:52:45  126 127	 1492372365	 497408251	 165990.
19:52:45  127 128	 1492372365	 659173469	 161765.
19:52:45  128 129	 1492372365	 820959364	 161786.
19:52:45  129 130	 1492372365	 986912573	 165953.
19:52:46  130 131	 1492372366	 148591581	 161679.
19:52:46  131 132	 1492372366	 281763752	 133173.
19:52:46  132 133	 1492372366	 447690209	 165926.
19:52:46  133 134	 1492372366	 613521816	 165832.
19:52:46  134 135	 1492372366	 775423850	 161902.
19:52:46  135 136	 1492372366	 941361445	 165937.
19:52:47  136 137	 1492372367	 103294465	 161933.
19:52:47  137 138	 1492372367	 269179003	 165885.
19:52:47  138 139	 1492372367	 402562995	 133384.
19:52:47  139 140	 1492372367	 564384882	 161822.
19:52:47  140 141	 1492372367	 731167778	 166783.
19:52:47  141 142	 1492372367	 889076793	 157909.
19:52:48  142 143	 1492372368	 54950835	 165874.
19:52:48  143 144	 1492372368	 216807320	 161856.
19:52:48  144 145	 1492372368	 382741628	 165934.
19:52:48  145 146	 1492372368	 544689994	 161949.
19:52:48  146 147	 1492372368	 681830987	 137141.
19:52:48  147 148	 1492372368	 843850850	 162020.
19:52:49  148 149	 1492372369	 2295458	 158444.
19:52:49  149 150	 1492372369	 164689556	 162394.
19:52:49  150 151	 1492372369	 330552090	 165863.
19:52:49  151 152	 1492372369	 492558364	 162006.
19:52:49  152 153	 1492372369	 654510176	 161952.
19:52:49  153 154	 1492372369	 820505162	 165995.
19:52:49  154 155	 1492372369	 982429481	 161924.
19:52:50  155 156	 1492372370	 148637133	 166208.
19:52:50  156 157	 1492372370	 281831246	 133194.
19:52:50  157 158	 1492372370	 447592867	 165762.
19:52:50  158 159	 1492372370	 609542834	 161950.
19:52:50  159 160	 1492372370	 775557482	 166014.
19:52:50  160 161	 1492372370	 937440822	 161884.
19:52:51  161 162	 1492372371	 103203141	 165762.
19:52:51  162 163	 1492372371	 265072982	 161870.
19:52:51  163 164	 1492372371	 398288968	 133216.
19:52:51  164 165	 1492372371	 560541126	 162252.
19:52:51  165 166	 1492372371	 723027335	 162486.
19:52:51  166 167	 1492372371	 884956506	 161929.
19:52:52  167 168	 1492372372	 50842718	 165886.
19:52:52  168 169	 1492372372	 212800639	 161958.
19:52:52  169 170	 1492372372	 375188697	 162388.
19:52:52  170 171	 1492372372	 537295499	 162107.
19:52:52  171 172	 1492372372	 703340385	 166045.
19:52:52  172 173	 1492372372	 865313513	 161973.
19:52:53  173 174	 1492372373	 27561414	 162248.
19:52:53  174 175	 1492372373	 160891841	 133331.
19:52:53  175 176	 1492372373	 323044694	 162152.
19:52:53  176 177	 1492372373	 484909377	 161865.
19:52:53  177 178	 1492372373	 650865944	 165957.
19:52:53  178 179	 1492372373	 812685105	 161819.
19:52:53  179 180	 1492372373	 978560421	 165875.
19:52:54  180 181	 1492372374	 140350118	 161790.
19:52:54  181 182	 1492372374	 273448006	 133098.
19:52:54  182 183	 1492372374	 439309354	 165861.
19:52:54  183 184	 1492372374	 601139387	 161830.
19:52:54  184 185	 1492372374	 767051152	 165912.
19:52:54  185 186	 1492372374	 925557041	 158506.
19:52:55  186 187	 1492372375	 91381307	 165824.
19:52:55  187 188	 1492372375	 253406623	 162025.
19:52:55  188 189	 1492372375	 419435630	 166029.
19:52:55  189 190	 1492372375	 581603648	 162168.
19:52:55  190 191	 1492372375	 743722267	 162119.
19:52:55  191 192	 1492372375	 876955381	 133233.
19:52:56  192 193	 1492372376	 42855926	 165901.
19:52:56  193 194	 1492372376	 197421460	 154565.
19:52:56  194 195	 1492372376	 363387091	 165966.
19:52:56  195 196	 1492372376	 529419051	 166032.
19:52:56  196 197	 1492372376	 691306976	 161888.
19:52:56  197 198	 1492372376	 853353594	 162046.
19:52:57  198 199	 1492372377	 19196385	 165843.
19:52:57  199 200	 1492372377	 152185801	 132990.
19:52:57  200 201	 1492372377	 318084599	 165898.
19:52:57  201 202	 1492372377	 479848677	 161764.
19:52:57  202 203	 1492372377	 641724474	 161876.
19:52:57  203 204	 1492372377	 807797161	 166073.
19:52:57  204 205	 1492372377	 969810531	 162013.
19:52:58  205 206	 1492372378	 135937514	 166127.
19:52:58  206 207	 1492372378	 269134911	 133198.
19:52:58  207 208	 1492372378	 435077856	 165943.
19:52:58  208 209	 1492372378	 596956357	 161878.
19:52:58  209 210	 1492372378	 762800912	 165845.
19:52:58  210 211	 1492372378	 924435973	 161635.
19:52:59  211 212	 1492372379	 90396822	 165961.
19:52:59  212 213	 1492372379	 223553013	 133156.
19:52:59  213 214	 1492372379	 389360855	 165808.
19:52:59  214 215	 1492372379	 551307696	 161946.
19:52:59  215 216	 1492372379	 713786847	 162480.
19:52:59  216 217	 1492372379	 872002214	 158215.
19:53:00  217 218	 1492372380	 38152525	 166150.
19:53:00  218 219	 1492372380	 200051268	 161899.
19:53:00  219 220	 1492372380	 366043216	 165992.
19:53:00  220 221	 1492372380	 528041300	 161998.
19:53:00  221 222	 1492372380	 665248510	 137207.
19:53:00  222 223	 1492372380	 823891903	 158644.
19:53:00  223 224	 1492372380	 985863545	 161971.
19:53:01  224 225	 1492372381	 151814577	 165951.
19:53:01  225 226	 1492372381	 313837183	 162023.
19:53:01  226 227	 1492372381	 479971797	 166135.
19:53:01  227 228	 1492372381	 641978531	 162006.
19:53:01  228 229	 1492372381	 807966986	 165989.
19:53:01  229 230	 1492372381	 941081985	 133115.
19:53:02  230 231	 1492372382	 107006861	 165925.
19:53:02  231 232	 1492372382	 268711351	 161704.
19:53:02  232 233	 1492372382	 431034001	 162323.
19:53:02  233 234	 1492372382	 593260916	 162227.
19:53:02  234 235	 1492372382	 755287581	 162026.
19:53:02  235 236	 1492372382	 921226849	 165940.
19:53:03  236 237	 1492372383	 83082142	 161855.
19:53:03  237 238	 1492372383	 216249767	 133168.
19:53:03  238 239	 1492372383	 382081704	 165831.
19:53:03  239 240	 1492372383	 544125315	 162044.
19:53:03  240 241	 1492372383	 706075391	 161950.
19:53:03  241 242	 1492372383	 872153250	 166078.
19:53:04  242 243	 1492372384	 34154097	 162001.
19:53:04  243 244	 1492372384	 200034084	 165880.
19:53:04  244 245	 1492372384	 362003825	 161970.
19:53:04  245 246	 1492372384	 495587670	 133583.
19:53:04  246 247	 1492372384	 686966061	 191379.
19:53:04  247 248	 1492372384	 820523434	 133557.
19:53:04  248 249	 1492372384	 986609734	 166087.
19:53:05  249 250	 1492372385	 148475650	 161865.
19:53:05  250 251	 1492372385	 314367307	 165892.
19:53:05  251 252	 1492372385	 476295586	 161928.
19:53:05  252 253	 1492372385	 642657390	 166362.
19:53:05  253 254	 1492372385	 775732269	 133075.
19:53:05  254 255	 1492372385	 941849963	 166118.
19:53:06  255 256	 1492372386	 103870151	 162020.
19:53:06  256 257	 1492372386	 270082131	 166212.
19:53:06  257 258	 1492372386	 428570370	 158488.
19:53:06  258 259	 1492372386	 590760797	 162191.
19:53:06  259 260	 1492372386	 756694345	 165933.
19:53:06  260 261	 1492372386	 918873274	 162179.
19:53:07  261 262	 1492372387	 81370119	 162497.
19:53:07  262 263	 1492372387	 243433296	 162063.
19:53:07  263 264	 1492372387	 380894237	 137461.
19:53:07  264 265	 1492372387	 568151198	 187257.
19:53:07  265 266	 1492372387	 705654892	 137504.
19:53:07  266 267	 1492372387	 867676627	 162021.
19:53:08  267 268	 1492372388	 33687551	 166011.
19:53:08  268 269	 1492372388	 195735605	 162048.
19:53:08  269 270	 1492372388	 361802284	 166067.
19:53:08  270 271	 1492372388	 524057960	 162256.
19:53:08  271 272	 1492372388	 690233283	 166175.
19:53:08  272 273	 1492372388	 852643864	 162411.
19:53:08  273 274	 1492372388	 985930397	 133286.
19:53:09  274 275	 1492372389	 147976285	 162046.
19:53:09  275 276	 1492372389	 307214752	 159239.
19:53:09  276 277	 1492372389	 469322978	 162108.
19:53:09  277 278	 1492372389	 635233924	 165911.
19:53:09  278 279	 1492372389	 797844883	 162611.
19:53:09  279 280	 1492372389	 960098257	 162253.
19:53:10  280 281	 1492372390	 122267102	 162169.
19:53:10  281 282	 1492372390	 288522516	 166255.
19:53:10  282 283	 1492372390	 454634021	 166112.
19:53:10  283 284	 1492372390	 616571025	 161937.
19:53:10  284 285	 1492372390	 749770672	 133199.
19:53:10  285 286	 1492372390	 915978185	 166208.
19:53:11  286 287	 1492372391	 82058055	 166080.
19:53:11  287 288	 1492372391	 244169474	 162111.
19:53:11  288 289	 1492372391	 403065791	 158897.
19:53:11  289 290	 1492372391	 565230490	 162164.
19:53:11  290 291	 1492372391	 731181972	 165952.
19:53:11  291 292	 1492372391	 893353926	 162172.
19:53:12  292 293	 1492372392	 59487870	 166134.
19:53:12  293 294	 1492372392	 192775907	 133288.
19:53:12  294 295	 1492372392	 358948861	 166173.
19:53:12  295 296	 1492372392	 520946752	 161998.
19:53:12  296 297	 1492372392	 687152030	 166205.
19:53:12  297 298	 1492372392	 849384337	 162232.
19:53:13  298 299	 1492372393	 15500902	 166117.
19:53:13  299 300	 1492372393	 177585824	 162085.
19:53:13  300 301	 1492372393	 343697235	 166111.
19:53:13  301 302	 1492372393	 477205864	 133509.
19:53:13  302 303	 1492372393	 643273739	 166068.
19:53:13  303 304	 1492372393	 805278773	 162005.
19:53:13  304 305	 1492372393	 971246544	 165967.
19:53:14  305 306	 1492372394	 133253545	 162007.
19:53:14  306 307	 1492372394	 295927206	 162674.
19:53:14  307 308	 1492372394	 457869849	 161943.
19:53:14  308 309	 1492372394	 623931496	 166061.
19:53:14  309 310	 1492372394	 757226604	 133295.
19:53:14  310 311	 1492372394	 919637879	 162412.
19:53:15  311 312	 1492372395	 85731999	 166094.
19:53:15  312 313	 1492372395	 247658939	 161927.
19:53:15  313 314	 1492372395	 413665711	 166006.
19:53:15  314 315	 1492372395	 575901532	 162236.
19:53:15  315 316	 1492372395	 737896220	 161995.
19:53:15  316 317	 1492372395	 903787325	 165891.
19:53:16  317 318	 1492372396	 65857031	 162070.
19:53:16  318 319	 1492372396	 203198506	 137341.
19:53:16  319 320	 1492372396	 365323710	 162125.
19:53:16  320 321	 1492372396	 531338863	 166016.
19:53:16  321 322	 1492372396	 693281906	 161943.
19:53:16  322 323	 1492372396	 859403081	 166121.
19:53:17  323 324	 1492372397	 21314065	 161911.
19:53:17  324 325	 1492372397	 187681913	 166368.
19:53:17  325 326	 1492372397	 345722407	 158040.
19:53:17  326 327	 1492372397	 483078009	 137356.
19:53:17  327 328	 1492372397	 645036306	 161958.
19:53:17  328 329	 1492372397	 811003986	 165968.
19:53:17  329 330	 1492372397	 972912972	 161909.
19:53:18  330 331	 1492372398	 134950920	 162038.
19:53:18  331 332	 1492372398	 301061493	 166110.
19:53:18  332 333	 1492372398	 462951514	 161890.
19:53:18  333 334	 1492372398	 600418525	 137467.
19:53:18  334 335	 1492372398	 762525428	 162107.
19:53:18  335 336	 1492372398	 924487040	 161962.
19:53:19  336 337	 1492372399	 90723471	 166236.
19:53:19  337 338	 1492372399	 252755030	 162032.
19:53:19  338 339	 1492372399	 418856411	 166101.
19:53:19  339 340	 1492372399	 580950389	 162094.
19:53:19  340 341	 1492372399	 743571800	 162622.
19:53:19  341 342	 1492372399	 905626981	 162055.
19:53:20  342 343	 1492372400	 43116416	 137489.
19:53:20  343 344	 1492372400	 205132209	 162016.
19:53:20  344 345	 1492372400	 367664879	 162533.
19:53:20  345 346	 1492372400	 529704546	 162039.
19:53:20  346 347	 1492372400	 695641142	 165937.
19:53:20  347 348	 1492372400	 857616428	 161975.
19:53:21  348 349	 1492372401	 23619895	 166004.
19:53:21  349 350	 1492372401	 185472938	 161853.
19:53:21  350 351	 1492372401	 322763569	 137290.
19:53:21  351 352	 1492372401	 484647915	 161885.
19:53:21  352 353	 1492372401	 651533411	 166885.
19:53:21  353 354	 1492372401	 809446897	 157914.
19:53:21  354 355	 1492372401	 971728894	 162282.
19:53:22  355 356	 1492372402	 137740312	 166011.
19:53:22  356 357	 1492372402	 299703458	 161963.
19:53:22  357 358	 1492372402	 461658762	 161956.
19:53:22  358 359	 1492372402	 627736128	 166077.
19:53:22  359 360	 1492372402	 760822405	 133086.
19:53:22  360 361	 1492372402	 926880291	 166058.
19:53:23  361 362	 1492372403	 88742621	 161862.
19:53:23  362 363	 1492372403	 254742271	 166000.
19:53:23  363 364	 1492372403	 416741897	 162000.
19:53:23  364 365	 1492372403	 582728810	 165987.
19:53:23  365 366	 1492372403	 744524271	 161795.
19:53:23  366 367	 1492372403	 881833848	 137310.
19:53:24  367 368	 1492372404	 43933505	 162099.
19:53:24  368 369	 1492372404	 205919447	 161986.
19:53:24  369 370	 1492372404	 371966118	 166047.
19:53:24  370 371	 1492372404	 534052777	 162087.
19:53:24  371 372	 1492372404	 700045800	 165993.
19:53:24  372 373	 1492372404	 861989854	 161944.
19:53:24  373 374	 1492372404	 999252691	 137262.
19:53:25  374 375	 1492372405	 161245484	 161993.
19:53:25  375 376	 1492372405	 327261624	 166016.
19:53:25  376 377	 1492372405	 489161095	 161900.
19:53:25  377 378	 1492372405	 655058386	 165897.
19:53:25  378 379	 1492372405	 821451167	 166393.
19:53:25  379 380	 1492372405	 983351010	 161900.
19:53:26  380 381	 1492372406	 120463690	 137113.
19:53:26  381 382	 1492372406	 282466001	 162002.
19:53:26  382 383	 1492372406	 444461356	 161995.
19:53:26  383 384	 1492372406	 610572222	 166111.
19:53:26  384 385	 1492372406	 772616802	 162045.
19:53:26  385 386	 1492372406	 938571133	 165954.
19:53:27  386 387	 1492372407	 100796738	 162226.
19:53:27  387 388	 1492372407	 234108375	 133311.
19:53:27  388 389	 1492372407	 400189258	 166081.
19:53:27  389 390	 1492372407	 562107106	 161918.
19:53:27  390 391	 1492372407	 728190480	 166083.
19:53:27  391 392	 1492372407	 890261194	 162071.
19:53:28  392 393	 1492372408	 56358018	 166097.
19:53:28  393 394	 1492372408	 218420022	 162062.
19:53:28  394 395	 1492372408	 384611246	 166191.
19:53:28  395 396	 1492372408	 543007533	 158396.
19:53:28  396 397	 1492372408	 680390974	 137384.
19:53:28  397 398	 1492372408	 842396184	 162005.
19:53:29  398 399	 1492372409	 8309603	 165913.
19:53:29  399 400	 1492372409	 170355177	 162046.
19:53:29  400 401	 1492372409	 336497528	 166142.
19:53:29  401 402	 1492372409	 498483263	 161986.
19:53:29  402 403	 1492372409	 664435211	 165952.
19:53:29  403 404	 1492372409	 819272680	 154837.
19:53:29  404 405	 1492372409	 985272124	 166000.
19:53:30  405 406	 1492372410	 118749999	 133478.
19:53:30  406 407	 1492372410	 284722905	 165973.
19:53:30  407 408	 1492372410	 446776680	 162053.
19:53:30  408 409	 1492372410	 612987635	 166211.
19:53:30  409 410	 1492372410	 774986697	 161999.
19:53:30  410 411	 1492372410	 937181800	 162196.
19:53:31  411 412	 1492372411	 103144925	 165963.
19:53:31  412 413	 1492372411	 265063439	 161918.
19:53:31  413 414	 1492372411	 402434400	 137371.
19:53:31  414 415	 1492372411	 564681722	 162247.
19:53:31  415 416	 1492372411	 726716418	 162035.
19:53:31  416 417	 1492372411	 889035147	 162319.
19:53:32  417 418	 1492372412	 51031498	 161996.
19:53:32  418 419	 1492372412	 216956385	 165925.
19:53:32  419 420	 1492372412	 378889731	 161934.
19:53:32  420 421	 1492372412	 545009885	 166120.
19:53:32  421 422	 1492372412	 678120212	 133110.
19:53:32  422 423	 1492372412	 844063296	 165943.
19:53:33  423 424	 1492372413	 28052242	 183989.
19:53:33  424 425	 1492372413	 161462297	 133410.
19:53:33  425 426	 1492372413	 327534779	 166073.
19:53:33  426 427	 1492372413	 489400707	 161865.
19:53:33  427 428	 1492372413	 651862450	 162462.
19:53:33  428 429	 1492372413	 813795667	 161933.
19:53:33  429 430	 1492372413	 975775369	 161980.
19:53:34  430 431	 1492372414	 141939859	 166165.
19:53:34  431 432	 1492372414	 300257404	 158317.
19:53:34  432 433	 1492372414	 437681373	 137424.
19:53:34  433 434	 1492372414	 599582701	 161901.
19:53:34  434 435	 1492372414	 765630211	 166048.
19:53:34  435 436	 1492372414	 927533100	 161903.
19:53:35  436 437	 1492372415	 93493793	 165961.
19:53:35  437 438	 1492372415	 255470895	 161977.
19:53:35  438 439	 1492372415	 421419572	 165948.
19:53:35  439 440	 1492372415	 554644103	 133225.
19:53:35  440 441	 1492372415	 720707299	 166063.
19:53:35  441 442	 1492372415	 882647764	 161941.
19:53:36  442 443	 1492372416	 48656996	 166009.
19:53:36  443 444	 1492372416	 214780308	 166123.
19:53:36  444 445	 1492372416	 376707465	 161927.
19:53:36  445 446	 1492372416	 542727396	 166020.
19:53:36  446 447	 1492372416	 676116733	 133389.
19:53:36  447 448	 1492372416	 842208989	 166093.
19:53:36  448 449	 1492372417	 4232531	 162023.
19:53:37  449 450	 1492372417	 170345331	 166113.
19:53:37  450 451	 1492372417	 332472845	 162128.
19:53:37  451 452	 1492372417	 498861676	 166388.
19:53:37  452 453	 1492372417	 661425675	 162564.
19:53:37  453 454	 1492372417	 823528503	 162103.
19:53:37  454 455	 1492372417	 989629856	 166102.
19:53:38  455 456	 1492372418	 122898116	 133268.
19:53:38  456 457	 1492372418	 289014663	 166116.
19:53:38  457 458	 1492372418	 450961985	 161948.
19:53:38  458 459	 1492372418	 617090320	 166128.
19:53:38  459 460	 1492372418	 782912661	 165822.
19:53:38  460 461	 1492372418	 944783351	 161871.
19:53:39  461 462	 1492372419	 110605704	 165822.
19:53:39  462 463	 1492372419	 243922778	 133318.
19:53:39  463 464	 1492372419	 409893029	 165970.
19:53:39  464 465	 1492372419	 571871378	 161978.
19:53:39  465 466	 1492372419	 737798111	 165927.
19:53:39  466 467	 1492372419	 899767438	 161969.
19:53:40  467 468	 1492372420	 65595504	 165828.
19:53:40  468 469	 1492372420	 227436741	 161842.
19:53:40  469 470	 1492372420	 364722309	 137285.
19:53:40  470 471	 1492372420	 526699438	 161977.
19:53:40  471 472	 1492372420	 692749351	 166050.
19:53:40  472 473	 1492372420	 854539573	 161790.
19:53:41  473 474	 1492372421	 16778713	 162239.
19:53:41  474 475	 1492372421	 178465686	 161687.
19:53:41  475 476	 1492372421	 344333003	 165868.
19:53:41  476 477	 1492372421	 506200108	 161867.
19:53:41  477 478	 1492372421	 639365219	 133165.
19:53:41  478 479	 1492372421	 805311626	 165946.
19:53:41  479 480	 1492372421	 967152671	 161841.
19:53:42  480 481	 1492372422	 133036573	 165884.
19:53:42  481 482	 1492372422	 332864361	 199828.
19:53:42  482 483	 1492372422	 490809953	 157946.
19:53:42  483 484	 1492372422	 654564748	 163755.
19:53:42  484 485	 1492372422	 847126980	 192562.
19:53:42  485 486	 1492372422	 984415825	 137289.
19:53:43  486 487	 1492372423	 146342636	 161926.
19:53:43  487 488	 1492372423	 308615110	 162273.
19:53:43  488 489	 1492372423	 476015872	 167401.
19:53:43  489 490	 1492372423	 638061859	 162046.
19:53:43  490 491	 1492372423	 800503060	 162441.
19:53:43  491 492	 1492372423	 966494725	 165992.
19:53:44  492 493	 1492372424	 128587744	 162093.
19:53:44  493 494	 1492372424	 296161717	 167573.
19:53:44  494 495	 1492372424	 462127254	 165966.
19:53:44  495 496	 1492372424	 624118557	 161991.
19:53:44  496 497	 1492372424	 790594469	 166476.
19:53:44  497 498	 1492372424	 952610530	 162016.
19:53:45  498 499	 1492372425	 114505180	 161895.
19:53:45  499 500	 1492372425	 280788023	 166283.
19:53:45  500 501	 1492372425	 414109910	 133322.
19:53:45  501 502	 1492372425	 580228749	 166119.
19:53:45  502 503	 1492372425	 742297128	 162068.
19:53:45  503 504	 1492372425	 908564356	 166267.
19:53:46  504 505	 1492372426	 70863329	 162299.
19:53:46  505 506	 1492372426	 233045822	 162183.
19:53:46  506 507	 1492372426	 399096393	 166050.
19:53:46  507 508	 1492372426	 565298320	 166202.
19:53:46  508 509	 1492372426	 727456851	 162159.
19:53:46  509 510	 1492372426	 860819315	 133362.
19:53:47  510 511	 1492372427	 27164163	 166345.
19:53:47  511 512	 1492372427	 189189231	 162025.
19:53:47  512 513	 1492372427	 355347502	 166158.
19:53:47  513 514	 1492372427	 517270887	 161924.
19:53:47  514 515	 1492372427	 683177496	 165906.
19:53:47  515 516	 1492372427	 845154145	 161977.
19:53:48  516 517	 1492372428	 11215978	 166062.
19:53:48  517 518	 1492372428	 144456190	 133240.
19:53:48  518 519	 1492372428	 310451856	 165996.
19:53:48  519 520	 1492372428	 472420099	 161968.
19:53:48  520 521	 1492372428	 634497888	 162078.
19:53:48  521 522	 1492372428	 800601993	 166104.
19:53:48  522 523	 1492372428	 962641285	 162039.
19:53:49  523 524	 1492372429	 128775481	 166134.
19:53:49  524 525	 1492372429	 266073707	 137298.
19:53:49  525 526	 1492372429	 428076036	 162003.
19:53:49  526 527	 1492372429	 594041209	 165965.
19:53:49  527 528	 1492372429	 756043551	 162002.
19:53:49  528 529	 1492372429	 922282066	 166239.
19:53:50  529 530	 1492372430	 84368826	 162087.
19:53:50  530 531	 1492372430	 246219359	 161850.
19:53:50  531 532	 1492372430	 412460163	 166241.
19:53:50  532 533	 1492372430	 545819338	 133359.
19:53:50  533 534	 1492372430	 712016724	 166198.
19:53:50  534 535	 1492372430	 873992979	 161976.
19:53:51  535 536	 1492372431	 40083011	 166090.
19:53:51  536 537	 1492372431	 202165309	 162082.
19:53:51  537 538	 1492372431	 368428007	 166263.
19:53:51  538 539	 1492372431	 530442806	 162015.
19:53:51  539 540	 1492372431	 696403516	 165960.
19:53:51  540 541	 1492372431	 829527470	 133124.
19:53:51  541 542	 1492372431	 995502601	 165975.
19:53:52  542 543	 1492372432	 157468039	 161966.
19:53:52  543 544	 1492372432	 323304148	 165836.
19:53:52  544 545	 1492372432	 485384791	 162081.
19:53:52  545 546	 1492372432	 647898407	 162513.
19:53:52  546 547	 1492372432	 809812400	 161914.
19:53:52  547 548	 1492372432	 947091481	 137279.
19:53:53  548 549	 1492372433	 113101558	 166010.
19:53:53  549 550	 1492372433	 274931586	 161830.
19:53:53  550 551	 1492372433	 436923806	 161993.
19:53:53  551 552	 1492372433	 603009833	 166086.
19:53:53  552 553	 1492372433	 769125165	 166115.
19:53:53  553 554	 1492372433	 931287040	 162162.
19:53:54  554 555	 1492372434	 93413886	 162127.
19:53:54  555 556	 1492372434	 230657913	 137244.
19:53:54  556 557	 1492372434	 396848471	 166190.
19:53:54  557 558	 1492372434	 558674063	 161826.
19:53:54  558 559	 1492372434	 724632830	 165959.
19:53:54  559 560	 1492372434	 886546132	 161913.
19:53:55  560 561	 1492372435	 52494008	 165948.
19:53:55  561 562	 1492372435	 185721984	 133228.
19:53:55  562 563	 1492372435	 351752192	 166030.
19:53:55  563 564	 1492372435	 513876034	 162124.
19:53:55  564 565	 1492372435	 681036256	 167160.
19:53:55  565 566	 1492372435	 835083437	 154047.
19:53:55  566 567	 1492372436	 1207166	 166124.
19:53:56  567 568	 1492372436	 163180630	 161973.
19:53:56  568 569	 1492372436	 325347551	 162167.
19:53:56  569 570	 1492372436	 491288439	 165941.
19:53:56  570 571	 1492372436	 657338478	 166050.
19:53:56  571 572	 1492372436	 790693922	 133356.
19:53:56  572 573	 1492372436	 956730919	 166037.
19:53:57  573 574	 1492372437	 118621528	 161890.
19:53:57  574 575	 1492372437	 284692665	 166071.
19:53:57  575 576	 1492372437	 446610746	 161919.
19:53:57  576 577	 1492372437	 612863749	 166253.
19:53:57  577 578	 1492372437	 774774827	 161911.
19:53:57  578 579	 1492372437	 907929142	 133154.
19:53:58  579 580	 1492372438	 73959911	 166031.
19:53:58  580 581	 1492372438	 235885149	 161925.
19:53:58  581 582	 1492372438	 402006385	 166121.
19:53:58  582 583	 1492372438	 563953233	 161947.
19:53:58  583 584	 1492372438	 730058054	 166105.
19:53:58  584 585	 1492372438	 892271808	 162214.
19:53:59  585 586	 1492372439	 54234673	 161962.
19:53:59  586 587	 1492372439	 191629344	 137395.
19:53:59  587 588	 1492372439	 357796345	 166167.
19:53:59  588 589	 1492372439	 519733442	 161937.
19:53:59  589 590	 1492372439	 685856954	 166124.
19:53:59  590 591	 1492372439	 847693347	 161836.
19:54:00  591 592	 1492372440	 13758302	 166065.
19:54:00  592 593	 1492372440	 175752468	 161994.
19:54:00  593 594	 1492372440	 334596801	 158845.
19:54:00  594 595	 1492372440	 467897128	 133300.
19:54:00  595 596	 1492372440	 634260850	 166364.
19:54:00  596 597	 1492372440	 796194377	 161933.
19:54:00  597 598	 1492372440	 962286596	 166092.
19:54:01  598 599	 1492372441	 128481966	 166196.
19:54:01  599 600	 1492372441	 290575263	 162093.
19:54:01  600 601	 1492372441	 452676773	 162102.
19:54:01  601 602	 1492372441	 618796016	 166119.
19:54:01  602 603	 1492372441	 752133103	 133337.
19:54:01  603 604	 1492372441	 918322832	 166190.
19:54:02  604 605	 1492372442	 80406914	 162084.
19:54:02  605 606	 1492372442	 246472634	 166065.
19:54:02  606 607	 1492372442	 408412416	 161940.
19:54:02  607 608	 1492372442	 570375886	 161964.
19:54:02  608 609	 1492372442	 736423201	 166047.
19:54:02  609 610	 1492372442	 869734077	 133311.
19:54:03  610 611	 1492372443	 35703319	 165969.
19:54:03  611 612	 1492372443	 197619376	 161916.
19:54:03  612 613	 1492372443	 363944368	 166325.
19:54:03  613 614	 1492372443	 525913743	 161970.
19:54:03  614 615	 1492372443	 687820955	 161907.
19:54:03  615 616	 1492372443	 853944545	 166123.
19:54:03  616 617	 1492372443	 987105663	 133161.
19:54:04  617 618	 1492372444	 149121997	 162017.
19:54:04  618 619	 1492372444	 315190579	 166068.
19:54:04  619 620	 1492372444	 477056136	 161866.
19:54:04  620 621	 1492372444	 643260584	 166204.
19:54:04  621 622	 1492372444	 805408614	 162148.
19:54:04  622 623	 1492372444	 971402661	 165994.
19:54:05  623 624	 1492372445	 104732552	 133330.
19:54:05  624 625	 1492372445	 271211957	 166480.
19:54:05  625 626	 1492372445	 425819167	 154607.
19:54:05  626 627	 1492372445	 591910809	 166092.
19:54:05  627 628	 1492372445	 754210911	 162300.
19:54:05  628 629	 1492372445	 920340149	 166129.
19:54:06  629 630	 1492372446	 86433618	 166093.
19:54:06  630 631	 1492372446	 248401837	 161969.
19:54:06  631 632	 1492372446	 414525305	 166123.
19:54:06  632 633	 1492372446	 548095909	 133571.
19:54:06  633 634	 1492372446	 710118142	 162022.
19:54:06  634 635	 1492372446	 876190577	 166072.
19:54:07  635 636	 1492372447	 35675753	 159485.
19:54:07  636 637	 1492372447	 193701114	 158026.
19:54:07  637 638	 1492372447	 360153800	 166453.
19:54:07  638 639	 1492372447	 522471214	 162317.
19:54:07  639 640	 1492372447	 684497951	 162027.
19:54:07  640 641	 1492372447	 850697322	 166199.
19:54:08  641 642	 1492372448	 12863039	 162166.
19:54:08  642 643	 1492372448	 178992954	 166130.
19:54:08  643 644	 1492372448	 312233012	 133240.
19:54:08  644 645	 1492372448	 478430339	 166197.
19:54:08  645 646	 1492372448	 640728090	 162298.
19:54:08  646 647	 1492372448	 807182305	 166454.
19:54:08  647 648	 1492372448	 969330983	 162149.
19:54:09  648 649	 1492372449	 135457224	 166126.
19:54:09  649 650	 1492372449	 297489461	 162033.
19:54:09  650 651	 1492372449	 463794393	 166304.
19:54:09  651 652	 1492372449	 597251237	 133457.
19:54:09  652 653	 1492372449	 763195308	 165944.
19:54:09  653 654	 1492372449	 925431976	 162237.
19:54:10  654 655	 1492372450	 91526544	 166094.
19:54:10  655 656	 1492372450	 253481648	 161956.
19:54:10  656 657	 1492372450	 419536796	 166055.
19:54:10  657 658	 1492372450	 581553506	 162016.
19:54:10  658 659	 1492372450	 719067396	 137514.
19:54:10  659 660	 1492372450	 881202557	 162135.
19:54:11  660 661	 1492372451	 47269573	 166067.
19:54:11  661 662	 1492372451	 209336557	 162067.
19:54:11  662 663	 1492372451	 375350339	 166014.
19:54:11  663 664	 1492372451	 537458451	 162108.
19:54:11  664 665	 1492372451	 703589436	 166131.
19:54:11  665 666	 1492372451	 865841273	 162252.
19:54:12  666 667	 1492372452	 27909813	 162069.
19:54:12  667 668	 1492372452	 161137716	 133228.
19:54:12  668 669	 1492372452	 327068730	 165931.
19:54:12  669 670	 1492372452	 489061931	 161993.
19:54:12  670 671	 1492372452	 656028044	 166966.
19:54:12  671 672	 1492372452	 813769447	 157741.
19:54:12  672 673	 1492372452	 975750436	 161981.
19:54:13  673 674	 1492372453	 141887569	 166137.
19:54:13  674 675	 1492372453	 303697012	 161810.
19:54:13  675 676	 1492372453	 440938702	 137241.
19:54:13  676 677	 1492372453	 628419886	 187482.
19:54:13  677 678	 1492372453	 761493316	 133073.
19:54:13  678 679	 1492372453	 927464515	 165971.
19:54:14  679 680	 1492372454	 89583860	 162120.
19:54:14  680 681	 1492372454	 255740331	 166156.
19:54:14  681 682	 1492372454	 417782510	 162042.
19:54:14  682 683	 1492372454	 583778236	 165996.
19:54:14  683 684	 1492372454	 716988860	 133211.
19:54:14  684 685	 1492372454	 878883779	 161895.
19:54:15  685 686	 1492372455	 45095796	 166212.
19:54:15  686 687	 1492372455	 207075656	 161979.
19:54:15  687 688	 1492372455	 373035437	 165960.
19:54:15  688 689	 1492372455	 535062563	 162027.
19:54:15  689 690	 1492372455	 697112972	 162051.
19:54:15  690 691	 1492372455	 862961346	 165848.
19:54:15  691 692	 1492372455	 996380229	 133419.
19:54:16  692 693	 1492372456	 162465074	 166085.
19:54:16  693 694	 1492372456	 324527906	 162063.
19:54:16  694 695	 1492372456	 490574355	 166046.
19:54:16  695 696	 1492372456	 652560497	 161986.
19:54:16  696 697	 1492372456	 818635282	 166075.
19:54:16  697 698	 1492372456	 952107166	 133472.
19:54:17  698 699	 1492372457	 118223976	 166117.
19:54:17  699 700	 1492372457	 284302059	 166078.
19:54:17  700 701	 1492372457	 446275302	 161973.
19:54:17  701 702	 1492372457	 612419940	 166145.
19:54:17  702 703	 1492372457	 774298156	 161878.
19:54:17  703 704	 1492372457	 940815597	 166517.
19:54:18  704 705	 1492372458	 98860809	 158046.
19:54:18  705 706	 1492372458	 264997253	 166136.
19:54:18  706 707	 1492372458	 398293814	 133297.
19:54:18  707 708	 1492372458	 564390639	 166096.
19:54:18  708 709	 1492372458	 726300555	 161910.
19:54:18  709 710	 1492372458	 892244982	 165945.
19:54:19  710 711	 1492372459	 54206723	 161961.
19:54:19  711 712	 1492372459	 216965782	 162760.
19:54:19  712 713	 1492372459	 374895505	 157929.
19:54:19  713 714	 1492372459	 540948300	 166053.
19:54:19  714 715	 1492372459	 703093582	 162145.
19:54:19  715 716	 1492372459	 840393240	 137300.
19:54:19  716 717	 1492372460	 2447746	 162055.
19:54:20  717 718	 1492372460	 168670929	 166223.
19:54:20  718 719	 1492372460	 330631212	 161960.
19:54:20  719 720	 1492372460	 492640841	 162010.
19:54:20  720 721	 1492372460	 658664406	 166023.
19:54:20  721 722	 1492372460	 817392354	 158728.
19:54:20  722 723	 1492372460	 979218224	 161826.
19:54:21  723 724	 1492372461	 116717722	 137499.
19:54:21  724 725	 1492372461	 275104674	 158387.
19:54:21  725 726	 1492372461	 441208635	 166104.
19:54:21  726 727	 1492372461	 603180996	 161973.
19:54:21  727 728	 1492372461	 765280093	 162099.
19:54:21  728 729	 1492372461	 931338897	 166059.
19:54:22  729 730	 1492372462	 93640165	 162301.
19:54:22  730 731	 1492372462	 255933324	 162293.
19:54:22  731 732	 1492372462	 418017038	 162084.
19:54:22  732 733	 1492372462	 580347746	 162331.
19:54:22  733 734	 1492372462	 717810202	 137462.
19:54:22  734 735	 1492372462	 879880732	 162071.
19:54:23  735 736	 1492372463	 46072677	 166191.
19:54:23  736 737	 1492372463	 208107690	 162035.
19:54:23  737 738	 1492372463	 374209554	 166102.
19:54:23  738 739	 1492372463	 536197926	 161989.
19:54:23  739 740	 1492372463	 698211075	 162013.
19:54:23  740 741	 1492372463	 835470622	 137259.
19:54:23  741 742	 1492372463	 997984864	 162515.
19:54:24  742 743	 1492372464	 160144764	 162159.
19:54:24  743 744	 1492372464	 326396219	 166252.
19:54:24  744 745	 1492372464	 488536911	 162141.
19:54:24  745 746	 1492372464	 650581188	 162044.
19:54:24  746 747	 1492372464	 816611459	 166030.
19:54:24  747 748	 1492372464	 978526211	 161915.
19:54:25  748 749	 1492372465	 115821677	 137295.
19:54:25  749 750	 1492372465	 278187223	 162366.
19:54:25  750 751	 1492372465	 440110515	 161923.
19:54:25  751 752	 1492372465	 606340982	 166231.
19:54:25  752 753	 1492372465	 768342380	 162001.
19:54:25  753 754	 1492372465	 934621708	 166279.
19:54:26  754 755	 1492372466	 96642419	 162021.
19:54:26  755 756	 1492372466	 262539548	 165898.
19:54:26  756 757	 1492372466	 395767766	 133228.
19:54:26  757 758	 1492372466	 561908927	 166141.
19:54:26  758 759	 1492372466	 723925400	 162016.
19:54:26  759 760	 1492372466	 890031085	 166106.
19:54:27  760 761	 1492372467	 52248344	 162217.
19:54:27  761 762	 1492372467	 218266264	 166018.
19:54:27  762 763	 1492372467	 380312574	 162046.
19:54:27  763 764	 1492372467	 546246579	 165934.
19:54:27  764 765	 1492372467	 679505456	 133259.
19:54:27  765 766	 1492372467	 841590086	 162085.
19:54:28  766 767	 1492372468	 7681934	 166092.
19:54:28  767 768	 1492372468	 169508090	 161826.
19:54:28  768 769	 1492372468	 335449151	 165941.
19:54:28  769 770	 1492372468	 497581610	 162132.
19:54:28  770 771	 1492372468	 659598148	 162017.
19:54:28  771 772	 1492372468	 796912066	 137314.
19:54:28  772 773	 1492372468	 958868265	 161956.
19:54:29  773 774	 1492372469	 125012391	 166144.
19:54:29  774 775	 1492372469	 287052012	 162040.
19:54:29  775 776	 1492372469	 452923432	 165871.
19:54:29  776 777	 1492372469	 615034281	 162111.
19:54:29  777 778	 1492372469	 781228447	 166194.
19:54:29  778 779	 1492372469	 943170200	 161942.
19:54:30  779 780	 1492372470	 105504746	 162335.
19:54:30  780 781	 1492372470	 238716837	 133212.
19:54:30  781 782	 1492372470	 404683404	 165966.
19:54:30  782 783	 1492372470	 566598183	 161915.
19:54:30  783 784	 1492372470	 732639167	 166041.
19:54:30  784 785	 1492372470	 894572583	 161933.
19:54:31  785 786	 1492372471	 56599031	 162027.
19:54:31  786 787	 1492372471	 222722337	 166123.
19:54:31  787 788	 1492372471	 384889425	 162167.
19:54:31  788 789	 1492372471	 522253840	 137365.
19:54:31  789 790	 1492372471	 684284654	 162030.
19:54:31  790 791	 1492372471	 846144833	 161861.
19:54:32  791 792	 1492372472	 12037226	 165892.
19:54:32  792 793	 1492372472	 174026360	 161989.
19:54:32  793 794	 1492372472	 339967196	 165941.
19:54:32  794 795	 1492372472	 501922792	 161956.
19:54:32  795 796	 1492372472	 639109358	 137186.
19:54:32  796 797	 1492372472	 801187944	 162079.
19:54:32  797 798	 1492372472	 962970270	 161782.
19:54:33  798 799	 1492372473	 128836393	 165866.
19:54:33  799 800	 1492372473	 290708922	 161873.
19:54:33  800 801	 1492372473	 452639168	 161930.
19:54:33  801 802	 1492372473	 618557674	 165918.
19:54:33  802 803	 1492372473	 751764123	 133207.
19:54:33  803 804	 1492372473	 917861137	 166097.
19:54:34  804 805	 1492372474	 80221229	 162360.
19:54:34  805 806	 1492372474	 242163179	 161942.
19:54:34  806 807	 1492372474	 400400803	 158238.
19:54:34  807 808	 1492372474	 566483799	 166083.
19:54:34  808 809	 1492372474	 728330908	 161847.
19:54:34  809 810	 1492372474	 890093938	 161763.
19:54:35  810 811	 1492372475	 56117541	 166023.
19:54:35  811 812	 1492372475	 217994633	 161877.
19:54:35  812 813	 1492372475	 351208617	 133214.
19:54:35  813 814	 1492372475	 516971471	 165763.
19:54:35  814 815	 1492372475	 678862868	 161892.
19:54:35  815 816	 1492372475	 844933740	 166071.
19:54:36  816 817	 1492372476	 6790773	 161857.
19:54:36  817 818	 1492372476	 168666906	 161876.
19:54:36  818 819	 1492372476	 334538485	 165871.
19:54:36  819 820	 1492372476	 467732554	 133194.
19:54:36  820 821	 1492372476	 634008566	 166276.
19:54:36  821 822	 1492372476	 796152425	 162144.
19:54:36  822 823	 1492372476	 962237863	 166086.
19:54:37  823 824	 1492372477	 124200741	 161963.
19:54:37  824 825	 1492372477	 290352661	 166151.
19:54:37  825 826	 1492372477	 452484665	 162132.
19:54:37  826 827	 1492372477	 614359544	 161875.
19:54:37  827 828	 1492372477	 780373781	 166015.
19:54:37  828 829	 1492372477	 913552750	 133179.
19:54:38  829 830	 1492372478	 79759518	 166206.
19:54:38  830 831	 1492372478	 241677222	 161918.
19:54:38  831 832	 1492372478	 407828712	 166152.
19:54:38  832 833	 1492372478	 565575046	 157746.
19:54:38  833 834	 1492372478	 727982078	 162407.
19:54:38  834 835	 1492372478	 889801931	 161820.
19:54:39  835 836	 1492372479	 48414778	 158613.
19:54:39  836 837	 1492372479	 214391671	 165976.
19:54:39  837 838	 1492372479	 376275647	 161884.
19:54:39  838 839	 1492372479	 513471652	 137196.
19:54:39  839 840	 1492372479	 675755717	 162285.
19:54:39  840 841	 1492372479	 837651772	 161896.
19:54:39  841 842	 1492372480	 3417638	 165765.
19:54:40  842 843	 1492372480	 169458815	 166042.
19:54:40  843 844	 1492372480	 331289476	 161830.
19:54:40  844 845	 1492372480	 493359381	 162070.
19:54:40  845 846	 1492372480	 659117349	 165758.
19:54:40  846 847	 1492372480	 792399806	 133283.
19:54:40  847 848	 1492372480	 958451012	 166051.
19:54:41  848 849	 1492372481	 120339035	 161888.
19:54:41  849 850	 1492372481	 286334371	 165995.
19:54:41  850 851	 1492372481	 448227154	 161893.
19:54:41  851 852	 1492372481	 614344024	 166117.
19:54:41  852 853	 1492372481	 776108518	 161765.
19:54:41  853 854	 1492372481	 913400541	 137291.
19:54:42  854 855	 1492372482	 79345592	 165945.
19:54:42  855 856	 1492372482	 241051998	 161707.
19:54:42  856 857	 1492372482	 406761604	 165709.
19:54:42  857 858	 1492372482	 568553646	 161792.
19:54:42  858 859	 1492372482	 734415220	 165862.
19:54:42  859 860	 1492372482	 896230522	 161815.
19:54:43  860 861	 1492372483	 33920474	 137690.
19:54:43  861 862	 1492372483	 192011573	 158091.
19:54:43  862 863	 1492372483	 357932071	 165921.
19:54:43  863 864	 1492372483	 519771995	 161840.
19:54:43  864 865	 1492372483	 685647419	 165875.
19:54:43  865 866	 1492372483	 847482888	 161836.
19:54:44  866 867	 1492372484	 13491463	 166008.
19:54:44  867 868	 1492372484	 146573859	 133083.
19:54:44  868 869	 1492372484	 308433563	 161859.
19:54:44  869 870	 1492372484	 474419178	 165986.
19:54:44  870 871	 1492372484	 636547776	 162129.
19:54:44  871 872	 1492372484	 802506794	 165959.
19:54:44  872 873	 1492372484	 964381369	 161874.
19:54:45  873 874	 1492372485	 130301465	 165920.
19:54:45  874 875	 1492372485	 263373874	 133073.
19:54:45  875 876	 1492372485	 429296255	 165922.
19:54:45  876 877	 1492372485	 591233514	 161937.
19:54:45  877 878	 1492372485	 757340386	 166107.
19:54:45  878 879	 1492372485	 919333964	 161994.
19:54:46  879 880	 1492372486	 85552086	 166218.
19:54:46  880 881	 1492372486	 247426609	 161874.
19:54:46  881 882	 1492372486	 409123717	 161697.
19:54:46  882 883	 1492372486	 546193254	 137070.
19:54:46  883 884	 1492372486	 708033575	 161840.
19:54:46  884 885	 1492372486	 874061918	 166029.
19:54:47  885 886	 1492372487	 35895963	 161834.
19:54:47  886 887	 1492372487	 197677393	 161781.
19:54:47  887 888	 1492372487	 363575532	 165898.
19:54:47  888 889	 1492372487	 496773749	 133198.
19:54:47  889 890	 1492372487	 662809280	 166036.
19:54:47  890 891	 1492372487	 824648775	 161840.
19:54:47  891 892	 1492372487	 990661161	 166012.
19:54:48  892 893	 1492372488	 152619137	 161958.
19:54:48  893 894	 1492372488	 314441605	 161822.
19:54:48  894 895	 1492372488	 480394507	 165953.
19:54:48  895 896	 1492372488	 642239020	 161845.
19:54:48  896 897	 1492372488	 779578131	 137339.
19:54:48  897 898	 1492372488	 941652511	 162074.
19:54:49  898 899	 1492372489	 107691439	 166039.
19:54:49  899 900	 1492372489	 269700398	 162009.
19:54:49  900 901	 1492372489	 435427915	 165728.
19:54:49  901 902	 1492372489	 597314760	 161887.
19:54:49  902 903	 1492372489	 763356420	 166041.
19:54:49  903 904	 1492372489	 925209989	 161854.
19:54:50  904 905	 1492372490	 58296805	 133087.
19:54:50  905 906	 1492372490	 224224101	 165927.
19:54:50  906 907	 1492372490	 390153193	 165929.
19:54:50  907 908	 1492372490	 548634805	 158482.
19:54:50  908 909	 1492372490	 710524641	 161889.
19:54:50  909 910	 1492372490	 872521748	 161998.
19:54:51  910 911	 1492372491	 38470898	 165949.
19:54:51  911 912	 1492372491	 200280700	 161810.
19:54:51  912 913	 1492372491	 337554631	 137273.
19:54:51  913 914	 1492372491	 499340337	 161786.
19:54:51  914 915	 1492372491	 665411634	 166071.
19:54:51  915 916	 1492372491	 827103920	 161693.
19:54:51  916 917	 1492372491	 993038297	 165934.
19:54:52  917 918	 1492372492	 154771021	 161733.
19:54:52  918 919	 1492372492	 291885075	 137114.
19:54:52  919 920	 1492372492	 453978409	 162093.
19:54:52  920 921	 1492372492	 615802734	 161825.
19:54:52  921 922	 1492372492	 777604370	 161801.
19:54:52  922 923	 1492372492	 943744505	 166140.
19:54:53  923 924	 1492372493	 105641569	 161897.
19:54:53  924 925	 1492372493	 271669461	 166028.
19:54:53  925 926	 1492372493	 433557047	 161888.
19:54:53  926 927	 1492372493	 566681368	 133124.
19:54:53  927 928	 1492372493	 725235192	 158554.
19:54:53  928 929	 1492372493	 891218282	 165983.
19:54:54  929 930	 1492372494	 53379334	 162161.
19:54:54  930 931	 1492372494	 215252375	 161873.
19:54:54  931 932	 1492372494	 376944113	 161692.
19:54:54  932 933	 1492372494	 542947351	 166003.
19:54:54  933 934	 1492372494	 704921363	 161974.
19:54:54  934 935	 1492372494	 870910722	 165989.
19:54:54  935 936	 1492372495	 3873948	 132964.
19:54:55  936 937	 1492372495	 169784927	 165911.
19:54:55  937 938	 1492372495	 331791825	 162007.
19:54:55  938 939	 1492372495	 497531766	 165740.
19:54:55  939 940	 1492372495	 659308661	 161776.
19:54:55  940 941	 1492372495	 825422245	 166114.
19:54:55  941 942	 1492372495	 987245295	 161823.
19:54:56  942 943	 1492372496	 149369160	 162124.
19:54:56  943 944	 1492372496	 315304579	 165935.
19:54:56  944 945	 1492372496	 448452938	 133149.
19:54:56  945 946	 1492372496	 610601812	 162149.
19:54:56  946 947	 1492372496	 772403941	 161802.
19:54:56  947 948	 1492372496	 938362824	 165959.
19:54:57  948 949	 1492372497	 100042644	 161679.
19:54:57  949 950	 1492372497	 265931856	 165890.
19:54:57  950 951	 1492372497	 427934883	 162003.
19:54:57  951 952	 1492372497	 561096831	 133162.
19:54:57  952 953	 1492372497	 727203965	 166107.
19:54:57  953 954	 1492372497	 914572570	 187368.
19:54:58  954 955	 1492372498	 47792064	 133220.
19:54:58  955 956	 1492372498	 213713633	 165921.
19:54:58  956 957	 1492372498	 375531534	 161818.
19:54:58  957 958	 1492372498	 537468017	 161937.
19:54:58  958 959	 1492372498	 703308274	 165840.
19:54:58  959 960	 1492372498	 865042864	 161735.
19:54:58  960 961	 1492372499	 2204972	 137162.
19:54:59  961 962	 1492372499	 164011706	 161806.
19:54:59  962 963	 1492372499	 329927662	 165916.
19:54:59  963 964	 1492372499	 491669149	 161742.
19:54:59  964 965	 1492372499	 657674300	 166005.
19:54:59  965 966	 1492372499	 819618115	 161944.
19:54:59  966 967	 1492372499	 956912470	 137294.
19:55:00  967 968	 1492372500	 118742375	 161830.
19:55:00  968 969	 1492372500	 280534291	 161792.
19:55:00  969 970	 1492372500	 446525436	 165991.
19:55:00  970 971	 1492372500	 608468120	 161943.
19:55:00  971 972	 1492372500	 774461763	 165994.
19:55:00  972 973	 1492372500	 936446866	 161985.
19:55:01  973 974	 1492372501	 102498302	 166051.
19:55:01  974 975	 1492372501	 235654536	 133156.
19:55:01  975 976	 1492372501	 401581073	 165927.
19:55:01  976 977	 1492372501	 563517801	 161937.
19:55:01  977 978	 1492372501	 729432099	 165914.
19:55:01  978 979	 1492372501	 891292091	 161860.
19:55:02  979 980	 1492372502	 57434027	 166142.
19:55:02  980 981	 1492372502	 190698910	 133265.
19:55:02  981 982	 1492372502	 352767257	 162068.
19:55:02  982 983	 1492372502	 518833958	 166067.
19:55:02  983 984	 1492372502	 685571371	 166737.
19:55:02  984 985	 1492372502	 843397585	 157826.
19:55:03  985 986	 1492372503	 5597732	 162201.
19:55:03  986 987	 1492372503	 167771846	 162174.
19:55:03  987 988	 1492372503	 333850985	 166079.
19:55:03  988 989	 1492372503	 500342710	 166492.
19:55:03  989 990	 1492372503	 658363421	 158020.
19:55:03  990 991	 1492372503	 795883324	 137520.
19:55:03  991 992	 1492372503	 958222009	 162339.
19:55:04  992 993	 1492372504	 120137028	 161915.
19:55:04  993 994	 1492372504	 286496169	 166359.
19:55:04  994 995	 1492372504	 448784228	 162288.
19:55:04  995 996	 1492372504	 615173573	 166389.
19:55:04  996 997	 1492372504	 777253975	 162081.
19:55:04  997 998	 1492372504	 943531887	 166278.
19:55:05  998 999	 1492372505	 76780193	 133248.
19:55:05  999 1000	 1492372505	 239038475	 162258.
19:55:05 1000 1001	 1492372505	 405142892	 166105.
19:55:05 1001 1002	 1492372505	 571160552	 166017.
19:55:05 1002 1003	 1492372505	 737174727	 166015.
19:55:05 1003 1004	 1492372505	 899151454	 161976.
19:55:06 1004 1005	 1492372506	 65197082	 166046.
19:55:06 1005 1006	 1492372506	 198510599	 133313.
19:55:06 1006 1007	 1492372506	 360649816	 162140.
19:55:06 1007 1008	 1492372506	 522737412	 162087.
19:55:06 1008 1009	 1492372506	 688861374	 166124.
19:55:06 1009 1010	 1492372506	 850920580	 162060.
19:55:07 1010 1011	 1492372507	 17020493	 166099.
19:55:07 1011 1012	 1492372507	 178957398	 161937.
19:55:07 1012 1013	 1492372507	 344927637	 165970.
19:55:07 1013 1014	 1492372507	 478354311	 133427.
19:55:07 1014 1015	 1492372507	 644552190	 166198.
19:55:07 1015 1016	 1492372507	 806549673	 161997.
19:55:07 1016 1017	 1492372507	 972501053	 165952.
19:55:08 1017 1018	 1492372508	 127001845	 154501.
19:55:08 1018 1019	 1492372508	 293939081	 166937.
19:55:08 1019 1020	 1492372508	 452187405	 158248.
19:55:08 1020 1021	 1492372508	 614140811	 161954.
19:55:08 1021 1022	 1492372508	 780266810	 166126.
19:55:08 1022 1023	 1492372508	 942292291	 162025.
19:55:09 1023 1024	 1492372509	 79571264	 137279.
19:55:09 1024 1025	 1492372509	 241511534	 161940.
19:55:09 1025 1026	 1492372509	 407608496	 166097.
19:55:09 1026 1027	 1492372509	 569632599	 162024.
19:55:09 1027 1028	 1492372509	 735862646	 166230.
19:55:09 1028 1029	 1492372509	 897851181	 161989.
19:55:10 1029 1030	 1492372510	 63893927	 166043.
19:55:10 1030 1031	 1492372510	 197190136	 133296.
19:55:10 1031 1032	 1492372510	 363327965	 166138.
19:55:10 1032 1033	 1492372510	 525434580	 162106.
19:55:10 1033 1034	 1492372510	 684354585	 158920.
19:55:10 1034 1035	 1492372510	 846661818	 162308.
19:55:11 1035 1036	 1492372511	 12925957	 166264.
19:55:11 1036 1037	 1492372511	 174912935	 161987.
19:55:11 1037 1038	 1492372511	 341022749	 166110.
19:55:11 1038 1039	 1492372511	 503052597	 162029.
19:55:11 1039 1040	 1492372511	 669198207	 166146.
19:55:11 1040 1041	 1492372511	 802554473	 133356.
19:55:11 1041 1042	 1492372511	 968505969	 165952.
19:55:12 1042 1043	 1492372512	 130663870	 162158.
19:55:12 1043 1044	 1492372512	 289159947	 158496.
19:55:12 1044 1045	 1492372512	 455194823	 166035.
19:55:12 1045 1046	 1492372512	 613598318	 158403.
19:55:12 1046 1047	 1492372512	 779690456	 166092.
19:55:12 1047 1048	 1492372512	 942008277	 162318.
19:55:13 1048 1049	 1492372513	 108461199	 166453.
19:55:13 1049 1050	 1492372513	 270666279	 162205.
19:55:13 1050 1051	 1492372513	 404215362	 133549.
19:55:13 1051 1052	 1492372513	 570287755	 166073.
19:55:13 1052 1053	 1492372513	 732401742	 162114.
19:55:13 1053 1054	 1492372513	 898432520	 166030.
19:55:14 1054 1055	 1492372514	 53911125	 155479.
19:55:14 1055 1056	 1492372514	 215894581	 161983.
19:55:14 1056 1057	 1492372514	 381999641	 166105.
19:55:14 1057 1058	 1492372514	 544043534	 162044.
19:55:14 1058 1059	 1492372514	 710212306	 166169.
19:55:14 1059 1060	 1492372514	 876202801	 165991.
19:55:15 1060 1061	 1492372515	 9524427	 133321.
19:55:15 1061 1062	 1492372515	 171654535	 162130.
19:55:15 1062 1063	 1492372515	 337700803	 166047.
19:55:15 1063 1064	 1492372515	 503693565	 165992.
19:55:15 1064 1065	 1492372515	 665653404	 161960.
19:55:15 1065 1066	 1492372515	 827641971	 161989.
19:55:15 1066 1067	 1492372515	 993745073	 166103.
19:55:16 1067 1068	 1492372516	 127122282	 133377.
19:55:16 1068 1069	 1492372516	 293285866	 166164.
19:55:16 1069 1070	 1492372516	 455232224	 161946.
19:55:16 1070 1071	 1492372516	 621513502	 166281.
19:55:16 1071 1072	 1492372516	 783546399	 162033.
19:55:16 1072 1073	 1492372516	 949507725	 165962.
19:55:17 1073 1074	 1492372517	 111411000	 161903.
19:55:17 1074 1075	 1492372517	 273328547	 161917.
19:55:17 1075 1076	 1492372517	 410588409	 137260.
19:55:17 1076 1077	 1492372517	 572503371	 161915.
19:55:17 1077 1078	 1492372517	 738759371	 166256.
19:55:17 1078 1079	 1492372517	 900624318	 161865.
19:55:18 1079 1080	 1492372518	 66598967	 165975.
19:55:18 1080 1081	 1492372518	 228633052	 162034.
19:55:18 1081 1082	 1492372518	 394806485	 166173.
19:55:18 1082 1083	 1492372518	 556689595	 161883.
19:55:18 1083 1084	 1492372518	 693844184	 137155.
19:55:18 1084 1085	 1492372518	 855761742	 161918.
19:55:19 1085 1086	 1492372519	 21793218	 166031.
19:55:19 1086 1087	 1492372519	 183754889	 161962.
19:55:19 1087 1088	 1492372519	 349670466	 165915.
19:55:19 1088 1089	 1492372519	 511806146	 162136.
19:55:19 1089 1090	 1492372519	 673894475	 162088.
19:55:19 1090 1091	 1492372519	 839840038	 165946.
19:55:19 1091 1092	 1492372519	 972943106	 133103.
19:55:20 1092 1093	 1492372520	 139001746	 166059.
19:55:20 1093 1094	 1492372520	 301168112	 162166.
19:55:20 1094 1095	 1492372520	 463302487	 162134.
19:55:20 1095 1096	 1492372520	 629641359	 166339.
19:55:20 1096 1097	 1492372520	 791540244	 161899.
19:55:20 1097 1098	 1492372520	 957668917	 166129.
19:55:21 1098 1099	 1492372521	 123687834	 166019.
19:55:21 1099 1100	 1492372521	 256931610	 133243.
19:55:21 1100 1101	 1492372521	 418755365	 161824.
19:55:21 1101 1102	 1492372521	 584881085	 166126.
19:55:21 1102 1103	 1492372521	 746772556	 161891.
19:55:21 1103 1104	 1492372521	 912769782	 165998.
19:55:22 1104 1105	 1492372522	 74745198	 161975.
19:55:22 1105 1106	 1492372522	 240812483	 166067.
19:55:22 1106 1107	 1492372522	 373921753	 133110.
19:55:22 1107 1108	 1492372522	 539858243	 165936.
19:55:22 1108 1109	 1492372522	 701800795	 161943.
19:55:22 1109 1110	 1492372522	 867782128	 165981.
19:55:23 1110 1111	 1492372523	 29719123	 161937.
19:55:23 1111 1112	 1492372523	 191660360	 161941.
19:55:23 1112 1113	 1492372523	 357944449	 166284.
19:55:23 1113 1114	 1492372523	 519951598	 162007.
19:55:23 1114 1115	 1492372523	 686000200	 166049.
19:55:23 1115 1116	 1492372523	 819195922	 133196.
19:55:23 1116 1117	 1492372523	 985267735	 166072.
19:55:24 1117 1118	 1492372524	 147275238	 162007.
19:55:24 1118 1119	 1492372524	 313339649	 166064.
19:55:24 1119 1120	 1492372524	 475182652	 161843.
19:55:24 1120 1121	 1492372524	 641162991	 165981.
19:55:24 1121 1122	 1492372524	 774430037	 133267.
19:55:24 1122 1123	 1492372524	 940493509	 166063.
19:55:25 1123 1124	 1492372525	 102558044	 162065.
19:55:25 1124 1125	 1492372525	 264352474	 161794.
19:55:25 1125 1126	 1492372525	 430456973	 166105.
19:55:25 1126 1127	 1492372525	 592331648	 161874.
19:55:25 1127 1128	 1492372525	 758354527	 166023.
19:55:25 1128 1129	 1492372525	 920289357	 161935.
19:55:26 1129 1130	 1492372526	 57594112	 137305.
19:55:26 1130 1131	 1492372526	 219594993	 162001.
19:55:26 1131 1132	 1492372526	 381763980	 162169.
19:55:26 1132 1133	 1492372526	 543742760	 161979.
19:55:26 1133 1134	 1492372526	 709641691	 165899.
19:55:26 1134 1135	 1492372526	 871502510	 161860.
19:55:27 1135 1136	 1492372527	 37365405	 165863.
19:55:27 1136 1137	 1492372527	 170612825	 133248.
19:55:27 1137 1138	 1492372527	 336635629	 166022.
19:55:27 1138 1139	 1492372527	 498590845	 161956.
19:55:27 1139 1140	 1492372527	 664499093	 165908.
19:55:27 1140 1141	 1492372527	 826531536	 162032.
19:55:27 1141 1142	 1492372527	 992722506	 166191.
19:55:28 1142 1143	 1492372528	 154691351	 161969.
19:55:28 1143 1144	 1492372528	 320687845	 165997.
19:55:28 1144 1145	 1492372528	 454000851	 133313.
19:55:28 1145 1146	 1492372528	 616068331	 162067.
19:55:28 1146 1147	 1492372528	 782254469	 166186.
19:55:28 1147 1148	 1492372528	 944221066	 161967.
19:55:29 1148 1149	 1492372529	 106082309	 161861.
19:55:29 1149 1150	 1492372529	 272198153	 166116.
19:55:29 1150 1151	 1492372529	 434197328	 161999.
19:55:29 1151 1152	 1492372529	 600126362	 165929.
19:55:29 1152 1153	 1492372529	 762132132	 162006.
19:55:29 1153 1154	 1492372529	 899557283	 137425.
19:55:30 1154 1155	 1492372530	 61565897	 162009.
19:55:30 1155 1156	 1492372530	 227771638	 166206.
19:55:30 1156 1157	 1492372530	 389882343	 162110.
19:55:30 1157 1158	 1492372530	 556009583	 166127.
19:55:30 1158 1159	 1492372530	 718034557	 162025.
19:55:30 1159 1160	 1492372530	 884128768	 166095.
19:55:31 1160 1161	 1492372531	 46296129	 162167.
19:55:31 1161 1162	 1492372531	 179507826	 133212.
19:55:31 1162 1163	 1492372531	 345505851	 165998.
19:55:31 1163 1164	 1492372531	 507415471	 161909.
19:55:31 1164 1165	 1492372531	 669690066	 162275.
19:55:31 1165 1166	 1492372531	 835627404	 165937.
19:55:31 1166 1167	 1492372531	 997484746	 161858.
19:55:32 1167 1168	 1492372532	 163535812	 166051.
19:55:32 1168 1169	 1492372532	 296892620	 133357.
19:55:32 1169 1170	 1492372532	 462842885	 165950.
19:55:32 1170 1171	 1492372532	 625066906	 162224.
19:55:32 1171 1172	 1492372532	 791439857	 166373.
19:55:32 1172 1173	 1492372532	 953446403	 162006.
19:55:33 1173 1174	 1492372533	 115508341	 162062.
19:55:33 1174 1175	 1492372533	 277514048	 162006.
19:55:33 1175 1176	 1492372533	 443504463	 165990.
19:55:33 1176 1177	 1492372533	 605472927	 161969.
19:55:33 1177 1178	 1492372533	 738782191	 133309.
19:55:33 1178 1179	 1492372533	 904940887	 166159.
19:55:34 1179 1180	 1492372534	 66966713	 162025.
19:55:34 1180 1181	 1492372534	 233080558	 166114.
19:55:34 1181 1182	 1492372534	 399312103	 166232.
19:55:34 1182 1183	 1492372534	 561337195	 162025.
19:55:34 1183 1184	 1492372534	 727272213	 165935.
19:55:34 1184 1185	 1492372534	 860709027	 133437.
19:55:35 1185 1186	 1492372535	 26781367	 166072.
19:55:35 1186 1187	 1492372535	 189014485	 162233.
19:55:35 1187 1188	 1492372535	 351149889	 162136.
19:55:35 1188 1189	 1492372535	 517589604	 166439.
19:55:35 1189 1190	 1492372535	 683905572	 166316.
19:55:35 1190 1191	 1492372535	 842148276	 158243.
19:55:36 1191 1192	 1492372536	 8048426	 165900.
19:55:36 1192 1193	 1492372536	 141444643	 133396.
19:55:36 1193 1194	 1492372536	 303917379	 162473.
19:55:36 1194 1195	 1492372536	 465854377	 161937.
19:55:36 1195 1196	 1492372536	 631995380	 166141.
19:55:36 1196 1197	 1492372536	 793944273	 161949.
19:55:36 1197 1198	 1492372536	 959993457	 166049.
19:55:37 1198 1199	 1492372537	 121916802	 161924.
19:55:37 1199 1200	 1492372537	 284095135	 162178.
19:55:37 1200 1201	 1492372537	 450399945	 166305.
19:55:37 1201 1202	 1492372537	 583634295	 133234.
19:55:37 1202 1203	 1492372537	 749531026	 165897.
19:55:37 1203 1204	 1492372537	 911414102	 161883.
19:55:38 1204 1205	 1492372538	 77512377	 166098.
19:55:38 1205 1206	 1492372538	 239414160	 161902.
19:55:38 1206 1207	 1492372538	 405489599	 166075.
19:55:38 1207 1208	 1492372538	 567447340	 161958.
19:55:38 1208 1209	 1492372538	 729427334	 161980.
19:55:38 1209 1210	 1492372538	 866780865	 137354.
19:55:39 1210 1211	 1492372539	 28811890	 162031.
19:55:39 1211 1212	 1492372539	 194718931	 165907.
19:55:39 1212 1213	 1492372539	 356712842	 161994.
19:55:39 1213 1214	 1492372539	 522863935	 166151.
19:55:39 1214 1215	 1492372539	 684902075	 162038.
19:55:39 1215 1216	 1492372539	 850982324	 166080.
19:55:40 1216 1217	 1492372540	 13201013	 162219.
19:55:40 1217 1218	 1492372540	 146468836	 133268.
19:55:40 1218 1219	 1492372540	 312308363	 165839.
19:55:40 1219 1220	 1492372540	 478404151	 166096.
19:55:40 1220 1221	 1492372540	 640439572	 162035.
19:55:40 1221 1222	 1492372540	 802321825	 161883.
19:55:40 1222 1223	 1492372540	 968214838	 165893.
19:55:41 1223 1224	 1492372541	 101426865	 133212.
19:55:41 1224 1225	 1492372541	 263500335	 162073.
19:55:41 1225 1226	 1492372541	 429613967	 166114.
19:55:41 1226 1227	 1492372541	 591752637	 162138.
19:55:41 1227 1228	 1492372541	 757697374	 165945.
19:55:41 1228 1229	 1492372541	 919772973	 162076.
19:55:42 1229 1230	 1492372542	 78747268	 158974.
19:55:42 1230 1231	 1492372542	 240685730	 161939.
19:55:42 1231 1232	 1492372542	 406693351	 166007.
19:55:42 1232 1233	 1492372542	 568743112	 162050.
19:55:42 1233 1234	 1492372542	 702032955	 133290.
19:55:42 1234 1235	 1492372542	 867993099	 165960.
19:55:43 1235 1236	 1492372543	 29795819	 161803.
19:55:43 1236 1237	 1492372543	 195656045	 165860.
19:55:43 1237 1238	 1492372543	 357594600	 161938.
19:55:43 1238 1239	 1492372543	 523542743	 165949.
19:55:43 1239 1240	 1492372543	 685466050	 161923.
19:55:43 1240 1241	 1492372543	 822818155	 137352.
19:55:43 1241 1242	 1492372543	 984708115	 161890.
19:55:44 1242 1243	 1492372544	 150656777	 165949.
19:55:44 1243 1244	 1492372544	 312728474	 162071.
19:55:44 1244 1245	 1492372544	 479109021	 166381.
19:55:44 1245 1246	 1492372544	 641151779	 162043.
19:55:44 1246 1247	 1492372544	 803617063	 162465.
19:55:44 1247 1248	 1492372544	 965545600	 161928.
19:55:45 1248 1249	 1492372545	 131500357	 165955.
19:55:45 1249 1250	 1492372545	 264765899	 133266.
19:55:45 1250 1251	 1492372545	 452247458	 187481.
19:55:45 1251 1252	 1492372545	 585353741	 133107.
19:55:45 1252 1253	 1492372545	 751521666	 166167.
19:55:45 1253 1254	 1492372545	 913776437	 162255.
19:55:46 1254 1255	 1492372546	 80030620	 166254.
19:55:46 1255 1256	 1492372546	 242021980	 161992.
19:55:46 1256 1257	 1492372546	 407833246	 165811.
19:55:46 1257 1258	 1492372546	 569821383	 161988.
19:55:46 1258 1259	 1492372546	 703136034	 133315.
19:55:46 1259 1260	 1492372546	 869279955	 166144.
19:55:47 1260 1261	 1492372547	 32062426	 162782.
19:55:47 1261 1262	 1492372547	 194084842	 162023.
19:55:47 1262 1263	 1492372547	 355922336	 161837.
19:55:47 1263 1264	 1492372547	 521876349	 165954.
19:55:47 1264 1265	 1492372547	 683989433	 162113.
19:55:47 1265 1266	 1492372547	 846014321	 162025.
19:55:47 1266 1267	 1492372547	 983320862	 137307.
19:55:48 1267 1268	 1492372548	 145239608	 161918.
19:55:48 1268 1269	 1492372548	 307164990	 161926.
19:55:48 1269 1270	 1492372548	 473086278	 165921.
19:55:48 1270 1271	 1492372548	 635235247	 162149.
19:55:48 1271 1272	 1492372548	 797397675	 162162.
19:55:48 1272 1273	 1492372548	 963409802	 166013.
19:55:49 1273 1274	 1492372549	 125535360	 162125.
19:55:49 1274 1275	 1492372549	 262780128	 137245.
19:55:49 1275 1276	 1492372549	 446235536	 183455.
19:55:49 1276 1277	 1492372549	 583476983	 137242.
19:55:49 1277 1278	 1492372549	 745448374	 161971.
19:55:49 1278 1279	 1492372549	 911379966	 165932.
19:55:50 1279 1280	 1492372550	 73248799	 161869.
19:55:50 1280 1281	 1492372550	 235117466	 161868.
19:55:50 1281 1282	 1492372550	 400985171	 165868.
19:55:50 1282 1283	 1492372550	 534080955	 133096.
19:55:50 1283 1284	 1492372550	 700142518	 166061.
19:55:50 1284 1285	 1492372550	 862119244	 161977.
19:55:51 1285 1286	 1492372551	 28314014	 166195.
19:55:51 1286 1287	 1492372551	 190335634	 162021.
19:55:51 1287 1288	 1492372551	 356419226	 166084.
19:55:51 1288 1289	 1492372551	 518345273	 161926.
19:55:51 1289 1290	 1492372551	 684328223	 165983.
19:55:51 1290 1291	 1492372551	 817455872	 133128.
19:55:51 1291 1292	 1492372551	 983308282	 165852.
19:55:52 1292 1293	 1492372552	 145216850	 161909.
19:55:52 1293 1294	 1492372552	 311171010	 165954.
19:55:52 1294 1295	 1492372552	 473078792	 161908.
19:55:52 1295 1296	 1492372552	 635913530	 162834.
19:55:52 1296 1297	 1492372552	 793714012	 157801.
19:55:52 1297 1298	 1492372552	 959820924	 166107.
19:55:53 1298 1299	 1492372553	 93122253	 133301.
19:55:53 1299 1300	 1492372553	 259181762	 166060.
19:55:53 1300 1301	 1492372553	 421145912	 161964.
19:55:53 1301 1302	 1492372553	 587437054	 166291.
19:55:53 1302 1303	 1492372553	 749521597	 162084.
19:55:53 1303 1304	 1492372553	 915446363	 165925.
19:55:54 1304 1305	 1492372554	 77503964	 162058.
19:55:54 1305 1306	 1492372554	 243688561	 166184.
19:55:54 1306 1307	 1492372554	 376893375	 133205.
19:55:54 1307 1308	 1492372554	 539291054	 162398.
19:55:54 1308 1309	 1492372554	 701343927	 162053.
19:55:54 1309 1310	 1492372554	 867394953	 166051.
19:55:55 1310 1311	 1492372555	 29434061	 162039.
19:55:55 1311 1312	 1492372555	 195490271	 166056.
19:55:55 1312 1313	 1492372555	 357452275	 161962.
19:55:55 1313 1314	 1492372555	 523566881	 166115.
19:55:55 1314 1315	 1492372555	 656804085	 133237.
19:55:55 1315 1316	 1492372555	 822721180	 165917.
19:55:55 1316 1317	 1492372555	 981319350	 158598.
19:55:56 1317 1318	 1492372556	 143219034	 161900.
19:55:56 1318 1319	 1492372556	 309186439	 165967.
19:55:56 1319 1320	 1492372556	 471410450	 162224.
19:55:56 1320 1321	 1492372556	 633476971	 162067.
19:55:56 1321 1322	 1492372556	 799441543	 165964.
19:55:56 1322 1323	 1492372556	 961306535	 161865.
19:55:57 1323 1324	 1492372557	 94517935	 133212.
19:55:57 1324 1325	 1492372557	 260448386	 165930.
19:55:57 1325 1326	 1492372557	 422395253	 161947.
19:55:57 1326 1327	 1492372557	 588376531	 165981.
19:55:57 1327 1328	 1492372557	 747053011	 158677.
19:55:57 1328 1329	 1492372557	 913125862	 166073.
19:55:58 1329 1330	 1492372558	 71483799	 158358.
19:55:58 1330 1331	 1492372558	 237668984	 166185.
19:55:58 1331 1332	 1492372558	 399596943	 161928.
19:55:58 1332 1333	 1492372558	 565586163	 165989.
19:55:58 1333 1334	 1492372558	 698887332	 133301.
19:55:58 1334 1335	 1492372558	 864752500	 165865.
19:55:59 1335 1336	 1492372559	 30744826	 165993.
19:55:59 1336 1337	 1492372559	 192616604	 161871.
19:55:59 1337 1338	 1492372559	 354497034	 161881.
19:55:59 1338 1339	 1492372559	 520368094	 165871.
19:55:59 1339 1340	 1492372559	 682394475	 162026.
19:55:59 1340 1341	 1492372559	 815820482	 133426.
19:55:59 1341 1342	 1492372559	 981974565	 166154.
19:56:00 1342 1343	 1492372560	 144027772	 162054.
19:56:00 1343 1344	 1492372560	 306002827	 161975.
19:56:00 1344 1345	 1492372560	 472131589	 166128.
19:56:00 1345 1346	 1492372560	 638344619	 166213.
19:56:00 1346 1347	 1492372560	 800461728	 162118.
19:56:00 1347 1348	 1492372560	 962515825	 162054.
19:56:01 1348 1349	 1492372561	 128553988	 166038.
19:56:01 1349 1350	 1492372561	 261890703	 133336.
19:56:01 1350 1351	 1492372561	 427925840	 166036.
19:56:01 1351 1352	 1492372561	 590016413	 162090.
19:56:01 1352 1353	 1492372561	 756108290	 166092.
19:56:01 1353 1354	 1492372561	 918188653	 162080.
19:56:02 1354 1355	 1492372562	 84344719	 166156.
19:56:02 1355 1356	 1492372562	 246429606	 162085.
19:56:02 1356 1357	 1492372562	 379660704	 133231.
19:56:02 1357 1358	 1492372562	 545885127	 166225.
19:56:02 1358 1359	 1492372562	 707888396	 162003.
19:56:02 1359 1360	 1492372562	 873935710	 166048.
19:56:03 1360 1361	 1492372563	 36014538	 162078.
19:56:03 1361 1362	 1492372563	 202054117	 166040.
19:56:03 1362 1363	 1492372563	 364082926	 162029.
19:56:03 1363 1364	 1492372563	 526161690	 162079.
19:56:03 1364 1365	 1492372563	 663503463	 137341.
19:56:03 1365 1366	 1492372563	 825580045	 162077.
19:56:03 1366 1367	 1492372563	 993198534	 167618.
19:56:04 1367 1368	 1492372564	 147108340	 153910.
19:56:04 1368 1369	 1492372564	 309135363	 162027.
19:56:04 1369 1370	 1492372564	 471526165	 162391.
19:56:04 1370 1371	 1492372564	 633564741	 162039.
19:56:04 1371 1372	 1492372564	 799766097	 166201.
19:56:04 1372 1373	 1492372564	 961773672	 162007.
19:56:05 1373 1374	 1492372565	 124139742	 162367.
19:56:05 1374 1375	 1492372565	 286742455	 162602.
19:56:05 1375 1376	 1492372565	 420009316	 133267.
19:56:05 1376 1377	 1492372565	 586229083	 166220.
19:56:05 1377 1378	 1492372565	 748418167	 162189.
19:56:05 1378 1379	 1492372565	 914792112	 166374.
19:56:06 1379 1380	 1492372566	 77055384	 162263.
19:56:06 1380 1381	 1492372566	 239615649	 162561.
19:56:06 1381 1382	 1492372566	 401992393	 162376.
19:56:06 1382 1383	 1492372566	 563898068	 161906.
19:56:06 1383 1384	 1492372566	 729986261	 166088.
19:56:06 1384 1385	 1492372566	 892311177	 162325.
19:56:07 1385 1386	 1492372567	 29906557	 137595.
19:56:07 1386 1387	 1492372567	 192115840	 162210.
19:56:07 1387 1388	 1492372567	 354350542	 162234.
19:56:07 1388 1389	 1492372567	 516272320	 161922.
19:56:07 1389 1390	 1492372567	 682406028	 166134.
19:56:07 1390 1391	 1492372567	 844392360	 161986.
19:56:08 1391 1392	 1492372568	 10511720	 166120.
19:56:08 1392 1393	 1492372568	 172288342	 161776.
19:56:08 1393 1394	 1492372568	 309615773	 137327.
19:56:08 1394 1395	 1492372568	 471481628	 161866.
19:56:08 1395 1396	 1492372568	 637507061	 166026.
19:56:08 1396 1397	 1492372568	 799511003	 162004.
19:56:08 1397 1398	 1492372568	 965482353	 165971.
19:56:09 1398 1399	 1492372569	 127707850	 162226.
19:56:09 1399 1400	 1492372569	 290004399	 162296.
19:56:09 1400 1401	 1492372569	 423399591	 133395.
19:56:09 1401 1402	 1492372569	 589644517	 166245.
19:56:09 1402 1403	 1492372569	 755638385	 165994.
19:56:09 1403 1404	 1492372569	 917728224	 162090.
19:56:10 1404 1405	 1492372570	 83694166	 165966.
19:56:10 1405 1406	 1492372570	 245966196	 162272.
19:56:10 1406 1407	 1492372570	 407808381	 161842.
19:56:10 1407 1408	 1492372570	 569827125	 162019.
19:56:10 1408 1409	 1492372570	 731821310	 161994.
19:56:10 1409 1410	 1492372570	 869064083	 137243.
19:56:11 1410 1411	 1492372571	 34922700	 165858.
19:56:11 1411 1412	 1492372571	 196869012	 161947.
19:56:11 1412 1413	 1492372571	 363002779	 166134.
19:56:11 1413 1414	 1492372571	 524957086	 161954.
19:56:11 1414 1415	 1492372571	 690932253	 165975.
19:56:11 1415 1416	 1492372571	 852958790	 162027.
19:56:11 1416 1417	 1492372571	 986346496	 133387.
19:56:12 1417 1418	 1492372572	 152423960	 166078.
19:56:12 1418 1419	 1492372572	 314415286	 161991.
19:56:12 1419 1420	 1492372572	 480510735	 166096.
19:56:12 1420 1421	 1492372572	 642549301	 162038.
19:56:12 1421 1422	 1492372572	 808547863	 165999.
19:56:12 1422 1423	 1492372572	 941959372	 133411.
19:56:13 1423 1424	 1492372573	 107991300	 166032.
19:56:13 1424 1425	 1492372573	 273975661	 165984.
19:56:13 1425 1426	 1492372573	 435951804	 161977.
19:56:13 1426 1427	 1492372573	 601989340	 166037.
19:56:13 1427 1428	 1492372573	 763824275	 161835.
19:56:13 1428 1429	 1492372573	 900999340	 137175.
19:56:14 1429 1430	 1492372574	 63515805	 162517.
19:56:14 1430 1431	 1492372574	 221273250	 157757.
19:56:14 1431 1432	 1492372574	 383570933	 162298.
19:56:14 1432 1433	 1492372574	 549504903	 165934.
19:56:14 1433 1434	 1492372574	 711300713	 161795.
19:56:14 1434 1435	 1492372574	 873164332	 161864.
19:56:15 1435 1436	 1492372575	 39168043	 166004.
19:56:15 1436 1437	 1492372575	 172434157	 133266.
19:56:15 1437 1438	 1492372575	 338567571	 166133.
19:56:15 1438 1439	 1492372575	 497374917	 158808.
19:56:15 1439 1440	 1492372575	 659269782	 161894.
19:56:15 1440 1441	 1492372575	 825300955	 166032.
19:56:15 1441 1442	 1492372575	 987179922	 161879.
19:56:16 1442 1443	 1492372576	 153126481	 165946.
19:56:16 1443 1444	 1492372576	 315078935	 161953.
19:56:16 1444 1445	 1492372576	 481209732	 166131.
19:56:16 1445 1446	 1492372576	 639606116	 158396.
19:56:16 1446 1447	 1492372576	 805771420	 166165.
19:56:16 1447 1448	 1492372576	 939029173	 133258.
19:56:17 1448 1449	 1492372577	 100940097	 161911.
19:56:17 1449 1450	 1492372577	 266799644	 165859.
19:56:17 1450 1451	 1492372577	 428703994	 161905.
19:56:17 1451 1452	 1492372577	 594707272	 166003.
19:56:17 1452 1453	 1492372577	 756772413	 162065.
19:56:17 1453 1454	 1492372577	 918649687	 161877.
19:56:18 1454 1455	 1492372578	 84755066	 166106.
19:56:18 1455 1456	 1492372578	 218082775	 133328.
19:56:18 1456 1457	 1492372578	 384080641	 165997.
19:56:18 1457 1458	 1492372578	 545902283	 161822.
19:56:18 1458 1459	 1492372578	 711883366	 165981.
19:56:18 1459 1460	 1492372578	 873705452	 161822.
19:56:19 1460 1461	 1492372579	 39710173	 166005.
19:56:19 1461 1462	 1492372579	 201488260	 161778.
19:56:19 1462 1463	 1492372579	 334702423	 133214.
19:56:19 1463 1464	 1492372579	 500624211	 165922.
19:56:19 1464 1465	 1492372579	 662664837	 162041.
19:56:19 1465 1466	 1492372579	 824832319	 162167.
19:56:19 1466 1467	 1492372579	 990751686	 165919.
19:56:20 1467 1468	 1492372580	 152694443	 161943.
19:56:20 1468 1469	 1492372580	 318684448	 165990.
19:56:20 1469 1470	 1492372580	 480675568	 161991.
19:56:20 1470 1471	 1492372580	 639142802	 158468.
19:56:20 1471 1472	 1492372580	 776447554	 137304.
19:56:20 1472 1473	 1492372580	 938345756	 161899.
19:56:21 1473 1474	 1492372581	 104207152	 165861.
19:56:21 1474 1475	 1492372581	 262487804	 158281.
19:56:21 1475 1476	 1492372581	 425059348	 162571.
19:56:21 1476 1477	 1492372581	 587037681	 161978.
19:56:21 1477 1478	 1492372581	 749136631	 162099.
19:56:21 1478 1479	 1492372581	 915304642	 166168.
19:56:22 1479 1480	 1492372582	 77204537	 161900.
19:56:22 1480 1481	 1492372582	 243176857	 165973.
19:56:22 1481 1482	 1492372582	 376296388	 133119.
19:56:22 1482 1483	 1492372582	 538306364	 162010.
19:56:22 1483 1484	 1492372582	 700242420	 161936.
19:56:22 1484 1485	 1492372582	 866120326	 165878.
19:56:23 1485 1486	 1492372583	 28246937	 162127.
19:56:23 1486 1487	 1492372583	 190154232	 161907.
19:56:23 1487 1488	 1492372583	 356017436	 165863.
19:56:23 1488 1489	 1492372583	 489237460	 133220.
19:56:23 1489 1490	 1492372583	 651131911	 161895.
19:56:23 1490 1491	 1492372583	 817191275	 166059.
19:56:23 1491 1492	 1492372583	 979039787	 161849.
19:56:24 1492 1493	 1492372584	 141377110	 162337.
19:56:24 1493 1494	 1492372584	 303372842	 161996.
19:56:24 1494 1495	 1492372584	 469320337	 165947.
19:56:24 1495 1496	 1492372584	 631155954	 161836.
19:56:24 1496 1497	 1492372584	 764555988	 133400.
19:56:24 1497 1498	 1492372584	 930417102	 165861.
19:56:25 1498 1499	 1492372585	 92124994	 161708.
19:56:25 1499 1500	 1492372585	 258104647	 165980.
19:56:25 1500 1501	 1492372585	 416618599	 158513.
19:56:25 1501 1502	 1492372585	 579139934	 162522.
19:56:25 1502 1503	 1492372585	 740926570	 161786.
19:56:25 1503 1504	 1492372585	 902709955	 161784.
19:56:26 1504 1505	 1492372586	 64683683	 161973.
19:56:26 1505 1506	 1492372586	 201835820	 137153.
19:56:26 1506 1507	 1492372586	 364196153	 162360.
19:56:26 1507 1508	 1492372586	 522128133	 157932.
19:56:26 1508 1509	 1492372586	 688021902	 165894.
19:56:26 1509 1510	 1492372586	 853975110	 165953.
19:56:27 1510 1511	 1492372587	 15771236	 161796.
19:56:27 1511 1512	 1492372587	 181628649	 165857.
19:56:27 1512 1513	 1492372587	 343533865	 161906.
19:56:27 1513 1514	 1492372587	 476728687	 133195.
19:56:27 1514 1515	 1492372587	 642637975	 165909.
19:56:27 1515 1516	 1492372587	 804458870	 161821.
19:56:27 1516 1517	 1492372587	 970299057	 165840.
19:56:28 1517 1518	 1492372588	 132133816	 161835.
19:56:28 1518 1519	 1492372588	 298279946	 166146.
19:56:28 1519 1520	 1492372588	 431347792	 133068.
19:56:28 1520 1521	 1492372588	 597436676	 166088.
19:56:28 1521 1522	 1492372588	 759361562	 161925.
19:56:28 1522 1523	 1492372588	 921304633	 161943.
19:56:29 1523 1524	 1492372589	 87294521	 165990.
19:56:29 1524 1525	 1492372589	 249415479	 162121.
19:56:29 1525 1526	 1492372589	 411330927	 161916.
19:56:29 1526 1527	 1492372589	 548594608	 137263.
19:56:29 1527 1528	 1492372589	 710455181	 161861.
19:56:29 1528 1529	 1492372589	 876481574	 166026.
19:56:30 1529 1530	 1492372590	 38502622	 162021.
19:56:30 1530 1531	 1492372590	 200337566	 161835.
19:56:30 1531 1532	 1492372590	 366333854	 165997.
19:56:30 1532 1533	 1492372590	 532179588	 165845.
19:56:30 1533 1534	 1492372590	 665363440	 133184.
19:56:30 1534 1535	 1492372590	 827303357	 161940.
19:56:30 1535 1536	 1492372590	 993315136	 166012.
19:56:31 1536 1537	 1492372591	 159254115	 165939.
19:56:31 1537 1538	 1492372591	 321242117	 161988.
19:56:31 1538 1539	 1492372591	 487274431	 166032.
19:56:31 1539 1540	 1492372591	 649181998	 161908.
19:56:31 1540 1541	 1492372591	 815007135	 165825.
19:56:31 1541 1542	 1492372591	 948347716	 133341.
19:56:32 1542 1543	 1492372592	 114489479	 166141.
19:56:32 1543 1544	 1492372592	 276465955	 161977.
19:56:32 1544 1545	 1492372592	 442370010	 165904.
19:56:32 1545 1546	 1492372592	 604287356	 161917.
19:56:32 1546 1547	 1492372592	 770215541	 165928.
19:56:32 1547 1548	 1492372592	 903554159	 133339.
19:56:33 1548 1549	 1492372593	 65589002	 162035.
19:56:33 1549 1550	 1492372593	 231608046	 166019.
19:56:33 1550 1551	 1492372593	 397461870	 165854.
19:56:33 1551 1552	 1492372593	 559505313	 162043.
19:56:33 1552 1553	 1492372593	 725598538	 166093.
19:56:33 1553 1554	 1492372593	 887579471	 161981.
19:56:34 1554 1555	 1492372594	 24802207	 137223.
19:56:34 1555 1556	 1492372594	 186735166	 161933.
19:56:34 1556 1557	 1492372594	 352866444	 166131.
19:56:34 1557 1558	 1492372594	 514810158	 161944.
19:56:34 1558 1559	 1492372594	 680736510	 165926.
19:56:34 1559 1560	 1492372594	 842595043	 161859.
19:56:35 1560 1561	 1492372595	 8549245	 165954.
19:56:35 1561 1562	 1492372595	 141613223	 133064.
19:56:35 1562 1563	 1492372595	 303740671	 162127.
19:56:35 1563 1564	 1492372595	 469732018	 165992.
19:56:35 1564 1565	 1492372595	 631572710	 161840.
19:56:35 1565 1566	 1492372595	 797508782	 165937.
19:56:35 1566 1567	 1492372595	 959429404	 161920.
19:56:36 1567 1568	 1492372596	 125492244	 166063.
19:56:36 1568 1569	 1492372596	 258730275	 133238.
19:56:36 1569 1570	 1492372596	 424854643	 166124.
19:56:36 1570 1571	 1492372596	 586738241	 161884.
19:56:36 1571 1572	 1492372596	 752821185	 166083.
19:56:36 1572 1573	 1492372596	 919687112	 166866.
19:56:37 1573 1574	 1492372597	 77627383	 157940.
19:56:37 1574 1575	 1492372597	 239586323	 161959.
19:56:37 1575 1576	 1492372597	 405824992	 166239.
19:56:37 1576 1577	 1492372597	 567937349	 162112.
19:56:37 1577 1578	 1492372597	 701158354	 133221.
19:56:37 1578 1579	 1492372597	 867206390	 166048.
19:56:38 1579 1580	 1492372598	 29634796	 162429.
19:56:38 1580 1581	 1492372598	 191616023	 161981.
19:56:38 1581 1582	 1492372598	 354057379	 162441.
19:56:38 1582 1583	 1492372598	 519963871	 165907.
19:56:38 1583 1584	 1492372598	 682053167	 162089.
19:56:38 1584 1585	 1492372598	 848180309	 166127.
19:56:39 1585 1586	 1492372599	 10126780	 161947.
19:56:39 1586 1587	 1492372599	 147249855	 137123.
19:56:39 1587 1588	 1492372599	 334389963	 187140.
19:56:39 1588 1589	 1492372599	 467663083	 133273.
19:56:39 1589 1590	 1492372599	 633845578	 166182.
19:56:39 1590 1591	 1492372599	 795856354	 162011.
19:56:39 1591 1592	 1492372599	 961929285	 166073.
19:56:40 1592 1593	 1492372600	 123904359	 161975.
19:56:40 1593 1594	 1492372600	 290009136	 166105.
19:56:40 1594 1595	 1492372600	 451978353	 161969.
19:56:40 1595 1596	 1492372600	 589272508	 137294.
19:56:40 1596 1597	 1492372600	 751121050	 161849.
19:56:40 1597 1598	 1492372600	 917171286	 166050.
19:56:41 1598 1599	 1492372601	 79137555	 161966.
19:56:41 1599 1600	 1492372601	 245301573	 166164.
19:56:41 1600 1601	 1492372601	 407330758	 162030.
19:56:41 1601 1602	 1492372601	 573348532	 166017.
19:56:41 1602 1603	 1492372601	 706655985	 133308.
19:56:41 1603 1604	 1492372601	 869052592	 162396.
19:56:42 1604 1605	 1492372602	 35141189	 166089.
19:56:42 1605 1606	 1492372602	 197183277	 162042.
19:56:42 1606 1607	 1492372602	 363288932	 166106.
19:56:42 1607 1608	 1492372602	 525318622	 162030.
19:56:42 1608 1609	 1492372602	 691238402	 165919.
19:56:42 1609 1610	 1492372602	 853363771	 162126.
19:56:42 1610 1611	 1492372602	 990800292	 137436.
19:56:43 1611 1612	 1492372603	 149248289	 158448.
19:56:43 1612 1613	 1492372603	 315367822	 166120.
19:56:43 1613 1614	 1492372603	 473673963	 158306.
19:56:43 1614 1615	 1492372603	 639710863	 166037.
19:56:43 1615 1616	 1492372603	 805718264	 166007.
19:56:43 1616 1617	 1492372603	 967577256	 161859.
19:56:44 1617 1618	 1492372604	 133592880	 166016.
19:56:44 1618 1619	 1492372604	 266848408	 133255.
19:56:44 1619 1620	 1492372604	 432954836	 166107.
19:56:44 1620 1621	 1492372604	 595082329	 162127.
19:56:44 1621 1622	 1492372604	 761276879	 166195.
19:56:44 1622 1623	 1492372604	 923254050	 161977.
19:56:45 1623 1624	 1492372605	 89246468	 165992.
19:56:45 1624 1625	 1492372605	 251211126	 161965.
19:56:45 1625 1626	 1492372605	 417827443	 166616.
19:56:45 1626 1627	 1492372605	 579794986	 161968.
19:56:45 1627 1628	 1492372605	 712990200	 133195.
19:56:45 1628 1629	 1492372605	 878902305	 165912.
19:56:46 1629 1630	 1492372606	 40959464	 162057.
19:56:46 1630 1631	 1492372606	 206947477	 165988.
19:56:46 1631 1632	 1492372606	 368934149	 161987.
19:56:46 1632 1633	 1492372606	 534900129	 165966.
19:56:46 1633 1634	 1492372606	 668037759	 133138.
19:56:46 1634 1635	 1492372606	 834069847	 166032.
19:56:46 1635 1636	 1492372606	 996001731	 161932.
19:56:47 1636 1637	 1492372607	 162085550	 166083.
19:56:47 1637 1638	 1492372607	 328023706	 165938.
19:56:47 1638 1639	 1492372607	 490002594	 161979.
19:56:47 1639 1640	 1492372607	 656058862	 166057.
19:56:47 1640 1641	 1492372607	 789234227	 133175.
19:56:47 1641 1642	 1492372607	 955161579	 165928.
19:56:48 1642 1643	 1492372608	 117091263	 161929.
19:56:48 1643 1644	 1492372608	 283141983	 166051.
19:56:48 1644 1645	 1492372608	 445258984	 162117.
19:56:48 1645 1646	 1492372608	 611351787	 166093.
19:56:48 1646 1647	 1492372608	 773252593	 161900.
19:56:48 1647 1648	 1492372608	 906586048	 133334.
19:56:49 1648 1649	 1492372609	 72542571	 165956.
19:56:49 1649 1650	 1492372609	 238557745	 166016.
19:56:49 1650 1651	 1492372609	 400697968	 162140.
19:56:49 1651 1652	 1492372609	 566735291	 166037.
19:56:49 1652 1653	 1492372609	 728547906	 161813.
19:56:49 1653 1654	 1492372609	 894643868	 166096.
19:56:50 1654 1655	 1492372610	 56477533	 161833.
19:56:50 1655 1656	 1492372610	 189692465	 133215.
19:56:50 1656 1657	 1492372610	 355909066	 166217.
19:56:50 1657 1658	 1492372610	 517826407	 161917.
19:56:50 1658 1659	 1492372610	 679727285	 161901.
19:56:50 1659 1660	 1492372610	 845677712	 165951.
19:56:51 1660 1661	 1492372611	 7513510	 161835.
19:56:51 1661 1662	 1492372611	 169391777	 161879.
19:56:51 1662 1663	 1492372611	 306821957	 137430.
19:56:51 1663 1664	 1492372611	 468672289	 161850.
19:56:51 1664 1665	 1492372611	 634852821	 166181.
19:56:51 1665 1666	 1492372611	 796896333	 162043.
19:56:51 1666 1667	 1492372611	 963045695	 166149.
19:56:52 1667 1668	 1492372612	 124957738	 161913.
19:56:52 1668 1669	 1492372612	 290884239	 165926.
19:56:52 1669 1670	 1492372612	 452981391	 162097.
19:56:52 1670 1671	 1492372612	 586180184	 133199.
19:56:52 1671 1672	 1492372612	 748358619	 162178.
19:56:52 1672 1673	 1492372612	 914443461	 166085.
19:56:53 1673 1674	 1492372613	 76376012	 161933.
19:56:53 1674 1675	 1492372613	 242453930	 166078.
19:56:53 1675 1676	 1492372613	 404208313	 161754.
19:56:53 1676 1677	 1492372613	 570061509	 165853.
19:56:53 1677 1678	 1492372613	 732059430	 161998.
19:56:53 1678 1679	 1492372613	 894404868	 162346.
19:56:54 1679 1680	 1492372614	 27678713	 133273.
19:56:54 1680 1681	 1492372614	 189983140	 162305.
19:56:54 1681 1682	 1492372614	 351956952	 161974.
19:56:54 1682 1683	 1492372614	 513944687	 161987.
19:56:54 1683 1684	 1492372614	 679798207	 165854.
19:56:54 1684 1685	 1492372614	 841881997	 162084.
19:56:55 1685 1686	 1492372615	 8048088	 166166.
19:56:55 1686 1687	 1492372615	 170202989	 162155.
19:56:55 1687 1688	 1492372615	 307604013	 137401.
19:56:55 1688 1689	 1492372615	 469577729	 161974.
19:56:55 1689 1690	 1492372615	 635871453	 166293.
19:56:55 1690 1691	 1492372615	 797865766	 161995.
19:56:55 1691 1692	 1492372615	 964014720	 166149.
19:56:56 1692 1693	 1492372616	 130218533	 166203.
19:56:56 1693 1694	 1492372616	 292221158	 162003.
19:56:56 1694 1695	 1492372616	 425452894	 133232.
19:56:56 1695 1696	 1492372616	 591428124	 165975.
19:56:56 1696 1697	 1492372616	 753385958	 161958.
19:56:56 1697 1698	 1492372616	 911863282	 158477.
19:56:57 1698 1699	 1492372617	 77927679	 166064.
19:56:57 1699 1700	 1492372617	 239784090	 161857.
19:56:57 1700 1701	 1492372617	 405881334	 166097.
19:56:57 1701 1702	 1492372617	 567763371	 161882.
19:56:57 1702 1703	 1492372617	 733786473	 166023.
19:56:57 1703 1704	 1492372617	 867313270	 133527.
19:56:58 1704 1705	 1492372618	 33196240	 165883.
19:56:58 1705 1706	 1492372618	 195242279	 162046.
19:56:58 1706 1707	 1492372618	 361357924	 166116.
19:56:58 1707 1708	 1492372618	 523298394	 161940.
19:56:58 1708 1709	 1492372618	 689251486	 165953.
19:56:58 1709 1710	 1492372618	 851435761	 162185.
19:56:58 1710 1711	 1492372618	 988880669	 137444.
19:56:59 1711 1712	 1492372619	 150974727	 162095.
19:56:59 1712 1713	 1492372619	 317722574	 166747.
19:56:59 1713 1714	 1492372619	 475575445	 157853.
19:56:59 1714 1715	 1492372619	 641607144	 166032.
19:56:59 1715 1716	 1492372619	 803346375	 161739.
19:56:59 1716 1717	 1492372619	 969378206	 166032.
19:57:00 1717 1718	 1492372620	 131425767	 162048.
19:57:00 1718 1719	 1492372620	 293571981	 162146.
19:57:00 1719 1720	 1492372620	 431018713	 137446.
19:57:00 1720 1721	 1492372620	 593415987	 162398.
19:57:00 1721 1722	 1492372620	 755452776	 162037.
19:57:00 1722 1723	 1492372620	 921601277	 166148.
19:57:01 1723 1724	 1492372621	 83753814	 162153.
19:57:01 1724 1725	 1492372621	 249967152	 166213.
19:57:01 1725 1726	 1492372621	 412140990	 162174.
19:57:01 1726 1727	 1492372621	 578700020	 166559.
19:57:01 1727 1728	 1492372621	 740742250	 162042.
19:57:01 1728 1729	 1492372621	 877982208	 137240.
19:57:02 1729 1730	 1492372622	 39998989	 162017.
19:57:02 1730 1731	 1492372622	 206330632	 166331.
19:57:02 1731 1732	 1492372622	 368265272	 161935.
19:57:02 1732 1733	 1492372622	 530278903	 162014.
19:57:02 1733 1734	 1492372622	 696412079	 166133.
19:57:02 1734 1735	 1492372622	 858566242	 162154.
19:57:02 1735 1736	 1492372622	 995971464	 137405.
19:57:03 1736 1737	 1492372623	 157896219	 161925.
19:57:03 1737 1738	 1492372623	 324083104	 166187.
19:57:03 1738 1739	 1492372623	 486295645	 162212.
19:57:03 1739 1740	 1492372623	 648442476	 162147.
19:57:03 1740 1741	 1492372623	 814750540	 166308.
19:57:03 1741 1742	 1492372623	 977009564	 162259.
19:57:04 1742 1743	 1492372624	 139268899	 162260.
19:57:04 1743 1744	 1492372624	 305456973	 166188.
19:57:04 1744 1745	 1492372624	 439005723	 133549.
19:57:04 1745 1746	 1492372624	 605150392	 166144.
19:57:04 1746 1747	 1492372624	 767193433	 162043.
19:57:04 1747 1748	 1492372624	 929504581	 162311.
19:57:05 1748 1749	 1492372625	 88260199	 158756.
19:57:05 1749 1750	 1492372625	 254347328	 166087.
19:57:05 1750 1751	 1492372625	 416369216	 162022.
19:57:05 1751 1752	 1492372625	 582467518	 166098.
19:57:05 1752 1753	 1492372625	 740846230	 158379.
19:57:05 1753 1754	 1492372625	 903237618	 162391.
19:57:06 1754 1755	 1492372626	 65640310	 162403.
19:57:06 1755 1756	 1492372626	 202999002	 137359.
19:57:06 1756 1757	 1492372626	 368984334	 165985.
19:57:06 1757 1758	 1492372626	 531167006	 162183.
19:57:06 1758 1759	 1492372626	 693319362	 162152.
19:57:06 1759 1760	 1492372626	 859546520	 166227.
19:57:07 1760 1761	 1492372627	 25737839	 166192.
19:57:07 1761 1762	 1492372627	 187729432	 161991.
19:57:07 1762 1763	 1492372627	 346620813	 158892.
19:57:07 1763 1764	 1492372627	 513033453	 166412.
19:57:07 1764 1765	 1492372627	 646489469	 133456.
19:57:07 1765 1766	 1492372627	 808589195	 162100.
19:57:07 1766 1767	 1492372627	 974929150	 166340.
19:57:08 1767 1768	 1492372628	 133503618	 158574.
19:57:08 1768 1769	 1492372628	 295496695	 161993.
19:57:08 1769 1770	 1492372628	 458125662	 162629.
19:57:08 1770 1771	 1492372628	 624171659	 166046.
19:57:08 1771 1772	 1492372628	 786286992	 162116.
19:57:08 1772 1773	 1492372628	 952330820	 166044.
19:57:09 1773 1774	 1492372629	 111255787	 158925.
19:57:09 1774 1775	 1492372629	 273318903	 162063.
19:57:09 1775 1776	 1492372629	 410686187	 137367.
19:57:09 1776 1777	 1492372629	 572810055	 162124.
19:57:09 1777 1778	 1492372629	 738829635	 166019.
19:57:09 1778 1779	 1492372629	 901611723	 162782.
19:57:10 1779 1780	 1492372630	 59450491	 157839.
19:57:10 1780 1781	 1492372630	 225601977	 166152.
19:57:10 1781 1782	 1492372630	 387562401	 161960.
19:57:10 1782 1783	 1492372630	 553718975	 166157.
19:57:10 1783 1784	 1492372630	 715796107	 162077.
19:57:10 1784 1785	 1492372630	 853225677	 137429.
19:57:11 1785 1786	 1492372631	 15122237	 161897.
19:57:11 1786 1787	 1492372631	 181124067	 166002.
19:57:11 1787 1788	 1492372631	 343179024	 162055.
19:57:11 1788 1789	 1492372631	 509336186	 166157.
19:57:11 1789 1790	 1492372631	 671630616	 162294.
19:57:11 1790 1791	 1492372631	 837638830	 166009.
19:57:11 1791 1792	 1492372631	 971012469	 133373.
19:57:12 1792 1793	 1492372632	 137194722	 166182.
19:57:12 1793 1794	 1492372632	 299418584	 162224.
19:57:12 1794 1795	 1492372632	 465389117	 165971.
19:57:12 1795 1796	 1492372632	 627467211	 162078.
19:57:12 1796 1797	 1492372632	 793619313	 166152.
19:57:12 1797 1798	 1492372632	 956356689	 162737.
19:57:13 1798 1799	 1492372633	 114969829	 158614.
19:57:13 1799 1800	 1492372633	 277304157	 162334.
19:57:13 1800 1801	 1492372633	 439335494	 162031.
19:57:13 1801 1802	 1492372633	 576788054	 137453.
19:57:13 1802 1803	 1492372633	 739038780	 162251.
19:57:13 1803 1804	 1492372633	 900988073	 161949.
19:57:14 1804 1805	 1492372634	 67077720	 166089.
19:57:14 1805 1806	 1492372634	 229641455	 162564.
19:57:14 1806 1807	 1492372634	 391584638	 161943.
19:57:14 1807 1808	 1492372634	 553614842	 162031.
19:57:14 1808 1809	 1492372634	 719786762	 166172.
19:57:14 1809 1810	 1492372634	 881909049	 162122.
19:57:15 1810 1811	 1492372635	 19179189	 137270.
19:57:15 1811 1812	 1492372635	 181345087	 162166.
19:57:15 1812 1813	 1492372635	 340040081	 158695.
19:57:15 1813 1814	 1492372635	 506076670	 166036.
19:57:15 1814 1815	 1492372635	 668219389	 162143.
19:57:15 1815 1816	 1492372635	 834314455	 166095.
19:57:15 1816 1817	 1492372635	 996032127	 161718.
19:57:16 1817 1818	 1492372636	 161931058	 165899.
19:57:16 1818 1819	 1492372636	 323876656	 161945.
19:57:16 1819 1820	 1492372636	 461152132	 137276.
19:57:16 1820 1821	 1492372636	 623251457	 162099.
19:57:16 1821 1822	 1492372636	 785293198	 162042.
19:57:16 1822 1823	 1492372636	 951470933	 166178.
19:57:17 1823 1824	 1492372637	 113506640	 162035.
19:57:17 1824 1825	 1492372637	 279513879	 166008.
19:57:17 1825 1826	 1492372637	 441491291	 161977.
19:57:17 1826 1827	 1492372637	 578924198	 137433.
19:57:17 1827 1828	 1492372637	 740895638	 161971.
19:57:17 1828 1829	 1492372637	 903061590	 162166.
19:57:18 1829 1830	 1492372638	 69035919	 165975.
19:57:18 1830 1831	 1492372638	 231206521	 162170.
19:57:18 1831 1832	 1492372638	 393128450	 161922.
19:57:18 1832 1833	 1492372638	 559350330	 166222.
19:57:18 1833 1834	 1492372638	 721207751	 161858.
19:57:18 1834 1835	 1492372638	 854311155	 133103.
19:57:19 1835 1836	 1492372639	 20267377	 165956.
19:57:19 1836 1837	 1492372639	 182317334	 162050.
19:57:19 1837 1838	 1492372639	 348523280	 166206.
19:57:19 1838 1839	 1492372639	 510479221	 161956.
19:57:19 1839 1840	 1492372639	 676488490	 166009.
19:57:19 1840 1841	 1492372639	 838424929	 161937.
19:57:19 1841 1842	 1492372639	 975656392	 137231.
19:57:20 1842 1843	 1492372640	 137514667	 161858.
19:57:20 1843 1844	 1492372640	 303473487	 165959.
19:57:20 1844 1845	 1492372640	 465358345	 161885.
19:57:20 1845 1846	 1492372640	 631395008	 166037.
19:57:20 1846 1847	 1492372640	 793222759	 161828.
19:57:20 1847 1848	 1492372640	 959141104	 165918.
19:57:21 1848 1849	 1492372641	 92276658	 133135.
19:57:21 1849 1850	 1492372641	 258295980	 166020.
19:57:21 1850 1851	 1492372641	 420151332	 161855.
19:57:21 1851 1852	 1492372641	 586191256	 166040.
19:57:21 1852 1853	 1492372641	 748016794	 161826.
19:57:21 1853 1854	 1492372641	 913989717	 165973.
19:57:22 1854 1855	 1492372642	 76726050	 162736.
19:57:22 1855 1856	 1492372642	 234667855	 157942.
19:57:22 1856 1857	 1492372642	 396672611	 162005.
19:57:22 1857 1858	 1492372642	 534145290	 137472.
19:57:22 1858 1859	 1492372642	 696160054	 162015.
19:57:22 1859 1860	 1492372642	 862217645	 166058.
19:57:23 1860 1861	 1492372643	 24231950	 162014.
19:57:23 1861 1862	 1492372643	 190365967	 166134.
19:57:23 1862 1863	 1492372643	 352208521	 161842.
19:57:23 1863 1864	 1492372643	 518186517	 165978.
19:57:23 1864 1865	 1492372643	 651274081	 133088.
19:57:23 1865 1866	 1492372643	 817293297	 166019.
19:57:23 1866 1867	 1492372643	 979253340	 161960.
19:57:24 1867 1868	 1492372644	 145233714	 165981.
19:57:24 1868 1869	 1492372644	 311337965	 166104.
19:57:24 1869 1870	 1492372644	 473276483	 161938.
19:57:24 1870 1871	 1492372644	 635596421	 162320.
19:57:24 1871 1872	 1492372644	 801625955	 166030.
19:57:24 1872 1873	 1492372644	 934888758	 133262.
19:57:25 1873 1874	 1492372645	 96875253	 161987.
19:57:25 1874 1875	 1492372645	 262858106	 165983.
19:57:25 1875 1876	 1492372645	 424700332	 161842.
