\relax 
\providecommand\hyper@newdestlabel[2]{}
\providecommand\HyperFirstAtBeginDocument{\AtBeginDocument}
\HyperFirstAtBeginDocument{\ifx\hyper@anchor\@undefined
\global\let\oldcontentsline\contentsline
\gdef\contentsline#1#2#3#4{\oldcontentsline{#1}{#2}{#3}}
\global\let\oldnewlabel\newlabel
\gdef\newlabel#1#2{\newlabelxx{#1}#2}
\gdef\newlabelxx#1#2#3#4#5#6{\oldnewlabel{#1}{{#2}{#3}}}
\AtEndDocument{\ifx\hyper@anchor\@undefined
\let\contentsline\oldcontentsline
\let\newlabel\oldnewlabel
\fi}
\fi}
\global\let\hyper@last\relax 
\gdef\HyperFirstAtBeginDocument#1{#1}
\providecommand\HyField@AuxAddToFields[1]{}
\providecommand\HyField@AuxAddToCoFields[2]{}
\citation{claypool2013dragonfly}
\@writefile{toc}{\contentsline {section}{\numberline {1}Introduction}{1}{section.1}}
\@writefile{toc}{\contentsline {section}{\numberline {2}Previous Work}{1}{section.2}}
\@writefile{toc}{\contentsline {section}{\numberline {3}Experiment}{1}{section.3}}
\@writefile{toc}{\contentsline {subsection}{\numberline {3.1}Bounce: Measuring the CPU's Capacity}{1}{subsection.3.1}}
\@writefile{toc}{\contentsline {subsection}{\numberline {3.2}Ricochet: Measuring The CPU's Continuity}{1}{subsection.3.2}}
\@writefile{toc}{\contentsline {subsection}{\numberline {3.3}Experimental Setup}{1}{subsection.3.3}}
\bibdata{biblio.bib}
\@writefile{toc}{\contentsline {section}{\numberline {4}Results}{2}{section.4}}
\@writefile{toc}{\contentsline {subsection}{\numberline {4.1}CPU Capacity}{2}{subsection.4.1}}
\@writefile{lof}{\contentsline {figure}{\numberline {1}{\ignorespaces Capacity of balls in every trial\relax }}{2}{figure.caption.2}}
\providecommand*\caption@xref[2]{\@setref\relax\@undefined{#1}}
\newlabel{fig:fig1}{{1}{2}{Capacity of balls in every trial\relax }{figure.caption.2}{}}
\@writefile{toc}{\contentsline {subsection}{\numberline {4.2}CPU's Continuity}{2}{subsection.4.2}}
\@writefile{toc}{\contentsline {subsection}{\numberline {4.3}QoE Attempt: Finding the Outlier Average}{2}{subsection.4.3}}
\@writefile{toc}{\contentsline {section}{\numberline {5}Discussion}{2}{section.5}}
\@writefile{toc}{\contentsline {section}{\numberline {6}Conclusion}{2}{section.6}}
\newlabel{fig:2a}{{2a}{3}{Local VM: First Trial\relax }{figure.caption.3}{}}
\newlabel{sub@fig:2a}{{a}{3}{Local VM: First Trial\relax }{figure.caption.3}{}}
\newlabel{fig:2b}{{2b}{3}{Local VM: Middle Trial\relax }{figure.caption.3}{}}
\newlabel{sub@fig:2b}{{b}{3}{Local VM: Middle Trial\relax }{figure.caption.3}{}}
\newlabel{fig:2c}{{2c}{3}{Amazon t2.micro: First Trial\relax }{figure.caption.3}{}}
\newlabel{sub@fig:2c}{{c}{3}{Amazon t2.micro: First Trial\relax }{figure.caption.3}{}}
\newlabel{fig:2d}{{2d}{3}{Amazon t2.micro: Middle Trial\relax }{figure.caption.3}{}}
\newlabel{sub@fig:2d}{{d}{3}{Amazon t2.micro: Middle Trial\relax }{figure.caption.3}{}}
\newlabel{fig:2e}{{2e}{3}{Amazon t2.small: First Trial\relax }{figure.caption.3}{}}
\newlabel{sub@fig:2e}{{e}{3}{Amazon t2.small: First Trial\relax }{figure.caption.3}{}}
\newlabel{fig:2f}{{2f}{3}{amazon t2.small: Middle Trial\relax }{figure.caption.3}{}}
\newlabel{sub@fig:2f}{{f}{3}{amazon t2.small: Middle Trial\relax }{figure.caption.3}{}}
\newlabel{fig:2g}{{2g}{3}{Amazon m3.medium: First Trial\relax }{figure.caption.3}{}}
\newlabel{sub@fig:2g}{{g}{3}{Amazon m3.medium: First Trial\relax }{figure.caption.3}{}}
\newlabel{fig:2h}{{2h}{3}{Amazon m3.medium: Middle Trial\relax }{figure.caption.3}{}}
\newlabel{sub@fig:2h}{{h}{3}{Amazon m3.medium: Middle Trial\relax }{figure.caption.3}{}}
\@writefile{lof}{\contentsline {figure}{\numberline {2}{\ignorespaces Time series of the interframe time for select runs\relax }}{3}{figure.caption.3}}
\@writefile{lof}{\contentsline {figure}{\numberline {3}{\ignorespaces Average frames taking more than 40 ms per trial\relax }}{4}{figure.caption.4}}
\newlabel{fig:fig2}{{3}{4}{Average frames taking more than 40 ms per trial\relax }{figure.caption.4}{}}
\@writefile{lof}{\contentsline {figure}{\numberline {4}{\ignorespaces Average frames taking more than 50 ms per trial\relax }}{5}{figure.caption.5}}
\newlabel{fig:fig1}{{4}{5}{Average frames taking more than 50 ms per trial\relax }{figure.caption.5}{}}
\@writefile{lof}{\contentsline {figure}{\numberline {5}{\ignorespaces Average frames taking more than 60 ms per trial\relax }}{6}{figure.caption.6}}
\newlabel{fig:fig3}{{5}{6}{Average frames taking more than 60 ms per trial\relax }{figure.caption.6}{}}
